%!PS-Adobe-2.0 EPSF-2.0
%%Title: 25UE-download-110Mbps.eps
%%Creator: gnuplot 5.0 patchlevel 3
%%CreationDate: Thu Jun  2 09:48:02 2016
%%DocumentFonts: (atend)
%%BoundingBox: 50 50 770 302
%%EndComments
%%BeginProlog
/gnudict 256 dict def
gnudict begin
%
% The following true/false flags may be edited by hand if desired.
% The unit line width and grayscale image gamma correction may also be changed.
%
/Color true def
/Blacktext false def
/Solid false def
/Dashlength 3 def
/Landscape false def
/Level1 false def
/Level3 false def
/Rounded false def
/ClipToBoundingBox false def
/SuppressPDFMark false def
/TransparentPatterns false def
/gnulinewidth 15.000 def
/userlinewidth gnulinewidth def
/Gamma 1.0 def
/BackgroundColor {-1.000 -1.000 -1.000} def
%
/vshift -66 def
/dl1 {
  10.0 Dashlength userlinewidth gnulinewidth div mul mul mul
  Rounded { currentlinewidth 0.75 mul sub dup 0 le { pop 0.01 } if } if
} def
/dl2 {
  10.0 Dashlength userlinewidth gnulinewidth div mul mul mul
  Rounded { currentlinewidth 0.75 mul add } if
} def
/hpt_ 31.5 def
/vpt_ 31.5 def
/hpt hpt_ def
/vpt vpt_ def
/doclip {
  ClipToBoundingBox {
    newpath 50 50 moveto 770 50 lineto 770 302 lineto 50 302 lineto closepath
    clip
  } if
} def
%
% Gnuplot Prolog Version 5.1 (Oct 2015)
%
%/SuppressPDFMark true def
%
/M {moveto} bind def
/L {lineto} bind def
/R {rmoveto} bind def
/V {rlineto} bind def
/N {newpath moveto} bind def
/Z {closepath} bind def
/C {setrgbcolor} bind def
/f {rlineto fill} bind def
/g {setgray} bind def
/Gshow {show} def   % May be redefined later in the file to support UTF-8
/vpt2 vpt 2 mul def
/hpt2 hpt 2 mul def
/Lshow {currentpoint stroke M 0 vshift R 
	Blacktext {gsave 0 setgray textshow grestore} {textshow} ifelse} def
/Rshow {currentpoint stroke M dup stringwidth pop neg vshift R
	Blacktext {gsave 0 setgray textshow grestore} {textshow} ifelse} def
/Cshow {currentpoint stroke M dup stringwidth pop -2 div vshift R 
	Blacktext {gsave 0 setgray textshow grestore} {textshow} ifelse} def
/UP {dup vpt_ mul /vpt exch def hpt_ mul /hpt exch def
  /hpt2 hpt 2 mul def /vpt2 vpt 2 mul def} def
/DL {Color {setrgbcolor Solid {pop []} if 0 setdash}
 {pop pop pop 0 setgray Solid {pop []} if 0 setdash} ifelse} def
/BL {stroke userlinewidth 2 mul setlinewidth
	Rounded {1 setlinejoin 1 setlinecap} if} def
/AL {stroke userlinewidth 2 div setlinewidth
	Rounded {1 setlinejoin 1 setlinecap} if} def
/UL {dup gnulinewidth mul /userlinewidth exch def
	dup 1 lt {pop 1} if 10 mul /udl exch def} def
/PL {stroke userlinewidth setlinewidth
	Rounded {1 setlinejoin 1 setlinecap} if} def
3.8 setmiterlimit
% Classic Line colors (version 5.0)
/LCw {1 1 1} def
/LCb {0 0 0} def
/LCa {0 0 0} def
/LC0 {1 0 0} def
/LC1 {0 1 0} def
/LC2 {0 0 1} def
/LC3 {1 0 1} def
/LC4 {0 1 1} def
/LC5 {1 1 0} def
/LC6 {0 0 0} def
/LC7 {1 0.3 0} def
/LC8 {0.5 0.5 0.5} def
% Default dash patterns (version 5.0)
/LTB {BL [] LCb DL} def
/LTw {PL [] 1 setgray} def
/LTb {PL [] LCb DL} def
/LTa {AL [1 udl mul 2 udl mul] 0 setdash LCa setrgbcolor} def
/LT0 {PL [] LC0 DL} def
/LT1 {PL [2 dl1 3 dl2] LC1 DL} def
/LT2 {PL [1 dl1 1.5 dl2] LC2 DL} def
/LT3 {PL [6 dl1 2 dl2 1 dl1 2 dl2] LC3 DL} def
/LT4 {PL [1 dl1 2 dl2 6 dl1 2 dl2 1 dl1 2 dl2] LC4 DL} def
/LT5 {PL [4 dl1 2 dl2] LC5 DL} def
/LT6 {PL [1.5 dl1 1.5 dl2 1.5 dl1 1.5 dl2 1.5 dl1 6 dl2] LC6 DL} def
/LT7 {PL [3 dl1 3 dl2 1 dl1 3 dl2] LC7 DL} def
/LT8 {PL [2 dl1 2 dl2 2 dl1 6 dl2] LC8 DL} def
/SL {[] 0 setdash} def
/Pnt {stroke [] 0 setdash gsave 1 setlinecap M 0 0 V stroke grestore} def
/Dia {stroke [] 0 setdash 2 copy vpt add M
  hpt neg vpt neg V hpt vpt neg V
  hpt vpt V hpt neg vpt V closepath stroke
  Pnt} def
/Pls {stroke [] 0 setdash vpt sub M 0 vpt2 V
  currentpoint stroke M
  hpt neg vpt neg R hpt2 0 V stroke
 } def
/Box {stroke [] 0 setdash 2 copy exch hpt sub exch vpt add M
  0 vpt2 neg V hpt2 0 V 0 vpt2 V
  hpt2 neg 0 V closepath stroke
  Pnt} def
/Crs {stroke [] 0 setdash exch hpt sub exch vpt add M
  hpt2 vpt2 neg V currentpoint stroke M
  hpt2 neg 0 R hpt2 vpt2 V stroke} def
/TriU {stroke [] 0 setdash 2 copy vpt 1.12 mul add M
  hpt neg vpt -1.62 mul V
  hpt 2 mul 0 V
  hpt neg vpt 1.62 mul V closepath stroke
  Pnt} def
/Star {2 copy Pls Crs} def
/BoxF {stroke [] 0 setdash exch hpt sub exch vpt add M
  0 vpt2 neg V hpt2 0 V 0 vpt2 V
  hpt2 neg 0 V closepath fill} def
/TriUF {stroke [] 0 setdash vpt 1.12 mul add M
  hpt neg vpt -1.62 mul V
  hpt 2 mul 0 V
  hpt neg vpt 1.62 mul V closepath fill} def
/TriD {stroke [] 0 setdash 2 copy vpt 1.12 mul sub M
  hpt neg vpt 1.62 mul V
  hpt 2 mul 0 V
  hpt neg vpt -1.62 mul V closepath stroke
  Pnt} def
/TriDF {stroke [] 0 setdash vpt 1.12 mul sub M
  hpt neg vpt 1.62 mul V
  hpt 2 mul 0 V
  hpt neg vpt -1.62 mul V closepath fill} def
/DiaF {stroke [] 0 setdash vpt add M
  hpt neg vpt neg V hpt vpt neg V
  hpt vpt V hpt neg vpt V closepath fill} def
/Pent {stroke [] 0 setdash 2 copy gsave
  translate 0 hpt M 4 {72 rotate 0 hpt L} repeat
  closepath stroke grestore Pnt} def
/PentF {stroke [] 0 setdash gsave
  translate 0 hpt M 4 {72 rotate 0 hpt L} repeat
  closepath fill grestore} def
/Circle {stroke [] 0 setdash 2 copy
  hpt 0 360 arc stroke Pnt} def
/CircleF {stroke [] 0 setdash hpt 0 360 arc fill} def
/C0 {BL [] 0 setdash 2 copy moveto vpt 90 450 arc} bind def
/C1 {BL [] 0 setdash 2 copy moveto
	2 copy vpt 0 90 arc closepath fill
	vpt 0 360 arc closepath} bind def
/C2 {BL [] 0 setdash 2 copy moveto
	2 copy vpt 90 180 arc closepath fill
	vpt 0 360 arc closepath} bind def
/C3 {BL [] 0 setdash 2 copy moveto
	2 copy vpt 0 180 arc closepath fill
	vpt 0 360 arc closepath} bind def
/C4 {BL [] 0 setdash 2 copy moveto
	2 copy vpt 180 270 arc closepath fill
	vpt 0 360 arc closepath} bind def
/C5 {BL [] 0 setdash 2 copy moveto
	2 copy vpt 0 90 arc
	2 copy moveto
	2 copy vpt 180 270 arc closepath fill
	vpt 0 360 arc} bind def
/C6 {BL [] 0 setdash 2 copy moveto
	2 copy vpt 90 270 arc closepath fill
	vpt 0 360 arc closepath} bind def
/C7 {BL [] 0 setdash 2 copy moveto
	2 copy vpt 0 270 arc closepath fill
	vpt 0 360 arc closepath} bind def
/C8 {BL [] 0 setdash 2 copy moveto
	2 copy vpt 270 360 arc closepath fill
	vpt 0 360 arc closepath} bind def
/C9 {BL [] 0 setdash 2 copy moveto
	2 copy vpt 270 450 arc closepath fill
	vpt 0 360 arc closepath} bind def
/C10 {BL [] 0 setdash 2 copy 2 copy moveto vpt 270 360 arc closepath fill
	2 copy moveto
	2 copy vpt 90 180 arc closepath fill
	vpt 0 360 arc closepath} bind def
/C11 {BL [] 0 setdash 2 copy moveto
	2 copy vpt 0 180 arc closepath fill
	2 copy moveto
	2 copy vpt 270 360 arc closepath fill
	vpt 0 360 arc closepath} bind def
/C12 {BL [] 0 setdash 2 copy moveto
	2 copy vpt 180 360 arc closepath fill
	vpt 0 360 arc closepath} bind def
/C13 {BL [] 0 setdash 2 copy moveto
	2 copy vpt 0 90 arc closepath fill
	2 copy moveto
	2 copy vpt 180 360 arc closepath fill
	vpt 0 360 arc closepath} bind def
/C14 {BL [] 0 setdash 2 copy moveto
	2 copy vpt 90 360 arc closepath fill
	vpt 0 360 arc} bind def
/C15 {BL [] 0 setdash 2 copy vpt 0 360 arc closepath fill
	vpt 0 360 arc closepath} bind def
/Rec {newpath 4 2 roll moveto 1 index 0 rlineto 0 exch rlineto
	neg 0 rlineto closepath} bind def
/Square {dup Rec} bind def
/Bsquare {vpt sub exch vpt sub exch vpt2 Square} bind def
/S0 {BL [] 0 setdash 2 copy moveto 0 vpt rlineto BL Bsquare} bind def
/S1 {BL [] 0 setdash 2 copy vpt Square fill Bsquare} bind def
/S2 {BL [] 0 setdash 2 copy exch vpt sub exch vpt Square fill Bsquare} bind def
/S3 {BL [] 0 setdash 2 copy exch vpt sub exch vpt2 vpt Rec fill Bsquare} bind def
/S4 {BL [] 0 setdash 2 copy exch vpt sub exch vpt sub vpt Square fill Bsquare} bind def
/S5 {BL [] 0 setdash 2 copy 2 copy vpt Square fill
	exch vpt sub exch vpt sub vpt Square fill Bsquare} bind def
/S6 {BL [] 0 setdash 2 copy exch vpt sub exch vpt sub vpt vpt2 Rec fill Bsquare} bind def
/S7 {BL [] 0 setdash 2 copy exch vpt sub exch vpt sub vpt vpt2 Rec fill
	2 copy vpt Square fill Bsquare} bind def
/S8 {BL [] 0 setdash 2 copy vpt sub vpt Square fill Bsquare} bind def
/S9 {BL [] 0 setdash 2 copy vpt sub vpt vpt2 Rec fill Bsquare} bind def
/S10 {BL [] 0 setdash 2 copy vpt sub vpt Square fill 2 copy exch vpt sub exch vpt Square fill
	Bsquare} bind def
/S11 {BL [] 0 setdash 2 copy vpt sub vpt Square fill 2 copy exch vpt sub exch vpt2 vpt Rec fill
	Bsquare} bind def
/S12 {BL [] 0 setdash 2 copy exch vpt sub exch vpt sub vpt2 vpt Rec fill Bsquare} bind def
/S13 {BL [] 0 setdash 2 copy exch vpt sub exch vpt sub vpt2 vpt Rec fill
	2 copy vpt Square fill Bsquare} bind def
/S14 {BL [] 0 setdash 2 copy exch vpt sub exch vpt sub vpt2 vpt Rec fill
	2 copy exch vpt sub exch vpt Square fill Bsquare} bind def
/S15 {BL [] 0 setdash 2 copy Bsquare fill Bsquare} bind def
/D0 {gsave translate 45 rotate 0 0 S0 stroke grestore} bind def
/D1 {gsave translate 45 rotate 0 0 S1 stroke grestore} bind def
/D2 {gsave translate 45 rotate 0 0 S2 stroke grestore} bind def
/D3 {gsave translate 45 rotate 0 0 S3 stroke grestore} bind def
/D4 {gsave translate 45 rotate 0 0 S4 stroke grestore} bind def
/D5 {gsave translate 45 rotate 0 0 S5 stroke grestore} bind def
/D6 {gsave translate 45 rotate 0 0 S6 stroke grestore} bind def
/D7 {gsave translate 45 rotate 0 0 S7 stroke grestore} bind def
/D8 {gsave translate 45 rotate 0 0 S8 stroke grestore} bind def
/D9 {gsave translate 45 rotate 0 0 S9 stroke grestore} bind def
/D10 {gsave translate 45 rotate 0 0 S10 stroke grestore} bind def
/D11 {gsave translate 45 rotate 0 0 S11 stroke grestore} bind def
/D12 {gsave translate 45 rotate 0 0 S12 stroke grestore} bind def
/D13 {gsave translate 45 rotate 0 0 S13 stroke grestore} bind def
/D14 {gsave translate 45 rotate 0 0 S14 stroke grestore} bind def
/D15 {gsave translate 45 rotate 0 0 S15 stroke grestore} bind def
/DiaE {stroke [] 0 setdash vpt add M
  hpt neg vpt neg V hpt vpt neg V
  hpt vpt V hpt neg vpt V closepath stroke} def
/BoxE {stroke [] 0 setdash exch hpt sub exch vpt add M
  0 vpt2 neg V hpt2 0 V 0 vpt2 V
  hpt2 neg 0 V closepath stroke} def
/TriUE {stroke [] 0 setdash vpt 1.12 mul add M
  hpt neg vpt -1.62 mul V
  hpt 2 mul 0 V
  hpt neg vpt 1.62 mul V closepath stroke} def
/TriDE {stroke [] 0 setdash vpt 1.12 mul sub M
  hpt neg vpt 1.62 mul V
  hpt 2 mul 0 V
  hpt neg vpt -1.62 mul V closepath stroke} def
/PentE {stroke [] 0 setdash gsave
  translate 0 hpt M 4 {72 rotate 0 hpt L} repeat
  closepath stroke grestore} def
/CircE {stroke [] 0 setdash 
  hpt 0 360 arc stroke} def
/Opaque {gsave closepath 1 setgray fill grestore 0 setgray closepath} def
/DiaW {stroke [] 0 setdash vpt add M
  hpt neg vpt neg V hpt vpt neg V
  hpt vpt V hpt neg vpt V Opaque stroke} def
/BoxW {stroke [] 0 setdash exch hpt sub exch vpt add M
  0 vpt2 neg V hpt2 0 V 0 vpt2 V
  hpt2 neg 0 V Opaque stroke} def
/TriUW {stroke [] 0 setdash vpt 1.12 mul add M
  hpt neg vpt -1.62 mul V
  hpt 2 mul 0 V
  hpt neg vpt 1.62 mul V Opaque stroke} def
/TriDW {stroke [] 0 setdash vpt 1.12 mul sub M
  hpt neg vpt 1.62 mul V
  hpt 2 mul 0 V
  hpt neg vpt -1.62 mul V Opaque stroke} def
/PentW {stroke [] 0 setdash gsave
  translate 0 hpt M 4 {72 rotate 0 hpt L} repeat
  Opaque stroke grestore} def
/CircW {stroke [] 0 setdash 
  hpt 0 360 arc Opaque stroke} def
/BoxFill {gsave Rec 1 setgray fill grestore} def
/Density {
  /Fillden exch def
  currentrgbcolor
  /ColB exch def /ColG exch def /ColR exch def
  /ColR ColR Fillden mul Fillden sub 1 add def
  /ColG ColG Fillden mul Fillden sub 1 add def
  /ColB ColB Fillden mul Fillden sub 1 add def
  ColR ColG ColB setrgbcolor} def
/BoxColFill {gsave Rec PolyFill} def
/PolyFill {gsave Density fill grestore grestore} def
/h {rlineto rlineto rlineto gsave closepath fill grestore} bind def
%
% PostScript Level 1 Pattern Fill routine for rectangles
% Usage: x y w h s a XX PatternFill
%	x,y = lower left corner of box to be filled
%	w,h = width and height of box
%	  a = angle in degrees between lines and x-axis
%	 XX = 0/1 for no/yes cross-hatch
%
/PatternFill {gsave /PFa [ 9 2 roll ] def
  PFa 0 get PFa 2 get 2 div add PFa 1 get PFa 3 get 2 div add translate
  PFa 2 get -2 div PFa 3 get -2 div PFa 2 get PFa 3 get Rec
  TransparentPatterns {} {gsave 1 setgray fill grestore} ifelse
  clip
  currentlinewidth 0.5 mul setlinewidth
  /PFs PFa 2 get dup mul PFa 3 get dup mul add sqrt def
  0 0 M PFa 5 get rotate PFs -2 div dup translate
  0 1 PFs PFa 4 get div 1 add floor cvi
	{PFa 4 get mul 0 M 0 PFs V} for
  0 PFa 6 get ne {
	0 1 PFs PFa 4 get div 1 add floor cvi
	{PFa 4 get mul 0 2 1 roll M PFs 0 V} for
 } if
  stroke grestore} def
%
/languagelevel where
 {pop languagelevel} {1} ifelse
dup 2 lt
	{/InterpretLevel1 true def
	 /InterpretLevel3 false def}
	{/InterpretLevel1 Level1 def
	 2 gt
	    {/InterpretLevel3 Level3 def}
	    {/InterpretLevel3 false def}
	 ifelse }
 ifelse
%
% PostScript level 2 pattern fill definitions
%
/Level2PatternFill {
/Tile8x8 {/PaintType 2 /PatternType 1 /TilingType 1 /BBox [0 0 8 8] /XStep 8 /YStep 8}
	bind def
/KeepColor {currentrgbcolor [/Pattern /DeviceRGB] setcolorspace} bind def
<< Tile8x8
 /PaintProc {0.5 setlinewidth pop 0 0 M 8 8 L 0 8 M 8 0 L stroke} 
>> matrix makepattern
/Pat1 exch def
<< Tile8x8
 /PaintProc {0.5 setlinewidth pop 0 0 M 8 8 L 0 8 M 8 0 L stroke
	0 4 M 4 8 L 8 4 L 4 0 L 0 4 L stroke}
>> matrix makepattern
/Pat2 exch def
<< Tile8x8
 /PaintProc {0.5 setlinewidth pop 0 0 M 0 8 L
	8 8 L 8 0 L 0 0 L fill}
>> matrix makepattern
/Pat3 exch def
<< Tile8x8
 /PaintProc {0.5 setlinewidth pop -4 8 M 8 -4 L
	0 12 M 12 0 L stroke}
>> matrix makepattern
/Pat4 exch def
<< Tile8x8
 /PaintProc {0.5 setlinewidth pop -4 0 M 8 12 L
	0 -4 M 12 8 L stroke}
>> matrix makepattern
/Pat5 exch def
<< Tile8x8
 /PaintProc {0.5 setlinewidth pop -2 8 M 4 -4 L
	0 12 M 8 -4 L 4 12 M 10 0 L stroke}
>> matrix makepattern
/Pat6 exch def
<< Tile8x8
 /PaintProc {0.5 setlinewidth pop -2 0 M 4 12 L
	0 -4 M 8 12 L 4 -4 M 10 8 L stroke}
>> matrix makepattern
/Pat7 exch def
<< Tile8x8
 /PaintProc {0.5 setlinewidth pop 8 -2 M -4 4 L
	12 0 M -4 8 L 12 4 M 0 10 L stroke}
>> matrix makepattern
/Pat8 exch def
<< Tile8x8
 /PaintProc {0.5 setlinewidth pop 0 -2 M 12 4 L
	-4 0 M 12 8 L -4 4 M 8 10 L stroke}
>> matrix makepattern
/Pat9 exch def
/Pattern1 {PatternBgnd KeepColor Pat1 setpattern} bind def
/Pattern2 {PatternBgnd KeepColor Pat2 setpattern} bind def
/Pattern3 {PatternBgnd KeepColor Pat3 setpattern} bind def
/Pattern4 {PatternBgnd KeepColor Landscape {Pat5} {Pat4} ifelse setpattern} bind def
/Pattern5 {PatternBgnd KeepColor Landscape {Pat4} {Pat5} ifelse setpattern} bind def
/Pattern6 {PatternBgnd KeepColor Landscape {Pat9} {Pat6} ifelse setpattern} bind def
/Pattern7 {PatternBgnd KeepColor Landscape {Pat8} {Pat7} ifelse setpattern} bind def
} def
%
%
%End of PostScript Level 2 code
%
/PatternBgnd {
  TransparentPatterns {} {gsave 1 setgray fill grestore} ifelse
} def
%
% Substitute for Level 2 pattern fill codes with
% grayscale if Level 2 support is not selected.
%
/Level1PatternFill {
/Pattern1 {0.250 Density} bind def
/Pattern2 {0.500 Density} bind def
/Pattern3 {0.750 Density} bind def
/Pattern4 {0.125 Density} bind def
/Pattern5 {0.375 Density} bind def
/Pattern6 {0.625 Density} bind def
/Pattern7 {0.875 Density} bind def
} def
%
% Now test for support of Level 2 code
%
Level1 {Level1PatternFill} {Level2PatternFill} ifelse
%
/Symbol-Oblique /Symbol findfont [1 0 .167 1 0 0] makefont
dup length dict begin {1 index /FID eq {pop pop} {def} ifelse} forall
currentdict end definefont pop
%
/MFshow {
   { dup 5 get 3 ge
     { 5 get 3 eq {gsave} {grestore} ifelse }
     {dup dup 0 get findfont exch 1 get scalefont setfont
     [ currentpoint ] exch dup 2 get 0 exch R dup 5 get 2 ne {dup dup 6
     get exch 4 get {textshow} {stringwidth pop 0 R} ifelse }if dup 5 get 0 eq
     {dup 3 get {2 get neg 0 exch R pop} {pop aload pop M} ifelse} {dup 5
     get 1 eq {dup 2 get exch dup 3 get exch 6 get stringwidth pop -2 div
     dup 0 R} {dup 6 get stringwidth pop -2 div 0 R 6 get
     textshow 2 index {aload pop M neg 3 -1 roll neg R pop pop} {pop pop pop
     pop aload pop M} ifelse }ifelse }ifelse }
     ifelse }
   forall} def
/Gswidth {dup type /stringtype eq {stringwidth} {pop (n) stringwidth} ifelse} def
/MFwidth {0 exch { dup 5 get 3 ge { 5 get 3 eq { 0 } { pop } ifelse }
 {dup 3 get{dup dup 0 get findfont exch 1 get scalefont setfont
     6 get Gswidth pop add} {pop} ifelse} ifelse} forall} def
/MLshow { currentpoint stroke M
  0 exch R
  Blacktext {gsave 0 setgray MFshow grestore} {MFshow} ifelse } bind def
/MRshow { currentpoint stroke M
  exch dup MFwidth neg 3 -1 roll R
  Blacktext {gsave 0 setgray MFshow grestore} {MFshow} ifelse } bind def
/MCshow { currentpoint stroke M
  exch dup MFwidth -2 div 3 -1 roll R
  Blacktext {gsave 0 setgray MFshow grestore} {MFshow} ifelse } bind def
/XYsave    { [( ) 1 2 true false 3 ()] } bind def
/XYrestore { [( ) 1 2 true false 4 ()] } bind def
Level1 SuppressPDFMark or 
{} {
/SDict 10 dict def
systemdict /pdfmark known not {
  userdict /pdfmark systemdict /cleartomark get put
} if
SDict begin [
  /Title (25UE-download-110Mbps.eps)
  /Subject (gnuplot plot)
  /Creator (gnuplot 5.0 patchlevel 3)
  /Author (nat)
%  /Producer (gnuplot)
%  /Keywords ()
  /CreationDate (Thu Jun  2 09:48:02 2016)
  /DOCINFO pdfmark
end
} ifelse
%
% Support for boxed text - Ethan A Merritt May 2005
%
/InitTextBox { userdict /TBy2 3 -1 roll put userdict /TBx2 3 -1 roll put
           userdict /TBy1 3 -1 roll put userdict /TBx1 3 -1 roll put
	   /Boxing true def } def
/ExtendTextBox { Boxing
    { gsave dup false charpath pathbbox
      dup TBy2 gt {userdict /TBy2 3 -1 roll put} {pop} ifelse
      dup TBx2 gt {userdict /TBx2 3 -1 roll put} {pop} ifelse
      dup TBy1 lt {userdict /TBy1 3 -1 roll put} {pop} ifelse
      dup TBx1 lt {userdict /TBx1 3 -1 roll put} {pop} ifelse
      grestore } if } def
/PopTextBox { newpath TBx1 TBxmargin sub TBy1 TBymargin sub M
               TBx1 TBxmargin sub TBy2 TBymargin add L
	       TBx2 TBxmargin add TBy2 TBymargin add L
	       TBx2 TBxmargin add TBy1 TBymargin sub L closepath } def
/DrawTextBox { PopTextBox stroke /Boxing false def} def
/FillTextBox { gsave PopTextBox 1 1 1 setrgbcolor fill grestore /Boxing false def} def
0 0 0 0 InitTextBox
/TBxmargin 20 def
/TBymargin 20 def
/Boxing false def
/textshow { ExtendTextBox Gshow } def
%
% redundant definitions for compatibility with prologue.ps older than 5.0.2
/LTB {BL [] LCb DL} def
/LTb {PL [] LCb DL} def
end
%%EndProlog
%%Page: 1 1
gnudict begin
gsave
doclip
50 50 translate
0.050 0.050 scale
0 setgray
newpath
(Arial) findfont 200 scalefont setfont
BackgroundColor 0 lt 3 1 roll 0 lt exch 0 lt or or not {BackgroundColor C 1.000 0 0 14400.00 5040.00 BoxColFill} if
1.000 UL
LTb
0.00 0.00 0.00 C 0.500 UL
LTa
0.50 0.50 0.50 C 980 992 M
5859 0 V
stroke
1.000 UL
LTb
0.00 0.00 0.00 C 980 992 M
63 0 V
5796 0 R
-63 0 V
stroke
860 992 M
[ [(Arial) 200.0 0.0 true true 0 ( 50)]
] -66.7 MRshow
1.000 UL
LTb
0.00 0.00 0.00 C 0.500 UL
LTa
0.50 0.50 0.50 C 980 1854 M
5859 0 V
stroke
1.000 UL
LTb
0.00 0.00 0.00 C 980 1854 M
63 0 V
5796 0 R
-63 0 V
stroke
860 1854 M
[ [(Arial) 200.0 0.0 true true 0 ( 100)]
] -66.7 MRshow
1.000 UL
LTb
0.00 0.00 0.00 C 0.500 UL
LTa
0.50 0.50 0.50 C 980 2716 M
5859 0 V
stroke
1.000 UL
LTb
0.00 0.00 0.00 C 980 2716 M
63 0 V
5796 0 R
-63 0 V
stroke
860 2716 M
[ [(Arial) 200.0 0.0 true true 0 ( 150)]
] -66.7 MRshow
1.000 UL
LTb
0.00 0.00 0.00 C 0.500 UL
LTa
0.50 0.50 0.50 C 980 3577 M
5859 0 V
stroke
1.000 UL
LTb
0.00 0.00 0.00 C 980 3577 M
63 0 V
5796 0 R
-63 0 V
stroke
860 3577 M
[ [(Arial) 200.0 0.0 true true 0 ( 200)]
] -66.7 MRshow
1.000 UL
LTb
0.00 0.00 0.00 C 0.500 UL
LTa
0.50 0.50 0.50 C 980 4439 M
5859 0 V
stroke
1.000 UL
LTb
0.00 0.00 0.00 C 980 4439 M
63 0 V
5796 0 R
-63 0 V
stroke
860 4439 M
[ [(Arial) 200.0 0.0 true true 0 ( 250)]
] -66.7 MRshow
1.000 UL
LTb
0.00 0.00 0.00 C 0.500 UL
LTa
0.50 0.50 0.50 C 1273 820 M
0 3619 V
stroke
1.000 UL
LTb
0.00 0.00 0.00 C 1273 820 M
0 63 V
0 3556 R
0 -63 V
stroke
1273 620 M
[ [(Arial) 200.0 0.0 true true 0 (NewReno)]
] -66.7 MCshow
1.000 UL
LTb
0.00 0.00 0.00 C 0.500 UL
LTa
0.50 0.50 0.50 C 2152 820 M
0 3619 V
stroke
1.000 UL
LTb
0.00 0.00 0.00 C 2152 820 M
0 63 V
0 3556 R
0 -63 V
stroke
2152 620 M
[ [(Arial) 200.0 0.0 true true 0 (Cubic)]
] -66.7 MCshow
1.000 UL
LTb
0.00 0.00 0.00 C 0.500 UL
LTa
0.50 0.50 0.50 C 3031 820 M
0 3619 V
stroke
1.000 UL
LTb
0.00 0.00 0.00 C 3031 820 M
0 63 V
0 3556 R
0 -63 V
stroke
3031 620 M
[ [(Arial) 200.0 0.0 true true 0 (HighSpeed)]
] -66.7 MCshow
1.000 UL
LTb
0.00 0.00 0.00 C 0.500 UL
LTa
0.50 0.50 0.50 C 3910 820 M
0 3619 V
stroke
1.000 UL
LTb
0.00 0.00 0.00 C 3910 820 M
0 63 V
0 3556 R
0 -63 V
stroke
3910 620 M
[ [(Arial) 200.0 0.0 true true 0 (Westwood)]
] -66.7 MCshow
1.000 UL
LTb
0.00 0.00 0.00 C 0.500 UL
LTa
0.50 0.50 0.50 C 4788 820 M
0 3619 V
stroke
1.000 UL
LTb
0.00 0.00 0.00 C 4788 820 M
0 63 V
0 3556 R
0 -63 V
stroke
4788 620 M
[ [(Arial) 200.0 0.0 true true 0 (Hybla)]
] -66.7 MCshow
1.000 UL
LTb
0.00 0.00 0.00 C 0.500 UL
LTa
0.50 0.50 0.50 C 5667 820 M
0 3619 V
stroke
1.000 UL
LTb
0.00 0.00 0.00 C 5667 820 M
0 63 V
0 3556 R
0 -63 V
stroke
5667 620 M
[ [(Arial) 200.0 0.0 true true 0 (Vegas)]
] -66.7 MCshow
1.000 UL
LTb
0.00 0.00 0.00 C 0.500 UL
LTa
0.50 0.50 0.50 C 6546 820 M
0 3619 V
stroke
1.000 UL
LTb
0.00 0.00 0.00 C 6546 820 M
0 63 V
0 3556 R
0 -63 V
stroke
6546 620 M
[ [(Arial) 200.0 0.0 true true 0 (Scalable)]
] -66.7 MCshow
1.000 UL
LTb
0.00 0.00 0.00 C 1.000 UL
LTB
0.00 0.00 0.00 C 980 4439 M
980 820 L
5859 0 V
0 3619 R
-5859 0 R
1.000 UP
stroke
LTb
0.00 0.00 0.00 C LCb setrgbcolor
160 2629 M
currentpoint gsave translate -270 rotate 0 0 moveto
[ [(Arial) 200.0 0.0 true true 0 (RTT \(ms\))]
] -66.7 MCshow
grestore
LTb
LCb setrgbcolor
3909 320 M
[ [(Arial) 200.0 0.0 true true 0 (TCP)]
] -66.7 MCshow
LTb
LCb setrgbcolor
3909 4739 M
[ [(Arial) 200.0 0.0 true true 0 (a\) RTT)]
] -66.7 MCshow
% Begin plot #1
1.000 UL
LTb
0.60 0.60 0.00 C LCb setrgbcolor
2654 153 M
[ [(Arial) 180.0 0.0 true true 0 (olsr)]
] -60.0 MRshow
1.000 UL
LTb
0.60 0.60 0.00 C 2762 108 333 90 80 -45 0 PatternFill
2762 108 N
333 0 V
0 90 V
-333 0 V
0 -90 V
Z stroke
1.000 UL
LTb
0.60 0.60 0.00 C 1068 930 118 116 80 -45 0 PatternFill
1127 918 M
0 12 V
0 116 R
0 562 V
stroke
1068 930 N
118 0 V
0 116 V
-118 0 V
0 -116 V
Z stroke
1068 1608 M
118 0 V
1068 918 M
118 0 V
stroke
1947 934 118 241 80 -45 0 PatternFill
2006 920 M
0 14 V
0 241 R
0 516 V
stroke
1947 934 N
118 0 V
0 241 V
-118 0 V
0 -241 V
Z stroke
1947 1691 M
118 0 V
1947 920 M
118 0 V
stroke
2826 929 118 154 80 -45 0 PatternFill
2885 917 M
0 12 V
0 154 R
0 697 V
stroke
2826 929 N
118 0 V
0 154 V
-118 0 V
0 -154 V
Z stroke
2826 1780 M
118 0 V
2826 917 M
118 0 V
stroke
3704 934 118 136 80 -45 0 PatternFill
3763 920 M
0 14 V
0 136 R
0 469 V
stroke
3704 934 N
118 0 V
0 136 V
-118 0 V
0 -136 V
Z stroke
3704 1539 M
118 0 V
3704 920 M
118 0 V
stroke
4583 935 118 160 80 -45 0 PatternFill
4642 916 M
0 19 V
0 160 R
0 464 V
stroke
4583 935 N
118 0 V
0 160 V
-118 0 V
0 -160 V
Z stroke
4583 1559 M
118 0 V
4583 916 M
118 0 V
stroke
5462 963 118 104 80 -45 0 PatternFill
5521 948 M
0 15 V
0 104 R
0 184 V
stroke
5462 963 N
118 0 V
0 104 V
-118 0 V
0 -104 V
Z stroke
5462 1251 M
118 0 V
5462 948 M
118 0 V
stroke
6341 937 118 273 80 -45 0 PatternFill
6400 917 M
0 20 V
0 273 R
0 701 V
stroke
6341 937 N
118 0 V
0 273 V
-118 0 V
0 -273 V
Z stroke
6341 1911 M
118 0 V
6341 917 M
118 0 V
% End plot #1
% Begin plot #2
stroke
LTb
LCb setrgbcolor

 /TransparentPatterns true def
1068 1066 118 0 40 30 0 PatternFill
1127 1066 M
stroke
1068 1066 N
118 0 V
-118 0 V
Z stroke
1068 1066 M
118 0 V
-118 0 R
118 0 V
stroke

 /TransparentPatterns true def
1947 1110 118 0 40 30 0 PatternFill
2006 1110 M
stroke
1947 1110 N
118 0 V
-118 0 V
Z stroke
1947 1110 M
118 0 V
-118 0 R
118 0 V
stroke

 /TransparentPatterns true def
2826 1097 118 0 40 30 0 PatternFill
2885 1097 M
stroke
2826 1097 N
118 0 V
-118 0 V
Z stroke
2826 1097 M
118 0 V
-118 0 R
118 0 V
stroke

 /TransparentPatterns true def
3704 1059 118 0 40 30 0 PatternFill
3763 1059 M
stroke
3704 1059 N
118 0 V
-118 0 V
Z stroke
3704 1059 M
118 0 V
-118 0 R
118 0 V
stroke

 /TransparentPatterns true def
4583 1095 118 0 40 30 0 PatternFill
4642 1095 M
stroke
4583 1095 N
118 0 V
-118 0 V
Z stroke
4583 1095 M
118 0 V
-118 0 R
118 0 V
stroke

 /TransparentPatterns true def
5462 1049 118 0 40 30 0 PatternFill
5521 1049 M
stroke
5462 1049 N
118 0 V
-118 0 V
Z stroke
5462 1049 M
118 0 V
-118 0 R
118 0 V
stroke

 /TransparentPatterns true def
6341 1147 118 0 40 30 0 PatternFill
6400 1147 M
stroke
6341 1147 N
118 0 V
-118 0 V
Z stroke
6341 1147 M
118 0 V
-118 0 R
118 0 V
% End plot #2
% Begin plot #3
stroke
LTb
0.00 0.00 0.63 C LCb setrgbcolor
4067 153 M
[ [(Arial) 180.0 0.0 true true 0 (per-packet)]
] -60.0 MRshow
1.000 UL
LTb
0.00 0.00 0.63 C 4175 108 333 90 80 45 0 PatternFill
4175 108 N
333 0 V
0 90 V
-333 0 V
0 -90 V
Z stroke
1.000 UL
LTb
0.00 0.00 0.63 C 1214 951 118 304 80 45 0 PatternFill
1273 923 M
0 28 V
0 304 R
0 581 V
stroke
1214 951 N
118 0 V
0 304 V
-118 0 V
0 -304 V
Z stroke
1214 1836 M
118 0 V
1214 923 M
118 0 V
stroke
2093 961 118 441 80 45 0 PatternFill
2152 925 M
0 36 V
0 441 R
0 577 V
stroke
2093 961 N
118 0 V
0 441 V
-118 0 V
0 -441 V
Z stroke
2093 1979 M
118 0 V
2093 925 M
118 0 V
stroke
2972 959 118 476 80 45 0 PatternFill
3031 925 M
0 34 V
0 476 R
0 554 V
stroke
2972 959 N
118 0 V
0 476 V
-118 0 V
0 -476 V
Z stroke
2972 1989 M
118 0 V
2972 925 M
118 0 V
stroke
3851 948 118 180 80 45 0 PatternFill
3910 923 M
0 25 V
0 180 R
0 580 V
stroke
3851 948 N
118 0 V
0 180 V
-118 0 V
0 -180 V
Z stroke
3851 1708 M
118 0 V
3851 923 M
118 0 V
stroke
4730 950 118 288 80 45 0 PatternFill
4789 918 M
0 32 V
0 288 R
0 529 V
stroke
4730 950 N
118 0 V
0 288 V
-118 0 V
0 -288 V
Z stroke
4730 1767 M
118 0 V
4730 918 M
118 0 V
stroke
5609 950 118 118 80 45 0 PatternFill
5668 926 M
0 24 V
0 118 R
0 151 V
stroke
5609 950 N
118 0 V
0 118 V
-118 0 V
0 -118 V
Z stroke
5609 1219 M
118 0 V
5609 926 M
118 0 V
stroke
6487 978 118 604 80 45 0 PatternFill
6546 929 M
0 49 V
0 604 R
0 513 V
stroke
6487 978 N
118 0 V
0 604 V
-118 0 V
0 -604 V
Z stroke
6487 2095 M
118 0 V
6487 929 M
118 0 V
% End plot #3
% Begin plot #4
stroke
LTb
LCb setrgbcolor

 /TransparentPatterns true def
1214 1138 118 0 80 -45 0 PatternFill
1273 1138 M
stroke
1214 1138 N
118 0 V
-118 0 V
Z stroke
1214 1138 M
118 0 V
-118 0 R
118 0 V
stroke

 /TransparentPatterns true def
2093 1223 118 0 80 -45 0 PatternFill
2152 1223 M
stroke
2093 1223 N
118 0 V
-118 0 V
Z stroke
2093 1223 M
118 0 V
-118 0 R
118 0 V
stroke

 /TransparentPatterns true def
2972 1202 118 0 80 -45 0 PatternFill
3031 1202 M
stroke
2972 1202 N
118 0 V
-118 0 V
Z stroke
2972 1202 M
118 0 V
-118 0 R
118 0 V
stroke

 /TransparentPatterns true def
3851 1098 118 0 80 -45 0 PatternFill
3910 1098 M
stroke
3851 1098 N
118 0 V
-118 0 V
Z stroke
3851 1098 M
118 0 V
-118 0 R
118 0 V
stroke

 /TransparentPatterns true def
4730 1130 118 0 80 -45 0 PatternFill
4789 1130 M
stroke
4730 1130 N
118 0 V
-118 0 V
Z stroke
4730 1130 M
118 0 V
-118 0 R
118 0 V
stroke

 /TransparentPatterns true def
5609 1025 118 0 80 -45 0 PatternFill
5668 1025 M
stroke
5609 1025 N
118 0 V
-118 0 V
Z stroke
5609 1025 M
118 0 V
-118 0 R
118 0 V
stroke

 /TransparentPatterns true def
6487 1270 118 0 80 -45 0 PatternFill
6546 1270 M
stroke
6487 1270 N
118 0 V
-118 0 V
Z stroke
6487 1270 M
118 0 V
-118 0 R
118 0 V
% End plot #4
% Begin plot #5
stroke
LTb
0.00 0.38 0.82 C LCb setrgbcolor
5480 153 M
[ [(Arial) 180.0 0.0 true true 0 (per-flow)]
] -60.0 MRshow
1.000 UL
LTb
0.00 0.38 0.82 C 5588 108 333 90 40 30 0 PatternFill
5588 108 N
333 0 V
0 90 V
-333 0 V
0 -90 V
Z stroke
1.000 UL
LTb
0.00 0.38 0.82 C 1361 939 118 500 40 30 0 PatternFill
1420 914 M
0 25 V
0 500 R
0 1087 V
stroke
1361 939 N
118 0 V
0 500 V
-118 0 V
0 -500 V
Z stroke
1361 2526 M
118 0 V
1361 914 M
118 0 V
stroke
2240 984 118 739 40 30 0 PatternFill
2299 933 M
0 51 V
0 739 R
0 870 V
stroke
2240 984 N
118 0 V
0 739 V
-118 0 V
0 -739 V
Z stroke
2240 2593 M
118 0 V
2240 933 M
118 0 V
stroke
3119 987 118 782 40 30 0 PatternFill
3178 933 M
0 54 V
0 782 R
0 1067 V
stroke
3119 987 N
118 0 V
0 782 V
-118 0 V
0 -782 V
Z stroke
3119 2836 M
118 0 V
3119 933 M
118 0 V
stroke
3997 941 118 266 40 30 0 PatternFill
4056 920 M
0 21 V
0 266 R
0 833 V
stroke
3997 941 N
118 0 V
0 266 V
-118 0 V
0 -266 V
Z stroke
3997 2040 M
118 0 V
3997 920 M
118 0 V
stroke
4876 953 118 560 40 30 0 PatternFill
4935 919 M
0 34 V
0 560 R
0 1150 V
stroke
4876 953 N
118 0 V
0 560 V
-118 0 V
0 -560 V
Z stroke
4876 2663 M
118 0 V
4876 919 M
118 0 V
stroke
5755 995 118 113 40 30 0 PatternFill
5814 963 M
0 32 V
0 113 R
0 162 V
stroke
5755 995 N
118 0 V
0 113 V
-118 0 V
0 -113 V
Z stroke
5755 1270 M
118 0 V
5755 963 M
118 0 V
stroke
6634 1018 118 837 40 30 0 PatternFill
6693 957 M
0 61 V
0 837 R
0 811 V
stroke
6634 1018 N
118 0 V
0 837 V
-118 0 V
0 -837 V
Z stroke
6634 2666 M
118 0 V
6634 957 M
118 0 V
% End plot #5
% Begin plot #6
stroke
LTb
LCb setrgbcolor

 /TransparentPatterns true def
1361 1255 118 0 40 -30 0 PatternFill
1420 1255 M
stroke
1361 1255 N
118 0 V
-118 0 V
Z stroke
1361 1255 M
118 0 V
-118 0 R
118 0 V
stroke

 /TransparentPatterns true def
2240 1397 118 0 40 -30 0 PatternFill
2299 1397 M
stroke
2240 1397 N
118 0 V
-118 0 V
Z stroke
2240 1397 M
118 0 V
-118 0 R
118 0 V
stroke

 /TransparentPatterns true def
3119 1418 118 0 40 -30 0 PatternFill
3178 1418 M
stroke
3119 1418 N
118 0 V
-118 0 V
Z stroke
3119 1418 M
118 0 V
-118 0 R
118 0 V
stroke

 /TransparentPatterns true def
3997 1144 118 0 40 -30 0 PatternFill
4056 1144 M
stroke
3997 1144 N
118 0 V
-118 0 V
Z stroke
3997 1144 M
118 0 V
-118 0 R
118 0 V
stroke

 /TransparentPatterns true def
4876 1306 118 0 40 -30 0 PatternFill
4935 1306 M
stroke
4876 1306 N
118 0 V
-118 0 V
Z stroke
4876 1306 M
118 0 V
-118 0 R
118 0 V
stroke

 /TransparentPatterns true def
5755 1069 118 0 40 -30 0 PatternFill
5814 1069 M
stroke
5755 1069 N
118 0 V
-118 0 V
Z stroke
5755 1069 M
118 0 V
-118 0 R
118 0 V
stroke

 /TransparentPatterns true def
6634 1456 118 0 40 -30 0 PatternFill
6693 1456 M
stroke
6634 1456 N
118 0 V
-118 0 V
Z stroke
6634 1456 M
118 0 V
-118 0 R
118 0 V
% End plot #6
stroke
2.000 UL
LTb
LCb setrgbcolor
1.000 UP
1.000 UL
LTb
0.00 0.00 0.00 C 1.000 UL
LTb
0.00 0.00 0.00 C 0.500 UL
LTa
0.50 0.50 0.50 C 8180 820 M
5859 0 V
stroke
1.000 UL
LTb
0.00 0.00 0.00 C 8180 820 M
63 0 V
5796 0 R
-63 0 V
stroke
8060 820 M
[ [(Arial) 200.0 0.0 true true 0 ( 0)]
] -66.7 MRshow
1.000 UL
LTb
0.00 0.00 0.00 C 0.500 UL
LTa
0.50 0.50 0.50 C 8180 1423 M
5859 0 V
stroke
1.000 UL
LTb
0.00 0.00 0.00 C 8180 1423 M
63 0 V
5796 0 R
-63 0 V
stroke
8060 1423 M
[ [(Arial) 200.0 0.0 true true 0 ( 20)]
] -66.7 MRshow
1.000 UL
LTb
0.00 0.00 0.00 C 0.500 UL
LTa
0.50 0.50 0.50 C 8180 2026 M
5859 0 V
stroke
1.000 UL
LTb
0.00 0.00 0.00 C 8180 2026 M
63 0 V
5796 0 R
-63 0 V
stroke
8060 2026 M
[ [(Arial) 200.0 0.0 true true 0 ( 40)]
] -66.7 MRshow
1.000 UL
LTb
0.00 0.00 0.00 C 0.500 UL
LTa
0.50 0.50 0.50 C 8180 2630 M
5859 0 V
stroke
1.000 UL
LTb
0.00 0.00 0.00 C 8180 2630 M
63 0 V
5796 0 R
-63 0 V
stroke
8060 2630 M
[ [(Arial) 200.0 0.0 true true 0 ( 60)]
] -66.7 MRshow
1.000 UL
LTb
0.00 0.00 0.00 C 0.500 UL
LTa
0.50 0.50 0.50 C 8180 3233 M
5859 0 V
stroke
1.000 UL
LTb
0.00 0.00 0.00 C 8180 3233 M
63 0 V
5796 0 R
-63 0 V
stroke
8060 3233 M
[ [(Arial) 200.0 0.0 true true 0 ( 80)]
] -66.7 MRshow
1.000 UL
LTb
0.00 0.00 0.00 C 0.500 UL
LTa
0.50 0.50 0.50 C 8180 3836 M
5859 0 V
stroke
1.000 UL
LTb
0.00 0.00 0.00 C 8180 3836 M
63 0 V
5796 0 R
-63 0 V
stroke
8060 3836 M
[ [(Arial) 200.0 0.0 true true 0 ( 100)]
] -66.7 MRshow
1.000 UL
LTb
0.00 0.00 0.00 C 0.500 UL
LTa
0.50 0.50 0.50 C 8180 4439 M
5859 0 V
stroke
1.000 UL
LTb
0.00 0.00 0.00 C 8180 4439 M
63 0 V
5796 0 R
-63 0 V
stroke
8060 4439 M
[ [(Arial) 200.0 0.0 true true 0 ( 120)]
] -66.7 MRshow
1.000 UL
LTb
0.00 0.00 0.00 C 0.500 UL
LTa
0.50 0.50 0.50 C 8473 820 M
0 3619 V
stroke
1.000 UL
LTb
0.00 0.00 0.00 C 8473 820 M
0 63 V
0 3556 R
0 -63 V
stroke
8473 620 M
[ [(Arial) 200.0 0.0 true true 0 (NewReno)]
] -66.7 MCshow
1.000 UL
LTb
0.00 0.00 0.00 C 0.500 UL
LTa
0.50 0.50 0.50 C 9352 820 M
0 3619 V
stroke
1.000 UL
LTb
0.00 0.00 0.00 C 9352 820 M
0 63 V
0 3556 R
0 -63 V
stroke
9352 620 M
[ [(Arial) 200.0 0.0 true true 0 (Cubic)]
] -66.7 MCshow
1.000 UL
LTb
0.00 0.00 0.00 C 0.500 UL
LTa
0.50 0.50 0.50 C 10231 820 M
0 3619 V
stroke
1.000 UL
LTb
0.00 0.00 0.00 C 10231 820 M
0 63 V
0 3556 R
0 -63 V
stroke
10231 620 M
[ [(Arial) 200.0 0.0 true true 0 (HighSpeed)]
] -66.7 MCshow
1.000 UL
LTb
0.00 0.00 0.00 C 0.500 UL
LTa
0.50 0.50 0.50 C 11110 820 M
0 3619 V
stroke
1.000 UL
LTb
0.00 0.00 0.00 C 11110 820 M
0 63 V
0 3556 R
0 -63 V
stroke
11110 620 M
[ [(Arial) 200.0 0.0 true true 0 (Westwood)]
] -66.7 MCshow
1.000 UL
LTb
0.00 0.00 0.00 C 0.500 UL
LTa
0.50 0.50 0.50 C 11988 820 M
0 3619 V
stroke
1.000 UL
LTb
0.00 0.00 0.00 C 11988 820 M
0 63 V
0 3556 R
0 -63 V
stroke
11988 620 M
[ [(Arial) 200.0 0.0 true true 0 (Hybla)]
] -66.7 MCshow
1.000 UL
LTb
0.00 0.00 0.00 C 0.500 UL
LTa
0.50 0.50 0.50 C 12867 820 M
0 3619 V
stroke
1.000 UL
LTb
0.00 0.00 0.00 C 12867 820 M
0 63 V
0 3556 R
0 -63 V
stroke
12867 620 M
[ [(Arial) 200.0 0.0 true true 0 (Vegas)]
] -66.7 MCshow
1.000 UL
LTb
0.00 0.00 0.00 C 0.500 UL
LTa
0.50 0.50 0.50 C 13746 820 M
0 3619 V
stroke
1.000 UL
LTb
0.00 0.00 0.00 C 13746 820 M
0 63 V
0 3556 R
0 -63 V
stroke
13746 620 M
[ [(Arial) 200.0 0.0 true true 0 (Scalable)]
] -66.7 MCshow
1.000 UL
LTb
0.00 0.00 0.00 C 1.000 UL
LTB
0.00 0.00 0.00 C 8180 4439 M
0 -3619 V
5859 0 V
0 3619 R
-5859 0 R
1.000 UP
stroke
LTb
0.00 0.00 0.00 C LCb setrgbcolor
7360 2629 M
currentpoint gsave translate -270 rotate 0 0 moveto
[ [(Arial) 200.0 0.0 true true 0 (File download time \(s\))]
] -66.7 MCshow
grestore
LTb
LCb setrgbcolor
11109 320 M
[ [(Arial) 200.0 0.0 true true 0 (TCP)]
] -66.7 MCshow
LTb
LCb setrgbcolor
11109 4739 M
[ [(Arial) 200.0 0.0 true true 0 (b\) File download time)]
] -66.7 MCshow
% Begin plot #1
1.000 UL
LTb
0.60 0.60 0.00 C LCb setrgbcolor
9854 153 M
[ [(Arial) 180.0 0.0 true true 0 (olsr)]
] -60.0 MRshow
1.000 UL
LTb
0.60 0.60 0.00 C 9962 108 333 90 80 -45 0 PatternFill
9962 108 N
333 0 V
0 90 V
-333 0 V
0 -90 V
Z stroke
1.000 UL
LTb
0.60 0.60 0.00 C 8268 1229 118 379 80 -45 0 PatternFill
8327 929 M
0 300 V
0 379 R
0 250 V
stroke
8268 1229 N
118 0 V
0 379 V
-118 0 V
0 -379 V
Z stroke
8268 1858 M
118 0 V
8268 929 M
118 0 V
stroke
9147 1265 118 223 80 -45 0 PatternFill
9206 912 M
0 353 V
0 223 R
0 315 V
stroke
9147 1265 N
118 0 V
0 223 V
-118 0 V
0 -223 V
Z stroke
9147 1803 M
118 0 V
9147 912 M
118 0 V
stroke
10026 1208 118 232 80 -45 0 PatternFill
10085 908 M
0 300 V
0 232 R
0 162 V
stroke
10026 1208 N
118 0 V
0 232 V
-118 0 V
0 -232 V
Z stroke
10026 1602 M
118 0 V
10026 908 M
118 0 V
stroke
10904 1372 118 204 80 -45 0 PatternFill
10963 1056 M
0 316 V
0 204 R
0 382 V
stroke
10904 1372 N
118 0 V
0 204 V
-118 0 V
0 -204 V
Z stroke
10904 1958 M
118 0 V
-118 -902 R
118 0 V
stroke
11783 1202 118 286 80 -45 0 PatternFill
11842 899 M
0 303 V
0 286 R
0 172 V
stroke
11783 1202 N
118 0 V
0 286 V
-118 0 V
0 -286 V
Z stroke
11783 1660 M
118 0 V
11783 899 M
118 0 V
stroke
12662 1308 118 770 80 -45 0 PatternFill
12721 917 M
0 391 V
0 770 R
0 735 V
stroke
12662 1308 N
118 0 V
0 770 V
-118 0 V
0 -770 V
Z stroke
12662 2813 M
118 0 V
12662 917 M
118 0 V
stroke
13541 1165 118 249 80 -45 0 PatternFill
13600 914 M
0 251 V
0 249 R
0 107 V
stroke
13541 1165 N
118 0 V
0 249 V
-118 0 V
0 -249 V
Z stroke
13541 1521 M
118 0 V
13541 914 M
118 0 V
% End plot #1
% Begin plot #2
stroke
LTb
LCb setrgbcolor

 /TransparentPatterns true def
8268 1392 118 0 40 30 0 PatternFill
8327 1392 M
stroke
8268 1392 N
118 0 V
-118 0 V
Z stroke
8268 1392 M
118 0 V
-118 0 R
118 0 V
stroke

 /TransparentPatterns true def
9147 1406 118 0 40 30 0 PatternFill
9206 1406 M
stroke
9147 1406 N
118 0 V
-118 0 V
Z stroke
9147 1406 M
118 0 V
-118 0 R
118 0 V
stroke

 /TransparentPatterns true def
10026 1318 118 0 40 30 0 PatternFill
10085 1318 M
stroke
10026 1318 N
118 0 V
-118 0 V
Z stroke
10026 1318 M
118 0 V
-118 0 R
118 0 V
stroke

 /TransparentPatterns true def
10904 1460 118 0 40 30 0 PatternFill
10963 1460 M
stroke
10904 1460 N
118 0 V
-118 0 V
Z stroke
10904 1460 M
118 0 V
-118 0 R
118 0 V
stroke

 /TransparentPatterns true def
11783 1357 118 0 40 30 0 PatternFill
11842 1357 M
stroke
11783 1357 N
118 0 V
-118 0 V
Z stroke
11783 1357 M
118 0 V
-118 0 R
118 0 V
stroke

 /TransparentPatterns true def
12662 1689 118 0 40 30 0 PatternFill
12721 1689 M
stroke
12662 1689 N
118 0 V
-118 0 V
Z stroke
12662 1689 M
118 0 V
-118 0 R
118 0 V
stroke

 /TransparentPatterns true def
13541 1272 118 0 40 30 0 PatternFill
13600 1272 M
stroke
13541 1272 N
118 0 V
-118 0 V
Z stroke
13541 1272 M
118 0 V
-118 0 R
118 0 V
% End plot #2
% Begin plot #3
stroke
LTb
0.00 0.00 0.63 C LCb setrgbcolor
11267 153 M
[ [(Arial) 180.0 0.0 true true 0 (per-packet)]
] -60.0 MRshow
1.000 UL
LTb
0.00 0.00 0.63 C 11375 108 333 90 80 45 0 PatternFill
11375 108 N
333 0 V
0 90 V
-333 0 V
0 -90 V
Z stroke
1.000 UL
LTb
0.00 0.00 0.63 C 8414 978 118 1646 80 45 0 PatternFill
8473 904 M
0 74 V
0 1646 R
0 569 V
stroke
8414 978 N
118 0 V
0 1646 V
-118 0 V
0 -1646 V
Z stroke
8414 3193 M
118 0 V
8414 904 M
118 0 V
stroke
9293 928 118 1785 80 45 0 PatternFill
9352 901 M
0 27 V
0 1785 R
0 500 V
stroke
9293 928 N
118 0 V
0 1785 V
-118 0 V
0 -1785 V
Z stroke
9293 3213 M
118 0 V
9293 901 M
118 0 V
stroke
10172 941 118 1465 80 45 0 PatternFill
10231 901 M
0 40 V
0 1465 R
0 337 V
stroke
10172 941 N
118 0 V
0 1465 V
-118 0 V
0 -1465 V
Z stroke
10172 2743 M
118 0 V
10172 901 M
118 0 V
stroke
11051 1106 118 1770 80 45 0 PatternFill
11110 998 M
0 108 V
0 1770 R
0 679 V
stroke
11051 1106 N
118 0 V
0 1770 V
-118 0 V
0 -1770 V
Z stroke
11051 3555 M
118 0 V
11051 998 M
118 0 V
stroke
11930 964 118 1479 80 45 0 PatternFill
11989 911 M
0 53 V
0 1479 R
0 240 V
stroke
11930 964 N
118 0 V
0 1479 V
-118 0 V
0 -1479 V
Z stroke
11930 2683 M
118 0 V
11930 911 M
118 0 V
stroke
12809 1249 118 1268 80 45 0 PatternFill
12868 1024 M
0 225 V
0 1268 R
0 111 V
stroke
12809 1249 N
118 0 V
0 1268 V
-118 0 V
0 -1268 V
Z stroke
12809 2628 M
118 0 V
12809 1024 M
118 0 V
stroke
13687 934 118 1132 80 45 0 PatternFill
13746 879 M
0 55 V
0 1132 R
0 223 V
stroke
13687 934 N
118 0 V
0 1132 V
-118 0 V
0 -1132 V
Z stroke
13687 2289 M
118 0 V
13687 879 M
118 0 V
% End plot #3
% Begin plot #4
stroke
LTb
LCb setrgbcolor

 /TransparentPatterns true def
8414 1645 118 0 80 -45 0 PatternFill
8473 1645 M
stroke
8414 1645 N
118 0 V
-118 0 V
Z stroke
8414 1645 M
118 0 V
-118 0 R
118 0 V
stroke

 /TransparentPatterns true def
9293 1632 118 0 80 -45 0 PatternFill
9352 1632 M
stroke
9293 1632 N
118 0 V
-118 0 V
Z stroke
9293 1632 M
118 0 V
-118 0 R
118 0 V
stroke

 /TransparentPatterns true def
10172 1458 118 0 80 -45 0 PatternFill
10231 1458 M
stroke
10172 1458 N
118 0 V
-118 0 V
Z stroke
10172 1458 M
118 0 V
-118 0 R
118 0 V
stroke

 /TransparentPatterns true def
11051 1806 118 0 80 -45 0 PatternFill
11110 1806 M
stroke
11051 1806 N
118 0 V
-118 0 V
Z stroke
11051 1806 M
118 0 V
-118 0 R
118 0 V
stroke

 /TransparentPatterns true def
11930 1487 118 0 80 -45 0 PatternFill
11989 1487 M
stroke
11930 1487 N
118 0 V
-118 0 V
Z stroke
11930 1487 M
118 0 V
-118 0 R
118 0 V
stroke

 /TransparentPatterns true def
12809 1757 118 0 80 -45 0 PatternFill
12868 1757 M
stroke
12809 1757 N
118 0 V
-118 0 V
Z stroke
12809 1757 M
118 0 V
-118 0 R
118 0 V
stroke

 /TransparentPatterns true def
13687 1348 118 0 80 -45 0 PatternFill
13746 1348 M
stroke
13687 1348 N
118 0 V
-118 0 V
Z stroke
13687 1348 M
118 0 V
-118 0 R
118 0 V
% End plot #4
% Begin plot #5
stroke
LTb
0.00 0.38 0.82 C LCb setrgbcolor
12680 153 M
[ [(Arial) 180.0 0.0 true true 0 (per-flow)]
] -60.0 MRshow
1.000 UL
LTb
0.00 0.38 0.82 C 12788 108 333 90 40 30 0 PatternFill
12788 108 N
333 0 V
0 90 V
-333 0 V
0 -90 V
Z stroke
1.000 UL
LTb
0.00 0.38 0.82 C 8561 950 118 226 40 30 0 PatternFill
8620 918 M
0 32 V
0 226 R
0 128 V
stroke
8561 950 N
118 0 V
0 226 V
-118 0 V
0 -226 V
Z stroke
8561 1304 M
118 0 V
8561 918 M
118 0 V
stroke
9440 940 118 165 40 30 0 PatternFill
9499 897 M
0 43 V
0 165 R
0 233 V
stroke
9440 940 N
118 0 V
0 165 V
-118 0 V
0 -165 V
Z stroke
9440 1338 M
118 0 V
9440 897 M
118 0 V
stroke
10319 948 118 105 40 30 0 PatternFill
10378 918 M
0 30 V
0 105 R
0 85 V
stroke
10319 948 N
118 0 V
0 105 V
-118 0 V
0 -105 V
Z stroke
10319 1138 M
118 0 V
10319 918 M
118 0 V
stroke
11197 1097 118 189 40 30 0 PatternFill
11256 989 M
0 108 V
0 189 R
0 341 V
stroke
11197 1097 N
118 0 V
0 189 V
-118 0 V
0 -189 V
Z stroke
11197 1627 M
118 0 V
11197 989 M
118 0 V
stroke
12076 951 118 161 40 30 0 PatternFill
12135 914 M
0 37 V
0 161 R
0 167 V
stroke
12076 951 N
118 0 V
0 161 V
-118 0 V
0 -161 V
Z stroke
12076 1279 M
118 0 V
12076 914 M
118 0 V
stroke
12955 1263 118 806 40 30 0 PatternFill
13014 1033 M
0 230 V
0 806 R
0 465 V
stroke
12955 1263 N
118 0 V
0 806 V
-118 0 V
0 -806 V
Z stroke
12955 2534 M
118 0 V
12955 1033 M
118 0 V
stroke
13834 942 118 73 40 30 0 PatternFill
13893 913 M
0 29 V
0 73 R
0 140 V
stroke
13834 942 N
118 0 V
0 73 V
-118 0 V
0 -73 V
Z stroke
13834 1155 M
118 0 V
13834 913 M
118 0 V
% End plot #5
% Begin plot #6
stroke
LTb
LCb setrgbcolor

 /TransparentPatterns true def
8561 1065 118 0 40 -30 0 PatternFill
8620 1065 M
stroke
8561 1065 N
118 0 V
-118 0 V
Z stroke
8561 1065 M
118 0 V
-118 0 R
118 0 V
stroke

 /TransparentPatterns true def
9440 1030 118 0 40 -30 0 PatternFill
9499 1030 M
stroke
9440 1030 N
118 0 V
-118 0 V
Z stroke
9440 1030 M
118 0 V
-118 0 R
118 0 V
stroke

 /TransparentPatterns true def
10319 1000 118 0 40 -30 0 PatternFill
10378 1000 M
stroke
10319 1000 N
118 0 V
-118 0 V
Z stroke
10319 1000 M
118 0 V
-118 0 R
118 0 V
stroke

 /TransparentPatterns true def
11197 1209 118 0 40 -30 0 PatternFill
11256 1209 M
stroke
11197 1209 N
118 0 V
-118 0 V
Z stroke
11197 1209 M
118 0 V
-118 0 R
118 0 V
stroke

 /TransparentPatterns true def
12076 1029 118 0 40 -30 0 PatternFill
12135 1029 M
stroke
12076 1029 N
118 0 V
-118 0 V
Z stroke
12076 1029 M
118 0 V
-118 0 R
118 0 V
stroke

 /TransparentPatterns true def
12955 1666 118 0 40 -30 0 PatternFill
13014 1666 M
stroke
12955 1666 N
118 0 V
-118 0 V
Z stroke
12955 1666 M
118 0 V
-118 0 R
118 0 V
stroke

 /TransparentPatterns true def
13834 978 118 0 40 -30 0 PatternFill
13893 978 M
stroke
13834 978 N
118 0 V
-118 0 V
Z stroke
13834 978 M
118 0 V
-118 0 R
118 0 V
% End plot #6
stroke
2.000 UL
LTb
LCb setrgbcolor
1.000 UP
1.000 UL
LTb
0.00 0.00 0.00 C stroke
grestore
end
showpage
%%Trailer
%%DocumentFonts: Arial
