%!PS-Adobe-2.0 EPSF-2.0
%%Title: TcpBic-download-finishtime-50UE-panoramic.eps
%%Creator: gnuplot 5.0 patchlevel 3
%%CreationDate: Tue Jun  7 16:10:53 2016
%%DocumentFonts: (atend)
%%BoundingBox: 50 50 770 302
%%EndComments
%%BeginProlog
/gnudict 256 dict def
gnudict begin
%
% The following true/false flags may be edited by hand if desired.
% The unit line width and grayscale image gamma correction may also be changed.
%
/Color true def
/Blacktext false def
/Solid false def
/Dashlength 3 def
/Landscape false def
/Level1 false def
/Level3 false def
/Rounded false def
/ClipToBoundingBox false def
/SuppressPDFMark false def
/TransparentPatterns false def
/gnulinewidth 15.000 def
/userlinewidth gnulinewidth def
/Gamma 1.0 def
/BackgroundColor {-1.000 -1.000 -1.000} def
%
/vshift -66 def
/dl1 {
  10.0 Dashlength userlinewidth gnulinewidth div mul mul mul
  Rounded { currentlinewidth 0.75 mul sub dup 0 le { pop 0.01 } if } if
} def
/dl2 {
  10.0 Dashlength userlinewidth gnulinewidth div mul mul mul
  Rounded { currentlinewidth 0.75 mul add } if
} def
/hpt_ 31.5 def
/vpt_ 31.5 def
/hpt hpt_ def
/vpt vpt_ def
/doclip {
  ClipToBoundingBox {
    newpath 50 50 moveto 770 50 lineto 770 302 lineto 50 302 lineto closepath
    clip
  } if
} def
%
% Gnuplot Prolog Version 5.1 (Oct 2015)
%
%/SuppressPDFMark true def
%
/M {moveto} bind def
/L {lineto} bind def
/R {rmoveto} bind def
/V {rlineto} bind def
/N {newpath moveto} bind def
/Z {closepath} bind def
/C {setrgbcolor} bind def
/f {rlineto fill} bind def
/g {setgray} bind def
/Gshow {show} def   % May be redefined later in the file to support UTF-8
/vpt2 vpt 2 mul def
/hpt2 hpt 2 mul def
/Lshow {currentpoint stroke M 0 vshift R 
	Blacktext {gsave 0 setgray textshow grestore} {textshow} ifelse} def
/Rshow {currentpoint stroke M dup stringwidth pop neg vshift R
	Blacktext {gsave 0 setgray textshow grestore} {textshow} ifelse} def
/Cshow {currentpoint stroke M dup stringwidth pop -2 div vshift R 
	Blacktext {gsave 0 setgray textshow grestore} {textshow} ifelse} def
/UP {dup vpt_ mul /vpt exch def hpt_ mul /hpt exch def
  /hpt2 hpt 2 mul def /vpt2 vpt 2 mul def} def
/DL {Color {setrgbcolor Solid {pop []} if 0 setdash}
 {pop pop pop 0 setgray Solid {pop []} if 0 setdash} ifelse} def
/BL {stroke userlinewidth 2 mul setlinewidth
	Rounded {1 setlinejoin 1 setlinecap} if} def
/AL {stroke userlinewidth 2 div setlinewidth
	Rounded {1 setlinejoin 1 setlinecap} if} def
/UL {dup gnulinewidth mul /userlinewidth exch def
	dup 1 lt {pop 1} if 10 mul /udl exch def} def
/PL {stroke userlinewidth setlinewidth
	Rounded {1 setlinejoin 1 setlinecap} if} def
3.8 setmiterlimit
% Classic Line colors (version 5.0)
/LCw {1 1 1} def
/LCb {0 0 0} def
/LCa {0 0 0} def
/LC0 {1 0 0} def
/LC1 {0 1 0} def
/LC2 {0 0 1} def
/LC3 {1 0 1} def
/LC4 {0 1 1} def
/LC5 {1 1 0} def
/LC6 {0 0 0} def
/LC7 {1 0.3 0} def
/LC8 {0.5 0.5 0.5} def
% Default dash patterns (version 5.0)
/LTB {BL [] LCb DL} def
/LTw {PL [] 1 setgray} def
/LTb {PL [] LCb DL} def
/LTa {AL [1 udl mul 2 udl mul] 0 setdash LCa setrgbcolor} def
/LT0 {PL [] LC0 DL} def
/LT1 {PL [2 dl1 3 dl2] LC1 DL} def
/LT2 {PL [1 dl1 1.5 dl2] LC2 DL} def
/LT3 {PL [6 dl1 2 dl2 1 dl1 2 dl2] LC3 DL} def
/LT4 {PL [1 dl1 2 dl2 6 dl1 2 dl2 1 dl1 2 dl2] LC4 DL} def
/LT5 {PL [4 dl1 2 dl2] LC5 DL} def
/LT6 {PL [1.5 dl1 1.5 dl2 1.5 dl1 1.5 dl2 1.5 dl1 6 dl2] LC6 DL} def
/LT7 {PL [3 dl1 3 dl2 1 dl1 3 dl2] LC7 DL} def
/LT8 {PL [2 dl1 2 dl2 2 dl1 6 dl2] LC8 DL} def
/SL {[] 0 setdash} def
/Pnt {stroke [] 0 setdash gsave 1 setlinecap M 0 0 V stroke grestore} def
/Dia {stroke [] 0 setdash 2 copy vpt add M
  hpt neg vpt neg V hpt vpt neg V
  hpt vpt V hpt neg vpt V closepath stroke
  Pnt} def
/Pls {stroke [] 0 setdash vpt sub M 0 vpt2 V
  currentpoint stroke M
  hpt neg vpt neg R hpt2 0 V stroke
 } def
/Box {stroke [] 0 setdash 2 copy exch hpt sub exch vpt add M
  0 vpt2 neg V hpt2 0 V 0 vpt2 V
  hpt2 neg 0 V closepath stroke
  Pnt} def
/Crs {stroke [] 0 setdash exch hpt sub exch vpt add M
  hpt2 vpt2 neg V currentpoint stroke M
  hpt2 neg 0 R hpt2 vpt2 V stroke} def
/TriU {stroke [] 0 setdash 2 copy vpt 1.12 mul add M
  hpt neg vpt -1.62 mul V
  hpt 2 mul 0 V
  hpt neg vpt 1.62 mul V closepath stroke
  Pnt} def
/Star {2 copy Pls Crs} def
/BoxF {stroke [] 0 setdash exch hpt sub exch vpt add M
  0 vpt2 neg V hpt2 0 V 0 vpt2 V
  hpt2 neg 0 V closepath fill} def
/TriUF {stroke [] 0 setdash vpt 1.12 mul add M
  hpt neg vpt -1.62 mul V
  hpt 2 mul 0 V
  hpt neg vpt 1.62 mul V closepath fill} def
/TriD {stroke [] 0 setdash 2 copy vpt 1.12 mul sub M
  hpt neg vpt 1.62 mul V
  hpt 2 mul 0 V
  hpt neg vpt -1.62 mul V closepath stroke
  Pnt} def
/TriDF {stroke [] 0 setdash vpt 1.12 mul sub M
  hpt neg vpt 1.62 mul V
  hpt 2 mul 0 V
  hpt neg vpt -1.62 mul V closepath fill} def
/DiaF {stroke [] 0 setdash vpt add M
  hpt neg vpt neg V hpt vpt neg V
  hpt vpt V hpt neg vpt V closepath fill} def
/Pent {stroke [] 0 setdash 2 copy gsave
  translate 0 hpt M 4 {72 rotate 0 hpt L} repeat
  closepath stroke grestore Pnt} def
/PentF {stroke [] 0 setdash gsave
  translate 0 hpt M 4 {72 rotate 0 hpt L} repeat
  closepath fill grestore} def
/Circle {stroke [] 0 setdash 2 copy
  hpt 0 360 arc stroke Pnt} def
/CircleF {stroke [] 0 setdash hpt 0 360 arc fill} def
/C0 {BL [] 0 setdash 2 copy moveto vpt 90 450 arc} bind def
/C1 {BL [] 0 setdash 2 copy moveto
	2 copy vpt 0 90 arc closepath fill
	vpt 0 360 arc closepath} bind def
/C2 {BL [] 0 setdash 2 copy moveto
	2 copy vpt 90 180 arc closepath fill
	vpt 0 360 arc closepath} bind def
/C3 {BL [] 0 setdash 2 copy moveto
	2 copy vpt 0 180 arc closepath fill
	vpt 0 360 arc closepath} bind def
/C4 {BL [] 0 setdash 2 copy moveto
	2 copy vpt 180 270 arc closepath fill
	vpt 0 360 arc closepath} bind def
/C5 {BL [] 0 setdash 2 copy moveto
	2 copy vpt 0 90 arc
	2 copy moveto
	2 copy vpt 180 270 arc closepath fill
	vpt 0 360 arc} bind def
/C6 {BL [] 0 setdash 2 copy moveto
	2 copy vpt 90 270 arc closepath fill
	vpt 0 360 arc closepath} bind def
/C7 {BL [] 0 setdash 2 copy moveto
	2 copy vpt 0 270 arc closepath fill
	vpt 0 360 arc closepath} bind def
/C8 {BL [] 0 setdash 2 copy moveto
	2 copy vpt 270 360 arc closepath fill
	vpt 0 360 arc closepath} bind def
/C9 {BL [] 0 setdash 2 copy moveto
	2 copy vpt 270 450 arc closepath fill
	vpt 0 360 arc closepath} bind def
/C10 {BL [] 0 setdash 2 copy 2 copy moveto vpt 270 360 arc closepath fill
	2 copy moveto
	2 copy vpt 90 180 arc closepath fill
	vpt 0 360 arc closepath} bind def
/C11 {BL [] 0 setdash 2 copy moveto
	2 copy vpt 0 180 arc closepath fill
	2 copy moveto
	2 copy vpt 270 360 arc closepath fill
	vpt 0 360 arc closepath} bind def
/C12 {BL [] 0 setdash 2 copy moveto
	2 copy vpt 180 360 arc closepath fill
	vpt 0 360 arc closepath} bind def
/C13 {BL [] 0 setdash 2 copy moveto
	2 copy vpt 0 90 arc closepath fill
	2 copy moveto
	2 copy vpt 180 360 arc closepath fill
	vpt 0 360 arc closepath} bind def
/C14 {BL [] 0 setdash 2 copy moveto
	2 copy vpt 90 360 arc closepath fill
	vpt 0 360 arc} bind def
/C15 {BL [] 0 setdash 2 copy vpt 0 360 arc closepath fill
	vpt 0 360 arc closepath} bind def
/Rec {newpath 4 2 roll moveto 1 index 0 rlineto 0 exch rlineto
	neg 0 rlineto closepath} bind def
/Square {dup Rec} bind def
/Bsquare {vpt sub exch vpt sub exch vpt2 Square} bind def
/S0 {BL [] 0 setdash 2 copy moveto 0 vpt rlineto BL Bsquare} bind def
/S1 {BL [] 0 setdash 2 copy vpt Square fill Bsquare} bind def
/S2 {BL [] 0 setdash 2 copy exch vpt sub exch vpt Square fill Bsquare} bind def
/S3 {BL [] 0 setdash 2 copy exch vpt sub exch vpt2 vpt Rec fill Bsquare} bind def
/S4 {BL [] 0 setdash 2 copy exch vpt sub exch vpt sub vpt Square fill Bsquare} bind def
/S5 {BL [] 0 setdash 2 copy 2 copy vpt Square fill
	exch vpt sub exch vpt sub vpt Square fill Bsquare} bind def
/S6 {BL [] 0 setdash 2 copy exch vpt sub exch vpt sub vpt vpt2 Rec fill Bsquare} bind def
/S7 {BL [] 0 setdash 2 copy exch vpt sub exch vpt sub vpt vpt2 Rec fill
	2 copy vpt Square fill Bsquare} bind def
/S8 {BL [] 0 setdash 2 copy vpt sub vpt Square fill Bsquare} bind def
/S9 {BL [] 0 setdash 2 copy vpt sub vpt vpt2 Rec fill Bsquare} bind def
/S10 {BL [] 0 setdash 2 copy vpt sub vpt Square fill 2 copy exch vpt sub exch vpt Square fill
	Bsquare} bind def
/S11 {BL [] 0 setdash 2 copy vpt sub vpt Square fill 2 copy exch vpt sub exch vpt2 vpt Rec fill
	Bsquare} bind def
/S12 {BL [] 0 setdash 2 copy exch vpt sub exch vpt sub vpt2 vpt Rec fill Bsquare} bind def
/S13 {BL [] 0 setdash 2 copy exch vpt sub exch vpt sub vpt2 vpt Rec fill
	2 copy vpt Square fill Bsquare} bind def
/S14 {BL [] 0 setdash 2 copy exch vpt sub exch vpt sub vpt2 vpt Rec fill
	2 copy exch vpt sub exch vpt Square fill Bsquare} bind def
/S15 {BL [] 0 setdash 2 copy Bsquare fill Bsquare} bind def
/D0 {gsave translate 45 rotate 0 0 S0 stroke grestore} bind def
/D1 {gsave translate 45 rotate 0 0 S1 stroke grestore} bind def
/D2 {gsave translate 45 rotate 0 0 S2 stroke grestore} bind def
/D3 {gsave translate 45 rotate 0 0 S3 stroke grestore} bind def
/D4 {gsave translate 45 rotate 0 0 S4 stroke grestore} bind def
/D5 {gsave translate 45 rotate 0 0 S5 stroke grestore} bind def
/D6 {gsave translate 45 rotate 0 0 S6 stroke grestore} bind def
/D7 {gsave translate 45 rotate 0 0 S7 stroke grestore} bind def
/D8 {gsave translate 45 rotate 0 0 S8 stroke grestore} bind def
/D9 {gsave translate 45 rotate 0 0 S9 stroke grestore} bind def
/D10 {gsave translate 45 rotate 0 0 S10 stroke grestore} bind def
/D11 {gsave translate 45 rotate 0 0 S11 stroke grestore} bind def
/D12 {gsave translate 45 rotate 0 0 S12 stroke grestore} bind def
/D13 {gsave translate 45 rotate 0 0 S13 stroke grestore} bind def
/D14 {gsave translate 45 rotate 0 0 S14 stroke grestore} bind def
/D15 {gsave translate 45 rotate 0 0 S15 stroke grestore} bind def
/DiaE {stroke [] 0 setdash vpt add M
  hpt neg vpt neg V hpt vpt neg V
  hpt vpt V hpt neg vpt V closepath stroke} def
/BoxE {stroke [] 0 setdash exch hpt sub exch vpt add M
  0 vpt2 neg V hpt2 0 V 0 vpt2 V
  hpt2 neg 0 V closepath stroke} def
/TriUE {stroke [] 0 setdash vpt 1.12 mul add M
  hpt neg vpt -1.62 mul V
  hpt 2 mul 0 V
  hpt neg vpt 1.62 mul V closepath stroke} def
/TriDE {stroke [] 0 setdash vpt 1.12 mul sub M
  hpt neg vpt 1.62 mul V
  hpt 2 mul 0 V
  hpt neg vpt -1.62 mul V closepath stroke} def
/PentE {stroke [] 0 setdash gsave
  translate 0 hpt M 4 {72 rotate 0 hpt L} repeat
  closepath stroke grestore} def
/CircE {stroke [] 0 setdash 
  hpt 0 360 arc stroke} def
/Opaque {gsave closepath 1 setgray fill grestore 0 setgray closepath} def
/DiaW {stroke [] 0 setdash vpt add M
  hpt neg vpt neg V hpt vpt neg V
  hpt vpt V hpt neg vpt V Opaque stroke} def
/BoxW {stroke [] 0 setdash exch hpt sub exch vpt add M
  0 vpt2 neg V hpt2 0 V 0 vpt2 V
  hpt2 neg 0 V Opaque stroke} def
/TriUW {stroke [] 0 setdash vpt 1.12 mul add M
  hpt neg vpt -1.62 mul V
  hpt 2 mul 0 V
  hpt neg vpt 1.62 mul V Opaque stroke} def
/TriDW {stroke [] 0 setdash vpt 1.12 mul sub M
  hpt neg vpt 1.62 mul V
  hpt 2 mul 0 V
  hpt neg vpt -1.62 mul V Opaque stroke} def
/PentW {stroke [] 0 setdash gsave
  translate 0 hpt M 4 {72 rotate 0 hpt L} repeat
  Opaque stroke grestore} def
/CircW {stroke [] 0 setdash 
  hpt 0 360 arc Opaque stroke} def
/BoxFill {gsave Rec 1 setgray fill grestore} def
/Density {
  /Fillden exch def
  currentrgbcolor
  /ColB exch def /ColG exch def /ColR exch def
  /ColR ColR Fillden mul Fillden sub 1 add def
  /ColG ColG Fillden mul Fillden sub 1 add def
  /ColB ColB Fillden mul Fillden sub 1 add def
  ColR ColG ColB setrgbcolor} def
/BoxColFill {gsave Rec PolyFill} def
/PolyFill {gsave Density fill grestore grestore} def
/h {rlineto rlineto rlineto gsave closepath fill grestore} bind def
%
% PostScript Level 1 Pattern Fill routine for rectangles
% Usage: x y w h s a XX PatternFill
%	x,y = lower left corner of box to be filled
%	w,h = width and height of box
%	  a = angle in degrees between lines and x-axis
%	 XX = 0/1 for no/yes cross-hatch
%
/PatternFill {gsave /PFa [ 9 2 roll ] def
  PFa 0 get PFa 2 get 2 div add PFa 1 get PFa 3 get 2 div add translate
  PFa 2 get -2 div PFa 3 get -2 div PFa 2 get PFa 3 get Rec
  TransparentPatterns {} {gsave 1 setgray fill grestore} ifelse
  clip
  currentlinewidth 0.5 mul setlinewidth
  /PFs PFa 2 get dup mul PFa 3 get dup mul add sqrt def
  0 0 M PFa 5 get rotate PFs -2 div dup translate
  0 1 PFs PFa 4 get div 1 add floor cvi
	{PFa 4 get mul 0 M 0 PFs V} for
  0 PFa 6 get ne {
	0 1 PFs PFa 4 get div 1 add floor cvi
	{PFa 4 get mul 0 2 1 roll M PFs 0 V} for
 } if
  stroke grestore} def
%
/languagelevel where
 {pop languagelevel} {1} ifelse
dup 2 lt
	{/InterpretLevel1 true def
	 /InterpretLevel3 false def}
	{/InterpretLevel1 Level1 def
	 2 gt
	    {/InterpretLevel3 Level3 def}
	    {/InterpretLevel3 false def}
	 ifelse }
 ifelse
%
% PostScript level 2 pattern fill definitions
%
/Level2PatternFill {
/Tile8x8 {/PaintType 2 /PatternType 1 /TilingType 1 /BBox [0 0 8 8] /XStep 8 /YStep 8}
	bind def
/KeepColor {currentrgbcolor [/Pattern /DeviceRGB] setcolorspace} bind def
<< Tile8x8
 /PaintProc {0.5 setlinewidth pop 0 0 M 8 8 L 0 8 M 8 0 L stroke} 
>> matrix makepattern
/Pat1 exch def
<< Tile8x8
 /PaintProc {0.5 setlinewidth pop 0 0 M 8 8 L 0 8 M 8 0 L stroke
	0 4 M 4 8 L 8 4 L 4 0 L 0 4 L stroke}
>> matrix makepattern
/Pat2 exch def
<< Tile8x8
 /PaintProc {0.5 setlinewidth pop 0 0 M 0 8 L
	8 8 L 8 0 L 0 0 L fill}
>> matrix makepattern
/Pat3 exch def
<< Tile8x8
 /PaintProc {0.5 setlinewidth pop -4 8 M 8 -4 L
	0 12 M 12 0 L stroke}
>> matrix makepattern
/Pat4 exch def
<< Tile8x8
 /PaintProc {0.5 setlinewidth pop -4 0 M 8 12 L
	0 -4 M 12 8 L stroke}
>> matrix makepattern
/Pat5 exch def
<< Tile8x8
 /PaintProc {0.5 setlinewidth pop -2 8 M 4 -4 L
	0 12 M 8 -4 L 4 12 M 10 0 L stroke}
>> matrix makepattern
/Pat6 exch def
<< Tile8x8
 /PaintProc {0.5 setlinewidth pop -2 0 M 4 12 L
	0 -4 M 8 12 L 4 -4 M 10 8 L stroke}
>> matrix makepattern
/Pat7 exch def
<< Tile8x8
 /PaintProc {0.5 setlinewidth pop 8 -2 M -4 4 L
	12 0 M -4 8 L 12 4 M 0 10 L stroke}
>> matrix makepattern
/Pat8 exch def
<< Tile8x8
 /PaintProc {0.5 setlinewidth pop 0 -2 M 12 4 L
	-4 0 M 12 8 L -4 4 M 8 10 L stroke}
>> matrix makepattern
/Pat9 exch def
/Pattern1 {PatternBgnd KeepColor Pat1 setpattern} bind def
/Pattern2 {PatternBgnd KeepColor Pat2 setpattern} bind def
/Pattern3 {PatternBgnd KeepColor Pat3 setpattern} bind def
/Pattern4 {PatternBgnd KeepColor Landscape {Pat5} {Pat4} ifelse setpattern} bind def
/Pattern5 {PatternBgnd KeepColor Landscape {Pat4} {Pat5} ifelse setpattern} bind def
/Pattern6 {PatternBgnd KeepColor Landscape {Pat9} {Pat6} ifelse setpattern} bind def
/Pattern7 {PatternBgnd KeepColor Landscape {Pat8} {Pat7} ifelse setpattern} bind def
} def
%
%
%End of PostScript Level 2 code
%
/PatternBgnd {
  TransparentPatterns {} {gsave 1 setgray fill grestore} ifelse
} def
%
% Substitute for Level 2 pattern fill codes with
% grayscale if Level 2 support is not selected.
%
/Level1PatternFill {
/Pattern1 {0.250 Density} bind def
/Pattern2 {0.500 Density} bind def
/Pattern3 {0.750 Density} bind def
/Pattern4 {0.125 Density} bind def
/Pattern5 {0.375 Density} bind def
/Pattern6 {0.625 Density} bind def
/Pattern7 {0.875 Density} bind def
} def
%
% Now test for support of Level 2 code
%
Level1 {Level1PatternFill} {Level2PatternFill} ifelse
%
/Symbol-Oblique /Symbol findfont [1 0 .167 1 0 0] makefont
dup length dict begin {1 index /FID eq {pop pop} {def} ifelse} forall
currentdict end definefont pop
%
/MFshow {
   { dup 5 get 3 ge
     { 5 get 3 eq {gsave} {grestore} ifelse }
     {dup dup 0 get findfont exch 1 get scalefont setfont
     [ currentpoint ] exch dup 2 get 0 exch R dup 5 get 2 ne {dup dup 6
     get exch 4 get {textshow} {stringwidth pop 0 R} ifelse }if dup 5 get 0 eq
     {dup 3 get {2 get neg 0 exch R pop} {pop aload pop M} ifelse} {dup 5
     get 1 eq {dup 2 get exch dup 3 get exch 6 get stringwidth pop -2 div
     dup 0 R} {dup 6 get stringwidth pop -2 div 0 R 6 get
     textshow 2 index {aload pop M neg 3 -1 roll neg R pop pop} {pop pop pop
     pop aload pop M} ifelse }ifelse }ifelse }
     ifelse }
   forall} def
/Gswidth {dup type /stringtype eq {stringwidth} {pop (n) stringwidth} ifelse} def
/MFwidth {0 exch { dup 5 get 3 ge { 5 get 3 eq { 0 } { pop } ifelse }
 {dup 3 get{dup dup 0 get findfont exch 1 get scalefont setfont
     6 get Gswidth pop add} {pop} ifelse} ifelse} forall} def
/MLshow { currentpoint stroke M
  0 exch R
  Blacktext {gsave 0 setgray MFshow grestore} {MFshow} ifelse } bind def
/MRshow { currentpoint stroke M
  exch dup MFwidth neg 3 -1 roll R
  Blacktext {gsave 0 setgray MFshow grestore} {MFshow} ifelse } bind def
/MCshow { currentpoint stroke M
  exch dup MFwidth -2 div 3 -1 roll R
  Blacktext {gsave 0 setgray MFshow grestore} {MFshow} ifelse } bind def
/XYsave    { [( ) 1 2 true false 3 ()] } bind def
/XYrestore { [( ) 1 2 true false 4 ()] } bind def
Level1 SuppressPDFMark or 
{} {
/SDict 10 dict def
systemdict /pdfmark known not {
  userdict /pdfmark systemdict /cleartomark get put
} if
SDict begin [
  /Title (TcpBic-download-finishtime-50UE-panoramic.eps)
  /Subject (gnuplot plot)
  /Creator (gnuplot 5.0 patchlevel 3)
  /Author (nat)
%  /Producer (gnuplot)
%  /Keywords ()
  /CreationDate (Tue Jun  7 16:10:53 2016)
  /DOCINFO pdfmark
end
} ifelse
%
% Support for boxed text - Ethan A Merritt May 2005
%
/InitTextBox { userdict /TBy2 3 -1 roll put userdict /TBx2 3 -1 roll put
           userdict /TBy1 3 -1 roll put userdict /TBx1 3 -1 roll put
	   /Boxing true def } def
/ExtendTextBox { Boxing
    { gsave dup false charpath pathbbox
      dup TBy2 gt {userdict /TBy2 3 -1 roll put} {pop} ifelse
      dup TBx2 gt {userdict /TBx2 3 -1 roll put} {pop} ifelse
      dup TBy1 lt {userdict /TBy1 3 -1 roll put} {pop} ifelse
      dup TBx1 lt {userdict /TBx1 3 -1 roll put} {pop} ifelse
      grestore } if } def
/PopTextBox { newpath TBx1 TBxmargin sub TBy1 TBymargin sub M
               TBx1 TBxmargin sub TBy2 TBymargin add L
	       TBx2 TBxmargin add TBy2 TBymargin add L
	       TBx2 TBxmargin add TBy1 TBymargin sub L closepath } def
/DrawTextBox { PopTextBox stroke /Boxing false def} def
/FillTextBox { gsave PopTextBox 1 1 1 setrgbcolor fill grestore /Boxing false def} def
0 0 0 0 InitTextBox
/TBxmargin 20 def
/TBymargin 20 def
/Boxing false def
/textshow { ExtendTextBox Gshow } def
%
% redundant definitions for compatibility with prologue.ps older than 5.0.2
/LTB {BL [] LCb DL} def
/LTb {PL [] LCb DL} def
end
%%EndProlog
%%Page: 1 1
gnudict begin
gsave
doclip
50 50 translate
0.050 0.050 scale
0 setgray
newpath
(Arial) findfont 200 scalefont setfont
BackgroundColor 0 lt 3 1 roll 0 lt exch 0 lt or or not {BackgroundColor C 1.000 0 0 14400.00 5040.00 BoxColFill} if
1.000 UL
LTb
0.00 0.00 0.00 C 0.500 UL
LTa
0.50 0.50 0.50 C 980 1000 M
12139 0 V
stroke
1.000 UL
LTb
0.00 0.00 0.00 C 980 1000 M
63 0 V
stroke
860 1000 M
[ [(Arial) 200.0 0.0 true true 0 ( 0)]
] -66.7 MRshow
1.000 UL
LTb
0.00 0.00 0.00 C 0.500 UL
LTa
0.50 0.50 0.50 C 980 1475 M
12139 0 V
stroke
1.000 UL
LTb
0.00 0.00 0.00 C 980 1475 M
63 0 V
stroke
860 1475 M
[ [(Arial) 200.0 0.0 true true 0 ( 20)]
] -66.7 MRshow
1.000 UL
LTb
0.00 0.00 0.00 C 0.500 UL
LTa
0.50 0.50 0.50 C 980 1950 M
12139 0 V
stroke
1.000 UL
LTb
0.00 0.00 0.00 C 980 1950 M
63 0 V
stroke
860 1950 M
[ [(Arial) 200.0 0.0 true true 0 ( 40)]
] -66.7 MRshow
1.000 UL
LTb
0.00 0.00 0.00 C 0.500 UL
LTa
0.50 0.50 0.50 C 980 2425 M
12139 0 V
stroke
1.000 UL
LTb
0.00 0.00 0.00 C 980 2425 M
63 0 V
stroke
860 2425 M
[ [(Arial) 200.0 0.0 true true 0 ( 60)]
] -66.7 MRshow
1.000 UL
LTb
0.00 0.00 0.00 C 0.500 UL
LTa
0.50 0.50 0.50 C 980 2900 M
12139 0 V
stroke
1.000 UL
LTb
0.00 0.00 0.00 C 980 2900 M
63 0 V
stroke
860 2900 M
[ [(Arial) 200.0 0.0 true true 0 ( 80)]
] -66.7 MRshow
1.000 UL
LTb
0.00 0.00 0.00 C 0.500 UL
LTa
0.50 0.50 0.50 C 980 3374 M
12139 0 V
stroke
1.000 UL
LTb
0.00 0.00 0.00 C 980 3374 M
63 0 V
stroke
860 3374 M
[ [(Arial) 200.0 0.0 true true 0 ( 100)]
] -66.7 MRshow
1.000 UL
LTb
0.00 0.00 0.00 C 0.500 UL
LTa
0.50 0.50 0.50 C 980 3849 M
12139 0 V
stroke
1.000 UL
LTb
0.00 0.00 0.00 C 980 3849 M
63 0 V
stroke
860 3849 M
[ [(Arial) 200.0 0.0 true true 0 ( 120)]
] -66.7 MRshow
1.000 UL
LTb
0.00 0.00 0.00 C 0.500 UL
LTa
0.50 0.50 0.50 C 980 4324 M
12139 0 V
stroke
1.000 UL
LTb
0.00 0.00 0.00 C 980 4324 M
63 0 V
stroke
860 4324 M
[ [(Arial) 200.0 0.0 true true 0 ( 140)]
] -66.7 MRshow
1.000 UL
LTb
0.00 0.00 0.00 C 0.500 UL
LTa
0.50 0.50 0.50 C 980 4799 M
12139 0 V
stroke
1.000 UL
LTb
0.00 0.00 0.00 C 980 4799 M
63 0 V
stroke
860 4799 M
[ [(Arial) 200.0 0.0 true true 0 ( 160)]
] -66.7 MRshow
1.000 UL
LTb
0.00 0.00 0.00 C 0.500 UL
LTa
0.50 0.50 0.50 C 1235 1000 M
0 3799 V
stroke
1.000 UL
LTb
0.00 0.00 0.00 C 1235 1000 M
0 63 V
0 3736 R
0 -63 V
stroke
1235 800 M
[ [(Arial) 200.0 0.0 true true 0 ( 60)]
] -66.7 MCshow
1.000 UL
LTb
0.00 0.00 0.00 C 0.500 UL
LTa
0.50 0.50 0.50 C 1847 1000 M
0 3799 V
stroke
1.000 UL
LTb
0.00 0.00 0.00 C 1847 1000 M
0 63 V
0 3736 R
0 -63 V
stroke
1847 800 M
[ [(Arial) 200.0 0.0 true true 0 ( 120)]
] -66.7 MCshow
1.000 UL
LTb
0.00 0.00 0.00 C 0.500 UL
LTa
0.50 0.50 0.50 C 2459 1000 M
0 3799 V
stroke
1.000 UL
LTb
0.00 0.00 0.00 C 2459 1000 M
0 63 V
0 3736 R
0 -63 V
stroke
2459 800 M
[ [(Arial) 200.0 0.0 true true 0 ( 180)]
] -66.7 MCshow
1.000 UL
LTb
0.00 0.00 0.00 C 0.500 UL
LTa
0.50 0.50 0.50 C 3071 1000 M
0 3799 V
stroke
1.000 UL
LTb
0.00 0.00 0.00 C 3071 1000 M
0 63 V
0 3736 R
0 -63 V
stroke
3071 800 M
[ [(Arial) 200.0 0.0 true true 0 ( 240)]
] -66.7 MCshow
1.000 UL
LTb
0.00 0.00 0.00 C 0.500 UL
LTa
0.50 0.50 0.50 C 3683 1000 M
0 3799 V
stroke
1.000 UL
LTb
0.00 0.00 0.00 C 3683 1000 M
0 63 V
0 3736 R
0 -63 V
stroke
3683 800 M
[ [(Arial) 200.0 0.0 true true 0 ( 300)]
] -66.7 MCshow
1.000 UL
LTb
0.00 0.00 0.00 C 0.500 UL
LTa
0.50 0.50 0.50 C 4295 1000 M
0 3799 V
stroke
1.000 UL
LTb
0.00 0.00 0.00 C 4295 1000 M
0 63 V
0 3736 R
0 -63 V
stroke
4295 800 M
[ [(Arial) 200.0 0.0 true true 0 ( 360)]
] -66.7 MCshow
1.000 UL
LTb
0.00 0.00 0.00 C 0.500 UL
LTa
0.50 0.50 0.50 C 4907 1000 M
0 3799 V
stroke
1.000 UL
LTb
0.00 0.00 0.00 C 4907 1000 M
0 63 V
0 3736 R
0 -63 V
stroke
4907 800 M
[ [(Arial) 200.0 0.0 true true 0 ( 420)]
] -66.7 MCshow
1.000 UL
LTb
0.00 0.00 0.00 C 0.500 UL
LTa
0.50 0.50 0.50 C 5519 1000 M
0 3799 V
stroke
1.000 UL
LTb
0.00 0.00 0.00 C 5519 1000 M
0 63 V
0 3736 R
0 -63 V
stroke
5519 800 M
[ [(Arial) 200.0 0.0 true true 0 ( 480)]
] -66.7 MCshow
1.000 UL
LTb
0.00 0.00 0.00 C 0.500 UL
LTa
0.50 0.50 0.50 C 6131 1000 M
0 3799 V
stroke
1.000 UL
LTb
0.00 0.00 0.00 C 6131 1000 M
0 63 V
0 3736 R
0 -63 V
stroke
6131 800 M
[ [(Arial) 200.0 0.0 true true 0 ( 540)]
] -66.7 MCshow
1.000 UL
LTb
0.00 0.00 0.00 C 0.500 UL
LTa
0.50 0.50 0.50 C 6743 1000 M
0 3799 V
stroke
1.000 UL
LTb
0.00 0.00 0.00 C 6743 1000 M
0 63 V
0 3736 R
0 -63 V
stroke
6743 800 M
[ [(Arial) 200.0 0.0 true true 0 ( 600)]
] -66.7 MCshow
1.000 UL
LTb
0.00 0.00 0.00 C 0.500 UL
LTa
0.50 0.50 0.50 C 7356 1000 M
0 3799 V
stroke
1.000 UL
LTb
0.00 0.00 0.00 C 7356 1000 M
0 63 V
0 3736 R
0 -63 V
stroke
7356 800 M
[ [(Arial) 200.0 0.0 true true 0 ( 660)]
] -66.7 MCshow
1.000 UL
LTb
0.00 0.00 0.00 C 0.500 UL
LTa
0.50 0.50 0.50 C 7968 1000 M
0 3799 V
stroke
1.000 UL
LTb
0.00 0.00 0.00 C 7968 1000 M
0 63 V
0 3736 R
0 -63 V
stroke
7968 800 M
[ [(Arial) 200.0 0.0 true true 0 ( 720)]
] -66.7 MCshow
1.000 UL
LTb
0.00 0.00 0.00 C 0.500 UL
LTa
0.50 0.50 0.50 C 8580 1000 M
0 3799 V
stroke
1.000 UL
LTb
0.00 0.00 0.00 C 8580 1000 M
0 63 V
0 3736 R
0 -63 V
stroke
8580 800 M
[ [(Arial) 200.0 0.0 true true 0 ( 780)]
] -66.7 MCshow
1.000 UL
LTb
0.00 0.00 0.00 C 0.500 UL
LTa
0.50 0.50 0.50 C 9192 1000 M
0 3799 V
stroke
1.000 UL
LTb
0.00 0.00 0.00 C 9192 1000 M
0 63 V
0 3736 R
0 -63 V
stroke
9192 800 M
[ [(Arial) 200.0 0.0 true true 0 ( 840)]
] -66.7 MCshow
1.000 UL
LTb
0.00 0.00 0.00 C 0.500 UL
LTa
0.50 0.50 0.50 C 9804 1000 M
0 3799 V
stroke
1.000 UL
LTb
0.00 0.00 0.00 C 9804 1000 M
0 63 V
0 3736 R
0 -63 V
stroke
9804 800 M
[ [(Arial) 200.0 0.0 true true 0 ( 900)]
] -66.7 MCshow
1.000 UL
LTb
0.00 0.00 0.00 C 0.500 UL
LTa
0.50 0.50 0.50 C 10416 1000 M
0 3799 V
stroke
1.000 UL
LTb
0.00 0.00 0.00 C 10416 1000 M
0 63 V
0 3736 R
0 -63 V
stroke
10416 800 M
[ [(Arial) 200.0 0.0 true true 0 ( 960)]
] -66.7 MCshow
1.000 UL
LTb
0.00 0.00 0.00 C 0.500 UL
LTa
0.50 0.50 0.50 C 11028 1000 M
0 3799 V
stroke
1.000 UL
LTb
0.00 0.00 0.00 C 11028 1000 M
0 63 V
0 3736 R
0 -63 V
stroke
11028 800 M
[ [(Arial) 200.0 0.0 true true 0 ( 1020)]
] -66.7 MCshow
1.000 UL
LTb
0.00 0.00 0.00 C 0.500 UL
LTa
0.50 0.50 0.50 C 11640 1000 M
0 3799 V
stroke
1.000 UL
LTb
0.00 0.00 0.00 C 11640 1000 M
0 63 V
0 3736 R
0 -63 V
stroke
11640 800 M
[ [(Arial) 200.0 0.0 true true 0 ( 1080)]
] -66.7 MCshow
1.000 UL
LTb
0.00 0.00 0.00 C 0.500 UL
LTa
0.50 0.50 0.50 C 12252 1000 M
0 3799 V
stroke
1.000 UL
LTb
0.00 0.00 0.00 C 12252 1000 M
0 63 V
0 3736 R
0 -63 V
stroke
12252 800 M
[ [(Arial) 200.0 0.0 true true 0 ( 1140)]
] -66.7 MCshow
1.000 UL
LTb
0.00 0.00 0.00 C 0.500 UL
LTa
0.50 0.50 0.50 C 12864 1000 M
0 3799 V
stroke
1.000 UL
LTb
0.00 0.00 0.00 C 12864 1000 M
0 63 V
0 3736 R
0 -63 V
stroke
12864 800 M
[ [(Arial) 200.0 0.0 true true 0 ( 1200)]
] -66.7 MCshow
1.000 UL
LTb
0.00 0.00 0.00 C 13119 1000 M
-63 0 V
stroke
13239 1000 M
[ [(Arial) 200.0 0.0 true true 0 ( 0)]
] -66.7 MLshow
1.000 UL
LTb
0.00 0.00 0.00 C 13119 1760 M
-63 0 V
stroke
13239 1760 M
[ [(Arial) 200.0 0.0 true true 0 ( 20)]
] -66.7 MLshow
1.000 UL
LTb
0.00 0.00 0.00 C 13119 2520 M
-63 0 V
stroke
13239 2520 M
[ [(Arial) 200.0 0.0 true true 0 ( 40)]
] -66.7 MLshow
1.000 UL
LTb
0.00 0.00 0.00 C 13119 3279 M
-63 0 V
stroke
13239 3279 M
[ [(Arial) 200.0 0.0 true true 0 ( 60)]
] -66.7 MLshow
1.000 UL
LTb
0.00 0.00 0.00 C 13119 4039 M
-63 0 V
stroke
13239 4039 M
[ [(Arial) 200.0 0.0 true true 0 ( 80)]
] -66.7 MLshow
1.000 UL
LTb
0.00 0.00 0.00 C 13119 4799 M
-63 0 V
stroke
13239 4799 M
[ [(Arial) 200.0 0.0 true true 0 ( 100)]
] -66.7 MLshow
1.000 UL
LTb
0.00 0.00 0.00 C 1.000 UL
LTB
0.00 0.00 0.00 C 980 4799 M
0 -3799 V
12139 0 V
0 3799 R
980 4799 M
1.000 UP
stroke
LTb
0.00 0.00 0.00 C LCb setrgbcolor
160 2899 M
currentpoint gsave translate -270 rotate 0 0 moveto
[ [(Arial) 200.0 0.0 true true 0 (File download time \(s\))]
] -66.7 MCshow
grestore
LTb
LCb setrgbcolor
13938 2899 M
currentpoint gsave translate -270 rotate 0 0 moveto
[ [(Arial) 200.0 0.0 true true 0 (Average UDP throughput [%])]
] -66.7 MCshow
grestore
LTb
LCb setrgbcolor
7049 500 M
[ [(Arial) 200.0 0.0 true true 0 (Local Backhaul traffic \(Mb/s\))]
] -66.7 MCshow
LTb
% Begin plot #1
1.000 UL
LTb
0.60 0.60 0.00 C LCb setrgbcolor
4714 333 M
[ [(Arial) 180.0 0.0 true true 0 (file download time    :   olsr)]
] -60.0 MRshow
1.000 UL
LTb
0.60 0.60 0.00 C 4822 288 333 90 80 -45 0 PatternFill
4822 288 N
333 0 V
0 90 V
-333 0 V
0 -90 V
Z stroke
1.000 UL
LTb
0.60 0.60 0.00 C 990 1253 154 255 80 -45 0 PatternFill
1067 1072 M
0 181 V
0 255 R
0 153 V
stroke
990 1253 N
154 0 V
0 255 V
-154 0 V
0 -255 V
Z stroke
990 1661 M
154 0 V
990 1072 M
154 0 V
stroke
1602 1283 154 269 80 -45 0 PatternFill
1679 1072 M
0 211 V
0 269 R
0 209 V
stroke
1602 1283 N
154 0 V
0 269 V
-154 0 V
0 -269 V
Z stroke
1602 1761 M
154 0 V
1602 1072 M
154 0 V
stroke
2214 1276 154 291 80 -45 0 PatternFill
2291 1072 M
0 204 V
0 291 R
0 127 V
stroke
2214 1276 N
154 0 V
0 291 V
-154 0 V
0 -291 V
Z stroke
2214 1694 M
154 0 V
2214 1072 M
154 0 V
stroke
2826 1235 154 320 80 -45 0 PatternFill
2903 1072 M
0 163 V
0 320 R
0 190 V
stroke
2826 1235 N
154 0 V
0 320 V
-154 0 V
0 -320 V
Z stroke
2826 1745 M
154 0 V
2826 1072 M
154 0 V
stroke
3438 1264 154 279 80 -45 0 PatternFill
3515 1072 M
0 192 V
0 279 R
0 188 V
stroke
3438 1264 N
154 0 V
0 279 V
-154 0 V
0 -279 V
Z stroke
3438 1731 M
154 0 V
3438 1072 M
154 0 V
stroke
4050 1263 154 280 80 -45 0 PatternFill
4127 1072 M
0 191 V
0 280 R
0 157 V
stroke
4050 1263 N
154 0 V
0 280 V
-154 0 V
0 -280 V
Z stroke
4050 1700 M
154 0 V
4050 1072 M
154 0 V
stroke
4663 1261 154 327 80 -45 0 PatternFill
4740 1072 M
0 189 V
0 327 R
0 148 V
stroke
4663 1261 N
154 0 V
0 327 V
-154 0 V
0 -327 V
Z stroke
4663 1736 M
154 0 V
4663 1072 M
154 0 V
stroke
5275 1289 154 245 80 -45 0 PatternFill
5352 1072 M
0 217 V
0 245 R
0 240 V
stroke
5275 1289 N
154 0 V
0 245 V
-154 0 V
0 -245 V
Z stroke
5275 1774 M
154 0 V
5275 1072 M
154 0 V
stroke
5887 1238 154 325 80 -45 0 PatternFill
5964 1072 M
0 166 V
0 325 R
0 87 V
stroke
5887 1238 N
154 0 V
0 325 V
-154 0 V
0 -325 V
Z stroke
5887 1650 M
154 0 V
5887 1072 M
154 0 V
stroke
6499 1273 154 276 80 -45 0 PatternFill
6576 1072 M
0 201 V
0 276 R
0 177 V
stroke
6499 1273 N
154 0 V
0 276 V
-154 0 V
0 -276 V
Z stroke
6499 1726 M
154 0 V
6499 1072 M
154 0 V
stroke
7111 1224 154 333 80 -45 0 PatternFill
7188 1072 M
0 152 V
0 333 R
0 148 V
stroke
7111 1224 N
154 0 V
0 333 V
-154 0 V
0 -333 V
Z stroke
7111 1705 M
154 0 V
7111 1072 M
154 0 V
stroke
7723 1257 154 277 80 -45 0 PatternFill
7800 1072 M
0 185 V
0 277 R
0 323 V
stroke
7723 1257 N
154 0 V
0 277 V
-154 0 V
0 -277 V
Z stroke
7723 1857 M
154 0 V
7723 1072 M
154 0 V
stroke
8335 1257 154 295 80 -45 0 PatternFill
8412 1072 M
0 185 V
0 295 R
0 94 V
stroke
8335 1257 N
154 0 V
0 295 V
-154 0 V
0 -295 V
Z stroke
8335 1646 M
154 0 V
8335 1072 M
154 0 V
stroke
8947 1249 154 293 80 -45 0 PatternFill
9024 1072 M
0 177 V
0 293 R
0 270 V
stroke
8947 1249 N
154 0 V
0 293 V
-154 0 V
0 -293 V
Z stroke
8947 1812 M
154 0 V
8947 1072 M
154 0 V
stroke
9559 1241 154 322 80 -45 0 PatternFill
9636 1072 M
0 169 V
0 322 R
0 219 V
stroke
9559 1241 N
154 0 V
0 322 V
-154 0 V
0 -322 V
Z stroke
9559 1782 M
154 0 V
9559 1072 M
154 0 V
stroke
10171 1267 154 301 80 -45 0 PatternFill
10248 1072 M
0 195 V
0 301 R
0 127 V
stroke
10171 1267 N
154 0 V
0 301 V
-154 0 V
0 -301 V
Z stroke
10171 1695 M
154 0 V
-154 -623 R
154 0 V
stroke
10783 1218 154 342 80 -45 0 PatternFill
10860 1072 M
0 146 V
0 342 R
0 98 V
stroke
10783 1218 N
154 0 V
0 342 V
-154 0 V
0 -342 V
Z stroke
10783 1658 M
154 0 V
-154 -586 R
154 0 V
stroke
11395 1263 154 293 80 -45 0 PatternFill
11472 1072 M
0 191 V
0 293 R
0 232 V
stroke
11395 1263 N
154 0 V
0 293 V
-154 0 V
0 -293 V
Z stroke
11395 1788 M
154 0 V
-154 -716 R
154 0 V
stroke
12007 1249 154 300 80 -45 0 PatternFill
12084 1072 M
0 177 V
0 300 R
0 178 V
stroke
12007 1249 N
154 0 V
0 300 V
-154 0 V
0 -300 V
Z stroke
12007 1727 M
154 0 V
-154 -655 R
154 0 V
stroke
12619 1292 154 303 80 -45 0 PatternFill
12696 1072 M
0 220 V
0 303 R
0 205 V
stroke
12619 1292 N
154 0 V
0 303 V
-154 0 V
0 -303 V
Z stroke
12619 1800 M
154 0 V
-154 -728 R
154 0 V
% End plot #1
% Begin plot #2
stroke
LTb
LCb setrgbcolor

 /TransparentPatterns true def
990 1392 154 0 40 30 0 PatternFill
1067 1392 M
stroke
990 1392 N
154 0 V
-154 0 V
Z stroke
990 1392 M
154 0 V
-154 0 R
154 0 V
stroke

 /TransparentPatterns true def
1602 1407 154 0 40 30 0 PatternFill
1679 1407 M
stroke
1602 1407 N
154 0 V
-154 0 V
Z stroke
1602 1407 M
154 0 V
-154 0 R
154 0 V
stroke

 /TransparentPatterns true def
2214 1411 154 0 40 30 0 PatternFill
2291 1411 M
stroke
2214 1411 N
154 0 V
-154 0 V
Z stroke
2214 1411 M
154 0 V
-154 0 R
154 0 V
stroke

 /TransparentPatterns true def
2826 1405 154 0 40 30 0 PatternFill
2903 1405 M
stroke
2826 1405 N
154 0 V
-154 0 V
Z stroke
2826 1405 M
154 0 V
-154 0 R
154 0 V
stroke

 /TransparentPatterns true def
3438 1394 154 0 40 30 0 PatternFill
3515 1394 M
stroke
3438 1394 N
154 0 V
-154 0 V
Z stroke
3438 1394 M
154 0 V
-154 0 R
154 0 V
stroke

 /TransparentPatterns true def
4050 1411 154 0 40 30 0 PatternFill
4127 1411 M
stroke
4050 1411 N
154 0 V
-154 0 V
Z stroke
4050 1411 M
154 0 V
-154 0 R
154 0 V
stroke

 /TransparentPatterns true def
4663 1420 154 0 40 30 0 PatternFill
4740 1420 M
stroke
4663 1420 N
154 0 V
-154 0 V
Z stroke
4663 1420 M
154 0 V
-154 0 R
154 0 V
stroke

 /TransparentPatterns true def
5275 1403 154 0 40 30 0 PatternFill
5352 1403 M
stroke
5275 1403 N
154 0 V
-154 0 V
Z stroke
5275 1403 M
154 0 V
-154 0 R
154 0 V
stroke

 /TransparentPatterns true def
5887 1402 154 0 40 30 0 PatternFill
5964 1402 M
stroke
5887 1402 N
154 0 V
-154 0 V
Z stroke
5887 1402 M
154 0 V
-154 0 R
154 0 V
stroke

 /TransparentPatterns true def
6499 1403 154 0 40 30 0 PatternFill
6576 1403 M
stroke
6499 1403 N
154 0 V
-154 0 V
Z stroke
6499 1403 M
154 0 V
-154 0 R
154 0 V
stroke

 /TransparentPatterns true def
7111 1403 154 0 40 30 0 PatternFill
7188 1403 M
stroke
7111 1403 N
154 0 V
-154 0 V
Z stroke
7111 1403 M
154 0 V
-154 0 R
154 0 V
stroke

 /TransparentPatterns true def
7723 1405 154 0 40 30 0 PatternFill
7800 1405 M
stroke
7723 1405 N
154 0 V
-154 0 V
Z stroke
7723 1405 M
154 0 V
-154 0 R
154 0 V
stroke

 /TransparentPatterns true def
8335 1396 154 0 40 30 0 PatternFill
8412 1396 M
stroke
8335 1396 N
154 0 V
-154 0 V
Z stroke
8335 1396 M
154 0 V
-154 0 R
154 0 V
stroke

 /TransparentPatterns true def
8947 1402 154 0 40 30 0 PatternFill
9024 1402 M
stroke
8947 1402 N
154 0 V
-154 0 V
Z stroke
8947 1402 M
154 0 V
-154 0 R
154 0 V
stroke

 /TransparentPatterns true def
9559 1401 154 0 40 30 0 PatternFill
9636 1401 M
stroke
9559 1401 N
154 0 V
-154 0 V
Z stroke
9559 1401 M
154 0 V
-154 0 R
154 0 V
stroke

 /TransparentPatterns true def
10171 1402 154 0 40 30 0 PatternFill
10248 1402 M
stroke
10171 1402 N
154 0 V
-154 0 V
Z stroke
10171 1402 M
154 0 V
-154 0 R
154 0 V
stroke

 /TransparentPatterns true def
10783 1390 154 0 40 30 0 PatternFill
10860 1390 M
stroke
10783 1390 N
154 0 V
-154 0 V
Z stroke
10783 1390 M
154 0 V
-154 0 R
154 0 V
stroke

 /TransparentPatterns true def
11395 1416 154 0 40 30 0 PatternFill
11472 1416 M
stroke
11395 1416 N
154 0 V
-154 0 V
Z stroke
11395 1416 M
154 0 V
-154 0 R
154 0 V
stroke

 /TransparentPatterns true def
12007 1415 154 0 40 30 0 PatternFill
12084 1415 M
stroke
12007 1415 N
154 0 V
-154 0 V
Z stroke
12007 1415 M
154 0 V
-154 0 R
154 0 V
stroke

 /TransparentPatterns true def
12619 1445 154 0 40 30 0 PatternFill
12696 1445 M
stroke
12619 1445 N
154 0 V
-154 0 V
Z stroke
12619 1445 M
154 0 V
-154 0 R
154 0 V
% End plot #2
% Begin plot #3
2.000 UP
stroke
LTa
0.60 0.60 0.00 C LCb setrgbcolor
4714 153 M
[ [(Arial) 180.0 0.0 true true 0 (avg. throughput :         )]
] -60.0 MRshow
2.000 UP
1.000 UL
LTa
0.60 0.60 0.00 C 4822 153 M
333 0 V
1067 3735 M
612 133 V
612 -76 V
612 53 V
612 -26 V
612 -27 V
612 27 V
612 47 V
612 -192 V
612 145 V
612 -27 V
612 157 V
612 -243 V
612 204 V
612 -43 V
612 -160 V
613 -1 V
612 59 V
612 27 V
612 -1 V
1067 3735 Box
1679 3868 Box
2291 3792 Box
2903 3845 Box
3515 3819 Box
4127 3792 Box
4739 3819 Box
5351 3866 Box
5963 3674 Box
6575 3819 Box
7187 3792 Box
7799 3949 Box
8411 3706 Box
9023 3910 Box
9635 3867 Box
10247 3707 Box
10860 3706 Box
11472 3765 Box
12084 3792 Box
12696 3791 Box
4988 153 Box
% End plot #3
% Begin plot #4
1.000 UL
LTb
0.00 0.00 0.63 C LCb setrgbcolor
8287 333 M
[ [(Arial) 180.0 0.0 true true 0 (per-packet)]
] -60.0 MRshow
1.000 UL
LTb
0.00 0.00 0.63 C 8395 288 333 90 80 45 0 PatternFill
8395 288 N
333 0 V
0 90 V
-333 0 V
0 -90 V
Z stroke
1.000 UL
LTb
0.00 0.00 0.63 C 1159 1095 154 1224 80 45 0 PatternFill
1236 1059 M
0 36 V
0 1224 R
0 384 V
stroke
1159 1095 N
154 0 V
0 1224 V
-154 0 V
0 -1224 V
Z stroke
1159 2703 M
154 0 V
1159 1059 M
154 0 V
stroke
1771 1095 154 1248 80 45 0 PatternFill
1848 1055 M
0 40 V
0 1248 R
0 246 V
stroke
1771 1095 N
154 0 V
0 1248 V
-154 0 V
0 -1248 V
Z stroke
1771 2589 M
154 0 V
1771 1055 M
154 0 V
stroke
2383 1087 154 1317 80 45 0 PatternFill
2460 1042 M
0 45 V
0 1317 R
0 332 V
stroke
2383 1087 N
154 0 V
0 1317 V
-154 0 V
0 -1317 V
Z stroke
2383 2736 M
154 0 V
2383 1042 M
154 0 V
stroke
2995 1098 154 1280 80 45 0 PatternFill
3072 1065 M
0 33 V
0 1280 R
0 306 V
stroke
2995 1098 N
154 0 V
0 1280 V
-154 0 V
0 -1280 V
Z stroke
2995 2684 M
154 0 V
2995 1065 M
154 0 V
stroke
3607 1082 154 1223 80 45 0 PatternFill
3684 1055 M
0 27 V
0 1223 R
0 287 V
stroke
3607 1082 N
154 0 V
0 1223 V
-154 0 V
0 -1223 V
Z stroke
3607 2592 M
154 0 V
3607 1055 M
154 0 V
stroke
4219 1083 154 1283 80 45 0 PatternFill
4296 1045 M
0 38 V
0 1283 R
0 199 V
stroke
4219 1083 N
154 0 V
0 1283 V
-154 0 V
0 -1283 V
Z stroke
4219 2565 M
154 0 V
4219 1045 M
154 0 V
stroke
4831 1095 154 1299 80 45 0 PatternFill
4908 1044 M
0 51 V
0 1299 R
0 379 V
stroke
4831 1095 N
154 0 V
0 1299 V
-154 0 V
0 -1299 V
Z stroke
4831 2773 M
154 0 V
4831 1044 M
154 0 V
stroke
5443 1087 154 1191 80 45 0 PatternFill
5520 1060 M
0 27 V
0 1191 R
0 415 V
stroke
5443 1087 N
154 0 V
0 1191 V
-154 0 V
0 -1191 V
Z stroke
5443 2693 M
154 0 V
5443 1060 M
154 0 V
stroke
6055 1089 154 1259 80 45 0 PatternFill
6132 1055 M
0 34 V
0 1259 R
0 417 V
stroke
6055 1089 N
154 0 V
0 1259 V
-154 0 V
0 -1259 V
Z stroke
6055 2765 M
154 0 V
6055 1055 M
154 0 V
stroke
6667 1086 154 1223 80 45 0 PatternFill
6744 1053 M
0 33 V
0 1223 R
0 286 V
stroke
6667 1086 N
154 0 V
0 1223 V
-154 0 V
0 -1223 V
Z stroke
6667 2595 M
154 0 V
6667 1053 M
154 0 V
stroke
7279 1087 154 1267 80 45 0 PatternFill
7356 1059 M
0 28 V
0 1267 R
0 256 V
stroke
7279 1087 N
154 0 V
0 1267 V
-154 0 V
0 -1267 V
Z stroke
7279 2610 M
154 0 V
7279 1059 M
154 0 V
stroke
7891 1097 154 1250 80 45 0 PatternFill
7968 1056 M
0 41 V
0 1250 R
0 356 V
stroke
7891 1097 N
154 0 V
0 1250 V
-154 0 V
0 -1250 V
Z stroke
7891 2703 M
154 0 V
7891 1056 M
154 0 V
stroke
8503 1095 154 1136 80 45 0 PatternFill
8580 1059 M
0 36 V
0 1136 R
0 361 V
stroke
8503 1095 N
154 0 V
0 1136 V
-154 0 V
0 -1136 V
Z stroke
8503 2592 M
154 0 V
8503 1059 M
154 0 V
stroke
9115 1087 154 1177 80 45 0 PatternFill
9192 1053 M
0 34 V
0 1177 R
0 241 V
stroke
9115 1087 N
154 0 V
0 1177 V
-154 0 V
0 -1177 V
Z stroke
9115 2505 M
154 0 V
9115 1053 M
154 0 V
stroke
9727 1090 154 1139 80 45 0 PatternFill
9804 1058 M
0 32 V
0 1139 R
0 294 V
stroke
9727 1090 N
154 0 V
0 1139 V
-154 0 V
0 -1139 V
Z stroke
9727 2523 M
154 0 V
9727 1058 M
154 0 V
stroke
10339 1084 154 1143 80 45 0 PatternFill
10416 1058 M
0 26 V
0 1143 R
0 324 V
stroke
10339 1084 N
154 0 V
0 1143 V
-154 0 V
0 -1143 V
Z stroke
10339 2551 M
154 0 V
10339 1058 M
154 0 V
stroke
10951 1093 154 1137 80 45 0 PatternFill
11028 1061 M
0 32 V
0 1137 R
0 340 V
stroke
10951 1093 N
154 0 V
0 1137 V
-154 0 V
0 -1137 V
Z stroke
10951 2570 M
154 0 V
10951 1061 M
154 0 V
stroke
11563 1094 154 1146 80 45 0 PatternFill
11640 1059 M
0 35 V
0 1146 R
0 280 V
stroke
11563 1094 N
154 0 V
0 1146 V
-154 0 V
0 -1146 V
Z stroke
11563 2520 M
154 0 V
11563 1059 M
154 0 V
stroke
12175 1099 154 1148 80 45 0 PatternFill
12252 1061 M
0 38 V
0 1148 R
0 314 V
stroke
12175 1099 N
154 0 V
0 1148 V
-154 0 V
0 -1148 V
Z stroke
12175 2561 M
154 0 V
12175 1061 M
154 0 V
stroke
12787 1118 154 1166 80 45 0 PatternFill
12864 1045 M
0 73 V
0 1166 R
0 274 V
stroke
12787 1118 N
154 0 V
0 1166 V
-154 0 V
0 -1166 V
Z stroke
12787 2558 M
154 0 V
12787 1045 M
154 0 V
% End plot #4
% Begin plot #5
stroke
LTb
LCb setrgbcolor

 /TransparentPatterns true def
1159 1533 154 0 80 -45 0 PatternFill
1236 1533 M
stroke
1159 1533 N
154 0 V
-154 0 V
Z stroke
1159 1533 M
154 0 V
-154 0 R
154 0 V
stroke

 /TransparentPatterns true def
1771 1525 154 0 80 -45 0 PatternFill
1848 1525 M
stroke
1771 1525 N
154 0 V
-154 0 V
Z stroke
1771 1525 M
154 0 V
-154 0 R
154 0 V
stroke

 /TransparentPatterns true def
2383 1548 154 0 80 -45 0 PatternFill
2460 1548 M
stroke
2383 1548 N
154 0 V
-154 0 V
Z stroke
2383 1548 M
154 0 V
-154 0 R
154 0 V
stroke

 /TransparentPatterns true def
2995 1549 154 0 80 -45 0 PatternFill
3072 1549 M
stroke
2995 1549 N
154 0 V
-154 0 V
Z stroke
2995 1549 M
154 0 V
-154 0 R
154 0 V
stroke

 /TransparentPatterns true def
3607 1504 154 0 80 -45 0 PatternFill
3684 1504 M
stroke
3607 1504 N
154 0 V
-154 0 V
Z stroke
3607 1504 M
154 0 V
-154 0 R
154 0 V
stroke

 /TransparentPatterns true def
4219 1530 154 0 80 -45 0 PatternFill
4296 1530 M
stroke
4219 1530 N
154 0 V
-154 0 V
Z stroke
4219 1530 M
154 0 V
-154 0 R
154 0 V
stroke

 /TransparentPatterns true def
4831 1543 154 0 80 -45 0 PatternFill
4908 1543 M
stroke
4831 1543 N
154 0 V
-154 0 V
Z stroke
4831 1543 M
154 0 V
-154 0 R
154 0 V
stroke

 /TransparentPatterns true def
5443 1547 154 0 80 -45 0 PatternFill
5520 1547 M
stroke
5443 1547 N
154 0 V
-154 0 V
Z stroke
5443 1547 M
154 0 V
-154 0 R
154 0 V
stroke

 /TransparentPatterns true def
6055 1544 154 0 80 -45 0 PatternFill
6132 1544 M
stroke
6055 1544 N
154 0 V
-154 0 V
Z stroke
6055 1544 M
154 0 V
-154 0 R
154 0 V
stroke

 /TransparentPatterns true def
6667 1513 154 0 80 -45 0 PatternFill
6744 1513 M
stroke
6667 1513 N
154 0 V
-154 0 V
Z stroke
6667 1513 M
154 0 V
-154 0 R
154 0 V
stroke

 /TransparentPatterns true def
7279 1523 154 0 80 -45 0 PatternFill
7356 1523 M
stroke
7279 1523 N
154 0 V
-154 0 V
Z stroke
7279 1523 M
154 0 V
-154 0 R
154 0 V
stroke

 /TransparentPatterns true def
7891 1543 154 0 80 -45 0 PatternFill
7968 1543 M
stroke
7891 1543 N
154 0 V
-154 0 V
Z stroke
7891 1543 M
154 0 V
-154 0 R
154 0 V
stroke

 /TransparentPatterns true def
8503 1499 154 0 80 -45 0 PatternFill
8580 1499 M
stroke
8503 1499 N
154 0 V
-154 0 V
Z stroke
8503 1499 M
154 0 V
-154 0 R
154 0 V
stroke

 /TransparentPatterns true def
9115 1504 154 0 80 -45 0 PatternFill
9192 1504 M
stroke
9115 1504 N
154 0 V
-154 0 V
Z stroke
9115 1504 M
154 0 V
-154 0 R
154 0 V
stroke

 /TransparentPatterns true def
9727 1496 154 0 80 -45 0 PatternFill
9804 1496 M
stroke
9727 1496 N
154 0 V
-154 0 V
Z stroke
9727 1496 M
154 0 V
-154 0 R
154 0 V
stroke

 /TransparentPatterns true def
10339 1506 154 0 80 -45 0 PatternFill
10416 1506 M
stroke
10339 1506 N
154 0 V
-154 0 V
Z stroke
10339 1506 M
154 0 V
-154 0 R
154 0 V
stroke

 /TransparentPatterns true def
10951 1506 154 0 80 -45 0 PatternFill
11028 1506 M
stroke
10951 1506 N
154 0 V
-154 0 V
Z stroke
10951 1506 M
154 0 V
-154 0 R
154 0 V
stroke

 /TransparentPatterns true def
11563 1517 154 0 80 -45 0 PatternFill
11640 1517 M
stroke
11563 1517 N
154 0 V
-154 0 V
Z stroke
11563 1517 M
154 0 V
-154 0 R
154 0 V
stroke

 /TransparentPatterns true def
12175 1514 154 0 80 -45 0 PatternFill
12252 1514 M
stroke
12175 1514 N
154 0 V
-154 0 V
Z stroke
12175 1514 M
154 0 V
-154 0 R
154 0 V
stroke

 /TransparentPatterns true def
12787 1533 154 0 80 -45 0 PatternFill
12864 1533 M
stroke
12787 1533 N
154 0 V
-154 0 V
Z stroke
12787 1533 M
154 0 V
-154 0 R
154 0 V
% End plot #5
% Begin plot #6
2.000 UP
stroke
LTa
0.00 0.00 0.63 C LCb setrgbcolor
8287 153 M
[ [(Arial) 180.0 0.0 true true 0 ( )]
] -60.0 MRshow
2.000 UP
1.000 UL
LTa
0.00 0.00 0.63 C 8395 153 M
333 0 V
1235 4742 M
612 10 V
612 3 V
612 -3 V
612 -6 V
612 2 V
612 5 V
612 -4 V
612 4 V
612 -5 V
613 1 V
612 3 V
612 -4 V
612 -5 V
612 3 V
612 1 V
612 1 V
612 -3 V
612 1 V
612 1 V
1235 4742 Circle
1847 4752 Circle
2459 4755 Circle
3071 4752 Circle
3683 4746 Circle
4295 4748 Circle
4907 4753 Circle
5519 4749 Circle
6131 4753 Circle
6743 4748 Circle
7356 4749 Circle
7968 4752 Circle
8580 4748 Circle
9192 4743 Circle
9804 4746 Circle
10416 4747 Circle
11028 4748 Circle
11640 4745 Circle
12252 4746 Circle
12864 4747 Circle
8561 153 Circle
% End plot #6
% Begin plot #7
1.000 UL
LTb
0.00 0.38 0.82 C LCb setrgbcolor
11860 333 M
[ [(Arial) 180.0 0.0 true true 0 (per-flow)]
] -60.0 MRshow
1.000 UL
LTb
0.00 0.38 0.82 C 11968 288 333 90 40 30 0 PatternFill
11968 288 N
333 0 V
0 90 V
-333 0 V
0 -90 V
Z stroke
1.000 UL
LTb
0.00 0.38 0.82 C 1327 1093 154 106 40 30 0 PatternFill
1404 1069 M
0 24 V
0 106 R
0 184 V
stroke
1327 1093 N
154 0 V
0 106 V
-154 0 V
0 -106 V
Z stroke
1327 1383 M
154 0 V
1327 1069 M
154 0 V
stroke
1939 1093 154 117 40 30 0 PatternFill
2016 1062 M
0 31 V
0 117 R
0 187 V
stroke
1939 1093 N
154 0 V
0 117 V
-154 0 V
0 -117 V
Z stroke
1939 1397 M
154 0 V
1939 1062 M
154 0 V
stroke
2551 1105 154 117 40 30 0 PatternFill
2628 1058 M
0 47 V
0 117 R
0 291 V
stroke
2551 1105 N
154 0 V
0 117 V
-154 0 V
0 -117 V
Z stroke
2551 1513 M
154 0 V
2551 1058 M
154 0 V
stroke
3163 1087 154 116 40 30 0 PatternFill
3240 1069 M
0 18 V
0 116 R
0 231 V
stroke
3163 1087 N
154 0 V
0 116 V
-154 0 V
0 -116 V
Z stroke
3163 1434 M
154 0 V
3163 1069 M
154 0 V
stroke
3775 1101 154 85 40 30 0 PatternFill
3852 1060 M
0 41 V
0 85 R
0 153 V
stroke
3775 1101 N
154 0 V
0 85 V
-154 0 V
0 -85 V
Z stroke
3775 1339 M
154 0 V
3775 1060 M
154 0 V
stroke
4387 1095 154 103 40 30 0 PatternFill
4464 1064 M
0 31 V
0 103 R
0 182 V
stroke
4387 1095 N
154 0 V
0 103 V
-154 0 V
0 -103 V
Z stroke
4387 1380 M
154 0 V
4387 1064 M
154 0 V
stroke
4999 1094 154 96 40 30 0 PatternFill
5076 1067 M
0 27 V
0 96 R
0 197 V
stroke
4999 1094 N
154 0 V
0 96 V
-154 0 V
0 -96 V
Z stroke
4999 1387 M
154 0 V
4999 1067 M
154 0 V
stroke
5611 1101 154 96 40 30 0 PatternFill
5688 1069 M
0 32 V
0 96 R
0 288 V
stroke
5611 1101 N
154 0 V
0 96 V
-154 0 V
0 -96 V
Z stroke
5611 1485 M
154 0 V
5611 1069 M
154 0 V
stroke
6223 1095 154 108 40 30 0 PatternFill
6300 1070 M
0 25 V
0 108 R
0 176 V
stroke
6223 1095 N
154 0 V
0 108 V
-154 0 V
0 -108 V
Z stroke
6223 1379 M
154 0 V
6223 1070 M
154 0 V
stroke
6835 1104 154 95 40 30 0 PatternFill
6912 1073 M
0 31 V
0 95 R
0 311 V
stroke
6835 1104 N
154 0 V
0 95 V
-154 0 V
0 -95 V
Z stroke
6835 1510 M
154 0 V
6835 1073 M
154 0 V
stroke
7447 1099 154 91 40 30 0 PatternFill
7524 1068 M
0 31 V
0 91 R
0 290 V
stroke
7447 1099 N
154 0 V
0 91 V
-154 0 V
0 -91 V
Z stroke
7447 1480 M
154 0 V
7447 1068 M
154 0 V
stroke
8059 1101 154 103 40 30 0 PatternFill
8136 1072 M
0 29 V
0 103 R
0 215 V
stroke
8059 1101 N
154 0 V
0 103 V
-154 0 V
0 -103 V
Z stroke
8059 1419 M
154 0 V
8059 1072 M
154 0 V
stroke
8671 1102 154 98 40 30 0 PatternFill
8748 1063 M
0 39 V
0 98 R
0 271 V
stroke
8671 1102 N
154 0 V
0 98 V
-154 0 V
0 -98 V
Z stroke
8671 1471 M
154 0 V
8671 1063 M
154 0 V
stroke
9283 1096 154 102 40 30 0 PatternFill
9360 1066 M
0 30 V
0 102 R
0 450 V
stroke
9283 1096 N
154 0 V
0 102 V
-154 0 V
0 -102 V
Z stroke
9283 1648 M
154 0 V
9283 1066 M
154 0 V
stroke
9896 1093 154 101 40 30 0 PatternFill
9973 1056 M
0 37 V
0 101 R
0 232 V
stroke
9896 1093 N
154 0 V
0 101 V
-154 0 V
0 -101 V
Z stroke
9896 1426 M
154 0 V
9896 1056 M
154 0 V
stroke
10508 1101 154 97 40 30 0 PatternFill
10585 1056 M
0 45 V
0 97 R
0 330 V
stroke
10508 1101 N
154 0 V
0 97 V
-154 0 V
0 -97 V
Z stroke
10508 1528 M
154 0 V
-154 -472 R
154 0 V
stroke
11120 1102 154 104 40 30 0 PatternFill
11197 1074 M
0 28 V
0 104 R
0 217 V
stroke
11120 1102 N
154 0 V
0 104 V
-154 0 V
0 -104 V
Z stroke
11120 1423 M
154 0 V
-154 -349 R
154 0 V
stroke
11732 1105 154 104 40 30 0 PatternFill
11809 1054 M
0 51 V
0 104 R
0 161 V
stroke
11732 1105 N
154 0 V
0 104 V
-154 0 V
0 -104 V
Z stroke
11732 1370 M
154 0 V
-154 -316 R
154 0 V
stroke
12344 1101 154 128 40 30 0 PatternFill
12421 1072 M
0 29 V
0 128 R
0 168 V
stroke
12344 1101 N
154 0 V
0 128 V
-154 0 V
0 -128 V
Z stroke
12344 1397 M
154 0 V
-154 -325 R
154 0 V
stroke
12956 1111 154 135 40 30 0 PatternFill
13033 1076 M
0 35 V
0 135 R
0 254 V
stroke
12956 1111 N
154 0 V
0 135 V
-154 0 V
0 -135 V
Z stroke
12956 1500 M
154 0 V
-154 -424 R
154 0 V
% End plot #7
% Begin plot #8
stroke
LTb
LCb setrgbcolor

 /TransparentPatterns true def
1327 1151 154 0 40 -30 0 PatternFill
1404 1151 M
stroke
1327 1151 N
154 0 V
-154 0 V
Z stroke
1327 1151 M
154 0 V
-154 0 R
154 0 V
stroke

 /TransparentPatterns true def
1939 1157 154 0 40 -30 0 PatternFill
2016 1157 M
stroke
1939 1157 N
154 0 V
-154 0 V
Z stroke
1939 1157 M
154 0 V
-154 0 R
154 0 V
stroke

 /TransparentPatterns true def
2551 1170 154 0 40 -30 0 PatternFill
2628 1170 M
stroke
2551 1170 N
154 0 V
-154 0 V
Z stroke
2551 1170 M
154 0 V
-154 0 R
154 0 V
stroke

 /TransparentPatterns true def
3163 1156 154 0 40 -30 0 PatternFill
3240 1156 M
stroke
3163 1156 N
154 0 V
-154 0 V
Z stroke
3163 1156 M
154 0 V
-154 0 R
154 0 V
stroke

 /TransparentPatterns true def
3775 1145 154 0 40 -30 0 PatternFill
3852 1145 M
stroke
3775 1145 N
154 0 V
-154 0 V
Z stroke
3775 1145 M
154 0 V
-154 0 R
154 0 V
stroke

 /TransparentPatterns true def
4387 1149 154 0 40 -30 0 PatternFill
4464 1149 M
stroke
4387 1149 N
154 0 V
-154 0 V
Z stroke
4387 1149 M
154 0 V
-154 0 R
154 0 V
stroke

 /TransparentPatterns true def
4999 1149 154 0 40 -30 0 PatternFill
5076 1149 M
stroke
4999 1149 N
154 0 V
-154 0 V
Z stroke
4999 1149 M
154 0 V
-154 0 R
154 0 V
stroke

 /TransparentPatterns true def
5611 1159 154 0 40 -30 0 PatternFill
5688 1159 M
stroke
5611 1159 N
154 0 V
-154 0 V
Z stroke
5611 1159 M
154 0 V
-154 0 R
154 0 V
stroke

 /TransparentPatterns true def
6223 1152 154 0 40 -30 0 PatternFill
6300 1152 M
stroke
6223 1152 N
154 0 V
-154 0 V
Z stroke
6223 1152 M
154 0 V
-154 0 R
154 0 V
stroke

 /TransparentPatterns true def
6835 1157 154 0 40 -30 0 PatternFill
6912 1157 M
stroke
6835 1157 N
154 0 V
-154 0 V
Z stroke
6835 1157 M
154 0 V
-154 0 R
154 0 V
stroke

 /TransparentPatterns true def
7447 1160 154 0 40 -30 0 PatternFill
7524 1160 M
stroke
7447 1160 N
154 0 V
-154 0 V
Z stroke
7447 1160 M
154 0 V
-154 0 R
154 0 V
stroke

 /TransparentPatterns true def
8059 1159 154 0 40 -30 0 PatternFill
8136 1159 M
stroke
8059 1159 N
154 0 V
-154 0 V
Z stroke
8059 1159 M
154 0 V
-154 0 R
154 0 V
stroke

 /TransparentPatterns true def
8671 1158 154 0 40 -30 0 PatternFill
8748 1158 M
stroke
8671 1158 N
154 0 V
-154 0 V
Z stroke
8671 1158 M
154 0 V
-154 0 R
154 0 V
stroke

 /TransparentPatterns true def
9283 1164 154 0 40 -30 0 PatternFill
9360 1164 M
stroke
9283 1164 N
154 0 V
-154 0 V
Z stroke
9283 1164 M
154 0 V
-154 0 R
154 0 V
stroke

 /TransparentPatterns true def
9896 1146 154 0 40 -30 0 PatternFill
9973 1146 M
stroke
9896 1146 N
154 0 V
-154 0 V
Z stroke
9896 1146 M
154 0 V
-154 0 R
154 0 V
stroke

 /TransparentPatterns true def
10508 1166 154 0 40 -30 0 PatternFill
10585 1166 M
stroke
10508 1166 N
154 0 V
-154 0 V
Z stroke
10508 1166 M
154 0 V
-154 0 R
154 0 V
stroke

 /TransparentPatterns true def
11120 1168 154 0 40 -30 0 PatternFill
11197 1168 M
stroke
11120 1168 N
154 0 V
-154 0 V
Z stroke
11120 1168 M
154 0 V
-154 0 R
154 0 V
stroke

 /TransparentPatterns true def
11732 1164 154 0 40 -30 0 PatternFill
11809 1164 M
stroke
11732 1164 N
154 0 V
-154 0 V
Z stroke
11732 1164 M
154 0 V
-154 0 R
154 0 V
stroke

 /TransparentPatterns true def
12344 1172 154 0 40 -30 0 PatternFill
12421 1172 M
stroke
12344 1172 N
154 0 V
-154 0 V
Z stroke
12344 1172 M
154 0 V
-154 0 R
154 0 V
stroke

 /TransparentPatterns true def
12956 1190 154 0 40 -30 0 PatternFill
13033 1190 M
stroke
12956 1190 N
154 0 V
-154 0 V
Z stroke
12956 1190 M
154 0 V
-154 0 R
154 0 V
% End plot #8
% Begin plot #9
2.000 UP
stroke
LTa
0.00 0.38 0.82 C LCb setrgbcolor
11860 153 M
[ [(Arial) 180.0 0.0 true true 0 ( )]
] -60.0 MRshow
2.000 UP
1.000 UL
LTa
0.00 0.38 0.82 C 11968 153 M
333 0 V
1403 4647 M
612 0 V
612 25 V
612 -15 V
613 -25 V
612 6 V
612 6 V
612 22 V
612 -27 V
612 31 V
612 -4 V
612 -16 V
612 10 V
612 30 V
612 -40 V
612 24 V
612 -25 V
612 -44 V
612 38 V
612 26 V
1403 4647 TriU
2015 4647 TriU
2627 4672 TriU
3239 4657 TriU
3852 4632 TriU
4464 4638 TriU
5076 4644 TriU
5688 4666 TriU
6300 4639 TriU
6912 4670 TriU
7524 4666 TriU
8136 4650 TriU
8748 4660 TriU
9360 4690 TriU
9972 4650 TriU
10584 4674 TriU
11196 4649 TriU
11808 4605 TriU
12420 4643 TriU
13032 4669 TriU
12134 153 TriU
% End plot #9
2.000 UL
LTb
LCb setrgbcolor
1.000 UP
1.000 UL
LTb
0.00 0.00 0.00 C stroke
grestore
end
showpage
%%Trailer
%%DocumentFonts: Arial
