%!PS-Adobe-2.0 EPSF-2.0
%%Title: TcpCubic-download-finishtime-50UE-90-240.eps
%%Creator: gnuplot 5.0 patchlevel 3
%%CreationDate: Thu May 19 16:44:20 2016
%%DocumentFonts: (atend)
%%BoundingBox: 50 50 770 302
%%EndComments
%%BeginProlog
/gnudict 256 dict def
gnudict begin
%
% The following true/false flags may be edited by hand if desired.
% The unit line width and grayscale image gamma correction may also be changed.
%
/Color true def
/Blacktext false def
/Solid false def
/Dashlength 3 def
/Landscape false def
/Level1 false def
/Level3 false def
/Rounded false def
/ClipToBoundingBox false def
/SuppressPDFMark false def
/TransparentPatterns false def
/gnulinewidth 15.000 def
/userlinewidth gnulinewidth def
/Gamma 1.0 def
/BackgroundColor {-1.000 -1.000 -1.000} def
%
/vshift -66 def
/dl1 {
  10.0 Dashlength userlinewidth gnulinewidth div mul mul mul
  Rounded { currentlinewidth 0.75 mul sub dup 0 le { pop 0.01 } if } if
} def
/dl2 {
  10.0 Dashlength userlinewidth gnulinewidth div mul mul mul
  Rounded { currentlinewidth 0.75 mul add } if
} def
/hpt_ 31.5 def
/vpt_ 31.5 def
/hpt hpt_ def
/vpt vpt_ def
/doclip {
  ClipToBoundingBox {
    newpath 50 50 moveto 770 50 lineto 770 302 lineto 50 302 lineto closepath
    clip
  } if
} def
%
% Gnuplot Prolog Version 5.1 (Oct 2015)
%
%/SuppressPDFMark true def
%
/M {moveto} bind def
/L {lineto} bind def
/R {rmoveto} bind def
/V {rlineto} bind def
/N {newpath moveto} bind def
/Z {closepath} bind def
/C {setrgbcolor} bind def
/f {rlineto fill} bind def
/g {setgray} bind def
/Gshow {show} def   % May be redefined later in the file to support UTF-8
/vpt2 vpt 2 mul def
/hpt2 hpt 2 mul def
/Lshow {currentpoint stroke M 0 vshift R 
	Blacktext {gsave 0 setgray textshow grestore} {textshow} ifelse} def
/Rshow {currentpoint stroke M dup stringwidth pop neg vshift R
	Blacktext {gsave 0 setgray textshow grestore} {textshow} ifelse} def
/Cshow {currentpoint stroke M dup stringwidth pop -2 div vshift R 
	Blacktext {gsave 0 setgray textshow grestore} {textshow} ifelse} def
/UP {dup vpt_ mul /vpt exch def hpt_ mul /hpt exch def
  /hpt2 hpt 2 mul def /vpt2 vpt 2 mul def} def
/DL {Color {setrgbcolor Solid {pop []} if 0 setdash}
 {pop pop pop 0 setgray Solid {pop []} if 0 setdash} ifelse} def
/BL {stroke userlinewidth 2 mul setlinewidth
	Rounded {1 setlinejoin 1 setlinecap} if} def
/AL {stroke userlinewidth 2 div setlinewidth
	Rounded {1 setlinejoin 1 setlinecap} if} def
/UL {dup gnulinewidth mul /userlinewidth exch def
	dup 1 lt {pop 1} if 10 mul /udl exch def} def
/PL {stroke userlinewidth setlinewidth
	Rounded {1 setlinejoin 1 setlinecap} if} def
3.8 setmiterlimit
% Classic Line colors (version 5.0)
/LCw {1 1 1} def
/LCb {0 0 0} def
/LCa {0 0 0} def
/LC0 {1 0 0} def
/LC1 {0 1 0} def
/LC2 {0 0 1} def
/LC3 {1 0 1} def
/LC4 {0 1 1} def
/LC5 {1 1 0} def
/LC6 {0 0 0} def
/LC7 {1 0.3 0} def
/LC8 {0.5 0.5 0.5} def
% Default dash patterns (version 5.0)
/LTB {BL [] LCb DL} def
/LTw {PL [] 1 setgray} def
/LTb {PL [] LCb DL} def
/LTa {AL [1 udl mul 2 udl mul] 0 setdash LCa setrgbcolor} def
/LT0 {PL [] LC0 DL} def
/LT1 {PL [2 dl1 3 dl2] LC1 DL} def
/LT2 {PL [1 dl1 1.5 dl2] LC2 DL} def
/LT3 {PL [6 dl1 2 dl2 1 dl1 2 dl2] LC3 DL} def
/LT4 {PL [1 dl1 2 dl2 6 dl1 2 dl2 1 dl1 2 dl2] LC4 DL} def
/LT5 {PL [4 dl1 2 dl2] LC5 DL} def
/LT6 {PL [1.5 dl1 1.5 dl2 1.5 dl1 1.5 dl2 1.5 dl1 6 dl2] LC6 DL} def
/LT7 {PL [3 dl1 3 dl2 1 dl1 3 dl2] LC7 DL} def
/LT8 {PL [2 dl1 2 dl2 2 dl1 6 dl2] LC8 DL} def
/SL {[] 0 setdash} def
/Pnt {stroke [] 0 setdash gsave 1 setlinecap M 0 0 V stroke grestore} def
/Dia {stroke [] 0 setdash 2 copy vpt add M
  hpt neg vpt neg V hpt vpt neg V
  hpt vpt V hpt neg vpt V closepath stroke
  Pnt} def
/Pls {stroke [] 0 setdash vpt sub M 0 vpt2 V
  currentpoint stroke M
  hpt neg vpt neg R hpt2 0 V stroke
 } def
/Box {stroke [] 0 setdash 2 copy exch hpt sub exch vpt add M
  0 vpt2 neg V hpt2 0 V 0 vpt2 V
  hpt2 neg 0 V closepath stroke
  Pnt} def
/Crs {stroke [] 0 setdash exch hpt sub exch vpt add M
  hpt2 vpt2 neg V currentpoint stroke M
  hpt2 neg 0 R hpt2 vpt2 V stroke} def
/TriU {stroke [] 0 setdash 2 copy vpt 1.12 mul add M
  hpt neg vpt -1.62 mul V
  hpt 2 mul 0 V
  hpt neg vpt 1.62 mul V closepath stroke
  Pnt} def
/Star {2 copy Pls Crs} def
/BoxF {stroke [] 0 setdash exch hpt sub exch vpt add M
  0 vpt2 neg V hpt2 0 V 0 vpt2 V
  hpt2 neg 0 V closepath fill} def
/TriUF {stroke [] 0 setdash vpt 1.12 mul add M
  hpt neg vpt -1.62 mul V
  hpt 2 mul 0 V
  hpt neg vpt 1.62 mul V closepath fill} def
/TriD {stroke [] 0 setdash 2 copy vpt 1.12 mul sub M
  hpt neg vpt 1.62 mul V
  hpt 2 mul 0 V
  hpt neg vpt -1.62 mul V closepath stroke
  Pnt} def
/TriDF {stroke [] 0 setdash vpt 1.12 mul sub M
  hpt neg vpt 1.62 mul V
  hpt 2 mul 0 V
  hpt neg vpt -1.62 mul V closepath fill} def
/DiaF {stroke [] 0 setdash vpt add M
  hpt neg vpt neg V hpt vpt neg V
  hpt vpt V hpt neg vpt V closepath fill} def
/Pent {stroke [] 0 setdash 2 copy gsave
  translate 0 hpt M 4 {72 rotate 0 hpt L} repeat
  closepath stroke grestore Pnt} def
/PentF {stroke [] 0 setdash gsave
  translate 0 hpt M 4 {72 rotate 0 hpt L} repeat
  closepath fill grestore} def
/Circle {stroke [] 0 setdash 2 copy
  hpt 0 360 arc stroke Pnt} def
/CircleF {stroke [] 0 setdash hpt 0 360 arc fill} def
/C0 {BL [] 0 setdash 2 copy moveto vpt 90 450 arc} bind def
/C1 {BL [] 0 setdash 2 copy moveto
	2 copy vpt 0 90 arc closepath fill
	vpt 0 360 arc closepath} bind def
/C2 {BL [] 0 setdash 2 copy moveto
	2 copy vpt 90 180 arc closepath fill
	vpt 0 360 arc closepath} bind def
/C3 {BL [] 0 setdash 2 copy moveto
	2 copy vpt 0 180 arc closepath fill
	vpt 0 360 arc closepath} bind def
/C4 {BL [] 0 setdash 2 copy moveto
	2 copy vpt 180 270 arc closepath fill
	vpt 0 360 arc closepath} bind def
/C5 {BL [] 0 setdash 2 copy moveto
	2 copy vpt 0 90 arc
	2 copy moveto
	2 copy vpt 180 270 arc closepath fill
	vpt 0 360 arc} bind def
/C6 {BL [] 0 setdash 2 copy moveto
	2 copy vpt 90 270 arc closepath fill
	vpt 0 360 arc closepath} bind def
/C7 {BL [] 0 setdash 2 copy moveto
	2 copy vpt 0 270 arc closepath fill
	vpt 0 360 arc closepath} bind def
/C8 {BL [] 0 setdash 2 copy moveto
	2 copy vpt 270 360 arc closepath fill
	vpt 0 360 arc closepath} bind def
/C9 {BL [] 0 setdash 2 copy moveto
	2 copy vpt 270 450 arc closepath fill
	vpt 0 360 arc closepath} bind def
/C10 {BL [] 0 setdash 2 copy 2 copy moveto vpt 270 360 arc closepath fill
	2 copy moveto
	2 copy vpt 90 180 arc closepath fill
	vpt 0 360 arc closepath} bind def
/C11 {BL [] 0 setdash 2 copy moveto
	2 copy vpt 0 180 arc closepath fill
	2 copy moveto
	2 copy vpt 270 360 arc closepath fill
	vpt 0 360 arc closepath} bind def
/C12 {BL [] 0 setdash 2 copy moveto
	2 copy vpt 180 360 arc closepath fill
	vpt 0 360 arc closepath} bind def
/C13 {BL [] 0 setdash 2 copy moveto
	2 copy vpt 0 90 arc closepath fill
	2 copy moveto
	2 copy vpt 180 360 arc closepath fill
	vpt 0 360 arc closepath} bind def
/C14 {BL [] 0 setdash 2 copy moveto
	2 copy vpt 90 360 arc closepath fill
	vpt 0 360 arc} bind def
/C15 {BL [] 0 setdash 2 copy vpt 0 360 arc closepath fill
	vpt 0 360 arc closepath} bind def
/Rec {newpath 4 2 roll moveto 1 index 0 rlineto 0 exch rlineto
	neg 0 rlineto closepath} bind def
/Square {dup Rec} bind def
/Bsquare {vpt sub exch vpt sub exch vpt2 Square} bind def
/S0 {BL [] 0 setdash 2 copy moveto 0 vpt rlineto BL Bsquare} bind def
/S1 {BL [] 0 setdash 2 copy vpt Square fill Bsquare} bind def
/S2 {BL [] 0 setdash 2 copy exch vpt sub exch vpt Square fill Bsquare} bind def
/S3 {BL [] 0 setdash 2 copy exch vpt sub exch vpt2 vpt Rec fill Bsquare} bind def
/S4 {BL [] 0 setdash 2 copy exch vpt sub exch vpt sub vpt Square fill Bsquare} bind def
/S5 {BL [] 0 setdash 2 copy 2 copy vpt Square fill
	exch vpt sub exch vpt sub vpt Square fill Bsquare} bind def
/S6 {BL [] 0 setdash 2 copy exch vpt sub exch vpt sub vpt vpt2 Rec fill Bsquare} bind def
/S7 {BL [] 0 setdash 2 copy exch vpt sub exch vpt sub vpt vpt2 Rec fill
	2 copy vpt Square fill Bsquare} bind def
/S8 {BL [] 0 setdash 2 copy vpt sub vpt Square fill Bsquare} bind def
/S9 {BL [] 0 setdash 2 copy vpt sub vpt vpt2 Rec fill Bsquare} bind def
/S10 {BL [] 0 setdash 2 copy vpt sub vpt Square fill 2 copy exch vpt sub exch vpt Square fill
	Bsquare} bind def
/S11 {BL [] 0 setdash 2 copy vpt sub vpt Square fill 2 copy exch vpt sub exch vpt2 vpt Rec fill
	Bsquare} bind def
/S12 {BL [] 0 setdash 2 copy exch vpt sub exch vpt sub vpt2 vpt Rec fill Bsquare} bind def
/S13 {BL [] 0 setdash 2 copy exch vpt sub exch vpt sub vpt2 vpt Rec fill
	2 copy vpt Square fill Bsquare} bind def
/S14 {BL [] 0 setdash 2 copy exch vpt sub exch vpt sub vpt2 vpt Rec fill
	2 copy exch vpt sub exch vpt Square fill Bsquare} bind def
/S15 {BL [] 0 setdash 2 copy Bsquare fill Bsquare} bind def
/D0 {gsave translate 45 rotate 0 0 S0 stroke grestore} bind def
/D1 {gsave translate 45 rotate 0 0 S1 stroke grestore} bind def
/D2 {gsave translate 45 rotate 0 0 S2 stroke grestore} bind def
/D3 {gsave translate 45 rotate 0 0 S3 stroke grestore} bind def
/D4 {gsave translate 45 rotate 0 0 S4 stroke grestore} bind def
/D5 {gsave translate 45 rotate 0 0 S5 stroke grestore} bind def
/D6 {gsave translate 45 rotate 0 0 S6 stroke grestore} bind def
/D7 {gsave translate 45 rotate 0 0 S7 stroke grestore} bind def
/D8 {gsave translate 45 rotate 0 0 S8 stroke grestore} bind def
/D9 {gsave translate 45 rotate 0 0 S9 stroke grestore} bind def
/D10 {gsave translate 45 rotate 0 0 S10 stroke grestore} bind def
/D11 {gsave translate 45 rotate 0 0 S11 stroke grestore} bind def
/D12 {gsave translate 45 rotate 0 0 S12 stroke grestore} bind def
/D13 {gsave translate 45 rotate 0 0 S13 stroke grestore} bind def
/D14 {gsave translate 45 rotate 0 0 S14 stroke grestore} bind def
/D15 {gsave translate 45 rotate 0 0 S15 stroke grestore} bind def
/DiaE {stroke [] 0 setdash vpt add M
  hpt neg vpt neg V hpt vpt neg V
  hpt vpt V hpt neg vpt V closepath stroke} def
/BoxE {stroke [] 0 setdash exch hpt sub exch vpt add M
  0 vpt2 neg V hpt2 0 V 0 vpt2 V
  hpt2 neg 0 V closepath stroke} def
/TriUE {stroke [] 0 setdash vpt 1.12 mul add M
  hpt neg vpt -1.62 mul V
  hpt 2 mul 0 V
  hpt neg vpt 1.62 mul V closepath stroke} def
/TriDE {stroke [] 0 setdash vpt 1.12 mul sub M
  hpt neg vpt 1.62 mul V
  hpt 2 mul 0 V
  hpt neg vpt -1.62 mul V closepath stroke} def
/PentE {stroke [] 0 setdash gsave
  translate 0 hpt M 4 {72 rotate 0 hpt L} repeat
  closepath stroke grestore} def
/CircE {stroke [] 0 setdash 
  hpt 0 360 arc stroke} def
/Opaque {gsave closepath 1 setgray fill grestore 0 setgray closepath} def
/DiaW {stroke [] 0 setdash vpt add M
  hpt neg vpt neg V hpt vpt neg V
  hpt vpt V hpt neg vpt V Opaque stroke} def
/BoxW {stroke [] 0 setdash exch hpt sub exch vpt add M
  0 vpt2 neg V hpt2 0 V 0 vpt2 V
  hpt2 neg 0 V Opaque stroke} def
/TriUW {stroke [] 0 setdash vpt 1.12 mul add M
  hpt neg vpt -1.62 mul V
  hpt 2 mul 0 V
  hpt neg vpt 1.62 mul V Opaque stroke} def
/TriDW {stroke [] 0 setdash vpt 1.12 mul sub M
  hpt neg vpt 1.62 mul V
  hpt 2 mul 0 V
  hpt neg vpt -1.62 mul V Opaque stroke} def
/PentW {stroke [] 0 setdash gsave
  translate 0 hpt M 4 {72 rotate 0 hpt L} repeat
  Opaque stroke grestore} def
/CircW {stroke [] 0 setdash 
  hpt 0 360 arc Opaque stroke} def
/BoxFill {gsave Rec 1 setgray fill grestore} def
/Density {
  /Fillden exch def
  currentrgbcolor
  /ColB exch def /ColG exch def /ColR exch def
  /ColR ColR Fillden mul Fillden sub 1 add def
  /ColG ColG Fillden mul Fillden sub 1 add def
  /ColB ColB Fillden mul Fillden sub 1 add def
  ColR ColG ColB setrgbcolor} def
/BoxColFill {gsave Rec PolyFill} def
/PolyFill {gsave Density fill grestore grestore} def
/h {rlineto rlineto rlineto gsave closepath fill grestore} bind def
%
% PostScript Level 1 Pattern Fill routine for rectangles
% Usage: x y w h s a XX PatternFill
%	x,y = lower left corner of box to be filled
%	w,h = width and height of box
%	  a = angle in degrees between lines and x-axis
%	 XX = 0/1 for no/yes cross-hatch
%
/PatternFill {gsave /PFa [ 9 2 roll ] def
  PFa 0 get PFa 2 get 2 div add PFa 1 get PFa 3 get 2 div add translate
  PFa 2 get -2 div PFa 3 get -2 div PFa 2 get PFa 3 get Rec
  TransparentPatterns {} {gsave 1 setgray fill grestore} ifelse
  clip
  currentlinewidth 0.5 mul setlinewidth
  /PFs PFa 2 get dup mul PFa 3 get dup mul add sqrt def
  0 0 M PFa 5 get rotate PFs -2 div dup translate
  0 1 PFs PFa 4 get div 1 add floor cvi
	{PFa 4 get mul 0 M 0 PFs V} for
  0 PFa 6 get ne {
	0 1 PFs PFa 4 get div 1 add floor cvi
	{PFa 4 get mul 0 2 1 roll M PFs 0 V} for
 } if
  stroke grestore} def
%
/languagelevel where
 {pop languagelevel} {1} ifelse
dup 2 lt
	{/InterpretLevel1 true def
	 /InterpretLevel3 false def}
	{/InterpretLevel1 Level1 def
	 2 gt
	    {/InterpretLevel3 Level3 def}
	    {/InterpretLevel3 false def}
	 ifelse }
 ifelse
%
% PostScript level 2 pattern fill definitions
%
/Level2PatternFill {
/Tile8x8 {/PaintType 2 /PatternType 1 /TilingType 1 /BBox [0 0 8 8] /XStep 8 /YStep 8}
	bind def
/KeepColor {currentrgbcolor [/Pattern /DeviceRGB] setcolorspace} bind def
<< Tile8x8
 /PaintProc {0.5 setlinewidth pop 0 0 M 8 8 L 0 8 M 8 0 L stroke} 
>> matrix makepattern
/Pat1 exch def
<< Tile8x8
 /PaintProc {0.5 setlinewidth pop 0 0 M 8 8 L 0 8 M 8 0 L stroke
	0 4 M 4 8 L 8 4 L 4 0 L 0 4 L stroke}
>> matrix makepattern
/Pat2 exch def
<< Tile8x8
 /PaintProc {0.5 setlinewidth pop 0 0 M 0 8 L
	8 8 L 8 0 L 0 0 L fill}
>> matrix makepattern
/Pat3 exch def
<< Tile8x8
 /PaintProc {0.5 setlinewidth pop -4 8 M 8 -4 L
	0 12 M 12 0 L stroke}
>> matrix makepattern
/Pat4 exch def
<< Tile8x8
 /PaintProc {0.5 setlinewidth pop -4 0 M 8 12 L
	0 -4 M 12 8 L stroke}
>> matrix makepattern
/Pat5 exch def
<< Tile8x8
 /PaintProc {0.5 setlinewidth pop -2 8 M 4 -4 L
	0 12 M 8 -4 L 4 12 M 10 0 L stroke}
>> matrix makepattern
/Pat6 exch def
<< Tile8x8
 /PaintProc {0.5 setlinewidth pop -2 0 M 4 12 L
	0 -4 M 8 12 L 4 -4 M 10 8 L stroke}
>> matrix makepattern
/Pat7 exch def
<< Tile8x8
 /PaintProc {0.5 setlinewidth pop 8 -2 M -4 4 L
	12 0 M -4 8 L 12 4 M 0 10 L stroke}
>> matrix makepattern
/Pat8 exch def
<< Tile8x8
 /PaintProc {0.5 setlinewidth pop 0 -2 M 12 4 L
	-4 0 M 12 8 L -4 4 M 8 10 L stroke}
>> matrix makepattern
/Pat9 exch def
/Pattern1 {PatternBgnd KeepColor Pat1 setpattern} bind def
/Pattern2 {PatternBgnd KeepColor Pat2 setpattern} bind def
/Pattern3 {PatternBgnd KeepColor Pat3 setpattern} bind def
/Pattern4 {PatternBgnd KeepColor Landscape {Pat5} {Pat4} ifelse setpattern} bind def
/Pattern5 {PatternBgnd KeepColor Landscape {Pat4} {Pat5} ifelse setpattern} bind def
/Pattern6 {PatternBgnd KeepColor Landscape {Pat9} {Pat6} ifelse setpattern} bind def
/Pattern7 {PatternBgnd KeepColor Landscape {Pat8} {Pat7} ifelse setpattern} bind def
} def
%
%
%End of PostScript Level 2 code
%
/PatternBgnd {
  TransparentPatterns {} {gsave 1 setgray fill grestore} ifelse
} def
%
% Substitute for Level 2 pattern fill codes with
% grayscale if Level 2 support is not selected.
%
/Level1PatternFill {
/Pattern1 {0.250 Density} bind def
/Pattern2 {0.500 Density} bind def
/Pattern3 {0.750 Density} bind def
/Pattern4 {0.125 Density} bind def
/Pattern5 {0.375 Density} bind def
/Pattern6 {0.625 Density} bind def
/Pattern7 {0.875 Density} bind def
} def
%
% Now test for support of Level 2 code
%
Level1 {Level1PatternFill} {Level2PatternFill} ifelse
%
/Symbol-Oblique /Symbol findfont [1 0 .167 1 0 0] makefont
dup length dict begin {1 index /FID eq {pop pop} {def} ifelse} forall
currentdict end definefont pop
%
/MFshow {
   { dup 5 get 3 ge
     { 5 get 3 eq {gsave} {grestore} ifelse }
     {dup dup 0 get findfont exch 1 get scalefont setfont
     [ currentpoint ] exch dup 2 get 0 exch R dup 5 get 2 ne {dup dup 6
     get exch 4 get {textshow} {stringwidth pop 0 R} ifelse }if dup 5 get 0 eq
     {dup 3 get {2 get neg 0 exch R pop} {pop aload pop M} ifelse} {dup 5
     get 1 eq {dup 2 get exch dup 3 get exch 6 get stringwidth pop -2 div
     dup 0 R} {dup 6 get stringwidth pop -2 div 0 R 6 get
     textshow 2 index {aload pop M neg 3 -1 roll neg R pop pop} {pop pop pop
     pop aload pop M} ifelse }ifelse }ifelse }
     ifelse }
   forall} def
/Gswidth {dup type /stringtype eq {stringwidth} {pop (n) stringwidth} ifelse} def
/MFwidth {0 exch { dup 5 get 3 ge { 5 get 3 eq { 0 } { pop } ifelse }
 {dup 3 get{dup dup 0 get findfont exch 1 get scalefont setfont
     6 get Gswidth pop add} {pop} ifelse} ifelse} forall} def
/MLshow { currentpoint stroke M
  0 exch R
  Blacktext {gsave 0 setgray MFshow grestore} {MFshow} ifelse } bind def
/MRshow { currentpoint stroke M
  exch dup MFwidth neg 3 -1 roll R
  Blacktext {gsave 0 setgray MFshow grestore} {MFshow} ifelse } bind def
/MCshow { currentpoint stroke M
  exch dup MFwidth -2 div 3 -1 roll R
  Blacktext {gsave 0 setgray MFshow grestore} {MFshow} ifelse } bind def
/XYsave    { [( ) 1 2 true false 3 ()] } bind def
/XYrestore { [( ) 1 2 true false 4 ()] } bind def
Level1 SuppressPDFMark or 
{} {
/SDict 10 dict def
systemdict /pdfmark known not {
  userdict /pdfmark systemdict /cleartomark get put
} if
SDict begin [
  /Title (TcpCubic-download-finishtime-50UE-90-240.eps)
  /Subject (gnuplot plot)
  /Creator (gnuplot 5.0 patchlevel 3)
  /Author (nat)
%  /Producer (gnuplot)
%  /Keywords ()
  /CreationDate (Thu May 19 16:44:20 2016)
  /DOCINFO pdfmark
end
} ifelse
%
% Support for boxed text - Ethan A Merritt May 2005
%
/InitTextBox { userdict /TBy2 3 -1 roll put userdict /TBx2 3 -1 roll put
           userdict /TBy1 3 -1 roll put userdict /TBx1 3 -1 roll put
	   /Boxing true def } def
/ExtendTextBox { Boxing
    { gsave dup false charpath pathbbox
      dup TBy2 gt {userdict /TBy2 3 -1 roll put} {pop} ifelse
      dup TBx2 gt {userdict /TBx2 3 -1 roll put} {pop} ifelse
      dup TBy1 lt {userdict /TBy1 3 -1 roll put} {pop} ifelse
      dup TBx1 lt {userdict /TBx1 3 -1 roll put} {pop} ifelse
      grestore } if } def
/PopTextBox { newpath TBx1 TBxmargin sub TBy1 TBymargin sub M
               TBx1 TBxmargin sub TBy2 TBymargin add L
	       TBx2 TBxmargin add TBy2 TBymargin add L
	       TBx2 TBxmargin add TBy1 TBymargin sub L closepath } def
/DrawTextBox { PopTextBox stroke /Boxing false def} def
/FillTextBox { gsave PopTextBox 1 1 1 setrgbcolor fill grestore /Boxing false def} def
0 0 0 0 InitTextBox
/TBxmargin 20 def
/TBymargin 20 def
/Boxing false def
/textshow { ExtendTextBox Gshow } def
%
% redundant definitions for compatibility with prologue.ps older than 5.0.2
/LTB {BL [] LCb DL} def
/LTb {PL [] LCb DL} def
end
%%EndProlog
%%Page: 1 1
gnudict begin
gsave
doclip
50 50 translate
0.050 0.050 scale
0 setgray
newpath
(Arial) findfont 200 scalefont setfont
BackgroundColor 0 lt 3 1 roll 0 lt exch 0 lt or or not {BackgroundColor C 1.000 0 0 14400.00 5040.00 BoxColFill} if
1.000 UL
LTb
0.00 0.00 0.00 C 0.500 UL
LTa
0.50 0.50 0.50 C 980 1000 M
12139 0 V
stroke
1.000 UL
LTb
0.00 0.00 0.00 C 980 1000 M
63 0 V
stroke
860 1000 M
[ [(Arial) 200.0 0.0 true true 0 ( 0)]
] -66.7 MRshow
1.000 UL
LTb
0.00 0.00 0.00 C 0.500 UL
LTa
0.50 0.50 0.50 C 980 1760 M
12139 0 V
stroke
1.000 UL
LTb
0.00 0.00 0.00 C 980 1760 M
63 0 V
stroke
860 1760 M
[ [(Arial) 200.0 0.0 true true 0 ( 50)]
] -66.7 MRshow
1.000 UL
LTb
0.00 0.00 0.00 C 0.500 UL
LTa
0.50 0.50 0.50 C 980 2520 M
12139 0 V
stroke
1.000 UL
LTb
0.00 0.00 0.00 C 980 2520 M
63 0 V
stroke
860 2520 M
[ [(Arial) 200.0 0.0 true true 0 ( 100)]
] -66.7 MRshow
1.000 UL
LTb
0.00 0.00 0.00 C 0.500 UL
LTa
0.50 0.50 0.50 C 980 3279 M
12139 0 V
stroke
1.000 UL
LTb
0.00 0.00 0.00 C 980 3279 M
63 0 V
stroke
860 3279 M
[ [(Arial) 200.0 0.0 true true 0 ( 150)]
] -66.7 MRshow
1.000 UL
LTb
0.00 0.00 0.00 C 0.500 UL
LTa
0.50 0.50 0.50 C 980 4039 M
12139 0 V
stroke
1.000 UL
LTb
0.00 0.00 0.00 C 980 4039 M
63 0 V
stroke
860 4039 M
[ [(Arial) 200.0 0.0 true true 0 ( 200)]
] -66.7 MRshow
1.000 UL
LTb
0.00 0.00 0.00 C 0.500 UL
LTa
0.50 0.50 0.50 C 980 4799 M
12139 0 V
stroke
1.000 UL
LTb
0.00 0.00 0.00 C 980 4799 M
63 0 V
stroke
860 4799 M
[ [(Arial) 200.0 0.0 true true 0 ( 250)]
] -66.7 MRshow
1.000 UL
LTb
0.00 0.00 0.00 C 0.500 UL
LTa
0.50 0.50 0.50 C 1359 1000 M
0 3799 V
stroke
1.000 UL
LTb
0.00 0.00 0.00 C 1359 1000 M
0 63 V
0 3736 R
0 -63 V
stroke
1359 800 M
[ [(Arial) 200.0 0.0 true true 0 ( 270)]
] -66.7 MCshow
1.000 UL
LTb
0.00 0.00 0.00 C 0.500 UL
LTa
0.50 0.50 0.50 C 2118 1000 M
0 3799 V
stroke
1.000 UL
LTb
0.00 0.00 0.00 C 2118 1000 M
0 63 V
0 3736 R
0 -63 V
stroke
2118 800 M
[ [(Arial) 200.0 0.0 true true 0 ( 300)]
] -66.7 MCshow
1.000 UL
LTb
0.00 0.00 0.00 C 0.500 UL
LTa
0.50 0.50 0.50 C 2877 1000 M
0 3799 V
stroke
1.000 UL
LTb
0.00 0.00 0.00 C 2877 1000 M
0 63 V
0 3736 R
0 -63 V
stroke
2877 800 M
[ [(Arial) 200.0 0.0 true true 0 ( 330)]
] -66.7 MCshow
1.000 UL
LTb
0.00 0.00 0.00 C 0.500 UL
LTa
0.50 0.50 0.50 C 3635 1000 M
0 3799 V
stroke
1.000 UL
LTb
0.00 0.00 0.00 C 3635 1000 M
0 63 V
0 3736 R
0 -63 V
stroke
3635 800 M
[ [(Arial) 200.0 0.0 true true 0 ( 360)]
] -66.7 MCshow
1.000 UL
LTb
0.00 0.00 0.00 C 0.500 UL
LTa
0.50 0.50 0.50 C 4394 1000 M
0 3799 V
stroke
1.000 UL
LTb
0.00 0.00 0.00 C 4394 1000 M
0 63 V
0 3736 R
0 -63 V
stroke
4394 800 M
[ [(Arial) 200.0 0.0 true true 0 ( 390)]
] -66.7 MCshow
1.000 UL
LTb
0.00 0.00 0.00 C 0.500 UL
LTa
0.50 0.50 0.50 C 5153 1000 M
0 3799 V
stroke
1.000 UL
LTb
0.00 0.00 0.00 C 5153 1000 M
0 63 V
0 3736 R
0 -63 V
stroke
5153 800 M
[ [(Arial) 200.0 0.0 true true 0 ( 420)]
] -66.7 MCshow
1.000 UL
LTb
0.00 0.00 0.00 C 0.500 UL
LTa
0.50 0.50 0.50 C 5911 1000 M
0 3799 V
stroke
1.000 UL
LTb
0.00 0.00 0.00 C 5911 1000 M
0 63 V
0 3736 R
0 -63 V
stroke
5911 800 M
[ [(Arial) 200.0 0.0 true true 0 ( 450)]
] -66.7 MCshow
1.000 UL
LTb
0.00 0.00 0.00 C 0.500 UL
LTa
0.50 0.50 0.50 C 6670 1000 M
0 3799 V
stroke
1.000 UL
LTb
0.00 0.00 0.00 C 6670 1000 M
0 63 V
0 3736 R
0 -63 V
stroke
6670 800 M
[ [(Arial) 200.0 0.0 true true 0 ( 480)]
] -66.7 MCshow
1.000 UL
LTb
0.00 0.00 0.00 C 0.500 UL
LTa
0.50 0.50 0.50 C 7429 1000 M
0 3799 V
stroke
1.000 UL
LTb
0.00 0.00 0.00 C 7429 1000 M
0 63 V
0 3736 R
0 -63 V
stroke
7429 800 M
[ [(Arial) 200.0 0.0 true true 0 ( 510)]
] -66.7 MCshow
1.000 UL
LTb
0.00 0.00 0.00 C 0.500 UL
LTa
0.50 0.50 0.50 C 8188 1000 M
0 3799 V
stroke
1.000 UL
LTb
0.00 0.00 0.00 C 8188 1000 M
0 63 V
0 3736 R
0 -63 V
stroke
8188 800 M
[ [(Arial) 200.0 0.0 true true 0 ( 540)]
] -66.7 MCshow
1.000 UL
LTb
0.00 0.00 0.00 C 0.500 UL
LTa
0.50 0.50 0.50 C 8946 1000 M
0 3799 V
stroke
1.000 UL
LTb
0.00 0.00 0.00 C 8946 1000 M
0 63 V
0 3736 R
0 -63 V
stroke
8946 800 M
[ [(Arial) 200.0 0.0 true true 0 ( 570)]
] -66.7 MCshow
1.000 UL
LTb
0.00 0.00 0.00 C 0.500 UL
LTa
0.50 0.50 0.50 C 9705 1000 M
0 3799 V
stroke
1.000 UL
LTb
0.00 0.00 0.00 C 9705 1000 M
0 63 V
0 3736 R
0 -63 V
stroke
9705 800 M
[ [(Arial) 200.0 0.0 true true 0 ( 600)]
] -66.7 MCshow
1.000 UL
LTb
0.00 0.00 0.00 C 0.500 UL
LTa
0.50 0.50 0.50 C 10464 1000 M
0 3799 V
stroke
1.000 UL
LTb
0.00 0.00 0.00 C 10464 1000 M
0 63 V
0 3736 R
0 -63 V
stroke
10464 800 M
[ [(Arial) 200.0 0.0 true true 0 ( 630)]
] -66.7 MCshow
1.000 UL
LTb
0.00 0.00 0.00 C 0.500 UL
LTa
0.50 0.50 0.50 C 11222 1000 M
0 3799 V
stroke
1.000 UL
LTb
0.00 0.00 0.00 C 11222 1000 M
0 63 V
0 3736 R
0 -63 V
stroke
11222 800 M
[ [(Arial) 200.0 0.0 true true 0 ( 660)]
] -66.7 MCshow
1.000 UL
LTb
0.00 0.00 0.00 C 0.500 UL
LTa
0.50 0.50 0.50 C 11981 1000 M
0 3799 V
stroke
1.000 UL
LTb
0.00 0.00 0.00 C 11981 1000 M
0 63 V
0 3736 R
0 -63 V
stroke
11981 800 M
[ [(Arial) 200.0 0.0 true true 0 ( 690)]
] -66.7 MCshow
1.000 UL
LTb
0.00 0.00 0.00 C 0.500 UL
LTa
0.50 0.50 0.50 C 12740 1000 M
0 3799 V
stroke
1.000 UL
LTb
0.00 0.00 0.00 C 12740 1000 M
0 63 V
0 3736 R
0 -63 V
stroke
12740 800 M
[ [(Arial) 200.0 0.0 true true 0 ( 720)]
] -66.7 MCshow
1.000 UL
LTb
0.00 0.00 0.00 C 13119 1000 M
-63 0 V
stroke
13239 1000 M
[ [(Arial) 200.0 0.0 true true 0 ( 0)]
] -66.7 MLshow
1.000 UL
LTb
0.00 0.00 0.00 C 13119 1760 M
-63 0 V
stroke
13239 1760 M
[ [(Arial) 200.0 0.0 true true 0 ( 20)]
] -66.7 MLshow
1.000 UL
LTb
0.00 0.00 0.00 C 13119 2520 M
-63 0 V
stroke
13239 2520 M
[ [(Arial) 200.0 0.0 true true 0 ( 40)]
] -66.7 MLshow
1.000 UL
LTb
0.00 0.00 0.00 C 13119 3279 M
-63 0 V
stroke
13239 3279 M
[ [(Arial) 200.0 0.0 true true 0 ( 60)]
] -66.7 MLshow
1.000 UL
LTb
0.00 0.00 0.00 C 13119 4039 M
-63 0 V
stroke
13239 4039 M
[ [(Arial) 200.0 0.0 true true 0 ( 80)]
] -66.7 MLshow
1.000 UL
LTb
0.00 0.00 0.00 C 13119 4799 M
-63 0 V
stroke
13239 4799 M
[ [(Arial) 200.0 0.0 true true 0 ( 100)]
] -66.7 MLshow
1.000 UL
LTb
0.00 0.00 0.00 C 1.000 UL
LTB
0.00 0.00 0.00 C 980 4799 M
0 -3799 V
12139 0 V
0 3799 R
980 4799 M
1.000 UP
stroke
LTb
0.00 0.00 0.00 C LCb setrgbcolor
160 2899 M
currentpoint gsave translate -270 rotate 0 0 moveto
[ [(Arial) 200.0 0.0 true true 0 (File download time \(s\))]
] -66.7 MCshow
grestore
LTb
LCb setrgbcolor
13938 2899 M
currentpoint gsave translate -270 rotate 0 0 moveto
[ [(Arial) 200.0 0.0 true true 0 (Average UDP throughput [%])]
] -66.7 MCshow
grestore
LTb
LCb setrgbcolor
7049 500 M
[ [(Arial) 200.0 0.0 true true 0 (Local Backhaul traffic \(Mb/s\))]
] -66.7 MCshow
LTb
% Begin plot #1
1.000 UL
LTb
0.60 0.60 0.00 C LCb setrgbcolor
4714 333 M
[ [(Arial) 180.0 0.0 true true 0 (file download time    :   olsr)]
] -60.0 MRshow
1.000 UL
LTb
0.60 0.60 0.00 C 4822 288 333 90 80 -45 0 PatternFill
4822 288 N
333 0 V
0 90 V
-333 0 V
0 -90 V
Z stroke
1.000 UL
LTb
0.60 0.60 0.00 C 1094 1207 152 210 80 -45 0 PatternFill
1170 1046 M
0 161 V
0 210 R
0 1080 V
stroke
1094 1207 N
152 0 V
0 210 V
-152 0 V
0 -210 V
Z stroke
1094 2497 M
152 0 V
1094 1046 M
152 0 V
stroke
1852 1186 152 243 80 -45 0 PatternFill
1928 1046 M
0 140 V
0 243 R
0 388 V
stroke
1852 1186 N
152 0 V
0 243 V
-152 0 V
0 -243 V
Z stroke
1852 1817 M
152 0 V
1852 1046 M
152 0 V
stroke
2611 1195 152 232 80 -45 0 PatternFill
2687 1046 M
0 149 V
0 232 R
0 522 V
stroke
2611 1195 N
152 0 V
0 232 V
-152 0 V
0 -232 V
Z stroke
2611 1949 M
152 0 V
2611 1046 M
152 0 V
stroke
3370 1196 152 215 80 -45 0 PatternFill
3446 1046 M
0 150 V
0 215 R
0 492 V
stroke
3370 1196 N
152 0 V
0 215 V
-152 0 V
0 -215 V
Z stroke
3370 1903 M
152 0 V
3370 1046 M
152 0 V
stroke
4129 1217 152 205 80 -45 0 PatternFill
4205 1046 M
0 171 V
0 205 R
0 743 V
stroke
4129 1217 N
152 0 V
0 205 V
-152 0 V
0 -205 V
Z stroke
4129 2165 M
152 0 V
4129 1046 M
152 0 V
stroke
4887 1222 152 188 80 -45 0 PatternFill
4963 1046 M
0 176 V
0 188 R
0 474 V
stroke
4887 1222 N
152 0 V
0 188 V
-152 0 V
0 -188 V
Z stroke
4887 1884 M
152 0 V
4887 1046 M
152 0 V
stroke
5646 1163 152 271 80 -45 0 PatternFill
5722 1046 M
0 117 V
0 271 R
0 449 V
stroke
5646 1163 N
152 0 V
0 271 V
-152 0 V
0 -271 V
Z stroke
5646 1883 M
152 0 V
5646 1046 M
152 0 V
stroke
6405 1201 152 223 80 -45 0 PatternFill
6481 1046 M
0 155 V
0 223 R
0 497 V
stroke
6405 1201 N
152 0 V
0 223 V
-152 0 V
0 -223 V
Z stroke
6405 1921 M
152 0 V
6405 1046 M
152 0 V
stroke
7163 1212 152 225 80 -45 0 PatternFill
7239 1046 M
0 166 V
0 225 R
0 714 V
stroke
7163 1212 N
152 0 V
0 225 V
-152 0 V
0 -225 V
Z stroke
7163 2151 M
152 0 V
7163 1046 M
152 0 V
stroke
7922 1212 152 231 80 -45 0 PatternFill
7998 1046 M
0 166 V
0 231 R
0 595 V
stroke
7922 1212 N
152 0 V
0 231 V
-152 0 V
0 -231 V
Z stroke
7922 2038 M
152 0 V
7922 1046 M
152 0 V
stroke
8681 1231 152 186 80 -45 0 PatternFill
8757 1046 M
0 185 V
0 186 R
0 307 V
stroke
8681 1231 N
152 0 V
0 186 V
-152 0 V
0 -186 V
Z stroke
8681 1724 M
152 0 V
8681 1046 M
152 0 V
stroke
9439 1209 152 260 80 -45 0 PatternFill
9515 1046 M
0 163 V
0 260 R
0 551 V
stroke
9439 1209 N
152 0 V
0 260 V
-152 0 V
0 -260 V
Z stroke
9439 2020 M
152 0 V
9439 1046 M
152 0 V
stroke
10198 1202 152 223 80 -45 0 PatternFill
10274 1046 M
0 156 V
0 223 R
0 594 V
stroke
10198 1202 N
152 0 V
0 223 V
-152 0 V
0 -223 V
Z stroke
10198 2019 M
152 0 V
-152 -973 R
152 0 V
stroke
10957 1186 152 250 80 -45 0 PatternFill
11033 1046 M
0 140 V
0 250 R
0 424 V
stroke
10957 1186 N
152 0 V
0 250 V
-152 0 V
0 -250 V
Z stroke
10957 1860 M
152 0 V
-152 -814 R
152 0 V
stroke
11715 1233 152 191 80 -45 0 PatternFill
11791 1046 M
0 187 V
0 191 R
0 594 V
stroke
11715 1233 N
152 0 V
0 191 V
-152 0 V
0 -191 V
Z stroke
11715 2018 M
152 0 V
-152 -972 R
152 0 V
stroke
12474 1211 152 217 80 -45 0 PatternFill
12550 1046 M
0 165 V
0 217 R
0 602 V
stroke
12474 1211 N
152 0 V
0 217 V
-152 0 V
0 -217 V
Z stroke
12474 2030 M
152 0 V
-152 -984 R
152 0 V
stroke
1094 1207 152 210 80 -45 0 PatternFill
1170 1046 M
0 161 V
0 210 R
0 1080 V
stroke
1094 1207 N
152 0 V
0 210 V
-152 0 V
0 -210 V
Z stroke
1094 2497 M
152 0 V
1094 1046 M
152 0 V
stroke
1852 1186 152 243 80 -45 0 PatternFill
1928 1046 M
0 140 V
0 243 R
0 388 V
stroke
1852 1186 N
152 0 V
0 243 V
-152 0 V
0 -243 V
Z stroke
1852 1817 M
152 0 V
1852 1046 M
152 0 V
stroke
2611 1195 152 232 80 -45 0 PatternFill
2687 1046 M
0 149 V
0 232 R
0 522 V
stroke
2611 1195 N
152 0 V
0 232 V
-152 0 V
0 -232 V
Z stroke
2611 1949 M
152 0 V
2611 1046 M
152 0 V
stroke
3370 1196 152 215 80 -45 0 PatternFill
3446 1046 M
0 150 V
0 215 R
0 492 V
stroke
3370 1196 N
152 0 V
0 215 V
-152 0 V
0 -215 V
Z stroke
3370 1903 M
152 0 V
3370 1046 M
152 0 V
stroke
4129 1217 152 205 80 -45 0 PatternFill
4205 1046 M
0 171 V
0 205 R
0 743 V
stroke
4129 1217 N
152 0 V
0 205 V
-152 0 V
0 -205 V
Z stroke
4129 2165 M
152 0 V
4129 1046 M
152 0 V
stroke
4887 1222 152 188 80 -45 0 PatternFill
4963 1046 M
0 176 V
0 188 R
0 474 V
stroke
4887 1222 N
152 0 V
0 188 V
-152 0 V
0 -188 V
Z stroke
4887 1884 M
152 0 V
4887 1046 M
152 0 V
stroke
5646 1163 152 271 80 -45 0 PatternFill
5722 1046 M
0 117 V
0 271 R
0 449 V
stroke
5646 1163 N
152 0 V
0 271 V
-152 0 V
0 -271 V
Z stroke
5646 1883 M
152 0 V
5646 1046 M
152 0 V
stroke
6405 1201 152 223 80 -45 0 PatternFill
6481 1046 M
0 155 V
0 223 R
0 497 V
stroke
6405 1201 N
152 0 V
0 223 V
-152 0 V
0 -223 V
Z stroke
6405 1921 M
152 0 V
6405 1046 M
152 0 V
stroke
7163 1212 152 225 80 -45 0 PatternFill
7239 1046 M
0 166 V
0 225 R
0 714 V
stroke
7163 1212 N
152 0 V
0 225 V
-152 0 V
0 -225 V
Z stroke
7163 2151 M
152 0 V
7163 1046 M
152 0 V
stroke
7922 1212 152 231 80 -45 0 PatternFill
7998 1046 M
0 166 V
0 231 R
0 595 V
stroke
7922 1212 N
152 0 V
0 231 V
-152 0 V
0 -231 V
Z stroke
7922 2038 M
152 0 V
7922 1046 M
152 0 V
stroke
8681 1231 152 186 80 -45 0 PatternFill
8757 1046 M
0 185 V
0 186 R
0 307 V
stroke
8681 1231 N
152 0 V
0 186 V
-152 0 V
0 -186 V
Z stroke
8681 1724 M
152 0 V
8681 1046 M
152 0 V
stroke
9439 1209 152 260 80 -45 0 PatternFill
9515 1046 M
0 163 V
0 260 R
0 551 V
stroke
9439 1209 N
152 0 V
0 260 V
-152 0 V
0 -260 V
Z stroke
9439 2020 M
152 0 V
9439 1046 M
152 0 V
stroke
10198 1202 152 223 80 -45 0 PatternFill
10274 1046 M
0 156 V
0 223 R
0 594 V
stroke
10198 1202 N
152 0 V
0 223 V
-152 0 V
0 -223 V
Z stroke
10198 2019 M
152 0 V
-152 -973 R
152 0 V
stroke
10957 1186 152 250 80 -45 0 PatternFill
11033 1046 M
0 140 V
0 250 R
0 424 V
stroke
10957 1186 N
152 0 V
0 250 V
-152 0 V
0 -250 V
Z stroke
10957 1860 M
152 0 V
-152 -814 R
152 0 V
stroke
11715 1233 152 191 80 -45 0 PatternFill
11791 1046 M
0 187 V
0 191 R
0 594 V
stroke
11715 1233 N
152 0 V
0 191 V
-152 0 V
0 -191 V
Z stroke
11715 2018 M
152 0 V
-152 -972 R
152 0 V
stroke
12474 1211 152 217 80 -45 0 PatternFill
12550 1046 M
0 165 V
0 217 R
0 602 V
stroke
12474 1211 N
152 0 V
0 217 V
-152 0 V
0 -217 V
Z stroke
12474 2030 M
152 0 V
-152 -984 R
152 0 V
% End plot #1
% Begin plot #2
stroke
LTb
LCb setrgbcolor

 /TransparentPatterns true def
1094 1339 152 0 40 30 0 PatternFill
1170 1339 M
stroke
1094 1339 N
152 0 V
-152 0 V
Z stroke
1094 1339 M
152 0 V
-152 0 R
152 0 V
stroke

 /TransparentPatterns true def
1852 1325 152 0 40 30 0 PatternFill
1928 1325 M
stroke
1852 1325 N
152 0 V
-152 0 V
Z stroke
1852 1325 M
152 0 V
-152 0 R
152 0 V
stroke

 /TransparentPatterns true def
2611 1328 152 0 40 30 0 PatternFill
2687 1328 M
stroke
2611 1328 N
152 0 V
-152 0 V
Z stroke
2611 1328 M
152 0 V
-152 0 R
152 0 V
stroke

 /TransparentPatterns true def
3370 1314 152 0 40 30 0 PatternFill
3446 1314 M
stroke
3370 1314 N
152 0 V
-152 0 V
Z stroke
3370 1314 M
152 0 V
-152 0 R
152 0 V
stroke

 /TransparentPatterns true def
4129 1333 152 0 40 30 0 PatternFill
4205 1333 M
stroke
4129 1333 N
152 0 V
-152 0 V
Z stroke
4129 1333 M
152 0 V
-152 0 R
152 0 V
stroke

 /TransparentPatterns true def
4887 1320 152 0 40 30 0 PatternFill
4963 1320 M
stroke
4887 1320 N
152 0 V
-152 0 V
Z stroke
4887 1320 M
152 0 V
-152 0 R
152 0 V
stroke

 /TransparentPatterns true def
5646 1331 152 0 40 30 0 PatternFill
5722 1331 M
stroke
5646 1331 N
152 0 V
-152 0 V
Z stroke
5646 1331 M
152 0 V
-152 0 R
152 0 V
stroke

 /TransparentPatterns true def
6405 1321 152 0 40 30 0 PatternFill
6481 1321 M
stroke
6405 1321 N
152 0 V
-152 0 V
Z stroke
6405 1321 M
152 0 V
-152 0 R
152 0 V
stroke

 /TransparentPatterns true def
7163 1330 152 0 40 30 0 PatternFill
7239 1330 M
stroke
7163 1330 N
152 0 V
-152 0 V
Z stroke
7163 1330 M
152 0 V
-152 0 R
152 0 V
stroke

 /TransparentPatterns true def
7922 1336 152 0 40 30 0 PatternFill
7998 1336 M
stroke
7922 1336 N
152 0 V
-152 0 V
Z stroke
7922 1336 M
152 0 V
-152 0 R
152 0 V
stroke

 /TransparentPatterns true def
8681 1329 152 0 40 30 0 PatternFill
8757 1329 M
stroke
8681 1329 N
152 0 V
-152 0 V
Z stroke
8681 1329 M
152 0 V
-152 0 R
152 0 V
stroke

 /TransparentPatterns true def
9439 1336 152 0 40 30 0 PatternFill
9515 1336 M
stroke
9439 1336 N
152 0 V
-152 0 V
Z stroke
9439 1336 M
152 0 V
-152 0 R
152 0 V
stroke

 /TransparentPatterns true def
10198 1325 152 0 40 30 0 PatternFill
10274 1325 M
stroke
10198 1325 N
152 0 V
-152 0 V
Z stroke
10198 1325 M
152 0 V
-152 0 R
152 0 V
stroke

 /TransparentPatterns true def
10957 1310 152 0 40 30 0 PatternFill
11033 1310 M
stroke
10957 1310 N
152 0 V
-152 0 V
Z stroke
10957 1310 M
152 0 V
-152 0 R
152 0 V
stroke

 /TransparentPatterns true def
11715 1342 152 0 40 30 0 PatternFill
11791 1342 M
stroke
11715 1342 N
152 0 V
-152 0 V
Z stroke
11715 1342 M
152 0 V
-152 0 R
152 0 V
stroke

 /TransparentPatterns true def
12474 1333 152 0 40 30 0 PatternFill
12550 1333 M
stroke
12474 1333 N
152 0 V
-152 0 V
Z stroke
12474 1333 M
152 0 V
-152 0 R
152 0 V
stroke

 /TransparentPatterns true def
1094 1339 152 0 40 30 0 PatternFill
1170 1339 M
stroke
1094 1339 N
152 0 V
-152 0 V
Z stroke
1094 1339 M
152 0 V
-152 0 R
152 0 V
stroke

 /TransparentPatterns true def
1852 1325 152 0 40 30 0 PatternFill
1928 1325 M
stroke
1852 1325 N
152 0 V
-152 0 V
Z stroke
1852 1325 M
152 0 V
-152 0 R
152 0 V
stroke

 /TransparentPatterns true def
2611 1328 152 0 40 30 0 PatternFill
2687 1328 M
stroke
2611 1328 N
152 0 V
-152 0 V
Z stroke
2611 1328 M
152 0 V
-152 0 R
152 0 V
stroke

 /TransparentPatterns true def
3370 1314 152 0 40 30 0 PatternFill
3446 1314 M
stroke
3370 1314 N
152 0 V
-152 0 V
Z stroke
3370 1314 M
152 0 V
-152 0 R
152 0 V
stroke

 /TransparentPatterns true def
4129 1333 152 0 40 30 0 PatternFill
4205 1333 M
stroke
4129 1333 N
152 0 V
-152 0 V
Z stroke
4129 1333 M
152 0 V
-152 0 R
152 0 V
stroke

 /TransparentPatterns true def
4887 1320 152 0 40 30 0 PatternFill
4963 1320 M
stroke
4887 1320 N
152 0 V
-152 0 V
Z stroke
4887 1320 M
152 0 V
-152 0 R
152 0 V
stroke

 /TransparentPatterns true def
5646 1331 152 0 40 30 0 PatternFill
5722 1331 M
stroke
5646 1331 N
152 0 V
-152 0 V
Z stroke
5646 1331 M
152 0 V
-152 0 R
152 0 V
stroke

 /TransparentPatterns true def
6405 1321 152 0 40 30 0 PatternFill
6481 1321 M
stroke
6405 1321 N
152 0 V
-152 0 V
Z stroke
6405 1321 M
152 0 V
-152 0 R
152 0 V
stroke

 /TransparentPatterns true def
7163 1330 152 0 40 30 0 PatternFill
7239 1330 M
stroke
7163 1330 N
152 0 V
-152 0 V
Z stroke
7163 1330 M
152 0 V
-152 0 R
152 0 V
stroke

 /TransparentPatterns true def
7922 1336 152 0 40 30 0 PatternFill
7998 1336 M
stroke
7922 1336 N
152 0 V
-152 0 V
Z stroke
7922 1336 M
152 0 V
-152 0 R
152 0 V
stroke

 /TransparentPatterns true def
8681 1329 152 0 40 30 0 PatternFill
8757 1329 M
stroke
8681 1329 N
152 0 V
-152 0 V
Z stroke
8681 1329 M
152 0 V
-152 0 R
152 0 V
stroke

 /TransparentPatterns true def
9439 1336 152 0 40 30 0 PatternFill
9515 1336 M
stroke
9439 1336 N
152 0 V
-152 0 V
Z stroke
9439 1336 M
152 0 V
-152 0 R
152 0 V
stroke

 /TransparentPatterns true def
10198 1325 152 0 40 30 0 PatternFill
10274 1325 M
stroke
10198 1325 N
152 0 V
-152 0 V
Z stroke
10198 1325 M
152 0 V
-152 0 R
152 0 V
stroke

 /TransparentPatterns true def
10957 1310 152 0 40 30 0 PatternFill
11033 1310 M
stroke
10957 1310 N
152 0 V
-152 0 V
Z stroke
10957 1310 M
152 0 V
-152 0 R
152 0 V
stroke

 /TransparentPatterns true def
11715 1342 152 0 40 30 0 PatternFill
11791 1342 M
stroke
11715 1342 N
152 0 V
-152 0 V
Z stroke
11715 1342 M
152 0 V
-152 0 R
152 0 V
stroke

 /TransparentPatterns true def
12474 1333 152 0 40 30 0 PatternFill
12550 1333 M
stroke
12474 1333 N
152 0 V
-152 0 V
Z stroke
12474 1333 M
152 0 V
-152 0 R
152 0 V
% End plot #2
% Begin plot #3
2.000 UP
stroke
LTa
0.60 0.60 0.00 C LCb setrgbcolor
4714 153 M
[ [(Arial) 180.0 0.0 true true 0 (avg. throughput :         )]
] -60.0 MRshow
2.000 UP
1.000 UL
LTa
0.60 0.60 0.00 C 4822 153 M
333 0 V
980 4630 M
190 59 V
758 -505 V
759 76 V
759 -25 V
758 114 V
759 -120 V
759 0 V
758 17 V
759 97 V
759 -40 V
759 -186 V
758 179 V
759 -7 V
759 -79 V
758 79 V
759 7 V
569 72 V
980 4630 M
190 59 V
758 -505 V
759 76 V
759 -25 V
758 114 V
759 -120 V
759 0 V
758 17 V
759 97 V
759 -40 V
759 -186 V
758 179 V
759 -7 V
759 -79 V
758 79 V
759 7 V
569 72 V
1170 4689 Box
1928 4184 Box
2687 4260 Box
3446 4235 Box
4204 4349 Box
4963 4229 Box
5722 4229 Box
6480 4246 Box
7239 4343 Box
7998 4303 Box
8757 4117 Box
9515 4296 Box
10274 4289 Box
11033 4210 Box
11791 4289 Box
12550 4296 Box
1170 4689 Box
1928 4184 Box
2687 4260 Box
3446 4235 Box
4204 4349 Box
4963 4229 Box
5722 4229 Box
6480 4246 Box
7239 4343 Box
7998 4303 Box
8757 4117 Box
9515 4296 Box
10274 4289 Box
11033 4210 Box
11791 4289 Box
12550 4296 Box
4988 153 Box
% End plot #3
% Begin plot #4
1.000 UL
LTb
0.00 0.00 0.63 C LCb setrgbcolor
8287 333 M
[ [(Arial) 180.0 0.0 true true 0 (per-packet)]
] -60.0 MRshow
1.000 UL
LTb
0.00 0.00 0.63 C 8395 288 333 90 80 45 0 PatternFill
8395 288 N
333 0 V
0 90 V
-333 0 V
0 -90 V
Z stroke
1.000 UL
LTb
0.00 0.00 0.63 C 1283 1055 152 1071 80 45 0 PatternFill
1359 1028 M
0 27 V
0 1071 R
0 290 V
stroke
1283 1055 N
152 0 V
0 1071 V
-152 0 V
0 -1071 V
Z stroke
1283 2416 M
152 0 V
1283 1028 M
152 0 V
stroke
2042 1062 152 1032 80 45 0 PatternFill
2118 1036 M
0 26 V
0 1032 R
0 442 V
stroke
2042 1062 N
152 0 V
0 1032 V
-152 0 V
0 -1032 V
Z stroke
2042 2536 M
152 0 V
2042 1036 M
152 0 V
stroke
2801 1062 152 1019 80 45 0 PatternFill
2877 1035 M
0 27 V
0 1019 R
0 453 V
stroke
2801 1062 N
152 0 V
0 1019 V
-152 0 V
0 -1019 V
Z stroke
2801 2534 M
152 0 V
2801 1035 M
152 0 V
stroke
3560 1062 152 1023 80 45 0 PatternFill
3636 1029 M
0 33 V
0 1023 R
0 353 V
stroke
3560 1062 N
152 0 V
0 1023 V
-152 0 V
0 -1023 V
Z stroke
3560 2438 M
152 0 V
3560 1029 M
152 0 V
stroke
4318 1062 152 1087 80 45 0 PatternFill
4394 1035 M
0 27 V
0 1087 R
0 134 V
stroke
4318 1062 N
152 0 V
0 1087 V
-152 0 V
0 -1087 V
Z stroke
4318 2283 M
152 0 V
4318 1035 M
152 0 V
stroke
5077 1060 152 1066 80 45 0 PatternFill
5153 1027 M
0 33 V
0 1066 R
0 469 V
stroke
5077 1060 N
152 0 V
0 1066 V
-152 0 V
0 -1066 V
Z stroke
5077 2595 M
152 0 V
5077 1027 M
152 0 V
stroke
5836 1074 152 957 80 45 0 PatternFill
5912 1045 M
0 29 V
0 957 R
0 605 V
stroke
5836 1074 N
152 0 V
0 957 V
-152 0 V
0 -957 V
Z stroke
5836 2636 M
152 0 V
5836 1045 M
152 0 V
stroke
6594 1059 152 1042 80 45 0 PatternFill
6670 1042 M
0 17 V
0 1042 R
0 417 V
stroke
6594 1059 N
152 0 V
0 1042 V
-152 0 V
0 -1042 V
Z stroke
6594 2518 M
152 0 V
6594 1042 M
152 0 V
stroke
7353 1061 152 1029 80 45 0 PatternFill
7429 1039 M
0 22 V
0 1029 R
0 534 V
stroke
7353 1061 N
152 0 V
0 1029 V
-152 0 V
0 -1029 V
Z stroke
7353 2624 M
152 0 V
7353 1039 M
152 0 V
stroke
8112 1058 152 1006 80 45 0 PatternFill
8188 1039 M
0 19 V
0 1006 R
0 510 V
stroke
8112 1058 N
152 0 V
0 1006 V
-152 0 V
0 -1006 V
Z stroke
8112 2574 M
152 0 V
8112 1039 M
152 0 V
stroke
8870 1067 152 1071 80 45 0 PatternFill
8946 1040 M
0 27 V
0 1071 R
0 379 V
stroke
8870 1067 N
152 0 V
0 1071 V
-152 0 V
0 -1071 V
Z stroke
8870 2517 M
152 0 V
8870 1040 M
152 0 V
stroke
9629 1057 152 1051 80 45 0 PatternFill
9705 1027 M
0 30 V
0 1051 R
0 496 V
stroke
9629 1057 N
152 0 V
0 1051 V
-152 0 V
0 -1051 V
Z stroke
9629 2604 M
152 0 V
9629 1027 M
152 0 V
stroke
10388 1057 152 1054 80 45 0 PatternFill
10464 1040 M
0 17 V
0 1054 R
0 381 V
stroke
10388 1057 N
152 0 V
0 1054 V
-152 0 V
0 -1054 V
Z stroke
10388 2492 M
152 0 V
10388 1040 M
152 0 V
stroke
11146 1061 152 1062 80 45 0 PatternFill
11222 1038 M
0 23 V
0 1062 R
0 620 V
stroke
11146 1061 N
152 0 V
0 1062 V
-152 0 V
0 -1062 V
Z stroke
11146 2743 M
152 0 V
11146 1038 M
152 0 V
stroke
11905 1061 152 1035 80 45 0 PatternFill
11981 1034 M
0 27 V
0 1035 R
0 435 V
stroke
11905 1061 N
152 0 V
0 1035 V
-152 0 V
0 -1035 V
Z stroke
11905 2531 M
152 0 V
11905 1034 M
152 0 V
stroke
12664 1068 152 987 80 45 0 PatternFill
12740 1038 M
0 30 V
0 987 R
0 460 V
stroke
12664 1068 N
152 0 V
0 987 V
-152 0 V
0 -987 V
Z stroke
12664 2515 M
152 0 V
12664 1038 M
152 0 V
stroke
1283 1055 152 1071 80 45 0 PatternFill
1359 1028 M
0 27 V
0 1071 R
0 290 V
stroke
1283 1055 N
152 0 V
0 1071 V
-152 0 V
0 -1071 V
Z stroke
1283 2416 M
152 0 V
1283 1028 M
152 0 V
stroke
2042 1062 152 1032 80 45 0 PatternFill
2118 1036 M
0 26 V
0 1032 R
0 442 V
stroke
2042 1062 N
152 0 V
0 1032 V
-152 0 V
0 -1032 V
Z stroke
2042 2536 M
152 0 V
2042 1036 M
152 0 V
stroke
2801 1062 152 1019 80 45 0 PatternFill
2877 1035 M
0 27 V
0 1019 R
0 453 V
stroke
2801 1062 N
152 0 V
0 1019 V
-152 0 V
0 -1019 V
Z stroke
2801 2534 M
152 0 V
2801 1035 M
152 0 V
stroke
3560 1062 152 1023 80 45 0 PatternFill
3636 1029 M
0 33 V
0 1023 R
0 353 V
stroke
3560 1062 N
152 0 V
0 1023 V
-152 0 V
0 -1023 V
Z stroke
3560 2438 M
152 0 V
3560 1029 M
152 0 V
stroke
4318 1062 152 1087 80 45 0 PatternFill
4394 1035 M
0 27 V
0 1087 R
0 134 V
stroke
4318 1062 N
152 0 V
0 1087 V
-152 0 V
0 -1087 V
Z stroke
4318 2283 M
152 0 V
4318 1035 M
152 0 V
stroke
5077 1060 152 1066 80 45 0 PatternFill
5153 1027 M
0 33 V
0 1066 R
0 469 V
stroke
5077 1060 N
152 0 V
0 1066 V
-152 0 V
0 -1066 V
Z stroke
5077 2595 M
152 0 V
5077 1027 M
152 0 V
stroke
5836 1074 152 957 80 45 0 PatternFill
5912 1045 M
0 29 V
0 957 R
0 605 V
stroke
5836 1074 N
152 0 V
0 957 V
-152 0 V
0 -957 V
Z stroke
5836 2636 M
152 0 V
5836 1045 M
152 0 V
stroke
6594 1059 152 1042 80 45 0 PatternFill
6670 1042 M
0 17 V
0 1042 R
0 417 V
stroke
6594 1059 N
152 0 V
0 1042 V
-152 0 V
0 -1042 V
Z stroke
6594 2518 M
152 0 V
6594 1042 M
152 0 V
stroke
7353 1061 152 1029 80 45 0 PatternFill
7429 1039 M
0 22 V
0 1029 R
0 534 V
stroke
7353 1061 N
152 0 V
0 1029 V
-152 0 V
0 -1029 V
Z stroke
7353 2624 M
152 0 V
7353 1039 M
152 0 V
stroke
8112 1058 152 1006 80 45 0 PatternFill
8188 1039 M
0 19 V
0 1006 R
0 510 V
stroke
8112 1058 N
152 0 V
0 1006 V
-152 0 V
0 -1006 V
Z stroke
8112 2574 M
152 0 V
8112 1039 M
152 0 V
stroke
8870 1067 152 1071 80 45 0 PatternFill
8946 1040 M
0 27 V
0 1071 R
0 379 V
stroke
8870 1067 N
152 0 V
0 1071 V
-152 0 V
0 -1071 V
Z stroke
8870 2517 M
152 0 V
8870 1040 M
152 0 V
stroke
9629 1057 152 1051 80 45 0 PatternFill
9705 1027 M
0 30 V
0 1051 R
0 496 V
stroke
9629 1057 N
152 0 V
0 1051 V
-152 0 V
0 -1051 V
Z stroke
9629 2604 M
152 0 V
9629 1027 M
152 0 V
stroke
10388 1057 152 1054 80 45 0 PatternFill
10464 1040 M
0 17 V
0 1054 R
0 381 V
stroke
10388 1057 N
152 0 V
0 1054 V
-152 0 V
0 -1054 V
Z stroke
10388 2492 M
152 0 V
10388 1040 M
152 0 V
stroke
11146 1061 152 1062 80 45 0 PatternFill
11222 1038 M
0 23 V
0 1062 R
0 620 V
stroke
11146 1061 N
152 0 V
0 1062 V
-152 0 V
0 -1062 V
Z stroke
11146 2743 M
152 0 V
11146 1038 M
152 0 V
stroke
11905 1061 152 1035 80 45 0 PatternFill
11981 1034 M
0 27 V
0 1035 R
0 435 V
stroke
11905 1061 N
152 0 V
0 1035 V
-152 0 V
0 -1035 V
Z stroke
11905 2531 M
152 0 V
11905 1034 M
152 0 V
stroke
12664 1068 152 987 80 45 0 PatternFill
12740 1038 M
0 30 V
0 987 R
0 460 V
stroke
12664 1068 N
152 0 V
0 987 V
-152 0 V
0 -987 V
Z stroke
12664 2515 M
152 0 V
12664 1038 M
152 0 V
% End plot #4
% Begin plot #5
stroke
LTb
LCb setrgbcolor

 /TransparentPatterns true def
1283 1471 152 0 80 -45 0 PatternFill
1359 1471 M
stroke
1283 1471 N
152 0 V
-152 0 V
Z stroke
1283 1471 M
152 0 V
-152 0 R
152 0 V
stroke

 /TransparentPatterns true def
2042 1472 152 0 80 -45 0 PatternFill
2118 1472 M
stroke
2042 1472 N
152 0 V
-152 0 V
Z stroke
2042 1472 M
152 0 V
-152 0 R
152 0 V
stroke

 /TransparentPatterns true def
2801 1476 152 0 80 -45 0 PatternFill
2877 1476 M
stroke
2801 1476 N
152 0 V
-152 0 V
Z stroke
2801 1476 M
152 0 V
-152 0 R
152 0 V
stroke

 /TransparentPatterns true def
3560 1476 152 0 80 -45 0 PatternFill
3636 1476 M
stroke
3560 1476 N
152 0 V
-152 0 V
Z stroke
3560 1476 M
152 0 V
-152 0 R
152 0 V
stroke

 /TransparentPatterns true def
4318 1470 152 0 80 -45 0 PatternFill
4394 1470 M
stroke
4318 1470 N
152 0 V
-152 0 V
Z stroke
4318 1470 M
152 0 V
-152 0 R
152 0 V
stroke

 /TransparentPatterns true def
5077 1475 152 0 80 -45 0 PatternFill
5153 1475 M
stroke
5077 1475 N
152 0 V
-152 0 V
Z stroke
5077 1475 M
152 0 V
-152 0 R
152 0 V
stroke

 /TransparentPatterns true def
5836 1471 152 0 80 -45 0 PatternFill
5912 1471 M
stroke
5836 1471 N
152 0 V
-152 0 V
Z stroke
5836 1471 M
152 0 V
-152 0 R
152 0 V
stroke

 /TransparentPatterns true def
6594 1476 152 0 80 -45 0 PatternFill
6670 1476 M
stroke
6594 1476 N
152 0 V
-152 0 V
Z stroke
6594 1476 M
152 0 V
-152 0 R
152 0 V
stroke

 /TransparentPatterns true def
7353 1465 152 0 80 -45 0 PatternFill
7429 1465 M
stroke
7353 1465 N
152 0 V
-152 0 V
Z stroke
7353 1465 M
152 0 V
-152 0 R
152 0 V
stroke

 /TransparentPatterns true def
8112 1468 152 0 80 -45 0 PatternFill
8188 1468 M
stroke
8112 1468 N
152 0 V
-152 0 V
Z stroke
8112 1468 M
152 0 V
-152 0 R
152 0 V
stroke

 /TransparentPatterns true def
8870 1476 152 0 80 -45 0 PatternFill
8946 1476 M
stroke
8870 1476 N
152 0 V
-152 0 V
Z stroke
8870 1476 M
152 0 V
-152 0 R
152 0 V
stroke

 /TransparentPatterns true def
9629 1464 152 0 80 -45 0 PatternFill
9705 1464 M
stroke
9629 1464 N
152 0 V
-152 0 V
Z stroke
9629 1464 M
152 0 V
-152 0 R
152 0 V
stroke

 /TransparentPatterns true def
10388 1470 152 0 80 -45 0 PatternFill
10464 1470 M
stroke
10388 1470 N
152 0 V
-152 0 V
Z stroke
10388 1470 M
152 0 V
-152 0 R
152 0 V
stroke

 /TransparentPatterns true def
11146 1476 152 0 80 -45 0 PatternFill
11222 1476 M
stroke
11146 1476 N
152 0 V
-152 0 V
Z stroke
11146 1476 M
152 0 V
-152 0 R
152 0 V
stroke

 /TransparentPatterns true def
11905 1458 152 0 80 -45 0 PatternFill
11981 1458 M
stroke
11905 1458 N
152 0 V
-152 0 V
Z stroke
11905 1458 M
152 0 V
-152 0 R
152 0 V
stroke

 /TransparentPatterns true def
12664 1473 152 0 80 -45 0 PatternFill
12740 1473 M
stroke
12664 1473 N
152 0 V
-152 0 V
Z stroke
12664 1473 M
152 0 V
-152 0 R
152 0 V
stroke

 /TransparentPatterns true def
1283 1471 152 0 80 -45 0 PatternFill
1359 1471 M
stroke
1283 1471 N
152 0 V
-152 0 V
Z stroke
1283 1471 M
152 0 V
-152 0 R
152 0 V
stroke

 /TransparentPatterns true def
2042 1472 152 0 80 -45 0 PatternFill
2118 1472 M
stroke
2042 1472 N
152 0 V
-152 0 V
Z stroke
2042 1472 M
152 0 V
-152 0 R
152 0 V
stroke

 /TransparentPatterns true def
2801 1476 152 0 80 -45 0 PatternFill
2877 1476 M
stroke
2801 1476 N
152 0 V
-152 0 V
Z stroke
2801 1476 M
152 0 V
-152 0 R
152 0 V
stroke

 /TransparentPatterns true def
3560 1476 152 0 80 -45 0 PatternFill
3636 1476 M
stroke
3560 1476 N
152 0 V
-152 0 V
Z stroke
3560 1476 M
152 0 V
-152 0 R
152 0 V
stroke

 /TransparentPatterns true def
4318 1470 152 0 80 -45 0 PatternFill
4394 1470 M
stroke
4318 1470 N
152 0 V
-152 0 V
Z stroke
4318 1470 M
152 0 V
-152 0 R
152 0 V
stroke

 /TransparentPatterns true def
5077 1475 152 0 80 -45 0 PatternFill
5153 1475 M
stroke
5077 1475 N
152 0 V
-152 0 V
Z stroke
5077 1475 M
152 0 V
-152 0 R
152 0 V
stroke

 /TransparentPatterns true def
5836 1471 152 0 80 -45 0 PatternFill
5912 1471 M
stroke
5836 1471 N
152 0 V
-152 0 V
Z stroke
5836 1471 M
152 0 V
-152 0 R
152 0 V
stroke

 /TransparentPatterns true def
6594 1476 152 0 80 -45 0 PatternFill
6670 1476 M
stroke
6594 1476 N
152 0 V
-152 0 V
Z stroke
6594 1476 M
152 0 V
-152 0 R
152 0 V
stroke

 /TransparentPatterns true def
7353 1465 152 0 80 -45 0 PatternFill
7429 1465 M
stroke
7353 1465 N
152 0 V
-152 0 V
Z stroke
7353 1465 M
152 0 V
-152 0 R
152 0 V
stroke

 /TransparentPatterns true def
8112 1468 152 0 80 -45 0 PatternFill
8188 1468 M
stroke
8112 1468 N
152 0 V
-152 0 V
Z stroke
8112 1468 M
152 0 V
-152 0 R
152 0 V
stroke

 /TransparentPatterns true def
8870 1476 152 0 80 -45 0 PatternFill
8946 1476 M
stroke
8870 1476 N
152 0 V
-152 0 V
Z stroke
8870 1476 M
152 0 V
-152 0 R
152 0 V
stroke

 /TransparentPatterns true def
9629 1464 152 0 80 -45 0 PatternFill
9705 1464 M
stroke
9629 1464 N
152 0 V
-152 0 V
Z stroke
9629 1464 M
152 0 V
-152 0 R
152 0 V
stroke

 /TransparentPatterns true def
10388 1470 152 0 80 -45 0 PatternFill
10464 1470 M
stroke
10388 1470 N
152 0 V
-152 0 V
Z stroke
10388 1470 M
152 0 V
-152 0 R
152 0 V
stroke

 /TransparentPatterns true def
11146 1476 152 0 80 -45 0 PatternFill
11222 1476 M
stroke
11146 1476 N
152 0 V
-152 0 V
Z stroke
11146 1476 M
152 0 V
-152 0 R
152 0 V
stroke

 /TransparentPatterns true def
11905 1458 152 0 80 -45 0 PatternFill
11981 1458 M
stroke
11905 1458 N
152 0 V
-152 0 V
Z stroke
11905 1458 M
152 0 V
-152 0 R
152 0 V
stroke

 /TransparentPatterns true def
12664 1473 152 0 80 -45 0 PatternFill
12740 1473 M
stroke
12664 1473 N
152 0 V
-152 0 V
Z stroke
12664 1473 M
152 0 V
-152 0 R
152 0 V
% End plot #5
% Begin plot #6
2.000 UP
stroke
LTa
0.00 0.00 0.63 C LCb setrgbcolor
8287 153 M
[ [(Arial) 180.0 0.0 true true 0 ( )]
] -60.0 MRshow
2.000 UP
1.000 UL
LTa
0.00 0.00 0.63 C 8395 153 M
333 0 V
980 4788 M
379 -2 V
759 2 V
759 1 V
758 -28 V
759 -6 V
759 9 V
758 25 V
759 -26 V
759 2 V
759 23 V
758 -1 V
759 1 V
759 0 V
758 -20 V
759 -4 V
759 24 V
379 -13 V
980 4788 M
379 -2 V
759 2 V
759 1 V
758 -28 V
759 -6 V
759 9 V
758 25 V
759 -26 V
759 2 V
759 23 V
758 -1 V
759 1 V
759 0 V
758 -20 V
759 -4 V
759 24 V
379 -13 V
1359 4786 Circle
2118 4788 Circle
2877 4789 Circle
3635 4761 Circle
4394 4755 Circle
5153 4764 Circle
5911 4789 Circle
6670 4763 Circle
7429 4765 Circle
8188 4788 Circle
8946 4787 Circle
9705 4788 Circle
10464 4788 Circle
11222 4768 Circle
11981 4764 Circle
12740 4788 Circle
1359 4786 Circle
2118 4788 Circle
2877 4789 Circle
3635 4761 Circle
4394 4755 Circle
5153 4764 Circle
5911 4789 Circle
6670 4763 Circle
7429 4765 Circle
8188 4788 Circle
8946 4787 Circle
9705 4788 Circle
10464 4788 Circle
11222 4768 Circle
11981 4764 Circle
12740 4788 Circle
8561 153 Circle
% End plot #6
% Begin plot #7
1.000 UL
LTb
0.00 0.38 0.82 C LCb setrgbcolor
11860 333 M
[ [(Arial) 180.0 0.0 true true 0 (per-flow)]
] -60.0 MRshow
1.000 UL
LTb
0.00 0.38 0.82 C 11968 288 333 90 40 30 0 PatternFill
11968 288 N
333 0 V
0 90 V
-333 0 V
0 -90 V
Z stroke
1.000 UL
LTb
0.00 0.38 0.82 C 1473 1063 152 120 40 30 0 PatternFill
1549 1040 M
0 23 V
0 120 R
0 795 V
stroke
1473 1063 N
152 0 V
0 120 V
-152 0 V
0 -120 V
Z stroke
1473 1978 M
152 0 V
1473 1040 M
152 0 V
stroke
2232 1067 152 105 40 30 0 PatternFill
2308 1044 M
0 23 V
0 105 R
0 693 V
stroke
2232 1067 N
152 0 V
0 105 V
-152 0 V
0 -105 V
Z stroke
2232 1865 M
152 0 V
2232 1044 M
152 0 V
stroke
2991 1058 152 95 40 30 0 PatternFill
3067 1039 M
0 19 V
0 95 R
0 643 V
stroke
2991 1058 N
152 0 V
0 95 V
-152 0 V
0 -95 V
Z stroke
2991 1796 M
152 0 V
2991 1039 M
152 0 V
stroke
3749 1058 152 135 40 30 0 PatternFill
3825 1044 M
0 14 V
0 135 R
0 628 V
stroke
3749 1058 N
152 0 V
0 135 V
-152 0 V
0 -135 V
Z stroke
3749 1821 M
152 0 V
3749 1044 M
152 0 V
stroke
4508 1060 152 99 40 30 0 PatternFill
4584 1037 M
0 23 V
0 99 R
0 1242 V
stroke
4508 1060 N
152 0 V
0 99 V
-152 0 V
0 -99 V
Z stroke
4508 2401 M
152 0 V
4508 1037 M
152 0 V
stroke
5267 1063 152 84 40 30 0 PatternFill
5343 1043 M
0 20 V
0 84 R
0 742 V
stroke
5267 1063 N
152 0 V
0 84 V
-152 0 V
0 -84 V
Z stroke
5267 1889 M
152 0 V
5267 1043 M
152 0 V
stroke
6025 1059 152 117 40 30 0 PatternFill
6101 1038 M
0 21 V
0 117 R
0 646 V
stroke
6025 1059 N
152 0 V
0 117 V
-152 0 V
0 -117 V
Z stroke
6025 1822 M
152 0 V
6025 1038 M
152 0 V
stroke
6784 1068 152 123 40 30 0 PatternFill
6860 1047 M
0 21 V
0 123 R
0 682 V
stroke
6784 1068 N
152 0 V
0 123 V
-152 0 V
0 -123 V
Z stroke
6784 1873 M
152 0 V
6784 1047 M
152 0 V
stroke
7543 1063 152 101 40 30 0 PatternFill
7619 1037 M
0 26 V
0 101 R
0 664 V
stroke
7543 1063 N
152 0 V
0 101 V
-152 0 V
0 -101 V
Z stroke
7543 1828 M
152 0 V
7543 1037 M
152 0 V
stroke
8301 1064 152 90 40 30 0 PatternFill
8377 1051 M
0 13 V
0 90 R
0 1005 V
stroke
8301 1064 N
152 0 V
0 90 V
-152 0 V
0 -90 V
Z stroke
8301 2159 M
152 0 V
8301 1051 M
152 0 V
stroke
9060 1069 152 113 40 30 0 PatternFill
9136 1054 M
0 15 V
0 113 R
0 551 V
stroke
9060 1069 N
152 0 V
0 113 V
-152 0 V
0 -113 V
Z stroke
9060 1733 M
152 0 V
9060 1054 M
152 0 V
stroke
9819 1068 152 95 40 30 0 PatternFill
9895 1046 M
0 22 V
0 95 R
0 605 V
stroke
9819 1068 N
152 0 V
0 95 V
-152 0 V
0 -95 V
Z stroke
9819 1768 M
152 0 V
9819 1046 M
152 0 V
stroke
10577 1061 152 111 40 30 0 PatternFill
10653 1044 M
0 17 V
0 111 R
0 830 V
stroke
10577 1061 N
152 0 V
0 111 V
-152 0 V
0 -111 V
Z stroke
10577 2002 M
152 0 V
-152 -958 R
152 0 V
stroke
11336 1070 152 124 40 30 0 PatternFill
11412 1040 M
0 30 V
0 124 R
0 929 V
stroke
11336 1070 N
152 0 V
0 124 V
-152 0 V
0 -124 V
Z stroke
11336 2123 M
152 0 V
11336 1040 M
152 0 V
stroke
12095 1061 152 118 40 30 0 PatternFill
12171 1047 M
0 14 V
0 118 R
0 445 V
stroke
12095 1061 N
152 0 V
0 118 V
-152 0 V
0 -118 V
Z stroke
12095 1624 M
152 0 V
-152 -577 R
152 0 V
stroke
12853 1057 152 80 40 30 0 PatternFill
12929 1035 M
0 22 V
0 80 R
0 629 V
stroke
12853 1057 N
152 0 V
0 80 V
-152 0 V
0 -80 V
Z stroke
12853 1766 M
152 0 V
-152 -731 R
152 0 V
stroke
1473 1063 152 120 40 30 0 PatternFill
1549 1040 M
0 23 V
0 120 R
0 795 V
stroke
1473 1063 N
152 0 V
0 120 V
-152 0 V
0 -120 V
Z stroke
1473 1978 M
152 0 V
1473 1040 M
152 0 V
stroke
2232 1067 152 105 40 30 0 PatternFill
2308 1044 M
0 23 V
0 105 R
0 693 V
stroke
2232 1067 N
152 0 V
0 105 V
-152 0 V
0 -105 V
Z stroke
2232 1865 M
152 0 V
2232 1044 M
152 0 V
stroke
2991 1058 152 95 40 30 0 PatternFill
3067 1039 M
0 19 V
0 95 R
0 643 V
stroke
2991 1058 N
152 0 V
0 95 V
-152 0 V
0 -95 V
Z stroke
2991 1796 M
152 0 V
2991 1039 M
152 0 V
stroke
3749 1058 152 135 40 30 0 PatternFill
3825 1044 M
0 14 V
0 135 R
0 628 V
stroke
3749 1058 N
152 0 V
0 135 V
-152 0 V
0 -135 V
Z stroke
3749 1821 M
152 0 V
3749 1044 M
152 0 V
stroke
4508 1060 152 99 40 30 0 PatternFill
4584 1037 M
0 23 V
0 99 R
0 1242 V
stroke
4508 1060 N
152 0 V
0 99 V
-152 0 V
0 -99 V
Z stroke
4508 2401 M
152 0 V
4508 1037 M
152 0 V
stroke
5267 1063 152 84 40 30 0 PatternFill
5343 1043 M
0 20 V
0 84 R
0 742 V
stroke
5267 1063 N
152 0 V
0 84 V
-152 0 V
0 -84 V
Z stroke
5267 1889 M
152 0 V
5267 1043 M
152 0 V
stroke
6025 1059 152 117 40 30 0 PatternFill
6101 1038 M
0 21 V
0 117 R
0 646 V
stroke
6025 1059 N
152 0 V
0 117 V
-152 0 V
0 -117 V
Z stroke
6025 1822 M
152 0 V
6025 1038 M
152 0 V
stroke
6784 1068 152 123 40 30 0 PatternFill
6860 1047 M
0 21 V
0 123 R
0 682 V
stroke
6784 1068 N
152 0 V
0 123 V
-152 0 V
0 -123 V
Z stroke
6784 1873 M
152 0 V
6784 1047 M
152 0 V
stroke
7543 1063 152 101 40 30 0 PatternFill
7619 1037 M
0 26 V
0 101 R
0 664 V
stroke
7543 1063 N
152 0 V
0 101 V
-152 0 V
0 -101 V
Z stroke
7543 1828 M
152 0 V
7543 1037 M
152 0 V
stroke
8301 1064 152 90 40 30 0 PatternFill
8377 1051 M
0 13 V
0 90 R
0 1005 V
stroke
8301 1064 N
152 0 V
0 90 V
-152 0 V
0 -90 V
Z stroke
8301 2159 M
152 0 V
8301 1051 M
152 0 V
stroke
9060 1069 152 113 40 30 0 PatternFill
9136 1054 M
0 15 V
0 113 R
0 551 V
stroke
9060 1069 N
152 0 V
0 113 V
-152 0 V
0 -113 V
Z stroke
9060 1733 M
152 0 V
9060 1054 M
152 0 V
stroke
9819 1068 152 95 40 30 0 PatternFill
9895 1046 M
0 22 V
0 95 R
0 605 V
stroke
9819 1068 N
152 0 V
0 95 V
-152 0 V
0 -95 V
Z stroke
9819 1768 M
152 0 V
9819 1046 M
152 0 V
stroke
10577 1061 152 111 40 30 0 PatternFill
10653 1044 M
0 17 V
0 111 R
0 830 V
stroke
10577 1061 N
152 0 V
0 111 V
-152 0 V
0 -111 V
Z stroke
10577 2002 M
152 0 V
-152 -958 R
152 0 V
stroke
11336 1070 152 124 40 30 0 PatternFill
11412 1040 M
0 30 V
0 124 R
0 929 V
stroke
11336 1070 N
152 0 V
0 124 V
-152 0 V
0 -124 V
Z stroke
11336 2123 M
152 0 V
11336 1040 M
152 0 V
stroke
12095 1061 152 118 40 30 0 PatternFill
12171 1047 M
0 14 V
0 118 R
0 445 V
stroke
12095 1061 N
152 0 V
0 118 V
-152 0 V
0 -118 V
Z stroke
12095 1624 M
152 0 V
-152 -577 R
152 0 V
stroke
12853 1057 152 80 40 30 0 PatternFill
12929 1035 M
0 22 V
0 80 R
0 629 V
stroke
12853 1057 N
152 0 V
0 80 V
-152 0 V
0 -80 V
Z stroke
12853 1766 M
152 0 V
-152 -731 R
152 0 V
% End plot #7
% Begin plot #8
stroke
LTb
LCb setrgbcolor

 /TransparentPatterns true def
1473 1149 152 0 40 -30 0 PatternFill
1549 1149 M
stroke
1473 1149 N
152 0 V
-152 0 V
Z stroke
1473 1149 M
152 0 V
-152 0 R
152 0 V
stroke

 /TransparentPatterns true def
2232 1137 152 0 40 -30 0 PatternFill
2308 1137 M
stroke
2232 1137 N
152 0 V
-152 0 V
Z stroke
2232 1137 M
152 0 V
-152 0 R
152 0 V
stroke

 /TransparentPatterns true def
2991 1123 152 0 40 -30 0 PatternFill
3067 1123 M
stroke
2991 1123 N
152 0 V
-152 0 V
Z stroke
2991 1123 M
152 0 V
-152 0 R
152 0 V
stroke

 /TransparentPatterns true def
3749 1137 152 0 40 -30 0 PatternFill
3825 1137 M
stroke
3749 1137 N
152 0 V
-152 0 V
Z stroke
3749 1137 M
152 0 V
-152 0 R
152 0 V
stroke

 /TransparentPatterns true def
4508 1138 152 0 40 -30 0 PatternFill
4584 1138 M
stroke
4508 1138 N
152 0 V
-152 0 V
Z stroke
4508 1138 M
152 0 V
-152 0 R
152 0 V
stroke

 /TransparentPatterns true def
5267 1122 152 0 40 -30 0 PatternFill
5343 1122 M
stroke
5267 1122 N
152 0 V
-152 0 V
Z stroke
5267 1122 M
152 0 V
-152 0 R
152 0 V
stroke

 /TransparentPatterns true def
6025 1131 152 0 40 -30 0 PatternFill
6101 1131 M
stroke
6025 1131 N
152 0 V
-152 0 V
Z stroke
6025 1131 M
152 0 V
-152 0 R
152 0 V
stroke

 /TransparentPatterns true def
6784 1153 152 0 40 -30 0 PatternFill
6860 1153 M
stroke
6784 1153 N
152 0 V
-152 0 V
Z stroke
6784 1153 M
152 0 V
-152 0 R
152 0 V
stroke

 /TransparentPatterns true def
7543 1133 152 0 40 -30 0 PatternFill
7619 1133 M
stroke
7543 1133 N
152 0 V
-152 0 V
Z stroke
7543 1133 M
152 0 V
-152 0 R
152 0 V
stroke

 /TransparentPatterns true def
8301 1137 152 0 40 -30 0 PatternFill
8377 1137 M
stroke
8301 1137 N
152 0 V
-152 0 V
Z stroke
8301 1137 M
152 0 V
-152 0 R
152 0 V
stroke

 /TransparentPatterns true def
9060 1139 152 0 40 -30 0 PatternFill
9136 1139 M
stroke
9060 1139 N
152 0 V
-152 0 V
Z stroke
9060 1139 M
152 0 V
-152 0 R
152 0 V
stroke

 /TransparentPatterns true def
9819 1138 152 0 40 -30 0 PatternFill
9895 1138 M
stroke
9819 1138 N
152 0 V
-152 0 V
Z stroke
9819 1138 M
152 0 V
-152 0 R
152 0 V
stroke

 /TransparentPatterns true def
10577 1138 152 0 40 -30 0 PatternFill
10653 1138 M
stroke
10577 1138 N
152 0 V
-152 0 V
Z stroke
10577 1138 M
152 0 V
-152 0 R
152 0 V
stroke

 /TransparentPatterns true def
11336 1147 152 0 40 -30 0 PatternFill
11412 1147 M
stroke
11336 1147 N
152 0 V
-152 0 V
Z stroke
11336 1147 M
152 0 V
-152 0 R
152 0 V
stroke

 /TransparentPatterns true def
12095 1142 152 0 40 -30 0 PatternFill
12171 1142 M
stroke
12095 1142 N
152 0 V
-152 0 V
Z stroke
12095 1142 M
152 0 V
-152 0 R
152 0 V
stroke

 /TransparentPatterns true def
12853 1117 152 0 40 -30 0 PatternFill
12929 1117 M
stroke
12853 1117 N
152 0 V
-152 0 V
Z stroke
12853 1117 M
152 0 V
-152 0 R
152 0 V
stroke

 /TransparentPatterns true def
1473 1149 152 0 40 -30 0 PatternFill
1549 1149 M
stroke
1473 1149 N
152 0 V
-152 0 V
Z stroke
1473 1149 M
152 0 V
-152 0 R
152 0 V
stroke

 /TransparentPatterns true def
2232 1137 152 0 40 -30 0 PatternFill
2308 1137 M
stroke
2232 1137 N
152 0 V
-152 0 V
Z stroke
2232 1137 M
152 0 V
-152 0 R
152 0 V
stroke

 /TransparentPatterns true def
2991 1123 152 0 40 -30 0 PatternFill
3067 1123 M
stroke
2991 1123 N
152 0 V
-152 0 V
Z stroke
2991 1123 M
152 0 V
-152 0 R
152 0 V
stroke

 /TransparentPatterns true def
3749 1137 152 0 40 -30 0 PatternFill
3825 1137 M
stroke
3749 1137 N
152 0 V
-152 0 V
Z stroke
3749 1137 M
152 0 V
-152 0 R
152 0 V
stroke

 /TransparentPatterns true def
4508 1138 152 0 40 -30 0 PatternFill
4584 1138 M
stroke
4508 1138 N
152 0 V
-152 0 V
Z stroke
4508 1138 M
152 0 V
-152 0 R
152 0 V
stroke

 /TransparentPatterns true def
5267 1122 152 0 40 -30 0 PatternFill
5343 1122 M
stroke
5267 1122 N
152 0 V
-152 0 V
Z stroke
5267 1122 M
152 0 V
-152 0 R
152 0 V
stroke

 /TransparentPatterns true def
6025 1131 152 0 40 -30 0 PatternFill
6101 1131 M
stroke
6025 1131 N
152 0 V
-152 0 V
Z stroke
6025 1131 M
152 0 V
-152 0 R
152 0 V
stroke

 /TransparentPatterns true def
6784 1153 152 0 40 -30 0 PatternFill
6860 1153 M
stroke
6784 1153 N
152 0 V
-152 0 V
Z stroke
6784 1153 M
152 0 V
-152 0 R
152 0 V
stroke

 /TransparentPatterns true def
7543 1133 152 0 40 -30 0 PatternFill
7619 1133 M
stroke
7543 1133 N
152 0 V
-152 0 V
Z stroke
7543 1133 M
152 0 V
-152 0 R
152 0 V
stroke

 /TransparentPatterns true def
8301 1137 152 0 40 -30 0 PatternFill
8377 1137 M
stroke
8301 1137 N
152 0 V
-152 0 V
Z stroke
8301 1137 M
152 0 V
-152 0 R
152 0 V
stroke

 /TransparentPatterns true def
9060 1139 152 0 40 -30 0 PatternFill
9136 1139 M
stroke
9060 1139 N
152 0 V
-152 0 V
Z stroke
9060 1139 M
152 0 V
-152 0 R
152 0 V
stroke

 /TransparentPatterns true def
9819 1138 152 0 40 -30 0 PatternFill
9895 1138 M
stroke
9819 1138 N
152 0 V
-152 0 V
Z stroke
9819 1138 M
152 0 V
-152 0 R
152 0 V
stroke

 /TransparentPatterns true def
10577 1138 152 0 40 -30 0 PatternFill
10653 1138 M
stroke
10577 1138 N
152 0 V
-152 0 V
Z stroke
10577 1138 M
152 0 V
-152 0 R
152 0 V
stroke

 /TransparentPatterns true def
11336 1147 152 0 40 -30 0 PatternFill
11412 1147 M
stroke
11336 1147 N
152 0 V
-152 0 V
Z stroke
11336 1147 M
152 0 V
-152 0 R
152 0 V
stroke

 /TransparentPatterns true def
12095 1142 152 0 40 -30 0 PatternFill
12171 1142 M
stroke
12095 1142 N
152 0 V
-152 0 V
Z stroke
12095 1142 M
152 0 V
-152 0 R
152 0 V
stroke

 /TransparentPatterns true def
12853 1117 152 0 40 -30 0 PatternFill
12929 1117 M
stroke
12853 1117 N
152 0 V
-152 0 V
Z stroke
12853 1117 M
152 0 V
-152 0 R
152 0 V
% End plot #8
% Begin plot #9
2.000 UP
stroke
LTa
0.00 0.38 0.82 C LCb setrgbcolor
11860 153 M
[ [(Arial) 180.0 0.0 true true 0 ( )]
] -60.0 MRshow
2.000 UP
1.000 UL
LTa
0.00 0.38 0.82 C 11968 153 M
333 0 V
980 4735 M
569 9 V
759 -6 V
758 -1 V
759 2 V
759 22 V
758 -19 V
759 -4 V
759 2 V
759 -1 V
758 14 V
759 -22 V
759 2 V
758 14 V
759 5 V
759 -32 V
758 14 V
190 -9 V
980 4735 M
569 9 V
759 -6 V
758 -1 V
759 2 V
759 22 V
758 -19 V
759 -4 V
759 2 V
759 -1 V
758 14 V
759 -22 V
759 2 V
758 14 V
759 5 V
759 -32 V
758 14 V
190 -9 V
1549 4744 TriU
2308 4738 TriU
3066 4737 TriU
3825 4739 TriU
4584 4761 TriU
5342 4742 TriU
6101 4738 TriU
6860 4740 TriU
7619 4739 TriU
8377 4753 TriU
9136 4731 TriU
9895 4733 TriU
10653 4747 TriU
11412 4752 TriU
12171 4720 TriU
12929 4734 TriU
1549 4744 TriU
2308 4738 TriU
3066 4737 TriU
3825 4739 TriU
4584 4761 TriU
5342 4742 TriU
6101 4738 TriU
6860 4740 TriU
7619 4739 TriU
8377 4753 TriU
9136 4731 TriU
9895 4733 TriU
10653 4747 TriU
11412 4752 TriU
12171 4720 TriU
12929 4734 TriU
12134 153 TriU
% End plot #9
2.000 UL
LTb
LCb setrgbcolor
1.000 UP
1.000 UL
LTb
0.00 0.00 0.00 C stroke
grestore
end
showpage
%%Trailer
%%DocumentFonts: Arial
