%!PS-Adobe-2.0 EPSF-2.0
%%Title: TcpHybla-download-rtt-50UE-250-400.eps
%%Creator: gnuplot 5.0 patchlevel 3
%%CreationDate: Thu Jun  2 10:39:42 2016
%%DocumentFonts: (atend)
%%BoundingBox: 50 50 770 302
%%EndComments
%%BeginProlog
/gnudict 256 dict def
gnudict begin
%
% The following true/false flags may be edited by hand if desired.
% The unit line width and grayscale image gamma correction may also be changed.
%
/Color true def
/Blacktext false def
/Solid false def
/Dashlength 3 def
/Landscape false def
/Level1 false def
/Level3 false def
/Rounded false def
/ClipToBoundingBox false def
/SuppressPDFMark false def
/TransparentPatterns false def
/gnulinewidth 15.000 def
/userlinewidth gnulinewidth def
/Gamma 1.0 def
/BackgroundColor {-1.000 -1.000 -1.000} def
%
/vshift -66 def
/dl1 {
  10.0 Dashlength userlinewidth gnulinewidth div mul mul mul
  Rounded { currentlinewidth 0.75 mul sub dup 0 le { pop 0.01 } if } if
} def
/dl2 {
  10.0 Dashlength userlinewidth gnulinewidth div mul mul mul
  Rounded { currentlinewidth 0.75 mul add } if
} def
/hpt_ 31.5 def
/vpt_ 31.5 def
/hpt hpt_ def
/vpt vpt_ def
/doclip {
  ClipToBoundingBox {
    newpath 50 50 moveto 770 50 lineto 770 302 lineto 50 302 lineto closepath
    clip
  } if
} def
%
% Gnuplot Prolog Version 5.1 (Oct 2015)
%
%/SuppressPDFMark true def
%
/M {moveto} bind def
/L {lineto} bind def
/R {rmoveto} bind def
/V {rlineto} bind def
/N {newpath moveto} bind def
/Z {closepath} bind def
/C {setrgbcolor} bind def
/f {rlineto fill} bind def
/g {setgray} bind def
/Gshow {show} def   % May be redefined later in the file to support UTF-8
/vpt2 vpt 2 mul def
/hpt2 hpt 2 mul def
/Lshow {currentpoint stroke M 0 vshift R 
	Blacktext {gsave 0 setgray textshow grestore} {textshow} ifelse} def
/Rshow {currentpoint stroke M dup stringwidth pop neg vshift R
	Blacktext {gsave 0 setgray textshow grestore} {textshow} ifelse} def
/Cshow {currentpoint stroke M dup stringwidth pop -2 div vshift R 
	Blacktext {gsave 0 setgray textshow grestore} {textshow} ifelse} def
/UP {dup vpt_ mul /vpt exch def hpt_ mul /hpt exch def
  /hpt2 hpt 2 mul def /vpt2 vpt 2 mul def} def
/DL {Color {setrgbcolor Solid {pop []} if 0 setdash}
 {pop pop pop 0 setgray Solid {pop []} if 0 setdash} ifelse} def
/BL {stroke userlinewidth 2 mul setlinewidth
	Rounded {1 setlinejoin 1 setlinecap} if} def
/AL {stroke userlinewidth 2 div setlinewidth
	Rounded {1 setlinejoin 1 setlinecap} if} def
/UL {dup gnulinewidth mul /userlinewidth exch def
	dup 1 lt {pop 1} if 10 mul /udl exch def} def
/PL {stroke userlinewidth setlinewidth
	Rounded {1 setlinejoin 1 setlinecap} if} def
3.8 setmiterlimit
% Classic Line colors (version 5.0)
/LCw {1 1 1} def
/LCb {0 0 0} def
/LCa {0 0 0} def
/LC0 {1 0 0} def
/LC1 {0 1 0} def
/LC2 {0 0 1} def
/LC3 {1 0 1} def
/LC4 {0 1 1} def
/LC5 {1 1 0} def
/LC6 {0 0 0} def
/LC7 {1 0.3 0} def
/LC8 {0.5 0.5 0.5} def
% Default dash patterns (version 5.0)
/LTB {BL [] LCb DL} def
/LTw {PL [] 1 setgray} def
/LTb {PL [] LCb DL} def
/LTa {AL [1 udl mul 2 udl mul] 0 setdash LCa setrgbcolor} def
/LT0 {PL [] LC0 DL} def
/LT1 {PL [2 dl1 3 dl2] LC1 DL} def
/LT2 {PL [1 dl1 1.5 dl2] LC2 DL} def
/LT3 {PL [6 dl1 2 dl2 1 dl1 2 dl2] LC3 DL} def
/LT4 {PL [1 dl1 2 dl2 6 dl1 2 dl2 1 dl1 2 dl2] LC4 DL} def
/LT5 {PL [4 dl1 2 dl2] LC5 DL} def
/LT6 {PL [1.5 dl1 1.5 dl2 1.5 dl1 1.5 dl2 1.5 dl1 6 dl2] LC6 DL} def
/LT7 {PL [3 dl1 3 dl2 1 dl1 3 dl2] LC7 DL} def
/LT8 {PL [2 dl1 2 dl2 2 dl1 6 dl2] LC8 DL} def
/SL {[] 0 setdash} def
/Pnt {stroke [] 0 setdash gsave 1 setlinecap M 0 0 V stroke grestore} def
/Dia {stroke [] 0 setdash 2 copy vpt add M
  hpt neg vpt neg V hpt vpt neg V
  hpt vpt V hpt neg vpt V closepath stroke
  Pnt} def
/Pls {stroke [] 0 setdash vpt sub M 0 vpt2 V
  currentpoint stroke M
  hpt neg vpt neg R hpt2 0 V stroke
 } def
/Box {stroke [] 0 setdash 2 copy exch hpt sub exch vpt add M
  0 vpt2 neg V hpt2 0 V 0 vpt2 V
  hpt2 neg 0 V closepath stroke
  Pnt} def
/Crs {stroke [] 0 setdash exch hpt sub exch vpt add M
  hpt2 vpt2 neg V currentpoint stroke M
  hpt2 neg 0 R hpt2 vpt2 V stroke} def
/TriU {stroke [] 0 setdash 2 copy vpt 1.12 mul add M
  hpt neg vpt -1.62 mul V
  hpt 2 mul 0 V
  hpt neg vpt 1.62 mul V closepath stroke
  Pnt} def
/Star {2 copy Pls Crs} def
/BoxF {stroke [] 0 setdash exch hpt sub exch vpt add M
  0 vpt2 neg V hpt2 0 V 0 vpt2 V
  hpt2 neg 0 V closepath fill} def
/TriUF {stroke [] 0 setdash vpt 1.12 mul add M
  hpt neg vpt -1.62 mul V
  hpt 2 mul 0 V
  hpt neg vpt 1.62 mul V closepath fill} def
/TriD {stroke [] 0 setdash 2 copy vpt 1.12 mul sub M
  hpt neg vpt 1.62 mul V
  hpt 2 mul 0 V
  hpt neg vpt -1.62 mul V closepath stroke
  Pnt} def
/TriDF {stroke [] 0 setdash vpt 1.12 mul sub M
  hpt neg vpt 1.62 mul V
  hpt 2 mul 0 V
  hpt neg vpt -1.62 mul V closepath fill} def
/DiaF {stroke [] 0 setdash vpt add M
  hpt neg vpt neg V hpt vpt neg V
  hpt vpt V hpt neg vpt V closepath fill} def
/Pent {stroke [] 0 setdash 2 copy gsave
  translate 0 hpt M 4 {72 rotate 0 hpt L} repeat
  closepath stroke grestore Pnt} def
/PentF {stroke [] 0 setdash gsave
  translate 0 hpt M 4 {72 rotate 0 hpt L} repeat
  closepath fill grestore} def
/Circle {stroke [] 0 setdash 2 copy
  hpt 0 360 arc stroke Pnt} def
/CircleF {stroke [] 0 setdash hpt 0 360 arc fill} def
/C0 {BL [] 0 setdash 2 copy moveto vpt 90 450 arc} bind def
/C1 {BL [] 0 setdash 2 copy moveto
	2 copy vpt 0 90 arc closepath fill
	vpt 0 360 arc closepath} bind def
/C2 {BL [] 0 setdash 2 copy moveto
	2 copy vpt 90 180 arc closepath fill
	vpt 0 360 arc closepath} bind def
/C3 {BL [] 0 setdash 2 copy moveto
	2 copy vpt 0 180 arc closepath fill
	vpt 0 360 arc closepath} bind def
/C4 {BL [] 0 setdash 2 copy moveto
	2 copy vpt 180 270 arc closepath fill
	vpt 0 360 arc closepath} bind def
/C5 {BL [] 0 setdash 2 copy moveto
	2 copy vpt 0 90 arc
	2 copy moveto
	2 copy vpt 180 270 arc closepath fill
	vpt 0 360 arc} bind def
/C6 {BL [] 0 setdash 2 copy moveto
	2 copy vpt 90 270 arc closepath fill
	vpt 0 360 arc closepath} bind def
/C7 {BL [] 0 setdash 2 copy moveto
	2 copy vpt 0 270 arc closepath fill
	vpt 0 360 arc closepath} bind def
/C8 {BL [] 0 setdash 2 copy moveto
	2 copy vpt 270 360 arc closepath fill
	vpt 0 360 arc closepath} bind def
/C9 {BL [] 0 setdash 2 copy moveto
	2 copy vpt 270 450 arc closepath fill
	vpt 0 360 arc closepath} bind def
/C10 {BL [] 0 setdash 2 copy 2 copy moveto vpt 270 360 arc closepath fill
	2 copy moveto
	2 copy vpt 90 180 arc closepath fill
	vpt 0 360 arc closepath} bind def
/C11 {BL [] 0 setdash 2 copy moveto
	2 copy vpt 0 180 arc closepath fill
	2 copy moveto
	2 copy vpt 270 360 arc closepath fill
	vpt 0 360 arc closepath} bind def
/C12 {BL [] 0 setdash 2 copy moveto
	2 copy vpt 180 360 arc closepath fill
	vpt 0 360 arc closepath} bind def
/C13 {BL [] 0 setdash 2 copy moveto
	2 copy vpt 0 90 arc closepath fill
	2 copy moveto
	2 copy vpt 180 360 arc closepath fill
	vpt 0 360 arc closepath} bind def
/C14 {BL [] 0 setdash 2 copy moveto
	2 copy vpt 90 360 arc closepath fill
	vpt 0 360 arc} bind def
/C15 {BL [] 0 setdash 2 copy vpt 0 360 arc closepath fill
	vpt 0 360 arc closepath} bind def
/Rec {newpath 4 2 roll moveto 1 index 0 rlineto 0 exch rlineto
	neg 0 rlineto closepath} bind def
/Square {dup Rec} bind def
/Bsquare {vpt sub exch vpt sub exch vpt2 Square} bind def
/S0 {BL [] 0 setdash 2 copy moveto 0 vpt rlineto BL Bsquare} bind def
/S1 {BL [] 0 setdash 2 copy vpt Square fill Bsquare} bind def
/S2 {BL [] 0 setdash 2 copy exch vpt sub exch vpt Square fill Bsquare} bind def
/S3 {BL [] 0 setdash 2 copy exch vpt sub exch vpt2 vpt Rec fill Bsquare} bind def
/S4 {BL [] 0 setdash 2 copy exch vpt sub exch vpt sub vpt Square fill Bsquare} bind def
/S5 {BL [] 0 setdash 2 copy 2 copy vpt Square fill
	exch vpt sub exch vpt sub vpt Square fill Bsquare} bind def
/S6 {BL [] 0 setdash 2 copy exch vpt sub exch vpt sub vpt vpt2 Rec fill Bsquare} bind def
/S7 {BL [] 0 setdash 2 copy exch vpt sub exch vpt sub vpt vpt2 Rec fill
	2 copy vpt Square fill Bsquare} bind def
/S8 {BL [] 0 setdash 2 copy vpt sub vpt Square fill Bsquare} bind def
/S9 {BL [] 0 setdash 2 copy vpt sub vpt vpt2 Rec fill Bsquare} bind def
/S10 {BL [] 0 setdash 2 copy vpt sub vpt Square fill 2 copy exch vpt sub exch vpt Square fill
	Bsquare} bind def
/S11 {BL [] 0 setdash 2 copy vpt sub vpt Square fill 2 copy exch vpt sub exch vpt2 vpt Rec fill
	Bsquare} bind def
/S12 {BL [] 0 setdash 2 copy exch vpt sub exch vpt sub vpt2 vpt Rec fill Bsquare} bind def
/S13 {BL [] 0 setdash 2 copy exch vpt sub exch vpt sub vpt2 vpt Rec fill
	2 copy vpt Square fill Bsquare} bind def
/S14 {BL [] 0 setdash 2 copy exch vpt sub exch vpt sub vpt2 vpt Rec fill
	2 copy exch vpt sub exch vpt Square fill Bsquare} bind def
/S15 {BL [] 0 setdash 2 copy Bsquare fill Bsquare} bind def
/D0 {gsave translate 45 rotate 0 0 S0 stroke grestore} bind def
/D1 {gsave translate 45 rotate 0 0 S1 stroke grestore} bind def
/D2 {gsave translate 45 rotate 0 0 S2 stroke grestore} bind def
/D3 {gsave translate 45 rotate 0 0 S3 stroke grestore} bind def
/D4 {gsave translate 45 rotate 0 0 S4 stroke grestore} bind def
/D5 {gsave translate 45 rotate 0 0 S5 stroke grestore} bind def
/D6 {gsave translate 45 rotate 0 0 S6 stroke grestore} bind def
/D7 {gsave translate 45 rotate 0 0 S7 stroke grestore} bind def
/D8 {gsave translate 45 rotate 0 0 S8 stroke grestore} bind def
/D9 {gsave translate 45 rotate 0 0 S9 stroke grestore} bind def
/D10 {gsave translate 45 rotate 0 0 S10 stroke grestore} bind def
/D11 {gsave translate 45 rotate 0 0 S11 stroke grestore} bind def
/D12 {gsave translate 45 rotate 0 0 S12 stroke grestore} bind def
/D13 {gsave translate 45 rotate 0 0 S13 stroke grestore} bind def
/D14 {gsave translate 45 rotate 0 0 S14 stroke grestore} bind def
/D15 {gsave translate 45 rotate 0 0 S15 stroke grestore} bind def
/DiaE {stroke [] 0 setdash vpt add M
  hpt neg vpt neg V hpt vpt neg V
  hpt vpt V hpt neg vpt V closepath stroke} def
/BoxE {stroke [] 0 setdash exch hpt sub exch vpt add M
  0 vpt2 neg V hpt2 0 V 0 vpt2 V
  hpt2 neg 0 V closepath stroke} def
/TriUE {stroke [] 0 setdash vpt 1.12 mul add M
  hpt neg vpt -1.62 mul V
  hpt 2 mul 0 V
  hpt neg vpt 1.62 mul V closepath stroke} def
/TriDE {stroke [] 0 setdash vpt 1.12 mul sub M
  hpt neg vpt 1.62 mul V
  hpt 2 mul 0 V
  hpt neg vpt -1.62 mul V closepath stroke} def
/PentE {stroke [] 0 setdash gsave
  translate 0 hpt M 4 {72 rotate 0 hpt L} repeat
  closepath stroke grestore} def
/CircE {stroke [] 0 setdash 
  hpt 0 360 arc stroke} def
/Opaque {gsave closepath 1 setgray fill grestore 0 setgray closepath} def
/DiaW {stroke [] 0 setdash vpt add M
  hpt neg vpt neg V hpt vpt neg V
  hpt vpt V hpt neg vpt V Opaque stroke} def
/BoxW {stroke [] 0 setdash exch hpt sub exch vpt add M
  0 vpt2 neg V hpt2 0 V 0 vpt2 V
  hpt2 neg 0 V Opaque stroke} def
/TriUW {stroke [] 0 setdash vpt 1.12 mul add M
  hpt neg vpt -1.62 mul V
  hpt 2 mul 0 V
  hpt neg vpt 1.62 mul V Opaque stroke} def
/TriDW {stroke [] 0 setdash vpt 1.12 mul sub M
  hpt neg vpt 1.62 mul V
  hpt 2 mul 0 V
  hpt neg vpt -1.62 mul V Opaque stroke} def
/PentW {stroke [] 0 setdash gsave
  translate 0 hpt M 4 {72 rotate 0 hpt L} repeat
  Opaque stroke grestore} def
/CircW {stroke [] 0 setdash 
  hpt 0 360 arc Opaque stroke} def
/BoxFill {gsave Rec 1 setgray fill grestore} def
/Density {
  /Fillden exch def
  currentrgbcolor
  /ColB exch def /ColG exch def /ColR exch def
  /ColR ColR Fillden mul Fillden sub 1 add def
  /ColG ColG Fillden mul Fillden sub 1 add def
  /ColB ColB Fillden mul Fillden sub 1 add def
  ColR ColG ColB setrgbcolor} def
/BoxColFill {gsave Rec PolyFill} def
/PolyFill {gsave Density fill grestore grestore} def
/h {rlineto rlineto rlineto gsave closepath fill grestore} bind def
%
% PostScript Level 1 Pattern Fill routine for rectangles
% Usage: x y w h s a XX PatternFill
%	x,y = lower left corner of box to be filled
%	w,h = width and height of box
%	  a = angle in degrees between lines and x-axis
%	 XX = 0/1 for no/yes cross-hatch
%
/PatternFill {gsave /PFa [ 9 2 roll ] def
  PFa 0 get PFa 2 get 2 div add PFa 1 get PFa 3 get 2 div add translate
  PFa 2 get -2 div PFa 3 get -2 div PFa 2 get PFa 3 get Rec
  TransparentPatterns {} {gsave 1 setgray fill grestore} ifelse
  clip
  currentlinewidth 0.5 mul setlinewidth
  /PFs PFa 2 get dup mul PFa 3 get dup mul add sqrt def
  0 0 M PFa 5 get rotate PFs -2 div dup translate
  0 1 PFs PFa 4 get div 1 add floor cvi
	{PFa 4 get mul 0 M 0 PFs V} for
  0 PFa 6 get ne {
	0 1 PFs PFa 4 get div 1 add floor cvi
	{PFa 4 get mul 0 2 1 roll M PFs 0 V} for
 } if
  stroke grestore} def
%
/languagelevel where
 {pop languagelevel} {1} ifelse
dup 2 lt
	{/InterpretLevel1 true def
	 /InterpretLevel3 false def}
	{/InterpretLevel1 Level1 def
	 2 gt
	    {/InterpretLevel3 Level3 def}
	    {/InterpretLevel3 false def}
	 ifelse }
 ifelse
%
% PostScript level 2 pattern fill definitions
%
/Level2PatternFill {
/Tile8x8 {/PaintType 2 /PatternType 1 /TilingType 1 /BBox [0 0 8 8] /XStep 8 /YStep 8}
	bind def
/KeepColor {currentrgbcolor [/Pattern /DeviceRGB] setcolorspace} bind def
<< Tile8x8
 /PaintProc {0.5 setlinewidth pop 0 0 M 8 8 L 0 8 M 8 0 L stroke} 
>> matrix makepattern
/Pat1 exch def
<< Tile8x8
 /PaintProc {0.5 setlinewidth pop 0 0 M 8 8 L 0 8 M 8 0 L stroke
	0 4 M 4 8 L 8 4 L 4 0 L 0 4 L stroke}
>> matrix makepattern
/Pat2 exch def
<< Tile8x8
 /PaintProc {0.5 setlinewidth pop 0 0 M 0 8 L
	8 8 L 8 0 L 0 0 L fill}
>> matrix makepattern
/Pat3 exch def
<< Tile8x8
 /PaintProc {0.5 setlinewidth pop -4 8 M 8 -4 L
	0 12 M 12 0 L stroke}
>> matrix makepattern
/Pat4 exch def
<< Tile8x8
 /PaintProc {0.5 setlinewidth pop -4 0 M 8 12 L
	0 -4 M 12 8 L stroke}
>> matrix makepattern
/Pat5 exch def
<< Tile8x8
 /PaintProc {0.5 setlinewidth pop -2 8 M 4 -4 L
	0 12 M 8 -4 L 4 12 M 10 0 L stroke}
>> matrix makepattern
/Pat6 exch def
<< Tile8x8
 /PaintProc {0.5 setlinewidth pop -2 0 M 4 12 L
	0 -4 M 8 12 L 4 -4 M 10 8 L stroke}
>> matrix makepattern
/Pat7 exch def
<< Tile8x8
 /PaintProc {0.5 setlinewidth pop 8 -2 M -4 4 L
	12 0 M -4 8 L 12 4 M 0 10 L stroke}
>> matrix makepattern
/Pat8 exch def
<< Tile8x8
 /PaintProc {0.5 setlinewidth pop 0 -2 M 12 4 L
	-4 0 M 12 8 L -4 4 M 8 10 L stroke}
>> matrix makepattern
/Pat9 exch def
/Pattern1 {PatternBgnd KeepColor Pat1 setpattern} bind def
/Pattern2 {PatternBgnd KeepColor Pat2 setpattern} bind def
/Pattern3 {PatternBgnd KeepColor Pat3 setpattern} bind def
/Pattern4 {PatternBgnd KeepColor Landscape {Pat5} {Pat4} ifelse setpattern} bind def
/Pattern5 {PatternBgnd KeepColor Landscape {Pat4} {Pat5} ifelse setpattern} bind def
/Pattern6 {PatternBgnd KeepColor Landscape {Pat9} {Pat6} ifelse setpattern} bind def
/Pattern7 {PatternBgnd KeepColor Landscape {Pat8} {Pat7} ifelse setpattern} bind def
} def
%
%
%End of PostScript Level 2 code
%
/PatternBgnd {
  TransparentPatterns {} {gsave 1 setgray fill grestore} ifelse
} def
%
% Substitute for Level 2 pattern fill codes with
% grayscale if Level 2 support is not selected.
%
/Level1PatternFill {
/Pattern1 {0.250 Density} bind def
/Pattern2 {0.500 Density} bind def
/Pattern3 {0.750 Density} bind def
/Pattern4 {0.125 Density} bind def
/Pattern5 {0.375 Density} bind def
/Pattern6 {0.625 Density} bind def
/Pattern7 {0.875 Density} bind def
} def
%
% Now test for support of Level 2 code
%
Level1 {Level1PatternFill} {Level2PatternFill} ifelse
%
/Symbol-Oblique /Symbol findfont [1 0 .167 1 0 0] makefont
dup length dict begin {1 index /FID eq {pop pop} {def} ifelse} forall
currentdict end definefont pop
%
/MFshow {
   { dup 5 get 3 ge
     { 5 get 3 eq {gsave} {grestore} ifelse }
     {dup dup 0 get findfont exch 1 get scalefont setfont
     [ currentpoint ] exch dup 2 get 0 exch R dup 5 get 2 ne {dup dup 6
     get exch 4 get {textshow} {stringwidth pop 0 R} ifelse }if dup 5 get 0 eq
     {dup 3 get {2 get neg 0 exch R pop} {pop aload pop M} ifelse} {dup 5
     get 1 eq {dup 2 get exch dup 3 get exch 6 get stringwidth pop -2 div
     dup 0 R} {dup 6 get stringwidth pop -2 div 0 R 6 get
     textshow 2 index {aload pop M neg 3 -1 roll neg R pop pop} {pop pop pop
     pop aload pop M} ifelse }ifelse }ifelse }
     ifelse }
   forall} def
/Gswidth {dup type /stringtype eq {stringwidth} {pop (n) stringwidth} ifelse} def
/MFwidth {0 exch { dup 5 get 3 ge { 5 get 3 eq { 0 } { pop } ifelse }
 {dup 3 get{dup dup 0 get findfont exch 1 get scalefont setfont
     6 get Gswidth pop add} {pop} ifelse} ifelse} forall} def
/MLshow { currentpoint stroke M
  0 exch R
  Blacktext {gsave 0 setgray MFshow grestore} {MFshow} ifelse } bind def
/MRshow { currentpoint stroke M
  exch dup MFwidth neg 3 -1 roll R
  Blacktext {gsave 0 setgray MFshow grestore} {MFshow} ifelse } bind def
/MCshow { currentpoint stroke M
  exch dup MFwidth -2 div 3 -1 roll R
  Blacktext {gsave 0 setgray MFshow grestore} {MFshow} ifelse } bind def
/XYsave    { [( ) 1 2 true false 3 ()] } bind def
/XYrestore { [( ) 1 2 true false 4 ()] } bind def
Level1 SuppressPDFMark or 
{} {
/SDict 10 dict def
systemdict /pdfmark known not {
  userdict /pdfmark systemdict /cleartomark get put
} if
SDict begin [
  /Title (TcpHybla-download-rtt-50UE-250-400.eps)
  /Subject (gnuplot plot)
  /Creator (gnuplot 5.0 patchlevel 3)
  /Author (nat)
%  /Producer (gnuplot)
%  /Keywords ()
  /CreationDate (Thu Jun  2 10:39:42 2016)
  /DOCINFO pdfmark
end
} ifelse
%
% Support for boxed text - Ethan A Merritt May 2005
%
/InitTextBox { userdict /TBy2 3 -1 roll put userdict /TBx2 3 -1 roll put
           userdict /TBy1 3 -1 roll put userdict /TBx1 3 -1 roll put
	   /Boxing true def } def
/ExtendTextBox { Boxing
    { gsave dup false charpath pathbbox
      dup TBy2 gt {userdict /TBy2 3 -1 roll put} {pop} ifelse
      dup TBx2 gt {userdict /TBx2 3 -1 roll put} {pop} ifelse
      dup TBy1 lt {userdict /TBy1 3 -1 roll put} {pop} ifelse
      dup TBx1 lt {userdict /TBx1 3 -1 roll put} {pop} ifelse
      grestore } if } def
/PopTextBox { newpath TBx1 TBxmargin sub TBy1 TBymargin sub M
               TBx1 TBxmargin sub TBy2 TBymargin add L
	       TBx2 TBxmargin add TBy2 TBymargin add L
	       TBx2 TBxmargin add TBy1 TBymargin sub L closepath } def
/DrawTextBox { PopTextBox stroke /Boxing false def} def
/FillTextBox { gsave PopTextBox 1 1 1 setrgbcolor fill grestore /Boxing false def} def
0 0 0 0 InitTextBox
/TBxmargin 20 def
/TBymargin 20 def
/Boxing false def
/textshow { ExtendTextBox Gshow } def
%
% redundant definitions for compatibility with prologue.ps older than 5.0.2
/LTB {BL [] LCb DL} def
/LTb {PL [] LCb DL} def
end
%%EndProlog
%%Page: 1 1
gnudict begin
gsave
doclip
50 50 translate
0.050 0.050 scale
0 setgray
newpath
(Arial) findfont 200 scalefont setfont
BackgroundColor 0 lt 3 1 roll 0 lt exch 0 lt or or not {BackgroundColor C 1.000 0 0 14400.00 5040.00 BoxColFill} if
1.000 UL
LTb
0.00 0.00 0.00 C 0.500 UL
LTa
0.50 0.50 0.50 C 980 1000 M
12139 0 V
stroke
1.000 UL
LTb
0.00 0.00 0.00 C 980 1000 M
63 0 V
stroke
860 1000 M
[ [(Arial) 200.0 0.0 true true 0 ( 40)]
] -66.7 MRshow
1.000 UL
LTb
0.00 0.00 0.00 C 0.500 UL
LTa
0.50 0.50 0.50 C 980 1543 M
12139 0 V
stroke
1.000 UL
LTb
0.00 0.00 0.00 C 980 1543 M
63 0 V
stroke
860 1543 M
[ [(Arial) 200.0 0.0 true true 0 ( 60)]
] -66.7 MRshow
1.000 UL
LTb
0.00 0.00 0.00 C 0.500 UL
LTa
0.50 0.50 0.50 C 980 2085 M
12139 0 V
stroke
1.000 UL
LTb
0.00 0.00 0.00 C 980 2085 M
63 0 V
stroke
860 2085 M
[ [(Arial) 200.0 0.0 true true 0 ( 80)]
] -66.7 MRshow
1.000 UL
LTb
0.00 0.00 0.00 C 0.500 UL
LTa
0.50 0.50 0.50 C 980 2628 M
12139 0 V
stroke
1.000 UL
LTb
0.00 0.00 0.00 C 980 2628 M
63 0 V
stroke
860 2628 M
[ [(Arial) 200.0 0.0 true true 0 ( 100)]
] -66.7 MRshow
1.000 UL
LTb
0.00 0.00 0.00 C 0.500 UL
LTa
0.50 0.50 0.50 C 980 3171 M
12139 0 V
stroke
1.000 UL
LTb
0.00 0.00 0.00 C 980 3171 M
63 0 V
stroke
860 3171 M
[ [(Arial) 200.0 0.0 true true 0 ( 120)]
] -66.7 MRshow
1.000 UL
LTb
0.00 0.00 0.00 C 0.500 UL
LTa
0.50 0.50 0.50 C 980 3714 M
12139 0 V
stroke
1.000 UL
LTb
0.00 0.00 0.00 C 980 3714 M
63 0 V
stroke
860 3714 M
[ [(Arial) 200.0 0.0 true true 0 ( 140)]
] -66.7 MRshow
1.000 UL
LTb
0.00 0.00 0.00 C 0.500 UL
LTa
0.50 0.50 0.50 C 980 4256 M
12139 0 V
stroke
1.000 UL
LTb
0.00 0.00 0.00 C 980 4256 M
63 0 V
stroke
860 4256 M
[ [(Arial) 200.0 0.0 true true 0 ( 160)]
] -66.7 MRshow
1.000 UL
LTb
0.00 0.00 0.00 C 0.500 UL
LTa
0.50 0.50 0.50 C 980 4799 M
12139 0 V
stroke
1.000 UL
LTb
0.00 0.00 0.00 C 980 4799 M
63 0 V
stroke
860 4799 M
[ [(Arial) 200.0 0.0 true true 0 ( 180)]
] -66.7 MRshow
1.000 UL
LTb
0.00 0.00 0.00 C 0.500 UL
LTa
0.50 0.50 0.50 C 1359 1000 M
0 3799 V
stroke
1.000 UL
LTb
0.00 0.00 0.00 C 1359 1000 M
0 63 V
0 3736 R
0 -63 V
stroke
1359 800 M
[ [(Arial) 200.0 0.0 true true 0 ( 750)]
] -66.7 MCshow
1.000 UL
LTb
0.00 0.00 0.00 C 0.500 UL
LTa
0.50 0.50 0.50 C 2118 1000 M
0 3799 V
stroke
1.000 UL
LTb
0.00 0.00 0.00 C 2118 1000 M
0 63 V
0 3736 R
0 -63 V
stroke
2118 800 M
[ [(Arial) 200.0 0.0 true true 0 ( 780)]
] -66.7 MCshow
1.000 UL
LTb
0.00 0.00 0.00 C 0.500 UL
LTa
0.50 0.50 0.50 C 2877 1000 M
0 3799 V
stroke
1.000 UL
LTb
0.00 0.00 0.00 C 2877 1000 M
0 63 V
0 3736 R
0 -63 V
stroke
2877 800 M
[ [(Arial) 200.0 0.0 true true 0 ( 810)]
] -66.7 MCshow
1.000 UL
LTb
0.00 0.00 0.00 C 0.500 UL
LTa
0.50 0.50 0.50 C 3635 1000 M
0 3799 V
stroke
1.000 UL
LTb
0.00 0.00 0.00 C 3635 1000 M
0 63 V
0 3736 R
0 -63 V
stroke
3635 800 M
[ [(Arial) 200.0 0.0 true true 0 ( 840)]
] -66.7 MCshow
1.000 UL
LTb
0.00 0.00 0.00 C 0.500 UL
LTa
0.50 0.50 0.50 C 4394 1000 M
0 3799 V
stroke
1.000 UL
LTb
0.00 0.00 0.00 C 4394 1000 M
0 63 V
0 3736 R
0 -63 V
stroke
4394 800 M
[ [(Arial) 200.0 0.0 true true 0 ( 870)]
] -66.7 MCshow
1.000 UL
LTb
0.00 0.00 0.00 C 0.500 UL
LTa
0.50 0.50 0.50 C 5153 1000 M
0 3799 V
stroke
1.000 UL
LTb
0.00 0.00 0.00 C 5153 1000 M
0 63 V
0 3736 R
0 -63 V
stroke
5153 800 M
[ [(Arial) 200.0 0.0 true true 0 ( 900)]
] -66.7 MCshow
1.000 UL
LTb
0.00 0.00 0.00 C 0.500 UL
LTa
0.50 0.50 0.50 C 5911 1000 M
0 3799 V
stroke
1.000 UL
LTb
0.00 0.00 0.00 C 5911 1000 M
0 63 V
0 3736 R
0 -63 V
stroke
5911 800 M
[ [(Arial) 200.0 0.0 true true 0 ( 930)]
] -66.7 MCshow
1.000 UL
LTb
0.00 0.00 0.00 C 0.500 UL
LTa
0.50 0.50 0.50 C 6670 1000 M
0 3799 V
stroke
1.000 UL
LTb
0.00 0.00 0.00 C 6670 1000 M
0 63 V
0 3736 R
0 -63 V
stroke
6670 800 M
[ [(Arial) 200.0 0.0 true true 0 ( 960)]
] -66.7 MCshow
1.000 UL
LTb
0.00 0.00 0.00 C 0.500 UL
LTa
0.50 0.50 0.50 C 7429 1000 M
0 3799 V
stroke
1.000 UL
LTb
0.00 0.00 0.00 C 7429 1000 M
0 63 V
0 3736 R
0 -63 V
stroke
7429 800 M
[ [(Arial) 200.0 0.0 true true 0 ( 990)]
] -66.7 MCshow
1.000 UL
LTb
0.00 0.00 0.00 C 0.500 UL
LTa
0.50 0.50 0.50 C 8188 1000 M
0 3799 V
stroke
1.000 UL
LTb
0.00 0.00 0.00 C 8188 1000 M
0 63 V
0 3736 R
0 -63 V
stroke
8188 800 M
[ [(Arial) 200.0 0.0 true true 0 ( 1020)]
] -66.7 MCshow
1.000 UL
LTb
0.00 0.00 0.00 C 0.500 UL
LTa
0.50 0.50 0.50 C 8946 1000 M
0 3799 V
stroke
1.000 UL
LTb
0.00 0.00 0.00 C 8946 1000 M
0 63 V
0 3736 R
0 -63 V
stroke
8946 800 M
[ [(Arial) 200.0 0.0 true true 0 ( 1050)]
] -66.7 MCshow
1.000 UL
LTb
0.00 0.00 0.00 C 0.500 UL
LTa
0.50 0.50 0.50 C 9705 1000 M
0 3799 V
stroke
1.000 UL
LTb
0.00 0.00 0.00 C 9705 1000 M
0 63 V
0 3736 R
0 -63 V
stroke
9705 800 M
[ [(Arial) 200.0 0.0 true true 0 ( 1080)]
] -66.7 MCshow
1.000 UL
LTb
0.00 0.00 0.00 C 0.500 UL
LTa
0.50 0.50 0.50 C 10464 1000 M
0 3799 V
stroke
1.000 UL
LTb
0.00 0.00 0.00 C 10464 1000 M
0 63 V
0 3736 R
0 -63 V
stroke
10464 800 M
[ [(Arial) 200.0 0.0 true true 0 ( 1110)]
] -66.7 MCshow
1.000 UL
LTb
0.00 0.00 0.00 C 0.500 UL
LTa
0.50 0.50 0.50 C 11222 1000 M
0 3799 V
stroke
1.000 UL
LTb
0.00 0.00 0.00 C 11222 1000 M
0 63 V
0 3736 R
0 -63 V
stroke
11222 800 M
[ [(Arial) 200.0 0.0 true true 0 ( 1140)]
] -66.7 MCshow
1.000 UL
LTb
0.00 0.00 0.00 C 0.500 UL
LTa
0.50 0.50 0.50 C 11981 1000 M
0 3799 V
stroke
1.000 UL
LTb
0.00 0.00 0.00 C 11981 1000 M
0 63 V
0 3736 R
0 -63 V
stroke
11981 800 M
[ [(Arial) 200.0 0.0 true true 0 ( 1170)]
] -66.7 MCshow
1.000 UL
LTb
0.00 0.00 0.00 C 0.500 UL
LTa
0.50 0.50 0.50 C 12740 1000 M
0 3799 V
stroke
1.000 UL
LTb
0.00 0.00 0.00 C 12740 1000 M
0 63 V
0 3736 R
0 -63 V
stroke
12740 800 M
[ [(Arial) 200.0 0.0 true true 0 ( 1200)]
] -66.7 MCshow
1.000 UL
LTb
0.00 0.00 0.00 C 13119 1000 M
-63 0 V
stroke
13239 1000 M
[ [(Arial) 200.0 0.0 true true 0 ( 0)]
] -66.7 MLshow
1.000 UL
LTb
0.00 0.00 0.00 C 13119 1760 M
-63 0 V
stroke
13239 1760 M
[ [(Arial) 200.0 0.0 true true 0 ( 20)]
] -66.7 MLshow
1.000 UL
LTb
0.00 0.00 0.00 C 13119 2520 M
-63 0 V
stroke
13239 2520 M
[ [(Arial) 200.0 0.0 true true 0 ( 40)]
] -66.7 MLshow
1.000 UL
LTb
0.00 0.00 0.00 C 13119 3279 M
-63 0 V
stroke
13239 3279 M
[ [(Arial) 200.0 0.0 true true 0 ( 60)]
] -66.7 MLshow
1.000 UL
LTb
0.00 0.00 0.00 C 13119 4039 M
-63 0 V
stroke
13239 4039 M
[ [(Arial) 200.0 0.0 true true 0 ( 80)]
] -66.7 MLshow
1.000 UL
LTb
0.00 0.00 0.00 C 13119 4799 M
-63 0 V
stroke
13239 4799 M
[ [(Arial) 200.0 0.0 true true 0 ( 100)]
] -66.7 MLshow
1.000 UL
LTb
0.00 0.00 0.00 C 1.000 UL
LTB
0.00 0.00 0.00 C 980 4799 M
0 -3799 V
12139 0 V
0 3799 R
980 4799 M
1.000 UP
stroke
LTb
0.00 0.00 0.00 C LCb setrgbcolor
160 2899 M
currentpoint gsave translate -270 rotate 0 0 moveto
[ [(Arial) 200.0 0.0 true true 0 (RTT \(ms\))]
] -66.7 MCshow
grestore
LTb
LCb setrgbcolor
13938 2899 M
currentpoint gsave translate -270 rotate 0 0 moveto
[ [(Arial) 200.0 0.0 true true 0 (TCP delivery ratio [%])]
] -66.7 MCshow
grestore
LTb
LCb setrgbcolor
7049 500 M
[ [(Arial) 200.0 0.0 true true 0 (Local backhaul traffic traffic \(Mb/s\))]
] -66.7 MCshow
LTb
% Begin plot #1
1.000 UL
LTb
0.60 0.60 0.00 C LCb setrgbcolor
4714 333 M
[ [(Arial) 180.0 0.0 true true 0 (RTT      :   olsr)]
] -60.0 MRshow
1.000 UL
LTb
0.60 0.60 0.00 C 4822 288 333 90 80 -45 0 PatternFill
4822 288 N
333 0 V
0 90 V
-333 0 V
0 -90 V
Z stroke
1.000 UL
LTb
0.60 0.60 0.00 C 1094 1225 152 453 80 -45 0 PatternFill
1170 1167 M
0 58 V
0 453 R
0 1247 V
stroke
1094 1225 N
152 0 V
0 453 V
-152 0 V
0 -453 V
Z stroke
1094 2925 M
152 0 V
1094 1167 M
152 0 V
stroke
1852 1226 152 395 80 -45 0 PatternFill
1928 1180 M
0 46 V
0 395 R
0 1246 V
stroke
1852 1226 N
152 0 V
0 395 V
-152 0 V
0 -395 V
Z stroke
1852 2867 M
152 0 V
1852 1180 M
152 0 V
stroke
2611 1230 152 453 80 -45 0 PatternFill
2687 1176 M
0 54 V
0 453 R
0 1183 V
stroke
2611 1230 N
152 0 V
0 453 V
-152 0 V
0 -453 V
Z stroke
2611 2866 M
152 0 V
2611 1176 M
152 0 V
stroke
3370 1229 152 522 80 -45 0 PatternFill
3446 1175 M
0 54 V
0 522 R
0 1105 V
stroke
3370 1229 N
152 0 V
0 522 V
-152 0 V
0 -522 V
Z stroke
3370 2856 M
152 0 V
3370 1175 M
152 0 V
stroke
4129 1227 152 492 80 -45 0 PatternFill
4205 1171 M
0 56 V
0 492 R
0 1291 V
stroke
4129 1227 N
152 0 V
0 492 V
-152 0 V
0 -492 V
Z stroke
4129 3010 M
152 0 V
4129 1171 M
152 0 V
stroke
4887 1233 152 389 80 -45 0 PatternFill
4963 1175 M
0 58 V
0 389 R
0 1211 V
stroke
4887 1233 N
152 0 V
0 389 V
-152 0 V
0 -389 V
Z stroke
4887 2833 M
152 0 V
4887 1175 M
152 0 V
stroke
5646 1225 152 439 80 -45 0 PatternFill
5722 1171 M
0 54 V
0 439 R
0 1109 V
stroke
5646 1225 N
152 0 V
0 439 V
-152 0 V
0 -439 V
Z stroke
5646 2773 M
152 0 V
5646 1171 M
152 0 V
stroke
6405 1226 152 421 80 -45 0 PatternFill
6481 1169 M
0 57 V
0 421 R
0 1096 V
stroke
6405 1226 N
152 0 V
0 421 V
-152 0 V
0 -421 V
Z stroke
6405 2743 M
152 0 V
6405 1169 M
152 0 V
stroke
7163 1233 152 518 80 -45 0 PatternFill
7239 1171 M
0 62 V
0 518 R
0 1081 V
stroke
7163 1233 N
152 0 V
0 518 V
-152 0 V
0 -518 V
Z stroke
7163 2832 M
152 0 V
7163 1171 M
152 0 V
stroke
7922 1228 152 489 80 -45 0 PatternFill
7998 1171 M
0 57 V
0 489 R
0 1211 V
stroke
7922 1228 N
152 0 V
0 489 V
-152 0 V
0 -489 V
Z stroke
7922 2928 M
152 0 V
7922 1171 M
152 0 V
stroke
8681 1223 152 437 80 -45 0 PatternFill
8757 1169 M
0 54 V
0 437 R
0 1142 V
stroke
8681 1223 N
152 0 V
0 437 V
-152 0 V
0 -437 V
Z stroke
8681 2802 M
152 0 V
8681 1169 M
152 0 V
stroke
9439 1229 152 463 80 -45 0 PatternFill
9515 1177 M
0 52 V
0 463 R
0 1197 V
stroke
9439 1229 N
152 0 V
0 463 V
-152 0 V
0 -463 V
Z stroke
9439 2889 M
152 0 V
9439 1177 M
152 0 V
stroke
10198 1229 152 417 80 -45 0 PatternFill
10274 1176 M
0 53 V
0 417 R
0 1102 V
stroke
10198 1229 N
152 0 V
0 417 V
-152 0 V
0 -417 V
Z stroke
10198 2748 M
152 0 V
10198 1176 M
152 0 V
stroke
10957 1235 152 428 80 -45 0 PatternFill
11033 1178 M
0 57 V
0 428 R
0 992 V
stroke
10957 1235 N
152 0 V
0 428 V
-152 0 V
0 -428 V
Z stroke
10957 2655 M
152 0 V
10957 1178 M
152 0 V
stroke
11715 1231 152 392 80 -45 0 PatternFill
11791 1173 M
0 58 V
0 392 R
0 1029 V
stroke
11715 1231 N
152 0 V
0 392 V
-152 0 V
0 -392 V
Z stroke
11715 2652 M
152 0 V
11715 1173 M
152 0 V
stroke
12474 1238 152 488 80 -45 0 PatternFill
12550 1175 M
0 63 V
0 488 R
0 939 V
stroke
12474 1238 N
152 0 V
0 488 V
-152 0 V
0 -488 V
Z stroke
12474 2665 M
152 0 V
12474 1175 M
152 0 V
% End plot #1
% Begin plot #2
stroke
LTb
LCb setrgbcolor

 /TransparentPatterns true def
1094 1565 152 0 40 30 0 PatternFill
1170 1565 M
stroke
1094 1565 N
152 0 V
-152 0 V
Z stroke
1094 1565 M
152 0 V
-152 0 R
152 0 V
stroke

 /TransparentPatterns true def
1852 1553 152 0 40 30 0 PatternFill
1928 1553 M
stroke
1852 1553 N
152 0 V
-152 0 V
Z stroke
1852 1553 M
152 0 V
-152 0 R
152 0 V
stroke

 /TransparentPatterns true def
2611 1565 152 0 40 30 0 PatternFill
2687 1565 M
stroke
2611 1565 N
152 0 V
-152 0 V
Z stroke
2611 1565 M
152 0 V
-152 0 R
152 0 V
stroke

 /TransparentPatterns true def
3370 1578 152 0 40 30 0 PatternFill
3446 1578 M
stroke
3370 1578 N
152 0 V
-152 0 V
Z stroke
3370 1578 M
152 0 V
-152 0 R
152 0 V
stroke

 /TransparentPatterns true def
4129 1584 152 0 40 30 0 PatternFill
4205 1584 M
stroke
4129 1584 N
152 0 V
-152 0 V
Z stroke
4129 1584 M
152 0 V
-152 0 R
152 0 V
stroke

 /TransparentPatterns true def
4887 1543 152 0 40 30 0 PatternFill
4963 1543 M
stroke
4887 1543 N
152 0 V
-152 0 V
Z stroke
4887 1543 M
152 0 V
-152 0 R
152 0 V
stroke

 /TransparentPatterns true def
5646 1542 152 0 40 30 0 PatternFill
5722 1542 M
stroke
5646 1542 N
152 0 V
-152 0 V
Z stroke
5646 1542 M
152 0 V
-152 0 R
152 0 V
stroke

 /TransparentPatterns true def
6405 1533 152 0 40 30 0 PatternFill
6481 1533 M
stroke
6405 1533 N
152 0 V
-152 0 V
Z stroke
6405 1533 M
152 0 V
-152 0 R
152 0 V
stroke

 /TransparentPatterns true def
7163 1578 152 0 40 30 0 PatternFill
7239 1578 M
stroke
7163 1578 N
152 0 V
-152 0 V
Z stroke
7163 1578 M
152 0 V
-152 0 R
152 0 V
stroke

 /TransparentPatterns true def
7922 1569 152 0 40 30 0 PatternFill
7998 1569 M
stroke
7922 1569 N
152 0 V
-152 0 V
Z stroke
7922 1569 M
152 0 V
-152 0 R
152 0 V
stroke

 /TransparentPatterns true def
8681 1547 152 0 40 30 0 PatternFill
8757 1547 M
stroke
8681 1547 N
152 0 V
-152 0 V
Z stroke
8681 1547 M
152 0 V
-152 0 R
152 0 V
stroke

 /TransparentPatterns true def
9439 1563 152 0 40 30 0 PatternFill
9515 1563 M
stroke
9439 1563 N
152 0 V
-152 0 V
Z stroke
9439 1563 M
152 0 V
-152 0 R
152 0 V
stroke

 /TransparentPatterns true def
10198 1540 152 0 40 30 0 PatternFill
10274 1540 M
stroke
10198 1540 N
152 0 V
-152 0 V
Z stroke
10198 1540 M
152 0 V
-152 0 R
152 0 V
stroke

 /TransparentPatterns true def
10957 1539 152 0 40 30 0 PatternFill
11033 1539 M
stroke
10957 1539 N
152 0 V
-152 0 V
Z stroke
10957 1539 M
152 0 V
-152 0 R
152 0 V
stroke

 /TransparentPatterns true def
11715 1525 152 0 40 30 0 PatternFill
11791 1525 M
stroke
11715 1525 N
152 0 V
-152 0 V
Z stroke
11715 1525 M
152 0 V
-152 0 R
152 0 V
stroke

 /TransparentPatterns true def
12474 1561 152 0 40 30 0 PatternFill
12550 1561 M
stroke
12474 1561 N
152 0 V
-152 0 V
Z stroke
12474 1561 M
152 0 V
-152 0 R
152 0 V
% End plot #2
% Begin plot #3
2.000 UP
stroke
LTa
0.60 0.60 0.00 C LCb setrgbcolor
4714 153 M
[ [(Arial) 180.0 0.0 true true 0 (app. received bytes :         )]
] -60.0 MRshow
2.000 UP
1.000 UL
LTa
0.60 0.60 0.00 C 4822 153 M
333 0 V
980 4799 M
190 0 V
758 0 V
759 0 V
759 0 V
758 0 V
759 0 V
759 0 V
758 0 V
759 0 V
759 0 V
759 0 V
758 0 V
759 0 V
759 0 V
758 0 V
759 0 V
1170 4799 Box
1928 4799 Box
2687 4799 Box
3446 4799 Box
4204 4799 Box
4963 4799 Box
5722 4799 Box
6480 4799 Box
7239 4799 Box
7998 4799 Box
8757 4799 Box
9515 4799 Box
10274 4799 Box
11033 4799 Box
11791 4799 Box
12550 4799 Box
4988 153 Box
% End plot #3
% Begin plot #4
1.000 UL
LTb
0.00 0.00 0.63 C LCb setrgbcolor
8287 333 M
[ [(Arial) 180.0 0.0 true true 0 (per-packet)]
] -60.0 MRshow
1.000 UL
LTb
0.00 0.00 0.63 C 8395 288 333 90 80 45 0 PatternFill
8395 288 N
333 0 V
0 90 V
-333 0 V
0 -90 V
Z stroke
1.000 UL
LTb
0.00 0.00 0.63 C 1283 1238 152 671 80 45 0 PatternFill
1359 1177 M
0 61 V
0 671 R
0 812 V
stroke
1283 1238 N
152 0 V
0 671 V
-152 0 V
0 -671 V
Z stroke
1283 2721 M
152 0 V
1283 1177 M
152 0 V
stroke
2042 1231 152 631 80 45 0 PatternFill
2118 1166 M
0 65 V
0 631 R
0 1002 V
stroke
2042 1231 N
152 0 V
0 631 V
-152 0 V
0 -631 V
Z stroke
2042 2864 M
152 0 V
2042 1166 M
152 0 V
stroke
2801 1228 152 666 80 45 0 PatternFill
2877 1167 M
0 61 V
0 666 R
0 999 V
stroke
2801 1228 N
152 0 V
0 666 V
-152 0 V
0 -666 V
Z stroke
2801 2893 M
152 0 V
2801 1167 M
152 0 V
stroke
3560 1235 152 701 80 45 0 PatternFill
3636 1170 M
0 65 V
0 701 R
0 1018 V
stroke
3560 1235 N
152 0 V
0 701 V
-152 0 V
0 -701 V
Z stroke
3560 2954 M
152 0 V
3560 1170 M
152 0 V
stroke
4318 1246 152 741 80 45 0 PatternFill
4394 1176 M
0 70 V
0 741 R
0 779 V
stroke
4318 1246 N
152 0 V
0 741 V
-152 0 V
0 -741 V
Z stroke
4318 2766 M
152 0 V
4318 1176 M
152 0 V
stroke
5077 1237 152 626 80 45 0 PatternFill
5153 1174 M
0 63 V
0 626 R
0 912 V
stroke
5077 1237 N
152 0 V
0 626 V
-152 0 V
0 -626 V
Z stroke
5077 2775 M
152 0 V
5077 1174 M
152 0 V
stroke
5836 1232 152 710 80 45 0 PatternFill
5912 1175 M
0 57 V
0 710 R
0 973 V
stroke
5836 1232 N
152 0 V
0 710 V
-152 0 V
0 -710 V
Z stroke
5836 2915 M
152 0 V
5836 1175 M
152 0 V
stroke
6594 1230 152 651 80 45 0 PatternFill
6670 1171 M
0 59 V
0 651 R
0 962 V
stroke
6594 1230 N
152 0 V
0 651 V
-152 0 V
0 -651 V
Z stroke
6594 2843 M
152 0 V
6594 1171 M
152 0 V
stroke
7353 1233 152 681 80 45 0 PatternFill
7429 1174 M
0 59 V
0 681 R
0 885 V
stroke
7353 1233 N
152 0 V
0 681 V
-152 0 V
0 -681 V
Z stroke
7353 2799 M
152 0 V
7353 1174 M
152 0 V
stroke
8112 1232 152 678 80 45 0 PatternFill
8188 1174 M
0 58 V
0 678 R
0 1048 V
stroke
8112 1232 N
152 0 V
0 678 V
-152 0 V
0 -678 V
Z stroke
8112 2958 M
152 0 V
8112 1174 M
152 0 V
stroke
8870 1231 152 567 80 45 0 PatternFill
8946 1174 M
0 57 V
0 567 R
0 1086 V
stroke
8870 1231 N
152 0 V
0 567 V
-152 0 V
0 -567 V
Z stroke
8870 2884 M
152 0 V
8870 1174 M
152 0 V
stroke
9629 1234 152 549 80 45 0 PatternFill
9705 1172 M
0 62 V
0 549 R
0 857 V
stroke
9629 1234 N
152 0 V
0 549 V
-152 0 V
0 -549 V
Z stroke
9629 2640 M
152 0 V
9629 1172 M
152 0 V
stroke
10388 1234 152 562 80 45 0 PatternFill
10464 1178 M
0 56 V
0 562 R
0 924 V
stroke
10388 1234 N
152 0 V
0 562 V
-152 0 V
0 -562 V
Z stroke
10388 2720 M
152 0 V
10388 1178 M
152 0 V
stroke
11146 1244 152 559 80 45 0 PatternFill
11222 1182 M
0 62 V
0 559 R
0 864 V
stroke
11146 1244 N
152 0 V
0 559 V
-152 0 V
0 -559 V
Z stroke
11146 2667 M
152 0 V
11146 1182 M
152 0 V
stroke
11905 1237 152 567 80 45 0 PatternFill
11981 1176 M
0 61 V
0 567 R
0 969 V
stroke
11905 1237 N
152 0 V
0 567 V
-152 0 V
0 -567 V
Z stroke
11905 2773 M
152 0 V
11905 1176 M
152 0 V
stroke
12664 1234 152 490 80 45 0 PatternFill
12740 1180 M
0 54 V
0 490 R
0 933 V
stroke
12664 1234 N
152 0 V
0 490 V
-152 0 V
0 -490 V
Z stroke
12664 2657 M
152 0 V
12664 1180 M
152 0 V
% End plot #4
% Begin plot #5
stroke
LTb
LCb setrgbcolor

 /TransparentPatterns true def
1283 1591 152 0 80 -45 0 PatternFill
1359 1591 M
stroke
1283 1591 N
152 0 V
-152 0 V
Z stroke
1283 1591 M
152 0 V
-152 0 R
152 0 V
stroke

 /TransparentPatterns true def
2042 1592 152 0 80 -45 0 PatternFill
2118 1592 M
stroke
2042 1592 N
152 0 V
-152 0 V
Z stroke
2042 1592 M
152 0 V
-152 0 R
152 0 V
stroke

 /TransparentPatterns true def
2801 1602 152 0 80 -45 0 PatternFill
2877 1602 M
stroke
2801 1602 N
152 0 V
-152 0 V
Z stroke
2801 1602 M
152 0 V
-152 0 R
152 0 V
stroke

 /TransparentPatterns true def
3560 1626 152 0 80 -45 0 PatternFill
3636 1626 M
stroke
3560 1626 N
152 0 V
-152 0 V
Z stroke
3560 1626 M
152 0 V
-152 0 R
152 0 V
stroke

 /TransparentPatterns true def
4318 1638 152 0 80 -45 0 PatternFill
4394 1638 M
stroke
4318 1638 N
152 0 V
-152 0 V
Z stroke
4318 1638 M
152 0 V
-152 0 R
152 0 V
stroke

 /TransparentPatterns true def
5077 1589 152 0 80 -45 0 PatternFill
5153 1589 M
stroke
5077 1589 N
152 0 V
-152 0 V
Z stroke
5077 1589 M
152 0 V
-152 0 R
152 0 V
stroke

 /TransparentPatterns true def
5836 1619 152 0 80 -45 0 PatternFill
5912 1619 M
stroke
5836 1619 N
152 0 V
-152 0 V
Z stroke
5836 1619 M
152 0 V
-152 0 R
152 0 V
stroke

 /TransparentPatterns true def
6594 1603 152 0 80 -45 0 PatternFill
6670 1603 M
stroke
6594 1603 N
152 0 V
-152 0 V
Z stroke
6594 1603 M
152 0 V
-152 0 R
152 0 V
stroke

 /TransparentPatterns true def
7353 1595 152 0 80 -45 0 PatternFill
7429 1595 M
stroke
7353 1595 N
152 0 V
-152 0 V
Z stroke
7353 1595 M
152 0 V
-152 0 R
152 0 V
stroke

 /TransparentPatterns true def
8112 1616 152 0 80 -45 0 PatternFill
8188 1616 M
stroke
8112 1616 N
152 0 V
-152 0 V
Z stroke
8112 1616 M
152 0 V
-152 0 R
152 0 V
stroke

 /TransparentPatterns true def
8870 1584 152 0 80 -45 0 PatternFill
8946 1584 M
stroke
8870 1584 N
152 0 V
-152 0 V
Z stroke
8870 1584 M
152 0 V
-152 0 R
152 0 V
stroke

 /TransparentPatterns true def
9629 1543 152 0 80 -45 0 PatternFill
9705 1543 M
stroke
9629 1543 N
152 0 V
-152 0 V
Z stroke
9629 1543 M
152 0 V
-152 0 R
152 0 V
stroke

 /TransparentPatterns true def
10388 1554 152 0 80 -45 0 PatternFill
10464 1554 M
stroke
10388 1554 N
152 0 V
-152 0 V
Z stroke
10388 1554 M
152 0 V
-152 0 R
152 0 V
stroke

 /TransparentPatterns true def
11146 1568 152 0 80 -45 0 PatternFill
11222 1568 M
stroke
11146 1568 N
152 0 V
-152 0 V
Z stroke
11146 1568 M
152 0 V
-152 0 R
152 0 V
stroke

 /TransparentPatterns true def
11905 1564 152 0 80 -45 0 PatternFill
11981 1564 M
stroke
11905 1564 N
152 0 V
-152 0 V
Z stroke
11905 1564 M
152 0 V
-152 0 R
152 0 V
stroke

 /TransparentPatterns true def
12664 1532 152 0 80 -45 0 PatternFill
12740 1532 M
stroke
12664 1532 N
152 0 V
-152 0 V
Z stroke
12664 1532 M
152 0 V
-152 0 R
152 0 V
% End plot #5
% Begin plot #6
2.000 UP
stroke
LTa
0.00 0.00 0.63 C LCb setrgbcolor
8287 153 M
[ [(Arial) 180.0 0.0 true true 0 ( )]
] -60.0 MRshow
2.000 UP
1.000 UL
LTa
0.00 0.00 0.63 C 8395 153 M
333 0 V
980 4799 M
379 0 V
759 0 V
759 0 V
758 0 V
759 0 V
759 0 V
758 0 V
759 0 V
759 0 V
759 0 V
758 0 V
759 0 V
759 0 V
758 0 V
759 0 V
759 0 V
1359 4799 Circle
2118 4799 Circle
2877 4799 Circle
3635 4799 Circle
4394 4799 Circle
5153 4799 Circle
5911 4799 Circle
6670 4799 Circle
7429 4799 Circle
8188 4799 Circle
8946 4799 Circle
9705 4799 Circle
10464 4799 Circle
11222 4799 Circle
11981 4799 Circle
12740 4799 Circle
8561 153 Circle
% End plot #6
% Begin plot #7
1.000 UL
LTb
0.00 0.38 0.82 C LCb setrgbcolor
11860 333 M
[ [(Arial) 180.0 0.0 true true 0 (per-flow)]
] -60.0 MRshow
1.000 UL
LTb
0.00 0.38 0.82 C 11968 288 333 90 40 30 0 PatternFill
11968 288 N
333 0 V
0 90 V
-333 0 V
0 -90 V
Z stroke
1.000 UL
LTb
0.00 0.38 0.82 C 1473 1277 152 1345 40 30 0 PatternFill
1549 1186 M
0 91 V
0 1345 R
0 1659 V
stroke
1473 1277 N
152 0 V
0 1345 V
-152 0 V
0 -1345 V
Z stroke
1473 4281 M
152 0 V
1473 1186 M
152 0 V
stroke
2232 1295 152 1395 40 30 0 PatternFill
2308 1202 M
0 93 V
0 1395 R
0 1688 V
stroke
2232 1295 N
152 0 V
0 1395 V
-152 0 V
0 -1395 V
Z stroke
2232 4378 M
152 0 V
2232 1202 M
152 0 V
stroke
2991 1287 152 1296 40 30 0 PatternFill
3067 1199 M
0 88 V
0 1296 R
0 1454 V
stroke
2991 1287 N
152 0 V
0 1296 V
-152 0 V
0 -1296 V
Z stroke
2991 4037 M
152 0 V
2991 1199 M
152 0 V
stroke
3749 1282 152 1196 40 30 0 PatternFill
3825 1201 M
0 81 V
0 1196 R
0 1489 V
stroke
3749 1282 N
152 0 V
0 1196 V
-152 0 V
0 -1196 V
Z stroke
3749 3967 M
152 0 V
3749 1201 M
152 0 V
stroke
4508 1329 152 1468 40 30 0 PatternFill
4584 1216 M
0 113 V
0 1468 R
0 1584 V
stroke
4508 1329 N
152 0 V
0 1468 V
-152 0 V
0 -1468 V
Z stroke
4508 4381 M
152 0 V
4508 1216 M
152 0 V
stroke
5267 1283 152 1244 40 30 0 PatternFill
5343 1192 M
0 91 V
0 1244 R
0 1619 V
stroke
5267 1283 N
152 0 V
0 1244 V
-152 0 V
0 -1244 V
Z stroke
5267 4146 M
152 0 V
5267 1192 M
152 0 V
stroke
6025 1274 152 1112 40 30 0 PatternFill
6101 1188 M
0 86 V
0 1112 R
0 1695 V
stroke
6025 1274 N
152 0 V
0 1112 V
-152 0 V
0 -1112 V
Z stroke
6025 4081 M
152 0 V
6025 1188 M
152 0 V
stroke
6784 1297 152 1271 40 30 0 PatternFill
6860 1206 M
0 91 V
0 1271 R
0 1715 V
stroke
6784 1297 N
152 0 V
0 1271 V
-152 0 V
0 -1271 V
Z stroke
6784 4283 M
152 0 V
6784 1206 M
152 0 V
stroke
7543 1284 152 1126 40 30 0 PatternFill
7619 1198 M
0 86 V
0 1126 R
0 1425 V
stroke
7543 1284 N
152 0 V
0 1126 V
-152 0 V
0 -1126 V
Z stroke
7543 3835 M
152 0 V
7543 1198 M
152 0 V
stroke
8301 1275 152 1072 40 30 0 PatternFill
8377 1189 M
0 86 V
0 1072 R
0 1775 V
stroke
8301 1275 N
152 0 V
0 1072 V
-152 0 V
0 -1072 V
Z stroke
8301 4122 M
152 0 V
8301 1189 M
152 0 V
stroke
9060 1281 152 1234 40 30 0 PatternFill
9136 1196 M
0 85 V
0 1234 R
0 1790 V
stroke
9060 1281 N
152 0 V
0 1234 V
-152 0 V
0 -1234 V
Z stroke
9060 4305 M
152 0 V
9060 1196 M
152 0 V
stroke
9819 1294 152 1311 40 30 0 PatternFill
9895 1208 M
0 86 V
0 1311 R
0 1831 V
stroke
9819 1294 N
152 0 V
0 1311 V
-152 0 V
0 -1311 V
Z stroke
9819 4436 M
152 0 V
9819 1208 M
152 0 V
stroke
10577 1280 152 1129 40 30 0 PatternFill
10653 1193 M
0 87 V
0 1129 R
0 1418 V
stroke
10577 1280 N
152 0 V
0 1129 V
-152 0 V
0 -1129 V
Z stroke
10577 3827 M
152 0 V
10577 1193 M
152 0 V
stroke
11336 1298 152 1116 40 30 0 PatternFill
11412 1207 M
0 91 V
0 1116 R
0 1759 V
stroke
11336 1298 N
152 0 V
0 1116 V
-152 0 V
0 -1116 V
Z stroke
11336 4173 M
152 0 V
11336 1207 M
152 0 V
stroke
12095 1309 152 1391 40 30 0 PatternFill
12171 1225 M
0 84 V
0 1391 R
0 1640 V
stroke
12095 1309 N
152 0 V
0 1391 V
-152 0 V
0 -1391 V
Z stroke
12095 4340 M
152 0 V
12095 1225 M
152 0 V
stroke
12853 1279 152 1065 40 30 0 PatternFill
12929 1198 M
0 81 V
0 1065 R
0 1804 V
stroke
12853 1279 N
152 0 V
0 1065 V
-152 0 V
0 -1065 V
Z stroke
12853 4148 M
152 0 V
12853 1198 M
152 0 V
% End plot #7
% Begin plot #8
stroke
LTb
LCb setrgbcolor

 /TransparentPatterns true def
1473 2005 152 0 40 -30 0 PatternFill
1549 2005 M
stroke
1473 2005 N
152 0 V
-152 0 V
Z stroke
1473 2005 M
152 0 V
-152 0 R
152 0 V
stroke

 /TransparentPatterns true def
2232 2040 152 0 40 -30 0 PatternFill
2308 2040 M
stroke
2232 2040 N
152 0 V
-152 0 V
Z stroke
2232 2040 M
152 0 V
-152 0 R
152 0 V
stroke

 /TransparentPatterns true def
2991 1965 152 0 40 -30 0 PatternFill
3067 1965 M
stroke
2991 1965 N
152 0 V
-152 0 V
Z stroke
2991 1965 M
152 0 V
-152 0 R
152 0 V
stroke

 /TransparentPatterns true def
3749 1916 152 0 40 -30 0 PatternFill
3825 1916 M
stroke
3749 1916 N
152 0 V
-152 0 V
Z stroke
3749 1916 M
152 0 V
-152 0 R
152 0 V
stroke

 /TransparentPatterns true def
4508 2107 152 0 40 -30 0 PatternFill
4584 2107 M
stroke
4508 2107 N
152 0 V
-152 0 V
Z stroke
4508 2107 M
152 0 V
-152 0 R
152 0 V
stroke

 /TransparentPatterns true def
5267 1950 152 0 40 -30 0 PatternFill
5343 1950 M
stroke
5267 1950 N
152 0 V
-152 0 V
Z stroke
5267 1950 M
152 0 V
-152 0 R
152 0 V
stroke

 /TransparentPatterns true def
6025 1899 152 0 40 -30 0 PatternFill
6101 1899 M
stroke
6025 1899 N
152 0 V
-152 0 V
Z stroke
6025 1899 M
152 0 V
-152 0 R
152 0 V
stroke

 /TransparentPatterns true def
6784 1995 152 0 40 -30 0 PatternFill
6860 1995 M
stroke
6784 1995 N
152 0 V
-152 0 V
Z stroke
6784 1995 M
152 0 V
-152 0 R
152 0 V
stroke

 /TransparentPatterns true def
7543 1911 152 0 40 -30 0 PatternFill
7619 1911 M
stroke
7543 1911 N
152 0 V
-152 0 V
Z stroke
7543 1911 M
152 0 V
-152 0 R
152 0 V
stroke

 /TransparentPatterns true def
8301 1883 152 0 40 -30 0 PatternFill
8377 1883 M
stroke
8301 1883 N
152 0 V
-152 0 V
Z stroke
8301 1883 M
152 0 V
-152 0 R
152 0 V
stroke

 /TransparentPatterns true def
9060 1983 152 0 40 -30 0 PatternFill
9136 1983 M
stroke
9060 1983 N
152 0 V
-152 0 V
Z stroke
9060 1983 M
152 0 V
-152 0 R
152 0 V
stroke

 /TransparentPatterns true def
9819 2038 152 0 40 -30 0 PatternFill
9895 2038 M
stroke
9819 2038 N
152 0 V
-152 0 V
Z stroke
9819 2038 M
152 0 V
-152 0 R
152 0 V
stroke

 /TransparentPatterns true def
10577 1899 152 0 40 -30 0 PatternFill
10653 1899 M
stroke
10577 1899 N
152 0 V
-152 0 V
Z stroke
10577 1899 M
152 0 V
-152 0 R
152 0 V
stroke

 /TransparentPatterns true def
11336 1943 152 0 40 -30 0 PatternFill
11412 1943 M
stroke
11336 1943 N
152 0 V
-152 0 V
Z stroke
11336 1943 M
152 0 V
-152 0 R
152 0 V
stroke

 /TransparentPatterns true def
12095 2041 152 0 40 -30 0 PatternFill
12171 2041 M
stroke
12095 2041 N
152 0 V
-152 0 V
Z stroke
12095 2041 M
152 0 V
-152 0 R
152 0 V
stroke

 /TransparentPatterns true def
12853 1911 152 0 40 -30 0 PatternFill
12929 1911 M
stroke
12853 1911 N
152 0 V
-152 0 V
Z stroke
12853 1911 M
152 0 V
-152 0 R
152 0 V
% End plot #8
% Begin plot #9
2.000 UP
stroke
LTa
0.00 0.38 0.82 C LCb setrgbcolor
11860 153 M
[ [(Arial) 180.0 0.0 true true 0 ( )]
] -60.0 MRshow
2.000 UP
1.000 UL
LTa
0.00 0.38 0.82 C 11968 153 M
333 0 V
980 4799 M
569 0 V
759 0 V
758 0 V
759 0 V
759 0 V
758 0 V
759 0 V
759 0 V
759 0 V
758 0 V
759 0 V
759 0 V
758 0 V
759 0 V
759 0 V
758 0 V
1549 4799 TriU
2308 4799 TriU
3066 4799 TriU
3825 4799 TriU
4584 4799 TriU
5342 4799 TriU
6101 4799 TriU
6860 4799 TriU
7619 4799 TriU
8377 4799 TriU
9136 4799 TriU
9895 4799 TriU
10653 4799 TriU
11412 4799 TriU
12171 4799 TriU
12929 4799 TriU
12134 153 TriU
% End plot #9
2.000 UL
LTb
LCb setrgbcolor
1.000 UP
1.000 UL
LTb
0.00 0.00 0.00 C stroke
grestore
end
showpage
%%Trailer
%%DocumentFonts: Arial
