%!PS-Adobe-2.0 EPSF-2.0
%%Title: TcpHighSpeed-download-finishtime-50UE-panoramic.eps
%%Creator: gnuplot 5.0 patchlevel 3
%%CreationDate: Tue Jun  7 16:10:53 2016
%%DocumentFonts: (atend)
%%BoundingBox: 50 50 770 302
%%EndComments
%%BeginProlog
/gnudict 256 dict def
gnudict begin
%
% The following true/false flags may be edited by hand if desired.
% The unit line width and grayscale image gamma correction may also be changed.
%
/Color true def
/Blacktext false def
/Solid false def
/Dashlength 3 def
/Landscape false def
/Level1 false def
/Level3 false def
/Rounded false def
/ClipToBoundingBox false def
/SuppressPDFMark false def
/TransparentPatterns false def
/gnulinewidth 15.000 def
/userlinewidth gnulinewidth def
/Gamma 1.0 def
/BackgroundColor {-1.000 -1.000 -1.000} def
%
/vshift -66 def
/dl1 {
  10.0 Dashlength userlinewidth gnulinewidth div mul mul mul
  Rounded { currentlinewidth 0.75 mul sub dup 0 le { pop 0.01 } if } if
} def
/dl2 {
  10.0 Dashlength userlinewidth gnulinewidth div mul mul mul
  Rounded { currentlinewidth 0.75 mul add } if
} def
/hpt_ 31.5 def
/vpt_ 31.5 def
/hpt hpt_ def
/vpt vpt_ def
/doclip {
  ClipToBoundingBox {
    newpath 50 50 moveto 770 50 lineto 770 302 lineto 50 302 lineto closepath
    clip
  } if
} def
%
% Gnuplot Prolog Version 5.1 (Oct 2015)
%
%/SuppressPDFMark true def
%
/M {moveto} bind def
/L {lineto} bind def
/R {rmoveto} bind def
/V {rlineto} bind def
/N {newpath moveto} bind def
/Z {closepath} bind def
/C {setrgbcolor} bind def
/f {rlineto fill} bind def
/g {setgray} bind def
/Gshow {show} def   % May be redefined later in the file to support UTF-8
/vpt2 vpt 2 mul def
/hpt2 hpt 2 mul def
/Lshow {currentpoint stroke M 0 vshift R 
	Blacktext {gsave 0 setgray textshow grestore} {textshow} ifelse} def
/Rshow {currentpoint stroke M dup stringwidth pop neg vshift R
	Blacktext {gsave 0 setgray textshow grestore} {textshow} ifelse} def
/Cshow {currentpoint stroke M dup stringwidth pop -2 div vshift R 
	Blacktext {gsave 0 setgray textshow grestore} {textshow} ifelse} def
/UP {dup vpt_ mul /vpt exch def hpt_ mul /hpt exch def
  /hpt2 hpt 2 mul def /vpt2 vpt 2 mul def} def
/DL {Color {setrgbcolor Solid {pop []} if 0 setdash}
 {pop pop pop 0 setgray Solid {pop []} if 0 setdash} ifelse} def
/BL {stroke userlinewidth 2 mul setlinewidth
	Rounded {1 setlinejoin 1 setlinecap} if} def
/AL {stroke userlinewidth 2 div setlinewidth
	Rounded {1 setlinejoin 1 setlinecap} if} def
/UL {dup gnulinewidth mul /userlinewidth exch def
	dup 1 lt {pop 1} if 10 mul /udl exch def} def
/PL {stroke userlinewidth setlinewidth
	Rounded {1 setlinejoin 1 setlinecap} if} def
3.8 setmiterlimit
% Classic Line colors (version 5.0)
/LCw {1 1 1} def
/LCb {0 0 0} def
/LCa {0 0 0} def
/LC0 {1 0 0} def
/LC1 {0 1 0} def
/LC2 {0 0 1} def
/LC3 {1 0 1} def
/LC4 {0 1 1} def
/LC5 {1 1 0} def
/LC6 {0 0 0} def
/LC7 {1 0.3 0} def
/LC8 {0.5 0.5 0.5} def
% Default dash patterns (version 5.0)
/LTB {BL [] LCb DL} def
/LTw {PL [] 1 setgray} def
/LTb {PL [] LCb DL} def
/LTa {AL [1 udl mul 2 udl mul] 0 setdash LCa setrgbcolor} def
/LT0 {PL [] LC0 DL} def
/LT1 {PL [2 dl1 3 dl2] LC1 DL} def
/LT2 {PL [1 dl1 1.5 dl2] LC2 DL} def
/LT3 {PL [6 dl1 2 dl2 1 dl1 2 dl2] LC3 DL} def
/LT4 {PL [1 dl1 2 dl2 6 dl1 2 dl2 1 dl1 2 dl2] LC4 DL} def
/LT5 {PL [4 dl1 2 dl2] LC5 DL} def
/LT6 {PL [1.5 dl1 1.5 dl2 1.5 dl1 1.5 dl2 1.5 dl1 6 dl2] LC6 DL} def
/LT7 {PL [3 dl1 3 dl2 1 dl1 3 dl2] LC7 DL} def
/LT8 {PL [2 dl1 2 dl2 2 dl1 6 dl2] LC8 DL} def
/SL {[] 0 setdash} def
/Pnt {stroke [] 0 setdash gsave 1 setlinecap M 0 0 V stroke grestore} def
/Dia {stroke [] 0 setdash 2 copy vpt add M
  hpt neg vpt neg V hpt vpt neg V
  hpt vpt V hpt neg vpt V closepath stroke
  Pnt} def
/Pls {stroke [] 0 setdash vpt sub M 0 vpt2 V
  currentpoint stroke M
  hpt neg vpt neg R hpt2 0 V stroke
 } def
/Box {stroke [] 0 setdash 2 copy exch hpt sub exch vpt add M
  0 vpt2 neg V hpt2 0 V 0 vpt2 V
  hpt2 neg 0 V closepath stroke
  Pnt} def
/Crs {stroke [] 0 setdash exch hpt sub exch vpt add M
  hpt2 vpt2 neg V currentpoint stroke M
  hpt2 neg 0 R hpt2 vpt2 V stroke} def
/TriU {stroke [] 0 setdash 2 copy vpt 1.12 mul add M
  hpt neg vpt -1.62 mul V
  hpt 2 mul 0 V
  hpt neg vpt 1.62 mul V closepath stroke
  Pnt} def
/Star {2 copy Pls Crs} def
/BoxF {stroke [] 0 setdash exch hpt sub exch vpt add M
  0 vpt2 neg V hpt2 0 V 0 vpt2 V
  hpt2 neg 0 V closepath fill} def
/TriUF {stroke [] 0 setdash vpt 1.12 mul add M
  hpt neg vpt -1.62 mul V
  hpt 2 mul 0 V
  hpt neg vpt 1.62 mul V closepath fill} def
/TriD {stroke [] 0 setdash 2 copy vpt 1.12 mul sub M
  hpt neg vpt 1.62 mul V
  hpt 2 mul 0 V
  hpt neg vpt -1.62 mul V closepath stroke
  Pnt} def
/TriDF {stroke [] 0 setdash vpt 1.12 mul sub M
  hpt neg vpt 1.62 mul V
  hpt 2 mul 0 V
  hpt neg vpt -1.62 mul V closepath fill} def
/DiaF {stroke [] 0 setdash vpt add M
  hpt neg vpt neg V hpt vpt neg V
  hpt vpt V hpt neg vpt V closepath fill} def
/Pent {stroke [] 0 setdash 2 copy gsave
  translate 0 hpt M 4 {72 rotate 0 hpt L} repeat
  closepath stroke grestore Pnt} def
/PentF {stroke [] 0 setdash gsave
  translate 0 hpt M 4 {72 rotate 0 hpt L} repeat
  closepath fill grestore} def
/Circle {stroke [] 0 setdash 2 copy
  hpt 0 360 arc stroke Pnt} def
/CircleF {stroke [] 0 setdash hpt 0 360 arc fill} def
/C0 {BL [] 0 setdash 2 copy moveto vpt 90 450 arc} bind def
/C1 {BL [] 0 setdash 2 copy moveto
	2 copy vpt 0 90 arc closepath fill
	vpt 0 360 arc closepath} bind def
/C2 {BL [] 0 setdash 2 copy moveto
	2 copy vpt 90 180 arc closepath fill
	vpt 0 360 arc closepath} bind def
/C3 {BL [] 0 setdash 2 copy moveto
	2 copy vpt 0 180 arc closepath fill
	vpt 0 360 arc closepath} bind def
/C4 {BL [] 0 setdash 2 copy moveto
	2 copy vpt 180 270 arc closepath fill
	vpt 0 360 arc closepath} bind def
/C5 {BL [] 0 setdash 2 copy moveto
	2 copy vpt 0 90 arc
	2 copy moveto
	2 copy vpt 180 270 arc closepath fill
	vpt 0 360 arc} bind def
/C6 {BL [] 0 setdash 2 copy moveto
	2 copy vpt 90 270 arc closepath fill
	vpt 0 360 arc closepath} bind def
/C7 {BL [] 0 setdash 2 copy moveto
	2 copy vpt 0 270 arc closepath fill
	vpt 0 360 arc closepath} bind def
/C8 {BL [] 0 setdash 2 copy moveto
	2 copy vpt 270 360 arc closepath fill
	vpt 0 360 arc closepath} bind def
/C9 {BL [] 0 setdash 2 copy moveto
	2 copy vpt 270 450 arc closepath fill
	vpt 0 360 arc closepath} bind def
/C10 {BL [] 0 setdash 2 copy 2 copy moveto vpt 270 360 arc closepath fill
	2 copy moveto
	2 copy vpt 90 180 arc closepath fill
	vpt 0 360 arc closepath} bind def
/C11 {BL [] 0 setdash 2 copy moveto
	2 copy vpt 0 180 arc closepath fill
	2 copy moveto
	2 copy vpt 270 360 arc closepath fill
	vpt 0 360 arc closepath} bind def
/C12 {BL [] 0 setdash 2 copy moveto
	2 copy vpt 180 360 arc closepath fill
	vpt 0 360 arc closepath} bind def
/C13 {BL [] 0 setdash 2 copy moveto
	2 copy vpt 0 90 arc closepath fill
	2 copy moveto
	2 copy vpt 180 360 arc closepath fill
	vpt 0 360 arc closepath} bind def
/C14 {BL [] 0 setdash 2 copy moveto
	2 copy vpt 90 360 arc closepath fill
	vpt 0 360 arc} bind def
/C15 {BL [] 0 setdash 2 copy vpt 0 360 arc closepath fill
	vpt 0 360 arc closepath} bind def
/Rec {newpath 4 2 roll moveto 1 index 0 rlineto 0 exch rlineto
	neg 0 rlineto closepath} bind def
/Square {dup Rec} bind def
/Bsquare {vpt sub exch vpt sub exch vpt2 Square} bind def
/S0 {BL [] 0 setdash 2 copy moveto 0 vpt rlineto BL Bsquare} bind def
/S1 {BL [] 0 setdash 2 copy vpt Square fill Bsquare} bind def
/S2 {BL [] 0 setdash 2 copy exch vpt sub exch vpt Square fill Bsquare} bind def
/S3 {BL [] 0 setdash 2 copy exch vpt sub exch vpt2 vpt Rec fill Bsquare} bind def
/S4 {BL [] 0 setdash 2 copy exch vpt sub exch vpt sub vpt Square fill Bsquare} bind def
/S5 {BL [] 0 setdash 2 copy 2 copy vpt Square fill
	exch vpt sub exch vpt sub vpt Square fill Bsquare} bind def
/S6 {BL [] 0 setdash 2 copy exch vpt sub exch vpt sub vpt vpt2 Rec fill Bsquare} bind def
/S7 {BL [] 0 setdash 2 copy exch vpt sub exch vpt sub vpt vpt2 Rec fill
	2 copy vpt Square fill Bsquare} bind def
/S8 {BL [] 0 setdash 2 copy vpt sub vpt Square fill Bsquare} bind def
/S9 {BL [] 0 setdash 2 copy vpt sub vpt vpt2 Rec fill Bsquare} bind def
/S10 {BL [] 0 setdash 2 copy vpt sub vpt Square fill 2 copy exch vpt sub exch vpt Square fill
	Bsquare} bind def
/S11 {BL [] 0 setdash 2 copy vpt sub vpt Square fill 2 copy exch vpt sub exch vpt2 vpt Rec fill
	Bsquare} bind def
/S12 {BL [] 0 setdash 2 copy exch vpt sub exch vpt sub vpt2 vpt Rec fill Bsquare} bind def
/S13 {BL [] 0 setdash 2 copy exch vpt sub exch vpt sub vpt2 vpt Rec fill
	2 copy vpt Square fill Bsquare} bind def
/S14 {BL [] 0 setdash 2 copy exch vpt sub exch vpt sub vpt2 vpt Rec fill
	2 copy exch vpt sub exch vpt Square fill Bsquare} bind def
/S15 {BL [] 0 setdash 2 copy Bsquare fill Bsquare} bind def
/D0 {gsave translate 45 rotate 0 0 S0 stroke grestore} bind def
/D1 {gsave translate 45 rotate 0 0 S1 stroke grestore} bind def
/D2 {gsave translate 45 rotate 0 0 S2 stroke grestore} bind def
/D3 {gsave translate 45 rotate 0 0 S3 stroke grestore} bind def
/D4 {gsave translate 45 rotate 0 0 S4 stroke grestore} bind def
/D5 {gsave translate 45 rotate 0 0 S5 stroke grestore} bind def
/D6 {gsave translate 45 rotate 0 0 S6 stroke grestore} bind def
/D7 {gsave translate 45 rotate 0 0 S7 stroke grestore} bind def
/D8 {gsave translate 45 rotate 0 0 S8 stroke grestore} bind def
/D9 {gsave translate 45 rotate 0 0 S9 stroke grestore} bind def
/D10 {gsave translate 45 rotate 0 0 S10 stroke grestore} bind def
/D11 {gsave translate 45 rotate 0 0 S11 stroke grestore} bind def
/D12 {gsave translate 45 rotate 0 0 S12 stroke grestore} bind def
/D13 {gsave translate 45 rotate 0 0 S13 stroke grestore} bind def
/D14 {gsave translate 45 rotate 0 0 S14 stroke grestore} bind def
/D15 {gsave translate 45 rotate 0 0 S15 stroke grestore} bind def
/DiaE {stroke [] 0 setdash vpt add M
  hpt neg vpt neg V hpt vpt neg V
  hpt vpt V hpt neg vpt V closepath stroke} def
/BoxE {stroke [] 0 setdash exch hpt sub exch vpt add M
  0 vpt2 neg V hpt2 0 V 0 vpt2 V
  hpt2 neg 0 V closepath stroke} def
/TriUE {stroke [] 0 setdash vpt 1.12 mul add M
  hpt neg vpt -1.62 mul V
  hpt 2 mul 0 V
  hpt neg vpt 1.62 mul V closepath stroke} def
/TriDE {stroke [] 0 setdash vpt 1.12 mul sub M
  hpt neg vpt 1.62 mul V
  hpt 2 mul 0 V
  hpt neg vpt -1.62 mul V closepath stroke} def
/PentE {stroke [] 0 setdash gsave
  translate 0 hpt M 4 {72 rotate 0 hpt L} repeat
  closepath stroke grestore} def
/CircE {stroke [] 0 setdash 
  hpt 0 360 arc stroke} def
/Opaque {gsave closepath 1 setgray fill grestore 0 setgray closepath} def
/DiaW {stroke [] 0 setdash vpt add M
  hpt neg vpt neg V hpt vpt neg V
  hpt vpt V hpt neg vpt V Opaque stroke} def
/BoxW {stroke [] 0 setdash exch hpt sub exch vpt add M
  0 vpt2 neg V hpt2 0 V 0 vpt2 V
  hpt2 neg 0 V Opaque stroke} def
/TriUW {stroke [] 0 setdash vpt 1.12 mul add M
  hpt neg vpt -1.62 mul V
  hpt 2 mul 0 V
  hpt neg vpt 1.62 mul V Opaque stroke} def
/TriDW {stroke [] 0 setdash vpt 1.12 mul sub M
  hpt neg vpt 1.62 mul V
  hpt 2 mul 0 V
  hpt neg vpt -1.62 mul V Opaque stroke} def
/PentW {stroke [] 0 setdash gsave
  translate 0 hpt M 4 {72 rotate 0 hpt L} repeat
  Opaque stroke grestore} def
/CircW {stroke [] 0 setdash 
  hpt 0 360 arc Opaque stroke} def
/BoxFill {gsave Rec 1 setgray fill grestore} def
/Density {
  /Fillden exch def
  currentrgbcolor
  /ColB exch def /ColG exch def /ColR exch def
  /ColR ColR Fillden mul Fillden sub 1 add def
  /ColG ColG Fillden mul Fillden sub 1 add def
  /ColB ColB Fillden mul Fillden sub 1 add def
  ColR ColG ColB setrgbcolor} def
/BoxColFill {gsave Rec PolyFill} def
/PolyFill {gsave Density fill grestore grestore} def
/h {rlineto rlineto rlineto gsave closepath fill grestore} bind def
%
% PostScript Level 1 Pattern Fill routine for rectangles
% Usage: x y w h s a XX PatternFill
%	x,y = lower left corner of box to be filled
%	w,h = width and height of box
%	  a = angle in degrees between lines and x-axis
%	 XX = 0/1 for no/yes cross-hatch
%
/PatternFill {gsave /PFa [ 9 2 roll ] def
  PFa 0 get PFa 2 get 2 div add PFa 1 get PFa 3 get 2 div add translate
  PFa 2 get -2 div PFa 3 get -2 div PFa 2 get PFa 3 get Rec
  TransparentPatterns {} {gsave 1 setgray fill grestore} ifelse
  clip
  currentlinewidth 0.5 mul setlinewidth
  /PFs PFa 2 get dup mul PFa 3 get dup mul add sqrt def
  0 0 M PFa 5 get rotate PFs -2 div dup translate
  0 1 PFs PFa 4 get div 1 add floor cvi
	{PFa 4 get mul 0 M 0 PFs V} for
  0 PFa 6 get ne {
	0 1 PFs PFa 4 get div 1 add floor cvi
	{PFa 4 get mul 0 2 1 roll M PFs 0 V} for
 } if
  stroke grestore} def
%
/languagelevel where
 {pop languagelevel} {1} ifelse
dup 2 lt
	{/InterpretLevel1 true def
	 /InterpretLevel3 false def}
	{/InterpretLevel1 Level1 def
	 2 gt
	    {/InterpretLevel3 Level3 def}
	    {/InterpretLevel3 false def}
	 ifelse }
 ifelse
%
% PostScript level 2 pattern fill definitions
%
/Level2PatternFill {
/Tile8x8 {/PaintType 2 /PatternType 1 /TilingType 1 /BBox [0 0 8 8] /XStep 8 /YStep 8}
	bind def
/KeepColor {currentrgbcolor [/Pattern /DeviceRGB] setcolorspace} bind def
<< Tile8x8
 /PaintProc {0.5 setlinewidth pop 0 0 M 8 8 L 0 8 M 8 0 L stroke} 
>> matrix makepattern
/Pat1 exch def
<< Tile8x8
 /PaintProc {0.5 setlinewidth pop 0 0 M 8 8 L 0 8 M 8 0 L stroke
	0 4 M 4 8 L 8 4 L 4 0 L 0 4 L stroke}
>> matrix makepattern
/Pat2 exch def
<< Tile8x8
 /PaintProc {0.5 setlinewidth pop 0 0 M 0 8 L
	8 8 L 8 0 L 0 0 L fill}
>> matrix makepattern
/Pat3 exch def
<< Tile8x8
 /PaintProc {0.5 setlinewidth pop -4 8 M 8 -4 L
	0 12 M 12 0 L stroke}
>> matrix makepattern
/Pat4 exch def
<< Tile8x8
 /PaintProc {0.5 setlinewidth pop -4 0 M 8 12 L
	0 -4 M 12 8 L stroke}
>> matrix makepattern
/Pat5 exch def
<< Tile8x8
 /PaintProc {0.5 setlinewidth pop -2 8 M 4 -4 L
	0 12 M 8 -4 L 4 12 M 10 0 L stroke}
>> matrix makepattern
/Pat6 exch def
<< Tile8x8
 /PaintProc {0.5 setlinewidth pop -2 0 M 4 12 L
	0 -4 M 8 12 L 4 -4 M 10 8 L stroke}
>> matrix makepattern
/Pat7 exch def
<< Tile8x8
 /PaintProc {0.5 setlinewidth pop 8 -2 M -4 4 L
	12 0 M -4 8 L 12 4 M 0 10 L stroke}
>> matrix makepattern
/Pat8 exch def
<< Tile8x8
 /PaintProc {0.5 setlinewidth pop 0 -2 M 12 4 L
	-4 0 M 12 8 L -4 4 M 8 10 L stroke}
>> matrix makepattern
/Pat9 exch def
/Pattern1 {PatternBgnd KeepColor Pat1 setpattern} bind def
/Pattern2 {PatternBgnd KeepColor Pat2 setpattern} bind def
/Pattern3 {PatternBgnd KeepColor Pat3 setpattern} bind def
/Pattern4 {PatternBgnd KeepColor Landscape {Pat5} {Pat4} ifelse setpattern} bind def
/Pattern5 {PatternBgnd KeepColor Landscape {Pat4} {Pat5} ifelse setpattern} bind def
/Pattern6 {PatternBgnd KeepColor Landscape {Pat9} {Pat6} ifelse setpattern} bind def
/Pattern7 {PatternBgnd KeepColor Landscape {Pat8} {Pat7} ifelse setpattern} bind def
} def
%
%
%End of PostScript Level 2 code
%
/PatternBgnd {
  TransparentPatterns {} {gsave 1 setgray fill grestore} ifelse
} def
%
% Substitute for Level 2 pattern fill codes with
% grayscale if Level 2 support is not selected.
%
/Level1PatternFill {
/Pattern1 {0.250 Density} bind def
/Pattern2 {0.500 Density} bind def
/Pattern3 {0.750 Density} bind def
/Pattern4 {0.125 Density} bind def
/Pattern5 {0.375 Density} bind def
/Pattern6 {0.625 Density} bind def
/Pattern7 {0.875 Density} bind def
} def
%
% Now test for support of Level 2 code
%
Level1 {Level1PatternFill} {Level2PatternFill} ifelse
%
/Symbol-Oblique /Symbol findfont [1 0 .167 1 0 0] makefont
dup length dict begin {1 index /FID eq {pop pop} {def} ifelse} forall
currentdict end definefont pop
%
/MFshow {
   { dup 5 get 3 ge
     { 5 get 3 eq {gsave} {grestore} ifelse }
     {dup dup 0 get findfont exch 1 get scalefont setfont
     [ currentpoint ] exch dup 2 get 0 exch R dup 5 get 2 ne {dup dup 6
     get exch 4 get {textshow} {stringwidth pop 0 R} ifelse }if dup 5 get 0 eq
     {dup 3 get {2 get neg 0 exch R pop} {pop aload pop M} ifelse} {dup 5
     get 1 eq {dup 2 get exch dup 3 get exch 6 get stringwidth pop -2 div
     dup 0 R} {dup 6 get stringwidth pop -2 div 0 R 6 get
     textshow 2 index {aload pop M neg 3 -1 roll neg R pop pop} {pop pop pop
     pop aload pop M} ifelse }ifelse }ifelse }
     ifelse }
   forall} def
/Gswidth {dup type /stringtype eq {stringwidth} {pop (n) stringwidth} ifelse} def
/MFwidth {0 exch { dup 5 get 3 ge { 5 get 3 eq { 0 } { pop } ifelse }
 {dup 3 get{dup dup 0 get findfont exch 1 get scalefont setfont
     6 get Gswidth pop add} {pop} ifelse} ifelse} forall} def
/MLshow { currentpoint stroke M
  0 exch R
  Blacktext {gsave 0 setgray MFshow grestore} {MFshow} ifelse } bind def
/MRshow { currentpoint stroke M
  exch dup MFwidth neg 3 -1 roll R
  Blacktext {gsave 0 setgray MFshow grestore} {MFshow} ifelse } bind def
/MCshow { currentpoint stroke M
  exch dup MFwidth -2 div 3 -1 roll R
  Blacktext {gsave 0 setgray MFshow grestore} {MFshow} ifelse } bind def
/XYsave    { [( ) 1 2 true false 3 ()] } bind def
/XYrestore { [( ) 1 2 true false 4 ()] } bind def
Level1 SuppressPDFMark or 
{} {
/SDict 10 dict def
systemdict /pdfmark known not {
  userdict /pdfmark systemdict /cleartomark get put
} if
SDict begin [
  /Title (TcpHighSpeed-download-finishtime-50UE-panoramic.eps)
  /Subject (gnuplot plot)
  /Creator (gnuplot 5.0 patchlevel 3)
  /Author (nat)
%  /Producer (gnuplot)
%  /Keywords ()
  /CreationDate (Tue Jun  7 16:10:53 2016)
  /DOCINFO pdfmark
end
} ifelse
%
% Support for boxed text - Ethan A Merritt May 2005
%
/InitTextBox { userdict /TBy2 3 -1 roll put userdict /TBx2 3 -1 roll put
           userdict /TBy1 3 -1 roll put userdict /TBx1 3 -1 roll put
	   /Boxing true def } def
/ExtendTextBox { Boxing
    { gsave dup false charpath pathbbox
      dup TBy2 gt {userdict /TBy2 3 -1 roll put} {pop} ifelse
      dup TBx2 gt {userdict /TBx2 3 -1 roll put} {pop} ifelse
      dup TBy1 lt {userdict /TBy1 3 -1 roll put} {pop} ifelse
      dup TBx1 lt {userdict /TBx1 3 -1 roll put} {pop} ifelse
      grestore } if } def
/PopTextBox { newpath TBx1 TBxmargin sub TBy1 TBymargin sub M
               TBx1 TBxmargin sub TBy2 TBymargin add L
	       TBx2 TBxmargin add TBy2 TBymargin add L
	       TBx2 TBxmargin add TBy1 TBymargin sub L closepath } def
/DrawTextBox { PopTextBox stroke /Boxing false def} def
/FillTextBox { gsave PopTextBox 1 1 1 setrgbcolor fill grestore /Boxing false def} def
0 0 0 0 InitTextBox
/TBxmargin 20 def
/TBymargin 20 def
/Boxing false def
/textshow { ExtendTextBox Gshow } def
%
% redundant definitions for compatibility with prologue.ps older than 5.0.2
/LTB {BL [] LCb DL} def
/LTb {PL [] LCb DL} def
end
%%EndProlog
%%Page: 1 1
gnudict begin
gsave
doclip
50 50 translate
0.050 0.050 scale
0 setgray
newpath
(Arial) findfont 200 scalefont setfont
BackgroundColor 0 lt 3 1 roll 0 lt exch 0 lt or or not {BackgroundColor C 1.000 0 0 14400.00 5040.00 BoxColFill} if
1.000 UL
LTb
0.00 0.00 0.00 C 0.500 UL
LTa
0.50 0.50 0.50 C 980 1000 M
12139 0 V
stroke
1.000 UL
LTb
0.00 0.00 0.00 C 980 1000 M
63 0 V
stroke
860 1000 M
[ [(Arial) 200.0 0.0 true true 0 ( 0)]
] -66.7 MRshow
1.000 UL
LTb
0.00 0.00 0.00 C 0.500 UL
LTa
0.50 0.50 0.50 C 980 1475 M
12139 0 V
stroke
1.000 UL
LTb
0.00 0.00 0.00 C 980 1475 M
63 0 V
stroke
860 1475 M
[ [(Arial) 200.0 0.0 true true 0 ( 20)]
] -66.7 MRshow
1.000 UL
LTb
0.00 0.00 0.00 C 0.500 UL
LTa
0.50 0.50 0.50 C 980 1950 M
12139 0 V
stroke
1.000 UL
LTb
0.00 0.00 0.00 C 980 1950 M
63 0 V
stroke
860 1950 M
[ [(Arial) 200.0 0.0 true true 0 ( 40)]
] -66.7 MRshow
1.000 UL
LTb
0.00 0.00 0.00 C 0.500 UL
LTa
0.50 0.50 0.50 C 980 2425 M
12139 0 V
stroke
1.000 UL
LTb
0.00 0.00 0.00 C 980 2425 M
63 0 V
stroke
860 2425 M
[ [(Arial) 200.0 0.0 true true 0 ( 60)]
] -66.7 MRshow
1.000 UL
LTb
0.00 0.00 0.00 C 0.500 UL
LTa
0.50 0.50 0.50 C 980 2900 M
12139 0 V
stroke
1.000 UL
LTb
0.00 0.00 0.00 C 980 2900 M
63 0 V
stroke
860 2900 M
[ [(Arial) 200.0 0.0 true true 0 ( 80)]
] -66.7 MRshow
1.000 UL
LTb
0.00 0.00 0.00 C 0.500 UL
LTa
0.50 0.50 0.50 C 980 3374 M
12139 0 V
stroke
1.000 UL
LTb
0.00 0.00 0.00 C 980 3374 M
63 0 V
stroke
860 3374 M
[ [(Arial) 200.0 0.0 true true 0 ( 100)]
] -66.7 MRshow
1.000 UL
LTb
0.00 0.00 0.00 C 0.500 UL
LTa
0.50 0.50 0.50 C 980 3849 M
12139 0 V
stroke
1.000 UL
LTb
0.00 0.00 0.00 C 980 3849 M
63 0 V
stroke
860 3849 M
[ [(Arial) 200.0 0.0 true true 0 ( 120)]
] -66.7 MRshow
1.000 UL
LTb
0.00 0.00 0.00 C 0.500 UL
LTa
0.50 0.50 0.50 C 980 4324 M
12139 0 V
stroke
1.000 UL
LTb
0.00 0.00 0.00 C 980 4324 M
63 0 V
stroke
860 4324 M
[ [(Arial) 200.0 0.0 true true 0 ( 140)]
] -66.7 MRshow
1.000 UL
LTb
0.00 0.00 0.00 C 0.500 UL
LTa
0.50 0.50 0.50 C 980 4799 M
12139 0 V
stroke
1.000 UL
LTb
0.00 0.00 0.00 C 980 4799 M
63 0 V
stroke
860 4799 M
[ [(Arial) 200.0 0.0 true true 0 ( 160)]
] -66.7 MRshow
1.000 UL
LTb
0.00 0.00 0.00 C 0.500 UL
LTa
0.50 0.50 0.50 C 1235 1000 M
0 3799 V
stroke
1.000 UL
LTb
0.00 0.00 0.00 C 1235 1000 M
0 63 V
0 3736 R
0 -63 V
stroke
1235 800 M
[ [(Arial) 200.0 0.0 true true 0 ( 60)]
] -66.7 MCshow
1.000 UL
LTb
0.00 0.00 0.00 C 0.500 UL
LTa
0.50 0.50 0.50 C 1847 1000 M
0 3799 V
stroke
1.000 UL
LTb
0.00 0.00 0.00 C 1847 1000 M
0 63 V
0 3736 R
0 -63 V
stroke
1847 800 M
[ [(Arial) 200.0 0.0 true true 0 ( 120)]
] -66.7 MCshow
1.000 UL
LTb
0.00 0.00 0.00 C 0.500 UL
LTa
0.50 0.50 0.50 C 2459 1000 M
0 3799 V
stroke
1.000 UL
LTb
0.00 0.00 0.00 C 2459 1000 M
0 63 V
0 3736 R
0 -63 V
stroke
2459 800 M
[ [(Arial) 200.0 0.0 true true 0 ( 180)]
] -66.7 MCshow
1.000 UL
LTb
0.00 0.00 0.00 C 0.500 UL
LTa
0.50 0.50 0.50 C 3071 1000 M
0 3799 V
stroke
1.000 UL
LTb
0.00 0.00 0.00 C 3071 1000 M
0 63 V
0 3736 R
0 -63 V
stroke
3071 800 M
[ [(Arial) 200.0 0.0 true true 0 ( 240)]
] -66.7 MCshow
1.000 UL
LTb
0.00 0.00 0.00 C 0.500 UL
LTa
0.50 0.50 0.50 C 3683 1000 M
0 3799 V
stroke
1.000 UL
LTb
0.00 0.00 0.00 C 3683 1000 M
0 63 V
0 3736 R
0 -63 V
stroke
3683 800 M
[ [(Arial) 200.0 0.0 true true 0 ( 300)]
] -66.7 MCshow
1.000 UL
LTb
0.00 0.00 0.00 C 0.500 UL
LTa
0.50 0.50 0.50 C 4295 1000 M
0 3799 V
stroke
1.000 UL
LTb
0.00 0.00 0.00 C 4295 1000 M
0 63 V
0 3736 R
0 -63 V
stroke
4295 800 M
[ [(Arial) 200.0 0.0 true true 0 ( 360)]
] -66.7 MCshow
1.000 UL
LTb
0.00 0.00 0.00 C 0.500 UL
LTa
0.50 0.50 0.50 C 4907 1000 M
0 3799 V
stroke
1.000 UL
LTb
0.00 0.00 0.00 C 4907 1000 M
0 63 V
0 3736 R
0 -63 V
stroke
4907 800 M
[ [(Arial) 200.0 0.0 true true 0 ( 420)]
] -66.7 MCshow
1.000 UL
LTb
0.00 0.00 0.00 C 0.500 UL
LTa
0.50 0.50 0.50 C 5519 1000 M
0 3799 V
stroke
1.000 UL
LTb
0.00 0.00 0.00 C 5519 1000 M
0 63 V
0 3736 R
0 -63 V
stroke
5519 800 M
[ [(Arial) 200.0 0.0 true true 0 ( 480)]
] -66.7 MCshow
1.000 UL
LTb
0.00 0.00 0.00 C 0.500 UL
LTa
0.50 0.50 0.50 C 6131 1000 M
0 3799 V
stroke
1.000 UL
LTb
0.00 0.00 0.00 C 6131 1000 M
0 63 V
0 3736 R
0 -63 V
stroke
6131 800 M
[ [(Arial) 200.0 0.0 true true 0 ( 540)]
] -66.7 MCshow
1.000 UL
LTb
0.00 0.00 0.00 C 0.500 UL
LTa
0.50 0.50 0.50 C 6743 1000 M
0 3799 V
stroke
1.000 UL
LTb
0.00 0.00 0.00 C 6743 1000 M
0 63 V
0 3736 R
0 -63 V
stroke
6743 800 M
[ [(Arial) 200.0 0.0 true true 0 ( 600)]
] -66.7 MCshow
1.000 UL
LTb
0.00 0.00 0.00 C 0.500 UL
LTa
0.50 0.50 0.50 C 7356 1000 M
0 3799 V
stroke
1.000 UL
LTb
0.00 0.00 0.00 C 7356 1000 M
0 63 V
0 3736 R
0 -63 V
stroke
7356 800 M
[ [(Arial) 200.0 0.0 true true 0 ( 660)]
] -66.7 MCshow
1.000 UL
LTb
0.00 0.00 0.00 C 0.500 UL
LTa
0.50 0.50 0.50 C 7968 1000 M
0 3799 V
stroke
1.000 UL
LTb
0.00 0.00 0.00 C 7968 1000 M
0 63 V
0 3736 R
0 -63 V
stroke
7968 800 M
[ [(Arial) 200.0 0.0 true true 0 ( 720)]
] -66.7 MCshow
1.000 UL
LTb
0.00 0.00 0.00 C 0.500 UL
LTa
0.50 0.50 0.50 C 8580 1000 M
0 3799 V
stroke
1.000 UL
LTb
0.00 0.00 0.00 C 8580 1000 M
0 63 V
0 3736 R
0 -63 V
stroke
8580 800 M
[ [(Arial) 200.0 0.0 true true 0 ( 780)]
] -66.7 MCshow
1.000 UL
LTb
0.00 0.00 0.00 C 0.500 UL
LTa
0.50 0.50 0.50 C 9192 1000 M
0 3799 V
stroke
1.000 UL
LTb
0.00 0.00 0.00 C 9192 1000 M
0 63 V
0 3736 R
0 -63 V
stroke
9192 800 M
[ [(Arial) 200.0 0.0 true true 0 ( 840)]
] -66.7 MCshow
1.000 UL
LTb
0.00 0.00 0.00 C 0.500 UL
LTa
0.50 0.50 0.50 C 9804 1000 M
0 3799 V
stroke
1.000 UL
LTb
0.00 0.00 0.00 C 9804 1000 M
0 63 V
0 3736 R
0 -63 V
stroke
9804 800 M
[ [(Arial) 200.0 0.0 true true 0 ( 900)]
] -66.7 MCshow
1.000 UL
LTb
0.00 0.00 0.00 C 0.500 UL
LTa
0.50 0.50 0.50 C 10416 1000 M
0 3799 V
stroke
1.000 UL
LTb
0.00 0.00 0.00 C 10416 1000 M
0 63 V
0 3736 R
0 -63 V
stroke
10416 800 M
[ [(Arial) 200.0 0.0 true true 0 ( 960)]
] -66.7 MCshow
1.000 UL
LTb
0.00 0.00 0.00 C 0.500 UL
LTa
0.50 0.50 0.50 C 11028 1000 M
0 3799 V
stroke
1.000 UL
LTb
0.00 0.00 0.00 C 11028 1000 M
0 63 V
0 3736 R
0 -63 V
stroke
11028 800 M
[ [(Arial) 200.0 0.0 true true 0 ( 1020)]
] -66.7 MCshow
1.000 UL
LTb
0.00 0.00 0.00 C 0.500 UL
LTa
0.50 0.50 0.50 C 11640 1000 M
0 3799 V
stroke
1.000 UL
LTb
0.00 0.00 0.00 C 11640 1000 M
0 63 V
0 3736 R
0 -63 V
stroke
11640 800 M
[ [(Arial) 200.0 0.0 true true 0 ( 1080)]
] -66.7 MCshow
1.000 UL
LTb
0.00 0.00 0.00 C 0.500 UL
LTa
0.50 0.50 0.50 C 12252 1000 M
0 3799 V
stroke
1.000 UL
LTb
0.00 0.00 0.00 C 12252 1000 M
0 63 V
0 3736 R
0 -63 V
stroke
12252 800 M
[ [(Arial) 200.0 0.0 true true 0 ( 1140)]
] -66.7 MCshow
1.000 UL
LTb
0.00 0.00 0.00 C 0.500 UL
LTa
0.50 0.50 0.50 C 12864 1000 M
0 3799 V
stroke
1.000 UL
LTb
0.00 0.00 0.00 C 12864 1000 M
0 63 V
0 3736 R
0 -63 V
stroke
12864 800 M
[ [(Arial) 200.0 0.0 true true 0 ( 1200)]
] -66.7 MCshow
1.000 UL
LTb
0.00 0.00 0.00 C 13119 1000 M
-63 0 V
stroke
13239 1000 M
[ [(Arial) 200.0 0.0 true true 0 ( 0)]
] -66.7 MLshow
1.000 UL
LTb
0.00 0.00 0.00 C 13119 1760 M
-63 0 V
stroke
13239 1760 M
[ [(Arial) 200.0 0.0 true true 0 ( 20)]
] -66.7 MLshow
1.000 UL
LTb
0.00 0.00 0.00 C 13119 2520 M
-63 0 V
stroke
13239 2520 M
[ [(Arial) 200.0 0.0 true true 0 ( 40)]
] -66.7 MLshow
1.000 UL
LTb
0.00 0.00 0.00 C 13119 3279 M
-63 0 V
stroke
13239 3279 M
[ [(Arial) 200.0 0.0 true true 0 ( 60)]
] -66.7 MLshow
1.000 UL
LTb
0.00 0.00 0.00 C 13119 4039 M
-63 0 V
stroke
13239 4039 M
[ [(Arial) 200.0 0.0 true true 0 ( 80)]
] -66.7 MLshow
1.000 UL
LTb
0.00 0.00 0.00 C 13119 4799 M
-63 0 V
stroke
13239 4799 M
[ [(Arial) 200.0 0.0 true true 0 ( 100)]
] -66.7 MLshow
1.000 UL
LTb
0.00 0.00 0.00 C 1.000 UL
LTB
0.00 0.00 0.00 C 980 4799 M
0 -3799 V
12139 0 V
0 3799 R
980 4799 M
1.000 UP
stroke
LTb
0.00 0.00 0.00 C LCb setrgbcolor
160 2899 M
currentpoint gsave translate -270 rotate 0 0 moveto
[ [(Arial) 200.0 0.0 true true 0 (File download time \(s\))]
] -66.7 MCshow
grestore
LTb
LCb setrgbcolor
13938 2899 M
currentpoint gsave translate -270 rotate 0 0 moveto
[ [(Arial) 200.0 0.0 true true 0 (Average UDP throughput [%])]
] -66.7 MCshow
grestore
LTb
LCb setrgbcolor
7049 500 M
[ [(Arial) 200.0 0.0 true true 0 (Local Backhaul traffic \(Mb/s\))]
] -66.7 MCshow
LTb
% Begin plot #1
1.000 UL
LTb
0.60 0.60 0.00 C LCb setrgbcolor
4714 333 M
[ [(Arial) 180.0 0.0 true true 0 (file download time    :   olsr)]
] -60.0 MRshow
1.000 UL
LTb
0.60 0.60 0.00 C 4822 288 333 90 80 -45 0 PatternFill
4822 288 N
333 0 V
0 90 V
-333 0 V
0 -90 V
Z stroke
1.000 UL
LTb
0.60 0.60 0.00 C 990 1276 154 303 80 -45 0 PatternFill
1067 1069 M
0 207 V
0 303 R
0 406 V
stroke
990 1276 N
154 0 V
0 303 V
-154 0 V
0 -303 V
Z stroke
990 1985 M
154 0 V
990 1069 M
154 0 V
stroke
1602 1303 154 253 80 -45 0 PatternFill
1679 1069 M
0 234 V
0 253 R
0 453 V
stroke
1602 1303 N
154 0 V
0 253 V
-154 0 V
0 -253 V
Z stroke
1602 2009 M
154 0 V
1602 1069 M
154 0 V
stroke
2214 1314 154 229 80 -45 0 PatternFill
2291 1069 M
0 245 V
0 229 R
0 447 V
stroke
2214 1314 N
154 0 V
0 229 V
-154 0 V
0 -229 V
Z stroke
2214 1990 M
154 0 V
2214 1069 M
154 0 V
stroke
2826 1295 154 299 80 -45 0 PatternFill
2903 1069 M
0 226 V
0 299 R
0 269 V
stroke
2826 1295 N
154 0 V
0 299 V
-154 0 V
0 -299 V
Z stroke
2826 1863 M
154 0 V
2826 1069 M
154 0 V
stroke
3438 1276 154 302 80 -45 0 PatternFill
3515 1069 M
0 207 V
0 302 R
0 227 V
stroke
3438 1276 N
154 0 V
0 302 V
-154 0 V
0 -302 V
Z stroke
3438 1805 M
154 0 V
3438 1069 M
154 0 V
stroke
4050 1300 154 270 80 -45 0 PatternFill
4127 1069 M
0 231 V
0 270 R
0 183 V
stroke
4050 1300 N
154 0 V
0 270 V
-154 0 V
0 -270 V
Z stroke
4050 1753 M
154 0 V
4050 1069 M
154 0 V
stroke
4663 1318 154 244 80 -45 0 PatternFill
4740 1069 M
0 249 V
0 244 R
0 317 V
stroke
4663 1318 N
154 0 V
0 244 V
-154 0 V
0 -244 V
Z stroke
4663 1879 M
154 0 V
4663 1069 M
154 0 V
stroke
5275 1298 154 241 80 -45 0 PatternFill
5352 1067 M
0 231 V
0 241 R
0 241 V
stroke
5275 1298 N
154 0 V
0 241 V
-154 0 V
0 -241 V
Z stroke
5275 1780 M
154 0 V
5275 1067 M
154 0 V
stroke
5887 1262 154 278 80 -45 0 PatternFill
5964 1067 M
0 195 V
0 278 R
0 327 V
stroke
5887 1262 N
154 0 V
0 278 V
-154 0 V
0 -278 V
Z stroke
5887 1867 M
154 0 V
5887 1067 M
154 0 V
stroke
6499 1277 154 252 80 -45 0 PatternFill
6576 1067 M
0 210 V
0 252 R
0 307 V
stroke
6499 1277 N
154 0 V
0 252 V
-154 0 V
0 -252 V
Z stroke
6499 1836 M
154 0 V
6499 1067 M
154 0 V
stroke
7111 1305 154 271 80 -45 0 PatternFill
7188 1067 M
0 238 V
0 271 R
0 365 V
stroke
7111 1305 N
154 0 V
0 271 V
-154 0 V
0 -271 V
Z stroke
7111 1941 M
154 0 V
7111 1067 M
154 0 V
stroke
7723 1307 154 264 80 -45 0 PatternFill
7800 1067 M
0 240 V
0 264 R
0 377 V
stroke
7723 1307 N
154 0 V
0 264 V
-154 0 V
0 -264 V
Z stroke
7723 1948 M
154 0 V
7723 1067 M
154 0 V
stroke
8335 1287 154 282 80 -45 0 PatternFill
8412 1067 M
0 220 V
0 282 R
0 469 V
stroke
8335 1287 N
154 0 V
0 282 V
-154 0 V
0 -282 V
Z stroke
8335 2038 M
154 0 V
8335 1067 M
154 0 V
stroke
8947 1263 154 275 80 -45 0 PatternFill
9024 1069 M
0 194 V
0 275 R
0 202 V
stroke
8947 1263 N
154 0 V
0 275 V
-154 0 V
0 -275 V
Z stroke
8947 1740 M
154 0 V
8947 1069 M
154 0 V
stroke
9559 1291 154 235 80 -45 0 PatternFill
9636 1067 M
0 224 V
0 235 R
0 340 V
stroke
9559 1291 N
154 0 V
0 235 V
-154 0 V
0 -235 V
Z stroke
9559 1866 M
154 0 V
9559 1067 M
154 0 V
stroke
10171 1252 154 310 80 -45 0 PatternFill
10248 1067 M
0 185 V
0 310 R
0 415 V
stroke
10171 1252 N
154 0 V
0 310 V
-154 0 V
0 -310 V
Z stroke
10171 1977 M
154 0 V
-154 -910 R
154 0 V
stroke
10783 1257 154 281 80 -45 0 PatternFill
10860 1067 M
0 190 V
0 281 R
0 288 V
stroke
10783 1257 N
154 0 V
0 281 V
-154 0 V
0 -281 V
Z stroke
10783 1826 M
154 0 V
-154 -759 R
154 0 V
stroke
11395 1295 154 271 80 -45 0 PatternFill
11472 1067 M
0 228 V
0 271 R
0 347 V
stroke
11395 1295 N
154 0 V
0 271 V
-154 0 V
0 -271 V
Z stroke
11395 1913 M
154 0 V
-154 -846 R
154 0 V
stroke
12007 1291 154 318 80 -45 0 PatternFill
12084 1067 M
0 224 V
0 318 R
0 268 V
stroke
12007 1291 N
154 0 V
0 318 V
-154 0 V
0 -318 V
Z stroke
12007 1877 M
154 0 V
-154 -810 R
154 0 V
stroke
12619 1334 154 290 80 -45 0 PatternFill
12696 1067 M
0 267 V
0 290 R
0 320 V
stroke
12619 1334 N
154 0 V
0 290 V
-154 0 V
0 -290 V
Z stroke
12619 1944 M
154 0 V
-154 -877 R
154 0 V
% End plot #1
% Begin plot #2
stroke
LTb
LCb setrgbcolor

 /TransparentPatterns true def
990 1436 154 0 40 30 0 PatternFill
1067 1436 M
stroke
990 1436 N
154 0 V
-154 0 V
Z stroke
990 1436 M
154 0 V
-154 0 R
154 0 V
stroke

 /TransparentPatterns true def
1602 1434 154 0 40 30 0 PatternFill
1679 1434 M
stroke
1602 1434 N
154 0 V
-154 0 V
Z stroke
1602 1434 M
154 0 V
-154 0 R
154 0 V
stroke

 /TransparentPatterns true def
2214 1417 154 0 40 30 0 PatternFill
2291 1417 M
stroke
2214 1417 N
154 0 V
-154 0 V
Z stroke
2214 1417 M
154 0 V
-154 0 R
154 0 V
stroke

 /TransparentPatterns true def
2826 1416 154 0 40 30 0 PatternFill
2903 1416 M
stroke
2826 1416 N
154 0 V
-154 0 V
Z stroke
2826 1416 M
154 0 V
-154 0 R
154 0 V
stroke

 /TransparentPatterns true def
3438 1418 154 0 40 30 0 PatternFill
3515 1418 M
stroke
3438 1418 N
154 0 V
-154 0 V
Z stroke
3438 1418 M
154 0 V
-154 0 R
154 0 V
stroke

 /TransparentPatterns true def
4050 1433 154 0 40 30 0 PatternFill
4127 1433 M
stroke
4050 1433 N
154 0 V
-154 0 V
Z stroke
4050 1433 M
154 0 V
-154 0 R
154 0 V
stroke

 /TransparentPatterns true def
4663 1432 154 0 40 30 0 PatternFill
4740 1432 M
stroke
4663 1432 N
154 0 V
-154 0 V
Z stroke
4663 1432 M
154 0 V
-154 0 R
154 0 V
stroke

 /TransparentPatterns true def
5275 1424 154 0 40 30 0 PatternFill
5352 1424 M
stroke
5275 1424 N
154 0 V
-154 0 V
Z stroke
5275 1424 M
154 0 V
-154 0 R
154 0 V
stroke

 /TransparentPatterns true def
5887 1404 154 0 40 30 0 PatternFill
5964 1404 M
stroke
5887 1404 N
154 0 V
-154 0 V
Z stroke
5887 1404 M
154 0 V
-154 0 R
154 0 V
stroke

 /TransparentPatterns true def
6499 1423 154 0 40 30 0 PatternFill
6576 1423 M
stroke
6499 1423 N
154 0 V
-154 0 V
Z stroke
6499 1423 M
154 0 V
-154 0 R
154 0 V
stroke

 /TransparentPatterns true def
7111 1427 154 0 40 30 0 PatternFill
7188 1427 M
stroke
7111 1427 N
154 0 V
-154 0 V
Z stroke
7111 1427 M
154 0 V
-154 0 R
154 0 V
stroke

 /TransparentPatterns true def
7723 1421 154 0 40 30 0 PatternFill
7800 1421 M
stroke
7723 1421 N
154 0 V
-154 0 V
Z stroke
7723 1421 M
154 0 V
-154 0 R
154 0 V
stroke

 /TransparentPatterns true def
8335 1421 154 0 40 30 0 PatternFill
8412 1421 M
stroke
8335 1421 N
154 0 V
-154 0 V
Z stroke
8335 1421 M
154 0 V
-154 0 R
154 0 V
stroke

 /TransparentPatterns true def
8947 1409 154 0 40 30 0 PatternFill
9024 1409 M
stroke
8947 1409 N
154 0 V
-154 0 V
Z stroke
8947 1409 M
154 0 V
-154 0 R
154 0 V
stroke

 /TransparentPatterns true def
9559 1409 154 0 40 30 0 PatternFill
9636 1409 M
stroke
9559 1409 N
154 0 V
-154 0 V
Z stroke
9559 1409 M
154 0 V
-154 0 R
154 0 V
stroke

 /TransparentPatterns true def
10171 1414 154 0 40 30 0 PatternFill
10248 1414 M
stroke
10171 1414 N
154 0 V
-154 0 V
Z stroke
10171 1414 M
154 0 V
-154 0 R
154 0 V
stroke

 /TransparentPatterns true def
10783 1410 154 0 40 30 0 PatternFill
10860 1410 M
stroke
10783 1410 N
154 0 V
-154 0 V
Z stroke
10783 1410 M
154 0 V
-154 0 R
154 0 V
stroke

 /TransparentPatterns true def
11395 1433 154 0 40 30 0 PatternFill
11472 1433 M
stroke
11395 1433 N
154 0 V
-154 0 V
Z stroke
11395 1433 M
154 0 V
-154 0 R
154 0 V
stroke

 /TransparentPatterns true def
12007 1435 154 0 40 30 0 PatternFill
12084 1435 M
stroke
12007 1435 N
154 0 V
-154 0 V
Z stroke
12007 1435 M
154 0 V
-154 0 R
154 0 V
stroke

 /TransparentPatterns true def
12619 1471 154 0 40 30 0 PatternFill
12696 1471 M
stroke
12619 1471 N
154 0 V
-154 0 V
Z stroke
12619 1471 M
154 0 V
-154 0 R
154 0 V
% End plot #2
% Begin plot #3
2.000 UP
stroke
LTa
0.60 0.60 0.00 C LCb setrgbcolor
4714 153 M
[ [(Arial) 180.0 0.0 true true 0 (avg. throughput :         )]
] -60.0 MRshow
2.000 UP
1.000 UL
LTa
0.60 0.60 0.00 C 4822 153 M
333 0 V
1067 4039 M
612 10 V
612 -16 V
612 -103 V
612 -43 V
612 -44 V
612 107 V
612 -84 V
612 85 V
612 -20 V
612 72 V
612 0 V
612 61 V
612 -245 V
612 130 V
612 85 V
613 -124 V
612 75 V
612 -36 V
612 -19 V
1067 4039 Box
1679 4049 Box
2291 4033 Box
2903 3930 Box
3515 3887 Box
4127 3843 Box
4739 3950 Box
5351 3866 Box
5963 3951 Box
6575 3931 Box
7187 4003 Box
7799 4003 Box
8411 4064 Box
9023 3819 Box
9635 3949 Box
10247 4034 Box
10860 3910 Box
11472 3985 Box
12084 3949 Box
12696 3930 Box
4988 153 Box
% End plot #3
% Begin plot #4
1.000 UL
LTb
0.00 0.00 0.63 C LCb setrgbcolor
8287 333 M
[ [(Arial) 180.0 0.0 true true 0 (per-packet)]
] -60.0 MRshow
1.000 UL
LTb
0.00 0.00 0.63 C 8395 288 333 90 80 45 0 PatternFill
8395 288 N
333 0 V
0 90 V
-333 0 V
0 -90 V
Z stroke
1.000 UL
LTb
0.00 0.00 0.63 C 1159 1097 154 1332 80 45 0 PatternFill
1236 1061 M
0 36 V
0 1332 R
0 357 V
stroke
1159 1097 N
154 0 V
0 1332 V
-154 0 V
0 -1332 V
Z stroke
1159 2786 M
154 0 V
1159 1061 M
154 0 V
stroke
1771 1105 154 1299 80 45 0 PatternFill
1848 1062 M
0 43 V
0 1299 R
0 325 V
stroke
1771 1105 N
154 0 V
0 1299 V
-154 0 V
0 -1299 V
Z stroke
1771 2729 M
154 0 V
1771 1062 M
154 0 V
stroke
2383 1092 154 1286 80 45 0 PatternFill
2460 1064 M
0 28 V
0 1286 R
0 323 V
stroke
2383 1092 N
154 0 V
0 1286 V
-154 0 V
0 -1286 V
Z stroke
2383 2701 M
154 0 V
2383 1064 M
154 0 V
stroke
2995 1096 154 1376 80 45 0 PatternFill
3072 1062 M
0 34 V
0 1376 R
0 288 V
stroke
2995 1096 N
154 0 V
0 1376 V
-154 0 V
0 -1376 V
Z stroke
2995 2760 M
154 0 V
2995 1062 M
154 0 V
stroke
3607 1093 154 1250 80 45 0 PatternFill
3684 1054 M
0 39 V
0 1250 R
0 258 V
stroke
3607 1093 N
154 0 V
0 1250 V
-154 0 V
0 -1250 V
Z stroke
3607 2601 M
154 0 V
3607 1054 M
154 0 V
stroke
4219 1094 154 1284 80 45 0 PatternFill
4296 1062 M
0 32 V
0 1284 R
0 377 V
stroke
4219 1094 N
154 0 V
0 1284 V
-154 0 V
0 -1284 V
Z stroke
4219 2755 M
154 0 V
4219 1062 M
154 0 V
stroke
4831 1093 154 1269 80 45 0 PatternFill
4908 1061 M
0 32 V
0 1269 R
0 327 V
stroke
4831 1093 N
154 0 V
0 1269 V
-154 0 V
0 -1269 V
Z stroke
4831 2689 M
154 0 V
4831 1061 M
154 0 V
stroke
5443 1098 154 1308 80 45 0 PatternFill
5520 1058 M
0 40 V
0 1308 R
0 263 V
stroke
5443 1098 N
154 0 V
0 1308 V
-154 0 V
0 -1308 V
Z stroke
5443 2669 M
154 0 V
5443 1058 M
154 0 V
stroke
6055 1109 154 1316 80 45 0 PatternFill
6132 1061 M
0 48 V
0 1316 R
0 211 V
stroke
6055 1109 N
154 0 V
0 1316 V
-154 0 V
0 -1316 V
Z stroke
6055 2636 M
154 0 V
6055 1061 M
154 0 V
stroke
6667 1110 154 1300 80 45 0 PatternFill
6744 1060 M
0 50 V
0 1300 R
0 269 V
stroke
6667 1110 N
154 0 V
0 1300 V
-154 0 V
0 -1300 V
Z stroke
6667 2679 M
154 0 V
6667 1060 M
154 0 V
stroke
7279 1099 154 1307 80 45 0 PatternFill
7356 1061 M
0 38 V
0 1307 R
0 232 V
stroke
7279 1099 N
154 0 V
0 1307 V
-154 0 V
0 -1307 V
Z stroke
7279 2638 M
154 0 V
7279 1061 M
154 0 V
stroke
7891 1106 154 1227 80 45 0 PatternFill
7968 1063 M
0 43 V
0 1227 R
0 211 V
stroke
7891 1106 N
154 0 V
0 1227 V
-154 0 V
0 -1227 V
Z stroke
7891 2544 M
154 0 V
7891 1063 M
154 0 V
stroke
8503 1105 154 1197 80 45 0 PatternFill
8580 1064 M
0 41 V
0 1197 R
0 328 V
stroke
8503 1105 N
154 0 V
0 1197 V
-154 0 V
0 -1197 V
Z stroke
8503 2630 M
154 0 V
8503 1064 M
154 0 V
stroke
9115 1114 154 1239 80 45 0 PatternFill
9192 1072 M
0 42 V
0 1239 R
0 212 V
stroke
9115 1114 N
154 0 V
0 1239 V
-154 0 V
0 -1239 V
Z stroke
9115 2565 M
154 0 V
9115 1072 M
154 0 V
stroke
9727 1107 154 1262 80 45 0 PatternFill
9804 1065 M
0 42 V
0 1262 R
0 343 V
stroke
9727 1107 N
154 0 V
0 1262 V
-154 0 V
0 -1262 V
Z stroke
9727 2712 M
154 0 V
9727 1065 M
154 0 V
stroke
10339 1123 154 1214 80 45 0 PatternFill
10416 1065 M
0 58 V
0 1214 R
0 274 V
stroke
10339 1123 N
154 0 V
0 1214 V
-154 0 V
0 -1214 V
Z stroke
10339 2611 M
154 0 V
10339 1065 M
154 0 V
stroke
10951 1118 154 1239 80 45 0 PatternFill
11028 1063 M
0 55 V
0 1239 R
0 242 V
stroke
10951 1118 N
154 0 V
0 1239 V
-154 0 V
0 -1239 V
Z stroke
10951 2599 M
154 0 V
10951 1063 M
154 0 V
stroke
11563 1130 154 1182 80 45 0 PatternFill
11640 1058 M
0 72 V
0 1182 R
0 370 V
stroke
11563 1130 N
154 0 V
0 1182 V
-154 0 V
0 -1182 V
Z stroke
11563 2682 M
154 0 V
11563 1058 M
154 0 V
stroke
12175 1110 154 1213 80 45 0 PatternFill
12252 1064 M
0 46 V
0 1213 R
0 419 V
stroke
12175 1110 N
154 0 V
0 1213 V
-154 0 V
0 -1213 V
Z stroke
12175 2742 M
154 0 V
12175 1064 M
154 0 V
stroke
12787 1131 154 1165 80 45 0 PatternFill
12864 1049 M
0 82 V
0 1165 R
0 295 V
stroke
12787 1131 N
154 0 V
0 1165 V
-154 0 V
0 -1165 V
Z stroke
12787 2591 M
154 0 V
12787 1049 M
154 0 V
% End plot #4
% Begin plot #5
stroke
LTb
LCb setrgbcolor

 /TransparentPatterns true def
1159 1585 154 0 80 -45 0 PatternFill
1236 1585 M
stroke
1159 1585 N
154 0 V
-154 0 V
Z stroke
1159 1585 M
154 0 V
-154 0 R
154 0 V
stroke

 /TransparentPatterns true def
1771 1577 154 0 80 -45 0 PatternFill
1848 1577 M
stroke
1771 1577 N
154 0 V
-154 0 V
Z stroke
1771 1577 M
154 0 V
-154 0 R
154 0 V
stroke

 /TransparentPatterns true def
2383 1565 154 0 80 -45 0 PatternFill
2460 1565 M
stroke
2383 1565 N
154 0 V
-154 0 V
Z stroke
2383 1565 M
154 0 V
-154 0 R
154 0 V
stroke

 /TransparentPatterns true def
2995 1585 154 0 80 -45 0 PatternFill
3072 1585 M
stroke
2995 1585 N
154 0 V
-154 0 V
Z stroke
2995 1585 M
154 0 V
-154 0 R
154 0 V
stroke

 /TransparentPatterns true def
3607 1555 154 0 80 -45 0 PatternFill
3684 1555 M
stroke
3607 1555 N
154 0 V
-154 0 V
Z stroke
3607 1555 M
154 0 V
-154 0 R
154 0 V
stroke

 /TransparentPatterns true def
4219 1575 154 0 80 -45 0 PatternFill
4296 1575 M
stroke
4219 1575 N
154 0 V
-154 0 V
Z stroke
4219 1575 M
154 0 V
-154 0 R
154 0 V
stroke

 /TransparentPatterns true def
4831 1565 154 0 80 -45 0 PatternFill
4908 1565 M
stroke
4831 1565 N
154 0 V
-154 0 V
Z stroke
4831 1565 M
154 0 V
-154 0 R
154 0 V
stroke

 /TransparentPatterns true def
5443 1583 154 0 80 -45 0 PatternFill
5520 1583 M
stroke
5443 1583 N
154 0 V
-154 0 V
Z stroke
5443 1583 M
154 0 V
-154 0 R
154 0 V
stroke

 /TransparentPatterns true def
6055 1572 154 0 80 -45 0 PatternFill
6132 1572 M
stroke
6055 1572 N
154 0 V
-154 0 V
Z stroke
6055 1572 M
154 0 V
-154 0 R
154 0 V
stroke

 /TransparentPatterns true def
6667 1583 154 0 80 -45 0 PatternFill
6744 1583 M
stroke
6667 1583 N
154 0 V
-154 0 V
Z stroke
6667 1583 M
154 0 V
-154 0 R
154 0 V
stroke

 /TransparentPatterns true def
7279 1567 154 0 80 -45 0 PatternFill
7356 1567 M
stroke
7279 1567 N
154 0 V
-154 0 V
Z stroke
7279 1567 M
154 0 V
-154 0 R
154 0 V
stroke

 /TransparentPatterns true def
7891 1571 154 0 80 -45 0 PatternFill
7968 1571 M
stroke
7891 1571 N
154 0 V
-154 0 V
Z stroke
7891 1571 M
154 0 V
-154 0 R
154 0 V
stroke

 /TransparentPatterns true def
8503 1563 154 0 80 -45 0 PatternFill
8580 1563 M
stroke
8503 1563 N
154 0 V
-154 0 V
Z stroke
8503 1563 M
154 0 V
-154 0 R
154 0 V
stroke

 /TransparentPatterns true def
9115 1565 154 0 80 -45 0 PatternFill
9192 1565 M
stroke
9115 1565 N
154 0 V
-154 0 V
Z stroke
9115 1565 M
154 0 V
-154 0 R
154 0 V
stroke

 /TransparentPatterns true def
9727 1581 154 0 80 -45 0 PatternFill
9804 1581 M
stroke
9727 1581 N
154 0 V
-154 0 V
Z stroke
9727 1581 M
154 0 V
-154 0 R
154 0 V
stroke

 /TransparentPatterns true def
10339 1585 154 0 80 -45 0 PatternFill
10416 1585 M
stroke
10339 1585 N
154 0 V
-154 0 V
Z stroke
10339 1585 M
154 0 V
-154 0 R
154 0 V
stroke

 /TransparentPatterns true def
10951 1578 154 0 80 -45 0 PatternFill
11028 1578 M
stroke
10951 1578 N
154 0 V
-154 0 V
Z stroke
10951 1578 M
154 0 V
-154 0 R
154 0 V
stroke

 /TransparentPatterns true def
11563 1572 154 0 80 -45 0 PatternFill
11640 1572 M
stroke
11563 1572 N
154 0 V
-154 0 V
Z stroke
11563 1572 M
154 0 V
-154 0 R
154 0 V
stroke

 /TransparentPatterns true def
12175 1596 154 0 80 -45 0 PatternFill
12252 1596 M
stroke
12175 1596 N
154 0 V
-154 0 V
Z stroke
12175 1596 M
154 0 V
-154 0 R
154 0 V
stroke

 /TransparentPatterns true def
12787 1586 154 0 80 -45 0 PatternFill
12864 1586 M
stroke
12787 1586 N
154 0 V
-154 0 V
Z stroke
12787 1586 M
154 0 V
-154 0 R
154 0 V
% End plot #5
% Begin plot #6
2.000 UP
stroke
LTa
0.00 0.00 0.63 C LCb setrgbcolor
8287 153 M
[ [(Arial) 180.0 0.0 true true 0 ( )]
] -60.0 MRshow
2.000 UP
1.000 UL
LTa
0.00 0.00 0.63 C 8395 153 M
333 0 V
1235 4761 M
612 -9 V
612 -4 V
612 4 V
612 -2 V
612 2 V
612 -2 V
612 -1 V
612 -1 V
612 2 V
613 -1 V
612 -2 V
612 2 V
612 -3 V
612 5 V
612 -3 V
612 1 V
612 1 V
612 2 V
612 -4 V
1235 4761 Circle
1847 4752 Circle
2459 4748 Circle
3071 4752 Circle
3683 4750 Circle
4295 4752 Circle
4907 4750 Circle
5519 4749 Circle
6131 4748 Circle
6743 4750 Circle
7356 4749 Circle
7968 4747 Circle
8580 4749 Circle
9192 4746 Circle
9804 4751 Circle
10416 4748 Circle
11028 4749 Circle
11640 4750 Circle
12252 4752 Circle
12864 4748 Circle
8561 153 Circle
% End plot #6
% Begin plot #7
1.000 UL
LTb
0.00 0.38 0.82 C LCb setrgbcolor
11860 333 M
[ [(Arial) 180.0 0.0 true true 0 (per-flow)]
] -60.0 MRshow
1.000 UL
LTb
0.00 0.38 0.82 C 11968 288 333 90 40 30 0 PatternFill
11968 288 N
333 0 V
0 90 V
-333 0 V
0 -90 V
Z stroke
1.000 UL
LTb
0.00 0.38 0.82 C 1327 1101 154 142 40 30 0 PatternFill
1404 1067 M
0 34 V
0 142 R
0 421 V
stroke
1327 1101 N
154 0 V
0 142 V
-154 0 V
0 -142 V
Z stroke
1327 1664 M
154 0 V
1327 1067 M
154 0 V
stroke
1939 1094 154 151 40 30 0 PatternFill
2016 1076 M
0 18 V
0 151 R
0 462 V
stroke
1939 1094 N
154 0 V
0 151 V
-154 0 V
0 -151 V
Z stroke
1939 1707 M
154 0 V
1939 1076 M
154 0 V
stroke
2551 1118 154 131 40 30 0 PatternFill
2628 1063 M
0 55 V
0 131 R
0 294 V
stroke
2551 1118 N
154 0 V
0 131 V
-154 0 V
0 -131 V
Z stroke
2551 1543 M
154 0 V
2551 1063 M
154 0 V
stroke
3163 1121 154 115 40 30 0 PatternFill
3240 1069 M
0 52 V
0 115 R
0 308 V
stroke
3163 1121 N
154 0 V
0 115 V
-154 0 V
0 -115 V
Z stroke
3163 1544 M
154 0 V
3163 1069 M
154 0 V
stroke
3775 1100 154 134 40 30 0 PatternFill
3852 1065 M
0 35 V
0 134 R
0 286 V
stroke
3775 1100 N
154 0 V
0 134 V
-154 0 V
0 -134 V
Z stroke
3775 1520 M
154 0 V
3775 1065 M
154 0 V
stroke
4387 1103 154 120 40 30 0 PatternFill
4464 1071 M
0 32 V
0 120 R
0 514 V
stroke
4387 1103 N
154 0 V
0 120 V
-154 0 V
0 -120 V
Z stroke
4387 1737 M
154 0 V
4387 1071 M
154 0 V
stroke
4999 1094 154 156 40 30 0 PatternFill
5076 1070 M
0 24 V
0 156 R
0 382 V
stroke
4999 1094 N
154 0 V
0 156 V
-154 0 V
0 -156 V
Z stroke
4999 1632 M
154 0 V
4999 1070 M
154 0 V
stroke
5611 1094 154 147 40 30 0 PatternFill
5688 1067 M
0 27 V
0 147 R
0 349 V
stroke
5611 1094 N
154 0 V
0 147 V
-154 0 V
0 -147 V
Z stroke
5611 1590 M
154 0 V
5611 1067 M
154 0 V
stroke
6223 1107 154 129 40 30 0 PatternFill
6300 1074 M
0 33 V
0 129 R
0 451 V
stroke
6223 1107 N
154 0 V
0 129 V
-154 0 V
0 -129 V
Z stroke
6223 1687 M
154 0 V
6223 1074 M
154 0 V
stroke
6835 1098 154 169 40 30 0 PatternFill
6912 1072 M
0 26 V
0 169 R
0 382 V
stroke
6835 1098 N
154 0 V
0 169 V
-154 0 V
0 -169 V
Z stroke
6835 1649 M
154 0 V
6835 1072 M
154 0 V
stroke
7447 1098 154 132 40 30 0 PatternFill
7524 1064 M
0 34 V
0 132 R
0 362 V
stroke
7447 1098 N
154 0 V
0 132 V
-154 0 V
0 -132 V
Z stroke
7447 1592 M
154 0 V
7447 1064 M
154 0 V
stroke
8059 1110 154 136 40 30 0 PatternFill
8136 1076 M
0 34 V
0 136 R
0 476 V
stroke
8059 1110 N
154 0 V
0 136 V
-154 0 V
0 -136 V
Z stroke
8059 1722 M
154 0 V
8059 1076 M
154 0 V
stroke
8671 1109 154 149 40 30 0 PatternFill
8748 1069 M
0 40 V
0 149 R
0 448 V
stroke
8671 1109 N
154 0 V
0 149 V
-154 0 V
0 -149 V
Z stroke
8671 1706 M
154 0 V
8671 1069 M
154 0 V
stroke
9283 1106 154 125 40 30 0 PatternFill
9360 1074 M
0 32 V
0 125 R
0 389 V
stroke
9283 1106 N
154 0 V
0 125 V
-154 0 V
0 -125 V
Z stroke
9283 1620 M
154 0 V
9283 1074 M
154 0 V
stroke
9896 1098 154 131 40 30 0 PatternFill
9973 1080 M
0 18 V
0 131 R
0 499 V
stroke
9896 1098 N
154 0 V
0 131 V
-154 0 V
0 -131 V
Z stroke
9896 1728 M
154 0 V
9896 1080 M
154 0 V
stroke
10508 1104 154 146 40 30 0 PatternFill
10585 1063 M
0 41 V
0 146 R
0 416 V
stroke
10508 1104 N
154 0 V
0 146 V
-154 0 V
0 -146 V
Z stroke
10508 1666 M
154 0 V
-154 -603 R
154 0 V
stroke
11120 1113 154 180 40 30 0 PatternFill
11197 1063 M
0 50 V
0 180 R
0 285 V
stroke
11120 1113 N
154 0 V
0 180 V
-154 0 V
0 -180 V
Z stroke
11120 1578 M
154 0 V
-154 -515 R
154 0 V
stroke
11732 1115 154 142 40 30 0 PatternFill
11809 1063 M
0 52 V
0 142 R
0 311 V
stroke
11732 1115 N
154 0 V
0 142 V
-154 0 V
0 -142 V
Z stroke
11732 1568 M
154 0 V
-154 -505 R
154 0 V
stroke
12344 1126 154 169 40 30 0 PatternFill
12421 1059 M
0 67 V
0 169 R
0 446 V
stroke
12344 1126 N
154 0 V
0 169 V
-154 0 V
0 -169 V
Z stroke
12344 1741 M
154 0 V
-154 -682 R
154 0 V
stroke
12956 1116 154 180 40 30 0 PatternFill
13033 1063 M
0 53 V
0 180 R
0 383 V
stroke
12956 1116 N
154 0 V
0 180 V
-154 0 V
0 -180 V
Z stroke
12956 1679 M
154 0 V
-154 -616 R
154 0 V
% End plot #7
% Begin plot #8
stroke
LTb
LCb setrgbcolor

 /TransparentPatterns true def
1327 1186 154 0 40 -30 0 PatternFill
1404 1186 M
stroke
1327 1186 N
154 0 V
-154 0 V
Z stroke
1327 1186 M
154 0 V
-154 0 R
154 0 V
stroke

 /TransparentPatterns true def
1939 1186 154 0 40 -30 0 PatternFill
2016 1186 M
stroke
1939 1186 N
154 0 V
-154 0 V
Z stroke
1939 1186 M
154 0 V
-154 0 R
154 0 V
stroke

 /TransparentPatterns true def
2551 1191 154 0 40 -30 0 PatternFill
2628 1191 M
stroke
2551 1191 N
154 0 V
-154 0 V
Z stroke
2551 1191 M
154 0 V
-154 0 R
154 0 V
stroke

 /TransparentPatterns true def
3163 1183 154 0 40 -30 0 PatternFill
3240 1183 M
stroke
3163 1183 N
154 0 V
-154 0 V
Z stroke
3163 1183 M
154 0 V
-154 0 R
154 0 V
stroke

 /TransparentPatterns true def
3775 1176 154 0 40 -30 0 PatternFill
3852 1176 M
stroke
3775 1176 N
154 0 V
-154 0 V
Z stroke
3775 1176 M
154 0 V
-154 0 R
154 0 V
stroke

 /TransparentPatterns true def
4387 1180 154 0 40 -30 0 PatternFill
4464 1180 M
stroke
4387 1180 N
154 0 V
-154 0 V
Z stroke
4387 1180 M
154 0 V
-154 0 R
154 0 V
stroke

 /TransparentPatterns true def
4999 1181 154 0 40 -30 0 PatternFill
5076 1181 M
stroke
4999 1181 N
154 0 V
-154 0 V
Z stroke
4999 1181 M
154 0 V
-154 0 R
154 0 V
stroke

 /TransparentPatterns true def
5611 1173 154 0 40 -30 0 PatternFill
5688 1173 M
stroke
5611 1173 N
154 0 V
-154 0 V
Z stroke
5611 1173 M
154 0 V
-154 0 R
154 0 V
stroke

 /TransparentPatterns true def
6223 1183 154 0 40 -30 0 PatternFill
6300 1183 M
stroke
6223 1183 N
154 0 V
-154 0 V
Z stroke
6223 1183 M
154 0 V
-154 0 R
154 0 V
stroke

 /TransparentPatterns true def
6835 1195 154 0 40 -30 0 PatternFill
6912 1195 M
stroke
6835 1195 N
154 0 V
-154 0 V
Z stroke
6835 1195 M
154 0 V
-154 0 R
154 0 V
stroke

 /TransparentPatterns true def
7447 1176 154 0 40 -30 0 PatternFill
7524 1176 M
stroke
7447 1176 N
154 0 V
-154 0 V
Z stroke
7447 1176 M
154 0 V
-154 0 R
154 0 V
stroke

 /TransparentPatterns true def
8059 1196 154 0 40 -30 0 PatternFill
8136 1196 M
stroke
8059 1196 N
154 0 V
-154 0 V
Z stroke
8059 1196 M
154 0 V
-154 0 R
154 0 V
stroke

 /TransparentPatterns true def
8671 1196 154 0 40 -30 0 PatternFill
8748 1196 M
stroke
8671 1196 N
154 0 V
-154 0 V
Z stroke
8671 1196 M
154 0 V
-154 0 R
154 0 V
stroke

 /TransparentPatterns true def
9283 1180 154 0 40 -30 0 PatternFill
9360 1180 M
stroke
9283 1180 N
154 0 V
-154 0 V
Z stroke
9283 1180 M
154 0 V
-154 0 R
154 0 V
stroke

 /TransparentPatterns true def
9896 1179 154 0 40 -30 0 PatternFill
9973 1179 M
stroke
9896 1179 N
154 0 V
-154 0 V
Z stroke
9896 1179 M
154 0 V
-154 0 R
154 0 V
stroke

 /TransparentPatterns true def
10508 1193 154 0 40 -30 0 PatternFill
10585 1193 M
stroke
10508 1193 N
154 0 V
-154 0 V
Z stroke
10508 1193 M
154 0 V
-154 0 R
154 0 V
stroke

 /TransparentPatterns true def
11120 1213 154 0 40 -30 0 PatternFill
11197 1213 M
stroke
11120 1213 N
154 0 V
-154 0 V
Z stroke
11120 1213 M
154 0 V
-154 0 R
154 0 V
stroke

 /TransparentPatterns true def
11732 1197 154 0 40 -30 0 PatternFill
11809 1197 M
stroke
11732 1197 N
154 0 V
-154 0 V
Z stroke
11732 1197 M
154 0 V
-154 0 R
154 0 V
stroke

 /TransparentPatterns true def
12344 1225 154 0 40 -30 0 PatternFill
12421 1225 M
stroke
12344 1225 N
154 0 V
-154 0 V
Z stroke
12344 1225 M
154 0 V
-154 0 R
154 0 V
stroke

 /TransparentPatterns true def
12956 1225 154 0 40 -30 0 PatternFill
13033 1225 M
stroke
12956 1225 N
154 0 V
-154 0 V
Z stroke
12956 1225 M
154 0 V
-154 0 R
154 0 V
% End plot #8
% Begin plot #9
2.000 UP
stroke
LTa
0.00 0.38 0.82 C LCb setrgbcolor
11860 153 M
[ [(Arial) 180.0 0.0 true true 0 ( )]
] -60.0 MRshow
2.000 UP
1.000 UL
LTa
0.00 0.38 0.82 C 11968 153 M
333 0 V
1403 4685 M
612 10 V
612 -23 V
612 4 V
613 -6 V
612 31 V
612 -13 V
612 -5 V
612 13 V
612 -5 V
612 -9 V
612 17 V
612 -2 V
612 -9 V
612 12 V
612 -9 V
612 -9 V
612 -4 V
612 24 V
612 -7 V
1403 4685 TriU
2015 4695 TriU
2627 4672 TriU
3239 4676 TriU
3852 4670 TriU
4464 4701 TriU
5076 4688 TriU
5688 4683 TriU
6300 4696 TriU
6912 4691 TriU
7524 4682 TriU
8136 4699 TriU
8748 4697 TriU
9360 4688 TriU
9972 4700 TriU
10584 4691 TriU
11196 4682 TriU
11808 4678 TriU
12420 4702 TriU
13032 4695 TriU
12134 153 TriU
% End plot #9
2.000 UL
LTb
LCb setrgbcolor
1.000 UP
1.000 UL
LTb
0.00 0.00 0.00 C stroke
grestore
end
showpage
%%Trailer
%%DocumentFonts: Arial
