%!PS-Adobe-2.0 EPSF-2.0
%%Title: TcpNewReno-download-finishtime-50UE-panoramic.eps
%%Creator: gnuplot 5.0 patchlevel 3
%%CreationDate: Tue Jun  7 16:10:53 2016
%%DocumentFonts: (atend)
%%BoundingBox: 50 50 770 302
%%EndComments
%%BeginProlog
/gnudict 256 dict def
gnudict begin
%
% The following true/false flags may be edited by hand if desired.
% The unit line width and grayscale image gamma correction may also be changed.
%
/Color true def
/Blacktext false def
/Solid false def
/Dashlength 3 def
/Landscape false def
/Level1 false def
/Level3 false def
/Rounded false def
/ClipToBoundingBox false def
/SuppressPDFMark false def
/TransparentPatterns false def
/gnulinewidth 15.000 def
/userlinewidth gnulinewidth def
/Gamma 1.0 def
/BackgroundColor {-1.000 -1.000 -1.000} def
%
/vshift -66 def
/dl1 {
  10.0 Dashlength userlinewidth gnulinewidth div mul mul mul
  Rounded { currentlinewidth 0.75 mul sub dup 0 le { pop 0.01 } if } if
} def
/dl2 {
  10.0 Dashlength userlinewidth gnulinewidth div mul mul mul
  Rounded { currentlinewidth 0.75 mul add } if
} def
/hpt_ 31.5 def
/vpt_ 31.5 def
/hpt hpt_ def
/vpt vpt_ def
/doclip {
  ClipToBoundingBox {
    newpath 50 50 moveto 770 50 lineto 770 302 lineto 50 302 lineto closepath
    clip
  } if
} def
%
% Gnuplot Prolog Version 5.1 (Oct 2015)
%
%/SuppressPDFMark true def
%
/M {moveto} bind def
/L {lineto} bind def
/R {rmoveto} bind def
/V {rlineto} bind def
/N {newpath moveto} bind def
/Z {closepath} bind def
/C {setrgbcolor} bind def
/f {rlineto fill} bind def
/g {setgray} bind def
/Gshow {show} def   % May be redefined later in the file to support UTF-8
/vpt2 vpt 2 mul def
/hpt2 hpt 2 mul def
/Lshow {currentpoint stroke M 0 vshift R 
	Blacktext {gsave 0 setgray textshow grestore} {textshow} ifelse} def
/Rshow {currentpoint stroke M dup stringwidth pop neg vshift R
	Blacktext {gsave 0 setgray textshow grestore} {textshow} ifelse} def
/Cshow {currentpoint stroke M dup stringwidth pop -2 div vshift R 
	Blacktext {gsave 0 setgray textshow grestore} {textshow} ifelse} def
/UP {dup vpt_ mul /vpt exch def hpt_ mul /hpt exch def
  /hpt2 hpt 2 mul def /vpt2 vpt 2 mul def} def
/DL {Color {setrgbcolor Solid {pop []} if 0 setdash}
 {pop pop pop 0 setgray Solid {pop []} if 0 setdash} ifelse} def
/BL {stroke userlinewidth 2 mul setlinewidth
	Rounded {1 setlinejoin 1 setlinecap} if} def
/AL {stroke userlinewidth 2 div setlinewidth
	Rounded {1 setlinejoin 1 setlinecap} if} def
/UL {dup gnulinewidth mul /userlinewidth exch def
	dup 1 lt {pop 1} if 10 mul /udl exch def} def
/PL {stroke userlinewidth setlinewidth
	Rounded {1 setlinejoin 1 setlinecap} if} def
3.8 setmiterlimit
% Classic Line colors (version 5.0)
/LCw {1 1 1} def
/LCb {0 0 0} def
/LCa {0 0 0} def
/LC0 {1 0 0} def
/LC1 {0 1 0} def
/LC2 {0 0 1} def
/LC3 {1 0 1} def
/LC4 {0 1 1} def
/LC5 {1 1 0} def
/LC6 {0 0 0} def
/LC7 {1 0.3 0} def
/LC8 {0.5 0.5 0.5} def
% Default dash patterns (version 5.0)
/LTB {BL [] LCb DL} def
/LTw {PL [] 1 setgray} def
/LTb {PL [] LCb DL} def
/LTa {AL [1 udl mul 2 udl mul] 0 setdash LCa setrgbcolor} def
/LT0 {PL [] LC0 DL} def
/LT1 {PL [2 dl1 3 dl2] LC1 DL} def
/LT2 {PL [1 dl1 1.5 dl2] LC2 DL} def
/LT3 {PL [6 dl1 2 dl2 1 dl1 2 dl2] LC3 DL} def
/LT4 {PL [1 dl1 2 dl2 6 dl1 2 dl2 1 dl1 2 dl2] LC4 DL} def
/LT5 {PL [4 dl1 2 dl2] LC5 DL} def
/LT6 {PL [1.5 dl1 1.5 dl2 1.5 dl1 1.5 dl2 1.5 dl1 6 dl2] LC6 DL} def
/LT7 {PL [3 dl1 3 dl2 1 dl1 3 dl2] LC7 DL} def
/LT8 {PL [2 dl1 2 dl2 2 dl1 6 dl2] LC8 DL} def
/SL {[] 0 setdash} def
/Pnt {stroke [] 0 setdash gsave 1 setlinecap M 0 0 V stroke grestore} def
/Dia {stroke [] 0 setdash 2 copy vpt add M
  hpt neg vpt neg V hpt vpt neg V
  hpt vpt V hpt neg vpt V closepath stroke
  Pnt} def
/Pls {stroke [] 0 setdash vpt sub M 0 vpt2 V
  currentpoint stroke M
  hpt neg vpt neg R hpt2 0 V stroke
 } def
/Box {stroke [] 0 setdash 2 copy exch hpt sub exch vpt add M
  0 vpt2 neg V hpt2 0 V 0 vpt2 V
  hpt2 neg 0 V closepath stroke
  Pnt} def
/Crs {stroke [] 0 setdash exch hpt sub exch vpt add M
  hpt2 vpt2 neg V currentpoint stroke M
  hpt2 neg 0 R hpt2 vpt2 V stroke} def
/TriU {stroke [] 0 setdash 2 copy vpt 1.12 mul add M
  hpt neg vpt -1.62 mul V
  hpt 2 mul 0 V
  hpt neg vpt 1.62 mul V closepath stroke
  Pnt} def
/Star {2 copy Pls Crs} def
/BoxF {stroke [] 0 setdash exch hpt sub exch vpt add M
  0 vpt2 neg V hpt2 0 V 0 vpt2 V
  hpt2 neg 0 V closepath fill} def
/TriUF {stroke [] 0 setdash vpt 1.12 mul add M
  hpt neg vpt -1.62 mul V
  hpt 2 mul 0 V
  hpt neg vpt 1.62 mul V closepath fill} def
/TriD {stroke [] 0 setdash 2 copy vpt 1.12 mul sub M
  hpt neg vpt 1.62 mul V
  hpt 2 mul 0 V
  hpt neg vpt -1.62 mul V closepath stroke
  Pnt} def
/TriDF {stroke [] 0 setdash vpt 1.12 mul sub M
  hpt neg vpt 1.62 mul V
  hpt 2 mul 0 V
  hpt neg vpt -1.62 mul V closepath fill} def
/DiaF {stroke [] 0 setdash vpt add M
  hpt neg vpt neg V hpt vpt neg V
  hpt vpt V hpt neg vpt V closepath fill} def
/Pent {stroke [] 0 setdash 2 copy gsave
  translate 0 hpt M 4 {72 rotate 0 hpt L} repeat
  closepath stroke grestore Pnt} def
/PentF {stroke [] 0 setdash gsave
  translate 0 hpt M 4 {72 rotate 0 hpt L} repeat
  closepath fill grestore} def
/Circle {stroke [] 0 setdash 2 copy
  hpt 0 360 arc stroke Pnt} def
/CircleF {stroke [] 0 setdash hpt 0 360 arc fill} def
/C0 {BL [] 0 setdash 2 copy moveto vpt 90 450 arc} bind def
/C1 {BL [] 0 setdash 2 copy moveto
	2 copy vpt 0 90 arc closepath fill
	vpt 0 360 arc closepath} bind def
/C2 {BL [] 0 setdash 2 copy moveto
	2 copy vpt 90 180 arc closepath fill
	vpt 0 360 arc closepath} bind def
/C3 {BL [] 0 setdash 2 copy moveto
	2 copy vpt 0 180 arc closepath fill
	vpt 0 360 arc closepath} bind def
/C4 {BL [] 0 setdash 2 copy moveto
	2 copy vpt 180 270 arc closepath fill
	vpt 0 360 arc closepath} bind def
/C5 {BL [] 0 setdash 2 copy moveto
	2 copy vpt 0 90 arc
	2 copy moveto
	2 copy vpt 180 270 arc closepath fill
	vpt 0 360 arc} bind def
/C6 {BL [] 0 setdash 2 copy moveto
	2 copy vpt 90 270 arc closepath fill
	vpt 0 360 arc closepath} bind def
/C7 {BL [] 0 setdash 2 copy moveto
	2 copy vpt 0 270 arc closepath fill
	vpt 0 360 arc closepath} bind def
/C8 {BL [] 0 setdash 2 copy moveto
	2 copy vpt 270 360 arc closepath fill
	vpt 0 360 arc closepath} bind def
/C9 {BL [] 0 setdash 2 copy moveto
	2 copy vpt 270 450 arc closepath fill
	vpt 0 360 arc closepath} bind def
/C10 {BL [] 0 setdash 2 copy 2 copy moveto vpt 270 360 arc closepath fill
	2 copy moveto
	2 copy vpt 90 180 arc closepath fill
	vpt 0 360 arc closepath} bind def
/C11 {BL [] 0 setdash 2 copy moveto
	2 copy vpt 0 180 arc closepath fill
	2 copy moveto
	2 copy vpt 270 360 arc closepath fill
	vpt 0 360 arc closepath} bind def
/C12 {BL [] 0 setdash 2 copy moveto
	2 copy vpt 180 360 arc closepath fill
	vpt 0 360 arc closepath} bind def
/C13 {BL [] 0 setdash 2 copy moveto
	2 copy vpt 0 90 arc closepath fill
	2 copy moveto
	2 copy vpt 180 360 arc closepath fill
	vpt 0 360 arc closepath} bind def
/C14 {BL [] 0 setdash 2 copy moveto
	2 copy vpt 90 360 arc closepath fill
	vpt 0 360 arc} bind def
/C15 {BL [] 0 setdash 2 copy vpt 0 360 arc closepath fill
	vpt 0 360 arc closepath} bind def
/Rec {newpath 4 2 roll moveto 1 index 0 rlineto 0 exch rlineto
	neg 0 rlineto closepath} bind def
/Square {dup Rec} bind def
/Bsquare {vpt sub exch vpt sub exch vpt2 Square} bind def
/S0 {BL [] 0 setdash 2 copy moveto 0 vpt rlineto BL Bsquare} bind def
/S1 {BL [] 0 setdash 2 copy vpt Square fill Bsquare} bind def
/S2 {BL [] 0 setdash 2 copy exch vpt sub exch vpt Square fill Bsquare} bind def
/S3 {BL [] 0 setdash 2 copy exch vpt sub exch vpt2 vpt Rec fill Bsquare} bind def
/S4 {BL [] 0 setdash 2 copy exch vpt sub exch vpt sub vpt Square fill Bsquare} bind def
/S5 {BL [] 0 setdash 2 copy 2 copy vpt Square fill
	exch vpt sub exch vpt sub vpt Square fill Bsquare} bind def
/S6 {BL [] 0 setdash 2 copy exch vpt sub exch vpt sub vpt vpt2 Rec fill Bsquare} bind def
/S7 {BL [] 0 setdash 2 copy exch vpt sub exch vpt sub vpt vpt2 Rec fill
	2 copy vpt Square fill Bsquare} bind def
/S8 {BL [] 0 setdash 2 copy vpt sub vpt Square fill Bsquare} bind def
/S9 {BL [] 0 setdash 2 copy vpt sub vpt vpt2 Rec fill Bsquare} bind def
/S10 {BL [] 0 setdash 2 copy vpt sub vpt Square fill 2 copy exch vpt sub exch vpt Square fill
	Bsquare} bind def
/S11 {BL [] 0 setdash 2 copy vpt sub vpt Square fill 2 copy exch vpt sub exch vpt2 vpt Rec fill
	Bsquare} bind def
/S12 {BL [] 0 setdash 2 copy exch vpt sub exch vpt sub vpt2 vpt Rec fill Bsquare} bind def
/S13 {BL [] 0 setdash 2 copy exch vpt sub exch vpt sub vpt2 vpt Rec fill
	2 copy vpt Square fill Bsquare} bind def
/S14 {BL [] 0 setdash 2 copy exch vpt sub exch vpt sub vpt2 vpt Rec fill
	2 copy exch vpt sub exch vpt Square fill Bsquare} bind def
/S15 {BL [] 0 setdash 2 copy Bsquare fill Bsquare} bind def
/D0 {gsave translate 45 rotate 0 0 S0 stroke grestore} bind def
/D1 {gsave translate 45 rotate 0 0 S1 stroke grestore} bind def
/D2 {gsave translate 45 rotate 0 0 S2 stroke grestore} bind def
/D3 {gsave translate 45 rotate 0 0 S3 stroke grestore} bind def
/D4 {gsave translate 45 rotate 0 0 S4 stroke grestore} bind def
/D5 {gsave translate 45 rotate 0 0 S5 stroke grestore} bind def
/D6 {gsave translate 45 rotate 0 0 S6 stroke grestore} bind def
/D7 {gsave translate 45 rotate 0 0 S7 stroke grestore} bind def
/D8 {gsave translate 45 rotate 0 0 S8 stroke grestore} bind def
/D9 {gsave translate 45 rotate 0 0 S9 stroke grestore} bind def
/D10 {gsave translate 45 rotate 0 0 S10 stroke grestore} bind def
/D11 {gsave translate 45 rotate 0 0 S11 stroke grestore} bind def
/D12 {gsave translate 45 rotate 0 0 S12 stroke grestore} bind def
/D13 {gsave translate 45 rotate 0 0 S13 stroke grestore} bind def
/D14 {gsave translate 45 rotate 0 0 S14 stroke grestore} bind def
/D15 {gsave translate 45 rotate 0 0 S15 stroke grestore} bind def
/DiaE {stroke [] 0 setdash vpt add M
  hpt neg vpt neg V hpt vpt neg V
  hpt vpt V hpt neg vpt V closepath stroke} def
/BoxE {stroke [] 0 setdash exch hpt sub exch vpt add M
  0 vpt2 neg V hpt2 0 V 0 vpt2 V
  hpt2 neg 0 V closepath stroke} def
/TriUE {stroke [] 0 setdash vpt 1.12 mul add M
  hpt neg vpt -1.62 mul V
  hpt 2 mul 0 V
  hpt neg vpt 1.62 mul V closepath stroke} def
/TriDE {stroke [] 0 setdash vpt 1.12 mul sub M
  hpt neg vpt 1.62 mul V
  hpt 2 mul 0 V
  hpt neg vpt -1.62 mul V closepath stroke} def
/PentE {stroke [] 0 setdash gsave
  translate 0 hpt M 4 {72 rotate 0 hpt L} repeat
  closepath stroke grestore} def
/CircE {stroke [] 0 setdash 
  hpt 0 360 arc stroke} def
/Opaque {gsave closepath 1 setgray fill grestore 0 setgray closepath} def
/DiaW {stroke [] 0 setdash vpt add M
  hpt neg vpt neg V hpt vpt neg V
  hpt vpt V hpt neg vpt V Opaque stroke} def
/BoxW {stroke [] 0 setdash exch hpt sub exch vpt add M
  0 vpt2 neg V hpt2 0 V 0 vpt2 V
  hpt2 neg 0 V Opaque stroke} def
/TriUW {stroke [] 0 setdash vpt 1.12 mul add M
  hpt neg vpt -1.62 mul V
  hpt 2 mul 0 V
  hpt neg vpt 1.62 mul V Opaque stroke} def
/TriDW {stroke [] 0 setdash vpt 1.12 mul sub M
  hpt neg vpt 1.62 mul V
  hpt 2 mul 0 V
  hpt neg vpt -1.62 mul V Opaque stroke} def
/PentW {stroke [] 0 setdash gsave
  translate 0 hpt M 4 {72 rotate 0 hpt L} repeat
  Opaque stroke grestore} def
/CircW {stroke [] 0 setdash 
  hpt 0 360 arc Opaque stroke} def
/BoxFill {gsave Rec 1 setgray fill grestore} def
/Density {
  /Fillden exch def
  currentrgbcolor
  /ColB exch def /ColG exch def /ColR exch def
  /ColR ColR Fillden mul Fillden sub 1 add def
  /ColG ColG Fillden mul Fillden sub 1 add def
  /ColB ColB Fillden mul Fillden sub 1 add def
  ColR ColG ColB setrgbcolor} def
/BoxColFill {gsave Rec PolyFill} def
/PolyFill {gsave Density fill grestore grestore} def
/h {rlineto rlineto rlineto gsave closepath fill grestore} bind def
%
% PostScript Level 1 Pattern Fill routine for rectangles
% Usage: x y w h s a XX PatternFill
%	x,y = lower left corner of box to be filled
%	w,h = width and height of box
%	  a = angle in degrees between lines and x-axis
%	 XX = 0/1 for no/yes cross-hatch
%
/PatternFill {gsave /PFa [ 9 2 roll ] def
  PFa 0 get PFa 2 get 2 div add PFa 1 get PFa 3 get 2 div add translate
  PFa 2 get -2 div PFa 3 get -2 div PFa 2 get PFa 3 get Rec
  TransparentPatterns {} {gsave 1 setgray fill grestore} ifelse
  clip
  currentlinewidth 0.5 mul setlinewidth
  /PFs PFa 2 get dup mul PFa 3 get dup mul add sqrt def
  0 0 M PFa 5 get rotate PFs -2 div dup translate
  0 1 PFs PFa 4 get div 1 add floor cvi
	{PFa 4 get mul 0 M 0 PFs V} for
  0 PFa 6 get ne {
	0 1 PFs PFa 4 get div 1 add floor cvi
	{PFa 4 get mul 0 2 1 roll M PFs 0 V} for
 } if
  stroke grestore} def
%
/languagelevel where
 {pop languagelevel} {1} ifelse
dup 2 lt
	{/InterpretLevel1 true def
	 /InterpretLevel3 false def}
	{/InterpretLevel1 Level1 def
	 2 gt
	    {/InterpretLevel3 Level3 def}
	    {/InterpretLevel3 false def}
	 ifelse }
 ifelse
%
% PostScript level 2 pattern fill definitions
%
/Level2PatternFill {
/Tile8x8 {/PaintType 2 /PatternType 1 /TilingType 1 /BBox [0 0 8 8] /XStep 8 /YStep 8}
	bind def
/KeepColor {currentrgbcolor [/Pattern /DeviceRGB] setcolorspace} bind def
<< Tile8x8
 /PaintProc {0.5 setlinewidth pop 0 0 M 8 8 L 0 8 M 8 0 L stroke} 
>> matrix makepattern
/Pat1 exch def
<< Tile8x8
 /PaintProc {0.5 setlinewidth pop 0 0 M 8 8 L 0 8 M 8 0 L stroke
	0 4 M 4 8 L 8 4 L 4 0 L 0 4 L stroke}
>> matrix makepattern
/Pat2 exch def
<< Tile8x8
 /PaintProc {0.5 setlinewidth pop 0 0 M 0 8 L
	8 8 L 8 0 L 0 0 L fill}
>> matrix makepattern
/Pat3 exch def
<< Tile8x8
 /PaintProc {0.5 setlinewidth pop -4 8 M 8 -4 L
	0 12 M 12 0 L stroke}
>> matrix makepattern
/Pat4 exch def
<< Tile8x8
 /PaintProc {0.5 setlinewidth pop -4 0 M 8 12 L
	0 -4 M 12 8 L stroke}
>> matrix makepattern
/Pat5 exch def
<< Tile8x8
 /PaintProc {0.5 setlinewidth pop -2 8 M 4 -4 L
	0 12 M 8 -4 L 4 12 M 10 0 L stroke}
>> matrix makepattern
/Pat6 exch def
<< Tile8x8
 /PaintProc {0.5 setlinewidth pop -2 0 M 4 12 L
	0 -4 M 8 12 L 4 -4 M 10 8 L stroke}
>> matrix makepattern
/Pat7 exch def
<< Tile8x8
 /PaintProc {0.5 setlinewidth pop 8 -2 M -4 4 L
	12 0 M -4 8 L 12 4 M 0 10 L stroke}
>> matrix makepattern
/Pat8 exch def
<< Tile8x8
 /PaintProc {0.5 setlinewidth pop 0 -2 M 12 4 L
	-4 0 M 12 8 L -4 4 M 8 10 L stroke}
>> matrix makepattern
/Pat9 exch def
/Pattern1 {PatternBgnd KeepColor Pat1 setpattern} bind def
/Pattern2 {PatternBgnd KeepColor Pat2 setpattern} bind def
/Pattern3 {PatternBgnd KeepColor Pat3 setpattern} bind def
/Pattern4 {PatternBgnd KeepColor Landscape {Pat5} {Pat4} ifelse setpattern} bind def
/Pattern5 {PatternBgnd KeepColor Landscape {Pat4} {Pat5} ifelse setpattern} bind def
/Pattern6 {PatternBgnd KeepColor Landscape {Pat9} {Pat6} ifelse setpattern} bind def
/Pattern7 {PatternBgnd KeepColor Landscape {Pat8} {Pat7} ifelse setpattern} bind def
} def
%
%
%End of PostScript Level 2 code
%
/PatternBgnd {
  TransparentPatterns {} {gsave 1 setgray fill grestore} ifelse
} def
%
% Substitute for Level 2 pattern fill codes with
% grayscale if Level 2 support is not selected.
%
/Level1PatternFill {
/Pattern1 {0.250 Density} bind def
/Pattern2 {0.500 Density} bind def
/Pattern3 {0.750 Density} bind def
/Pattern4 {0.125 Density} bind def
/Pattern5 {0.375 Density} bind def
/Pattern6 {0.625 Density} bind def
/Pattern7 {0.875 Density} bind def
} def
%
% Now test for support of Level 2 code
%
Level1 {Level1PatternFill} {Level2PatternFill} ifelse
%
/Symbol-Oblique /Symbol findfont [1 0 .167 1 0 0] makefont
dup length dict begin {1 index /FID eq {pop pop} {def} ifelse} forall
currentdict end definefont pop
%
/MFshow {
   { dup 5 get 3 ge
     { 5 get 3 eq {gsave} {grestore} ifelse }
     {dup dup 0 get findfont exch 1 get scalefont setfont
     [ currentpoint ] exch dup 2 get 0 exch R dup 5 get 2 ne {dup dup 6
     get exch 4 get {textshow} {stringwidth pop 0 R} ifelse }if dup 5 get 0 eq
     {dup 3 get {2 get neg 0 exch R pop} {pop aload pop M} ifelse} {dup 5
     get 1 eq {dup 2 get exch dup 3 get exch 6 get stringwidth pop -2 div
     dup 0 R} {dup 6 get stringwidth pop -2 div 0 R 6 get
     textshow 2 index {aload pop M neg 3 -1 roll neg R pop pop} {pop pop pop
     pop aload pop M} ifelse }ifelse }ifelse }
     ifelse }
   forall} def
/Gswidth {dup type /stringtype eq {stringwidth} {pop (n) stringwidth} ifelse} def
/MFwidth {0 exch { dup 5 get 3 ge { 5 get 3 eq { 0 } { pop } ifelse }
 {dup 3 get{dup dup 0 get findfont exch 1 get scalefont setfont
     6 get Gswidth pop add} {pop} ifelse} ifelse} forall} def
/MLshow { currentpoint stroke M
  0 exch R
  Blacktext {gsave 0 setgray MFshow grestore} {MFshow} ifelse } bind def
/MRshow { currentpoint stroke M
  exch dup MFwidth neg 3 -1 roll R
  Blacktext {gsave 0 setgray MFshow grestore} {MFshow} ifelse } bind def
/MCshow { currentpoint stroke M
  exch dup MFwidth -2 div 3 -1 roll R
  Blacktext {gsave 0 setgray MFshow grestore} {MFshow} ifelse } bind def
/XYsave    { [( ) 1 2 true false 3 ()] } bind def
/XYrestore { [( ) 1 2 true false 4 ()] } bind def
Level1 SuppressPDFMark or 
{} {
/SDict 10 dict def
systemdict /pdfmark known not {
  userdict /pdfmark systemdict /cleartomark get put
} if
SDict begin [
  /Title (TcpNewReno-download-finishtime-50UE-panoramic.eps)
  /Subject (gnuplot plot)
  /Creator (gnuplot 5.0 patchlevel 3)
  /Author (nat)
%  /Producer (gnuplot)
%  /Keywords ()
  /CreationDate (Tue Jun  7 16:10:53 2016)
  /DOCINFO pdfmark
end
} ifelse
%
% Support for boxed text - Ethan A Merritt May 2005
%
/InitTextBox { userdict /TBy2 3 -1 roll put userdict /TBx2 3 -1 roll put
           userdict /TBy1 3 -1 roll put userdict /TBx1 3 -1 roll put
	   /Boxing true def } def
/ExtendTextBox { Boxing
    { gsave dup false charpath pathbbox
      dup TBy2 gt {userdict /TBy2 3 -1 roll put} {pop} ifelse
      dup TBx2 gt {userdict /TBx2 3 -1 roll put} {pop} ifelse
      dup TBy1 lt {userdict /TBy1 3 -1 roll put} {pop} ifelse
      dup TBx1 lt {userdict /TBx1 3 -1 roll put} {pop} ifelse
      grestore } if } def
/PopTextBox { newpath TBx1 TBxmargin sub TBy1 TBymargin sub M
               TBx1 TBxmargin sub TBy2 TBymargin add L
	       TBx2 TBxmargin add TBy2 TBymargin add L
	       TBx2 TBxmargin add TBy1 TBymargin sub L closepath } def
/DrawTextBox { PopTextBox stroke /Boxing false def} def
/FillTextBox { gsave PopTextBox 1 1 1 setrgbcolor fill grestore /Boxing false def} def
0 0 0 0 InitTextBox
/TBxmargin 20 def
/TBymargin 20 def
/Boxing false def
/textshow { ExtendTextBox Gshow } def
%
% redundant definitions for compatibility with prologue.ps older than 5.0.2
/LTB {BL [] LCb DL} def
/LTb {PL [] LCb DL} def
end
%%EndProlog
%%Page: 1 1
gnudict begin
gsave
doclip
50 50 translate
0.050 0.050 scale
0 setgray
newpath
(Arial) findfont 200 scalefont setfont
BackgroundColor 0 lt 3 1 roll 0 lt exch 0 lt or or not {BackgroundColor C 1.000 0 0 14400.00 5040.00 BoxColFill} if
1.000 UL
LTb
0.00 0.00 0.00 C 0.500 UL
LTa
0.50 0.50 0.50 C 980 1000 M
12139 0 V
stroke
1.000 UL
LTb
0.00 0.00 0.00 C 980 1000 M
63 0 V
stroke
860 1000 M
[ [(Arial) 200.0 0.0 true true 0 ( 0)]
] -66.7 MRshow
1.000 UL
LTb
0.00 0.00 0.00 C 0.500 UL
LTa
0.50 0.50 0.50 C 980 1475 M
12139 0 V
stroke
1.000 UL
LTb
0.00 0.00 0.00 C 980 1475 M
63 0 V
stroke
860 1475 M
[ [(Arial) 200.0 0.0 true true 0 ( 20)]
] -66.7 MRshow
1.000 UL
LTb
0.00 0.00 0.00 C 0.500 UL
LTa
0.50 0.50 0.50 C 980 1950 M
12139 0 V
stroke
1.000 UL
LTb
0.00 0.00 0.00 C 980 1950 M
63 0 V
stroke
860 1950 M
[ [(Arial) 200.0 0.0 true true 0 ( 40)]
] -66.7 MRshow
1.000 UL
LTb
0.00 0.00 0.00 C 0.500 UL
LTa
0.50 0.50 0.50 C 980 2425 M
12139 0 V
stroke
1.000 UL
LTb
0.00 0.00 0.00 C 980 2425 M
63 0 V
stroke
860 2425 M
[ [(Arial) 200.0 0.0 true true 0 ( 60)]
] -66.7 MRshow
1.000 UL
LTb
0.00 0.00 0.00 C 0.500 UL
LTa
0.50 0.50 0.50 C 980 2900 M
12139 0 V
stroke
1.000 UL
LTb
0.00 0.00 0.00 C 980 2900 M
63 0 V
stroke
860 2900 M
[ [(Arial) 200.0 0.0 true true 0 ( 80)]
] -66.7 MRshow
1.000 UL
LTb
0.00 0.00 0.00 C 0.500 UL
LTa
0.50 0.50 0.50 C 980 3374 M
12139 0 V
stroke
1.000 UL
LTb
0.00 0.00 0.00 C 980 3374 M
63 0 V
stroke
860 3374 M
[ [(Arial) 200.0 0.0 true true 0 ( 100)]
] -66.7 MRshow
1.000 UL
LTb
0.00 0.00 0.00 C 0.500 UL
LTa
0.50 0.50 0.50 C 980 3849 M
12139 0 V
stroke
1.000 UL
LTb
0.00 0.00 0.00 C 980 3849 M
63 0 V
stroke
860 3849 M
[ [(Arial) 200.0 0.0 true true 0 ( 120)]
] -66.7 MRshow
1.000 UL
LTb
0.00 0.00 0.00 C 0.500 UL
LTa
0.50 0.50 0.50 C 980 4324 M
12139 0 V
stroke
1.000 UL
LTb
0.00 0.00 0.00 C 980 4324 M
63 0 V
stroke
860 4324 M
[ [(Arial) 200.0 0.0 true true 0 ( 140)]
] -66.7 MRshow
1.000 UL
LTb
0.00 0.00 0.00 C 0.500 UL
LTa
0.50 0.50 0.50 C 980 4799 M
12139 0 V
stroke
1.000 UL
LTb
0.00 0.00 0.00 C 980 4799 M
63 0 V
stroke
860 4799 M
[ [(Arial) 200.0 0.0 true true 0 ( 160)]
] -66.7 MRshow
1.000 UL
LTb
0.00 0.00 0.00 C 0.500 UL
LTa
0.50 0.50 0.50 C 1235 1000 M
0 3799 V
stroke
1.000 UL
LTb
0.00 0.00 0.00 C 1235 1000 M
0 63 V
0 3736 R
0 -63 V
stroke
1235 800 M
[ [(Arial) 200.0 0.0 true true 0 ( 60)]
] -66.7 MCshow
1.000 UL
LTb
0.00 0.00 0.00 C 0.500 UL
LTa
0.50 0.50 0.50 C 1847 1000 M
0 3799 V
stroke
1.000 UL
LTb
0.00 0.00 0.00 C 1847 1000 M
0 63 V
0 3736 R
0 -63 V
stroke
1847 800 M
[ [(Arial) 200.0 0.0 true true 0 ( 120)]
] -66.7 MCshow
1.000 UL
LTb
0.00 0.00 0.00 C 0.500 UL
LTa
0.50 0.50 0.50 C 2459 1000 M
0 3799 V
stroke
1.000 UL
LTb
0.00 0.00 0.00 C 2459 1000 M
0 63 V
0 3736 R
0 -63 V
stroke
2459 800 M
[ [(Arial) 200.0 0.0 true true 0 ( 180)]
] -66.7 MCshow
1.000 UL
LTb
0.00 0.00 0.00 C 0.500 UL
LTa
0.50 0.50 0.50 C 3071 1000 M
0 3799 V
stroke
1.000 UL
LTb
0.00 0.00 0.00 C 3071 1000 M
0 63 V
0 3736 R
0 -63 V
stroke
3071 800 M
[ [(Arial) 200.0 0.0 true true 0 ( 240)]
] -66.7 MCshow
1.000 UL
LTb
0.00 0.00 0.00 C 0.500 UL
LTa
0.50 0.50 0.50 C 3683 1000 M
0 3799 V
stroke
1.000 UL
LTb
0.00 0.00 0.00 C 3683 1000 M
0 63 V
0 3736 R
0 -63 V
stroke
3683 800 M
[ [(Arial) 200.0 0.0 true true 0 ( 300)]
] -66.7 MCshow
1.000 UL
LTb
0.00 0.00 0.00 C 0.500 UL
LTa
0.50 0.50 0.50 C 4295 1000 M
0 3799 V
stroke
1.000 UL
LTb
0.00 0.00 0.00 C 4295 1000 M
0 63 V
0 3736 R
0 -63 V
stroke
4295 800 M
[ [(Arial) 200.0 0.0 true true 0 ( 360)]
] -66.7 MCshow
1.000 UL
LTb
0.00 0.00 0.00 C 0.500 UL
LTa
0.50 0.50 0.50 C 4907 1000 M
0 3799 V
stroke
1.000 UL
LTb
0.00 0.00 0.00 C 4907 1000 M
0 63 V
0 3736 R
0 -63 V
stroke
4907 800 M
[ [(Arial) 200.0 0.0 true true 0 ( 420)]
] -66.7 MCshow
1.000 UL
LTb
0.00 0.00 0.00 C 0.500 UL
LTa
0.50 0.50 0.50 C 5519 1000 M
0 3799 V
stroke
1.000 UL
LTb
0.00 0.00 0.00 C 5519 1000 M
0 63 V
0 3736 R
0 -63 V
stroke
5519 800 M
[ [(Arial) 200.0 0.0 true true 0 ( 480)]
] -66.7 MCshow
1.000 UL
LTb
0.00 0.00 0.00 C 0.500 UL
LTa
0.50 0.50 0.50 C 6131 1000 M
0 3799 V
stroke
1.000 UL
LTb
0.00 0.00 0.00 C 6131 1000 M
0 63 V
0 3736 R
0 -63 V
stroke
6131 800 M
[ [(Arial) 200.0 0.0 true true 0 ( 540)]
] -66.7 MCshow
1.000 UL
LTb
0.00 0.00 0.00 C 0.500 UL
LTa
0.50 0.50 0.50 C 6743 1000 M
0 3799 V
stroke
1.000 UL
LTb
0.00 0.00 0.00 C 6743 1000 M
0 63 V
0 3736 R
0 -63 V
stroke
6743 800 M
[ [(Arial) 200.0 0.0 true true 0 ( 600)]
] -66.7 MCshow
1.000 UL
LTb
0.00 0.00 0.00 C 0.500 UL
LTa
0.50 0.50 0.50 C 7356 1000 M
0 3799 V
stroke
1.000 UL
LTb
0.00 0.00 0.00 C 7356 1000 M
0 63 V
0 3736 R
0 -63 V
stroke
7356 800 M
[ [(Arial) 200.0 0.0 true true 0 ( 660)]
] -66.7 MCshow
1.000 UL
LTb
0.00 0.00 0.00 C 0.500 UL
LTa
0.50 0.50 0.50 C 7968 1000 M
0 3799 V
stroke
1.000 UL
LTb
0.00 0.00 0.00 C 7968 1000 M
0 63 V
0 3736 R
0 -63 V
stroke
7968 800 M
[ [(Arial) 200.0 0.0 true true 0 ( 720)]
] -66.7 MCshow
1.000 UL
LTb
0.00 0.00 0.00 C 0.500 UL
LTa
0.50 0.50 0.50 C 8580 1000 M
0 3799 V
stroke
1.000 UL
LTb
0.00 0.00 0.00 C 8580 1000 M
0 63 V
0 3736 R
0 -63 V
stroke
8580 800 M
[ [(Arial) 200.0 0.0 true true 0 ( 780)]
] -66.7 MCshow
1.000 UL
LTb
0.00 0.00 0.00 C 0.500 UL
LTa
0.50 0.50 0.50 C 9192 1000 M
0 3799 V
stroke
1.000 UL
LTb
0.00 0.00 0.00 C 9192 1000 M
0 63 V
0 3736 R
0 -63 V
stroke
9192 800 M
[ [(Arial) 200.0 0.0 true true 0 ( 840)]
] -66.7 MCshow
1.000 UL
LTb
0.00 0.00 0.00 C 0.500 UL
LTa
0.50 0.50 0.50 C 9804 1000 M
0 3799 V
stroke
1.000 UL
LTb
0.00 0.00 0.00 C 9804 1000 M
0 63 V
0 3736 R
0 -63 V
stroke
9804 800 M
[ [(Arial) 200.0 0.0 true true 0 ( 900)]
] -66.7 MCshow
1.000 UL
LTb
0.00 0.00 0.00 C 0.500 UL
LTa
0.50 0.50 0.50 C 10416 1000 M
0 3799 V
stroke
1.000 UL
LTb
0.00 0.00 0.00 C 10416 1000 M
0 63 V
0 3736 R
0 -63 V
stroke
10416 800 M
[ [(Arial) 200.0 0.0 true true 0 ( 960)]
] -66.7 MCshow
1.000 UL
LTb
0.00 0.00 0.00 C 0.500 UL
LTa
0.50 0.50 0.50 C 11028 1000 M
0 3799 V
stroke
1.000 UL
LTb
0.00 0.00 0.00 C 11028 1000 M
0 63 V
0 3736 R
0 -63 V
stroke
11028 800 M
[ [(Arial) 200.0 0.0 true true 0 ( 1020)]
] -66.7 MCshow
1.000 UL
LTb
0.00 0.00 0.00 C 0.500 UL
LTa
0.50 0.50 0.50 C 11640 1000 M
0 3799 V
stroke
1.000 UL
LTb
0.00 0.00 0.00 C 11640 1000 M
0 63 V
0 3736 R
0 -63 V
stroke
11640 800 M
[ [(Arial) 200.0 0.0 true true 0 ( 1080)]
] -66.7 MCshow
1.000 UL
LTb
0.00 0.00 0.00 C 0.500 UL
LTa
0.50 0.50 0.50 C 12252 1000 M
0 3799 V
stroke
1.000 UL
LTb
0.00 0.00 0.00 C 12252 1000 M
0 63 V
0 3736 R
0 -63 V
stroke
12252 800 M
[ [(Arial) 200.0 0.0 true true 0 ( 1140)]
] -66.7 MCshow
1.000 UL
LTb
0.00 0.00 0.00 C 0.500 UL
LTa
0.50 0.50 0.50 C 12864 1000 M
0 3799 V
stroke
1.000 UL
LTb
0.00 0.00 0.00 C 12864 1000 M
0 63 V
0 3736 R
0 -63 V
stroke
12864 800 M
[ [(Arial) 200.0 0.0 true true 0 ( 1200)]
] -66.7 MCshow
1.000 UL
LTb
0.00 0.00 0.00 C 13119 1000 M
-63 0 V
stroke
13239 1000 M
[ [(Arial) 200.0 0.0 true true 0 ( 0)]
] -66.7 MLshow
1.000 UL
LTb
0.00 0.00 0.00 C 13119 1760 M
-63 0 V
stroke
13239 1760 M
[ [(Arial) 200.0 0.0 true true 0 ( 20)]
] -66.7 MLshow
1.000 UL
LTb
0.00 0.00 0.00 C 13119 2520 M
-63 0 V
stroke
13239 2520 M
[ [(Arial) 200.0 0.0 true true 0 ( 40)]
] -66.7 MLshow
1.000 UL
LTb
0.00 0.00 0.00 C 13119 3279 M
-63 0 V
stroke
13239 3279 M
[ [(Arial) 200.0 0.0 true true 0 ( 60)]
] -66.7 MLshow
1.000 UL
LTb
0.00 0.00 0.00 C 13119 4039 M
-63 0 V
stroke
13239 4039 M
[ [(Arial) 200.0 0.0 true true 0 ( 80)]
] -66.7 MLshow
1.000 UL
LTb
0.00 0.00 0.00 C 13119 4799 M
-63 0 V
stroke
13239 4799 M
[ [(Arial) 200.0 0.0 true true 0 ( 100)]
] -66.7 MLshow
1.000 UL
LTb
0.00 0.00 0.00 C 1.000 UL
LTB
0.00 0.00 0.00 C 980 4799 M
0 -3799 V
12139 0 V
0 3799 R
980 4799 M
1.000 UP
stroke
LTb
0.00 0.00 0.00 C LCb setrgbcolor
160 2899 M
currentpoint gsave translate -270 rotate 0 0 moveto
[ [(Arial) 200.0 0.0 true true 0 (File download time \(s\))]
] -66.7 MCshow
grestore
LTb
LCb setrgbcolor
13938 2899 M
currentpoint gsave translate -270 rotate 0 0 moveto
[ [(Arial) 200.0 0.0 true true 0 (Average UDP throughput [%])]
] -66.7 MCshow
grestore
LTb
LCb setrgbcolor
7049 500 M
[ [(Arial) 200.0 0.0 true true 0 (Local Backhaul traffic \(Mb/s\))]
] -66.7 MCshow
LTb
% Begin plot #1
1.000 UL
LTb
0.60 0.60 0.00 C LCb setrgbcolor
4714 333 M
[ [(Arial) 180.0 0.0 true true 0 (file download time    :   olsr)]
] -60.0 MRshow
1.000 UL
LTb
0.60 0.60 0.00 C 4822 288 333 90 80 -45 0 PatternFill
4822 288 N
333 0 V
0 90 V
-333 0 V
0 -90 V
Z stroke
1.000 UL
LTb
0.60 0.60 0.00 C 990 1327 154 328 80 -45 0 PatternFill
1067 1082 M
0 245 V
0 328 R
0 599 V
stroke
990 1327 N
154 0 V
0 328 V
-154 0 V
0 -328 V
Z stroke
990 2254 M
154 0 V
990 1082 M
154 0 V
stroke
1602 1315 154 305 80 -45 0 PatternFill
1679 1082 M
0 233 V
0 305 R
0 506 V
stroke
1602 1315 N
154 0 V
0 305 V
-154 0 V
0 -305 V
Z stroke
1602 2126 M
154 0 V
1602 1082 M
154 0 V
stroke
2214 1297 154 344 80 -45 0 PatternFill
2291 1082 M
0 215 V
0 344 R
0 538 V
stroke
2214 1297 N
154 0 V
0 344 V
-154 0 V
0 -344 V
Z stroke
2214 2179 M
154 0 V
2214 1082 M
154 0 V
stroke
2826 1355 154 267 80 -45 0 PatternFill
2903 1082 M
0 273 V
0 267 R
0 444 V
stroke
2826 1355 N
154 0 V
0 267 V
-154 0 V
0 -267 V
Z stroke
2826 2066 M
154 0 V
2826 1082 M
154 0 V
stroke
3438 1384 154 204 80 -45 0 PatternFill
3515 1082 M
0 302 V
0 204 R
0 570 V
stroke
3438 1384 N
154 0 V
0 204 V
-154 0 V
0 -204 V
Z stroke
3438 2158 M
154 0 V
3438 1082 M
154 0 V
stroke
4050 1363 154 267 80 -45 0 PatternFill
4127 1083 M
0 280 V
0 267 R
0 600 V
stroke
4050 1363 N
154 0 V
0 267 V
-154 0 V
0 -267 V
Z stroke
4050 2230 M
154 0 V
4050 1083 M
154 0 V
stroke
4663 1334 154 276 80 -45 0 PatternFill
4740 1083 M
0 251 V
0 276 R
0 522 V
stroke
4663 1334 N
154 0 V
0 276 V
-154 0 V
0 -276 V
Z stroke
4663 2132 M
154 0 V
4663 1083 M
154 0 V
stroke
5275 1305 154 320 80 -45 0 PatternFill
5352 1082 M
0 223 V
0 320 R
0 615 V
stroke
5275 1305 N
154 0 V
0 320 V
-154 0 V
0 -320 V
Z stroke
5275 2240 M
154 0 V
5275 1082 M
154 0 V
stroke
5887 1373 154 277 80 -45 0 PatternFill
5964 1082 M
0 291 V
0 277 R
0 575 V
stroke
5887 1373 N
154 0 V
0 277 V
-154 0 V
0 -277 V
Z stroke
5887 2225 M
154 0 V
5887 1082 M
154 0 V
stroke
6499 1308 154 332 80 -45 0 PatternFill
6576 1082 M
0 226 V
0 332 R
0 485 V
stroke
6499 1308 N
154 0 V
0 332 V
-154 0 V
0 -332 V
Z stroke
6499 2125 M
154 0 V
6499 1082 M
154 0 V
stroke
7111 1312 154 326 80 -45 0 PatternFill
7188 1082 M
0 230 V
0 326 R
0 361 V
stroke
7111 1312 N
154 0 V
0 326 V
-154 0 V
0 -326 V
Z stroke
7111 1999 M
154 0 V
7111 1082 M
154 0 V
stroke
7723 1306 154 302 80 -45 0 PatternFill
7800 1082 M
0 224 V
0 302 R
0 491 V
stroke
7723 1306 N
154 0 V
0 302 V
-154 0 V
0 -302 V
Z stroke
7723 2099 M
154 0 V
7723 1082 M
154 0 V
stroke
8335 1329 154 265 80 -45 0 PatternFill
8412 1082 M
0 247 V
0 265 R
0 603 V
stroke
8335 1329 N
154 0 V
0 265 V
-154 0 V
0 -265 V
Z stroke
8335 2197 M
154 0 V
8335 1082 M
154 0 V
stroke
8947 1328 154 327 80 -45 0 PatternFill
9024 1082 M
0 246 V
0 327 R
0 395 V
stroke
8947 1328 N
154 0 V
0 327 V
-154 0 V
0 -327 V
Z stroke
8947 2050 M
154 0 V
8947 1082 M
154 0 V
stroke
9559 1311 154 304 80 -45 0 PatternFill
9636 1082 M
0 229 V
0 304 R
0 493 V
stroke
9559 1311 N
154 0 V
0 304 V
-154 0 V
0 -304 V
Z stroke
9559 2108 M
154 0 V
9559 1082 M
154 0 V
stroke
10171 1322 154 275 80 -45 0 PatternFill
10248 1082 M
0 240 V
0 275 R
0 774 V
stroke
10171 1322 N
154 0 V
0 275 V
-154 0 V
0 -275 V
Z stroke
10171 2371 M
154 0 V
10171 1082 M
154 0 V
stroke
10783 1353 154 267 80 -45 0 PatternFill
10860 1081 M
0 272 V
0 267 R
0 534 V
stroke
10783 1353 N
154 0 V
0 267 V
-154 0 V
0 -267 V
Z stroke
10783 2154 M
154 0 V
10783 1081 M
154 0 V
stroke
11395 1312 154 302 80 -45 0 PatternFill
11472 1081 M
0 231 V
0 302 R
0 633 V
stroke
11395 1312 N
154 0 V
0 302 V
-154 0 V
0 -302 V
Z stroke
11395 2247 M
154 0 V
11395 1081 M
154 0 V
stroke
12007 1343 154 303 80 -45 0 PatternFill
12084 1082 M
0 261 V
0 303 R
0 456 V
stroke
12007 1343 N
154 0 V
0 303 V
-154 0 V
0 -303 V
Z stroke
12007 2102 M
154 0 V
12007 1082 M
154 0 V
stroke
12619 1332 154 305 80 -45 0 PatternFill
12696 1082 M
0 250 V
0 305 R
0 480 V
stroke
12619 1332 N
154 0 V
0 305 V
-154 0 V
0 -305 V
Z stroke
12619 2117 M
154 0 V
12619 1082 M
154 0 V
% End plot #1
% Begin plot #2
stroke
LTb
LCb setrgbcolor

 /TransparentPatterns true def
990 1484 154 0 40 30 0 PatternFill
1067 1484 M
stroke
990 1484 N
154 0 V
-154 0 V
Z stroke
990 1484 M
154 0 V
-154 0 R
154 0 V
stroke

 /TransparentPatterns true def
1602 1462 154 0 40 30 0 PatternFill
1679 1462 M
stroke
1602 1462 N
154 0 V
-154 0 V
Z stroke
1602 1462 M
154 0 V
-154 0 R
154 0 V
stroke

 /TransparentPatterns true def
2214 1471 154 0 40 30 0 PatternFill
2291 1471 M
stroke
2214 1471 N
154 0 V
-154 0 V
Z stroke
2214 1471 M
154 0 V
-154 0 R
154 0 V
stroke

 /TransparentPatterns true def
2826 1475 154 0 40 30 0 PatternFill
2903 1475 M
stroke
2826 1475 N
154 0 V
-154 0 V
Z stroke
2826 1475 M
154 0 V
-154 0 R
154 0 V
stroke

 /TransparentPatterns true def
3438 1478 154 0 40 30 0 PatternFill
3515 1478 M
stroke
3438 1478 N
154 0 V
-154 0 V
Z stroke
3438 1478 M
154 0 V
-154 0 R
154 0 V
stroke

 /TransparentPatterns true def
4050 1497 154 0 40 30 0 PatternFill
4127 1497 M
stroke
4050 1497 N
154 0 V
-154 0 V
Z stroke
4050 1497 M
154 0 V
-154 0 R
154 0 V
stroke

 /TransparentPatterns true def
4663 1472 154 0 40 30 0 PatternFill
4740 1472 M
stroke
4663 1472 N
154 0 V
-154 0 V
Z stroke
4663 1472 M
154 0 V
-154 0 R
154 0 V
stroke

 /TransparentPatterns true def
5275 1477 154 0 40 30 0 PatternFill
5352 1477 M
stroke
5275 1477 N
154 0 V
-154 0 V
Z stroke
5275 1477 M
154 0 V
-154 0 R
154 0 V
stroke

 /TransparentPatterns true def
5887 1506 154 0 40 30 0 PatternFill
5964 1506 M
stroke
5887 1506 N
154 0 V
-154 0 V
Z stroke
5887 1506 M
154 0 V
-154 0 R
154 0 V
stroke

 /TransparentPatterns true def
6499 1469 154 0 40 30 0 PatternFill
6576 1469 M
stroke
6499 1469 N
154 0 V
-154 0 V
Z stroke
6499 1469 M
154 0 V
-154 0 R
154 0 V
stroke

 /TransparentPatterns true def
7111 1471 154 0 40 30 0 PatternFill
7188 1471 M
stroke
7111 1471 N
154 0 V
-154 0 V
Z stroke
7111 1471 M
154 0 V
-154 0 R
154 0 V
stroke

 /TransparentPatterns true def
7723 1483 154 0 40 30 0 PatternFill
7800 1483 M
stroke
7723 1483 N
154 0 V
-154 0 V
Z stroke
7723 1483 M
154 0 V
-154 0 R
154 0 V
stroke

 /TransparentPatterns true def
8335 1472 154 0 40 30 0 PatternFill
8412 1472 M
stroke
8335 1472 N
154 0 V
-154 0 V
Z stroke
8335 1472 M
154 0 V
-154 0 R
154 0 V
stroke

 /TransparentPatterns true def
8947 1481 154 0 40 30 0 PatternFill
9024 1481 M
stroke
8947 1481 N
154 0 V
-154 0 V
Z stroke
8947 1481 M
154 0 V
-154 0 R
154 0 V
stroke

 /TransparentPatterns true def
9559 1476 154 0 40 30 0 PatternFill
9636 1476 M
stroke
9559 1476 N
154 0 V
-154 0 V
Z stroke
9559 1476 M
154 0 V
-154 0 R
154 0 V
stroke

 /TransparentPatterns true def
10171 1487 154 0 40 30 0 PatternFill
10248 1487 M
stroke
10171 1487 N
154 0 V
-154 0 V
Z stroke
10171 1487 M
154 0 V
-154 0 R
154 0 V
stroke

 /TransparentPatterns true def
10783 1488 154 0 40 30 0 PatternFill
10860 1488 M
stroke
10783 1488 N
154 0 V
-154 0 V
Z stroke
10783 1488 M
154 0 V
-154 0 R
154 0 V
stroke

 /TransparentPatterns true def
11395 1475 154 0 40 30 0 PatternFill
11472 1475 M
stroke
11395 1475 N
154 0 V
-154 0 V
Z stroke
11395 1475 M
154 0 V
-154 0 R
154 0 V
stroke

 /TransparentPatterns true def
12007 1490 154 0 40 30 0 PatternFill
12084 1490 M
stroke
12007 1490 N
154 0 V
-154 0 V
Z stroke
12007 1490 M
154 0 V
-154 0 R
154 0 V
stroke

 /TransparentPatterns true def
12619 1470 154 0 40 30 0 PatternFill
12696 1470 M
stroke
12619 1470 N
154 0 V
-154 0 V
Z stroke
12619 1470 M
154 0 V
-154 0 R
154 0 V
% End plot #2
% Begin plot #3
2.000 UP
stroke
LTa
0.60 0.60 0.00 C LCb setrgbcolor
4714 153 M
[ [(Arial) 180.0 0.0 true true 0 (avg. throughput :         )]
] -60.0 MRshow
2.000 UP
1.000 UL
LTa
0.60 0.60 0.00 C 4822 153 M
333 0 V
1067 4172 M
612 -57 V
612 26 V
612 -64 V
612 50 V
612 36 V
612 -48 V
612 57 V
612 -10 V
612 -45 V
612 -67 V
612 54 V
612 48 V
612 -75 V
612 27 V
612 116 V
613 -91 V
612 43 V
612 -68 V
612 0 V
1067 4172 Box
1679 4115 Box
2291 4141 Box
2903 4077 Box
3515 4127 Box
4127 4163 Box
4739 4115 Box
5351 4172 Box
5963 4162 Box
6575 4117 Box
7187 4050 Box
7799 4104 Box
8411 4152 Box
9023 4077 Box
9635 4104 Box
10247 4220 Box
10860 4129 Box
11472 4172 Box
12084 4104 Box
12696 4104 Box
4988 153 Box
% End plot #3
% Begin plot #4
1.000 UL
LTb
0.00 0.00 0.63 C LCb setrgbcolor
8287 333 M
[ [(Arial) 180.0 0.0 true true 0 (per-packet)]
] -60.0 MRshow
1.000 UL
LTb
0.00 0.00 0.63 C 8395 288 333 90 80 45 0 PatternFill
8395 288 N
333 0 V
0 90 V
-333 0 V
0 -90 V
Z stroke
1.000 UL
LTb
0.00 0.00 0.63 C 1159 1126 154 1633 80 45 0 PatternFill
1236 1074 M
0 52 V
0 1633 R
0 417 V
stroke
1159 1126 N
154 0 V
0 1633 V
-154 0 V
0 -1633 V
Z stroke
1159 3176 M
154 0 V
1159 1074 M
154 0 V
stroke
1771 1119 154 1594 80 45 0 PatternFill
1848 1073 M
0 46 V
0 1594 R
0 310 V
stroke
1771 1119 N
154 0 V
0 1594 V
-154 0 V
0 -1594 V
Z stroke
1771 3023 M
154 0 V
1771 1073 M
154 0 V
stroke
2383 1127 154 1581 80 45 0 PatternFill
2460 1078 M
0 49 V
0 1581 R
0 399 V
stroke
2383 1127 N
154 0 V
0 1581 V
-154 0 V
0 -1581 V
Z stroke
2383 3107 M
154 0 V
2383 1078 M
154 0 V
stroke
2995 1142 154 1555 80 45 0 PatternFill
3072 1073 M
0 69 V
0 1555 R
0 426 V
stroke
2995 1142 N
154 0 V
0 1555 V
-154 0 V
0 -1555 V
Z stroke
2995 3123 M
154 0 V
2995 1073 M
154 0 V
stroke
3607 1116 154 1638 80 45 0 PatternFill
3684 1083 M
0 33 V
0 1638 R
0 338 V
stroke
3607 1116 N
154 0 V
0 1638 V
-154 0 V
0 -1638 V
Z stroke
3607 3092 M
154 0 V
3607 1083 M
154 0 V
stroke
4219 1165 154 1579 80 45 0 PatternFill
4296 1072 M
0 93 V
0 1579 R
0 556 V
stroke
4219 1165 N
154 0 V
0 1579 V
-154 0 V
0 -1579 V
Z stroke
4219 3300 M
154 0 V
4219 1072 M
154 0 V
stroke
4831 1146 154 1525 80 45 0 PatternFill
4908 1077 M
0 69 V
0 1525 R
0 462 V
stroke
4831 1146 N
154 0 V
0 1525 V
-154 0 V
0 -1525 V
Z stroke
4831 3133 M
154 0 V
4831 1077 M
154 0 V
stroke
5443 1125 154 1631 80 45 0 PatternFill
5520 1076 M
0 49 V
0 1631 R
0 434 V
stroke
5443 1125 N
154 0 V
0 1631 V
-154 0 V
0 -1631 V
Z stroke
5443 3190 M
154 0 V
5443 1076 M
154 0 V
stroke
6055 1128 154 1569 80 45 0 PatternFill
6132 1076 M
0 52 V
0 1569 R
0 461 V
stroke
6055 1128 N
154 0 V
0 1569 V
-154 0 V
0 -1569 V
Z stroke
6055 3158 M
154 0 V
6055 1076 M
154 0 V
stroke
6667 1130 154 1549 80 45 0 PatternFill
6744 1070 M
0 60 V
0 1549 R
0 500 V
stroke
6667 1130 N
154 0 V
0 1549 V
-154 0 V
0 -1549 V
Z stroke
6667 3179 M
154 0 V
6667 1070 M
154 0 V
stroke
7279 1136 154 1572 80 45 0 PatternFill
7356 1088 M
0 48 V
0 1572 R
0 296 V
stroke
7279 1136 N
154 0 V
0 1572 V
-154 0 V
0 -1572 V
Z stroke
7279 3004 M
154 0 V
7279 1088 M
154 0 V
stroke
7891 1147 154 1630 80 45 0 PatternFill
7968 1073 M
0 74 V
0 1630 R
0 401 V
stroke
7891 1147 N
154 0 V
0 1630 V
-154 0 V
0 -1630 V
Z stroke
7891 3178 M
154 0 V
7891 1073 M
154 0 V
stroke
8503 1146 154 1519 80 45 0 PatternFill
8580 1064 M
0 82 V
0 1519 R
0 478 V
stroke
8503 1146 N
154 0 V
0 1519 V
-154 0 V
0 -1519 V
Z stroke
8503 3143 M
154 0 V
8503 1064 M
154 0 V
stroke
9115 1159 154 1522 80 45 0 PatternFill
9192 1083 M
0 76 V
0 1522 R
0 414 V
stroke
9115 1159 N
154 0 V
0 1522 V
-154 0 V
0 -1522 V
Z stroke
9115 3095 M
154 0 V
9115 1083 M
154 0 V
stroke
9727 1142 154 1547 80 45 0 PatternFill
9804 1079 M
0 63 V
0 1547 R
0 348 V
stroke
9727 1142 N
154 0 V
0 1547 V
-154 0 V
0 -1547 V
Z stroke
9727 3037 M
154 0 V
9727 1079 M
154 0 V
stroke
10339 1180 154 1566 80 45 0 PatternFill
10416 1077 M
0 103 V
0 1566 R
0 471 V
stroke
10339 1180 N
154 0 V
0 1566 V
-154 0 V
0 -1566 V
Z stroke
10339 3217 M
154 0 V
10339 1077 M
154 0 V
stroke
10951 1178 154 1474 80 45 0 PatternFill
11028 1070 M
0 108 V
0 1474 R
0 484 V
stroke
10951 1178 N
154 0 V
0 1474 V
-154 0 V
0 -1474 V
Z stroke
10951 3136 M
154 0 V
10951 1070 M
154 0 V
stroke
11563 1160 154 1461 80 45 0 PatternFill
11640 1069 M
0 91 V
0 1461 R
0 397 V
stroke
11563 1160 N
154 0 V
0 1461 V
-154 0 V
0 -1461 V
Z stroke
11563 3018 M
154 0 V
11563 1069 M
154 0 V
stroke
12175 1167 154 1465 80 45 0 PatternFill
12252 1076 M
0 91 V
0 1465 R
0 418 V
stroke
12175 1167 N
154 0 V
0 1465 V
-154 0 V
0 -1465 V
Z stroke
12175 3050 M
154 0 V
12175 1076 M
154 0 V
stroke
12787 1147 154 1495 80 45 0 PatternFill
12864 1048 M
0 99 V
0 1495 R
0 502 V
stroke
12787 1147 N
154 0 V
0 1495 V
-154 0 V
0 -1495 V
Z stroke
12787 3144 M
154 0 V
12787 1048 M
154 0 V
% End plot #4
% Begin plot #5
stroke
LTb
LCb setrgbcolor

 /TransparentPatterns true def
1159 1749 154 0 80 -45 0 PatternFill
1236 1749 M
stroke
1159 1749 N
154 0 V
-154 0 V
Z stroke
1159 1749 M
154 0 V
-154 0 R
154 0 V
stroke

 /TransparentPatterns true def
1771 1733 154 0 80 -45 0 PatternFill
1848 1733 M
stroke
1771 1733 N
154 0 V
-154 0 V
Z stroke
1771 1733 M
154 0 V
-154 0 R
154 0 V
stroke

 /TransparentPatterns true def
2383 1733 154 0 80 -45 0 PatternFill
2460 1733 M
stroke
2383 1733 N
154 0 V
-154 0 V
Z stroke
2383 1733 M
154 0 V
-154 0 R
154 0 V
stroke

 /TransparentPatterns true def
2995 1732 154 0 80 -45 0 PatternFill
3072 1732 M
stroke
2995 1732 N
154 0 V
-154 0 V
Z stroke
2995 1732 M
154 0 V
-154 0 R
154 0 V
stroke

 /TransparentPatterns true def
3607 1734 154 0 80 -45 0 PatternFill
3684 1734 M
stroke
3607 1734 N
154 0 V
-154 0 V
Z stroke
3607 1734 M
154 0 V
-154 0 R
154 0 V
stroke

 /TransparentPatterns true def
4219 1750 154 0 80 -45 0 PatternFill
4296 1750 M
stroke
4219 1750 N
154 0 V
-154 0 V
Z stroke
4219 1750 M
154 0 V
-154 0 R
154 0 V
stroke

 /TransparentPatterns true def
4831 1745 154 0 80 -45 0 PatternFill
4908 1745 M
stroke
4831 1745 N
154 0 V
-154 0 V
Z stroke
4831 1745 M
154 0 V
-154 0 R
154 0 V
stroke

 /TransparentPatterns true def
5443 1750 154 0 80 -45 0 PatternFill
5520 1750 M
stroke
5443 1750 N
154 0 V
-154 0 V
Z stroke
5443 1750 M
154 0 V
-154 0 R
154 0 V
stroke

 /TransparentPatterns true def
6055 1735 154 0 80 -45 0 PatternFill
6132 1735 M
stroke
6055 1735 N
154 0 V
-154 0 V
Z stroke
6055 1735 M
154 0 V
-154 0 R
154 0 V
stroke

 /TransparentPatterns true def
6667 1735 154 0 80 -45 0 PatternFill
6744 1735 M
stroke
6667 1735 N
154 0 V
-154 0 V
Z stroke
6667 1735 M
154 0 V
-154 0 R
154 0 V
stroke

 /TransparentPatterns true def
7279 1731 154 0 80 -45 0 PatternFill
7356 1731 M
stroke
7279 1731 N
154 0 V
-154 0 V
Z stroke
7279 1731 M
154 0 V
-154 0 R
154 0 V
stroke

 /TransparentPatterns true def
7891 1756 154 0 80 -45 0 PatternFill
7968 1756 M
stroke
7891 1756 N
154 0 V
-154 0 V
Z stroke
7891 1756 M
154 0 V
-154 0 R
154 0 V
stroke

 /TransparentPatterns true def
8503 1744 154 0 80 -45 0 PatternFill
8580 1744 M
stroke
8503 1744 N
154 0 V
-154 0 V
Z stroke
8503 1744 M
154 0 V
-154 0 R
154 0 V
stroke

 /TransparentPatterns true def
9115 1747 154 0 80 -45 0 PatternFill
9192 1747 M
stroke
9115 1747 N
154 0 V
-154 0 V
Z stroke
9115 1747 M
154 0 V
-154 0 R
154 0 V
stroke

 /TransparentPatterns true def
9727 1730 154 0 80 -45 0 PatternFill
9804 1730 M
stroke
9727 1730 N
154 0 V
-154 0 V
Z stroke
9727 1730 M
154 0 V
-154 0 R
154 0 V
stroke

 /TransparentPatterns true def
10339 1763 154 0 80 -45 0 PatternFill
10416 1763 M
stroke
10339 1763 N
154 0 V
-154 0 V
Z stroke
10339 1763 M
154 0 V
-154 0 R
154 0 V
stroke

 /TransparentPatterns true def
10951 1744 154 0 80 -45 0 PatternFill
11028 1744 M
stroke
10951 1744 N
154 0 V
-154 0 V
Z stroke
10951 1744 M
154 0 V
-154 0 R
154 0 V
stroke

 /TransparentPatterns true def
11563 1732 154 0 80 -45 0 PatternFill
11640 1732 M
stroke
11563 1732 N
154 0 V
-154 0 V
Z stroke
11563 1732 M
154 0 V
-154 0 R
154 0 V
stroke

 /TransparentPatterns true def
12175 1757 154 0 80 -45 0 PatternFill
12252 1757 M
stroke
12175 1757 N
154 0 V
-154 0 V
Z stroke
12175 1757 M
154 0 V
-154 0 R
154 0 V
stroke

 /TransparentPatterns true def
12787 1752 154 0 80 -45 0 PatternFill
12864 1752 M
stroke
12787 1752 N
154 0 V
-154 0 V
Z stroke
12787 1752 M
154 0 V
-154 0 R
154 0 V
% End plot #5
% Begin plot #6
2.000 UP
stroke
LTa
0.00 0.00 0.63 C LCb setrgbcolor
8287 153 M
[ [(Arial) 180.0 0.0 true true 0 ( )]
] -60.0 MRshow
2.000 UP
1.000 UL
LTa
0.00 0.00 0.63 C 8395 153 M
333 0 V
1235 4780 M
612 -19 V
612 0 V
612 0 V
612 -4 V
612 29 V
612 -25 V
612 26 V
612 -26 V
612 0 V
613 -3 V
612 3 V
612 -1 V
612 -3 V
612 1 V
612 29 V
612 -27 V
612 -2 V
612 0 V
612 2 V
1235 4780 Circle
1847 4761 Circle
2459 4761 Circle
3071 4761 Circle
3683 4757 Circle
4295 4786 Circle
4907 4761 Circle
5519 4787 Circle
6131 4761 Circle
6743 4761 Circle
7356 4758 Circle
7968 4761 Circle
8580 4760 Circle
9192 4757 Circle
9804 4758 Circle
10416 4787 Circle
11028 4760 Circle
11640 4758 Circle
12252 4758 Circle
12864 4760 Circle
8561 153 Circle
% End plot #6
% Begin plot #7
1.000 UL
LTb
0.00 0.38 0.82 C LCb setrgbcolor
11860 333 M
[ [(Arial) 180.0 0.0 true true 0 (per-flow)]
] -60.0 MRshow
1.000 UL
LTb
0.00 0.38 0.82 C 11968 288 333 90 40 30 0 PatternFill
11968 288 N
333 0 V
0 90 V
-333 0 V
0 -90 V
Z stroke
1.000 UL
LTb
0.00 0.38 0.82 C 1327 1139 154 191 40 30 0 PatternFill
1404 1075 M
0 64 V
0 191 R
0 620 V
stroke
1327 1139 N
154 0 V
0 191 V
-154 0 V
0 -191 V
Z stroke
1327 1950 M
154 0 V
1327 1075 M
154 0 V
stroke
1939 1139 154 233 40 30 0 PatternFill
2016 1081 M
0 58 V
0 233 R
0 682 V
stroke
1939 1139 N
154 0 V
0 233 V
-154 0 V
0 -233 V
Z stroke
1939 2054 M
154 0 V
1939 1081 M
154 0 V
stroke
2551 1124 154 283 40 30 0 PatternFill
2628 1068 M
0 56 V
0 283 R
0 547 V
stroke
2551 1124 N
154 0 V
0 283 V
-154 0 V
0 -283 V
Z stroke
2551 1954 M
154 0 V
2551 1068 M
154 0 V
stroke
3163 1134 154 231 40 30 0 PatternFill
3240 1085 M
0 49 V
0 231 R
0 692 V
stroke
3163 1134 N
154 0 V
0 231 V
-154 0 V
0 -231 V
Z stroke
3163 2057 M
154 0 V
3163 1085 M
154 0 V
stroke
3775 1125 154 267 40 30 0 PatternFill
3852 1070 M
0 55 V
0 267 R
0 382 V
stroke
3775 1125 N
154 0 V
0 267 V
-154 0 V
0 -267 V
Z stroke
3775 1774 M
154 0 V
3775 1070 M
154 0 V
stroke
4387 1125 154 245 40 30 0 PatternFill
4464 1078 M
0 47 V
0 245 R
0 740 V
stroke
4387 1125 N
154 0 V
0 245 V
-154 0 V
0 -245 V
Z stroke
4387 2110 M
154 0 V
4387 1078 M
154 0 V
stroke
4999 1136 154 182 40 30 0 PatternFill
5076 1081 M
0 55 V
0 182 R
0 612 V
stroke
4999 1136 N
154 0 V
0 182 V
-154 0 V
0 -182 V
Z stroke
4999 1930 M
154 0 V
4999 1081 M
154 0 V
stroke
5611 1123 154 218 40 30 0 PatternFill
5688 1079 M
0 44 V
0 218 R
0 562 V
stroke
5611 1123 N
154 0 V
0 218 V
-154 0 V
0 -218 V
Z stroke
5611 1903 M
154 0 V
5611 1079 M
154 0 V
stroke
6223 1142 154 175 40 30 0 PatternFill
6300 1079 M
0 63 V
0 175 R
0 507 V
stroke
6223 1142 N
154 0 V
0 175 V
-154 0 V
0 -175 V
Z stroke
6223 1824 M
154 0 V
6223 1079 M
154 0 V
stroke
6835 1119 154 264 40 30 0 PatternFill
6912 1088 M
0 31 V
0 264 R
0 497 V
stroke
6835 1119 N
154 0 V
0 264 V
-154 0 V
0 -264 V
Z stroke
6835 1880 M
154 0 V
6835 1088 M
154 0 V
stroke
7447 1132 154 259 40 30 0 PatternFill
7524 1083 M
0 49 V
0 259 R
0 580 V
stroke
7447 1132 N
154 0 V
0 259 V
-154 0 V
0 -259 V
Z stroke
7447 1971 M
154 0 V
7447 1083 M
154 0 V
stroke
8059 1134 154 220 40 30 0 PatternFill
8136 1078 M
0 56 V
0 220 R
0 479 V
stroke
8059 1134 N
154 0 V
0 220 V
-154 0 V
0 -220 V
Z stroke
8059 1833 M
154 0 V
8059 1078 M
154 0 V
stroke
8671 1156 154 176 40 30 0 PatternFill
8748 1079 M
0 77 V
0 176 R
0 682 V
stroke
8671 1156 N
154 0 V
0 176 V
-154 0 V
0 -176 V
Z stroke
8671 2014 M
154 0 V
8671 1079 M
154 0 V
stroke
9283 1151 154 215 40 30 0 PatternFill
9360 1083 M
0 68 V
0 215 R
0 663 V
stroke
9283 1151 N
154 0 V
0 215 V
-154 0 V
0 -215 V
Z stroke
9283 2029 M
154 0 V
9283 1083 M
154 0 V
stroke
9896 1139 154 242 40 30 0 PatternFill
9973 1080 M
0 59 V
0 242 R
0 742 V
stroke
9896 1139 N
154 0 V
0 242 V
-154 0 V
0 -242 V
Z stroke
9896 2123 M
154 0 V
9896 1080 M
154 0 V
stroke
10508 1155 154 222 40 30 0 PatternFill
10585 1072 M
0 83 V
0 222 R
0 263 V
stroke
10508 1155 N
154 0 V
0 222 V
-154 0 V
0 -222 V
Z stroke
10508 1640 M
154 0 V
-154 -568 R
154 0 V
stroke
11120 1154 154 243 40 30 0 PatternFill
11197 1076 M
0 78 V
0 243 R
0 759 V
stroke
11120 1154 N
154 0 V
0 243 V
-154 0 V
0 -243 V
Z stroke
11120 2156 M
154 0 V
11120 1076 M
154 0 V
stroke
11732 1198 154 180 40 30 0 PatternFill
11809 1074 M
0 124 V
0 180 R
0 555 V
stroke
11732 1198 N
154 0 V
0 180 V
-154 0 V
0 -180 V
Z stroke
11732 1933 M
154 0 V
-154 -859 R
154 0 V
stroke
12344 1156 154 219 40 30 0 PatternFill
12421 1081 M
0 75 V
0 219 R
0 726 V
stroke
12344 1156 N
154 0 V
0 219 V
-154 0 V
0 -219 V
Z stroke
12344 2101 M
154 0 V
12344 1081 M
154 0 V
stroke
12956 1124 154 302 40 30 0 PatternFill
13033 1062 M
0 62 V
0 302 R
0 600 V
stroke
12956 1124 N
154 0 V
0 302 V
-154 0 V
0 -302 V
Z stroke
12956 2026 M
154 0 V
-154 -964 R
154 0 V
% End plot #7
% Begin plot #8
stroke
LTb
LCb setrgbcolor

 /TransparentPatterns true def
1327 1248 154 0 40 -30 0 PatternFill
1404 1248 M
stroke
1327 1248 N
154 0 V
-154 0 V
Z stroke
1327 1248 M
154 0 V
-154 0 R
154 0 V
stroke

 /TransparentPatterns true def
1939 1264 154 0 40 -30 0 PatternFill
2016 1264 M
stroke
1939 1264 N
154 0 V
-154 0 V
Z stroke
1939 1264 M
154 0 V
-154 0 R
154 0 V
stroke

 /TransparentPatterns true def
2551 1263 154 0 40 -30 0 PatternFill
2628 1263 M
stroke
2551 1263 N
154 0 V
-154 0 V
Z stroke
2551 1263 M
154 0 V
-154 0 R
154 0 V
stroke

 /TransparentPatterns true def
3163 1266 154 0 40 -30 0 PatternFill
3240 1266 M
stroke
3163 1266 N
154 0 V
-154 0 V
Z stroke
3163 1266 M
154 0 V
-154 0 R
154 0 V
stroke

 /TransparentPatterns true def
3775 1264 154 0 40 -30 0 PatternFill
3852 1264 M
stroke
3775 1264 N
154 0 V
-154 0 V
Z stroke
3775 1264 M
154 0 V
-154 0 R
154 0 V
stroke

 /TransparentPatterns true def
4387 1259 154 0 40 -30 0 PatternFill
4464 1259 M
stroke
4387 1259 N
154 0 V
-154 0 V
Z stroke
4387 1259 M
154 0 V
-154 0 R
154 0 V
stroke

 /TransparentPatterns true def
4999 1247 154 0 40 -30 0 PatternFill
5076 1247 M
stroke
4999 1247 N
154 0 V
-154 0 V
Z stroke
4999 1247 M
154 0 V
-154 0 R
154 0 V
stroke

 /TransparentPatterns true def
5611 1249 154 0 40 -30 0 PatternFill
5688 1249 M
stroke
5611 1249 N
154 0 V
-154 0 V
Z stroke
5611 1249 M
154 0 V
-154 0 R
154 0 V
stroke

 /TransparentPatterns true def
6223 1244 154 0 40 -30 0 PatternFill
6300 1244 M
stroke
6223 1244 N
154 0 V
-154 0 V
Z stroke
6223 1244 M
154 0 V
-154 0 R
154 0 V
stroke

 /TransparentPatterns true def
6835 1263 154 0 40 -30 0 PatternFill
6912 1263 M
stroke
6835 1263 N
154 0 V
-154 0 V
Z stroke
6835 1263 M
154 0 V
-154 0 R
154 0 V
stroke

 /TransparentPatterns true def
7447 1271 154 0 40 -30 0 PatternFill
7524 1271 M
stroke
7447 1271 N
154 0 V
-154 0 V
Z stroke
7447 1271 M
154 0 V
-154 0 R
154 0 V
stroke

 /TransparentPatterns true def
8059 1271 154 0 40 -30 0 PatternFill
8136 1271 M
stroke
8059 1271 N
154 0 V
-154 0 V
Z stroke
8059 1271 M
154 0 V
-154 0 R
154 0 V
stroke

 /TransparentPatterns true def
8671 1252 154 0 40 -30 0 PatternFill
8748 1252 M
stroke
8671 1252 N
154 0 V
-154 0 V
Z stroke
8671 1252 M
154 0 V
-154 0 R
154 0 V
stroke

 /TransparentPatterns true def
9283 1273 154 0 40 -30 0 PatternFill
9360 1273 M
stroke
9283 1273 N
154 0 V
-154 0 V
Z stroke
9283 1273 M
154 0 V
-154 0 R
154 0 V
stroke

 /TransparentPatterns true def
9896 1270 154 0 40 -30 0 PatternFill
9973 1270 M
stroke
9896 1270 N
154 0 V
-154 0 V
Z stroke
9896 1270 M
154 0 V
-154 0 R
154 0 V
stroke

 /TransparentPatterns true def
10508 1270 154 0 40 -30 0 PatternFill
10585 1270 M
stroke
10508 1270 N
154 0 V
-154 0 V
Z stroke
10508 1270 M
154 0 V
-154 0 R
154 0 V
stroke

 /TransparentPatterns true def
11120 1278 154 0 40 -30 0 PatternFill
11197 1278 M
stroke
11120 1278 N
154 0 V
-154 0 V
Z stroke
11120 1278 M
154 0 V
-154 0 R
154 0 V
stroke

 /TransparentPatterns true def
11732 1289 154 0 40 -30 0 PatternFill
11809 1289 M
stroke
11732 1289 N
154 0 V
-154 0 V
Z stroke
11732 1289 M
154 0 V
-154 0 R
154 0 V
stroke

 /TransparentPatterns true def
12344 1283 154 0 40 -30 0 PatternFill
12421 1283 M
stroke
12344 1283 N
154 0 V
-154 0 V
Z stroke
12344 1283 M
154 0 V
-154 0 R
154 0 V
stroke

 /TransparentPatterns true def
12956 1297 154 0 40 -30 0 PatternFill
13033 1297 M
stroke
12956 1297 N
154 0 V
-154 0 V
Z stroke
12956 1297 M
154 0 V
-154 0 R
154 0 V
% End plot #8
% Begin plot #9
2.000 UP
stroke
LTa
0.00 0.38 0.82 C LCb setrgbcolor
11860 153 M
[ [(Arial) 180.0 0.0 true true 0 ( )]
] -60.0 MRshow
2.000 UP
1.000 UL
LTa
0.00 0.38 0.82 C 11968 153 M
333 0 V
1403 4723 M
612 0 V
612 0 V
612 5 V
613 -24 V
612 25 V
612 -11 V
612 -2 V
612 -8 V
612 6 V
612 6 V
612 -10 V
612 13 V
612 1 V
612 7 V
612 -42 V
612 42 V
612 -13 V
612 11 V
612 -4 V
1403 4723 TriU
2015 4723 TriU
2627 4723 TriU
3239 4728 TriU
3852 4704 TriU
4464 4729 TriU
5076 4718 TriU
5688 4716 TriU
6300 4708 TriU
6912 4714 TriU
7524 4720 TriU
8136 4710 TriU
8748 4723 TriU
9360 4724 TriU
9972 4731 TriU
10584 4689 TriU
11196 4731 TriU
11808 4718 TriU
12420 4729 TriU
13032 4725 TriU
12134 153 TriU
% End plot #9
2.000 UL
LTb
LCb setrgbcolor
1.000 UP
1.000 UL
LTb
0.00 0.00 0.00 C stroke
grestore
end
showpage
%%Trailer
%%DocumentFonts: Arial
