%!PS-Adobe-2.0 EPSF-2.0
%%Title: TcpScalable-download-rtt-50UE-90-240.eps
%%Creator: gnuplot 5.0 patchlevel 3
%%CreationDate: Thu Jun  2 10:39:41 2016
%%DocumentFonts: (atend)
%%BoundingBox: 50 50 770 302
%%EndComments
%%BeginProlog
/gnudict 256 dict def
gnudict begin
%
% The following true/false flags may be edited by hand if desired.
% The unit line width and grayscale image gamma correction may also be changed.
%
/Color true def
/Blacktext false def
/Solid false def
/Dashlength 3 def
/Landscape false def
/Level1 false def
/Level3 false def
/Rounded false def
/ClipToBoundingBox false def
/SuppressPDFMark false def
/TransparentPatterns false def
/gnulinewidth 15.000 def
/userlinewidth gnulinewidth def
/Gamma 1.0 def
/BackgroundColor {-1.000 -1.000 -1.000} def
%
/vshift -66 def
/dl1 {
  10.0 Dashlength userlinewidth gnulinewidth div mul mul mul
  Rounded { currentlinewidth 0.75 mul sub dup 0 le { pop 0.01 } if } if
} def
/dl2 {
  10.0 Dashlength userlinewidth gnulinewidth div mul mul mul
  Rounded { currentlinewidth 0.75 mul add } if
} def
/hpt_ 31.5 def
/vpt_ 31.5 def
/hpt hpt_ def
/vpt vpt_ def
/doclip {
  ClipToBoundingBox {
    newpath 50 50 moveto 770 50 lineto 770 302 lineto 50 302 lineto closepath
    clip
  } if
} def
%
% Gnuplot Prolog Version 5.1 (Oct 2015)
%
%/SuppressPDFMark true def
%
/M {moveto} bind def
/L {lineto} bind def
/R {rmoveto} bind def
/V {rlineto} bind def
/N {newpath moveto} bind def
/Z {closepath} bind def
/C {setrgbcolor} bind def
/f {rlineto fill} bind def
/g {setgray} bind def
/Gshow {show} def   % May be redefined later in the file to support UTF-8
/vpt2 vpt 2 mul def
/hpt2 hpt 2 mul def
/Lshow {currentpoint stroke M 0 vshift R 
	Blacktext {gsave 0 setgray textshow grestore} {textshow} ifelse} def
/Rshow {currentpoint stroke M dup stringwidth pop neg vshift R
	Blacktext {gsave 0 setgray textshow grestore} {textshow} ifelse} def
/Cshow {currentpoint stroke M dup stringwidth pop -2 div vshift R 
	Blacktext {gsave 0 setgray textshow grestore} {textshow} ifelse} def
/UP {dup vpt_ mul /vpt exch def hpt_ mul /hpt exch def
  /hpt2 hpt 2 mul def /vpt2 vpt 2 mul def} def
/DL {Color {setrgbcolor Solid {pop []} if 0 setdash}
 {pop pop pop 0 setgray Solid {pop []} if 0 setdash} ifelse} def
/BL {stroke userlinewidth 2 mul setlinewidth
	Rounded {1 setlinejoin 1 setlinecap} if} def
/AL {stroke userlinewidth 2 div setlinewidth
	Rounded {1 setlinejoin 1 setlinecap} if} def
/UL {dup gnulinewidth mul /userlinewidth exch def
	dup 1 lt {pop 1} if 10 mul /udl exch def} def
/PL {stroke userlinewidth setlinewidth
	Rounded {1 setlinejoin 1 setlinecap} if} def
3.8 setmiterlimit
% Classic Line colors (version 5.0)
/LCw {1 1 1} def
/LCb {0 0 0} def
/LCa {0 0 0} def
/LC0 {1 0 0} def
/LC1 {0 1 0} def
/LC2 {0 0 1} def
/LC3 {1 0 1} def
/LC4 {0 1 1} def
/LC5 {1 1 0} def
/LC6 {0 0 0} def
/LC7 {1 0.3 0} def
/LC8 {0.5 0.5 0.5} def
% Default dash patterns (version 5.0)
/LTB {BL [] LCb DL} def
/LTw {PL [] 1 setgray} def
/LTb {PL [] LCb DL} def
/LTa {AL [1 udl mul 2 udl mul] 0 setdash LCa setrgbcolor} def
/LT0 {PL [] LC0 DL} def
/LT1 {PL [2 dl1 3 dl2] LC1 DL} def
/LT2 {PL [1 dl1 1.5 dl2] LC2 DL} def
/LT3 {PL [6 dl1 2 dl2 1 dl1 2 dl2] LC3 DL} def
/LT4 {PL [1 dl1 2 dl2 6 dl1 2 dl2 1 dl1 2 dl2] LC4 DL} def
/LT5 {PL [4 dl1 2 dl2] LC5 DL} def
/LT6 {PL [1.5 dl1 1.5 dl2 1.5 dl1 1.5 dl2 1.5 dl1 6 dl2] LC6 DL} def
/LT7 {PL [3 dl1 3 dl2 1 dl1 3 dl2] LC7 DL} def
/LT8 {PL [2 dl1 2 dl2 2 dl1 6 dl2] LC8 DL} def
/SL {[] 0 setdash} def
/Pnt {stroke [] 0 setdash gsave 1 setlinecap M 0 0 V stroke grestore} def
/Dia {stroke [] 0 setdash 2 copy vpt add M
  hpt neg vpt neg V hpt vpt neg V
  hpt vpt V hpt neg vpt V closepath stroke
  Pnt} def
/Pls {stroke [] 0 setdash vpt sub M 0 vpt2 V
  currentpoint stroke M
  hpt neg vpt neg R hpt2 0 V stroke
 } def
/Box {stroke [] 0 setdash 2 copy exch hpt sub exch vpt add M
  0 vpt2 neg V hpt2 0 V 0 vpt2 V
  hpt2 neg 0 V closepath stroke
  Pnt} def
/Crs {stroke [] 0 setdash exch hpt sub exch vpt add M
  hpt2 vpt2 neg V currentpoint stroke M
  hpt2 neg 0 R hpt2 vpt2 V stroke} def
/TriU {stroke [] 0 setdash 2 copy vpt 1.12 mul add M
  hpt neg vpt -1.62 mul V
  hpt 2 mul 0 V
  hpt neg vpt 1.62 mul V closepath stroke
  Pnt} def
/Star {2 copy Pls Crs} def
/BoxF {stroke [] 0 setdash exch hpt sub exch vpt add M
  0 vpt2 neg V hpt2 0 V 0 vpt2 V
  hpt2 neg 0 V closepath fill} def
/TriUF {stroke [] 0 setdash vpt 1.12 mul add M
  hpt neg vpt -1.62 mul V
  hpt 2 mul 0 V
  hpt neg vpt 1.62 mul V closepath fill} def
/TriD {stroke [] 0 setdash 2 copy vpt 1.12 mul sub M
  hpt neg vpt 1.62 mul V
  hpt 2 mul 0 V
  hpt neg vpt -1.62 mul V closepath stroke
  Pnt} def
/TriDF {stroke [] 0 setdash vpt 1.12 mul sub M
  hpt neg vpt 1.62 mul V
  hpt 2 mul 0 V
  hpt neg vpt -1.62 mul V closepath fill} def
/DiaF {stroke [] 0 setdash vpt add M
  hpt neg vpt neg V hpt vpt neg V
  hpt vpt V hpt neg vpt V closepath fill} def
/Pent {stroke [] 0 setdash 2 copy gsave
  translate 0 hpt M 4 {72 rotate 0 hpt L} repeat
  closepath stroke grestore Pnt} def
/PentF {stroke [] 0 setdash gsave
  translate 0 hpt M 4 {72 rotate 0 hpt L} repeat
  closepath fill grestore} def
/Circle {stroke [] 0 setdash 2 copy
  hpt 0 360 arc stroke Pnt} def
/CircleF {stroke [] 0 setdash hpt 0 360 arc fill} def
/C0 {BL [] 0 setdash 2 copy moveto vpt 90 450 arc} bind def
/C1 {BL [] 0 setdash 2 copy moveto
	2 copy vpt 0 90 arc closepath fill
	vpt 0 360 arc closepath} bind def
/C2 {BL [] 0 setdash 2 copy moveto
	2 copy vpt 90 180 arc closepath fill
	vpt 0 360 arc closepath} bind def
/C3 {BL [] 0 setdash 2 copy moveto
	2 copy vpt 0 180 arc closepath fill
	vpt 0 360 arc closepath} bind def
/C4 {BL [] 0 setdash 2 copy moveto
	2 copy vpt 180 270 arc closepath fill
	vpt 0 360 arc closepath} bind def
/C5 {BL [] 0 setdash 2 copy moveto
	2 copy vpt 0 90 arc
	2 copy moveto
	2 copy vpt 180 270 arc closepath fill
	vpt 0 360 arc} bind def
/C6 {BL [] 0 setdash 2 copy moveto
	2 copy vpt 90 270 arc closepath fill
	vpt 0 360 arc closepath} bind def
/C7 {BL [] 0 setdash 2 copy moveto
	2 copy vpt 0 270 arc closepath fill
	vpt 0 360 arc closepath} bind def
/C8 {BL [] 0 setdash 2 copy moveto
	2 copy vpt 270 360 arc closepath fill
	vpt 0 360 arc closepath} bind def
/C9 {BL [] 0 setdash 2 copy moveto
	2 copy vpt 270 450 arc closepath fill
	vpt 0 360 arc closepath} bind def
/C10 {BL [] 0 setdash 2 copy 2 copy moveto vpt 270 360 arc closepath fill
	2 copy moveto
	2 copy vpt 90 180 arc closepath fill
	vpt 0 360 arc closepath} bind def
/C11 {BL [] 0 setdash 2 copy moveto
	2 copy vpt 0 180 arc closepath fill
	2 copy moveto
	2 copy vpt 270 360 arc closepath fill
	vpt 0 360 arc closepath} bind def
/C12 {BL [] 0 setdash 2 copy moveto
	2 copy vpt 180 360 arc closepath fill
	vpt 0 360 arc closepath} bind def
/C13 {BL [] 0 setdash 2 copy moveto
	2 copy vpt 0 90 arc closepath fill
	2 copy moveto
	2 copy vpt 180 360 arc closepath fill
	vpt 0 360 arc closepath} bind def
/C14 {BL [] 0 setdash 2 copy moveto
	2 copy vpt 90 360 arc closepath fill
	vpt 0 360 arc} bind def
/C15 {BL [] 0 setdash 2 copy vpt 0 360 arc closepath fill
	vpt 0 360 arc closepath} bind def
/Rec {newpath 4 2 roll moveto 1 index 0 rlineto 0 exch rlineto
	neg 0 rlineto closepath} bind def
/Square {dup Rec} bind def
/Bsquare {vpt sub exch vpt sub exch vpt2 Square} bind def
/S0 {BL [] 0 setdash 2 copy moveto 0 vpt rlineto BL Bsquare} bind def
/S1 {BL [] 0 setdash 2 copy vpt Square fill Bsquare} bind def
/S2 {BL [] 0 setdash 2 copy exch vpt sub exch vpt Square fill Bsquare} bind def
/S3 {BL [] 0 setdash 2 copy exch vpt sub exch vpt2 vpt Rec fill Bsquare} bind def
/S4 {BL [] 0 setdash 2 copy exch vpt sub exch vpt sub vpt Square fill Bsquare} bind def
/S5 {BL [] 0 setdash 2 copy 2 copy vpt Square fill
	exch vpt sub exch vpt sub vpt Square fill Bsquare} bind def
/S6 {BL [] 0 setdash 2 copy exch vpt sub exch vpt sub vpt vpt2 Rec fill Bsquare} bind def
/S7 {BL [] 0 setdash 2 copy exch vpt sub exch vpt sub vpt vpt2 Rec fill
	2 copy vpt Square fill Bsquare} bind def
/S8 {BL [] 0 setdash 2 copy vpt sub vpt Square fill Bsquare} bind def
/S9 {BL [] 0 setdash 2 copy vpt sub vpt vpt2 Rec fill Bsquare} bind def
/S10 {BL [] 0 setdash 2 copy vpt sub vpt Square fill 2 copy exch vpt sub exch vpt Square fill
	Bsquare} bind def
/S11 {BL [] 0 setdash 2 copy vpt sub vpt Square fill 2 copy exch vpt sub exch vpt2 vpt Rec fill
	Bsquare} bind def
/S12 {BL [] 0 setdash 2 copy exch vpt sub exch vpt sub vpt2 vpt Rec fill Bsquare} bind def
/S13 {BL [] 0 setdash 2 copy exch vpt sub exch vpt sub vpt2 vpt Rec fill
	2 copy vpt Square fill Bsquare} bind def
/S14 {BL [] 0 setdash 2 copy exch vpt sub exch vpt sub vpt2 vpt Rec fill
	2 copy exch vpt sub exch vpt Square fill Bsquare} bind def
/S15 {BL [] 0 setdash 2 copy Bsquare fill Bsquare} bind def
/D0 {gsave translate 45 rotate 0 0 S0 stroke grestore} bind def
/D1 {gsave translate 45 rotate 0 0 S1 stroke grestore} bind def
/D2 {gsave translate 45 rotate 0 0 S2 stroke grestore} bind def
/D3 {gsave translate 45 rotate 0 0 S3 stroke grestore} bind def
/D4 {gsave translate 45 rotate 0 0 S4 stroke grestore} bind def
/D5 {gsave translate 45 rotate 0 0 S5 stroke grestore} bind def
/D6 {gsave translate 45 rotate 0 0 S6 stroke grestore} bind def
/D7 {gsave translate 45 rotate 0 0 S7 stroke grestore} bind def
/D8 {gsave translate 45 rotate 0 0 S8 stroke grestore} bind def
/D9 {gsave translate 45 rotate 0 0 S9 stroke grestore} bind def
/D10 {gsave translate 45 rotate 0 0 S10 stroke grestore} bind def
/D11 {gsave translate 45 rotate 0 0 S11 stroke grestore} bind def
/D12 {gsave translate 45 rotate 0 0 S12 stroke grestore} bind def
/D13 {gsave translate 45 rotate 0 0 S13 stroke grestore} bind def
/D14 {gsave translate 45 rotate 0 0 S14 stroke grestore} bind def
/D15 {gsave translate 45 rotate 0 0 S15 stroke grestore} bind def
/DiaE {stroke [] 0 setdash vpt add M
  hpt neg vpt neg V hpt vpt neg V
  hpt vpt V hpt neg vpt V closepath stroke} def
/BoxE {stroke [] 0 setdash exch hpt sub exch vpt add M
  0 vpt2 neg V hpt2 0 V 0 vpt2 V
  hpt2 neg 0 V closepath stroke} def
/TriUE {stroke [] 0 setdash vpt 1.12 mul add M
  hpt neg vpt -1.62 mul V
  hpt 2 mul 0 V
  hpt neg vpt 1.62 mul V closepath stroke} def
/TriDE {stroke [] 0 setdash vpt 1.12 mul sub M
  hpt neg vpt 1.62 mul V
  hpt 2 mul 0 V
  hpt neg vpt -1.62 mul V closepath stroke} def
/PentE {stroke [] 0 setdash gsave
  translate 0 hpt M 4 {72 rotate 0 hpt L} repeat
  closepath stroke grestore} def
/CircE {stroke [] 0 setdash 
  hpt 0 360 arc stroke} def
/Opaque {gsave closepath 1 setgray fill grestore 0 setgray closepath} def
/DiaW {stroke [] 0 setdash vpt add M
  hpt neg vpt neg V hpt vpt neg V
  hpt vpt V hpt neg vpt V Opaque stroke} def
/BoxW {stroke [] 0 setdash exch hpt sub exch vpt add M
  0 vpt2 neg V hpt2 0 V 0 vpt2 V
  hpt2 neg 0 V Opaque stroke} def
/TriUW {stroke [] 0 setdash vpt 1.12 mul add M
  hpt neg vpt -1.62 mul V
  hpt 2 mul 0 V
  hpt neg vpt 1.62 mul V Opaque stroke} def
/TriDW {stroke [] 0 setdash vpt 1.12 mul sub M
  hpt neg vpt 1.62 mul V
  hpt 2 mul 0 V
  hpt neg vpt -1.62 mul V Opaque stroke} def
/PentW {stroke [] 0 setdash gsave
  translate 0 hpt M 4 {72 rotate 0 hpt L} repeat
  Opaque stroke grestore} def
/CircW {stroke [] 0 setdash 
  hpt 0 360 arc Opaque stroke} def
/BoxFill {gsave Rec 1 setgray fill grestore} def
/Density {
  /Fillden exch def
  currentrgbcolor
  /ColB exch def /ColG exch def /ColR exch def
  /ColR ColR Fillden mul Fillden sub 1 add def
  /ColG ColG Fillden mul Fillden sub 1 add def
  /ColB ColB Fillden mul Fillden sub 1 add def
  ColR ColG ColB setrgbcolor} def
/BoxColFill {gsave Rec PolyFill} def
/PolyFill {gsave Density fill grestore grestore} def
/h {rlineto rlineto rlineto gsave closepath fill grestore} bind def
%
% PostScript Level 1 Pattern Fill routine for rectangles
% Usage: x y w h s a XX PatternFill
%	x,y = lower left corner of box to be filled
%	w,h = width and height of box
%	  a = angle in degrees between lines and x-axis
%	 XX = 0/1 for no/yes cross-hatch
%
/PatternFill {gsave /PFa [ 9 2 roll ] def
  PFa 0 get PFa 2 get 2 div add PFa 1 get PFa 3 get 2 div add translate
  PFa 2 get -2 div PFa 3 get -2 div PFa 2 get PFa 3 get Rec
  TransparentPatterns {} {gsave 1 setgray fill grestore} ifelse
  clip
  currentlinewidth 0.5 mul setlinewidth
  /PFs PFa 2 get dup mul PFa 3 get dup mul add sqrt def
  0 0 M PFa 5 get rotate PFs -2 div dup translate
  0 1 PFs PFa 4 get div 1 add floor cvi
	{PFa 4 get mul 0 M 0 PFs V} for
  0 PFa 6 get ne {
	0 1 PFs PFa 4 get div 1 add floor cvi
	{PFa 4 get mul 0 2 1 roll M PFs 0 V} for
 } if
  stroke grestore} def
%
/languagelevel where
 {pop languagelevel} {1} ifelse
dup 2 lt
	{/InterpretLevel1 true def
	 /InterpretLevel3 false def}
	{/InterpretLevel1 Level1 def
	 2 gt
	    {/InterpretLevel3 Level3 def}
	    {/InterpretLevel3 false def}
	 ifelse }
 ifelse
%
% PostScript level 2 pattern fill definitions
%
/Level2PatternFill {
/Tile8x8 {/PaintType 2 /PatternType 1 /TilingType 1 /BBox [0 0 8 8] /XStep 8 /YStep 8}
	bind def
/KeepColor {currentrgbcolor [/Pattern /DeviceRGB] setcolorspace} bind def
<< Tile8x8
 /PaintProc {0.5 setlinewidth pop 0 0 M 8 8 L 0 8 M 8 0 L stroke} 
>> matrix makepattern
/Pat1 exch def
<< Tile8x8
 /PaintProc {0.5 setlinewidth pop 0 0 M 8 8 L 0 8 M 8 0 L stroke
	0 4 M 4 8 L 8 4 L 4 0 L 0 4 L stroke}
>> matrix makepattern
/Pat2 exch def
<< Tile8x8
 /PaintProc {0.5 setlinewidth pop 0 0 M 0 8 L
	8 8 L 8 0 L 0 0 L fill}
>> matrix makepattern
/Pat3 exch def
<< Tile8x8
 /PaintProc {0.5 setlinewidth pop -4 8 M 8 -4 L
	0 12 M 12 0 L stroke}
>> matrix makepattern
/Pat4 exch def
<< Tile8x8
 /PaintProc {0.5 setlinewidth pop -4 0 M 8 12 L
	0 -4 M 12 8 L stroke}
>> matrix makepattern
/Pat5 exch def
<< Tile8x8
 /PaintProc {0.5 setlinewidth pop -2 8 M 4 -4 L
	0 12 M 8 -4 L 4 12 M 10 0 L stroke}
>> matrix makepattern
/Pat6 exch def
<< Tile8x8
 /PaintProc {0.5 setlinewidth pop -2 0 M 4 12 L
	0 -4 M 8 12 L 4 -4 M 10 8 L stroke}
>> matrix makepattern
/Pat7 exch def
<< Tile8x8
 /PaintProc {0.5 setlinewidth pop 8 -2 M -4 4 L
	12 0 M -4 8 L 12 4 M 0 10 L stroke}
>> matrix makepattern
/Pat8 exch def
<< Tile8x8
 /PaintProc {0.5 setlinewidth pop 0 -2 M 12 4 L
	-4 0 M 12 8 L -4 4 M 8 10 L stroke}
>> matrix makepattern
/Pat9 exch def
/Pattern1 {PatternBgnd KeepColor Pat1 setpattern} bind def
/Pattern2 {PatternBgnd KeepColor Pat2 setpattern} bind def
/Pattern3 {PatternBgnd KeepColor Pat3 setpattern} bind def
/Pattern4 {PatternBgnd KeepColor Landscape {Pat5} {Pat4} ifelse setpattern} bind def
/Pattern5 {PatternBgnd KeepColor Landscape {Pat4} {Pat5} ifelse setpattern} bind def
/Pattern6 {PatternBgnd KeepColor Landscape {Pat9} {Pat6} ifelse setpattern} bind def
/Pattern7 {PatternBgnd KeepColor Landscape {Pat8} {Pat7} ifelse setpattern} bind def
} def
%
%
%End of PostScript Level 2 code
%
/PatternBgnd {
  TransparentPatterns {} {gsave 1 setgray fill grestore} ifelse
} def
%
% Substitute for Level 2 pattern fill codes with
% grayscale if Level 2 support is not selected.
%
/Level1PatternFill {
/Pattern1 {0.250 Density} bind def
/Pattern2 {0.500 Density} bind def
/Pattern3 {0.750 Density} bind def
/Pattern4 {0.125 Density} bind def
/Pattern5 {0.375 Density} bind def
/Pattern6 {0.625 Density} bind def
/Pattern7 {0.875 Density} bind def
} def
%
% Now test for support of Level 2 code
%
Level1 {Level1PatternFill} {Level2PatternFill} ifelse
%
/Symbol-Oblique /Symbol findfont [1 0 .167 1 0 0] makefont
dup length dict begin {1 index /FID eq {pop pop} {def} ifelse} forall
currentdict end definefont pop
%
/MFshow {
   { dup 5 get 3 ge
     { 5 get 3 eq {gsave} {grestore} ifelse }
     {dup dup 0 get findfont exch 1 get scalefont setfont
     [ currentpoint ] exch dup 2 get 0 exch R dup 5 get 2 ne {dup dup 6
     get exch 4 get {textshow} {stringwidth pop 0 R} ifelse }if dup 5 get 0 eq
     {dup 3 get {2 get neg 0 exch R pop} {pop aload pop M} ifelse} {dup 5
     get 1 eq {dup 2 get exch dup 3 get exch 6 get stringwidth pop -2 div
     dup 0 R} {dup 6 get stringwidth pop -2 div 0 R 6 get
     textshow 2 index {aload pop M neg 3 -1 roll neg R pop pop} {pop pop pop
     pop aload pop M} ifelse }ifelse }ifelse }
     ifelse }
   forall} def
/Gswidth {dup type /stringtype eq {stringwidth} {pop (n) stringwidth} ifelse} def
/MFwidth {0 exch { dup 5 get 3 ge { 5 get 3 eq { 0 } { pop } ifelse }
 {dup 3 get{dup dup 0 get findfont exch 1 get scalefont setfont
     6 get Gswidth pop add} {pop} ifelse} ifelse} forall} def
/MLshow { currentpoint stroke M
  0 exch R
  Blacktext {gsave 0 setgray MFshow grestore} {MFshow} ifelse } bind def
/MRshow { currentpoint stroke M
  exch dup MFwidth neg 3 -1 roll R
  Blacktext {gsave 0 setgray MFshow grestore} {MFshow} ifelse } bind def
/MCshow { currentpoint stroke M
  exch dup MFwidth -2 div 3 -1 roll R
  Blacktext {gsave 0 setgray MFshow grestore} {MFshow} ifelse } bind def
/XYsave    { [( ) 1 2 true false 3 ()] } bind def
/XYrestore { [( ) 1 2 true false 4 ()] } bind def
Level1 SuppressPDFMark or 
{} {
/SDict 10 dict def
systemdict /pdfmark known not {
  userdict /pdfmark systemdict /cleartomark get put
} if
SDict begin [
  /Title (TcpScalable-download-rtt-50UE-90-240.eps)
  /Subject (gnuplot plot)
  /Creator (gnuplot 5.0 patchlevel 3)
  /Author (nat)
%  /Producer (gnuplot)
%  /Keywords ()
  /CreationDate (Thu Jun  2 10:39:41 2016)
  /DOCINFO pdfmark
end
} ifelse
%
% Support for boxed text - Ethan A Merritt May 2005
%
/InitTextBox { userdict /TBy2 3 -1 roll put userdict /TBx2 3 -1 roll put
           userdict /TBy1 3 -1 roll put userdict /TBx1 3 -1 roll put
	   /Boxing true def } def
/ExtendTextBox { Boxing
    { gsave dup false charpath pathbbox
      dup TBy2 gt {userdict /TBy2 3 -1 roll put} {pop} ifelse
      dup TBx2 gt {userdict /TBx2 3 -1 roll put} {pop} ifelse
      dup TBy1 lt {userdict /TBy1 3 -1 roll put} {pop} ifelse
      dup TBx1 lt {userdict /TBx1 3 -1 roll put} {pop} ifelse
      grestore } if } def
/PopTextBox { newpath TBx1 TBxmargin sub TBy1 TBymargin sub M
               TBx1 TBxmargin sub TBy2 TBymargin add L
	       TBx2 TBxmargin add TBy2 TBymargin add L
	       TBx2 TBxmargin add TBy1 TBymargin sub L closepath } def
/DrawTextBox { PopTextBox stroke /Boxing false def} def
/FillTextBox { gsave PopTextBox 1 1 1 setrgbcolor fill grestore /Boxing false def} def
0 0 0 0 InitTextBox
/TBxmargin 20 def
/TBymargin 20 def
/Boxing false def
/textshow { ExtendTextBox Gshow } def
%
% redundant definitions for compatibility with prologue.ps older than 5.0.2
/LTB {BL [] LCb DL} def
/LTb {PL [] LCb DL} def
end
%%EndProlog
%%Page: 1 1
gnudict begin
gsave
doclip
50 50 translate
0.050 0.050 scale
0 setgray
newpath
(Arial) findfont 200 scalefont setfont
BackgroundColor 0 lt 3 1 roll 0 lt exch 0 lt or or not {BackgroundColor C 1.000 0 0 14400.00 5040.00 BoxColFill} if
1.000 UL
LTb
0.00 0.00 0.00 C 0.500 UL
LTa
0.50 0.50 0.50 C 980 1000 M
12139 0 V
stroke
1.000 UL
LTb
0.00 0.00 0.00 C 980 1000 M
63 0 V
stroke
860 1000 M
[ [(Arial) 200.0 0.0 true true 0 ( 40)]
] -66.7 MRshow
1.000 UL
LTb
0.00 0.00 0.00 C 0.500 UL
LTa
0.50 0.50 0.50 C 980 1422 M
12139 0 V
stroke
1.000 UL
LTb
0.00 0.00 0.00 C 980 1422 M
63 0 V
stroke
860 1422 M
[ [(Arial) 200.0 0.0 true true 0 ( 60)]
] -66.7 MRshow
1.000 UL
LTb
0.00 0.00 0.00 C 0.500 UL
LTa
0.50 0.50 0.50 C 980 1844 M
12139 0 V
stroke
1.000 UL
LTb
0.00 0.00 0.00 C 980 1844 M
63 0 V
stroke
860 1844 M
[ [(Arial) 200.0 0.0 true true 0 ( 80)]
] -66.7 MRshow
1.000 UL
LTb
0.00 0.00 0.00 C 0.500 UL
LTa
0.50 0.50 0.50 C 980 2266 M
12139 0 V
stroke
1.000 UL
LTb
0.00 0.00 0.00 C 980 2266 M
63 0 V
stroke
860 2266 M
[ [(Arial) 200.0 0.0 true true 0 ( 100)]
] -66.7 MRshow
1.000 UL
LTb
0.00 0.00 0.00 C 0.500 UL
LTa
0.50 0.50 0.50 C 980 2688 M
12139 0 V
stroke
1.000 UL
LTb
0.00 0.00 0.00 C 980 2688 M
63 0 V
stroke
860 2688 M
[ [(Arial) 200.0 0.0 true true 0 ( 120)]
] -66.7 MRshow
1.000 UL
LTb
0.00 0.00 0.00 C 0.500 UL
LTa
0.50 0.50 0.50 C 980 3111 M
12139 0 V
stroke
1.000 UL
LTb
0.00 0.00 0.00 C 980 3111 M
63 0 V
stroke
860 3111 M
[ [(Arial) 200.0 0.0 true true 0 ( 140)]
] -66.7 MRshow
1.000 UL
LTb
0.00 0.00 0.00 C 0.500 UL
LTa
0.50 0.50 0.50 C 980 3533 M
12139 0 V
stroke
1.000 UL
LTb
0.00 0.00 0.00 C 980 3533 M
63 0 V
stroke
860 3533 M
[ [(Arial) 200.0 0.0 true true 0 ( 160)]
] -66.7 MRshow
1.000 UL
LTb
0.00 0.00 0.00 C 0.500 UL
LTa
0.50 0.50 0.50 C 980 3955 M
12139 0 V
stroke
1.000 UL
LTb
0.00 0.00 0.00 C 980 3955 M
63 0 V
stroke
860 3955 M
[ [(Arial) 200.0 0.0 true true 0 ( 180)]
] -66.7 MRshow
1.000 UL
LTb
0.00 0.00 0.00 C 0.500 UL
LTa
0.50 0.50 0.50 C 980 4377 M
12139 0 V
stroke
1.000 UL
LTb
0.00 0.00 0.00 C 980 4377 M
63 0 V
stroke
860 4377 M
[ [(Arial) 200.0 0.0 true true 0 ( 200)]
] -66.7 MRshow
1.000 UL
LTb
0.00 0.00 0.00 C 0.500 UL
LTa
0.50 0.50 0.50 C 980 4799 M
12139 0 V
stroke
1.000 UL
LTb
0.00 0.00 0.00 C 980 4799 M
63 0 V
stroke
860 4799 M
[ [(Arial) 200.0 0.0 true true 0 ( 220)]
] -66.7 MRshow
1.000 UL
LTb
0.00 0.00 0.00 C 0.500 UL
LTa
0.50 0.50 0.50 C 1359 1000 M
0 3799 V
stroke
1.000 UL
LTb
0.00 0.00 0.00 C 1359 1000 M
0 63 V
0 3736 R
0 -63 V
stroke
1359 800 M
[ [(Arial) 200.0 0.0 true true 0 ( 270)]
] -66.7 MCshow
1.000 UL
LTb
0.00 0.00 0.00 C 0.500 UL
LTa
0.50 0.50 0.50 C 2118 1000 M
0 3799 V
stroke
1.000 UL
LTb
0.00 0.00 0.00 C 2118 1000 M
0 63 V
0 3736 R
0 -63 V
stroke
2118 800 M
[ [(Arial) 200.0 0.0 true true 0 ( 300)]
] -66.7 MCshow
1.000 UL
LTb
0.00 0.00 0.00 C 0.500 UL
LTa
0.50 0.50 0.50 C 2877 1000 M
0 3799 V
stroke
1.000 UL
LTb
0.00 0.00 0.00 C 2877 1000 M
0 63 V
0 3736 R
0 -63 V
stroke
2877 800 M
[ [(Arial) 200.0 0.0 true true 0 ( 330)]
] -66.7 MCshow
1.000 UL
LTb
0.00 0.00 0.00 C 0.500 UL
LTa
0.50 0.50 0.50 C 3635 1000 M
0 3799 V
stroke
1.000 UL
LTb
0.00 0.00 0.00 C 3635 1000 M
0 63 V
0 3736 R
0 -63 V
stroke
3635 800 M
[ [(Arial) 200.0 0.0 true true 0 ( 360)]
] -66.7 MCshow
1.000 UL
LTb
0.00 0.00 0.00 C 0.500 UL
LTa
0.50 0.50 0.50 C 4394 1000 M
0 3799 V
stroke
1.000 UL
LTb
0.00 0.00 0.00 C 4394 1000 M
0 63 V
0 3736 R
0 -63 V
stroke
4394 800 M
[ [(Arial) 200.0 0.0 true true 0 ( 390)]
] -66.7 MCshow
1.000 UL
LTb
0.00 0.00 0.00 C 0.500 UL
LTa
0.50 0.50 0.50 C 5153 1000 M
0 3799 V
stroke
1.000 UL
LTb
0.00 0.00 0.00 C 5153 1000 M
0 63 V
0 3736 R
0 -63 V
stroke
5153 800 M
[ [(Arial) 200.0 0.0 true true 0 ( 420)]
] -66.7 MCshow
1.000 UL
LTb
0.00 0.00 0.00 C 0.500 UL
LTa
0.50 0.50 0.50 C 5911 1000 M
0 3799 V
stroke
1.000 UL
LTb
0.00 0.00 0.00 C 5911 1000 M
0 63 V
0 3736 R
0 -63 V
stroke
5911 800 M
[ [(Arial) 200.0 0.0 true true 0 ( 450)]
] -66.7 MCshow
1.000 UL
LTb
0.00 0.00 0.00 C 0.500 UL
LTa
0.50 0.50 0.50 C 6670 1000 M
0 3799 V
stroke
1.000 UL
LTb
0.00 0.00 0.00 C 6670 1000 M
0 63 V
0 3736 R
0 -63 V
stroke
6670 800 M
[ [(Arial) 200.0 0.0 true true 0 ( 480)]
] -66.7 MCshow
1.000 UL
LTb
0.00 0.00 0.00 C 0.500 UL
LTa
0.50 0.50 0.50 C 7429 1000 M
0 3799 V
stroke
1.000 UL
LTb
0.00 0.00 0.00 C 7429 1000 M
0 63 V
0 3736 R
0 -63 V
stroke
7429 800 M
[ [(Arial) 200.0 0.0 true true 0 ( 510)]
] -66.7 MCshow
1.000 UL
LTb
0.00 0.00 0.00 C 0.500 UL
LTa
0.50 0.50 0.50 C 8188 1000 M
0 3799 V
stroke
1.000 UL
LTb
0.00 0.00 0.00 C 8188 1000 M
0 63 V
0 3736 R
0 -63 V
stroke
8188 800 M
[ [(Arial) 200.0 0.0 true true 0 ( 540)]
] -66.7 MCshow
1.000 UL
LTb
0.00 0.00 0.00 C 0.500 UL
LTa
0.50 0.50 0.50 C 8946 1000 M
0 3799 V
stroke
1.000 UL
LTb
0.00 0.00 0.00 C 8946 1000 M
0 63 V
0 3736 R
0 -63 V
stroke
8946 800 M
[ [(Arial) 200.0 0.0 true true 0 ( 570)]
] -66.7 MCshow
1.000 UL
LTb
0.00 0.00 0.00 C 0.500 UL
LTa
0.50 0.50 0.50 C 9705 1000 M
0 3799 V
stroke
1.000 UL
LTb
0.00 0.00 0.00 C 9705 1000 M
0 63 V
0 3736 R
0 -63 V
stroke
9705 800 M
[ [(Arial) 200.0 0.0 true true 0 ( 600)]
] -66.7 MCshow
1.000 UL
LTb
0.00 0.00 0.00 C 0.500 UL
LTa
0.50 0.50 0.50 C 10464 1000 M
0 3799 V
stroke
1.000 UL
LTb
0.00 0.00 0.00 C 10464 1000 M
0 63 V
0 3736 R
0 -63 V
stroke
10464 800 M
[ [(Arial) 200.0 0.0 true true 0 ( 630)]
] -66.7 MCshow
1.000 UL
LTb
0.00 0.00 0.00 C 0.500 UL
LTa
0.50 0.50 0.50 C 11222 1000 M
0 3799 V
stroke
1.000 UL
LTb
0.00 0.00 0.00 C 11222 1000 M
0 63 V
0 3736 R
0 -63 V
stroke
11222 800 M
[ [(Arial) 200.0 0.0 true true 0 ( 660)]
] -66.7 MCshow
1.000 UL
LTb
0.00 0.00 0.00 C 0.500 UL
LTa
0.50 0.50 0.50 C 11981 1000 M
0 3799 V
stroke
1.000 UL
LTb
0.00 0.00 0.00 C 11981 1000 M
0 63 V
0 3736 R
0 -63 V
stroke
11981 800 M
[ [(Arial) 200.0 0.0 true true 0 ( 690)]
] -66.7 MCshow
1.000 UL
LTb
0.00 0.00 0.00 C 0.500 UL
LTa
0.50 0.50 0.50 C 12740 1000 M
0 3799 V
stroke
1.000 UL
LTb
0.00 0.00 0.00 C 12740 1000 M
0 63 V
0 3736 R
0 -63 V
stroke
12740 800 M
[ [(Arial) 200.0 0.0 true true 0 ( 720)]
] -66.7 MCshow
1.000 UL
LTb
0.00 0.00 0.00 C 13119 1000 M
-63 0 V
stroke
13239 1000 M
[ [(Arial) 200.0 0.0 true true 0 ( 0)]
] -66.7 MLshow
1.000 UL
LTb
0.00 0.00 0.00 C 13119 1760 M
-63 0 V
stroke
13239 1760 M
[ [(Arial) 200.0 0.0 true true 0 ( 20)]
] -66.7 MLshow
1.000 UL
LTb
0.00 0.00 0.00 C 13119 2520 M
-63 0 V
stroke
13239 2520 M
[ [(Arial) 200.0 0.0 true true 0 ( 40)]
] -66.7 MLshow
1.000 UL
LTb
0.00 0.00 0.00 C 13119 3279 M
-63 0 V
stroke
13239 3279 M
[ [(Arial) 200.0 0.0 true true 0 ( 60)]
] -66.7 MLshow
1.000 UL
LTb
0.00 0.00 0.00 C 13119 4039 M
-63 0 V
stroke
13239 4039 M
[ [(Arial) 200.0 0.0 true true 0 ( 80)]
] -66.7 MLshow
1.000 UL
LTb
0.00 0.00 0.00 C 13119 4799 M
-63 0 V
stroke
13239 4799 M
[ [(Arial) 200.0 0.0 true true 0 ( 100)]
] -66.7 MLshow
1.000 UL
LTb
0.00 0.00 0.00 C 1.000 UL
LTB
0.00 0.00 0.00 C 980 4799 M
0 -3799 V
12139 0 V
0 3799 R
980 4799 M
1.000 UP
stroke
LTb
0.00 0.00 0.00 C LCb setrgbcolor
160 2899 M
currentpoint gsave translate -270 rotate 0 0 moveto
[ [(Arial) 200.0 0.0 true true 0 (RTT \(ms\))]
] -66.7 MCshow
grestore
LTb
LCb setrgbcolor
13938 2899 M
currentpoint gsave translate -270 rotate 0 0 moveto
[ [(Arial) 200.0 0.0 true true 0 (TCP delivery ratio [%])]
] -66.7 MCshow
grestore
LTb
LCb setrgbcolor
7049 500 M
[ [(Arial) 200.0 0.0 true true 0 (Local backhaul traffic traffic \(Mb/s\))]
] -66.7 MCshow
LTb
% Begin plot #1
1.000 UL
LTb
0.60 0.60 0.00 C LCb setrgbcolor
4714 333 M
[ [(Arial) 180.0 0.0 true true 0 (RTT      :   olsr)]
] -60.0 MRshow
1.000 UL
LTb
0.60 0.60 0.00 C 4822 288 333 90 80 -45 0 PatternFill
4822 288 N
333 0 V
0 90 V
-333 0 V
0 -90 V
Z stroke
1.000 UL
LTb
0.60 0.60 0.00 C 1094 1184 152 573 80 -45 0 PatternFill
1170 1138 M
0 46 V
0 573 R
0 939 V
stroke
1094 1184 N
152 0 V
0 573 V
-152 0 V
0 -573 V
Z stroke
1094 2696 M
152 0 V
1094 1138 M
152 0 V
stroke
1852 1180 152 531 80 -45 0 PatternFill
1928 1132 M
0 48 V
0 531 R
0 965 V
stroke
1852 1180 N
152 0 V
0 531 V
-152 0 V
0 -531 V
Z stroke
1852 2676 M
152 0 V
1852 1132 M
152 0 V
stroke
2611 1181 152 425 80 -45 0 PatternFill
2687 1134 M
0 47 V
0 425 R
0 1002 V
stroke
2611 1181 N
152 0 V
0 425 V
-152 0 V
0 -425 V
Z stroke
2611 2608 M
152 0 V
2611 1134 M
152 0 V
stroke
3370 1185 152 428 80 -45 0 PatternFill
3446 1134 M
0 51 V
0 428 R
0 911 V
stroke
3370 1185 N
152 0 V
0 428 V
-152 0 V
0 -428 V
Z stroke
3370 2524 M
152 0 V
3370 1134 M
152 0 V
stroke
4129 1180 152 555 80 -45 0 PatternFill
4205 1136 M
0 44 V
0 555 R
0 998 V
stroke
4129 1180 N
152 0 V
0 555 V
-152 0 V
0 -555 V
Z stroke
4129 2733 M
152 0 V
4129 1136 M
152 0 V
stroke
4887 1192 152 512 80 -45 0 PatternFill
4963 1144 M
0 48 V
0 512 R
0 988 V
stroke
4887 1192 N
152 0 V
0 512 V
-152 0 V
0 -512 V
Z stroke
4887 2692 M
152 0 V
4887 1144 M
152 0 V
stroke
5646 1188 152 560 80 -45 0 PatternFill
5722 1139 M
0 49 V
0 560 R
0 971 V
stroke
5646 1188 N
152 0 V
0 560 V
-152 0 V
0 -560 V
Z stroke
5646 2719 M
152 0 V
5646 1139 M
152 0 V
stroke
6405 1178 152 448 80 -45 0 PatternFill
6481 1130 M
0 48 V
0 448 R
0 894 V
stroke
6405 1178 N
152 0 V
0 448 V
-152 0 V
0 -448 V
Z stroke
6405 2520 M
152 0 V
6405 1130 M
152 0 V
stroke
7163 1180 152 493 80 -45 0 PatternFill
7239 1134 M
0 46 V
0 493 R
0 1064 V
stroke
7163 1180 N
152 0 V
0 493 V
-152 0 V
0 -493 V
Z stroke
7163 2737 M
152 0 V
7163 1134 M
152 0 V
stroke
7922 1185 152 490 80 -45 0 PatternFill
7998 1135 M
0 50 V
0 490 R
0 1000 V
stroke
7922 1185 N
152 0 V
0 490 V
-152 0 V
0 -490 V
Z stroke
7922 2675 M
152 0 V
7922 1135 M
152 0 V
stroke
8681 1189 152 530 80 -45 0 PatternFill
8757 1138 M
0 51 V
0 530 R
0 867 V
stroke
8681 1189 N
152 0 V
0 530 V
-152 0 V
0 -530 V
Z stroke
8681 2586 M
152 0 V
8681 1138 M
152 0 V
stroke
9439 1177 152 484 80 -45 0 PatternFill
9515 1130 M
0 47 V
0 484 R
0 898 V
stroke
9439 1177 N
152 0 V
0 484 V
-152 0 V
0 -484 V
Z stroke
9439 2559 M
152 0 V
9439 1130 M
152 0 V
stroke
10198 1184 152 440 80 -45 0 PatternFill
10274 1136 M
0 48 V
0 440 R
0 923 V
stroke
10198 1184 N
152 0 V
0 440 V
-152 0 V
0 -440 V
Z stroke
10198 2547 M
152 0 V
10198 1136 M
152 0 V
stroke
10957 1177 152 484 80 -45 0 PatternFill
11033 1138 M
0 39 V
0 484 R
0 1008 V
stroke
10957 1177 N
152 0 V
0 484 V
-152 0 V
0 -484 V
Z stroke
10957 2669 M
152 0 V
10957 1138 M
152 0 V
stroke
11715 1181 152 453 80 -45 0 PatternFill
11791 1139 M
0 42 V
0 453 R
0 994 V
stroke
11715 1181 N
152 0 V
0 453 V
-152 0 V
0 -453 V
Z stroke
11715 2628 M
152 0 V
11715 1139 M
152 0 V
stroke
12474 1176 152 491 80 -45 0 PatternFill
12550 1129 M
0 47 V
0 491 R
0 986 V
stroke
12474 1176 N
152 0 V
0 491 V
-152 0 V
0 -491 V
Z stroke
12474 2653 M
152 0 V
12474 1129 M
152 0 V
% End plot #1
% Begin plot #2
stroke
LTb
LCb setrgbcolor

 /TransparentPatterns true def
1094 1514 152 0 40 30 0 PatternFill
1170 1514 M
stroke
1094 1514 N
152 0 V
-152 0 V
Z stroke
1094 1514 M
152 0 V
-152 0 R
152 0 V
stroke

 /TransparentPatterns true def
1852 1499 152 0 40 30 0 PatternFill
1928 1499 M
stroke
1852 1499 N
152 0 V
-152 0 V
Z stroke
1852 1499 M
152 0 V
-152 0 R
152 0 V
stroke

 /TransparentPatterns true def
2611 1472 152 0 40 30 0 PatternFill
2687 1472 M
stroke
2611 1472 N
152 0 V
-152 0 V
Z stroke
2611 1472 M
152 0 V
-152 0 R
152 0 V
stroke

 /TransparentPatterns true def
3370 1468 152 0 40 30 0 PatternFill
3446 1468 M
stroke
3370 1468 N
152 0 V
-152 0 V
Z stroke
3370 1468 M
152 0 V
-152 0 R
152 0 V
stroke

 /TransparentPatterns true def
4129 1512 152 0 40 30 0 PatternFill
4205 1512 M
stroke
4129 1512 N
152 0 V
-152 0 V
Z stroke
4129 1512 M
152 0 V
-152 0 R
152 0 V
stroke

 /TransparentPatterns true def
4887 1511 152 0 40 30 0 PatternFill
4963 1511 M
stroke
4887 1511 N
152 0 V
-152 0 V
Z stroke
4887 1511 M
152 0 V
-152 0 R
152 0 V
stroke

 /TransparentPatterns true def
5646 1519 152 0 40 30 0 PatternFill
5722 1519 M
stroke
5646 1519 N
152 0 V
-152 0 V
Z stroke
5646 1519 M
152 0 V
-152 0 R
152 0 V
stroke

 /TransparentPatterns true def
6405 1462 152 0 40 30 0 PatternFill
6481 1462 M
stroke
6405 1462 N
152 0 V
-152 0 V
Z stroke
6405 1462 M
152 0 V
-152 0 R
152 0 V
stroke

 /TransparentPatterns true def
7163 1501 152 0 40 30 0 PatternFill
7239 1501 M
stroke
7163 1501 N
152 0 V
-152 0 V
Z stroke
7163 1501 M
152 0 V
-152 0 R
152 0 V
stroke

 /TransparentPatterns true def
7922 1500 152 0 40 30 0 PatternFill
7998 1500 M
stroke
7922 1500 N
152 0 V
-152 0 V
Z stroke
7922 1500 M
152 0 V
-152 0 R
152 0 V
stroke

 /TransparentPatterns true def
8681 1497 152 0 40 30 0 PatternFill
8757 1497 M
stroke
8681 1497 N
152 0 V
-152 0 V
Z stroke
8681 1497 M
152 0 V
-152 0 R
152 0 V
stroke

 /TransparentPatterns true def
9439 1473 152 0 40 30 0 PatternFill
9515 1473 M
stroke
9439 1473 N
152 0 V
-152 0 V
Z stroke
9439 1473 M
152 0 V
-152 0 R
152 0 V
stroke

 /TransparentPatterns true def
10198 1471 152 0 40 30 0 PatternFill
10274 1471 M
stroke
10198 1471 N
152 0 V
-152 0 V
Z stroke
10198 1471 M
152 0 V
-152 0 R
152 0 V
stroke

 /TransparentPatterns true def
10957 1487 152 0 40 30 0 PatternFill
11033 1487 M
stroke
10957 1487 N
152 0 V
-152 0 V
Z stroke
10957 1487 M
152 0 V
-152 0 R
152 0 V
stroke

 /TransparentPatterns true def
11715 1476 152 0 40 30 0 PatternFill
11791 1476 M
stroke
11715 1476 N
152 0 V
-152 0 V
Z stroke
11715 1476 M
152 0 V
-152 0 R
152 0 V
stroke

 /TransparentPatterns true def
12474 1484 152 0 40 30 0 PatternFill
12550 1484 M
stroke
12474 1484 N
152 0 V
-152 0 V
Z stroke
12474 1484 M
152 0 V
-152 0 R
152 0 V
% End plot #2
% Begin plot #3
2.000 UP
stroke
LTa
0.60 0.60 0.00 C LCb setrgbcolor
4714 153 M
[ [(Arial) 180.0 0.0 true true 0 (app. received bytes :         )]
] -60.0 MRshow
2.000 UP
1.000 UL
LTa
0.60 0.60 0.00 C 4822 153 M
333 0 V
980 4799 M
190 0 V
758 0 V
759 0 V
759 0 V
758 0 V
759 0 V
759 0 V
758 0 V
759 0 V
759 0 V
759 0 V
758 0 V
759 0 V
759 0 V
758 0 V
759 0 V
569 0 V
1170 4799 Box
1928 4799 Box
2687 4799 Box
3446 4799 Box
4204 4799 Box
4963 4799 Box
5722 4799 Box
6480 4799 Box
7239 4799 Box
7998 4799 Box
8757 4799 Box
9515 4799 Box
10274 4799 Box
11033 4799 Box
11791 4799 Box
12550 4799 Box
4988 153 Box
% End plot #3
% Begin plot #4
1.000 UL
LTb
0.00 0.00 0.63 C LCb setrgbcolor
8287 333 M
[ [(Arial) 180.0 0.0 true true 0 (per-packet)]
] -60.0 MRshow
1.000 UL
LTb
0.00 0.00 0.63 C 8395 288 333 90 80 45 0 PatternFill
8395 288 N
333 0 V
0 90 V
-333 0 V
0 -90 V
Z stroke
1.000 UL
LTb
0.00 0.00 0.63 C 1283 1224 152 819 80 45 0 PatternFill
1359 1150 M
0 74 V
0 819 R
0 759 V
stroke
1283 1224 N
152 0 V
0 819 V
-152 0 V
0 -819 V
Z stroke
1283 2802 M
152 0 V
1283 1150 M
152 0 V
stroke
2042 1215 152 821 80 45 0 PatternFill
2118 1147 M
0 68 V
0 821 R
0 834 V
stroke
2042 1215 N
152 0 V
0 821 V
-152 0 V
0 -821 V
Z stroke
2042 2870 M
152 0 V
2042 1147 M
152 0 V
stroke
2801 1214 152 762 80 45 0 PatternFill
2877 1142 M
0 72 V
0 762 R
0 748 V
stroke
2801 1214 N
152 0 V
0 762 V
-152 0 V
0 -762 V
Z stroke
2801 2724 M
152 0 V
2801 1142 M
152 0 V
stroke
3560 1199 152 712 80 45 0 PatternFill
3636 1140 M
0 59 V
0 712 R
0 730 V
stroke
3560 1199 N
152 0 V
0 712 V
-152 0 V
0 -712 V
Z stroke
3560 2641 M
152 0 V
3560 1140 M
152 0 V
stroke
4318 1238 152 736 80 45 0 PatternFill
4394 1146 M
0 92 V
0 736 R
0 803 V
stroke
4318 1238 N
152 0 V
0 736 V
-152 0 V
0 -736 V
Z stroke
4318 2777 M
152 0 V
4318 1146 M
152 0 V
stroke
5077 1214 152 868 80 45 0 PatternFill
5153 1147 M
0 67 V
0 868 R
0 767 V
stroke
5077 1214 N
152 0 V
0 868 V
-152 0 V
0 -868 V
Z stroke
5077 2849 M
152 0 V
5077 1147 M
152 0 V
stroke
5836 1210 152 829 80 45 0 PatternFill
5912 1141 M
0 69 V
0 829 R
0 721 V
stroke
5836 1210 N
152 0 V
0 829 V
-152 0 V
0 -829 V
Z stroke
5836 2760 M
152 0 V
5836 1141 M
152 0 V
stroke
6594 1209 152 765 80 45 0 PatternFill
6670 1144 M
0 65 V
0 765 R
0 760 V
stroke
6594 1209 N
152 0 V
0 765 V
-152 0 V
0 -765 V
Z stroke
6594 2734 M
152 0 V
6594 1144 M
152 0 V
stroke
7353 1201 152 660 80 45 0 PatternFill
7429 1139 M
0 62 V
0 660 R
0 664 V
stroke
7353 1201 N
152 0 V
0 660 V
-152 0 V
0 -660 V
Z stroke
7353 2525 M
152 0 V
7353 1139 M
152 0 V
stroke
8112 1209 152 796 80 45 0 PatternFill
8188 1145 M
0 64 V
0 796 R
0 683 V
stroke
8112 1209 N
152 0 V
0 796 V
-152 0 V
0 -796 V
Z stroke
8112 2688 M
152 0 V
8112 1145 M
152 0 V
stroke
8870 1212 152 827 80 45 0 PatternFill
8946 1147 M
0 65 V
0 827 R
0 616 V
stroke
8870 1212 N
152 0 V
0 827 V
-152 0 V
0 -827 V
Z stroke
8870 2655 M
152 0 V
8870 1147 M
152 0 V
stroke
9629 1199 152 748 80 45 0 PatternFill
9705 1136 M
0 63 V
0 748 R
0 760 V
stroke
9629 1199 N
152 0 V
0 748 V
-152 0 V
0 -748 V
Z stroke
9629 2707 M
152 0 V
9629 1136 M
152 0 V
stroke
10388 1213 152 801 80 45 0 PatternFill
10464 1147 M
0 66 V
0 801 R
0 680 V
stroke
10388 1213 N
152 0 V
0 801 V
-152 0 V
0 -801 V
Z stroke
10388 2694 M
152 0 V
10388 1147 M
152 0 V
stroke
11146 1186 152 672 80 45 0 PatternFill
11222 1139 M
0 47 V
0 672 R
0 683 V
stroke
11146 1186 N
152 0 V
0 672 V
-152 0 V
0 -672 V
Z stroke
11146 2541 M
152 0 V
11146 1139 M
152 0 V
stroke
11905 1208 152 713 80 45 0 PatternFill
11981 1143 M
0 65 V
0 713 R
0 755 V
stroke
11905 1208 N
152 0 V
0 713 V
-152 0 V
0 -713 V
Z stroke
11905 2676 M
152 0 V
11905 1143 M
152 0 V
stroke
12664 1219 152 756 80 45 0 PatternFill
12740 1153 M
0 66 V
0 756 R
0 721 V
stroke
12664 1219 N
152 0 V
0 756 V
-152 0 V
0 -756 V
Z stroke
12664 2696 M
152 0 V
12664 1153 M
152 0 V
% End plot #4
% Begin plot #5
stroke
LTb
LCb setrgbcolor

 /TransparentPatterns true def
1283 1647 152 0 80 -45 0 PatternFill
1359 1647 M
stroke
1283 1647 N
152 0 V
-152 0 V
Z stroke
1283 1647 M
152 0 V
-152 0 R
152 0 V
stroke

 /TransparentPatterns true def
2042 1651 152 0 80 -45 0 PatternFill
2118 1651 M
stroke
2042 1651 N
152 0 V
-152 0 V
Z stroke
2042 1651 M
152 0 V
-152 0 R
152 0 V
stroke

 /TransparentPatterns true def
2801 1595 152 0 80 -45 0 PatternFill
2877 1595 M
stroke
2801 1595 N
152 0 V
-152 0 V
Z stroke
2801 1595 M
152 0 V
-152 0 R
152 0 V
stroke

 /TransparentPatterns true def
3560 1586 152 0 80 -45 0 PatternFill
3636 1586 M
stroke
3560 1586 N
152 0 V
-152 0 V
Z stroke
3560 1586 M
152 0 V
-152 0 R
152 0 V
stroke

 /TransparentPatterns true def
4318 1627 152 0 80 -45 0 PatternFill
4394 1627 M
stroke
4318 1627 N
152 0 V
-152 0 V
Z stroke
4318 1627 M
152 0 V
-152 0 R
152 0 V
stroke

 /TransparentPatterns true def
5077 1651 152 0 80 -45 0 PatternFill
5153 1651 M
stroke
5077 1651 N
152 0 V
-152 0 V
Z stroke
5077 1651 M
152 0 V
-152 0 R
152 0 V
stroke

 /TransparentPatterns true def
5836 1652 152 0 80 -45 0 PatternFill
5912 1652 M
stroke
5836 1652 N
152 0 V
-152 0 V
Z stroke
5836 1652 M
152 0 V
-152 0 R
152 0 V
stroke

 /TransparentPatterns true def
6594 1614 152 0 80 -45 0 PatternFill
6670 1614 M
stroke
6594 1614 N
152 0 V
-152 0 V
Z stroke
6594 1614 M
152 0 V
-152 0 R
152 0 V
stroke

 /TransparentPatterns true def
7353 1555 152 0 80 -45 0 PatternFill
7429 1555 M
stroke
7353 1555 N
152 0 V
-152 0 V
Z stroke
7353 1555 M
152 0 V
-152 0 R
152 0 V
stroke

 /TransparentPatterns true def
8112 1613 152 0 80 -45 0 PatternFill
8188 1613 M
stroke
8112 1613 N
152 0 V
-152 0 V
Z stroke
8112 1613 M
152 0 V
-152 0 R
152 0 V
stroke

 /TransparentPatterns true def
8870 1629 152 0 80 -45 0 PatternFill
8946 1629 M
stroke
8870 1629 N
152 0 V
-152 0 V
Z stroke
8870 1629 M
152 0 V
-152 0 R
152 0 V
stroke

 /TransparentPatterns true def
9629 1586 152 0 80 -45 0 PatternFill
9705 1586 M
stroke
9629 1586 N
152 0 V
-152 0 V
Z stroke
9629 1586 M
152 0 V
-152 0 R
152 0 V
stroke

 /TransparentPatterns true def
10388 1635 152 0 80 -45 0 PatternFill
10464 1635 M
stroke
10388 1635 N
152 0 V
-152 0 V
Z stroke
10388 1635 M
152 0 V
-152 0 R
152 0 V
stroke

 /TransparentPatterns true def
11146 1539 152 0 80 -45 0 PatternFill
11222 1539 M
stroke
11146 1539 N
152 0 V
-152 0 V
Z stroke
11146 1539 M
152 0 V
-152 0 R
152 0 V
stroke

 /TransparentPatterns true def
11905 1587 152 0 80 -45 0 PatternFill
11981 1587 M
stroke
11905 1587 N
152 0 V
-152 0 V
Z stroke
11905 1587 M
152 0 V
-152 0 R
152 0 V
stroke

 /TransparentPatterns true def
12664 1619 152 0 80 -45 0 PatternFill
12740 1619 M
stroke
12664 1619 N
152 0 V
-152 0 V
Z stroke
12664 1619 M
152 0 V
-152 0 R
152 0 V
% End plot #5
% Begin plot #6
2.000 UP
stroke
LTa
0.00 0.00 0.63 C LCb setrgbcolor
8287 153 M
[ [(Arial) 180.0 0.0 true true 0 ( )]
] -60.0 MRshow
2.000 UP
1.000 UL
LTa
0.00 0.00 0.63 C 8395 153 M
333 0 V
980 4799 M
379 0 V
759 0 V
759 0 V
758 0 V
759 0 V
759 0 V
758 0 V
759 0 V
759 0 V
759 0 V
758 0 V
759 0 V
759 0 V
758 0 V
759 0 V
759 0 V
379 0 V
1359 4799 Circle
2118 4799 Circle
2877 4799 Circle
3635 4799 Circle
4394 4799 Circle
5153 4799 Circle
5911 4799 Circle
6670 4799 Circle
7429 4799 Circle
8188 4799 Circle
8946 4799 Circle
9705 4799 Circle
10464 4799 Circle
11222 4799 Circle
11981 4799 Circle
12740 4799 Circle
8561 153 Circle
% End plot #6
% Begin plot #7
1.000 UL
LTb
0.00 0.38 0.82 C LCb setrgbcolor
11860 333 M
[ [(Arial) 180.0 0.0 true true 0 (per-flow)]
] -60.0 MRshow
1.000 UL
LTb
0.00 0.38 0.82 C 11968 288 333 90 40 30 0 PatternFill
11968 288 N
333 0 V
0 90 V
-333 0 V
0 -90 V
Z stroke
1.000 UL
LTb
0.00 0.38 0.82 C 1473 1269 152 1453 40 30 0 PatternFill
1549 1164 M
0 105 V
0 1453 R
0 1301 V
stroke
1473 1269 N
152 0 V
0 1453 V
-152 0 V
0 -1453 V
Z stroke
1473 4023 M
152 0 V
1473 1164 M
152 0 V
stroke
2232 1267 152 1554 40 30 0 PatternFill
2308 1166 M
0 101 V
0 1554 R
0 1340 V
stroke
2232 1267 N
152 0 V
0 1554 V
-152 0 V
0 -1554 V
Z stroke
2232 4161 M
152 0 V
2232 1166 M
152 0 V
stroke
2991 1290 152 1363 40 30 0 PatternFill
3067 1175 M
0 115 V
0 1363 R
0 1296 V
stroke
2991 1290 N
152 0 V
0 1363 V
-152 0 V
0 -1363 V
Z stroke
2991 3949 M
152 0 V
2991 1175 M
152 0 V
stroke
3749 1306 152 1322 40 30 0 PatternFill
3825 1176 M
0 130 V
0 1322 R
0 1212 V
stroke
3749 1306 N
152 0 V
0 1322 V
-152 0 V
0 -1322 V
Z stroke
3749 3840 M
152 0 V
3749 1176 M
152 0 V
stroke
4508 1348 152 1418 40 30 0 PatternFill
4584 1192 M
0 156 V
0 1418 R
0 1522 V
stroke
4508 1348 N
152 0 V
0 1418 V
-152 0 V
0 -1418 V
Z stroke
4508 4288 M
152 0 V
4508 1192 M
152 0 V
stroke
5267 1355 152 1638 40 30 0 PatternFill
5343 1192 M
0 163 V
0 1638 R
0 1514 V
stroke
5267 1355 N
152 0 V
0 1638 V
-152 0 V
0 -1638 V
Z stroke
5267 4507 M
152 0 V
5267 1192 M
152 0 V
stroke
6025 1311 152 1381 40 30 0 PatternFill
6101 1177 M
0 134 V
0 1381 R
0 1410 V
stroke
6025 1311 N
152 0 V
0 1381 V
-152 0 V
0 -1381 V
Z stroke
6025 4102 M
152 0 V
6025 1177 M
152 0 V
stroke
6784 1293 152 1356 40 30 0 PatternFill
6860 1179 M
0 114 V
0 1356 R
0 1206 V
stroke
6784 1293 N
152 0 V
0 1356 V
-152 0 V
0 -1356 V
Z stroke
6784 3855 M
152 0 V
6784 1179 M
152 0 V
stroke
7543 1283 152 1609 40 30 0 PatternFill
7619 1180 M
0 103 V
0 1609 R
0 1126 V
stroke
7543 1283 N
152 0 V
0 1609 V
-152 0 V
0 -1609 V
Z stroke
7543 4018 M
152 0 V
7543 1180 M
152 0 V
stroke
8301 1315 152 1426 40 30 0 PatternFill
8377 1189 M
0 126 V
0 1426 R
0 1193 V
stroke
8301 1315 N
152 0 V
0 1426 V
-152 0 V
0 -1426 V
Z stroke
8301 3934 M
152 0 V
8301 1189 M
152 0 V
stroke
9060 1294 152 1645 40 30 0 PatternFill
9136 1185 M
0 109 V
0 1645 R
0 1419 V
stroke
9060 1294 N
152 0 V
0 1645 V
-152 0 V
0 -1645 V
Z stroke
9060 4358 M
152 0 V
9060 1185 M
152 0 V
stroke
9819 1229 152 1183 40 30 0 PatternFill
9895 1155 M
0 74 V
0 1183 R
0 1130 V
stroke
9819 1229 N
152 0 V
0 1183 V
-152 0 V
0 -1183 V
Z stroke
9819 3542 M
152 0 V
9819 1155 M
152 0 V
stroke
10577 1275 152 1464 40 30 0 PatternFill
10653 1172 M
0 103 V
0 1464 R
0 1159 V
stroke
10577 1275 N
152 0 V
0 1464 V
-152 0 V
0 -1464 V
Z stroke
10577 3898 M
152 0 V
10577 1172 M
152 0 V
stroke
11336 1272 152 1473 40 30 0 PatternFill
11412 1173 M
0 99 V
0 1473 R
0 1194 V
stroke
11336 1272 N
152 0 V
0 1473 V
-152 0 V
0 -1473 V
Z stroke
11336 3939 M
152 0 V
11336 1173 M
152 0 V
stroke
12095 1277 152 1322 40 30 0 PatternFill
12171 1180 M
0 97 V
0 1322 R
0 1241 V
stroke
12095 1277 N
152 0 V
0 1322 V
-152 0 V
0 -1322 V
Z stroke
12095 3840 M
152 0 V
12095 1180 M
152 0 V
stroke
12853 1328 152 1489 40 30 0 PatternFill
12929 1193 M
0 135 V
0 1489 R
0 1225 V
stroke
12853 1328 N
152 0 V
0 1489 V
-152 0 V
0 -1489 V
Z stroke
12853 4042 M
152 0 V
12853 1193 M
152 0 V
% End plot #7
% Begin plot #8
stroke
LTb
LCb setrgbcolor

 /TransparentPatterns true def
1473 2020 152 0 40 -30 0 PatternFill
1549 2020 M
stroke
1473 2020 N
152 0 V
-152 0 V
Z stroke
1473 2020 M
152 0 V
-152 0 R
152 0 V
stroke

 /TransparentPatterns true def
2232 2063 152 0 40 -30 0 PatternFill
2308 2063 M
stroke
2232 2063 N
152 0 V
-152 0 V
Z stroke
2232 2063 M
152 0 V
-152 0 R
152 0 V
stroke

 /TransparentPatterns true def
2991 2048 152 0 40 -30 0 PatternFill
3067 2048 M
stroke
2991 2048 N
152 0 V
-152 0 V
Z stroke
2991 2048 M
152 0 V
-152 0 R
152 0 V
stroke

 /TransparentPatterns true def
3749 2001 152 0 40 -30 0 PatternFill
3825 2001 M
stroke
3749 2001 N
152 0 V
-152 0 V
Z stroke
3749 2001 M
152 0 V
-152 0 R
152 0 V
stroke

 /TransparentPatterns true def
4508 2123 152 0 40 -30 0 PatternFill
4584 2123 M
stroke
4508 2123 N
152 0 V
-152 0 V
Z stroke
4508 2123 M
152 0 V
-152 0 R
152 0 V
stroke

 /TransparentPatterns true def
5267 2226 152 0 40 -30 0 PatternFill
5343 2226 M
stroke
5267 2226 N
152 0 V
-152 0 V
Z stroke
5267 2226 M
152 0 V
-152 0 R
152 0 V
stroke

 /TransparentPatterns true def
6025 2056 152 0 40 -30 0 PatternFill
6101 2056 M
stroke
6025 2056 N
152 0 V
-152 0 V
Z stroke
6025 2056 M
152 0 V
-152 0 R
152 0 V
stroke

 /TransparentPatterns true def
6784 2018 152 0 40 -30 0 PatternFill
6860 2018 M
stroke
6784 2018 N
152 0 V
-152 0 V
Z stroke
6784 2018 M
152 0 V
-152 0 R
152 0 V
stroke

 /TransparentPatterns true def
7543 2085 152 0 40 -30 0 PatternFill
7619 2085 M
stroke
7543 2085 N
152 0 V
-152 0 V
Z stroke
7543 2085 M
152 0 V
-152 0 R
152 0 V
stroke

 /TransparentPatterns true def
8301 2054 152 0 40 -30 0 PatternFill
8377 2054 M
stroke
8301 2054 N
152 0 V
-152 0 V
Z stroke
8301 2054 M
152 0 V
-152 0 R
152 0 V
stroke

 /TransparentPatterns true def
9060 2158 152 0 40 -30 0 PatternFill
9136 2158 M
stroke
9060 2158 N
152 0 V
-152 0 V
Z stroke
9060 2158 M
152 0 V
-152 0 R
152 0 V
stroke

 /TransparentPatterns true def
9819 1832 152 0 40 -30 0 PatternFill
9895 1832 M
stroke
9819 1832 N
152 0 V
-152 0 V
Z stroke
9819 1832 M
152 0 V
-152 0 R
152 0 V
stroke

 /TransparentPatterns true def
10577 2019 152 0 40 -30 0 PatternFill
10653 2019 M
stroke
10577 2019 N
152 0 V
-152 0 V
Z stroke
10577 2019 M
152 0 V
-152 0 R
152 0 V
stroke

 /TransparentPatterns true def
11336 2030 152 0 40 -30 0 PatternFill
11412 2030 M
stroke
11336 2030 N
152 0 V
-152 0 V
Z stroke
11336 2030 M
152 0 V
-152 0 R
152 0 V
stroke

 /TransparentPatterns true def
12095 1954 152 0 40 -30 0 PatternFill
12171 1954 M
stroke
12095 1954 N
152 0 V
-152 0 V
Z stroke
12095 1954 M
152 0 V
-152 0 R
152 0 V
stroke

 /TransparentPatterns true def
12853 2120 152 0 40 -30 0 PatternFill
12929 2120 M
stroke
12853 2120 N
152 0 V
-152 0 V
Z stroke
12853 2120 M
152 0 V
-152 0 R
152 0 V
% End plot #8
% Begin plot #9
2.000 UP
stroke
LTa
0.00 0.38 0.82 C LCb setrgbcolor
11860 153 M
[ [(Arial) 180.0 0.0 true true 0 ( )]
] -60.0 MRshow
2.000 UP
1.000 UL
LTa
0.00 0.38 0.82 C 11968 153 M
333 0 V
980 4799 M
569 0 V
759 0 V
758 0 V
759 0 V
759 0 V
758 0 V
759 0 V
759 0 V
759 0 V
758 0 V
759 0 V
759 0 V
758 0 V
759 0 V
759 0 V
758 0 V
190 0 V
1549 4799 TriU
2308 4799 TriU
3066 4799 TriU
3825 4799 TriU
4584 4799 TriU
5342 4799 TriU
6101 4799 TriU
6860 4799 TriU
7619 4799 TriU
8377 4799 TriU
9136 4799 TriU
9895 4799 TriU
10653 4799 TriU
11412 4799 TriU
12171 4799 TriU
12929 4799 TriU
12134 153 TriU
% End plot #9
2.000 UL
LTb
LCb setrgbcolor
1.000 UP
1.000 UL
LTb
0.00 0.00 0.00 C stroke
grestore
end
showpage
%%Trailer
%%DocumentFonts: Arial
