%!PS-Adobe-2.0 EPSF-2.0
%%Title: TcpVegas-download-finishtime-50UE-250-400.eps
%%Creator: gnuplot 5.0 patchlevel 3
%%CreationDate: Thu May 19 16:44:20 2016
%%DocumentFonts: (atend)
%%BoundingBox: 50 50 770 302
%%EndComments
%%BeginProlog
/gnudict 256 dict def
gnudict begin
%
% The following true/false flags may be edited by hand if desired.
% The unit line width and grayscale image gamma correction may also be changed.
%
/Color true def
/Blacktext false def
/Solid false def
/Dashlength 3 def
/Landscape false def
/Level1 false def
/Level3 false def
/Rounded false def
/ClipToBoundingBox false def
/SuppressPDFMark false def
/TransparentPatterns false def
/gnulinewidth 15.000 def
/userlinewidth gnulinewidth def
/Gamma 1.0 def
/BackgroundColor {-1.000 -1.000 -1.000} def
%
/vshift -66 def
/dl1 {
  10.0 Dashlength userlinewidth gnulinewidth div mul mul mul
  Rounded { currentlinewidth 0.75 mul sub dup 0 le { pop 0.01 } if } if
} def
/dl2 {
  10.0 Dashlength userlinewidth gnulinewidth div mul mul mul
  Rounded { currentlinewidth 0.75 mul add } if
} def
/hpt_ 31.5 def
/vpt_ 31.5 def
/hpt hpt_ def
/vpt vpt_ def
/doclip {
  ClipToBoundingBox {
    newpath 50 50 moveto 770 50 lineto 770 302 lineto 50 302 lineto closepath
    clip
  } if
} def
%
% Gnuplot Prolog Version 5.1 (Oct 2015)
%
%/SuppressPDFMark true def
%
/M {moveto} bind def
/L {lineto} bind def
/R {rmoveto} bind def
/V {rlineto} bind def
/N {newpath moveto} bind def
/Z {closepath} bind def
/C {setrgbcolor} bind def
/f {rlineto fill} bind def
/g {setgray} bind def
/Gshow {show} def   % May be redefined later in the file to support UTF-8
/vpt2 vpt 2 mul def
/hpt2 hpt 2 mul def
/Lshow {currentpoint stroke M 0 vshift R 
	Blacktext {gsave 0 setgray textshow grestore} {textshow} ifelse} def
/Rshow {currentpoint stroke M dup stringwidth pop neg vshift R
	Blacktext {gsave 0 setgray textshow grestore} {textshow} ifelse} def
/Cshow {currentpoint stroke M dup stringwidth pop -2 div vshift R 
	Blacktext {gsave 0 setgray textshow grestore} {textshow} ifelse} def
/UP {dup vpt_ mul /vpt exch def hpt_ mul /hpt exch def
  /hpt2 hpt 2 mul def /vpt2 vpt 2 mul def} def
/DL {Color {setrgbcolor Solid {pop []} if 0 setdash}
 {pop pop pop 0 setgray Solid {pop []} if 0 setdash} ifelse} def
/BL {stroke userlinewidth 2 mul setlinewidth
	Rounded {1 setlinejoin 1 setlinecap} if} def
/AL {stroke userlinewidth 2 div setlinewidth
	Rounded {1 setlinejoin 1 setlinecap} if} def
/UL {dup gnulinewidth mul /userlinewidth exch def
	dup 1 lt {pop 1} if 10 mul /udl exch def} def
/PL {stroke userlinewidth setlinewidth
	Rounded {1 setlinejoin 1 setlinecap} if} def
3.8 setmiterlimit
% Classic Line colors (version 5.0)
/LCw {1 1 1} def
/LCb {0 0 0} def
/LCa {0 0 0} def
/LC0 {1 0 0} def
/LC1 {0 1 0} def
/LC2 {0 0 1} def
/LC3 {1 0 1} def
/LC4 {0 1 1} def
/LC5 {1 1 0} def
/LC6 {0 0 0} def
/LC7 {1 0.3 0} def
/LC8 {0.5 0.5 0.5} def
% Default dash patterns (version 5.0)
/LTB {BL [] LCb DL} def
/LTw {PL [] 1 setgray} def
/LTb {PL [] LCb DL} def
/LTa {AL [1 udl mul 2 udl mul] 0 setdash LCa setrgbcolor} def
/LT0 {PL [] LC0 DL} def
/LT1 {PL [2 dl1 3 dl2] LC1 DL} def
/LT2 {PL [1 dl1 1.5 dl2] LC2 DL} def
/LT3 {PL [6 dl1 2 dl2 1 dl1 2 dl2] LC3 DL} def
/LT4 {PL [1 dl1 2 dl2 6 dl1 2 dl2 1 dl1 2 dl2] LC4 DL} def
/LT5 {PL [4 dl1 2 dl2] LC5 DL} def
/LT6 {PL [1.5 dl1 1.5 dl2 1.5 dl1 1.5 dl2 1.5 dl1 6 dl2] LC6 DL} def
/LT7 {PL [3 dl1 3 dl2 1 dl1 3 dl2] LC7 DL} def
/LT8 {PL [2 dl1 2 dl2 2 dl1 6 dl2] LC8 DL} def
/SL {[] 0 setdash} def
/Pnt {stroke [] 0 setdash gsave 1 setlinecap M 0 0 V stroke grestore} def
/Dia {stroke [] 0 setdash 2 copy vpt add M
  hpt neg vpt neg V hpt vpt neg V
  hpt vpt V hpt neg vpt V closepath stroke
  Pnt} def
/Pls {stroke [] 0 setdash vpt sub M 0 vpt2 V
  currentpoint stroke M
  hpt neg vpt neg R hpt2 0 V stroke
 } def
/Box {stroke [] 0 setdash 2 copy exch hpt sub exch vpt add M
  0 vpt2 neg V hpt2 0 V 0 vpt2 V
  hpt2 neg 0 V closepath stroke
  Pnt} def
/Crs {stroke [] 0 setdash exch hpt sub exch vpt add M
  hpt2 vpt2 neg V currentpoint stroke M
  hpt2 neg 0 R hpt2 vpt2 V stroke} def
/TriU {stroke [] 0 setdash 2 copy vpt 1.12 mul add M
  hpt neg vpt -1.62 mul V
  hpt 2 mul 0 V
  hpt neg vpt 1.62 mul V closepath stroke
  Pnt} def
/Star {2 copy Pls Crs} def
/BoxF {stroke [] 0 setdash exch hpt sub exch vpt add M
  0 vpt2 neg V hpt2 0 V 0 vpt2 V
  hpt2 neg 0 V closepath fill} def
/TriUF {stroke [] 0 setdash vpt 1.12 mul add M
  hpt neg vpt -1.62 mul V
  hpt 2 mul 0 V
  hpt neg vpt 1.62 mul V closepath fill} def
/TriD {stroke [] 0 setdash 2 copy vpt 1.12 mul sub M
  hpt neg vpt 1.62 mul V
  hpt 2 mul 0 V
  hpt neg vpt -1.62 mul V closepath stroke
  Pnt} def
/TriDF {stroke [] 0 setdash vpt 1.12 mul sub M
  hpt neg vpt 1.62 mul V
  hpt 2 mul 0 V
  hpt neg vpt -1.62 mul V closepath fill} def
/DiaF {stroke [] 0 setdash vpt add M
  hpt neg vpt neg V hpt vpt neg V
  hpt vpt V hpt neg vpt V closepath fill} def
/Pent {stroke [] 0 setdash 2 copy gsave
  translate 0 hpt M 4 {72 rotate 0 hpt L} repeat
  closepath stroke grestore Pnt} def
/PentF {stroke [] 0 setdash gsave
  translate 0 hpt M 4 {72 rotate 0 hpt L} repeat
  closepath fill grestore} def
/Circle {stroke [] 0 setdash 2 copy
  hpt 0 360 arc stroke Pnt} def
/CircleF {stroke [] 0 setdash hpt 0 360 arc fill} def
/C0 {BL [] 0 setdash 2 copy moveto vpt 90 450 arc} bind def
/C1 {BL [] 0 setdash 2 copy moveto
	2 copy vpt 0 90 arc closepath fill
	vpt 0 360 arc closepath} bind def
/C2 {BL [] 0 setdash 2 copy moveto
	2 copy vpt 90 180 arc closepath fill
	vpt 0 360 arc closepath} bind def
/C3 {BL [] 0 setdash 2 copy moveto
	2 copy vpt 0 180 arc closepath fill
	vpt 0 360 arc closepath} bind def
/C4 {BL [] 0 setdash 2 copy moveto
	2 copy vpt 180 270 arc closepath fill
	vpt 0 360 arc closepath} bind def
/C5 {BL [] 0 setdash 2 copy moveto
	2 copy vpt 0 90 arc
	2 copy moveto
	2 copy vpt 180 270 arc closepath fill
	vpt 0 360 arc} bind def
/C6 {BL [] 0 setdash 2 copy moveto
	2 copy vpt 90 270 arc closepath fill
	vpt 0 360 arc closepath} bind def
/C7 {BL [] 0 setdash 2 copy moveto
	2 copy vpt 0 270 arc closepath fill
	vpt 0 360 arc closepath} bind def
/C8 {BL [] 0 setdash 2 copy moveto
	2 copy vpt 270 360 arc closepath fill
	vpt 0 360 arc closepath} bind def
/C9 {BL [] 0 setdash 2 copy moveto
	2 copy vpt 270 450 arc closepath fill
	vpt 0 360 arc closepath} bind def
/C10 {BL [] 0 setdash 2 copy 2 copy moveto vpt 270 360 arc closepath fill
	2 copy moveto
	2 copy vpt 90 180 arc closepath fill
	vpt 0 360 arc closepath} bind def
/C11 {BL [] 0 setdash 2 copy moveto
	2 copy vpt 0 180 arc closepath fill
	2 copy moveto
	2 copy vpt 270 360 arc closepath fill
	vpt 0 360 arc closepath} bind def
/C12 {BL [] 0 setdash 2 copy moveto
	2 copy vpt 180 360 arc closepath fill
	vpt 0 360 arc closepath} bind def
/C13 {BL [] 0 setdash 2 copy moveto
	2 copy vpt 0 90 arc closepath fill
	2 copy moveto
	2 copy vpt 180 360 arc closepath fill
	vpt 0 360 arc closepath} bind def
/C14 {BL [] 0 setdash 2 copy moveto
	2 copy vpt 90 360 arc closepath fill
	vpt 0 360 arc} bind def
/C15 {BL [] 0 setdash 2 copy vpt 0 360 arc closepath fill
	vpt 0 360 arc closepath} bind def
/Rec {newpath 4 2 roll moveto 1 index 0 rlineto 0 exch rlineto
	neg 0 rlineto closepath} bind def
/Square {dup Rec} bind def
/Bsquare {vpt sub exch vpt sub exch vpt2 Square} bind def
/S0 {BL [] 0 setdash 2 copy moveto 0 vpt rlineto BL Bsquare} bind def
/S1 {BL [] 0 setdash 2 copy vpt Square fill Bsquare} bind def
/S2 {BL [] 0 setdash 2 copy exch vpt sub exch vpt Square fill Bsquare} bind def
/S3 {BL [] 0 setdash 2 copy exch vpt sub exch vpt2 vpt Rec fill Bsquare} bind def
/S4 {BL [] 0 setdash 2 copy exch vpt sub exch vpt sub vpt Square fill Bsquare} bind def
/S5 {BL [] 0 setdash 2 copy 2 copy vpt Square fill
	exch vpt sub exch vpt sub vpt Square fill Bsquare} bind def
/S6 {BL [] 0 setdash 2 copy exch vpt sub exch vpt sub vpt vpt2 Rec fill Bsquare} bind def
/S7 {BL [] 0 setdash 2 copy exch vpt sub exch vpt sub vpt vpt2 Rec fill
	2 copy vpt Square fill Bsquare} bind def
/S8 {BL [] 0 setdash 2 copy vpt sub vpt Square fill Bsquare} bind def
/S9 {BL [] 0 setdash 2 copy vpt sub vpt vpt2 Rec fill Bsquare} bind def
/S10 {BL [] 0 setdash 2 copy vpt sub vpt Square fill 2 copy exch vpt sub exch vpt Square fill
	Bsquare} bind def
/S11 {BL [] 0 setdash 2 copy vpt sub vpt Square fill 2 copy exch vpt sub exch vpt2 vpt Rec fill
	Bsquare} bind def
/S12 {BL [] 0 setdash 2 copy exch vpt sub exch vpt sub vpt2 vpt Rec fill Bsquare} bind def
/S13 {BL [] 0 setdash 2 copy exch vpt sub exch vpt sub vpt2 vpt Rec fill
	2 copy vpt Square fill Bsquare} bind def
/S14 {BL [] 0 setdash 2 copy exch vpt sub exch vpt sub vpt2 vpt Rec fill
	2 copy exch vpt sub exch vpt Square fill Bsquare} bind def
/S15 {BL [] 0 setdash 2 copy Bsquare fill Bsquare} bind def
/D0 {gsave translate 45 rotate 0 0 S0 stroke grestore} bind def
/D1 {gsave translate 45 rotate 0 0 S1 stroke grestore} bind def
/D2 {gsave translate 45 rotate 0 0 S2 stroke grestore} bind def
/D3 {gsave translate 45 rotate 0 0 S3 stroke grestore} bind def
/D4 {gsave translate 45 rotate 0 0 S4 stroke grestore} bind def
/D5 {gsave translate 45 rotate 0 0 S5 stroke grestore} bind def
/D6 {gsave translate 45 rotate 0 0 S6 stroke grestore} bind def
/D7 {gsave translate 45 rotate 0 0 S7 stroke grestore} bind def
/D8 {gsave translate 45 rotate 0 0 S8 stroke grestore} bind def
/D9 {gsave translate 45 rotate 0 0 S9 stroke grestore} bind def
/D10 {gsave translate 45 rotate 0 0 S10 stroke grestore} bind def
/D11 {gsave translate 45 rotate 0 0 S11 stroke grestore} bind def
/D12 {gsave translate 45 rotate 0 0 S12 stroke grestore} bind def
/D13 {gsave translate 45 rotate 0 0 S13 stroke grestore} bind def
/D14 {gsave translate 45 rotate 0 0 S14 stroke grestore} bind def
/D15 {gsave translate 45 rotate 0 0 S15 stroke grestore} bind def
/DiaE {stroke [] 0 setdash vpt add M
  hpt neg vpt neg V hpt vpt neg V
  hpt vpt V hpt neg vpt V closepath stroke} def
/BoxE {stroke [] 0 setdash exch hpt sub exch vpt add M
  0 vpt2 neg V hpt2 0 V 0 vpt2 V
  hpt2 neg 0 V closepath stroke} def
/TriUE {stroke [] 0 setdash vpt 1.12 mul add M
  hpt neg vpt -1.62 mul V
  hpt 2 mul 0 V
  hpt neg vpt 1.62 mul V closepath stroke} def
/TriDE {stroke [] 0 setdash vpt 1.12 mul sub M
  hpt neg vpt 1.62 mul V
  hpt 2 mul 0 V
  hpt neg vpt -1.62 mul V closepath stroke} def
/PentE {stroke [] 0 setdash gsave
  translate 0 hpt M 4 {72 rotate 0 hpt L} repeat
  closepath stroke grestore} def
/CircE {stroke [] 0 setdash 
  hpt 0 360 arc stroke} def
/Opaque {gsave closepath 1 setgray fill grestore 0 setgray closepath} def
/DiaW {stroke [] 0 setdash vpt add M
  hpt neg vpt neg V hpt vpt neg V
  hpt vpt V hpt neg vpt V Opaque stroke} def
/BoxW {stroke [] 0 setdash exch hpt sub exch vpt add M
  0 vpt2 neg V hpt2 0 V 0 vpt2 V
  hpt2 neg 0 V Opaque stroke} def
/TriUW {stroke [] 0 setdash vpt 1.12 mul add M
  hpt neg vpt -1.62 mul V
  hpt 2 mul 0 V
  hpt neg vpt 1.62 mul V Opaque stroke} def
/TriDW {stroke [] 0 setdash vpt 1.12 mul sub M
  hpt neg vpt 1.62 mul V
  hpt 2 mul 0 V
  hpt neg vpt -1.62 mul V Opaque stroke} def
/PentW {stroke [] 0 setdash gsave
  translate 0 hpt M 4 {72 rotate 0 hpt L} repeat
  Opaque stroke grestore} def
/CircW {stroke [] 0 setdash 
  hpt 0 360 arc Opaque stroke} def
/BoxFill {gsave Rec 1 setgray fill grestore} def
/Density {
  /Fillden exch def
  currentrgbcolor
  /ColB exch def /ColG exch def /ColR exch def
  /ColR ColR Fillden mul Fillden sub 1 add def
  /ColG ColG Fillden mul Fillden sub 1 add def
  /ColB ColB Fillden mul Fillden sub 1 add def
  ColR ColG ColB setrgbcolor} def
/BoxColFill {gsave Rec PolyFill} def
/PolyFill {gsave Density fill grestore grestore} def
/h {rlineto rlineto rlineto gsave closepath fill grestore} bind def
%
% PostScript Level 1 Pattern Fill routine for rectangles
% Usage: x y w h s a XX PatternFill
%	x,y = lower left corner of box to be filled
%	w,h = width and height of box
%	  a = angle in degrees between lines and x-axis
%	 XX = 0/1 for no/yes cross-hatch
%
/PatternFill {gsave /PFa [ 9 2 roll ] def
  PFa 0 get PFa 2 get 2 div add PFa 1 get PFa 3 get 2 div add translate
  PFa 2 get -2 div PFa 3 get -2 div PFa 2 get PFa 3 get Rec
  TransparentPatterns {} {gsave 1 setgray fill grestore} ifelse
  clip
  currentlinewidth 0.5 mul setlinewidth
  /PFs PFa 2 get dup mul PFa 3 get dup mul add sqrt def
  0 0 M PFa 5 get rotate PFs -2 div dup translate
  0 1 PFs PFa 4 get div 1 add floor cvi
	{PFa 4 get mul 0 M 0 PFs V} for
  0 PFa 6 get ne {
	0 1 PFs PFa 4 get div 1 add floor cvi
	{PFa 4 get mul 0 2 1 roll M PFs 0 V} for
 } if
  stroke grestore} def
%
/languagelevel where
 {pop languagelevel} {1} ifelse
dup 2 lt
	{/InterpretLevel1 true def
	 /InterpretLevel3 false def}
	{/InterpretLevel1 Level1 def
	 2 gt
	    {/InterpretLevel3 Level3 def}
	    {/InterpretLevel3 false def}
	 ifelse }
 ifelse
%
% PostScript level 2 pattern fill definitions
%
/Level2PatternFill {
/Tile8x8 {/PaintType 2 /PatternType 1 /TilingType 1 /BBox [0 0 8 8] /XStep 8 /YStep 8}
	bind def
/KeepColor {currentrgbcolor [/Pattern /DeviceRGB] setcolorspace} bind def
<< Tile8x8
 /PaintProc {0.5 setlinewidth pop 0 0 M 8 8 L 0 8 M 8 0 L stroke} 
>> matrix makepattern
/Pat1 exch def
<< Tile8x8
 /PaintProc {0.5 setlinewidth pop 0 0 M 8 8 L 0 8 M 8 0 L stroke
	0 4 M 4 8 L 8 4 L 4 0 L 0 4 L stroke}
>> matrix makepattern
/Pat2 exch def
<< Tile8x8
 /PaintProc {0.5 setlinewidth pop 0 0 M 0 8 L
	8 8 L 8 0 L 0 0 L fill}
>> matrix makepattern
/Pat3 exch def
<< Tile8x8
 /PaintProc {0.5 setlinewidth pop -4 8 M 8 -4 L
	0 12 M 12 0 L stroke}
>> matrix makepattern
/Pat4 exch def
<< Tile8x8
 /PaintProc {0.5 setlinewidth pop -4 0 M 8 12 L
	0 -4 M 12 8 L stroke}
>> matrix makepattern
/Pat5 exch def
<< Tile8x8
 /PaintProc {0.5 setlinewidth pop -2 8 M 4 -4 L
	0 12 M 8 -4 L 4 12 M 10 0 L stroke}
>> matrix makepattern
/Pat6 exch def
<< Tile8x8
 /PaintProc {0.5 setlinewidth pop -2 0 M 4 12 L
	0 -4 M 8 12 L 4 -4 M 10 8 L stroke}
>> matrix makepattern
/Pat7 exch def
<< Tile8x8
 /PaintProc {0.5 setlinewidth pop 8 -2 M -4 4 L
	12 0 M -4 8 L 12 4 M 0 10 L stroke}
>> matrix makepattern
/Pat8 exch def
<< Tile8x8
 /PaintProc {0.5 setlinewidth pop 0 -2 M 12 4 L
	-4 0 M 12 8 L -4 4 M 8 10 L stroke}
>> matrix makepattern
/Pat9 exch def
/Pattern1 {PatternBgnd KeepColor Pat1 setpattern} bind def
/Pattern2 {PatternBgnd KeepColor Pat2 setpattern} bind def
/Pattern3 {PatternBgnd KeepColor Pat3 setpattern} bind def
/Pattern4 {PatternBgnd KeepColor Landscape {Pat5} {Pat4} ifelse setpattern} bind def
/Pattern5 {PatternBgnd KeepColor Landscape {Pat4} {Pat5} ifelse setpattern} bind def
/Pattern6 {PatternBgnd KeepColor Landscape {Pat9} {Pat6} ifelse setpattern} bind def
/Pattern7 {PatternBgnd KeepColor Landscape {Pat8} {Pat7} ifelse setpattern} bind def
} def
%
%
%End of PostScript Level 2 code
%
/PatternBgnd {
  TransparentPatterns {} {gsave 1 setgray fill grestore} ifelse
} def
%
% Substitute for Level 2 pattern fill codes with
% grayscale if Level 2 support is not selected.
%
/Level1PatternFill {
/Pattern1 {0.250 Density} bind def
/Pattern2 {0.500 Density} bind def
/Pattern3 {0.750 Density} bind def
/Pattern4 {0.125 Density} bind def
/Pattern5 {0.375 Density} bind def
/Pattern6 {0.625 Density} bind def
/Pattern7 {0.875 Density} bind def
} def
%
% Now test for support of Level 2 code
%
Level1 {Level1PatternFill} {Level2PatternFill} ifelse
%
/Symbol-Oblique /Symbol findfont [1 0 .167 1 0 0] makefont
dup length dict begin {1 index /FID eq {pop pop} {def} ifelse} forall
currentdict end definefont pop
%
/MFshow {
   { dup 5 get 3 ge
     { 5 get 3 eq {gsave} {grestore} ifelse }
     {dup dup 0 get findfont exch 1 get scalefont setfont
     [ currentpoint ] exch dup 2 get 0 exch R dup 5 get 2 ne {dup dup 6
     get exch 4 get {textshow} {stringwidth pop 0 R} ifelse }if dup 5 get 0 eq
     {dup 3 get {2 get neg 0 exch R pop} {pop aload pop M} ifelse} {dup 5
     get 1 eq {dup 2 get exch dup 3 get exch 6 get stringwidth pop -2 div
     dup 0 R} {dup 6 get stringwidth pop -2 div 0 R 6 get
     textshow 2 index {aload pop M neg 3 -1 roll neg R pop pop} {pop pop pop
     pop aload pop M} ifelse }ifelse }ifelse }
     ifelse }
   forall} def
/Gswidth {dup type /stringtype eq {stringwidth} {pop (n) stringwidth} ifelse} def
/MFwidth {0 exch { dup 5 get 3 ge { 5 get 3 eq { 0 } { pop } ifelse }
 {dup 3 get{dup dup 0 get findfont exch 1 get scalefont setfont
     6 get Gswidth pop add} {pop} ifelse} ifelse} forall} def
/MLshow { currentpoint stroke M
  0 exch R
  Blacktext {gsave 0 setgray MFshow grestore} {MFshow} ifelse } bind def
/MRshow { currentpoint stroke M
  exch dup MFwidth neg 3 -1 roll R
  Blacktext {gsave 0 setgray MFshow grestore} {MFshow} ifelse } bind def
/MCshow { currentpoint stroke M
  exch dup MFwidth -2 div 3 -1 roll R
  Blacktext {gsave 0 setgray MFshow grestore} {MFshow} ifelse } bind def
/XYsave    { [( ) 1 2 true false 3 ()] } bind def
/XYrestore { [( ) 1 2 true false 4 ()] } bind def
Level1 SuppressPDFMark or 
{} {
/SDict 10 dict def
systemdict /pdfmark known not {
  userdict /pdfmark systemdict /cleartomark get put
} if
SDict begin [
  /Title (TcpVegas-download-finishtime-50UE-250-400.eps)
  /Subject (gnuplot plot)
  /Creator (gnuplot 5.0 patchlevel 3)
  /Author (nat)
%  /Producer (gnuplot)
%  /Keywords ()
  /CreationDate (Thu May 19 16:44:20 2016)
  /DOCINFO pdfmark
end
} ifelse
%
% Support for boxed text - Ethan A Merritt May 2005
%
/InitTextBox { userdict /TBy2 3 -1 roll put userdict /TBx2 3 -1 roll put
           userdict /TBy1 3 -1 roll put userdict /TBx1 3 -1 roll put
	   /Boxing true def } def
/ExtendTextBox { Boxing
    { gsave dup false charpath pathbbox
      dup TBy2 gt {userdict /TBy2 3 -1 roll put} {pop} ifelse
      dup TBx2 gt {userdict /TBx2 3 -1 roll put} {pop} ifelse
      dup TBy1 lt {userdict /TBy1 3 -1 roll put} {pop} ifelse
      dup TBx1 lt {userdict /TBx1 3 -1 roll put} {pop} ifelse
      grestore } if } def
/PopTextBox { newpath TBx1 TBxmargin sub TBy1 TBymargin sub M
               TBx1 TBxmargin sub TBy2 TBymargin add L
	       TBx2 TBxmargin add TBy2 TBymargin add L
	       TBx2 TBxmargin add TBy1 TBymargin sub L closepath } def
/DrawTextBox { PopTextBox stroke /Boxing false def} def
/FillTextBox { gsave PopTextBox 1 1 1 setrgbcolor fill grestore /Boxing false def} def
0 0 0 0 InitTextBox
/TBxmargin 20 def
/TBymargin 20 def
/Boxing false def
/textshow { ExtendTextBox Gshow } def
%
% redundant definitions for compatibility with prologue.ps older than 5.0.2
/LTB {BL [] LCb DL} def
/LTb {PL [] LCb DL} def
end
%%EndProlog
%%Page: 1 1
gnudict begin
gsave
doclip
50 50 translate
0.050 0.050 scale
0 setgray
newpath
(Arial) findfont 200 scalefont setfont
BackgroundColor 0 lt 3 1 roll 0 lt exch 0 lt or or not {BackgroundColor C 1.000 0 0 14400.00 5040.00 BoxColFill} if
1.000 UL
LTb
0.00 0.00 0.00 C 0.500 UL
LTa
0.50 0.50 0.50 C 980 1000 M
12139 0 V
stroke
1.000 UL
LTb
0.00 0.00 0.00 C 980 1000 M
63 0 V
stroke
860 1000 M
[ [(Arial) 200.0 0.0 true true 0 ( 0)]
] -66.7 MRshow
1.000 UL
LTb
0.00 0.00 0.00 C 0.500 UL
LTa
0.50 0.50 0.50 C 980 1760 M
12139 0 V
stroke
1.000 UL
LTb
0.00 0.00 0.00 C 980 1760 M
63 0 V
stroke
860 1760 M
[ [(Arial) 200.0 0.0 true true 0 ( 50)]
] -66.7 MRshow
1.000 UL
LTb
0.00 0.00 0.00 C 0.500 UL
LTa
0.50 0.50 0.50 C 980 2520 M
12139 0 V
stroke
1.000 UL
LTb
0.00 0.00 0.00 C 980 2520 M
63 0 V
stroke
860 2520 M
[ [(Arial) 200.0 0.0 true true 0 ( 100)]
] -66.7 MRshow
1.000 UL
LTb
0.00 0.00 0.00 C 0.500 UL
LTa
0.50 0.50 0.50 C 980 3279 M
12139 0 V
stroke
1.000 UL
LTb
0.00 0.00 0.00 C 980 3279 M
63 0 V
stroke
860 3279 M
[ [(Arial) 200.0 0.0 true true 0 ( 150)]
] -66.7 MRshow
1.000 UL
LTb
0.00 0.00 0.00 C 0.500 UL
LTa
0.50 0.50 0.50 C 980 4039 M
12139 0 V
stroke
1.000 UL
LTb
0.00 0.00 0.00 C 980 4039 M
63 0 V
stroke
860 4039 M
[ [(Arial) 200.0 0.0 true true 0 ( 200)]
] -66.7 MRshow
1.000 UL
LTb
0.00 0.00 0.00 C 0.500 UL
LTa
0.50 0.50 0.50 C 980 4799 M
12139 0 V
stroke
1.000 UL
LTb
0.00 0.00 0.00 C 980 4799 M
63 0 V
stroke
860 4799 M
[ [(Arial) 200.0 0.0 true true 0 ( 250)]
] -66.7 MRshow
1.000 UL
LTb
0.00 0.00 0.00 C 0.500 UL
LTa
0.50 0.50 0.50 C 1359 1000 M
0 3799 V
stroke
1.000 UL
LTb
0.00 0.00 0.00 C 1359 1000 M
0 63 V
0 3736 R
0 -63 V
stroke
1359 800 M
[ [(Arial) 200.0 0.0 true true 0 ( 750)]
] -66.7 MCshow
1.000 UL
LTb
0.00 0.00 0.00 C 0.500 UL
LTa
0.50 0.50 0.50 C 2118 1000 M
0 3799 V
stroke
1.000 UL
LTb
0.00 0.00 0.00 C 2118 1000 M
0 63 V
0 3736 R
0 -63 V
stroke
2118 800 M
[ [(Arial) 200.0 0.0 true true 0 ( 780)]
] -66.7 MCshow
1.000 UL
LTb
0.00 0.00 0.00 C 0.500 UL
LTa
0.50 0.50 0.50 C 2877 1000 M
0 3799 V
stroke
1.000 UL
LTb
0.00 0.00 0.00 C 2877 1000 M
0 63 V
0 3736 R
0 -63 V
stroke
2877 800 M
[ [(Arial) 200.0 0.0 true true 0 ( 810)]
] -66.7 MCshow
1.000 UL
LTb
0.00 0.00 0.00 C 0.500 UL
LTa
0.50 0.50 0.50 C 3635 1000 M
0 3799 V
stroke
1.000 UL
LTb
0.00 0.00 0.00 C 3635 1000 M
0 63 V
0 3736 R
0 -63 V
stroke
3635 800 M
[ [(Arial) 200.0 0.0 true true 0 ( 840)]
] -66.7 MCshow
1.000 UL
LTb
0.00 0.00 0.00 C 0.500 UL
LTa
0.50 0.50 0.50 C 4394 1000 M
0 3799 V
stroke
1.000 UL
LTb
0.00 0.00 0.00 C 4394 1000 M
0 63 V
0 3736 R
0 -63 V
stroke
4394 800 M
[ [(Arial) 200.0 0.0 true true 0 ( 870)]
] -66.7 MCshow
1.000 UL
LTb
0.00 0.00 0.00 C 0.500 UL
LTa
0.50 0.50 0.50 C 5153 1000 M
0 3799 V
stroke
1.000 UL
LTb
0.00 0.00 0.00 C 5153 1000 M
0 63 V
0 3736 R
0 -63 V
stroke
5153 800 M
[ [(Arial) 200.0 0.0 true true 0 ( 900)]
] -66.7 MCshow
1.000 UL
LTb
0.00 0.00 0.00 C 0.500 UL
LTa
0.50 0.50 0.50 C 5911 1000 M
0 3799 V
stroke
1.000 UL
LTb
0.00 0.00 0.00 C 5911 1000 M
0 63 V
0 3736 R
0 -63 V
stroke
5911 800 M
[ [(Arial) 200.0 0.0 true true 0 ( 930)]
] -66.7 MCshow
1.000 UL
LTb
0.00 0.00 0.00 C 0.500 UL
LTa
0.50 0.50 0.50 C 6670 1000 M
0 3799 V
stroke
1.000 UL
LTb
0.00 0.00 0.00 C 6670 1000 M
0 63 V
0 3736 R
0 -63 V
stroke
6670 800 M
[ [(Arial) 200.0 0.0 true true 0 ( 960)]
] -66.7 MCshow
1.000 UL
LTb
0.00 0.00 0.00 C 0.500 UL
LTa
0.50 0.50 0.50 C 7429 1000 M
0 3799 V
stroke
1.000 UL
LTb
0.00 0.00 0.00 C 7429 1000 M
0 63 V
0 3736 R
0 -63 V
stroke
7429 800 M
[ [(Arial) 200.0 0.0 true true 0 ( 990)]
] -66.7 MCshow
1.000 UL
LTb
0.00 0.00 0.00 C 0.500 UL
LTa
0.50 0.50 0.50 C 8188 1000 M
0 3799 V
stroke
1.000 UL
LTb
0.00 0.00 0.00 C 8188 1000 M
0 63 V
0 3736 R
0 -63 V
stroke
8188 800 M
[ [(Arial) 200.0 0.0 true true 0 ( 1020)]
] -66.7 MCshow
1.000 UL
LTb
0.00 0.00 0.00 C 0.500 UL
LTa
0.50 0.50 0.50 C 8946 1000 M
0 3799 V
stroke
1.000 UL
LTb
0.00 0.00 0.00 C 8946 1000 M
0 63 V
0 3736 R
0 -63 V
stroke
8946 800 M
[ [(Arial) 200.0 0.0 true true 0 ( 1050)]
] -66.7 MCshow
1.000 UL
LTb
0.00 0.00 0.00 C 0.500 UL
LTa
0.50 0.50 0.50 C 9705 1000 M
0 3799 V
stroke
1.000 UL
LTb
0.00 0.00 0.00 C 9705 1000 M
0 63 V
0 3736 R
0 -63 V
stroke
9705 800 M
[ [(Arial) 200.0 0.0 true true 0 ( 1080)]
] -66.7 MCshow
1.000 UL
LTb
0.00 0.00 0.00 C 0.500 UL
LTa
0.50 0.50 0.50 C 10464 1000 M
0 3799 V
stroke
1.000 UL
LTb
0.00 0.00 0.00 C 10464 1000 M
0 63 V
0 3736 R
0 -63 V
stroke
10464 800 M
[ [(Arial) 200.0 0.0 true true 0 ( 1110)]
] -66.7 MCshow
1.000 UL
LTb
0.00 0.00 0.00 C 0.500 UL
LTa
0.50 0.50 0.50 C 11222 1000 M
0 3799 V
stroke
1.000 UL
LTb
0.00 0.00 0.00 C 11222 1000 M
0 63 V
0 3736 R
0 -63 V
stroke
11222 800 M
[ [(Arial) 200.0 0.0 true true 0 ( 1140)]
] -66.7 MCshow
1.000 UL
LTb
0.00 0.00 0.00 C 0.500 UL
LTa
0.50 0.50 0.50 C 11981 1000 M
0 3799 V
stroke
1.000 UL
LTb
0.00 0.00 0.00 C 11981 1000 M
0 63 V
0 3736 R
0 -63 V
stroke
11981 800 M
[ [(Arial) 200.0 0.0 true true 0 ( 1170)]
] -66.7 MCshow
1.000 UL
LTb
0.00 0.00 0.00 C 0.500 UL
LTa
0.50 0.50 0.50 C 12740 1000 M
0 3799 V
stroke
1.000 UL
LTb
0.00 0.00 0.00 C 12740 1000 M
0 63 V
0 3736 R
0 -63 V
stroke
12740 800 M
[ [(Arial) 200.0 0.0 true true 0 ( 1200)]
] -66.7 MCshow
1.000 UL
LTb
0.00 0.00 0.00 C 13119 1000 M
-63 0 V
stroke
13239 1000 M
[ [(Arial) 200.0 0.0 true true 0 ( 0)]
] -66.7 MLshow
1.000 UL
LTb
0.00 0.00 0.00 C 13119 1760 M
-63 0 V
stroke
13239 1760 M
[ [(Arial) 200.0 0.0 true true 0 ( 20)]
] -66.7 MLshow
1.000 UL
LTb
0.00 0.00 0.00 C 13119 2520 M
-63 0 V
stroke
13239 2520 M
[ [(Arial) 200.0 0.0 true true 0 ( 40)]
] -66.7 MLshow
1.000 UL
LTb
0.00 0.00 0.00 C 13119 3279 M
-63 0 V
stroke
13239 3279 M
[ [(Arial) 200.0 0.0 true true 0 ( 60)]
] -66.7 MLshow
1.000 UL
LTb
0.00 0.00 0.00 C 13119 4039 M
-63 0 V
stroke
13239 4039 M
[ [(Arial) 200.0 0.0 true true 0 ( 80)]
] -66.7 MLshow
1.000 UL
LTb
0.00 0.00 0.00 C 13119 4799 M
-63 0 V
stroke
13239 4799 M
[ [(Arial) 200.0 0.0 true true 0 ( 100)]
] -66.7 MLshow
1.000 UL
LTb
0.00 0.00 0.00 C 1.000 UL
LTB
0.00 0.00 0.00 C 980 4799 M
0 -3799 V
12139 0 V
0 3799 R
980 4799 M
1.000 UP
stroke
LTb
0.00 0.00 0.00 C LCb setrgbcolor
160 2899 M
currentpoint gsave translate -270 rotate 0 0 moveto
[ [(Arial) 200.0 0.0 true true 0 (File download time \(s\))]
] -66.7 MCshow
grestore
LTb
LCb setrgbcolor
13938 2899 M
currentpoint gsave translate -270 rotate 0 0 moveto
[ [(Arial) 200.0 0.0 true true 0 (Average UDP throughput [%])]
] -66.7 MCshow
grestore
LTb
LCb setrgbcolor
7049 500 M
[ [(Arial) 200.0 0.0 true true 0 (Local Backhaul traffic \(Mb/s\))]
] -66.7 MCshow
LTb
% Begin plot #1
1.000 UL
LTb
0.60 0.60 0.00 C LCb setrgbcolor
4714 333 M
[ [(Arial) 180.0 0.0 true true 0 (file download time    :   olsr)]
] -60.0 MRshow
1.000 UL
LTb
0.60 0.60 0.00 C 4822 288 333 90 80 -45 0 PatternFill
4822 288 N
333 0 V
0 90 V
-333 0 V
0 -90 V
Z stroke
1.000 UL
LTb
0.60 0.60 0.00 C 1094 1291 152 436 80 -45 0 PatternFill
1170 1044 M
0 247 V
0 436 R
0 301 V
stroke
1094 1291 N
152 0 V
0 436 V
-152 0 V
0 -436 V
Z stroke
1094 2028 M
152 0 V
1094 1044 M
152 0 V
stroke
1852 1273 152 465 80 -45 0 PatternFill
1928 1044 M
0 229 V
0 465 R
0 249 V
stroke
1852 1273 N
152 0 V
0 465 V
-152 0 V
0 -465 V
Z stroke
1852 1987 M
152 0 V
1852 1044 M
152 0 V
stroke
2611 1252 152 506 80 -45 0 PatternFill
2687 1044 M
0 208 V
0 506 R
0 266 V
stroke
2611 1252 N
152 0 V
0 506 V
-152 0 V
0 -506 V
Z stroke
2611 2024 M
152 0 V
2611 1044 M
152 0 V
stroke
3370 1272 152 434 80 -45 0 PatternFill
3446 1044 M
0 228 V
0 434 R
0 221 V
stroke
3370 1272 N
152 0 V
0 434 V
-152 0 V
0 -434 V
Z stroke
3370 1927 M
152 0 V
3370 1044 M
152 0 V
stroke
4129 1260 152 484 80 -45 0 PatternFill
4205 1044 M
0 216 V
0 484 R
0 332 V
stroke
4129 1260 N
152 0 V
0 484 V
-152 0 V
0 -484 V
Z stroke
4129 2076 M
152 0 V
4129 1044 M
152 0 V
stroke
4887 1250 152 485 80 -45 0 PatternFill
4963 1044 M
0 206 V
0 485 R
0 389 V
stroke
4887 1250 N
152 0 V
0 485 V
-152 0 V
0 -485 V
Z stroke
4887 2124 M
152 0 V
4887 1044 M
152 0 V
stroke
5646 1287 152 476 80 -45 0 PatternFill
5722 1044 M
0 243 V
0 476 R
0 280 V
stroke
5646 1287 N
152 0 V
0 476 V
-152 0 V
0 -476 V
Z stroke
5646 2043 M
152 0 V
5646 1044 M
152 0 V
stroke
6405 1258 152 454 80 -45 0 PatternFill
6481 1044 M
0 214 V
0 454 R
0 316 V
stroke
6405 1258 N
152 0 V
0 454 V
-152 0 V
0 -454 V
Z stroke
6405 2028 M
152 0 V
6405 1044 M
152 0 V
stroke
7163 1256 152 518 80 -45 0 PatternFill
7239 1044 M
0 212 V
0 518 R
0 333 V
stroke
7163 1256 N
152 0 V
0 518 V
-152 0 V
0 -518 V
Z stroke
7163 2107 M
152 0 V
7163 1044 M
152 0 V
stroke
7922 1302 152 474 80 -45 0 PatternFill
7998 1044 M
0 258 V
0 474 R
0 265 V
stroke
7922 1302 N
152 0 V
0 474 V
-152 0 V
0 -474 V
Z stroke
7922 2041 M
152 0 V
7922 1044 M
152 0 V
stroke
8681 1327 152 474 80 -45 0 PatternFill
8757 1044 M
0 283 V
0 474 R
0 322 V
stroke
8681 1327 N
152 0 V
0 474 V
-152 0 V
0 -474 V
Z stroke
8681 2123 M
152 0 V
8681 1044 M
152 0 V
stroke
9439 1264 152 511 80 -45 0 PatternFill
9515 1044 M
0 220 V
0 511 R
0 335 V
stroke
9439 1264 N
152 0 V
0 511 V
-152 0 V
0 -511 V
Z stroke
9439 2110 M
152 0 V
9439 1044 M
152 0 V
stroke
10198 1261 152 461 80 -45 0 PatternFill
10274 1044 M
0 217 V
0 461 R
0 362 V
stroke
10198 1261 N
152 0 V
0 461 V
-152 0 V
0 -461 V
Z stroke
10198 2084 M
152 0 V
10198 1044 M
152 0 V
stroke
10957 1304 152 490 80 -45 0 PatternFill
11033 1044 M
0 260 V
0 490 R
0 329 V
stroke
10957 1304 N
152 0 V
0 490 V
-152 0 V
0 -490 V
Z stroke
10957 2123 M
152 0 V
10957 1044 M
152 0 V
stroke
11715 1268 152 475 80 -45 0 PatternFill
11791 1044 M
0 224 V
0 475 R
0 225 V
stroke
11715 1268 N
152 0 V
0 475 V
-152 0 V
0 -475 V
Z stroke
11715 1968 M
152 0 V
-152 -924 R
152 0 V
stroke
12474 1284 152 492 80 -45 0 PatternFill
12550 1044 M
0 240 V
0 492 R
0 309 V
stroke
12474 1284 N
152 0 V
0 492 V
-152 0 V
0 -492 V
Z stroke
12474 2085 M
152 0 V
12474 1044 M
152 0 V
% End plot #1
% Begin plot #2
stroke
LTb
LCb setrgbcolor

 /TransparentPatterns true def
1094 1518 152 0 40 30 0 PatternFill
1170 1518 M
stroke
1094 1518 N
152 0 V
-152 0 V
Z stroke
1094 1518 M
152 0 V
-152 0 R
152 0 V
stroke

 /TransparentPatterns true def
1852 1506 152 0 40 30 0 PatternFill
1928 1506 M
stroke
1852 1506 N
152 0 V
-152 0 V
Z stroke
1852 1506 M
152 0 V
-152 0 R
152 0 V
stroke

 /TransparentPatterns true def
2611 1525 152 0 40 30 0 PatternFill
2687 1525 M
stroke
2611 1525 N
152 0 V
-152 0 V
Z stroke
2611 1525 M
152 0 V
-152 0 R
152 0 V
stroke

 /TransparentPatterns true def
3370 1502 152 0 40 30 0 PatternFill
3446 1502 M
stroke
3370 1502 N
152 0 V
-152 0 V
Z stroke
3370 1502 M
152 0 V
-152 0 R
152 0 V
stroke

 /TransparentPatterns true def
4129 1545 152 0 40 30 0 PatternFill
4205 1545 M
stroke
4129 1545 N
152 0 V
-152 0 V
Z stroke
4129 1545 M
152 0 V
-152 0 R
152 0 V
stroke

 /TransparentPatterns true def
4887 1512 152 0 40 30 0 PatternFill
4963 1512 M
stroke
4887 1512 N
152 0 V
-152 0 V
Z stroke
4887 1512 M
152 0 V
-152 0 R
152 0 V
stroke

 /TransparentPatterns true def
5646 1536 152 0 40 30 0 PatternFill
5722 1536 M
stroke
5646 1536 N
152 0 V
-152 0 V
Z stroke
5646 1536 M
152 0 V
-152 0 R
152 0 V
stroke

 /TransparentPatterns true def
6405 1510 152 0 40 30 0 PatternFill
6481 1510 M
stroke
6405 1510 N
152 0 V
-152 0 V
Z stroke
6405 1510 M
152 0 V
-152 0 R
152 0 V
stroke

 /TransparentPatterns true def
7163 1516 152 0 40 30 0 PatternFill
7239 1516 M
stroke
7163 1516 N
152 0 V
-152 0 V
Z stroke
7163 1516 M
152 0 V
-152 0 R
152 0 V
stroke

 /TransparentPatterns true def
7922 1518 152 0 40 30 0 PatternFill
7998 1518 M
stroke
7922 1518 N
152 0 V
-152 0 V
Z stroke
7922 1518 M
152 0 V
-152 0 R
152 0 V
stroke

 /TransparentPatterns true def
8681 1533 152 0 40 30 0 PatternFill
8757 1533 M
stroke
8681 1533 N
152 0 V
-152 0 V
Z stroke
8681 1533 M
152 0 V
-152 0 R
152 0 V
stroke

 /TransparentPatterns true def
9439 1522 152 0 40 30 0 PatternFill
9515 1522 M
stroke
9439 1522 N
152 0 V
-152 0 V
Z stroke
9439 1522 M
152 0 V
-152 0 R
152 0 V
stroke

 /TransparentPatterns true def
10198 1511 152 0 40 30 0 PatternFill
10274 1511 M
stroke
10198 1511 N
152 0 V
-152 0 V
Z stroke
10198 1511 M
152 0 V
-152 0 R
152 0 V
stroke

 /TransparentPatterns true def
10957 1548 152 0 40 30 0 PatternFill
11033 1548 M
stroke
10957 1548 N
152 0 V
-152 0 V
Z stroke
10957 1548 M
152 0 V
-152 0 R
152 0 V
stroke

 /TransparentPatterns true def
11715 1517 152 0 40 30 0 PatternFill
11791 1517 M
stroke
11715 1517 N
152 0 V
-152 0 V
Z stroke
11715 1517 M
152 0 V
-152 0 R
152 0 V
stroke

 /TransparentPatterns true def
12474 1549 152 0 40 30 0 PatternFill
12550 1549 M
stroke
12474 1549 N
152 0 V
-152 0 V
Z stroke
12474 1549 M
152 0 V
-152 0 R
152 0 V
% End plot #2
% Begin plot #3
2.000 UP
stroke
LTa
0.60 0.60 0.00 C LCb setrgbcolor
4714 153 M
[ [(Arial) 180.0 0.0 true true 0 (avg. throughput :         )]
] -60.0 MRshow
2.000 UP
1.000 UL
LTa
0.60 0.60 0.00 C 4822 153 M
333 0 V
980 4273 M
190 -12 V
758 -16 V
759 15 V
759 -23 V
758 52 V
759 20 V
759 -20 V
758 7 V
759 13 V
759 -41 V
759 40 V
758 -5 V
759 19 V
759 -13 V
758 -55 V
759 55 V
1170 4261 Box
1928 4245 Box
2687 4260 Box
3446 4237 Box
4204 4289 Box
4963 4309 Box
5722 4289 Box
6480 4296 Box
7239 4309 Box
7998 4268 Box
8757 4308 Box
9515 4303 Box
10274 4322 Box
11033 4309 Box
11791 4254 Box
12550 4309 Box
4988 153 Box
% End plot #3
% Begin plot #4
1.000 UL
LTb
0.00 0.00 0.63 C LCb setrgbcolor
8287 333 M
[ [(Arial) 180.0 0.0 true true 0 (per-packet)]
] -60.0 MRshow
1.000 UL
LTb
0.00 0.00 0.63 C 8395 288 333 90 80 45 0 PatternFill
8395 288 N
333 0 V
0 90 V
-333 0 V
0 -90 V
Z stroke
1.000 UL
LTb
0.00 0.00 0.63 C 1283 1381 152 518 80 45 0 PatternFill
1359 1101 M
0 280 V
0 518 R
0 346 V
stroke
1283 1381 N
152 0 V
0 518 V
-152 0 V
0 -518 V
Z stroke
1283 2245 M
152 0 V
1283 1101 M
152 0 V
stroke
2042 1323 152 547 80 45 0 PatternFill
2118 1081 M
0 242 V
0 547 R
0 362 V
stroke
2042 1323 N
152 0 V
0 547 V
-152 0 V
0 -547 V
Z stroke
2042 2232 M
152 0 V
2042 1081 M
152 0 V
stroke
2801 1352 152 595 80 45 0 PatternFill
2877 1098 M
0 254 V
0 595 R
0 316 V
stroke
2801 1352 N
152 0 V
0 595 V
-152 0 V
0 -595 V
Z stroke
2801 2263 M
152 0 V
2801 1098 M
152 0 V
stroke
3560 1320 152 560 80 45 0 PatternFill
3636 1035 M
0 285 V
0 560 R
0 324 V
stroke
3560 1320 N
152 0 V
0 560 V
-152 0 V
0 -560 V
Z stroke
3560 2204 M
152 0 V
3560 1035 M
152 0 V
stroke
4318 1303 152 614 80 45 0 PatternFill
4394 1039 M
0 264 V
0 614 R
0 377 V
stroke
4318 1303 N
152 0 V
0 614 V
-152 0 V
0 -614 V
Z stroke
4318 2294 M
152 0 V
4318 1039 M
152 0 V
stroke
5077 1346 152 535 80 45 0 PatternFill
5153 1137 M
0 209 V
0 535 R
0 324 V
stroke
5077 1346 N
152 0 V
0 535 V
-152 0 V
0 -535 V
Z stroke
5077 2205 M
152 0 V
5077 1137 M
152 0 V
stroke
5836 1292 152 570 80 45 0 PatternFill
5912 1109 M
0 183 V
0 570 R
0 361 V
stroke
5836 1292 N
152 0 V
0 570 V
-152 0 V
0 -570 V
Z stroke
5836 2223 M
152 0 V
5836 1109 M
152 0 V
stroke
6594 1348 152 513 80 45 0 PatternFill
6670 1027 M
0 321 V
0 513 R
0 416 V
stroke
6594 1348 N
152 0 V
0 513 V
-152 0 V
0 -513 V
Z stroke
6594 2277 M
152 0 V
6594 1027 M
152 0 V
stroke
7353 1327 152 593 80 45 0 PatternFill
7429 1068 M
0 259 V
0 593 R
0 229 V
stroke
7353 1327 N
152 0 V
0 593 V
-152 0 V
0 -593 V
Z stroke
7353 2149 M
152 0 V
7353 1068 M
152 0 V
stroke
8112 1240 152 662 80 45 0 PatternFill
8188 1102 M
0 138 V
0 662 R
0 374 V
stroke
8112 1240 N
152 0 V
0 662 V
-152 0 V
0 -662 V
Z stroke
8112 2276 M
152 0 V
8112 1102 M
152 0 V
stroke
8870 1311 152 567 80 45 0 PatternFill
8946 1113 M
0 198 V
0 567 R
0 326 V
stroke
8870 1311 N
152 0 V
0 567 V
-152 0 V
0 -567 V
Z stroke
8870 2204 M
152 0 V
8870 1113 M
152 0 V
stroke
9629 1315 152 590 80 45 0 PatternFill
9705 1043 M
0 272 V
0 590 R
0 299 V
stroke
9629 1315 N
152 0 V
0 590 V
-152 0 V
0 -590 V
Z stroke
9629 2204 M
152 0 V
9629 1043 M
152 0 V
stroke
10388 1312 152 550 80 45 0 PatternFill
10464 1049 M
0 263 V
0 550 R
0 397 V
stroke
10388 1312 N
152 0 V
0 550 V
-152 0 V
0 -550 V
Z stroke
10388 2259 M
152 0 V
10388 1049 M
152 0 V
stroke
11146 1323 152 599 80 45 0 PatternFill
11222 1104 M
0 219 V
0 599 R
0 352 V
stroke
11146 1323 N
152 0 V
0 599 V
-152 0 V
0 -599 V
Z stroke
11146 2274 M
152 0 V
11146 1104 M
152 0 V
stroke
11905 1276 152 588 80 45 0 PatternFill
11981 1110 M
0 166 V
0 588 R
0 386 V
stroke
11905 1276 N
152 0 V
0 588 V
-152 0 V
0 -588 V
Z stroke
11905 2250 M
152 0 V
11905 1110 M
152 0 V
stroke
12664 1273 152 637 80 45 0 PatternFill
12740 1059 M
0 214 V
0 637 R
0 323 V
stroke
12664 1273 N
152 0 V
0 637 V
-152 0 V
0 -637 V
Z stroke
12664 2233 M
152 0 V
12664 1059 M
152 0 V
% End plot #4
% Begin plot #5
stroke
LTb
LCb setrgbcolor

 /TransparentPatterns true def
1283 1639 152 0 80 -45 0 PatternFill
1359 1639 M
stroke
1283 1639 N
152 0 V
-152 0 V
Z stroke
1283 1639 M
152 0 V
-152 0 R
152 0 V
stroke

 /TransparentPatterns true def
2042 1591 152 0 80 -45 0 PatternFill
2118 1591 M
stroke
2042 1591 N
152 0 V
-152 0 V
Z stroke
2042 1591 M
152 0 V
-152 0 R
152 0 V
stroke

 /TransparentPatterns true def
2801 1612 152 0 80 -45 0 PatternFill
2877 1612 M
stroke
2801 1612 N
152 0 V
-152 0 V
Z stroke
2801 1612 M
152 0 V
-152 0 R
152 0 V
stroke

 /TransparentPatterns true def
3560 1603 152 0 80 -45 0 PatternFill
3636 1603 M
stroke
3560 1603 N
152 0 V
-152 0 V
Z stroke
3560 1603 M
152 0 V
-152 0 R
152 0 V
stroke

 /TransparentPatterns true def
4318 1611 152 0 80 -45 0 PatternFill
4394 1611 M
stroke
4318 1611 N
152 0 V
-152 0 V
Z stroke
4318 1611 M
152 0 V
-152 0 R
152 0 V
stroke

 /TransparentPatterns true def
5077 1612 152 0 80 -45 0 PatternFill
5153 1612 M
stroke
5077 1612 N
152 0 V
-152 0 V
Z stroke
5077 1612 M
152 0 V
-152 0 R
152 0 V
stroke

 /TransparentPatterns true def
5836 1598 152 0 80 -45 0 PatternFill
5912 1598 M
stroke
5836 1598 N
152 0 V
-152 0 V
Z stroke
5836 1598 M
152 0 V
-152 0 R
152 0 V
stroke

 /TransparentPatterns true def
6594 1628 152 0 80 -45 0 PatternFill
6670 1628 M
stroke
6594 1628 N
152 0 V
-152 0 V
Z stroke
6594 1628 M
152 0 V
-152 0 R
152 0 V
stroke

 /TransparentPatterns true def
7353 1602 152 0 80 -45 0 PatternFill
7429 1602 M
stroke
7353 1602 N
152 0 V
-152 0 V
Z stroke
7353 1602 M
152 0 V
-152 0 R
152 0 V
stroke

 /TransparentPatterns true def
8112 1585 152 0 80 -45 0 PatternFill
8188 1585 M
stroke
8112 1585 N
152 0 V
-152 0 V
Z stroke
8112 1585 M
152 0 V
-152 0 R
152 0 V
stroke

 /TransparentPatterns true def
8870 1583 152 0 80 -45 0 PatternFill
8946 1583 M
stroke
8870 1583 N
152 0 V
-152 0 V
Z stroke
8870 1583 M
152 0 V
-152 0 R
152 0 V
stroke

 /TransparentPatterns true def
9629 1580 152 0 80 -45 0 PatternFill
9705 1580 M
stroke
9629 1580 N
152 0 V
-152 0 V
Z stroke
9629 1580 M
152 0 V
-152 0 R
152 0 V
stroke

 /TransparentPatterns true def
10388 1604 152 0 80 -45 0 PatternFill
10464 1604 M
stroke
10388 1604 N
152 0 V
-152 0 V
Z stroke
10388 1604 M
152 0 V
-152 0 R
152 0 V
stroke

 /TransparentPatterns true def
11146 1619 152 0 80 -45 0 PatternFill
11222 1619 M
stroke
11146 1619 N
152 0 V
-152 0 V
Z stroke
11146 1619 M
152 0 V
-152 0 R
152 0 V
stroke

 /TransparentPatterns true def
11905 1591 152 0 80 -45 0 PatternFill
11981 1591 M
stroke
11905 1591 N
152 0 V
-152 0 V
Z stroke
11905 1591 M
152 0 V
-152 0 R
152 0 V
stroke

 /TransparentPatterns true def
12664 1600 152 0 80 -45 0 PatternFill
12740 1600 M
stroke
12664 1600 N
152 0 V
-152 0 V
Z stroke
12664 1600 M
152 0 V
-152 0 R
152 0 V
% End plot #5
% Begin plot #6
2.000 UP
stroke
LTa
0.00 0.00 0.63 C LCb setrgbcolor
8287 153 M
[ [(Arial) 180.0 0.0 true true 0 ( )]
] -60.0 MRshow
2.000 UP
1.000 UL
LTa
0.00 0.00 0.63 C 8395 153 M
333 0 V
980 4757 M
379 -1 V
759 1 V
759 31 V
758 -32 V
759 31 V
759 -32 V
758 -1 V
759 3 V
759 -4 V
759 5 V
758 -2 V
759 -1 V
759 2 V
758 0 V
759 30 V
759 -31 V
1359 4756 Circle
2118 4757 Circle
2877 4788 Circle
3635 4756 Circle
4394 4787 Circle
5153 4755 Circle
5911 4754 Circle
6670 4757 Circle
7429 4753 Circle
8188 4758 Circle
8946 4756 Circle
9705 4755 Circle
10464 4757 Circle
11222 4757 Circle
11981 4787 Circle
12740 4756 Circle
8561 153 Circle
% End plot #6
% Begin plot #7
1.000 UL
LTb
0.00 0.38 0.82 C LCb setrgbcolor
11860 333 M
[ [(Arial) 180.0 0.0 true true 0 (per-flow)]
] -60.0 MRshow
1.000 UL
LTb
0.00 0.38 0.82 C 11968 288 333 90 40 30 0 PatternFill
11968 288 N
333 0 V
0 90 V
-333 0 V
0 -90 V
Z stroke
1.000 UL
LTb
0.00 0.38 0.82 C 1473 1217 152 505 40 30 0 PatternFill
1549 1112 M
0 105 V
0 505 R
0 254 V
stroke
1473 1217 N
152 0 V
0 505 V
-152 0 V
0 -505 V
Z stroke
1473 1976 M
152 0 V
1473 1112 M
152 0 V
stroke
2232 1326 152 358 40 30 0 PatternFill
2308 1130 M
0 196 V
0 358 R
0 316 V
stroke
2232 1326 N
152 0 V
0 358 V
-152 0 V
0 -358 V
Z stroke
2232 2000 M
152 0 V
2232 1130 M
152 0 V
stroke
2991 1189 152 527 40 30 0 PatternFill
3067 1089 M
0 100 V
0 527 R
0 320 V
stroke
2991 1189 N
152 0 V
0 527 V
-152 0 V
0 -527 V
Z stroke
2991 2036 M
152 0 V
2991 1089 M
152 0 V
stroke
3749 1263 152 428 40 30 0 PatternFill
3825 1027 M
0 236 V
0 428 R
0 319 V
stroke
3749 1263 N
152 0 V
0 428 V
-152 0 V
0 -428 V
Z stroke
3749 2010 M
152 0 V
3749 1027 M
152 0 V
stroke
4508 1253 152 353 40 30 0 PatternFill
4584 1111 M
0 142 V
0 353 R
0 353 V
stroke
4508 1253 N
152 0 V
0 353 V
-152 0 V
0 -353 V
Z stroke
4508 1959 M
152 0 V
4508 1111 M
152 0 V
stroke
5267 1254 152 545 40 30 0 PatternFill
5343 1109 M
0 145 V
0 545 R
0 149 V
stroke
5267 1254 N
152 0 V
0 545 V
-152 0 V
0 -545 V
Z stroke
5267 1948 M
152 0 V
5267 1109 M
152 0 V
stroke
6025 1287 152 339 40 30 0 PatternFill
6101 1072 M
0 215 V
0 339 R
0 369 V
stroke
6025 1287 N
152 0 V
0 339 V
-152 0 V
0 -339 V
Z stroke
6025 1995 M
152 0 V
6025 1072 M
152 0 V
stroke
6784 1195 152 424 40 30 0 PatternFill
6860 1105 M
0 90 V
0 424 R
0 398 V
stroke
6784 1195 N
152 0 V
0 424 V
-152 0 V
0 -424 V
Z stroke
6784 2017 M
152 0 V
6784 1105 M
152 0 V
stroke
7543 1289 152 412 40 30 0 PatternFill
7619 1129 M
0 160 V
0 412 R
0 174 V
stroke
7543 1289 N
152 0 V
0 412 V
-152 0 V
0 -412 V
Z stroke
7543 1875 M
152 0 V
7543 1129 M
152 0 V
stroke
8301 1316 152 372 40 30 0 PatternFill
8377 1126 M
0 190 V
0 372 R
0 194 V
stroke
8301 1316 N
152 0 V
0 372 V
-152 0 V
0 -372 V
Z stroke
8301 1882 M
152 0 V
8301 1126 M
152 0 V
stroke
9060 1328 152 362 40 30 0 PatternFill
9136 1128 M
0 200 V
0 362 R
0 203 V
stroke
9060 1328 N
152 0 V
0 362 V
-152 0 V
0 -362 V
Z stroke
9060 1893 M
152 0 V
9060 1128 M
152 0 V
stroke
9819 1278 152 429 40 30 0 PatternFill
9895 1041 M
0 237 V
0 429 R
0 307 V
stroke
9819 1278 N
152 0 V
0 429 V
-152 0 V
0 -429 V
Z stroke
9819 2014 M
152 0 V
9819 1041 M
152 0 V
stroke
10577 1248 152 457 40 30 0 PatternFill
10653 1127 M
0 121 V
0 457 R
0 277 V
stroke
10577 1248 N
152 0 V
0 457 V
-152 0 V
0 -457 V
Z stroke
10577 1982 M
152 0 V
-152 -855 R
152 0 V
stroke
11336 1255 152 470 40 30 0 PatternFill
11412 1078 M
0 177 V
0 470 R
0 281 V
stroke
11336 1255 N
152 0 V
0 470 V
-152 0 V
0 -470 V
Z stroke
11336 2006 M
152 0 V
-152 -928 R
152 0 V
stroke
12095 1248 152 490 40 30 0 PatternFill
12171 1106 M
0 142 V
0 490 R
0 279 V
stroke
12095 1248 N
152 0 V
0 490 V
-152 0 V
0 -490 V
Z stroke
12095 2017 M
152 0 V
-152 -911 R
152 0 V
stroke
12853 1287 152 361 40 30 0 PatternFill
12929 1098 M
0 189 V
0 361 R
0 346 V
stroke
12853 1287 N
152 0 V
0 361 V
-152 0 V
0 -361 V
Z stroke
12853 1994 M
152 0 V
-152 -896 R
152 0 V
% End plot #7
% Begin plot #8
stroke
LTb
LCb setrgbcolor

 /TransparentPatterns true def
1473 1503 152 0 40 -30 0 PatternFill
1549 1503 M
stroke
1473 1503 N
152 0 V
-152 0 V
Z stroke
1473 1503 M
152 0 V
-152 0 R
152 0 V
stroke

 /TransparentPatterns true def
2232 1496 152 0 40 -30 0 PatternFill
2308 1496 M
stroke
2232 1496 N
152 0 V
-152 0 V
Z stroke
2232 1496 M
152 0 V
-152 0 R
152 0 V
stroke

 /TransparentPatterns true def
2991 1520 152 0 40 -30 0 PatternFill
3067 1520 M
stroke
2991 1520 N
152 0 V
-152 0 V
Z stroke
2991 1520 M
152 0 V
-152 0 R
152 0 V
stroke

 /TransparentPatterns true def
3749 1500 152 0 40 -30 0 PatternFill
3825 1500 M
stroke
3749 1500 N
152 0 V
-152 0 V
Z stroke
3749 1500 M
152 0 V
-152 0 R
152 0 V
stroke

 /TransparentPatterns true def
4508 1460 152 0 40 -30 0 PatternFill
4584 1460 M
stroke
4508 1460 N
152 0 V
-152 0 V
Z stroke
4508 1460 M
152 0 V
-152 0 R
152 0 V
stroke

 /TransparentPatterns true def
5267 1519 152 0 40 -30 0 PatternFill
5343 1519 M
stroke
5267 1519 N
152 0 V
-152 0 V
Z stroke
5267 1519 M
152 0 V
-152 0 R
152 0 V
stroke

 /TransparentPatterns true def
6025 1471 152 0 40 -30 0 PatternFill
6101 1471 M
stroke
6025 1471 N
152 0 V
-152 0 V
Z stroke
6025 1471 M
152 0 V
-152 0 R
152 0 V
stroke

 /TransparentPatterns true def
6784 1471 152 0 40 -30 0 PatternFill
6860 1471 M
stroke
6784 1471 N
152 0 V
-152 0 V
Z stroke
6784 1471 M
152 0 V
-152 0 R
152 0 V
stroke

 /TransparentPatterns true def
7543 1496 152 0 40 -30 0 PatternFill
7619 1496 M
stroke
7543 1496 N
152 0 V
-152 0 V
Z stroke
7543 1496 M
152 0 V
-152 0 R
152 0 V
stroke

 /TransparentPatterns true def
8301 1502 152 0 40 -30 0 PatternFill
8377 1502 M
stroke
8301 1502 N
152 0 V
-152 0 V
Z stroke
8301 1502 M
152 0 V
-152 0 R
152 0 V
stroke

 /TransparentPatterns true def
9060 1509 152 0 40 -30 0 PatternFill
9136 1509 M
stroke
9060 1509 N
152 0 V
-152 0 V
Z stroke
9060 1509 M
152 0 V
-152 0 R
152 0 V
stroke

 /TransparentPatterns true def
9819 1509 152 0 40 -30 0 PatternFill
9895 1509 M
stroke
9819 1509 N
152 0 V
-152 0 V
Z stroke
9819 1509 M
152 0 V
-152 0 R
152 0 V
stroke

 /TransparentPatterns true def
10577 1507 152 0 40 -30 0 PatternFill
10653 1507 M
stroke
10577 1507 N
152 0 V
-152 0 V
Z stroke
10577 1507 M
152 0 V
-152 0 R
152 0 V
stroke

 /TransparentPatterns true def
11336 1503 152 0 40 -30 0 PatternFill
11412 1503 M
stroke
11336 1503 N
152 0 V
-152 0 V
Z stroke
11336 1503 M
152 0 V
-152 0 R
152 0 V
stroke

 /TransparentPatterns true def
12095 1491 152 0 40 -30 0 PatternFill
12171 1491 M
stroke
12095 1491 N
152 0 V
-152 0 V
Z stroke
12095 1491 M
152 0 V
-152 0 R
152 0 V
stroke

 /TransparentPatterns true def
12853 1479 152 0 40 -30 0 PatternFill
12929 1479 M
stroke
12853 1479 N
152 0 V
-152 0 V
Z stroke
12853 1479 M
152 0 V
-152 0 R
152 0 V
% End plot #8
% Begin plot #9
2.000 UP
stroke
LTa
0.00 0.38 0.82 C LCb setrgbcolor
11860 153 M
[ [(Arial) 180.0 0.0 true true 0 ( )]
] -60.0 MRshow
2.000 UP
1.000 UL
LTa
0.00 0.38 0.82 C 11968 153 M
333 0 V
980 4744 M
569 2 V
759 0 V
758 0 V
759 1 V
759 -2 V
758 0 V
759 -2 V
759 5 V
759 -8 V
758 1 V
759 0 V
759 4 V
758 2 V
759 -3 V
759 3 V
758 0 V
1549 4746 TriU
2308 4746 TriU
3066 4746 TriU
3825 4747 TriU
4584 4745 TriU
5342 4745 TriU
6101 4743 TriU
6860 4748 TriU
7619 4740 TriU
8377 4741 TriU
9136 4741 TriU
9895 4745 TriU
10653 4747 TriU
11412 4744 TriU
12171 4747 TriU
12929 4747 TriU
12134 153 TriU
% End plot #9
2.000 UL
LTb
LCb setrgbcolor
1.000 UP
1.000 UL
LTb
0.00 0.00 0.00 C stroke
grestore
end
showpage
%%Trailer
%%DocumentFonts: Arial
