%!PS-Adobe-2.0 EPSF-2.0
%%Title: TcpVegas-download-rtt-50UE-250-400.eps
%%Creator: gnuplot 5.0 patchlevel 3
%%CreationDate: Thu Jun  2 10:39:41 2016
%%DocumentFonts: (atend)
%%BoundingBox: 50 50 770 302
%%EndComments
%%BeginProlog
/gnudict 256 dict def
gnudict begin
%
% The following true/false flags may be edited by hand if desired.
% The unit line width and grayscale image gamma correction may also be changed.
%
/Color true def
/Blacktext false def
/Solid false def
/Dashlength 3 def
/Landscape false def
/Level1 false def
/Level3 false def
/Rounded false def
/ClipToBoundingBox false def
/SuppressPDFMark false def
/TransparentPatterns false def
/gnulinewidth 15.000 def
/userlinewidth gnulinewidth def
/Gamma 1.0 def
/BackgroundColor {-1.000 -1.000 -1.000} def
%
/vshift -66 def
/dl1 {
  10.0 Dashlength userlinewidth gnulinewidth div mul mul mul
  Rounded { currentlinewidth 0.75 mul sub dup 0 le { pop 0.01 } if } if
} def
/dl2 {
  10.0 Dashlength userlinewidth gnulinewidth div mul mul mul
  Rounded { currentlinewidth 0.75 mul add } if
} def
/hpt_ 31.5 def
/vpt_ 31.5 def
/hpt hpt_ def
/vpt vpt_ def
/doclip {
  ClipToBoundingBox {
    newpath 50 50 moveto 770 50 lineto 770 302 lineto 50 302 lineto closepath
    clip
  } if
} def
%
% Gnuplot Prolog Version 5.1 (Oct 2015)
%
%/SuppressPDFMark true def
%
/M {moveto} bind def
/L {lineto} bind def
/R {rmoveto} bind def
/V {rlineto} bind def
/N {newpath moveto} bind def
/Z {closepath} bind def
/C {setrgbcolor} bind def
/f {rlineto fill} bind def
/g {setgray} bind def
/Gshow {show} def   % May be redefined later in the file to support UTF-8
/vpt2 vpt 2 mul def
/hpt2 hpt 2 mul def
/Lshow {currentpoint stroke M 0 vshift R 
	Blacktext {gsave 0 setgray textshow grestore} {textshow} ifelse} def
/Rshow {currentpoint stroke M dup stringwidth pop neg vshift R
	Blacktext {gsave 0 setgray textshow grestore} {textshow} ifelse} def
/Cshow {currentpoint stroke M dup stringwidth pop -2 div vshift R 
	Blacktext {gsave 0 setgray textshow grestore} {textshow} ifelse} def
/UP {dup vpt_ mul /vpt exch def hpt_ mul /hpt exch def
  /hpt2 hpt 2 mul def /vpt2 vpt 2 mul def} def
/DL {Color {setrgbcolor Solid {pop []} if 0 setdash}
 {pop pop pop 0 setgray Solid {pop []} if 0 setdash} ifelse} def
/BL {stroke userlinewidth 2 mul setlinewidth
	Rounded {1 setlinejoin 1 setlinecap} if} def
/AL {stroke userlinewidth 2 div setlinewidth
	Rounded {1 setlinejoin 1 setlinecap} if} def
/UL {dup gnulinewidth mul /userlinewidth exch def
	dup 1 lt {pop 1} if 10 mul /udl exch def} def
/PL {stroke userlinewidth setlinewidth
	Rounded {1 setlinejoin 1 setlinecap} if} def
3.8 setmiterlimit
% Classic Line colors (version 5.0)
/LCw {1 1 1} def
/LCb {0 0 0} def
/LCa {0 0 0} def
/LC0 {1 0 0} def
/LC1 {0 1 0} def
/LC2 {0 0 1} def
/LC3 {1 0 1} def
/LC4 {0 1 1} def
/LC5 {1 1 0} def
/LC6 {0 0 0} def
/LC7 {1 0.3 0} def
/LC8 {0.5 0.5 0.5} def
% Default dash patterns (version 5.0)
/LTB {BL [] LCb DL} def
/LTw {PL [] 1 setgray} def
/LTb {PL [] LCb DL} def
/LTa {AL [1 udl mul 2 udl mul] 0 setdash LCa setrgbcolor} def
/LT0 {PL [] LC0 DL} def
/LT1 {PL [2 dl1 3 dl2] LC1 DL} def
/LT2 {PL [1 dl1 1.5 dl2] LC2 DL} def
/LT3 {PL [6 dl1 2 dl2 1 dl1 2 dl2] LC3 DL} def
/LT4 {PL [1 dl1 2 dl2 6 dl1 2 dl2 1 dl1 2 dl2] LC4 DL} def
/LT5 {PL [4 dl1 2 dl2] LC5 DL} def
/LT6 {PL [1.5 dl1 1.5 dl2 1.5 dl1 1.5 dl2 1.5 dl1 6 dl2] LC6 DL} def
/LT7 {PL [3 dl1 3 dl2 1 dl1 3 dl2] LC7 DL} def
/LT8 {PL [2 dl1 2 dl2 2 dl1 6 dl2] LC8 DL} def
/SL {[] 0 setdash} def
/Pnt {stroke [] 0 setdash gsave 1 setlinecap M 0 0 V stroke grestore} def
/Dia {stroke [] 0 setdash 2 copy vpt add M
  hpt neg vpt neg V hpt vpt neg V
  hpt vpt V hpt neg vpt V closepath stroke
  Pnt} def
/Pls {stroke [] 0 setdash vpt sub M 0 vpt2 V
  currentpoint stroke M
  hpt neg vpt neg R hpt2 0 V stroke
 } def
/Box {stroke [] 0 setdash 2 copy exch hpt sub exch vpt add M
  0 vpt2 neg V hpt2 0 V 0 vpt2 V
  hpt2 neg 0 V closepath stroke
  Pnt} def
/Crs {stroke [] 0 setdash exch hpt sub exch vpt add M
  hpt2 vpt2 neg V currentpoint stroke M
  hpt2 neg 0 R hpt2 vpt2 V stroke} def
/TriU {stroke [] 0 setdash 2 copy vpt 1.12 mul add M
  hpt neg vpt -1.62 mul V
  hpt 2 mul 0 V
  hpt neg vpt 1.62 mul V closepath stroke
  Pnt} def
/Star {2 copy Pls Crs} def
/BoxF {stroke [] 0 setdash exch hpt sub exch vpt add M
  0 vpt2 neg V hpt2 0 V 0 vpt2 V
  hpt2 neg 0 V closepath fill} def
/TriUF {stroke [] 0 setdash vpt 1.12 mul add M
  hpt neg vpt -1.62 mul V
  hpt 2 mul 0 V
  hpt neg vpt 1.62 mul V closepath fill} def
/TriD {stroke [] 0 setdash 2 copy vpt 1.12 mul sub M
  hpt neg vpt 1.62 mul V
  hpt 2 mul 0 V
  hpt neg vpt -1.62 mul V closepath stroke
  Pnt} def
/TriDF {stroke [] 0 setdash vpt 1.12 mul sub M
  hpt neg vpt 1.62 mul V
  hpt 2 mul 0 V
  hpt neg vpt -1.62 mul V closepath fill} def
/DiaF {stroke [] 0 setdash vpt add M
  hpt neg vpt neg V hpt vpt neg V
  hpt vpt V hpt neg vpt V closepath fill} def
/Pent {stroke [] 0 setdash 2 copy gsave
  translate 0 hpt M 4 {72 rotate 0 hpt L} repeat
  closepath stroke grestore Pnt} def
/PentF {stroke [] 0 setdash gsave
  translate 0 hpt M 4 {72 rotate 0 hpt L} repeat
  closepath fill grestore} def
/Circle {stroke [] 0 setdash 2 copy
  hpt 0 360 arc stroke Pnt} def
/CircleF {stroke [] 0 setdash hpt 0 360 arc fill} def
/C0 {BL [] 0 setdash 2 copy moveto vpt 90 450 arc} bind def
/C1 {BL [] 0 setdash 2 copy moveto
	2 copy vpt 0 90 arc closepath fill
	vpt 0 360 arc closepath} bind def
/C2 {BL [] 0 setdash 2 copy moveto
	2 copy vpt 90 180 arc closepath fill
	vpt 0 360 arc closepath} bind def
/C3 {BL [] 0 setdash 2 copy moveto
	2 copy vpt 0 180 arc closepath fill
	vpt 0 360 arc closepath} bind def
/C4 {BL [] 0 setdash 2 copy moveto
	2 copy vpt 180 270 arc closepath fill
	vpt 0 360 arc closepath} bind def
/C5 {BL [] 0 setdash 2 copy moveto
	2 copy vpt 0 90 arc
	2 copy moveto
	2 copy vpt 180 270 arc closepath fill
	vpt 0 360 arc} bind def
/C6 {BL [] 0 setdash 2 copy moveto
	2 copy vpt 90 270 arc closepath fill
	vpt 0 360 arc closepath} bind def
/C7 {BL [] 0 setdash 2 copy moveto
	2 copy vpt 0 270 arc closepath fill
	vpt 0 360 arc closepath} bind def
/C8 {BL [] 0 setdash 2 copy moveto
	2 copy vpt 270 360 arc closepath fill
	vpt 0 360 arc closepath} bind def
/C9 {BL [] 0 setdash 2 copy moveto
	2 copy vpt 270 450 arc closepath fill
	vpt 0 360 arc closepath} bind def
/C10 {BL [] 0 setdash 2 copy 2 copy moveto vpt 270 360 arc closepath fill
	2 copy moveto
	2 copy vpt 90 180 arc closepath fill
	vpt 0 360 arc closepath} bind def
/C11 {BL [] 0 setdash 2 copy moveto
	2 copy vpt 0 180 arc closepath fill
	2 copy moveto
	2 copy vpt 270 360 arc closepath fill
	vpt 0 360 arc closepath} bind def
/C12 {BL [] 0 setdash 2 copy moveto
	2 copy vpt 180 360 arc closepath fill
	vpt 0 360 arc closepath} bind def
/C13 {BL [] 0 setdash 2 copy moveto
	2 copy vpt 0 90 arc closepath fill
	2 copy moveto
	2 copy vpt 180 360 arc closepath fill
	vpt 0 360 arc closepath} bind def
/C14 {BL [] 0 setdash 2 copy moveto
	2 copy vpt 90 360 arc closepath fill
	vpt 0 360 arc} bind def
/C15 {BL [] 0 setdash 2 copy vpt 0 360 arc closepath fill
	vpt 0 360 arc closepath} bind def
/Rec {newpath 4 2 roll moveto 1 index 0 rlineto 0 exch rlineto
	neg 0 rlineto closepath} bind def
/Square {dup Rec} bind def
/Bsquare {vpt sub exch vpt sub exch vpt2 Square} bind def
/S0 {BL [] 0 setdash 2 copy moveto 0 vpt rlineto BL Bsquare} bind def
/S1 {BL [] 0 setdash 2 copy vpt Square fill Bsquare} bind def
/S2 {BL [] 0 setdash 2 copy exch vpt sub exch vpt Square fill Bsquare} bind def
/S3 {BL [] 0 setdash 2 copy exch vpt sub exch vpt2 vpt Rec fill Bsquare} bind def
/S4 {BL [] 0 setdash 2 copy exch vpt sub exch vpt sub vpt Square fill Bsquare} bind def
/S5 {BL [] 0 setdash 2 copy 2 copy vpt Square fill
	exch vpt sub exch vpt sub vpt Square fill Bsquare} bind def
/S6 {BL [] 0 setdash 2 copy exch vpt sub exch vpt sub vpt vpt2 Rec fill Bsquare} bind def
/S7 {BL [] 0 setdash 2 copy exch vpt sub exch vpt sub vpt vpt2 Rec fill
	2 copy vpt Square fill Bsquare} bind def
/S8 {BL [] 0 setdash 2 copy vpt sub vpt Square fill Bsquare} bind def
/S9 {BL [] 0 setdash 2 copy vpt sub vpt vpt2 Rec fill Bsquare} bind def
/S10 {BL [] 0 setdash 2 copy vpt sub vpt Square fill 2 copy exch vpt sub exch vpt Square fill
	Bsquare} bind def
/S11 {BL [] 0 setdash 2 copy vpt sub vpt Square fill 2 copy exch vpt sub exch vpt2 vpt Rec fill
	Bsquare} bind def
/S12 {BL [] 0 setdash 2 copy exch vpt sub exch vpt sub vpt2 vpt Rec fill Bsquare} bind def
/S13 {BL [] 0 setdash 2 copy exch vpt sub exch vpt sub vpt2 vpt Rec fill
	2 copy vpt Square fill Bsquare} bind def
/S14 {BL [] 0 setdash 2 copy exch vpt sub exch vpt sub vpt2 vpt Rec fill
	2 copy exch vpt sub exch vpt Square fill Bsquare} bind def
/S15 {BL [] 0 setdash 2 copy Bsquare fill Bsquare} bind def
/D0 {gsave translate 45 rotate 0 0 S0 stroke grestore} bind def
/D1 {gsave translate 45 rotate 0 0 S1 stroke grestore} bind def
/D2 {gsave translate 45 rotate 0 0 S2 stroke grestore} bind def
/D3 {gsave translate 45 rotate 0 0 S3 stroke grestore} bind def
/D4 {gsave translate 45 rotate 0 0 S4 stroke grestore} bind def
/D5 {gsave translate 45 rotate 0 0 S5 stroke grestore} bind def
/D6 {gsave translate 45 rotate 0 0 S6 stroke grestore} bind def
/D7 {gsave translate 45 rotate 0 0 S7 stroke grestore} bind def
/D8 {gsave translate 45 rotate 0 0 S8 stroke grestore} bind def
/D9 {gsave translate 45 rotate 0 0 S9 stroke grestore} bind def
/D10 {gsave translate 45 rotate 0 0 S10 stroke grestore} bind def
/D11 {gsave translate 45 rotate 0 0 S11 stroke grestore} bind def
/D12 {gsave translate 45 rotate 0 0 S12 stroke grestore} bind def
/D13 {gsave translate 45 rotate 0 0 S13 stroke grestore} bind def
/D14 {gsave translate 45 rotate 0 0 S14 stroke grestore} bind def
/D15 {gsave translate 45 rotate 0 0 S15 stroke grestore} bind def
/DiaE {stroke [] 0 setdash vpt add M
  hpt neg vpt neg V hpt vpt neg V
  hpt vpt V hpt neg vpt V closepath stroke} def
/BoxE {stroke [] 0 setdash exch hpt sub exch vpt add M
  0 vpt2 neg V hpt2 0 V 0 vpt2 V
  hpt2 neg 0 V closepath stroke} def
/TriUE {stroke [] 0 setdash vpt 1.12 mul add M
  hpt neg vpt -1.62 mul V
  hpt 2 mul 0 V
  hpt neg vpt 1.62 mul V closepath stroke} def
/TriDE {stroke [] 0 setdash vpt 1.12 mul sub M
  hpt neg vpt 1.62 mul V
  hpt 2 mul 0 V
  hpt neg vpt -1.62 mul V closepath stroke} def
/PentE {stroke [] 0 setdash gsave
  translate 0 hpt M 4 {72 rotate 0 hpt L} repeat
  closepath stroke grestore} def
/CircE {stroke [] 0 setdash 
  hpt 0 360 arc stroke} def
/Opaque {gsave closepath 1 setgray fill grestore 0 setgray closepath} def
/DiaW {stroke [] 0 setdash vpt add M
  hpt neg vpt neg V hpt vpt neg V
  hpt vpt V hpt neg vpt V Opaque stroke} def
/BoxW {stroke [] 0 setdash exch hpt sub exch vpt add M
  0 vpt2 neg V hpt2 0 V 0 vpt2 V
  hpt2 neg 0 V Opaque stroke} def
/TriUW {stroke [] 0 setdash vpt 1.12 mul add M
  hpt neg vpt -1.62 mul V
  hpt 2 mul 0 V
  hpt neg vpt 1.62 mul V Opaque stroke} def
/TriDW {stroke [] 0 setdash vpt 1.12 mul sub M
  hpt neg vpt 1.62 mul V
  hpt 2 mul 0 V
  hpt neg vpt -1.62 mul V Opaque stroke} def
/PentW {stroke [] 0 setdash gsave
  translate 0 hpt M 4 {72 rotate 0 hpt L} repeat
  Opaque stroke grestore} def
/CircW {stroke [] 0 setdash 
  hpt 0 360 arc Opaque stroke} def
/BoxFill {gsave Rec 1 setgray fill grestore} def
/Density {
  /Fillden exch def
  currentrgbcolor
  /ColB exch def /ColG exch def /ColR exch def
  /ColR ColR Fillden mul Fillden sub 1 add def
  /ColG ColG Fillden mul Fillden sub 1 add def
  /ColB ColB Fillden mul Fillden sub 1 add def
  ColR ColG ColB setrgbcolor} def
/BoxColFill {gsave Rec PolyFill} def
/PolyFill {gsave Density fill grestore grestore} def
/h {rlineto rlineto rlineto gsave closepath fill grestore} bind def
%
% PostScript Level 1 Pattern Fill routine for rectangles
% Usage: x y w h s a XX PatternFill
%	x,y = lower left corner of box to be filled
%	w,h = width and height of box
%	  a = angle in degrees between lines and x-axis
%	 XX = 0/1 for no/yes cross-hatch
%
/PatternFill {gsave /PFa [ 9 2 roll ] def
  PFa 0 get PFa 2 get 2 div add PFa 1 get PFa 3 get 2 div add translate
  PFa 2 get -2 div PFa 3 get -2 div PFa 2 get PFa 3 get Rec
  TransparentPatterns {} {gsave 1 setgray fill grestore} ifelse
  clip
  currentlinewidth 0.5 mul setlinewidth
  /PFs PFa 2 get dup mul PFa 3 get dup mul add sqrt def
  0 0 M PFa 5 get rotate PFs -2 div dup translate
  0 1 PFs PFa 4 get div 1 add floor cvi
	{PFa 4 get mul 0 M 0 PFs V} for
  0 PFa 6 get ne {
	0 1 PFs PFa 4 get div 1 add floor cvi
	{PFa 4 get mul 0 2 1 roll M PFs 0 V} for
 } if
  stroke grestore} def
%
/languagelevel where
 {pop languagelevel} {1} ifelse
dup 2 lt
	{/InterpretLevel1 true def
	 /InterpretLevel3 false def}
	{/InterpretLevel1 Level1 def
	 2 gt
	    {/InterpretLevel3 Level3 def}
	    {/InterpretLevel3 false def}
	 ifelse }
 ifelse
%
% PostScript level 2 pattern fill definitions
%
/Level2PatternFill {
/Tile8x8 {/PaintType 2 /PatternType 1 /TilingType 1 /BBox [0 0 8 8] /XStep 8 /YStep 8}
	bind def
/KeepColor {currentrgbcolor [/Pattern /DeviceRGB] setcolorspace} bind def
<< Tile8x8
 /PaintProc {0.5 setlinewidth pop 0 0 M 8 8 L 0 8 M 8 0 L stroke} 
>> matrix makepattern
/Pat1 exch def
<< Tile8x8
 /PaintProc {0.5 setlinewidth pop 0 0 M 8 8 L 0 8 M 8 0 L stroke
	0 4 M 4 8 L 8 4 L 4 0 L 0 4 L stroke}
>> matrix makepattern
/Pat2 exch def
<< Tile8x8
 /PaintProc {0.5 setlinewidth pop 0 0 M 0 8 L
	8 8 L 8 0 L 0 0 L fill}
>> matrix makepattern
/Pat3 exch def
<< Tile8x8
 /PaintProc {0.5 setlinewidth pop -4 8 M 8 -4 L
	0 12 M 12 0 L stroke}
>> matrix makepattern
/Pat4 exch def
<< Tile8x8
 /PaintProc {0.5 setlinewidth pop -4 0 M 8 12 L
	0 -4 M 12 8 L stroke}
>> matrix makepattern
/Pat5 exch def
<< Tile8x8
 /PaintProc {0.5 setlinewidth pop -2 8 M 4 -4 L
	0 12 M 8 -4 L 4 12 M 10 0 L stroke}
>> matrix makepattern
/Pat6 exch def
<< Tile8x8
 /PaintProc {0.5 setlinewidth pop -2 0 M 4 12 L
	0 -4 M 8 12 L 4 -4 M 10 8 L stroke}
>> matrix makepattern
/Pat7 exch def
<< Tile8x8
 /PaintProc {0.5 setlinewidth pop 8 -2 M -4 4 L
	12 0 M -4 8 L 12 4 M 0 10 L stroke}
>> matrix makepattern
/Pat8 exch def
<< Tile8x8
 /PaintProc {0.5 setlinewidth pop 0 -2 M 12 4 L
	-4 0 M 12 8 L -4 4 M 8 10 L stroke}
>> matrix makepattern
/Pat9 exch def
/Pattern1 {PatternBgnd KeepColor Pat1 setpattern} bind def
/Pattern2 {PatternBgnd KeepColor Pat2 setpattern} bind def
/Pattern3 {PatternBgnd KeepColor Pat3 setpattern} bind def
/Pattern4 {PatternBgnd KeepColor Landscape {Pat5} {Pat4} ifelse setpattern} bind def
/Pattern5 {PatternBgnd KeepColor Landscape {Pat4} {Pat5} ifelse setpattern} bind def
/Pattern6 {PatternBgnd KeepColor Landscape {Pat9} {Pat6} ifelse setpattern} bind def
/Pattern7 {PatternBgnd KeepColor Landscape {Pat8} {Pat7} ifelse setpattern} bind def
} def
%
%
%End of PostScript Level 2 code
%
/PatternBgnd {
  TransparentPatterns {} {gsave 1 setgray fill grestore} ifelse
} def
%
% Substitute for Level 2 pattern fill codes with
% grayscale if Level 2 support is not selected.
%
/Level1PatternFill {
/Pattern1 {0.250 Density} bind def
/Pattern2 {0.500 Density} bind def
/Pattern3 {0.750 Density} bind def
/Pattern4 {0.125 Density} bind def
/Pattern5 {0.375 Density} bind def
/Pattern6 {0.625 Density} bind def
/Pattern7 {0.875 Density} bind def
} def
%
% Now test for support of Level 2 code
%
Level1 {Level1PatternFill} {Level2PatternFill} ifelse
%
/Symbol-Oblique /Symbol findfont [1 0 .167 1 0 0] makefont
dup length dict begin {1 index /FID eq {pop pop} {def} ifelse} forall
currentdict end definefont pop
%
/MFshow {
   { dup 5 get 3 ge
     { 5 get 3 eq {gsave} {grestore} ifelse }
     {dup dup 0 get findfont exch 1 get scalefont setfont
     [ currentpoint ] exch dup 2 get 0 exch R dup 5 get 2 ne {dup dup 6
     get exch 4 get {textshow} {stringwidth pop 0 R} ifelse }if dup 5 get 0 eq
     {dup 3 get {2 get neg 0 exch R pop} {pop aload pop M} ifelse} {dup 5
     get 1 eq {dup 2 get exch dup 3 get exch 6 get stringwidth pop -2 div
     dup 0 R} {dup 6 get stringwidth pop -2 div 0 R 6 get
     textshow 2 index {aload pop M neg 3 -1 roll neg R pop pop} {pop pop pop
     pop aload pop M} ifelse }ifelse }ifelse }
     ifelse }
   forall} def
/Gswidth {dup type /stringtype eq {stringwidth} {pop (n) stringwidth} ifelse} def
/MFwidth {0 exch { dup 5 get 3 ge { 5 get 3 eq { 0 } { pop } ifelse }
 {dup 3 get{dup dup 0 get findfont exch 1 get scalefont setfont
     6 get Gswidth pop add} {pop} ifelse} ifelse} forall} def
/MLshow { currentpoint stroke M
  0 exch R
  Blacktext {gsave 0 setgray MFshow grestore} {MFshow} ifelse } bind def
/MRshow { currentpoint stroke M
  exch dup MFwidth neg 3 -1 roll R
  Blacktext {gsave 0 setgray MFshow grestore} {MFshow} ifelse } bind def
/MCshow { currentpoint stroke M
  exch dup MFwidth -2 div 3 -1 roll R
  Blacktext {gsave 0 setgray MFshow grestore} {MFshow} ifelse } bind def
/XYsave    { [( ) 1 2 true false 3 ()] } bind def
/XYrestore { [( ) 1 2 true false 4 ()] } bind def
Level1 SuppressPDFMark or 
{} {
/SDict 10 dict def
systemdict /pdfmark known not {
  userdict /pdfmark systemdict /cleartomark get put
} if
SDict begin [
  /Title (TcpVegas-download-rtt-50UE-250-400.eps)
  /Subject (gnuplot plot)
  /Creator (gnuplot 5.0 patchlevel 3)
  /Author (nat)
%  /Producer (gnuplot)
%  /Keywords ()
  /CreationDate (Thu Jun  2 10:39:41 2016)
  /DOCINFO pdfmark
end
} ifelse
%
% Support for boxed text - Ethan A Merritt May 2005
%
/InitTextBox { userdict /TBy2 3 -1 roll put userdict /TBx2 3 -1 roll put
           userdict /TBy1 3 -1 roll put userdict /TBx1 3 -1 roll put
	   /Boxing true def } def
/ExtendTextBox { Boxing
    { gsave dup false charpath pathbbox
      dup TBy2 gt {userdict /TBy2 3 -1 roll put} {pop} ifelse
      dup TBx2 gt {userdict /TBx2 3 -1 roll put} {pop} ifelse
      dup TBy1 lt {userdict /TBy1 3 -1 roll put} {pop} ifelse
      dup TBx1 lt {userdict /TBx1 3 -1 roll put} {pop} ifelse
      grestore } if } def
/PopTextBox { newpath TBx1 TBxmargin sub TBy1 TBymargin sub M
               TBx1 TBxmargin sub TBy2 TBymargin add L
	       TBx2 TBxmargin add TBy2 TBymargin add L
	       TBx2 TBxmargin add TBy1 TBymargin sub L closepath } def
/DrawTextBox { PopTextBox stroke /Boxing false def} def
/FillTextBox { gsave PopTextBox 1 1 1 setrgbcolor fill grestore /Boxing false def} def
0 0 0 0 InitTextBox
/TBxmargin 20 def
/TBymargin 20 def
/Boxing false def
/textshow { ExtendTextBox Gshow } def
%
% redundant definitions for compatibility with prologue.ps older than 5.0.2
/LTB {BL [] LCb DL} def
/LTb {PL [] LCb DL} def
end
%%EndProlog
%%Page: 1 1
gnudict begin
gsave
doclip
50 50 translate
0.050 0.050 scale
0 setgray
newpath
(Arial) findfont 200 scalefont setfont
BackgroundColor 0 lt 3 1 roll 0 lt exch 0 lt or or not {BackgroundColor C 1.000 0 0 14400.00 5040.00 BoxColFill} if
1.000 UL
LTb
0.00 0.00 0.00 C 0.500 UL
LTa
0.50 0.50 0.50 C 860 1000 M
12259 0 V
stroke
1.000 UL
LTb
0.00 0.00 0.00 C 860 1000 M
63 0 V
stroke
740 1000 M
[ [(Arial) 200.0 0.0 true true 0 ( 45)]
] -66.7 MRshow
1.000 UL
LTb
0.00 0.00 0.00 C 0.500 UL
LTa
0.50 0.50 0.50 C 860 1633 M
12259 0 V
stroke
1.000 UL
LTb
0.00 0.00 0.00 C 860 1633 M
63 0 V
stroke
740 1633 M
[ [(Arial) 200.0 0.0 true true 0 ( 50)]
] -66.7 MRshow
1.000 UL
LTb
0.00 0.00 0.00 C 0.500 UL
LTa
0.50 0.50 0.50 C 860 2266 M
12259 0 V
stroke
1.000 UL
LTb
0.00 0.00 0.00 C 860 2266 M
63 0 V
stroke
740 2266 M
[ [(Arial) 200.0 0.0 true true 0 ( 55)]
] -66.7 MRshow
1.000 UL
LTb
0.00 0.00 0.00 C 0.500 UL
LTa
0.50 0.50 0.50 C 860 2900 M
12259 0 V
stroke
1.000 UL
LTb
0.00 0.00 0.00 C 860 2900 M
63 0 V
stroke
740 2900 M
[ [(Arial) 200.0 0.0 true true 0 ( 60)]
] -66.7 MRshow
1.000 UL
LTb
0.00 0.00 0.00 C 0.500 UL
LTa
0.50 0.50 0.50 C 860 3533 M
12259 0 V
stroke
1.000 UL
LTb
0.00 0.00 0.00 C 860 3533 M
63 0 V
stroke
740 3533 M
[ [(Arial) 200.0 0.0 true true 0 ( 65)]
] -66.7 MRshow
1.000 UL
LTb
0.00 0.00 0.00 C 0.500 UL
LTa
0.50 0.50 0.50 C 860 4166 M
12259 0 V
stroke
1.000 UL
LTb
0.00 0.00 0.00 C 860 4166 M
63 0 V
stroke
740 4166 M
[ [(Arial) 200.0 0.0 true true 0 ( 70)]
] -66.7 MRshow
1.000 UL
LTb
0.00 0.00 0.00 C 0.500 UL
LTa
0.50 0.50 0.50 C 860 4799 M
12259 0 V
stroke
1.000 UL
LTb
0.00 0.00 0.00 C 860 4799 M
63 0 V
stroke
740 4799 M
[ [(Arial) 200.0 0.0 true true 0 ( 75)]
] -66.7 MRshow
1.000 UL
LTb
0.00 0.00 0.00 C 0.500 UL
LTa
0.50 0.50 0.50 C 1243 1000 M
0 3799 V
stroke
1.000 UL
LTb
0.00 0.00 0.00 C 1243 1000 M
0 63 V
0 3736 R
0 -63 V
stroke
1243 800 M
[ [(Arial) 200.0 0.0 true true 0 ( 750)]
] -66.7 MCshow
1.000 UL
LTb
0.00 0.00 0.00 C 0.500 UL
LTa
0.50 0.50 0.50 C 2009 1000 M
0 3799 V
stroke
1.000 UL
LTb
0.00 0.00 0.00 C 2009 1000 M
0 63 V
0 3736 R
0 -63 V
stroke
2009 800 M
[ [(Arial) 200.0 0.0 true true 0 ( 780)]
] -66.7 MCshow
1.000 UL
LTb
0.00 0.00 0.00 C 0.500 UL
LTa
0.50 0.50 0.50 C 2775 1000 M
0 3799 V
stroke
1.000 UL
LTb
0.00 0.00 0.00 C 2775 1000 M
0 63 V
0 3736 R
0 -63 V
stroke
2775 800 M
[ [(Arial) 200.0 0.0 true true 0 ( 810)]
] -66.7 MCshow
1.000 UL
LTb
0.00 0.00 0.00 C 0.500 UL
LTa
0.50 0.50 0.50 C 3542 1000 M
0 3799 V
stroke
1.000 UL
LTb
0.00 0.00 0.00 C 3542 1000 M
0 63 V
0 3736 R
0 -63 V
stroke
3542 800 M
[ [(Arial) 200.0 0.0 true true 0 ( 840)]
] -66.7 MCshow
1.000 UL
LTb
0.00 0.00 0.00 C 0.500 UL
LTa
0.50 0.50 0.50 C 4308 1000 M
0 3799 V
stroke
1.000 UL
LTb
0.00 0.00 0.00 C 4308 1000 M
0 63 V
0 3736 R
0 -63 V
stroke
4308 800 M
[ [(Arial) 200.0 0.0 true true 0 ( 870)]
] -66.7 MCshow
1.000 UL
LTb
0.00 0.00 0.00 C 0.500 UL
LTa
0.50 0.50 0.50 C 5074 1000 M
0 3799 V
stroke
1.000 UL
LTb
0.00 0.00 0.00 C 5074 1000 M
0 63 V
0 3736 R
0 -63 V
stroke
5074 800 M
[ [(Arial) 200.0 0.0 true true 0 ( 900)]
] -66.7 MCshow
1.000 UL
LTb
0.00 0.00 0.00 C 0.500 UL
LTa
0.50 0.50 0.50 C 5840 1000 M
0 3799 V
stroke
1.000 UL
LTb
0.00 0.00 0.00 C 5840 1000 M
0 63 V
0 3736 R
0 -63 V
stroke
5840 800 M
[ [(Arial) 200.0 0.0 true true 0 ( 930)]
] -66.7 MCshow
1.000 UL
LTb
0.00 0.00 0.00 C 0.500 UL
LTa
0.50 0.50 0.50 C 6606 1000 M
0 3799 V
stroke
1.000 UL
LTb
0.00 0.00 0.00 C 6606 1000 M
0 63 V
0 3736 R
0 -63 V
stroke
6606 800 M
[ [(Arial) 200.0 0.0 true true 0 ( 960)]
] -66.7 MCshow
1.000 UL
LTb
0.00 0.00 0.00 C 0.500 UL
LTa
0.50 0.50 0.50 C 7373 1000 M
0 3799 V
stroke
1.000 UL
LTb
0.00 0.00 0.00 C 7373 1000 M
0 63 V
0 3736 R
0 -63 V
stroke
7373 800 M
[ [(Arial) 200.0 0.0 true true 0 ( 990)]
] -66.7 MCshow
1.000 UL
LTb
0.00 0.00 0.00 C 0.500 UL
LTa
0.50 0.50 0.50 C 8139 1000 M
0 3799 V
stroke
1.000 UL
LTb
0.00 0.00 0.00 C 8139 1000 M
0 63 V
0 3736 R
0 -63 V
stroke
8139 800 M
[ [(Arial) 200.0 0.0 true true 0 ( 1020)]
] -66.7 MCshow
1.000 UL
LTb
0.00 0.00 0.00 C 0.500 UL
LTa
0.50 0.50 0.50 C 8905 1000 M
0 3799 V
stroke
1.000 UL
LTb
0.00 0.00 0.00 C 8905 1000 M
0 63 V
0 3736 R
0 -63 V
stroke
8905 800 M
[ [(Arial) 200.0 0.0 true true 0 ( 1050)]
] -66.7 MCshow
1.000 UL
LTb
0.00 0.00 0.00 C 0.500 UL
LTa
0.50 0.50 0.50 C 9671 1000 M
0 3799 V
stroke
1.000 UL
LTb
0.00 0.00 0.00 C 9671 1000 M
0 63 V
0 3736 R
0 -63 V
stroke
9671 800 M
[ [(Arial) 200.0 0.0 true true 0 ( 1080)]
] -66.7 MCshow
1.000 UL
LTb
0.00 0.00 0.00 C 0.500 UL
LTa
0.50 0.50 0.50 C 10437 1000 M
0 3799 V
stroke
1.000 UL
LTb
0.00 0.00 0.00 C 10437 1000 M
0 63 V
0 3736 R
0 -63 V
stroke
10437 800 M
[ [(Arial) 200.0 0.0 true true 0 ( 1110)]
] -66.7 MCshow
1.000 UL
LTb
0.00 0.00 0.00 C 0.500 UL
LTa
0.50 0.50 0.50 C 11204 1000 M
0 3799 V
stroke
1.000 UL
LTb
0.00 0.00 0.00 C 11204 1000 M
0 63 V
0 3736 R
0 -63 V
stroke
11204 800 M
[ [(Arial) 200.0 0.0 true true 0 ( 1140)]
] -66.7 MCshow
1.000 UL
LTb
0.00 0.00 0.00 C 0.500 UL
LTa
0.50 0.50 0.50 C 11970 1000 M
0 3799 V
stroke
1.000 UL
LTb
0.00 0.00 0.00 C 11970 1000 M
0 63 V
0 3736 R
0 -63 V
stroke
11970 800 M
[ [(Arial) 200.0 0.0 true true 0 ( 1170)]
] -66.7 MCshow
1.000 UL
LTb
0.00 0.00 0.00 C 0.500 UL
LTa
0.50 0.50 0.50 C 12736 1000 M
0 3799 V
stroke
1.000 UL
LTb
0.00 0.00 0.00 C 12736 1000 M
0 63 V
0 3736 R
0 -63 V
stroke
12736 800 M
[ [(Arial) 200.0 0.0 true true 0 ( 1200)]
] -66.7 MCshow
1.000 UL
LTb
0.00 0.00 0.00 C 13119 1000 M
-63 0 V
stroke
13239 1000 M
[ [(Arial) 200.0 0.0 true true 0 ( 0)]
] -66.7 MLshow
1.000 UL
LTb
0.00 0.00 0.00 C 13119 1760 M
-63 0 V
stroke
13239 1760 M
[ [(Arial) 200.0 0.0 true true 0 ( 20)]
] -66.7 MLshow
1.000 UL
LTb
0.00 0.00 0.00 C 13119 2520 M
-63 0 V
stroke
13239 2520 M
[ [(Arial) 200.0 0.0 true true 0 ( 40)]
] -66.7 MLshow
1.000 UL
LTb
0.00 0.00 0.00 C 13119 3279 M
-63 0 V
stroke
13239 3279 M
[ [(Arial) 200.0 0.0 true true 0 ( 60)]
] -66.7 MLshow
1.000 UL
LTb
0.00 0.00 0.00 C 13119 4039 M
-63 0 V
stroke
13239 4039 M
[ [(Arial) 200.0 0.0 true true 0 ( 80)]
] -66.7 MLshow
1.000 UL
LTb
0.00 0.00 0.00 C 13119 4799 M
-63 0 V
stroke
13239 4799 M
[ [(Arial) 200.0 0.0 true true 0 ( 100)]
] -66.7 MLshow
1.000 UL
LTb
0.00 0.00 0.00 C 1.000 UL
LTB
0.00 0.00 0.00 C 860 4799 M
0 -3799 V
12259 0 V
0 3799 R
860 4799 M
1.000 UP
stroke
LTb
0.00 0.00 0.00 C LCb setrgbcolor
160 2899 M
currentpoint gsave translate -270 rotate 0 0 moveto
[ [(Arial) 200.0 0.0 true true 0 (RTT \(ms\))]
] -66.7 MCshow
grestore
LTb
LCb setrgbcolor
13938 2899 M
currentpoint gsave translate -270 rotate 0 0 moveto
[ [(Arial) 200.0 0.0 true true 0 (TCP delivery ratio [%])]
] -66.7 MCshow
grestore
LTb
LCb setrgbcolor
6989 500 M
[ [(Arial) 200.0 0.0 true true 0 (Local backhaul traffic traffic \(Mb/s\))]
] -66.7 MCshow
LTb
% Begin plot #1
1.000 UL
LTb
0.60 0.60 0.00 C LCb setrgbcolor
4654 333 M
[ [(Arial) 180.0 0.0 true true 0 (RTT      :   olsr)]
] -60.0 MRshow
1.000 UL
LTb
0.60 0.60 0.00 C 4762 288 333 90 80 -45 0 PatternFill
4762 288 N
333 0 V
0 90 V
-333 0 V
0 -90 V
Z stroke
1.000 UL
LTb
0.60 0.60 0.00 C 975 1657 154 952 80 -45 0 PatternFill
1052 1361 M
0 296 V
0 952 R
0 1636 V
stroke
975 1657 N
154 0 V
0 952 V
-154 0 V
0 -952 V
Z stroke
975 4245 M
154 0 V
975 1361 M
154 0 V
stroke
1741 1616 154 1068 80 -45 0 PatternFill
1818 1335 M
0 281 V
0 1068 R
0 1730 V
stroke
1741 1616 N
154 0 V
0 1068 V
-154 0 V
0 -1068 V
Z stroke
1741 4414 M
154 0 V
1741 1335 M
154 0 V
stroke
2507 1670 154 959 80 -45 0 PatternFill
2584 1383 M
0 287 V
0 959 R
0 1510 V
stroke
2507 1670 N
154 0 V
0 959 V
-154 0 V
0 -959 V
Z stroke
2507 4139 M
154 0 V
2507 1383 M
154 0 V
stroke
3273 1604 154 1058 80 -45 0 PatternFill
3350 1330 M
0 274 V
0 1058 R
0 1695 V
stroke
3273 1604 N
154 0 V
0 1058 V
-154 0 V
0 -1058 V
Z stroke
3273 4357 M
154 0 V
3273 1330 M
154 0 V
stroke
4040 1697 154 1064 80 -45 0 PatternFill
4117 1378 M
0 319 V
0 1064 R
0 1709 V
stroke
4040 1697 N
154 0 V
0 1064 V
-154 0 V
0 -1064 V
Z stroke
4040 4470 M
154 0 V
4040 1378 M
154 0 V
stroke
4806 1628 154 953 80 -45 0 PatternFill
4883 1390 M
0 238 V
0 953 R
0 1556 V
stroke
4806 1628 N
154 0 V
0 953 V
-154 0 V
0 -953 V
Z stroke
4806 4137 M
154 0 V
4806 1390 M
154 0 V
stroke
5572 1631 154 1078 80 -45 0 PatternFill
5649 1298 M
0 333 V
0 1078 R
0 1580 V
stroke
5572 1631 N
154 0 V
0 1078 V
-154 0 V
0 -1078 V
Z stroke
5572 4289 M
154 0 V
5572 1298 M
154 0 V
stroke
6338 1620 154 969 80 -45 0 PatternFill
6415 1356 M
0 264 V
0 969 R
0 1626 V
stroke
6338 1620 N
154 0 V
0 969 V
-154 0 V
0 -969 V
Z stroke
6338 4215 M
154 0 V
6338 1356 M
154 0 V
stroke
7104 1672 154 988 80 -45 0 PatternFill
7181 1383 M
0 289 V
0 988 R
0 1794 V
stroke
7104 1672 N
154 0 V
0 988 V
-154 0 V
0 -988 V
Z stroke
7104 4454 M
154 0 V
7104 1383 M
154 0 V
stroke
7871 1655 154 1017 80 -45 0 PatternFill
7948 1364 M
0 291 V
0 1017 R
0 1706 V
stroke
7871 1655 N
154 0 V
0 1017 V
-154 0 V
0 -1017 V
Z stroke
7871 4378 M
154 0 V
7871 1364 M
154 0 V
stroke
8637 1642 154 1062 80 -45 0 PatternFill
8714 1372 M
0 270 V
0 1062 R
0 1550 V
stroke
8637 1642 N
154 0 V
0 1062 V
-154 0 V
0 -1062 V
Z stroke
8637 4254 M
154 0 V
8637 1372 M
154 0 V
stroke
9403 1686 154 1007 80 -45 0 PatternFill
9480 1366 M
0 320 V
0 1007 R
0 1601 V
stroke
9403 1686 N
154 0 V
0 1007 V
-154 0 V
0 -1007 V
Z stroke
9403 4294 M
154 0 V
9403 1366 M
154 0 V
stroke
10169 1616 154 1056 80 -45 0 PatternFill
10246 1362 M
0 254 V
0 1056 R
0 1685 V
stroke
10169 1616 N
154 0 V
0 1056 V
-154 0 V
0 -1056 V
Z stroke
10169 4357 M
154 0 V
10169 1362 M
154 0 V
stroke
10935 1715 154 985 80 -45 0 PatternFill
11012 1375 M
0 340 V
0 985 R
0 1170 V
stroke
10935 1715 N
154 0 V
0 985 V
-154 0 V
0 -985 V
Z stroke
10935 3870 M
154 0 V
10935 1375 M
154 0 V
stroke
11702 1682 154 997 80 -45 0 PatternFill
11779 1410 M
0 272 V
0 997 R
0 1613 V
stroke
11702 1682 N
154 0 V
0 997 V
-154 0 V
0 -997 V
Z stroke
11702 4292 M
154 0 V
11702 1410 M
154 0 V
stroke
12468 1749 154 958 80 -45 0 PatternFill
12545 1446 M
0 303 V
0 958 R
0 1405 V
stroke
12468 1749 N
154 0 V
0 958 V
-154 0 V
0 -958 V
Z stroke
12468 4112 M
154 0 V
12468 1446 M
154 0 V
% End plot #1
% Begin plot #2
stroke
LTb
LCb setrgbcolor

 /TransparentPatterns true def
975 2359 154 0 40 30 0 PatternFill
1052 2359 M
stroke
975 2359 N
154 0 V
-154 0 V
Z stroke
975 2359 M
154 0 V
-154 0 R
154 0 V
stroke

 /TransparentPatterns true def
1741 2372 154 0 40 30 0 PatternFill
1818 2372 M
stroke
1741 2372 N
154 0 V
-154 0 V
Z stroke
1741 2372 M
154 0 V
-154 0 R
154 0 V
stroke

 /TransparentPatterns true def
2507 2365 154 0 40 30 0 PatternFill
2584 2365 M
stroke
2507 2365 N
154 0 V
-154 0 V
Z stroke
2507 2365 M
154 0 V
-154 0 R
154 0 V
stroke

 /TransparentPatterns true def
3273 2367 154 0 40 30 0 PatternFill
3350 2367 M
stroke
3273 2367 N
154 0 V
-154 0 V
Z stroke
3273 2367 M
154 0 V
-154 0 R
154 0 V
stroke

 /TransparentPatterns true def
4040 2455 154 0 40 30 0 PatternFill
4117 2455 M
stroke
4040 2455 N
154 0 V
-154 0 V
Z stroke
4040 2455 M
154 0 V
-154 0 R
154 0 V
stroke

 /TransparentPatterns true def
4806 2322 154 0 40 30 0 PatternFill
4883 2322 M
stroke
4806 2322 N
154 0 V
-154 0 V
Z stroke
4806 2322 M
154 0 V
-154 0 R
154 0 V
stroke

 /TransparentPatterns true def
5572 2402 154 0 40 30 0 PatternFill
5649 2402 M
stroke
5572 2402 N
154 0 V
-154 0 V
Z stroke
5572 2402 M
154 0 V
-154 0 R
154 0 V
stroke

 /TransparentPatterns true def
6338 2324 154 0 40 30 0 PatternFill
6415 2324 M
stroke
6338 2324 N
154 0 V
-154 0 V
Z stroke
6338 2324 M
154 0 V
-154 0 R
154 0 V
stroke

 /TransparentPatterns true def
7104 2387 154 0 40 30 0 PatternFill
7181 2387 M
stroke
7104 2387 N
154 0 V
-154 0 V
Z stroke
7104 2387 M
154 0 V
-154 0 R
154 0 V
stroke

 /TransparentPatterns true def
7871 2377 154 0 40 30 0 PatternFill
7948 2377 M
stroke
7871 2377 N
154 0 V
-154 0 V
Z stroke
7871 2377 M
154 0 V
-154 0 R
154 0 V
stroke

 /TransparentPatterns true def
8637 2381 154 0 40 30 0 PatternFill
8714 2381 M
stroke
8637 2381 N
154 0 V
-154 0 V
Z stroke
8637 2381 M
154 0 V
-154 0 R
154 0 V
stroke

 /TransparentPatterns true def
9403 2412 154 0 40 30 0 PatternFill
9480 2412 M
stroke
9403 2412 N
154 0 V
-154 0 V
Z stroke
9403 2412 M
154 0 V
-154 0 R
154 0 V
stroke

 /TransparentPatterns true def
10169 2366 154 0 40 30 0 PatternFill
10246 2366 M
stroke
10169 2366 N
154 0 V
-154 0 V
Z stroke
10169 2366 M
154 0 V
-154 0 R
154 0 V
stroke

 /TransparentPatterns true def
10935 2384 154 0 40 30 0 PatternFill
11012 2384 M
stroke
10935 2384 N
154 0 V
-154 0 V
Z stroke
10935 2384 M
154 0 V
-154 0 R
154 0 V
stroke

 /TransparentPatterns true def
11702 2394 154 0 40 30 0 PatternFill
11779 2394 M
stroke
11702 2394 N
154 0 V
-154 0 V
Z stroke
11702 2394 M
154 0 V
-154 0 R
154 0 V
stroke

 /TransparentPatterns true def
12468 2418 154 0 40 30 0 PatternFill
12545 2418 M
stroke
12468 2418 N
154 0 V
-154 0 V
Z stroke
12468 2418 M
154 0 V
-154 0 R
154 0 V
% End plot #2
% Begin plot #3
2.000 UP
stroke
LTa
0.60 0.60 0.00 C LCb setrgbcolor
4654 153 M
[ [(Arial) 180.0 0.0 true true 0 (app. received bytes :         )]
] -60.0 MRshow
2.000 UP
1.000 UL
LTa
0.60 0.60 0.00 C 4762 153 M
333 0 V
860 4799 M
192 0 V
766 0 V
766 0 V
766 0 V
766 0 V
766 0 V
767 0 V
766 0 V
766 0 V
766 0 V
766 0 V
767 0 V
766 0 V
766 0 V
766 0 V
766 0 V
1052 4799 Box
1818 4799 Box
2584 4799 Box
3350 4799 Box
4116 4799 Box
4882 4799 Box
5649 4799 Box
6415 4799 Box
7181 4799 Box
7947 4799 Box
8713 4799 Box
9480 4799 Box
10246 4799 Box
11012 4799 Box
11778 4799 Box
12544 4799 Box
4928 153 Box
% End plot #3
% Begin plot #4
1.000 UL
LTb
0.00 0.00 0.63 C LCb setrgbcolor
8227 333 M
[ [(Arial) 180.0 0.0 true true 0 (per-packet)]
] -60.0 MRshow
1.000 UL
LTb
0.00 0.00 0.63 C 8335 288 333 90 80 45 0 PatternFill
8335 288 N
333 0 V
0 90 V
-333 0 V
0 -90 V
Z stroke
1.000 UL
LTb
0.00 0.00 0.63 C 1166 1588 154 1075 80 45 0 PatternFill
1243 1309 M
0 279 V
0 1075 R
0 1132 V
stroke
1166 1588 N
154 0 V
0 1075 V
-154 0 V
0 -1075 V
Z stroke
1166 3795 M
154 0 V
1166 1309 M
154 0 V
stroke
1933 1598 154 1166 80 45 0 PatternFill
2010 1327 M
0 271 V
0 1166 R
0 1316 V
stroke
1933 1598 N
154 0 V
0 1166 V
-154 0 V
0 -1166 V
Z stroke
1933 4080 M
154 0 V
1933 1327 M
154 0 V
stroke
2699 1588 154 1024 80 45 0 PatternFill
2776 1298 M
0 290 V
0 1024 R
0 1225 V
stroke
2699 1588 N
154 0 V
0 1024 V
-154 0 V
0 -1024 V
Z stroke
2699 3837 M
154 0 V
2699 1298 M
154 0 V
stroke
3465 1569 154 1032 80 45 0 PatternFill
3542 1299 M
0 270 V
0 1032 R
0 1389 V
stroke
3465 1569 N
154 0 V
0 1032 V
-154 0 V
0 -1032 V
Z stroke
3465 3990 M
154 0 V
3465 1299 M
154 0 V
stroke
4231 1568 154 1050 80 45 0 PatternFill
4308 1258 M
0 310 V
0 1050 R
0 1191 V
stroke
4231 1568 N
154 0 V
0 1050 V
-154 0 V
0 -1050 V
Z stroke
4231 3809 M
154 0 V
4231 1258 M
154 0 V
stroke
4997 1598 154 1051 80 45 0 PatternFill
5074 1297 M
0 301 V
0 1051 R
0 1480 V
stroke
4997 1598 N
154 0 V
0 1051 V
-154 0 V
0 -1051 V
Z stroke
4997 4129 M
154 0 V
4997 1297 M
154 0 V
stroke
5764 1529 154 1070 80 45 0 PatternFill
5841 1265 M
0 264 V
0 1070 R
0 1244 V
stroke
5764 1529 N
154 0 V
0 1070 V
-154 0 V
0 -1070 V
Z stroke
5764 3843 M
154 0 V
5764 1265 M
154 0 V
stroke
6530 1623 154 1050 80 45 0 PatternFill
6607 1343 M
0 280 V
0 1050 R
0 1215 V
stroke
6530 1623 N
154 0 V
0 1050 V
-154 0 V
0 -1050 V
Z stroke
6530 3888 M
154 0 V
6530 1343 M
154 0 V
stroke
7296 1570 154 1029 80 45 0 PatternFill
7373 1312 M
0 258 V
0 1029 R
0 1241 V
stroke
7296 1570 N
154 0 V
0 1029 V
-154 0 V
0 -1029 V
Z stroke
7296 3840 M
154 0 V
7296 1312 M
154 0 V
stroke
8062 1520 154 1027 80 45 0 PatternFill
8139 1268 M
0 252 V
0 1027 R
0 1306 V
stroke
8062 1520 N
154 0 V
0 1027 V
-154 0 V
0 -1027 V
Z stroke
8062 3853 M
154 0 V
8062 1268 M
154 0 V
stroke
8828 1547 154 1029 80 45 0 PatternFill
8905 1287 M
0 260 V
0 1029 R
0 1294 V
stroke
8828 1547 N
154 0 V
0 1029 V
-154 0 V
0 -1029 V
Z stroke
8828 3870 M
154 0 V
8828 1287 M
154 0 V
stroke
9595 1562 154 1033 80 45 0 PatternFill
9672 1285 M
0 277 V
0 1033 R
0 1278 V
stroke
9595 1562 N
154 0 V
0 1033 V
-154 0 V
0 -1033 V
Z stroke
9595 3873 M
154 0 V
9595 1285 M
154 0 V
stroke
10361 1539 154 1180 80 45 0 PatternFill
10438 1266 M
0 273 V
0 1180 R
0 1382 V
stroke
10361 1539 N
154 0 V
0 1180 V
-154 0 V
0 -1180 V
Z stroke
10361 4101 M
154 0 V
10361 1266 M
154 0 V
stroke
11127 1600 154 1030 80 45 0 PatternFill
11204 1303 M
0 297 V
0 1030 R
0 1203 V
stroke
11127 1600 N
154 0 V
0 1030 V
-154 0 V
0 -1030 V
Z stroke
11127 3833 M
154 0 V
11127 1303 M
154 0 V
stroke
11893 1516 154 1031 80 45 0 PatternFill
11970 1261 M
0 255 V
0 1031 R
0 1292 V
stroke
11893 1516 N
154 0 V
0 1031 V
-154 0 V
0 -1031 V
Z stroke
11893 3839 M
154 0 V
11893 1261 M
154 0 V
stroke
12659 1591 154 982 80 45 0 PatternFill
12736 1330 M
0 261 V
0 982 R
0 1198 V
stroke
12659 1591 N
154 0 V
0 982 V
-154 0 V
0 -982 V
Z stroke
12659 3771 M
154 0 V
12659 1330 M
154 0 V
% End plot #4
% Begin plot #5
stroke
LTb
LCb setrgbcolor

 /TransparentPatterns true def
1166 2246 154 0 80 -45 0 PatternFill
1243 2246 M
stroke
1166 2246 N
154 0 V
-154 0 V
Z stroke
1166 2246 M
154 0 V
-154 0 R
154 0 V
stroke

 /TransparentPatterns true def
1933 2272 154 0 80 -45 0 PatternFill
2010 2272 M
stroke
1933 2272 N
154 0 V
-154 0 V
Z stroke
1933 2272 M
154 0 V
-154 0 R
154 0 V
stroke

 /TransparentPatterns true def
2699 2218 154 0 80 -45 0 PatternFill
2776 2218 M
stroke
2699 2218 N
154 0 V
-154 0 V
Z stroke
2699 2218 M
154 0 V
-154 0 R
154 0 V
stroke

 /TransparentPatterns true def
3465 2212 154 0 80 -45 0 PatternFill
3542 2212 M
stroke
3465 2212 N
154 0 V
-154 0 V
Z stroke
3465 2212 M
154 0 V
-154 0 R
154 0 V
stroke

 /TransparentPatterns true def
4231 2222 154 0 80 -45 0 PatternFill
4308 2222 M
stroke
4231 2222 N
154 0 V
-154 0 V
Z stroke
4231 2222 M
154 0 V
-154 0 R
154 0 V
stroke

 /TransparentPatterns true def
4997 2271 154 0 80 -45 0 PatternFill
5074 2271 M
stroke
4997 2271 N
154 0 V
-154 0 V
Z stroke
4997 2271 M
154 0 V
-154 0 R
154 0 V
stroke

 /TransparentPatterns true def
5764 2180 154 0 80 -45 0 PatternFill
5841 2180 M
stroke
5764 2180 N
154 0 V
-154 0 V
Z stroke
5764 2180 M
154 0 V
-154 0 R
154 0 V
stroke

 /TransparentPatterns true def
6530 2268 154 0 80 -45 0 PatternFill
6607 2268 M
stroke
6530 2268 N
154 0 V
-154 0 V
Z stroke
6530 2268 M
154 0 V
-154 0 R
154 0 V
stroke

 /TransparentPatterns true def
7296 2209 154 0 80 -45 0 PatternFill
7373 2209 M
stroke
7296 2209 N
154 0 V
-154 0 V
Z stroke
7296 2209 M
154 0 V
-154 0 R
154 0 V
stroke

 /TransparentPatterns true def
8062 2168 154 0 80 -45 0 PatternFill
8139 2168 M
stroke
8062 2168 N
154 0 V
-154 0 V
Z stroke
8062 2168 M
154 0 V
-154 0 R
154 0 V
stroke

 /TransparentPatterns true def
8828 2188 154 0 80 -45 0 PatternFill
8905 2188 M
stroke
8828 2188 N
154 0 V
-154 0 V
Z stroke
8828 2188 M
154 0 V
-154 0 R
154 0 V
stroke

 /TransparentPatterns true def
9595 2207 154 0 80 -45 0 PatternFill
9672 2207 M
stroke
9595 2207 N
154 0 V
-154 0 V
Z stroke
9595 2207 M
154 0 V
-154 0 R
154 0 V
stroke

 /TransparentPatterns true def
10361 2230 154 0 80 -45 0 PatternFill
10438 2230 M
stroke
10361 2230 N
154 0 V
-154 0 V
Z stroke
10361 2230 M
154 0 V
-154 0 R
154 0 V
stroke

 /TransparentPatterns true def
11127 2235 154 0 80 -45 0 PatternFill
11204 2235 M
stroke
11127 2235 N
154 0 V
-154 0 V
Z stroke
11127 2235 M
154 0 V
-154 0 R
154 0 V
stroke

 /TransparentPatterns true def
11893 2159 154 0 80 -45 0 PatternFill
11970 2159 M
stroke
11893 2159 N
154 0 V
-154 0 V
Z stroke
11893 2159 M
154 0 V
-154 0 R
154 0 V
stroke

 /TransparentPatterns true def
12659 2195 154 0 80 -45 0 PatternFill
12736 2195 M
stroke
12659 2195 N
154 0 V
-154 0 V
Z stroke
12659 2195 M
154 0 V
-154 0 R
154 0 V
% End plot #5
% Begin plot #6
2.000 UP
stroke
LTa
0.00 0.00 0.63 C LCb setrgbcolor
8227 153 M
[ [(Arial) 180.0 0.0 true true 0 ( )]
] -60.0 MRshow
2.000 UP
1.000 UL
LTa
0.00 0.00 0.63 C 8335 153 M
333 0 V
860 4799 M
383 0 V
766 0 V
766 0 V
767 0 V
766 0 V
766 0 V
766 0 V
766 0 V
767 0 V
766 0 V
766 0 V
766 0 V
766 0 V
767 0 V
766 -4 V
766 4 V
1243 4799 Circle
2009 4799 Circle
2775 4799 Circle
3542 4799 Circle
4308 4799 Circle
5074 4799 Circle
5840 4799 Circle
6606 4799 Circle
7373 4799 Circle
8139 4799 Circle
8905 4799 Circle
9671 4799 Circle
10437 4799 Circle
11204 4799 Circle
11970 4795 Circle
12736 4799 Circle
8501 153 Circle
% End plot #6
% Begin plot #7
1.000 UL
LTb
0.00 0.38 0.82 C LCb setrgbcolor
11800 333 M
[ [(Arial) 180.0 0.0 true true 0 (per-flow)]
] -60.0 MRshow
1.000 UL
LTb
0.00 0.38 0.82 C 11908 288 333 90 40 30 0 PatternFill
11908 288 N
333 0 V
0 90 V
-333 0 V
0 -90 V
Z stroke
1.000 UL
LTb
0.00 0.38 0.82 C 1358 1704 154 1111 40 30 0 PatternFill
1435 1376 M
0 328 V
0 1111 R
0 1174 V
stroke
1358 1704 N
154 0 V
0 1111 V
-154 0 V
0 -1111 V
Z stroke
1358 3989 M
154 0 V
1358 1376 M
154 0 V
stroke
2124 1644 154 1251 40 30 0 PatternFill
2201 1305 M
0 339 V
0 1251 R
0 1352 V
stroke
2124 1644 N
154 0 V
0 1251 V
-154 0 V
0 -1251 V
Z stroke
2124 4247 M
154 0 V
2124 1305 M
154 0 V
stroke
2890 1784 154 1070 40 30 0 PatternFill
2967 1466 M
0 318 V
0 1070 R
0 1290 V
stroke
2890 1784 N
154 0 V
0 1070 V
-154 0 V
0 -1070 V
Z stroke
2890 4144 M
154 0 V
2890 1466 M
154 0 V
stroke
3657 1706 154 1220 40 30 0 PatternFill
3734 1372 M
0 334 V
0 1220 R
0 1441 V
stroke
3657 1706 N
154 0 V
0 1220 V
-154 0 V
0 -1220 V
Z stroke
3657 4367 M
154 0 V
3657 1372 M
154 0 V
stroke
4423 1610 154 1154 40 30 0 PatternFill
4500 1301 M
0 309 V
0 1154 R
0 1599 V
stroke
4423 1610 N
154 0 V
0 1154 V
-154 0 V
0 -1154 V
Z stroke
4423 4363 M
154 0 V
4423 1301 M
154 0 V
stroke
5189 1759 154 1205 40 30 0 PatternFill
5266 1416 M
0 343 V
0 1205 R
0 1314 V
stroke
5189 1759 N
154 0 V
0 1205 V
-154 0 V
0 -1205 V
Z stroke
5189 4278 M
154 0 V
5189 1416 M
154 0 V
stroke
5955 1675 154 1499 40 30 0 PatternFill
6032 1355 M
0 320 V
0 1499 R
0 1581 V
stroke
5955 1675 N
154 0 V
0 1499 V
-154 0 V
0 -1499 V
Z stroke
5955 4755 M
154 0 V
5955 1355 M
154 0 V
stroke
6721 1697 154 1194 40 30 0 PatternFill
6798 1392 M
0 305 V
0 1194 R
0 1443 V
stroke
6721 1697 N
154 0 V
0 1194 V
-154 0 V
0 -1194 V
Z stroke
6721 4334 M
154 0 V
6721 1392 M
154 0 V
stroke
7488 1625 154 1325 40 30 0 PatternFill
7565 1311 M
0 314 V
0 1325 R
0 1339 V
stroke
7488 1625 N
154 0 V
0 1325 V
-154 0 V
0 -1325 V
Z stroke
7488 4289 M
154 0 V
7488 1311 M
154 0 V
stroke
8254 1677 154 1192 40 30 0 PatternFill
8331 1376 M
0 301 V
0 1192 R
0 1283 V
stroke
8254 1677 N
154 0 V
0 1192 V
-154 0 V
0 -1192 V
Z stroke
8254 4152 M
154 0 V
8254 1376 M
154 0 V
stroke
9020 1731 154 1147 40 30 0 PatternFill
9097 1400 M
0 331 V
0 1147 R
0 1378 V
stroke
9020 1731 N
154 0 V
0 1147 V
-154 0 V
0 -1147 V
Z stroke
9020 4256 M
154 0 V
9020 1400 M
154 0 V
stroke
9786 1686 154 1231 40 30 0 PatternFill
9863 1386 M
0 300 V
0 1231 R
0 1220 V
stroke
9786 1686 N
154 0 V
0 1231 V
-154 0 V
0 -1231 V
Z stroke
9786 4137 M
154 0 V
9786 1386 M
154 0 V
stroke
10552 1744 154 1317 40 30 0 PatternFill
10629 1413 M
0 331 V
0 1317 R
0 1499 V
stroke
10552 1744 N
154 0 V
0 1317 V
-154 0 V
0 -1317 V
Z stroke
10552 4560 M
154 0 V
10552 1413 M
154 0 V
stroke
11318 1746 154 1349 40 30 0 PatternFill
11395 1392 M
0 354 V
0 1349 R
0 1439 V
stroke
11318 1746 N
154 0 V
0 1349 V
-154 0 V
0 -1349 V
Z stroke
11318 4534 M
154 0 V
11318 1392 M
154 0 V
stroke
12085 1711 154 1137 40 30 0 PatternFill
12162 1384 M
0 327 V
0 1137 R
0 1321 V
stroke
12085 1711 N
154 0 V
0 1137 V
-154 0 V
0 -1137 V
Z stroke
12085 4169 M
154 0 V
12085 1384 M
154 0 V
stroke
12851 1659 154 1180 40 30 0 PatternFill
12928 1325 M
0 334 V
0 1180 R
0 1457 V
stroke
12851 1659 N
154 0 V
0 1180 V
-154 0 V
0 -1180 V
Z stroke
12851 4296 M
154 0 V
12851 1325 M
154 0 V
% End plot #7
% Begin plot #8
stroke
LTb
LCb setrgbcolor

 /TransparentPatterns true def
1358 2388 154 0 40 -30 0 PatternFill
1435 2388 M
stroke
1358 2388 N
154 0 V
-154 0 V
Z stroke
1358 2388 M
154 0 V
-154 0 R
154 0 V
stroke

 /TransparentPatterns true def
2124 2436 154 0 40 -30 0 PatternFill
2201 2436 M
stroke
2124 2436 N
154 0 V
-154 0 V
Z stroke
2124 2436 M
154 0 V
-154 0 R
154 0 V
stroke

 /TransparentPatterns true def
2890 2458 154 0 40 -30 0 PatternFill
2967 2458 M
stroke
2890 2458 N
154 0 V
-154 0 V
Z stroke
2890 2458 M
154 0 V
-154 0 R
154 0 V
stroke

 /TransparentPatterns true def
3657 2472 154 0 40 -30 0 PatternFill
3734 2472 M
stroke
3657 2472 N
154 0 V
-154 0 V
Z stroke
3657 2472 M
154 0 V
-154 0 R
154 0 V
stroke

 /TransparentPatterns true def
4423 2344 154 0 40 -30 0 PatternFill
4500 2344 M
stroke
4423 2344 N
154 0 V
-154 0 V
Z stroke
4423 2344 M
154 0 V
-154 0 R
154 0 V
stroke

 /TransparentPatterns true def
5189 2493 154 0 40 -30 0 PatternFill
5266 2493 M
stroke
5189 2493 N
154 0 V
-154 0 V
Z stroke
5189 2493 M
154 0 V
-154 0 R
154 0 V
stroke

 /TransparentPatterns true def
5955 2539 154 0 40 -30 0 PatternFill
6032 2539 M
stroke
5955 2539 N
154 0 V
-154 0 V
Z stroke
5955 2539 M
154 0 V
-154 0 R
154 0 V
stroke

 /TransparentPatterns true def
6721 2426 154 0 40 -30 0 PatternFill
6798 2426 M
stroke
6721 2426 N
154 0 V
-154 0 V
Z stroke
6721 2426 M
154 0 V
-154 0 R
154 0 V
stroke

 /TransparentPatterns true def
7488 2417 154 0 40 -30 0 PatternFill
7565 2417 M
stroke
7488 2417 N
154 0 V
-154 0 V
Z stroke
7488 2417 M
154 0 V
-154 0 R
154 0 V
stroke

 /TransparentPatterns true def
8254 2404 154 0 40 -30 0 PatternFill
8331 2404 M
stroke
8254 2404 N
154 0 V
-154 0 V
Z stroke
8254 2404 M
154 0 V
-154 0 R
154 0 V
stroke

 /TransparentPatterns true def
9020 2444 154 0 40 -30 0 PatternFill
9097 2444 M
stroke
9020 2444 N
154 0 V
-154 0 V
Z stroke
9020 2444 M
154 0 V
-154 0 R
154 0 V
stroke

 /TransparentPatterns true def
9786 2437 154 0 40 -30 0 PatternFill
9863 2437 M
stroke
9786 2437 N
154 0 V
-154 0 V
Z stroke
9786 2437 M
154 0 V
-154 0 R
154 0 V
stroke

 /TransparentPatterns true def
10552 2531 154 0 40 -30 0 PatternFill
10629 2531 M
stroke
10552 2531 N
154 0 V
-154 0 V
Z stroke
10552 2531 M
154 0 V
-154 0 R
154 0 V
stroke

 /TransparentPatterns true def
11318 2546 154 0 40 -30 0 PatternFill
11395 2546 M
stroke
11318 2546 N
154 0 V
-154 0 V
Z stroke
11318 2546 M
154 0 V
-154 0 R
154 0 V
stroke

 /TransparentPatterns true def
12085 2415 154 0 40 -30 0 PatternFill
12162 2415 M
stroke
12085 2415 N
154 0 V
-154 0 V
Z stroke
12085 2415 M
154 0 V
-154 0 R
154 0 V
stroke

 /TransparentPatterns true def
12851 2403 154 0 40 -30 0 PatternFill
12928 2403 M
stroke
12851 2403 N
154 0 V
-154 0 V
Z stroke
12851 2403 M
154 0 V
-154 0 R
154 0 V
% End plot #8
% Begin plot #9
2.000 UP
stroke
LTa
0.00 0.38 0.82 C LCb setrgbcolor
11800 153 M
[ [(Arial) 180.0 0.0 true true 0 ( )]
] -60.0 MRshow
2.000 UP
1.000 UL
LTa
0.00 0.38 0.82 C 11908 153 M
333 0 V
860 4799 M
575 0 V
766 0 V
766 0 V
766 0 V
766 0 V
767 0 V
766 0 V
766 0 V
766 0 V
766 0 V
767 0 V
766 0 V
766 0 V
766 0 V
766 0 V
766 0 V
1435 4799 TriU
2201 4799 TriU
2967 4799 TriU
3733 4799 TriU
4499 4799 TriU
5266 4799 TriU
6032 4799 TriU
6798 4799 TriU
7564 4799 TriU
8330 4799 TriU
9097 4799 TriU
9863 4799 TriU
10629 4799 TriU
11395 4799 TriU
12161 4799 TriU
12927 4799 TriU
12074 153 TriU
% End plot #9
2.000 UL
LTb
LCb setrgbcolor
1.000 UP
1.000 UL
LTb
0.00 0.00 0.00 C stroke
grestore
end
showpage
%%Trailer
%%DocumentFonts: Arial
