%!PS-Adobe-2.0 EPSF-2.0
%%Title: TcpVeno-download-finishtime-50UE-90-240.eps
%%Creator: gnuplot 5.0 patchlevel 3
%%CreationDate: Thu May 19 16:44:20 2016
%%DocumentFonts: (atend)
%%BoundingBox: 50 50 770 302
%%EndComments
%%BeginProlog
/gnudict 256 dict def
gnudict begin
%
% The following true/false flags may be edited by hand if desired.
% The unit line width and grayscale image gamma correction may also be changed.
%
/Color true def
/Blacktext false def
/Solid false def
/Dashlength 3 def
/Landscape false def
/Level1 false def
/Level3 false def
/Rounded false def
/ClipToBoundingBox false def
/SuppressPDFMark false def
/TransparentPatterns false def
/gnulinewidth 15.000 def
/userlinewidth gnulinewidth def
/Gamma 1.0 def
/BackgroundColor {-1.000 -1.000 -1.000} def
%
/vshift -66 def
/dl1 {
  10.0 Dashlength userlinewidth gnulinewidth div mul mul mul
  Rounded { currentlinewidth 0.75 mul sub dup 0 le { pop 0.01 } if } if
} def
/dl2 {
  10.0 Dashlength userlinewidth gnulinewidth div mul mul mul
  Rounded { currentlinewidth 0.75 mul add } if
} def
/hpt_ 31.5 def
/vpt_ 31.5 def
/hpt hpt_ def
/vpt vpt_ def
/doclip {
  ClipToBoundingBox {
    newpath 50 50 moveto 770 50 lineto 770 302 lineto 50 302 lineto closepath
    clip
  } if
} def
%
% Gnuplot Prolog Version 5.1 (Oct 2015)
%
%/SuppressPDFMark true def
%
/M {moveto} bind def
/L {lineto} bind def
/R {rmoveto} bind def
/V {rlineto} bind def
/N {newpath moveto} bind def
/Z {closepath} bind def
/C {setrgbcolor} bind def
/f {rlineto fill} bind def
/g {setgray} bind def
/Gshow {show} def   % May be redefined later in the file to support UTF-8
/vpt2 vpt 2 mul def
/hpt2 hpt 2 mul def
/Lshow {currentpoint stroke M 0 vshift R 
	Blacktext {gsave 0 setgray textshow grestore} {textshow} ifelse} def
/Rshow {currentpoint stroke M dup stringwidth pop neg vshift R
	Blacktext {gsave 0 setgray textshow grestore} {textshow} ifelse} def
/Cshow {currentpoint stroke M dup stringwidth pop -2 div vshift R 
	Blacktext {gsave 0 setgray textshow grestore} {textshow} ifelse} def
/UP {dup vpt_ mul /vpt exch def hpt_ mul /hpt exch def
  /hpt2 hpt 2 mul def /vpt2 vpt 2 mul def} def
/DL {Color {setrgbcolor Solid {pop []} if 0 setdash}
 {pop pop pop 0 setgray Solid {pop []} if 0 setdash} ifelse} def
/BL {stroke userlinewidth 2 mul setlinewidth
	Rounded {1 setlinejoin 1 setlinecap} if} def
/AL {stroke userlinewidth 2 div setlinewidth
	Rounded {1 setlinejoin 1 setlinecap} if} def
/UL {dup gnulinewidth mul /userlinewidth exch def
	dup 1 lt {pop 1} if 10 mul /udl exch def} def
/PL {stroke userlinewidth setlinewidth
	Rounded {1 setlinejoin 1 setlinecap} if} def
3.8 setmiterlimit
% Classic Line colors (version 5.0)
/LCw {1 1 1} def
/LCb {0 0 0} def
/LCa {0 0 0} def
/LC0 {1 0 0} def
/LC1 {0 1 0} def
/LC2 {0 0 1} def
/LC3 {1 0 1} def
/LC4 {0 1 1} def
/LC5 {1 1 0} def
/LC6 {0 0 0} def
/LC7 {1 0.3 0} def
/LC8 {0.5 0.5 0.5} def
% Default dash patterns (version 5.0)
/LTB {BL [] LCb DL} def
/LTw {PL [] 1 setgray} def
/LTb {PL [] LCb DL} def
/LTa {AL [1 udl mul 2 udl mul] 0 setdash LCa setrgbcolor} def
/LT0 {PL [] LC0 DL} def
/LT1 {PL [2 dl1 3 dl2] LC1 DL} def
/LT2 {PL [1 dl1 1.5 dl2] LC2 DL} def
/LT3 {PL [6 dl1 2 dl2 1 dl1 2 dl2] LC3 DL} def
/LT4 {PL [1 dl1 2 dl2 6 dl1 2 dl2 1 dl1 2 dl2] LC4 DL} def
/LT5 {PL [4 dl1 2 dl2] LC5 DL} def
/LT6 {PL [1.5 dl1 1.5 dl2 1.5 dl1 1.5 dl2 1.5 dl1 6 dl2] LC6 DL} def
/LT7 {PL [3 dl1 3 dl2 1 dl1 3 dl2] LC7 DL} def
/LT8 {PL [2 dl1 2 dl2 2 dl1 6 dl2] LC8 DL} def
/SL {[] 0 setdash} def
/Pnt {stroke [] 0 setdash gsave 1 setlinecap M 0 0 V stroke grestore} def
/Dia {stroke [] 0 setdash 2 copy vpt add M
  hpt neg vpt neg V hpt vpt neg V
  hpt vpt V hpt neg vpt V closepath stroke
  Pnt} def
/Pls {stroke [] 0 setdash vpt sub M 0 vpt2 V
  currentpoint stroke M
  hpt neg vpt neg R hpt2 0 V stroke
 } def
/Box {stroke [] 0 setdash 2 copy exch hpt sub exch vpt add M
  0 vpt2 neg V hpt2 0 V 0 vpt2 V
  hpt2 neg 0 V closepath stroke
  Pnt} def
/Crs {stroke [] 0 setdash exch hpt sub exch vpt add M
  hpt2 vpt2 neg V currentpoint stroke M
  hpt2 neg 0 R hpt2 vpt2 V stroke} def
/TriU {stroke [] 0 setdash 2 copy vpt 1.12 mul add M
  hpt neg vpt -1.62 mul V
  hpt 2 mul 0 V
  hpt neg vpt 1.62 mul V closepath stroke
  Pnt} def
/Star {2 copy Pls Crs} def
/BoxF {stroke [] 0 setdash exch hpt sub exch vpt add M
  0 vpt2 neg V hpt2 0 V 0 vpt2 V
  hpt2 neg 0 V closepath fill} def
/TriUF {stroke [] 0 setdash vpt 1.12 mul add M
  hpt neg vpt -1.62 mul V
  hpt 2 mul 0 V
  hpt neg vpt 1.62 mul V closepath fill} def
/TriD {stroke [] 0 setdash 2 copy vpt 1.12 mul sub M
  hpt neg vpt 1.62 mul V
  hpt 2 mul 0 V
  hpt neg vpt -1.62 mul V closepath stroke
  Pnt} def
/TriDF {stroke [] 0 setdash vpt 1.12 mul sub M
  hpt neg vpt 1.62 mul V
  hpt 2 mul 0 V
  hpt neg vpt -1.62 mul V closepath fill} def
/DiaF {stroke [] 0 setdash vpt add M
  hpt neg vpt neg V hpt vpt neg V
  hpt vpt V hpt neg vpt V closepath fill} def
/Pent {stroke [] 0 setdash 2 copy gsave
  translate 0 hpt M 4 {72 rotate 0 hpt L} repeat
  closepath stroke grestore Pnt} def
/PentF {stroke [] 0 setdash gsave
  translate 0 hpt M 4 {72 rotate 0 hpt L} repeat
  closepath fill grestore} def
/Circle {stroke [] 0 setdash 2 copy
  hpt 0 360 arc stroke Pnt} def
/CircleF {stroke [] 0 setdash hpt 0 360 arc fill} def
/C0 {BL [] 0 setdash 2 copy moveto vpt 90 450 arc} bind def
/C1 {BL [] 0 setdash 2 copy moveto
	2 copy vpt 0 90 arc closepath fill
	vpt 0 360 arc closepath} bind def
/C2 {BL [] 0 setdash 2 copy moveto
	2 copy vpt 90 180 arc closepath fill
	vpt 0 360 arc closepath} bind def
/C3 {BL [] 0 setdash 2 copy moveto
	2 copy vpt 0 180 arc closepath fill
	vpt 0 360 arc closepath} bind def
/C4 {BL [] 0 setdash 2 copy moveto
	2 copy vpt 180 270 arc closepath fill
	vpt 0 360 arc closepath} bind def
/C5 {BL [] 0 setdash 2 copy moveto
	2 copy vpt 0 90 arc
	2 copy moveto
	2 copy vpt 180 270 arc closepath fill
	vpt 0 360 arc} bind def
/C6 {BL [] 0 setdash 2 copy moveto
	2 copy vpt 90 270 arc closepath fill
	vpt 0 360 arc closepath} bind def
/C7 {BL [] 0 setdash 2 copy moveto
	2 copy vpt 0 270 arc closepath fill
	vpt 0 360 arc closepath} bind def
/C8 {BL [] 0 setdash 2 copy moveto
	2 copy vpt 270 360 arc closepath fill
	vpt 0 360 arc closepath} bind def
/C9 {BL [] 0 setdash 2 copy moveto
	2 copy vpt 270 450 arc closepath fill
	vpt 0 360 arc closepath} bind def
/C10 {BL [] 0 setdash 2 copy 2 copy moveto vpt 270 360 arc closepath fill
	2 copy moveto
	2 copy vpt 90 180 arc closepath fill
	vpt 0 360 arc closepath} bind def
/C11 {BL [] 0 setdash 2 copy moveto
	2 copy vpt 0 180 arc closepath fill
	2 copy moveto
	2 copy vpt 270 360 arc closepath fill
	vpt 0 360 arc closepath} bind def
/C12 {BL [] 0 setdash 2 copy moveto
	2 copy vpt 180 360 arc closepath fill
	vpt 0 360 arc closepath} bind def
/C13 {BL [] 0 setdash 2 copy moveto
	2 copy vpt 0 90 arc closepath fill
	2 copy moveto
	2 copy vpt 180 360 arc closepath fill
	vpt 0 360 arc closepath} bind def
/C14 {BL [] 0 setdash 2 copy moveto
	2 copy vpt 90 360 arc closepath fill
	vpt 0 360 arc} bind def
/C15 {BL [] 0 setdash 2 copy vpt 0 360 arc closepath fill
	vpt 0 360 arc closepath} bind def
/Rec {newpath 4 2 roll moveto 1 index 0 rlineto 0 exch rlineto
	neg 0 rlineto closepath} bind def
/Square {dup Rec} bind def
/Bsquare {vpt sub exch vpt sub exch vpt2 Square} bind def
/S0 {BL [] 0 setdash 2 copy moveto 0 vpt rlineto BL Bsquare} bind def
/S1 {BL [] 0 setdash 2 copy vpt Square fill Bsquare} bind def
/S2 {BL [] 0 setdash 2 copy exch vpt sub exch vpt Square fill Bsquare} bind def
/S3 {BL [] 0 setdash 2 copy exch vpt sub exch vpt2 vpt Rec fill Bsquare} bind def
/S4 {BL [] 0 setdash 2 copy exch vpt sub exch vpt sub vpt Square fill Bsquare} bind def
/S5 {BL [] 0 setdash 2 copy 2 copy vpt Square fill
	exch vpt sub exch vpt sub vpt Square fill Bsquare} bind def
/S6 {BL [] 0 setdash 2 copy exch vpt sub exch vpt sub vpt vpt2 Rec fill Bsquare} bind def
/S7 {BL [] 0 setdash 2 copy exch vpt sub exch vpt sub vpt vpt2 Rec fill
	2 copy vpt Square fill Bsquare} bind def
/S8 {BL [] 0 setdash 2 copy vpt sub vpt Square fill Bsquare} bind def
/S9 {BL [] 0 setdash 2 copy vpt sub vpt vpt2 Rec fill Bsquare} bind def
/S10 {BL [] 0 setdash 2 copy vpt sub vpt Square fill 2 copy exch vpt sub exch vpt Square fill
	Bsquare} bind def
/S11 {BL [] 0 setdash 2 copy vpt sub vpt Square fill 2 copy exch vpt sub exch vpt2 vpt Rec fill
	Bsquare} bind def
/S12 {BL [] 0 setdash 2 copy exch vpt sub exch vpt sub vpt2 vpt Rec fill Bsquare} bind def
/S13 {BL [] 0 setdash 2 copy exch vpt sub exch vpt sub vpt2 vpt Rec fill
	2 copy vpt Square fill Bsquare} bind def
/S14 {BL [] 0 setdash 2 copy exch vpt sub exch vpt sub vpt2 vpt Rec fill
	2 copy exch vpt sub exch vpt Square fill Bsquare} bind def
/S15 {BL [] 0 setdash 2 copy Bsquare fill Bsquare} bind def
/D0 {gsave translate 45 rotate 0 0 S0 stroke grestore} bind def
/D1 {gsave translate 45 rotate 0 0 S1 stroke grestore} bind def
/D2 {gsave translate 45 rotate 0 0 S2 stroke grestore} bind def
/D3 {gsave translate 45 rotate 0 0 S3 stroke grestore} bind def
/D4 {gsave translate 45 rotate 0 0 S4 stroke grestore} bind def
/D5 {gsave translate 45 rotate 0 0 S5 stroke grestore} bind def
/D6 {gsave translate 45 rotate 0 0 S6 stroke grestore} bind def
/D7 {gsave translate 45 rotate 0 0 S7 stroke grestore} bind def
/D8 {gsave translate 45 rotate 0 0 S8 stroke grestore} bind def
/D9 {gsave translate 45 rotate 0 0 S9 stroke grestore} bind def
/D10 {gsave translate 45 rotate 0 0 S10 stroke grestore} bind def
/D11 {gsave translate 45 rotate 0 0 S11 stroke grestore} bind def
/D12 {gsave translate 45 rotate 0 0 S12 stroke grestore} bind def
/D13 {gsave translate 45 rotate 0 0 S13 stroke grestore} bind def
/D14 {gsave translate 45 rotate 0 0 S14 stroke grestore} bind def
/D15 {gsave translate 45 rotate 0 0 S15 stroke grestore} bind def
/DiaE {stroke [] 0 setdash vpt add M
  hpt neg vpt neg V hpt vpt neg V
  hpt vpt V hpt neg vpt V closepath stroke} def
/BoxE {stroke [] 0 setdash exch hpt sub exch vpt add M
  0 vpt2 neg V hpt2 0 V 0 vpt2 V
  hpt2 neg 0 V closepath stroke} def
/TriUE {stroke [] 0 setdash vpt 1.12 mul add M
  hpt neg vpt -1.62 mul V
  hpt 2 mul 0 V
  hpt neg vpt 1.62 mul V closepath stroke} def
/TriDE {stroke [] 0 setdash vpt 1.12 mul sub M
  hpt neg vpt 1.62 mul V
  hpt 2 mul 0 V
  hpt neg vpt -1.62 mul V closepath stroke} def
/PentE {stroke [] 0 setdash gsave
  translate 0 hpt M 4 {72 rotate 0 hpt L} repeat
  closepath stroke grestore} def
/CircE {stroke [] 0 setdash 
  hpt 0 360 arc stroke} def
/Opaque {gsave closepath 1 setgray fill grestore 0 setgray closepath} def
/DiaW {stroke [] 0 setdash vpt add M
  hpt neg vpt neg V hpt vpt neg V
  hpt vpt V hpt neg vpt V Opaque stroke} def
/BoxW {stroke [] 0 setdash exch hpt sub exch vpt add M
  0 vpt2 neg V hpt2 0 V 0 vpt2 V
  hpt2 neg 0 V Opaque stroke} def
/TriUW {stroke [] 0 setdash vpt 1.12 mul add M
  hpt neg vpt -1.62 mul V
  hpt 2 mul 0 V
  hpt neg vpt 1.62 mul V Opaque stroke} def
/TriDW {stroke [] 0 setdash vpt 1.12 mul sub M
  hpt neg vpt 1.62 mul V
  hpt 2 mul 0 V
  hpt neg vpt -1.62 mul V Opaque stroke} def
/PentW {stroke [] 0 setdash gsave
  translate 0 hpt M 4 {72 rotate 0 hpt L} repeat
  Opaque stroke grestore} def
/CircW {stroke [] 0 setdash 
  hpt 0 360 arc Opaque stroke} def
/BoxFill {gsave Rec 1 setgray fill grestore} def
/Density {
  /Fillden exch def
  currentrgbcolor
  /ColB exch def /ColG exch def /ColR exch def
  /ColR ColR Fillden mul Fillden sub 1 add def
  /ColG ColG Fillden mul Fillden sub 1 add def
  /ColB ColB Fillden mul Fillden sub 1 add def
  ColR ColG ColB setrgbcolor} def
/BoxColFill {gsave Rec PolyFill} def
/PolyFill {gsave Density fill grestore grestore} def
/h {rlineto rlineto rlineto gsave closepath fill grestore} bind def
%
% PostScript Level 1 Pattern Fill routine for rectangles
% Usage: x y w h s a XX PatternFill
%	x,y = lower left corner of box to be filled
%	w,h = width and height of box
%	  a = angle in degrees between lines and x-axis
%	 XX = 0/1 for no/yes cross-hatch
%
/PatternFill {gsave /PFa [ 9 2 roll ] def
  PFa 0 get PFa 2 get 2 div add PFa 1 get PFa 3 get 2 div add translate
  PFa 2 get -2 div PFa 3 get -2 div PFa 2 get PFa 3 get Rec
  TransparentPatterns {} {gsave 1 setgray fill grestore} ifelse
  clip
  currentlinewidth 0.5 mul setlinewidth
  /PFs PFa 2 get dup mul PFa 3 get dup mul add sqrt def
  0 0 M PFa 5 get rotate PFs -2 div dup translate
  0 1 PFs PFa 4 get div 1 add floor cvi
	{PFa 4 get mul 0 M 0 PFs V} for
  0 PFa 6 get ne {
	0 1 PFs PFa 4 get div 1 add floor cvi
	{PFa 4 get mul 0 2 1 roll M PFs 0 V} for
 } if
  stroke grestore} def
%
/languagelevel where
 {pop languagelevel} {1} ifelse
dup 2 lt
	{/InterpretLevel1 true def
	 /InterpretLevel3 false def}
	{/InterpretLevel1 Level1 def
	 2 gt
	    {/InterpretLevel3 Level3 def}
	    {/InterpretLevel3 false def}
	 ifelse }
 ifelse
%
% PostScript level 2 pattern fill definitions
%
/Level2PatternFill {
/Tile8x8 {/PaintType 2 /PatternType 1 /TilingType 1 /BBox [0 0 8 8] /XStep 8 /YStep 8}
	bind def
/KeepColor {currentrgbcolor [/Pattern /DeviceRGB] setcolorspace} bind def
<< Tile8x8
 /PaintProc {0.5 setlinewidth pop 0 0 M 8 8 L 0 8 M 8 0 L stroke} 
>> matrix makepattern
/Pat1 exch def
<< Tile8x8
 /PaintProc {0.5 setlinewidth pop 0 0 M 8 8 L 0 8 M 8 0 L stroke
	0 4 M 4 8 L 8 4 L 4 0 L 0 4 L stroke}
>> matrix makepattern
/Pat2 exch def
<< Tile8x8
 /PaintProc {0.5 setlinewidth pop 0 0 M 0 8 L
	8 8 L 8 0 L 0 0 L fill}
>> matrix makepattern
/Pat3 exch def
<< Tile8x8
 /PaintProc {0.5 setlinewidth pop -4 8 M 8 -4 L
	0 12 M 12 0 L stroke}
>> matrix makepattern
/Pat4 exch def
<< Tile8x8
 /PaintProc {0.5 setlinewidth pop -4 0 M 8 12 L
	0 -4 M 12 8 L stroke}
>> matrix makepattern
/Pat5 exch def
<< Tile8x8
 /PaintProc {0.5 setlinewidth pop -2 8 M 4 -4 L
	0 12 M 8 -4 L 4 12 M 10 0 L stroke}
>> matrix makepattern
/Pat6 exch def
<< Tile8x8
 /PaintProc {0.5 setlinewidth pop -2 0 M 4 12 L
	0 -4 M 8 12 L 4 -4 M 10 8 L stroke}
>> matrix makepattern
/Pat7 exch def
<< Tile8x8
 /PaintProc {0.5 setlinewidth pop 8 -2 M -4 4 L
	12 0 M -4 8 L 12 4 M 0 10 L stroke}
>> matrix makepattern
/Pat8 exch def
<< Tile8x8
 /PaintProc {0.5 setlinewidth pop 0 -2 M 12 4 L
	-4 0 M 12 8 L -4 4 M 8 10 L stroke}
>> matrix makepattern
/Pat9 exch def
/Pattern1 {PatternBgnd KeepColor Pat1 setpattern} bind def
/Pattern2 {PatternBgnd KeepColor Pat2 setpattern} bind def
/Pattern3 {PatternBgnd KeepColor Pat3 setpattern} bind def
/Pattern4 {PatternBgnd KeepColor Landscape {Pat5} {Pat4} ifelse setpattern} bind def
/Pattern5 {PatternBgnd KeepColor Landscape {Pat4} {Pat5} ifelse setpattern} bind def
/Pattern6 {PatternBgnd KeepColor Landscape {Pat9} {Pat6} ifelse setpattern} bind def
/Pattern7 {PatternBgnd KeepColor Landscape {Pat8} {Pat7} ifelse setpattern} bind def
} def
%
%
%End of PostScript Level 2 code
%
/PatternBgnd {
  TransparentPatterns {} {gsave 1 setgray fill grestore} ifelse
} def
%
% Substitute for Level 2 pattern fill codes with
% grayscale if Level 2 support is not selected.
%
/Level1PatternFill {
/Pattern1 {0.250 Density} bind def
/Pattern2 {0.500 Density} bind def
/Pattern3 {0.750 Density} bind def
/Pattern4 {0.125 Density} bind def
/Pattern5 {0.375 Density} bind def
/Pattern6 {0.625 Density} bind def
/Pattern7 {0.875 Density} bind def
} def
%
% Now test for support of Level 2 code
%
Level1 {Level1PatternFill} {Level2PatternFill} ifelse
%
/Symbol-Oblique /Symbol findfont [1 0 .167 1 0 0] makefont
dup length dict begin {1 index /FID eq {pop pop} {def} ifelse} forall
currentdict end definefont pop
%
/MFshow {
   { dup 5 get 3 ge
     { 5 get 3 eq {gsave} {grestore} ifelse }
     {dup dup 0 get findfont exch 1 get scalefont setfont
     [ currentpoint ] exch dup 2 get 0 exch R dup 5 get 2 ne {dup dup 6
     get exch 4 get {textshow} {stringwidth pop 0 R} ifelse }if dup 5 get 0 eq
     {dup 3 get {2 get neg 0 exch R pop} {pop aload pop M} ifelse} {dup 5
     get 1 eq {dup 2 get exch dup 3 get exch 6 get stringwidth pop -2 div
     dup 0 R} {dup 6 get stringwidth pop -2 div 0 R 6 get
     textshow 2 index {aload pop M neg 3 -1 roll neg R pop pop} {pop pop pop
     pop aload pop M} ifelse }ifelse }ifelse }
     ifelse }
   forall} def
/Gswidth {dup type /stringtype eq {stringwidth} {pop (n) stringwidth} ifelse} def
/MFwidth {0 exch { dup 5 get 3 ge { 5 get 3 eq { 0 } { pop } ifelse }
 {dup 3 get{dup dup 0 get findfont exch 1 get scalefont setfont
     6 get Gswidth pop add} {pop} ifelse} ifelse} forall} def
/MLshow { currentpoint stroke M
  0 exch R
  Blacktext {gsave 0 setgray MFshow grestore} {MFshow} ifelse } bind def
/MRshow { currentpoint stroke M
  exch dup MFwidth neg 3 -1 roll R
  Blacktext {gsave 0 setgray MFshow grestore} {MFshow} ifelse } bind def
/MCshow { currentpoint stroke M
  exch dup MFwidth -2 div 3 -1 roll R
  Blacktext {gsave 0 setgray MFshow grestore} {MFshow} ifelse } bind def
/XYsave    { [( ) 1 2 true false 3 ()] } bind def
/XYrestore { [( ) 1 2 true false 4 ()] } bind def
Level1 SuppressPDFMark or 
{} {
/SDict 10 dict def
systemdict /pdfmark known not {
  userdict /pdfmark systemdict /cleartomark get put
} if
SDict begin [
  /Title (TcpVeno-download-finishtime-50UE-90-240.eps)
  /Subject (gnuplot plot)
  /Creator (gnuplot 5.0 patchlevel 3)
  /Author (nat)
%  /Producer (gnuplot)
%  /Keywords ()
  /CreationDate (Thu May 19 16:44:20 2016)
  /DOCINFO pdfmark
end
} ifelse
%
% Support for boxed text - Ethan A Merritt May 2005
%
/InitTextBox { userdict /TBy2 3 -1 roll put userdict /TBx2 3 -1 roll put
           userdict /TBy1 3 -1 roll put userdict /TBx1 3 -1 roll put
	   /Boxing true def } def
/ExtendTextBox { Boxing
    { gsave dup false charpath pathbbox
      dup TBy2 gt {userdict /TBy2 3 -1 roll put} {pop} ifelse
      dup TBx2 gt {userdict /TBx2 3 -1 roll put} {pop} ifelse
      dup TBy1 lt {userdict /TBy1 3 -1 roll put} {pop} ifelse
      dup TBx1 lt {userdict /TBx1 3 -1 roll put} {pop} ifelse
      grestore } if } def
/PopTextBox { newpath TBx1 TBxmargin sub TBy1 TBymargin sub M
               TBx1 TBxmargin sub TBy2 TBymargin add L
	       TBx2 TBxmargin add TBy2 TBymargin add L
	       TBx2 TBxmargin add TBy1 TBymargin sub L closepath } def
/DrawTextBox { PopTextBox stroke /Boxing false def} def
/FillTextBox { gsave PopTextBox 1 1 1 setrgbcolor fill grestore /Boxing false def} def
0 0 0 0 InitTextBox
/TBxmargin 20 def
/TBymargin 20 def
/Boxing false def
/textshow { ExtendTextBox Gshow } def
%
% redundant definitions for compatibility with prologue.ps older than 5.0.2
/LTB {BL [] LCb DL} def
/LTb {PL [] LCb DL} def
end
%%EndProlog
%%Page: 1 1
gnudict begin
gsave
doclip
50 50 translate
0.050 0.050 scale
0 setgray
newpath
(Arial) findfont 200 scalefont setfont
BackgroundColor 0 lt 3 1 roll 0 lt exch 0 lt or or not {BackgroundColor C 1.000 0 0 14400.00 5040.00 BoxColFill} if
1.000 UL
LTb
0.00 0.00 0.00 C 0.500 UL
LTa
0.50 0.50 0.50 C 980 1000 M
12139 0 V
stroke
1.000 UL
LTb
0.00 0.00 0.00 C 980 1000 M
63 0 V
stroke
860 1000 M
[ [(Arial) 200.0 0.0 true true 0 ( 0)]
] -66.7 MRshow
1.000 UL
LTb
0.00 0.00 0.00 C 0.500 UL
LTa
0.50 0.50 0.50 C 980 1760 M
12139 0 V
stroke
1.000 UL
LTb
0.00 0.00 0.00 C 980 1760 M
63 0 V
stroke
860 1760 M
[ [(Arial) 200.0 0.0 true true 0 ( 50)]
] -66.7 MRshow
1.000 UL
LTb
0.00 0.00 0.00 C 0.500 UL
LTa
0.50 0.50 0.50 C 980 2520 M
12139 0 V
stroke
1.000 UL
LTb
0.00 0.00 0.00 C 980 2520 M
63 0 V
stroke
860 2520 M
[ [(Arial) 200.0 0.0 true true 0 ( 100)]
] -66.7 MRshow
1.000 UL
LTb
0.00 0.00 0.00 C 0.500 UL
LTa
0.50 0.50 0.50 C 980 3279 M
12139 0 V
stroke
1.000 UL
LTb
0.00 0.00 0.00 C 980 3279 M
63 0 V
stroke
860 3279 M
[ [(Arial) 200.0 0.0 true true 0 ( 150)]
] -66.7 MRshow
1.000 UL
LTb
0.00 0.00 0.00 C 0.500 UL
LTa
0.50 0.50 0.50 C 980 4039 M
12139 0 V
stroke
1.000 UL
LTb
0.00 0.00 0.00 C 980 4039 M
63 0 V
stroke
860 4039 M
[ [(Arial) 200.0 0.0 true true 0 ( 200)]
] -66.7 MRshow
1.000 UL
LTb
0.00 0.00 0.00 C 0.500 UL
LTa
0.50 0.50 0.50 C 980 4799 M
12139 0 V
stroke
1.000 UL
LTb
0.00 0.00 0.00 C 980 4799 M
63 0 V
stroke
860 4799 M
[ [(Arial) 200.0 0.0 true true 0 ( 250)]
] -66.7 MRshow
1.000 UL
LTb
0.00 0.00 0.00 C 0.500 UL
LTa
0.50 0.50 0.50 C 1359 1000 M
0 3799 V
stroke
1.000 UL
LTb
0.00 0.00 0.00 C 1359 1000 M
0 63 V
0 3736 R
0 -63 V
stroke
1359 800 M
[ [(Arial) 200.0 0.0 true true 0 ( 270)]
] -66.7 MCshow
1.000 UL
LTb
0.00 0.00 0.00 C 0.500 UL
LTa
0.50 0.50 0.50 C 2118 1000 M
0 3799 V
stroke
1.000 UL
LTb
0.00 0.00 0.00 C 2118 1000 M
0 63 V
0 3736 R
0 -63 V
stroke
2118 800 M
[ [(Arial) 200.0 0.0 true true 0 ( 300)]
] -66.7 MCshow
1.000 UL
LTb
0.00 0.00 0.00 C 0.500 UL
LTa
0.50 0.50 0.50 C 2877 1000 M
0 3799 V
stroke
1.000 UL
LTb
0.00 0.00 0.00 C 2877 1000 M
0 63 V
0 3736 R
0 -63 V
stroke
2877 800 M
[ [(Arial) 200.0 0.0 true true 0 ( 330)]
] -66.7 MCshow
1.000 UL
LTb
0.00 0.00 0.00 C 0.500 UL
LTa
0.50 0.50 0.50 C 3635 1000 M
0 3799 V
stroke
1.000 UL
LTb
0.00 0.00 0.00 C 3635 1000 M
0 63 V
0 3736 R
0 -63 V
stroke
3635 800 M
[ [(Arial) 200.0 0.0 true true 0 ( 360)]
] -66.7 MCshow
1.000 UL
LTb
0.00 0.00 0.00 C 0.500 UL
LTa
0.50 0.50 0.50 C 4394 1000 M
0 3799 V
stroke
1.000 UL
LTb
0.00 0.00 0.00 C 4394 1000 M
0 63 V
0 3736 R
0 -63 V
stroke
4394 800 M
[ [(Arial) 200.0 0.0 true true 0 ( 390)]
] -66.7 MCshow
1.000 UL
LTb
0.00 0.00 0.00 C 0.500 UL
LTa
0.50 0.50 0.50 C 5153 1000 M
0 3799 V
stroke
1.000 UL
LTb
0.00 0.00 0.00 C 5153 1000 M
0 63 V
0 3736 R
0 -63 V
stroke
5153 800 M
[ [(Arial) 200.0 0.0 true true 0 ( 420)]
] -66.7 MCshow
1.000 UL
LTb
0.00 0.00 0.00 C 0.500 UL
LTa
0.50 0.50 0.50 C 5911 1000 M
0 3799 V
stroke
1.000 UL
LTb
0.00 0.00 0.00 C 5911 1000 M
0 63 V
0 3736 R
0 -63 V
stroke
5911 800 M
[ [(Arial) 200.0 0.0 true true 0 ( 450)]
] -66.7 MCshow
1.000 UL
LTb
0.00 0.00 0.00 C 0.500 UL
LTa
0.50 0.50 0.50 C 6670 1000 M
0 3799 V
stroke
1.000 UL
LTb
0.00 0.00 0.00 C 6670 1000 M
0 63 V
0 3736 R
0 -63 V
stroke
6670 800 M
[ [(Arial) 200.0 0.0 true true 0 ( 480)]
] -66.7 MCshow
1.000 UL
LTb
0.00 0.00 0.00 C 0.500 UL
LTa
0.50 0.50 0.50 C 7429 1000 M
0 3799 V
stroke
1.000 UL
LTb
0.00 0.00 0.00 C 7429 1000 M
0 63 V
0 3736 R
0 -63 V
stroke
7429 800 M
[ [(Arial) 200.0 0.0 true true 0 ( 510)]
] -66.7 MCshow
1.000 UL
LTb
0.00 0.00 0.00 C 0.500 UL
LTa
0.50 0.50 0.50 C 8188 1000 M
0 3799 V
stroke
1.000 UL
LTb
0.00 0.00 0.00 C 8188 1000 M
0 63 V
0 3736 R
0 -63 V
stroke
8188 800 M
[ [(Arial) 200.0 0.0 true true 0 ( 540)]
] -66.7 MCshow
1.000 UL
LTb
0.00 0.00 0.00 C 0.500 UL
LTa
0.50 0.50 0.50 C 8946 1000 M
0 3799 V
stroke
1.000 UL
LTb
0.00 0.00 0.00 C 8946 1000 M
0 63 V
0 3736 R
0 -63 V
stroke
8946 800 M
[ [(Arial) 200.0 0.0 true true 0 ( 570)]
] -66.7 MCshow
1.000 UL
LTb
0.00 0.00 0.00 C 0.500 UL
LTa
0.50 0.50 0.50 C 9705 1000 M
0 3799 V
stroke
1.000 UL
LTb
0.00 0.00 0.00 C 9705 1000 M
0 63 V
0 3736 R
0 -63 V
stroke
9705 800 M
[ [(Arial) 200.0 0.0 true true 0 ( 600)]
] -66.7 MCshow
1.000 UL
LTb
0.00 0.00 0.00 C 0.500 UL
LTa
0.50 0.50 0.50 C 10464 1000 M
0 3799 V
stroke
1.000 UL
LTb
0.00 0.00 0.00 C 10464 1000 M
0 63 V
0 3736 R
0 -63 V
stroke
10464 800 M
[ [(Arial) 200.0 0.0 true true 0 ( 630)]
] -66.7 MCshow
1.000 UL
LTb
0.00 0.00 0.00 C 0.500 UL
LTa
0.50 0.50 0.50 C 11222 1000 M
0 3799 V
stroke
1.000 UL
LTb
0.00 0.00 0.00 C 11222 1000 M
0 63 V
0 3736 R
0 -63 V
stroke
11222 800 M
[ [(Arial) 200.0 0.0 true true 0 ( 660)]
] -66.7 MCshow
1.000 UL
LTb
0.00 0.00 0.00 C 0.500 UL
LTa
0.50 0.50 0.50 C 11981 1000 M
0 3799 V
stroke
1.000 UL
LTb
0.00 0.00 0.00 C 11981 1000 M
0 63 V
0 3736 R
0 -63 V
stroke
11981 800 M
[ [(Arial) 200.0 0.0 true true 0 ( 690)]
] -66.7 MCshow
1.000 UL
LTb
0.00 0.00 0.00 C 0.500 UL
LTa
0.50 0.50 0.50 C 12740 1000 M
0 3799 V
stroke
1.000 UL
LTb
0.00 0.00 0.00 C 12740 1000 M
0 63 V
0 3736 R
0 -63 V
stroke
12740 800 M
[ [(Arial) 200.0 0.0 true true 0 ( 720)]
] -66.7 MCshow
1.000 UL
LTb
0.00 0.00 0.00 C 13119 1000 M
-63 0 V
stroke
13239 1000 M
[ [(Arial) 200.0 0.0 true true 0 ( 0)]
] -66.7 MLshow
1.000 UL
LTb
0.00 0.00 0.00 C 13119 1760 M
-63 0 V
stroke
13239 1760 M
[ [(Arial) 200.0 0.0 true true 0 ( 20)]
] -66.7 MLshow
1.000 UL
LTb
0.00 0.00 0.00 C 13119 2520 M
-63 0 V
stroke
13239 2520 M
[ [(Arial) 200.0 0.0 true true 0 ( 40)]
] -66.7 MLshow
1.000 UL
LTb
0.00 0.00 0.00 C 13119 3279 M
-63 0 V
stroke
13239 3279 M
[ [(Arial) 200.0 0.0 true true 0 ( 60)]
] -66.7 MLshow
1.000 UL
LTb
0.00 0.00 0.00 C 13119 4039 M
-63 0 V
stroke
13239 4039 M
[ [(Arial) 200.0 0.0 true true 0 ( 80)]
] -66.7 MLshow
1.000 UL
LTb
0.00 0.00 0.00 C 13119 4799 M
-63 0 V
stroke
13239 4799 M
[ [(Arial) 200.0 0.0 true true 0 ( 100)]
] -66.7 MLshow
1.000 UL
LTb
0.00 0.00 0.00 C 1.000 UL
LTB
0.00 0.00 0.00 C 980 4799 M
0 -3799 V
12139 0 V
0 3799 R
980 4799 M
1.000 UP
stroke
LTb
0.00 0.00 0.00 C LCb setrgbcolor
160 2899 M
currentpoint gsave translate -270 rotate 0 0 moveto
[ [(Arial) 200.0 0.0 true true 0 (File download time \(s\))]
] -66.7 MCshow
grestore
LTb
LCb setrgbcolor
13938 2899 M
currentpoint gsave translate -270 rotate 0 0 moveto
[ [(Arial) 200.0 0.0 true true 0 (Average UDP throughput [%])]
] -66.7 MCshow
grestore
LTb
LCb setrgbcolor
7049 500 M
[ [(Arial) 200.0 0.0 true true 0 (Local Backhaul traffic \(Mb/s\))]
] -66.7 MCshow
LTb
% Begin plot #1
1.000 UL
LTb
0.60 0.60 0.00 C LCb setrgbcolor
4714 333 M
[ [(Arial) 180.0 0.0 true true 0 (file download time    :   olsr)]
] -60.0 MRshow
1.000 UL
LTb
0.60 0.60 0.00 C 4822 288 333 90 80 -45 0 PatternFill
4822 288 N
333 0 V
0 90 V
-333 0 V
0 -90 V
Z stroke
1.000 UL
LTb
0.60 0.60 0.00 C 1094 1208 152 218 80 -45 0 PatternFill
1170 1054 M
0 154 V
0 218 R
0 408 V
stroke
1094 1208 N
152 0 V
0 218 V
-152 0 V
0 -218 V
Z stroke
1094 1834 M
152 0 V
1094 1054 M
152 0 V
stroke
1852 1209 152 222 80 -45 0 PatternFill
1928 1054 M
0 155 V
0 222 R
0 283 V
stroke
1852 1209 N
152 0 V
0 222 V
-152 0 V
0 -222 V
Z stroke
1852 1714 M
152 0 V
1852 1054 M
152 0 V
stroke
2611 1189 152 248 80 -45 0 PatternFill
2687 1054 M
0 135 V
0 248 R
0 461 V
stroke
2611 1189 N
152 0 V
0 248 V
-152 0 V
0 -248 V
Z stroke
2611 1898 M
152 0 V
2611 1054 M
152 0 V
stroke
3370 1236 152 178 80 -45 0 PatternFill
3446 1054 M
0 182 V
0 178 R
0 270 V
stroke
3370 1236 N
152 0 V
0 178 V
-152 0 V
0 -178 V
Z stroke
3370 1684 M
152 0 V
3370 1054 M
152 0 V
stroke
4129 1197 152 228 80 -45 0 PatternFill
4205 1054 M
0 143 V
0 228 R
0 375 V
stroke
4129 1197 N
152 0 V
0 228 V
-152 0 V
0 -228 V
Z stroke
4129 1800 M
152 0 V
4129 1054 M
152 0 V
stroke
4887 1216 152 232 80 -45 0 PatternFill
4963 1054 M
0 162 V
0 232 R
0 243 V
stroke
4887 1216 N
152 0 V
0 232 V
-152 0 V
0 -232 V
Z stroke
4887 1691 M
152 0 V
4887 1054 M
152 0 V
stroke
5646 1216 152 226 80 -45 0 PatternFill
5722 1054 M
0 162 V
0 226 R
0 331 V
stroke
5646 1216 N
152 0 V
0 226 V
-152 0 V
0 -226 V
Z stroke
5646 1773 M
152 0 V
5646 1054 M
152 0 V
stroke
6405 1202 152 227 80 -45 0 PatternFill
6481 1053 M
0 149 V
0 227 R
0 379 V
stroke
6405 1202 N
152 0 V
0 227 V
-152 0 V
0 -227 V
Z stroke
6405 1808 M
152 0 V
6405 1053 M
152 0 V
stroke
7163 1222 152 199 80 -45 0 PatternFill
7239 1054 M
0 168 V
0 199 R
0 286 V
stroke
7163 1222 N
152 0 V
0 199 V
-152 0 V
0 -199 V
Z stroke
7163 1707 M
152 0 V
7163 1054 M
152 0 V
stroke
7922 1216 152 198 80 -45 0 PatternFill
7998 1053 M
0 163 V
0 198 R
0 352 V
stroke
7922 1216 N
152 0 V
0 198 V
-152 0 V
0 -198 V
Z stroke
7922 1766 M
152 0 V
7922 1053 M
152 0 V
stroke
8681 1240 152 167 80 -45 0 PatternFill
8757 1054 M
0 186 V
0 167 R
0 290 V
stroke
8681 1240 N
152 0 V
0 167 V
-152 0 V
0 -167 V
Z stroke
8681 1697 M
152 0 V
8681 1054 M
152 0 V
stroke
9439 1227 152 177 80 -45 0 PatternFill
9515 1054 M
0 173 V
0 177 R
0 302 V
stroke
9439 1227 N
152 0 V
0 177 V
-152 0 V
0 -177 V
Z stroke
9439 1706 M
152 0 V
9439 1054 M
152 0 V
stroke
10198 1189 152 255 80 -45 0 PatternFill
10274 1053 M
0 136 V
0 255 R
0 324 V
stroke
10198 1189 N
152 0 V
0 255 V
-152 0 V
0 -255 V
Z stroke
10198 1768 M
152 0 V
-152 -715 R
152 0 V
stroke
10957 1241 152 186 80 -45 0 PatternFill
11033 1054 M
0 187 V
0 186 R
0 290 V
stroke
10957 1241 N
152 0 V
0 186 V
-152 0 V
0 -186 V
Z stroke
10957 1717 M
152 0 V
-152 -663 R
152 0 V
stroke
11715 1233 152 195 80 -45 0 PatternFill
11791 1054 M
0 179 V
0 195 R
0 318 V
stroke
11715 1233 N
152 0 V
0 195 V
-152 0 V
0 -195 V
Z stroke
11715 1746 M
152 0 V
-152 -692 R
152 0 V
stroke
12474 1222 152 182 80 -45 0 PatternFill
12550 1054 M
0 168 V
0 182 R
0 356 V
stroke
12474 1222 N
152 0 V
0 182 V
-152 0 V
0 -182 V
Z stroke
12474 1760 M
152 0 V
-152 -706 R
152 0 V
% End plot #1
% Begin plot #2
stroke
LTb
LCb setrgbcolor

 /TransparentPatterns true def
1094 1317 152 0 40 30 0 PatternFill
1170 1317 M
stroke
1094 1317 N
152 0 V
-152 0 V
Z stroke
1094 1317 M
152 0 V
-152 0 R
152 0 V
stroke

 /TransparentPatterns true def
1852 1322 152 0 40 30 0 PatternFill
1928 1322 M
stroke
1852 1322 N
152 0 V
-152 0 V
Z stroke
1852 1322 M
152 0 V
-152 0 R
152 0 V
stroke

 /TransparentPatterns true def
2611 1325 152 0 40 30 0 PatternFill
2687 1325 M
stroke
2611 1325 N
152 0 V
-152 0 V
Z stroke
2611 1325 M
152 0 V
-152 0 R
152 0 V
stroke

 /TransparentPatterns true def
3370 1309 152 0 40 30 0 PatternFill
3446 1309 M
stroke
3370 1309 N
152 0 V
-152 0 V
Z stroke
3370 1309 M
152 0 V
-152 0 R
152 0 V
stroke

 /TransparentPatterns true def
4129 1320 152 0 40 30 0 PatternFill
4205 1320 M
stroke
4129 1320 N
152 0 V
-152 0 V
Z stroke
4129 1320 M
152 0 V
-152 0 R
152 0 V
stroke

 /TransparentPatterns true def
4887 1317 152 0 40 30 0 PatternFill
4963 1317 M
stroke
4887 1317 N
152 0 V
-152 0 V
Z stroke
4887 1317 M
152 0 V
-152 0 R
152 0 V
stroke

 /TransparentPatterns true def
5646 1324 152 0 40 30 0 PatternFill
5722 1324 M
stroke
5646 1324 N
152 0 V
-152 0 V
Z stroke
5646 1324 M
152 0 V
-152 0 R
152 0 V
stroke

 /TransparentPatterns true def
6405 1319 152 0 40 30 0 PatternFill
6481 1319 M
stroke
6405 1319 N
152 0 V
-152 0 V
Z stroke
6405 1319 M
152 0 V
-152 0 R
152 0 V
stroke

 /TransparentPatterns true def
7163 1308 152 0 40 30 0 PatternFill
7239 1308 M
stroke
7163 1308 N
152 0 V
-152 0 V
Z stroke
7163 1308 M
152 0 V
-152 0 R
152 0 V
stroke

 /TransparentPatterns true def
7922 1315 152 0 40 30 0 PatternFill
7998 1315 M
stroke
7922 1315 N
152 0 V
-152 0 V
Z stroke
7922 1315 M
152 0 V
-152 0 R
152 0 V
stroke

 /TransparentPatterns true def
8681 1314 152 0 40 30 0 PatternFill
8757 1314 M
stroke
8681 1314 N
152 0 V
-152 0 V
Z stroke
8681 1314 M
152 0 V
-152 0 R
152 0 V
stroke

 /TransparentPatterns true def
9439 1313 152 0 40 30 0 PatternFill
9515 1313 M
stroke
9439 1313 N
152 0 V
-152 0 V
Z stroke
9439 1313 M
152 0 V
-152 0 R
152 0 V
stroke

 /TransparentPatterns true def
10198 1316 152 0 40 30 0 PatternFill
10274 1316 M
stroke
10198 1316 N
152 0 V
-152 0 V
Z stroke
10198 1316 M
152 0 V
-152 0 R
152 0 V
stroke

 /TransparentPatterns true def
10957 1322 152 0 40 30 0 PatternFill
11033 1322 M
stroke
10957 1322 N
152 0 V
-152 0 V
Z stroke
10957 1322 M
152 0 V
-152 0 R
152 0 V
stroke

 /TransparentPatterns true def
11715 1330 152 0 40 30 0 PatternFill
11791 1330 M
stroke
11715 1330 N
152 0 V
-152 0 V
Z stroke
11715 1330 M
152 0 V
-152 0 R
152 0 V
stroke

 /TransparentPatterns true def
12474 1314 152 0 40 30 0 PatternFill
12550 1314 M
stroke
12474 1314 N
152 0 V
-152 0 V
Z stroke
12474 1314 M
152 0 V
-152 0 R
152 0 V
% End plot #2
% Begin plot #3
2.000 UP
stroke
LTa
0.60 0.60 0.00 C LCb setrgbcolor
4714 153 M
[ [(Arial) 180.0 0.0 true true 0 (avg. throughput :         )]
] -60.0 MRshow
2.000 UP
1.000 UL
LTa
0.60 0.60 0.00 C 4822 153 M
333 0 V
980 4166 M
190 25 V
758 -87 V
759 132 V
759 -159 V
758 97 V
759 -83 V
759 60 V
758 31 V
759 -78 V
759 47 V
759 -60 V
758 13 V
759 47 V
759 -34 V
758 23 V
759 1 V
569 8 V
1170 4191 Box
1928 4104 Box
2687 4236 Box
3446 4077 Box
4204 4174 Box
4963 4091 Box
5722 4151 Box
6480 4182 Box
7239 4104 Box
7998 4151 Box
8757 4091 Box
9515 4104 Box
10274 4151 Box
11033 4117 Box
11791 4140 Box
12550 4141 Box
4988 153 Box
% End plot #3
% Begin plot #4
1.000 UL
LTb
0.00 0.00 0.63 C LCb setrgbcolor
8287 333 M
[ [(Arial) 180.0 0.0 true true 0 (per-packet)]
] -60.0 MRshow
1.000 UL
LTb
0.00 0.00 0.63 C 8395 288 333 90 80 45 0 PatternFill
8395 288 N
333 0 V
0 90 V
-333 0 V
0 -90 V
Z stroke
1.000 UL
LTb
0.00 0.00 0.63 C 1283 1088 152 879 80 45 0 PatternFill
1359 1054 M
0 34 V
0 879 R
0 343 V
stroke
1283 1088 N
152 0 V
0 879 V
-152 0 V
0 -879 V
Z stroke
1283 2310 M
152 0 V
1283 1054 M
152 0 V
stroke
2042 1081 152 877 80 45 0 PatternFill
2118 1045 M
0 36 V
0 877 R
0 375 V
stroke
2042 1081 N
152 0 V
0 877 V
-152 0 V
0 -877 V
Z stroke
2042 2333 M
152 0 V
2042 1045 M
152 0 V
stroke
2801 1089 152 912 80 45 0 PatternFill
2877 1047 M
0 42 V
0 912 R
0 285 V
stroke
2801 1089 N
152 0 V
0 912 V
-152 0 V
0 -912 V
Z stroke
2801 2286 M
152 0 V
2801 1047 M
152 0 V
stroke
3560 1080 152 916 80 45 0 PatternFill
3636 1055 M
0 25 V
0 916 R
0 306 V
stroke
3560 1080 N
152 0 V
0 916 V
-152 0 V
0 -916 V
Z stroke
3560 2302 M
152 0 V
3560 1055 M
152 0 V
stroke
4318 1083 152 950 80 45 0 PatternFill
4394 1050 M
0 33 V
0 950 R
0 201 V
stroke
4318 1083 N
152 0 V
0 950 V
-152 0 V
0 -950 V
Z stroke
4318 2234 M
152 0 V
4318 1050 M
152 0 V
stroke
5077 1081 152 922 80 45 0 PatternFill
5153 1044 M
0 37 V
0 922 R
0 326 V
stroke
5077 1081 N
152 0 V
0 922 V
-152 0 V
0 -922 V
Z stroke
5077 2329 M
152 0 V
5077 1044 M
152 0 V
stroke
5836 1100 152 893 80 45 0 PatternFill
5912 1054 M
0 46 V
0 893 R
0 210 V
stroke
5836 1100 N
152 0 V
0 893 V
-152 0 V
0 -893 V
Z stroke
5836 2203 M
152 0 V
5836 1054 M
152 0 V
stroke
6594 1092 152 927 80 45 0 PatternFill
6670 1045 M
0 47 V
0 927 R
0 189 V
stroke
6594 1092 N
152 0 V
0 927 V
-152 0 V
0 -927 V
Z stroke
6594 2208 M
152 0 V
6594 1045 M
152 0 V
stroke
7353 1067 152 879 80 45 0 PatternFill
7429 1033 M
0 34 V
0 879 R
0 276 V
stroke
7353 1067 N
152 0 V
0 879 V
-152 0 V
0 -879 V
Z stroke
7353 2222 M
152 0 V
7353 1033 M
152 0 V
stroke
8112 1092 152 919 80 45 0 PatternFill
8188 1047 M
0 45 V
0 919 R
0 224 V
stroke
8112 1092 N
152 0 V
0 919 V
-152 0 V
0 -919 V
Z stroke
8112 2235 M
152 0 V
8112 1047 M
152 0 V
stroke
8870 1075 152 911 80 45 0 PatternFill
8946 1044 M
0 31 V
0 911 R
0 208 V
stroke
8870 1075 N
152 0 V
0 911 V
-152 0 V
0 -911 V
Z stroke
8870 2194 M
152 0 V
8870 1044 M
152 0 V
stroke
9629 1078 152 957 80 45 0 PatternFill
9705 1050 M
0 28 V
0 957 R
0 247 V
stroke
9629 1078 N
152 0 V
0 957 V
-152 0 V
0 -957 V
Z stroke
9629 2282 M
152 0 V
9629 1050 M
152 0 V
stroke
10388 1110 152 893 80 45 0 PatternFill
10464 1057 M
0 53 V
0 893 R
0 255 V
stroke
10388 1110 N
152 0 V
0 893 V
-152 0 V
0 -893 V
Z stroke
10388 2258 M
152 0 V
10388 1057 M
152 0 V
stroke
11146 1099 152 832 80 45 0 PatternFill
11222 1047 M
0 52 V
0 832 R
0 406 V
stroke
11146 1099 N
152 0 V
0 832 V
-152 0 V
0 -832 V
Z stroke
11146 2337 M
152 0 V
11146 1047 M
152 0 V
stroke
11905 1078 152 924 80 45 0 PatternFill
11981 1027 M
0 51 V
0 924 R
0 193 V
stroke
11905 1078 N
152 0 V
0 924 V
-152 0 V
0 -924 V
Z stroke
11905 2195 M
152 0 V
11905 1027 M
152 0 V
stroke
12664 1087 152 885 80 45 0 PatternFill
12740 1046 M
0 41 V
0 885 R
0 366 V
stroke
12664 1087 N
152 0 V
0 885 V
-152 0 V
0 -885 V
Z stroke
12664 2338 M
152 0 V
12664 1046 M
152 0 V
% End plot #4
% Begin plot #5
stroke
LTb
LCb setrgbcolor

 /TransparentPatterns true def
1283 1437 152 0 80 -45 0 PatternFill
1359 1437 M
stroke
1283 1437 N
152 0 V
-152 0 V
Z stroke
1283 1437 M
152 0 V
-152 0 R
152 0 V
stroke

 /TransparentPatterns true def
2042 1441 152 0 80 -45 0 PatternFill
2118 1441 M
stroke
2042 1441 N
152 0 V
-152 0 V
Z stroke
2042 1441 M
152 0 V
-152 0 R
152 0 V
stroke

 /TransparentPatterns true def
2801 1450 152 0 80 -45 0 PatternFill
2877 1450 M
stroke
2801 1450 N
152 0 V
-152 0 V
Z stroke
2801 1450 M
152 0 V
-152 0 R
152 0 V
stroke

 /TransparentPatterns true def
3560 1457 152 0 80 -45 0 PatternFill
3636 1457 M
stroke
3560 1457 N
152 0 V
-152 0 V
Z stroke
3560 1457 M
152 0 V
-152 0 R
152 0 V
stroke

 /TransparentPatterns true def
4318 1437 152 0 80 -45 0 PatternFill
4394 1437 M
stroke
4318 1437 N
152 0 V
-152 0 V
Z stroke
4318 1437 M
152 0 V
-152 0 R
152 0 V
stroke

 /TransparentPatterns true def
5077 1449 152 0 80 -45 0 PatternFill
5153 1449 M
stroke
5077 1449 N
152 0 V
-152 0 V
Z stroke
5077 1449 M
152 0 V
-152 0 R
152 0 V
stroke

 /TransparentPatterns true def
5836 1444 152 0 80 -45 0 PatternFill
5912 1444 M
stroke
5836 1444 N
152 0 V
-152 0 V
Z stroke
5836 1444 M
152 0 V
-152 0 R
152 0 V
stroke

 /TransparentPatterns true def
6594 1445 152 0 80 -45 0 PatternFill
6670 1445 M
stroke
6594 1445 N
152 0 V
-152 0 V
Z stroke
6594 1445 M
152 0 V
-152 0 R
152 0 V
stroke

 /TransparentPatterns true def
7353 1429 152 0 80 -45 0 PatternFill
7429 1429 M
stroke
7353 1429 N
152 0 V
-152 0 V
Z stroke
7353 1429 M
152 0 V
-152 0 R
152 0 V
stroke

 /TransparentPatterns true def
8112 1454 152 0 80 -45 0 PatternFill
8188 1454 M
stroke
8112 1454 N
152 0 V
-152 0 V
Z stroke
8112 1454 M
152 0 V
-152 0 R
152 0 V
stroke

 /TransparentPatterns true def
8870 1434 152 0 80 -45 0 PatternFill
8946 1434 M
stroke
8870 1434 N
152 0 V
-152 0 V
Z stroke
8870 1434 M
152 0 V
-152 0 R
152 0 V
stroke

 /TransparentPatterns true def
9629 1452 152 0 80 -45 0 PatternFill
9705 1452 M
stroke
9629 1452 N
152 0 V
-152 0 V
Z stroke
9629 1452 M
152 0 V
-152 0 R
152 0 V
stroke

 /TransparentPatterns true def
10388 1459 152 0 80 -45 0 PatternFill
10464 1459 M
stroke
10388 1459 N
152 0 V
-152 0 V
Z stroke
10388 1459 M
152 0 V
-152 0 R
152 0 V
stroke

 /TransparentPatterns true def
11146 1433 152 0 80 -45 0 PatternFill
11222 1433 M
stroke
11146 1433 N
152 0 V
-152 0 V
Z stroke
11146 1433 M
152 0 V
-152 0 R
152 0 V
stroke

 /TransparentPatterns true def
11905 1444 152 0 80 -45 0 PatternFill
11981 1444 M
stroke
11905 1444 N
152 0 V
-152 0 V
Z stroke
11905 1444 M
152 0 V
-152 0 R
152 0 V
stroke

 /TransparentPatterns true def
12664 1441 152 0 80 -45 0 PatternFill
12740 1441 M
stroke
12664 1441 N
152 0 V
-152 0 V
Z stroke
12664 1441 M
152 0 V
-152 0 R
152 0 V
% End plot #5
% Begin plot #6
2.000 UP
stroke
LTa
0.00 0.00 0.63 C LCb setrgbcolor
8287 153 M
[ [(Arial) 180.0 0.0 true true 0 ( )]
] -60.0 MRshow
2.000 UP
1.000 UL
LTa
0.00 0.00 0.63 C 8395 153 M
333 0 V
980 4757 M
379 0 V
759 31 V
759 -30 V
758 0 V
759 -3 V
759 3 V
758 -2 V
759 0 V
759 1 V
759 0 V
758 -2 V
759 2 V
759 0 V
758 2 V
759 -5 V
759 5 V
379 -2 V
1359 4757 Circle
2118 4788 Circle
2877 4758 Circle
3635 4758 Circle
4394 4755 Circle
5153 4758 Circle
5911 4756 Circle
6670 4756 Circle
7429 4757 Circle
8188 4757 Circle
8946 4755 Circle
9705 4757 Circle
10464 4757 Circle
11222 4759 Circle
11981 4754 Circle
12740 4759 Circle
8561 153 Circle
% End plot #6
% Begin plot #7
1.000 UL
LTb
0.00 0.38 0.82 C LCb setrgbcolor
11860 333 M
[ [(Arial) 180.0 0.0 true true 0 (per-flow)]
] -60.0 MRshow
1.000 UL
LTb
0.00 0.38 0.82 C 11968 288 333 90 40 30 0 PatternFill
11968 288 N
333 0 V
0 90 V
-333 0 V
0 -90 V
Z stroke
1.000 UL
LTb
0.00 0.38 0.82 C 1473 1086 152 156 40 30 0 PatternFill
1549 1056 M
0 30 V
0 156 R
0 397 V
stroke
1473 1086 N
152 0 V
0 156 V
-152 0 V
0 -156 V
Z stroke
1473 1639 M
152 0 V
1473 1056 M
152 0 V
stroke
2232 1075 152 207 40 30 0 PatternFill
2308 1047 M
0 28 V
0 207 R
0 227 V
stroke
2232 1075 N
152 0 V
0 207 V
-152 0 V
0 -207 V
Z stroke
2232 1509 M
152 0 V
2232 1047 M
152 0 V
stroke
2991 1086 152 173 40 30 0 PatternFill
3067 1053 M
0 33 V
0 173 R
0 251 V
stroke
2991 1086 N
152 0 V
0 173 V
-152 0 V
0 -173 V
Z stroke
2991 1510 M
152 0 V
2991 1053 M
152 0 V
stroke
3749 1085 152 134 40 30 0 PatternFill
3825 1052 M
0 33 V
0 134 R
0 345 V
stroke
3749 1085 N
152 0 V
0 134 V
-152 0 V
0 -134 V
Z stroke
3749 1564 M
152 0 V
3749 1052 M
152 0 V
stroke
4508 1088 152 147 40 30 0 PatternFill
4584 1053 M
0 35 V
0 147 R
0 285 V
stroke
4508 1088 N
152 0 V
0 147 V
-152 0 V
0 -147 V
Z stroke
4508 1520 M
152 0 V
4508 1053 M
152 0 V
stroke
5267 1079 152 192 40 30 0 PatternFill
5343 1045 M
0 34 V
0 192 R
0 322 V
stroke
5267 1079 N
152 0 V
0 192 V
-152 0 V
0 -192 V
Z stroke
5267 1593 M
152 0 V
5267 1045 M
152 0 V
stroke
6025 1088 152 146 40 30 0 PatternFill
6101 1052 M
0 36 V
0 146 R
0 476 V
stroke
6025 1088 N
152 0 V
0 146 V
-152 0 V
0 -146 V
Z stroke
6025 1710 M
152 0 V
6025 1052 M
152 0 V
stroke
6784 1089 152 142 40 30 0 PatternFill
6860 1052 M
0 37 V
0 142 R
0 491 V
stroke
6784 1089 N
152 0 V
0 142 V
-152 0 V
0 -142 V
Z stroke
6784 1722 M
152 0 V
6784 1052 M
152 0 V
stroke
7543 1096 152 152 40 30 0 PatternFill
7619 1049 M
0 47 V
0 152 R
0 400 V
stroke
7543 1096 N
152 0 V
0 152 V
-152 0 V
0 -152 V
Z stroke
7543 1648 M
152 0 V
7543 1049 M
152 0 V
stroke
8301 1091 152 137 40 30 0 PatternFill
8377 1051 M
0 40 V
0 137 R
0 370 V
stroke
8301 1091 N
152 0 V
0 137 V
-152 0 V
0 -137 V
Z stroke
8301 1598 M
152 0 V
8301 1051 M
152 0 V
stroke
9060 1104 152 198 40 30 0 PatternFill
9136 1051 M
0 53 V
0 198 R
0 466 V
stroke
9060 1104 N
152 0 V
0 198 V
-152 0 V
0 -198 V
Z stroke
9060 1768 M
152 0 V
9060 1051 M
152 0 V
stroke
9819 1079 152 163 40 30 0 PatternFill
9895 1056 M
0 23 V
0 163 R
0 373 V
stroke
9819 1079 N
152 0 V
0 163 V
-152 0 V
0 -163 V
Z stroke
9819 1615 M
152 0 V
9819 1056 M
152 0 V
stroke
10577 1083 152 160 40 30 0 PatternFill
10653 1045 M
0 38 V
0 160 R
0 229 V
stroke
10577 1083 N
152 0 V
0 160 V
-152 0 V
0 -160 V
Z stroke
10577 1472 M
152 0 V
-152 -427 R
152 0 V
stroke
11336 1090 152 170 40 30 0 PatternFill
11412 1056 M
0 34 V
0 170 R
0 224 V
stroke
11336 1090 N
152 0 V
0 170 V
-152 0 V
0 -170 V
Z stroke
11336 1484 M
152 0 V
-152 -428 R
152 0 V
stroke
12095 1081 152 150 40 30 0 PatternFill
12171 1049 M
0 32 V
0 150 R
0 373 V
stroke
12095 1081 N
152 0 V
0 150 V
-152 0 V
0 -150 V
Z stroke
12095 1604 M
152 0 V
-152 -555 R
152 0 V
stroke
12853 1096 152 155 40 30 0 PatternFill
12929 1049 M
0 47 V
0 155 R
0 429 V
stroke
12853 1096 N
152 0 V
0 155 V
-152 0 V
0 -155 V
Z stroke
12853 1680 M
152 0 V
-152 -631 R
152 0 V
% End plot #7
% Begin plot #8
stroke
LTb
LCb setrgbcolor

 /TransparentPatterns true def
1473 1164 152 0 40 -30 0 PatternFill
1549 1164 M
stroke
1473 1164 N
152 0 V
-152 0 V
Z stroke
1473 1164 M
152 0 V
-152 0 R
152 0 V
stroke

 /TransparentPatterns true def
2232 1181 152 0 40 -30 0 PatternFill
2308 1181 M
stroke
2232 1181 N
152 0 V
-152 0 V
Z stroke
2232 1181 M
152 0 V
-152 0 R
152 0 V
stroke

 /TransparentPatterns true def
2991 1173 152 0 40 -30 0 PatternFill
3067 1173 M
stroke
2991 1173 N
152 0 V
-152 0 V
Z stroke
2991 1173 M
152 0 V
-152 0 R
152 0 V
stroke

 /TransparentPatterns true def
3749 1157 152 0 40 -30 0 PatternFill
3825 1157 M
stroke
3749 1157 N
152 0 V
-152 0 V
Z stroke
3749 1157 M
152 0 V
-152 0 R
152 0 V
stroke

 /TransparentPatterns true def
4508 1168 152 0 40 -30 0 PatternFill
4584 1168 M
stroke
4508 1168 N
152 0 V
-152 0 V
Z stroke
4508 1168 M
152 0 V
-152 0 R
152 0 V
stroke

 /TransparentPatterns true def
5267 1179 152 0 40 -30 0 PatternFill
5343 1179 M
stroke
5267 1179 N
152 0 V
-152 0 V
Z stroke
5267 1179 M
152 0 V
-152 0 R
152 0 V
stroke

 /TransparentPatterns true def
6025 1172 152 0 40 -30 0 PatternFill
6101 1172 M
stroke
6025 1172 N
152 0 V
-152 0 V
Z stroke
6025 1172 M
152 0 V
-152 0 R
152 0 V
stroke

 /TransparentPatterns true def
6784 1181 152 0 40 -30 0 PatternFill
6860 1181 M
stroke
6784 1181 N
152 0 V
-152 0 V
Z stroke
6784 1181 M
152 0 V
-152 0 R
152 0 V
stroke

 /TransparentPatterns true def
7543 1172 152 0 40 -30 0 PatternFill
7619 1172 M
stroke
7543 1172 N
152 0 V
-152 0 V
Z stroke
7543 1172 M
152 0 V
-152 0 R
152 0 V
stroke

 /TransparentPatterns true def
8301 1165 152 0 40 -30 0 PatternFill
8377 1165 M
stroke
8301 1165 N
152 0 V
-152 0 V
Z stroke
8301 1165 M
152 0 V
-152 0 R
152 0 V
stroke

 /TransparentPatterns true def
9060 1209 152 0 40 -30 0 PatternFill
9136 1209 M
stroke
9060 1209 N
152 0 V
-152 0 V
Z stroke
9060 1209 M
152 0 V
-152 0 R
152 0 V
stroke

 /TransparentPatterns true def
9819 1173 152 0 40 -30 0 PatternFill
9895 1173 M
stroke
9819 1173 N
152 0 V
-152 0 V
Z stroke
9819 1173 M
152 0 V
-152 0 R
152 0 V
stroke

 /TransparentPatterns true def
10577 1161 152 0 40 -30 0 PatternFill
10653 1161 M
stroke
10577 1161 N
152 0 V
-152 0 V
Z stroke
10577 1161 M
152 0 V
-152 0 R
152 0 V
stroke

 /TransparentPatterns true def
11336 1172 152 0 40 -30 0 PatternFill
11412 1172 M
stroke
11336 1172 N
152 0 V
-152 0 V
Z stroke
11336 1172 M
152 0 V
-152 0 R
152 0 V
stroke

 /TransparentPatterns true def
12095 1169 152 0 40 -30 0 PatternFill
12171 1169 M
stroke
12095 1169 N
152 0 V
-152 0 V
Z stroke
12095 1169 M
152 0 V
-152 0 R
152 0 V
stroke

 /TransparentPatterns true def
12853 1181 152 0 40 -30 0 PatternFill
12929 1181 M
stroke
12853 1181 N
152 0 V
-152 0 V
Z stroke
12853 1181 M
152 0 V
-152 0 R
152 0 V
% End plot #8
% Begin plot #9
2.000 UP
stroke
LTa
0.00 0.38 0.82 C LCb setrgbcolor
11860 153 M
[ [(Arial) 180.0 0.0 true true 0 ( )]
] -60.0 MRshow
2.000 UP
1.000 UL
LTa
0.00 0.38 0.82 C 11968 153 M
333 0 V
980 4719 M
569 4 V
759 -15 V
758 -2 V
759 8 V
759 -6 V
758 10 V
759 10 V
759 2 V
759 -7 V
758 -4 V
759 14 V
759 -14 V
758 -16 V
759 -1 V
759 16 V
758 8 V
190 -3 V
1549 4723 TriU
2308 4708 TriU
3066 4706 TriU
3825 4714 TriU
4584 4708 TriU
5342 4718 TriU
6101 4728 TriU
6860 4730 TriU
7619 4723 TriU
8377 4719 TriU
9136 4733 TriU
9895 4719 TriU
10653 4703 TriU
11412 4702 TriU
12171 4718 TriU
12929 4726 TriU
12134 153 TriU
% End plot #9
2.000 UL
LTb
LCb setrgbcolor
1.000 UP
1.000 UL
LTb
0.00 0.00 0.00 C stroke
grestore
end
showpage
%%Trailer
%%DocumentFonts: Arial
