%!PS-Adobe-2.0 EPSF-2.0
%%Title: TcpWestwood-download-rtt-50UE-90-240.eps
%%Creator: gnuplot 5.0 patchlevel 3
%%CreationDate: Thu Jun  2 10:39:42 2016
%%DocumentFonts: (atend)
%%BoundingBox: 50 50 770 302
%%EndComments
%%BeginProlog
/gnudict 256 dict def
gnudict begin
%
% The following true/false flags may be edited by hand if desired.
% The unit line width and grayscale image gamma correction may also be changed.
%
/Color true def
/Blacktext false def
/Solid false def
/Dashlength 3 def
/Landscape false def
/Level1 false def
/Level3 false def
/Rounded false def
/ClipToBoundingBox false def
/SuppressPDFMark false def
/TransparentPatterns false def
/gnulinewidth 15.000 def
/userlinewidth gnulinewidth def
/Gamma 1.0 def
/BackgroundColor {-1.000 -1.000 -1.000} def
%
/vshift -66 def
/dl1 {
  10.0 Dashlength userlinewidth gnulinewidth div mul mul mul
  Rounded { currentlinewidth 0.75 mul sub dup 0 le { pop 0.01 } if } if
} def
/dl2 {
  10.0 Dashlength userlinewidth gnulinewidth div mul mul mul
  Rounded { currentlinewidth 0.75 mul add } if
} def
/hpt_ 31.5 def
/vpt_ 31.5 def
/hpt hpt_ def
/vpt vpt_ def
/doclip {
  ClipToBoundingBox {
    newpath 50 50 moveto 770 50 lineto 770 302 lineto 50 302 lineto closepath
    clip
  } if
} def
%
% Gnuplot Prolog Version 5.1 (Oct 2015)
%
%/SuppressPDFMark true def
%
/M {moveto} bind def
/L {lineto} bind def
/R {rmoveto} bind def
/V {rlineto} bind def
/N {newpath moveto} bind def
/Z {closepath} bind def
/C {setrgbcolor} bind def
/f {rlineto fill} bind def
/g {setgray} bind def
/Gshow {show} def   % May be redefined later in the file to support UTF-8
/vpt2 vpt 2 mul def
/hpt2 hpt 2 mul def
/Lshow {currentpoint stroke M 0 vshift R 
	Blacktext {gsave 0 setgray textshow grestore} {textshow} ifelse} def
/Rshow {currentpoint stroke M dup stringwidth pop neg vshift R
	Blacktext {gsave 0 setgray textshow grestore} {textshow} ifelse} def
/Cshow {currentpoint stroke M dup stringwidth pop -2 div vshift R 
	Blacktext {gsave 0 setgray textshow grestore} {textshow} ifelse} def
/UP {dup vpt_ mul /vpt exch def hpt_ mul /hpt exch def
  /hpt2 hpt 2 mul def /vpt2 vpt 2 mul def} def
/DL {Color {setrgbcolor Solid {pop []} if 0 setdash}
 {pop pop pop 0 setgray Solid {pop []} if 0 setdash} ifelse} def
/BL {stroke userlinewidth 2 mul setlinewidth
	Rounded {1 setlinejoin 1 setlinecap} if} def
/AL {stroke userlinewidth 2 div setlinewidth
	Rounded {1 setlinejoin 1 setlinecap} if} def
/UL {dup gnulinewidth mul /userlinewidth exch def
	dup 1 lt {pop 1} if 10 mul /udl exch def} def
/PL {stroke userlinewidth setlinewidth
	Rounded {1 setlinejoin 1 setlinecap} if} def
3.8 setmiterlimit
% Classic Line colors (version 5.0)
/LCw {1 1 1} def
/LCb {0 0 0} def
/LCa {0 0 0} def
/LC0 {1 0 0} def
/LC1 {0 1 0} def
/LC2 {0 0 1} def
/LC3 {1 0 1} def
/LC4 {0 1 1} def
/LC5 {1 1 0} def
/LC6 {0 0 0} def
/LC7 {1 0.3 0} def
/LC8 {0.5 0.5 0.5} def
% Default dash patterns (version 5.0)
/LTB {BL [] LCb DL} def
/LTw {PL [] 1 setgray} def
/LTb {PL [] LCb DL} def
/LTa {AL [1 udl mul 2 udl mul] 0 setdash LCa setrgbcolor} def
/LT0 {PL [] LC0 DL} def
/LT1 {PL [2 dl1 3 dl2] LC1 DL} def
/LT2 {PL [1 dl1 1.5 dl2] LC2 DL} def
/LT3 {PL [6 dl1 2 dl2 1 dl1 2 dl2] LC3 DL} def
/LT4 {PL [1 dl1 2 dl2 6 dl1 2 dl2 1 dl1 2 dl2] LC4 DL} def
/LT5 {PL [4 dl1 2 dl2] LC5 DL} def
/LT6 {PL [1.5 dl1 1.5 dl2 1.5 dl1 1.5 dl2 1.5 dl1 6 dl2] LC6 DL} def
/LT7 {PL [3 dl1 3 dl2 1 dl1 3 dl2] LC7 DL} def
/LT8 {PL [2 dl1 2 dl2 2 dl1 6 dl2] LC8 DL} def
/SL {[] 0 setdash} def
/Pnt {stroke [] 0 setdash gsave 1 setlinecap M 0 0 V stroke grestore} def
/Dia {stroke [] 0 setdash 2 copy vpt add M
  hpt neg vpt neg V hpt vpt neg V
  hpt vpt V hpt neg vpt V closepath stroke
  Pnt} def
/Pls {stroke [] 0 setdash vpt sub M 0 vpt2 V
  currentpoint stroke M
  hpt neg vpt neg R hpt2 0 V stroke
 } def
/Box {stroke [] 0 setdash 2 copy exch hpt sub exch vpt add M
  0 vpt2 neg V hpt2 0 V 0 vpt2 V
  hpt2 neg 0 V closepath stroke
  Pnt} def
/Crs {stroke [] 0 setdash exch hpt sub exch vpt add M
  hpt2 vpt2 neg V currentpoint stroke M
  hpt2 neg 0 R hpt2 vpt2 V stroke} def
/TriU {stroke [] 0 setdash 2 copy vpt 1.12 mul add M
  hpt neg vpt -1.62 mul V
  hpt 2 mul 0 V
  hpt neg vpt 1.62 mul V closepath stroke
  Pnt} def
/Star {2 copy Pls Crs} def
/BoxF {stroke [] 0 setdash exch hpt sub exch vpt add M
  0 vpt2 neg V hpt2 0 V 0 vpt2 V
  hpt2 neg 0 V closepath fill} def
/TriUF {stroke [] 0 setdash vpt 1.12 mul add M
  hpt neg vpt -1.62 mul V
  hpt 2 mul 0 V
  hpt neg vpt 1.62 mul V closepath fill} def
/TriD {stroke [] 0 setdash 2 copy vpt 1.12 mul sub M
  hpt neg vpt 1.62 mul V
  hpt 2 mul 0 V
  hpt neg vpt -1.62 mul V closepath stroke
  Pnt} def
/TriDF {stroke [] 0 setdash vpt 1.12 mul sub M
  hpt neg vpt 1.62 mul V
  hpt 2 mul 0 V
  hpt neg vpt -1.62 mul V closepath fill} def
/DiaF {stroke [] 0 setdash vpt add M
  hpt neg vpt neg V hpt vpt neg V
  hpt vpt V hpt neg vpt V closepath fill} def
/Pent {stroke [] 0 setdash 2 copy gsave
  translate 0 hpt M 4 {72 rotate 0 hpt L} repeat
  closepath stroke grestore Pnt} def
/PentF {stroke [] 0 setdash gsave
  translate 0 hpt M 4 {72 rotate 0 hpt L} repeat
  closepath fill grestore} def
/Circle {stroke [] 0 setdash 2 copy
  hpt 0 360 arc stroke Pnt} def
/CircleF {stroke [] 0 setdash hpt 0 360 arc fill} def
/C0 {BL [] 0 setdash 2 copy moveto vpt 90 450 arc} bind def
/C1 {BL [] 0 setdash 2 copy moveto
	2 copy vpt 0 90 arc closepath fill
	vpt 0 360 arc closepath} bind def
/C2 {BL [] 0 setdash 2 copy moveto
	2 copy vpt 90 180 arc closepath fill
	vpt 0 360 arc closepath} bind def
/C3 {BL [] 0 setdash 2 copy moveto
	2 copy vpt 0 180 arc closepath fill
	vpt 0 360 arc closepath} bind def
/C4 {BL [] 0 setdash 2 copy moveto
	2 copy vpt 180 270 arc closepath fill
	vpt 0 360 arc closepath} bind def
/C5 {BL [] 0 setdash 2 copy moveto
	2 copy vpt 0 90 arc
	2 copy moveto
	2 copy vpt 180 270 arc closepath fill
	vpt 0 360 arc} bind def
/C6 {BL [] 0 setdash 2 copy moveto
	2 copy vpt 90 270 arc closepath fill
	vpt 0 360 arc closepath} bind def
/C7 {BL [] 0 setdash 2 copy moveto
	2 copy vpt 0 270 arc closepath fill
	vpt 0 360 arc closepath} bind def
/C8 {BL [] 0 setdash 2 copy moveto
	2 copy vpt 270 360 arc closepath fill
	vpt 0 360 arc closepath} bind def
/C9 {BL [] 0 setdash 2 copy moveto
	2 copy vpt 270 450 arc closepath fill
	vpt 0 360 arc closepath} bind def
/C10 {BL [] 0 setdash 2 copy 2 copy moveto vpt 270 360 arc closepath fill
	2 copy moveto
	2 copy vpt 90 180 arc closepath fill
	vpt 0 360 arc closepath} bind def
/C11 {BL [] 0 setdash 2 copy moveto
	2 copy vpt 0 180 arc closepath fill
	2 copy moveto
	2 copy vpt 270 360 arc closepath fill
	vpt 0 360 arc closepath} bind def
/C12 {BL [] 0 setdash 2 copy moveto
	2 copy vpt 180 360 arc closepath fill
	vpt 0 360 arc closepath} bind def
/C13 {BL [] 0 setdash 2 copy moveto
	2 copy vpt 0 90 arc closepath fill
	2 copy moveto
	2 copy vpt 180 360 arc closepath fill
	vpt 0 360 arc closepath} bind def
/C14 {BL [] 0 setdash 2 copy moveto
	2 copy vpt 90 360 arc closepath fill
	vpt 0 360 arc} bind def
/C15 {BL [] 0 setdash 2 copy vpt 0 360 arc closepath fill
	vpt 0 360 arc closepath} bind def
/Rec {newpath 4 2 roll moveto 1 index 0 rlineto 0 exch rlineto
	neg 0 rlineto closepath} bind def
/Square {dup Rec} bind def
/Bsquare {vpt sub exch vpt sub exch vpt2 Square} bind def
/S0 {BL [] 0 setdash 2 copy moveto 0 vpt rlineto BL Bsquare} bind def
/S1 {BL [] 0 setdash 2 copy vpt Square fill Bsquare} bind def
/S2 {BL [] 0 setdash 2 copy exch vpt sub exch vpt Square fill Bsquare} bind def
/S3 {BL [] 0 setdash 2 copy exch vpt sub exch vpt2 vpt Rec fill Bsquare} bind def
/S4 {BL [] 0 setdash 2 copy exch vpt sub exch vpt sub vpt Square fill Bsquare} bind def
/S5 {BL [] 0 setdash 2 copy 2 copy vpt Square fill
	exch vpt sub exch vpt sub vpt Square fill Bsquare} bind def
/S6 {BL [] 0 setdash 2 copy exch vpt sub exch vpt sub vpt vpt2 Rec fill Bsquare} bind def
/S7 {BL [] 0 setdash 2 copy exch vpt sub exch vpt sub vpt vpt2 Rec fill
	2 copy vpt Square fill Bsquare} bind def
/S8 {BL [] 0 setdash 2 copy vpt sub vpt Square fill Bsquare} bind def
/S9 {BL [] 0 setdash 2 copy vpt sub vpt vpt2 Rec fill Bsquare} bind def
/S10 {BL [] 0 setdash 2 copy vpt sub vpt Square fill 2 copy exch vpt sub exch vpt Square fill
	Bsquare} bind def
/S11 {BL [] 0 setdash 2 copy vpt sub vpt Square fill 2 copy exch vpt sub exch vpt2 vpt Rec fill
	Bsquare} bind def
/S12 {BL [] 0 setdash 2 copy exch vpt sub exch vpt sub vpt2 vpt Rec fill Bsquare} bind def
/S13 {BL [] 0 setdash 2 copy exch vpt sub exch vpt sub vpt2 vpt Rec fill
	2 copy vpt Square fill Bsquare} bind def
/S14 {BL [] 0 setdash 2 copy exch vpt sub exch vpt sub vpt2 vpt Rec fill
	2 copy exch vpt sub exch vpt Square fill Bsquare} bind def
/S15 {BL [] 0 setdash 2 copy Bsquare fill Bsquare} bind def
/D0 {gsave translate 45 rotate 0 0 S0 stroke grestore} bind def
/D1 {gsave translate 45 rotate 0 0 S1 stroke grestore} bind def
/D2 {gsave translate 45 rotate 0 0 S2 stroke grestore} bind def
/D3 {gsave translate 45 rotate 0 0 S3 stroke grestore} bind def
/D4 {gsave translate 45 rotate 0 0 S4 stroke grestore} bind def
/D5 {gsave translate 45 rotate 0 0 S5 stroke grestore} bind def
/D6 {gsave translate 45 rotate 0 0 S6 stroke grestore} bind def
/D7 {gsave translate 45 rotate 0 0 S7 stroke grestore} bind def
/D8 {gsave translate 45 rotate 0 0 S8 stroke grestore} bind def
/D9 {gsave translate 45 rotate 0 0 S9 stroke grestore} bind def
/D10 {gsave translate 45 rotate 0 0 S10 stroke grestore} bind def
/D11 {gsave translate 45 rotate 0 0 S11 stroke grestore} bind def
/D12 {gsave translate 45 rotate 0 0 S12 stroke grestore} bind def
/D13 {gsave translate 45 rotate 0 0 S13 stroke grestore} bind def
/D14 {gsave translate 45 rotate 0 0 S14 stroke grestore} bind def
/D15 {gsave translate 45 rotate 0 0 S15 stroke grestore} bind def
/DiaE {stroke [] 0 setdash vpt add M
  hpt neg vpt neg V hpt vpt neg V
  hpt vpt V hpt neg vpt V closepath stroke} def
/BoxE {stroke [] 0 setdash exch hpt sub exch vpt add M
  0 vpt2 neg V hpt2 0 V 0 vpt2 V
  hpt2 neg 0 V closepath stroke} def
/TriUE {stroke [] 0 setdash vpt 1.12 mul add M
  hpt neg vpt -1.62 mul V
  hpt 2 mul 0 V
  hpt neg vpt 1.62 mul V closepath stroke} def
/TriDE {stroke [] 0 setdash vpt 1.12 mul sub M
  hpt neg vpt 1.62 mul V
  hpt 2 mul 0 V
  hpt neg vpt -1.62 mul V closepath stroke} def
/PentE {stroke [] 0 setdash gsave
  translate 0 hpt M 4 {72 rotate 0 hpt L} repeat
  closepath stroke grestore} def
/CircE {stroke [] 0 setdash 
  hpt 0 360 arc stroke} def
/Opaque {gsave closepath 1 setgray fill grestore 0 setgray closepath} def
/DiaW {stroke [] 0 setdash vpt add M
  hpt neg vpt neg V hpt vpt neg V
  hpt vpt V hpt neg vpt V Opaque stroke} def
/BoxW {stroke [] 0 setdash exch hpt sub exch vpt add M
  0 vpt2 neg V hpt2 0 V 0 vpt2 V
  hpt2 neg 0 V Opaque stroke} def
/TriUW {stroke [] 0 setdash vpt 1.12 mul add M
  hpt neg vpt -1.62 mul V
  hpt 2 mul 0 V
  hpt neg vpt 1.62 mul V Opaque stroke} def
/TriDW {stroke [] 0 setdash vpt 1.12 mul sub M
  hpt neg vpt 1.62 mul V
  hpt 2 mul 0 V
  hpt neg vpt -1.62 mul V Opaque stroke} def
/PentW {stroke [] 0 setdash gsave
  translate 0 hpt M 4 {72 rotate 0 hpt L} repeat
  Opaque stroke grestore} def
/CircW {stroke [] 0 setdash 
  hpt 0 360 arc Opaque stroke} def
/BoxFill {gsave Rec 1 setgray fill grestore} def
/Density {
  /Fillden exch def
  currentrgbcolor
  /ColB exch def /ColG exch def /ColR exch def
  /ColR ColR Fillden mul Fillden sub 1 add def
  /ColG ColG Fillden mul Fillden sub 1 add def
  /ColB ColB Fillden mul Fillden sub 1 add def
  ColR ColG ColB setrgbcolor} def
/BoxColFill {gsave Rec PolyFill} def
/PolyFill {gsave Density fill grestore grestore} def
/h {rlineto rlineto rlineto gsave closepath fill grestore} bind def
%
% PostScript Level 1 Pattern Fill routine for rectangles
% Usage: x y w h s a XX PatternFill
%	x,y = lower left corner of box to be filled
%	w,h = width and height of box
%	  a = angle in degrees between lines and x-axis
%	 XX = 0/1 for no/yes cross-hatch
%
/PatternFill {gsave /PFa [ 9 2 roll ] def
  PFa 0 get PFa 2 get 2 div add PFa 1 get PFa 3 get 2 div add translate
  PFa 2 get -2 div PFa 3 get -2 div PFa 2 get PFa 3 get Rec
  TransparentPatterns {} {gsave 1 setgray fill grestore} ifelse
  clip
  currentlinewidth 0.5 mul setlinewidth
  /PFs PFa 2 get dup mul PFa 3 get dup mul add sqrt def
  0 0 M PFa 5 get rotate PFs -2 div dup translate
  0 1 PFs PFa 4 get div 1 add floor cvi
	{PFa 4 get mul 0 M 0 PFs V} for
  0 PFa 6 get ne {
	0 1 PFs PFa 4 get div 1 add floor cvi
	{PFa 4 get mul 0 2 1 roll M PFs 0 V} for
 } if
  stroke grestore} def
%
/languagelevel where
 {pop languagelevel} {1} ifelse
dup 2 lt
	{/InterpretLevel1 true def
	 /InterpretLevel3 false def}
	{/InterpretLevel1 Level1 def
	 2 gt
	    {/InterpretLevel3 Level3 def}
	    {/InterpretLevel3 false def}
	 ifelse }
 ifelse
%
% PostScript level 2 pattern fill definitions
%
/Level2PatternFill {
/Tile8x8 {/PaintType 2 /PatternType 1 /TilingType 1 /BBox [0 0 8 8] /XStep 8 /YStep 8}
	bind def
/KeepColor {currentrgbcolor [/Pattern /DeviceRGB] setcolorspace} bind def
<< Tile8x8
 /PaintProc {0.5 setlinewidth pop 0 0 M 8 8 L 0 8 M 8 0 L stroke} 
>> matrix makepattern
/Pat1 exch def
<< Tile8x8
 /PaintProc {0.5 setlinewidth pop 0 0 M 8 8 L 0 8 M 8 0 L stroke
	0 4 M 4 8 L 8 4 L 4 0 L 0 4 L stroke}
>> matrix makepattern
/Pat2 exch def
<< Tile8x8
 /PaintProc {0.5 setlinewidth pop 0 0 M 0 8 L
	8 8 L 8 0 L 0 0 L fill}
>> matrix makepattern
/Pat3 exch def
<< Tile8x8
 /PaintProc {0.5 setlinewidth pop -4 8 M 8 -4 L
	0 12 M 12 0 L stroke}
>> matrix makepattern
/Pat4 exch def
<< Tile8x8
 /PaintProc {0.5 setlinewidth pop -4 0 M 8 12 L
	0 -4 M 12 8 L stroke}
>> matrix makepattern
/Pat5 exch def
<< Tile8x8
 /PaintProc {0.5 setlinewidth pop -2 8 M 4 -4 L
	0 12 M 8 -4 L 4 12 M 10 0 L stroke}
>> matrix makepattern
/Pat6 exch def
<< Tile8x8
 /PaintProc {0.5 setlinewidth pop -2 0 M 4 12 L
	0 -4 M 8 12 L 4 -4 M 10 8 L stroke}
>> matrix makepattern
/Pat7 exch def
<< Tile8x8
 /PaintProc {0.5 setlinewidth pop 8 -2 M -4 4 L
	12 0 M -4 8 L 12 4 M 0 10 L stroke}
>> matrix makepattern
/Pat8 exch def
<< Tile8x8
 /PaintProc {0.5 setlinewidth pop 0 -2 M 12 4 L
	-4 0 M 12 8 L -4 4 M 8 10 L stroke}
>> matrix makepattern
/Pat9 exch def
/Pattern1 {PatternBgnd KeepColor Pat1 setpattern} bind def
/Pattern2 {PatternBgnd KeepColor Pat2 setpattern} bind def
/Pattern3 {PatternBgnd KeepColor Pat3 setpattern} bind def
/Pattern4 {PatternBgnd KeepColor Landscape {Pat5} {Pat4} ifelse setpattern} bind def
/Pattern5 {PatternBgnd KeepColor Landscape {Pat4} {Pat5} ifelse setpattern} bind def
/Pattern6 {PatternBgnd KeepColor Landscape {Pat9} {Pat6} ifelse setpattern} bind def
/Pattern7 {PatternBgnd KeepColor Landscape {Pat8} {Pat7} ifelse setpattern} bind def
} def
%
%
%End of PostScript Level 2 code
%
/PatternBgnd {
  TransparentPatterns {} {gsave 1 setgray fill grestore} ifelse
} def
%
% Substitute for Level 2 pattern fill codes with
% grayscale if Level 2 support is not selected.
%
/Level1PatternFill {
/Pattern1 {0.250 Density} bind def
/Pattern2 {0.500 Density} bind def
/Pattern3 {0.750 Density} bind def
/Pattern4 {0.125 Density} bind def
/Pattern5 {0.375 Density} bind def
/Pattern6 {0.625 Density} bind def
/Pattern7 {0.875 Density} bind def
} def
%
% Now test for support of Level 2 code
%
Level1 {Level1PatternFill} {Level2PatternFill} ifelse
%
/Symbol-Oblique /Symbol findfont [1 0 .167 1 0 0] makefont
dup length dict begin {1 index /FID eq {pop pop} {def} ifelse} forall
currentdict end definefont pop
%
/MFshow {
   { dup 5 get 3 ge
     { 5 get 3 eq {gsave} {grestore} ifelse }
     {dup dup 0 get findfont exch 1 get scalefont setfont
     [ currentpoint ] exch dup 2 get 0 exch R dup 5 get 2 ne {dup dup 6
     get exch 4 get {textshow} {stringwidth pop 0 R} ifelse }if dup 5 get 0 eq
     {dup 3 get {2 get neg 0 exch R pop} {pop aload pop M} ifelse} {dup 5
     get 1 eq {dup 2 get exch dup 3 get exch 6 get stringwidth pop -2 div
     dup 0 R} {dup 6 get stringwidth pop -2 div 0 R 6 get
     textshow 2 index {aload pop M neg 3 -1 roll neg R pop pop} {pop pop pop
     pop aload pop M} ifelse }ifelse }ifelse }
     ifelse }
   forall} def
/Gswidth {dup type /stringtype eq {stringwidth} {pop (n) stringwidth} ifelse} def
/MFwidth {0 exch { dup 5 get 3 ge { 5 get 3 eq { 0 } { pop } ifelse }
 {dup 3 get{dup dup 0 get findfont exch 1 get scalefont setfont
     6 get Gswidth pop add} {pop} ifelse} ifelse} forall} def
/MLshow { currentpoint stroke M
  0 exch R
  Blacktext {gsave 0 setgray MFshow grestore} {MFshow} ifelse } bind def
/MRshow { currentpoint stroke M
  exch dup MFwidth neg 3 -1 roll R
  Blacktext {gsave 0 setgray MFshow grestore} {MFshow} ifelse } bind def
/MCshow { currentpoint stroke M
  exch dup MFwidth -2 div 3 -1 roll R
  Blacktext {gsave 0 setgray MFshow grestore} {MFshow} ifelse } bind def
/XYsave    { [( ) 1 2 true false 3 ()] } bind def
/XYrestore { [( ) 1 2 true false 4 ()] } bind def
Level1 SuppressPDFMark or 
{} {
/SDict 10 dict def
systemdict /pdfmark known not {
  userdict /pdfmark systemdict /cleartomark get put
} if
SDict begin [
  /Title (TcpWestwood-download-rtt-50UE-90-240.eps)
  /Subject (gnuplot plot)
  /Creator (gnuplot 5.0 patchlevel 3)
  /Author (nat)
%  /Producer (gnuplot)
%  /Keywords ()
  /CreationDate (Thu Jun  2 10:39:42 2016)
  /DOCINFO pdfmark
end
} ifelse
%
% Support for boxed text - Ethan A Merritt May 2005
%
/InitTextBox { userdict /TBy2 3 -1 roll put userdict /TBx2 3 -1 roll put
           userdict /TBy1 3 -1 roll put userdict /TBx1 3 -1 roll put
	   /Boxing true def } def
/ExtendTextBox { Boxing
    { gsave dup false charpath pathbbox
      dup TBy2 gt {userdict /TBy2 3 -1 roll put} {pop} ifelse
      dup TBx2 gt {userdict /TBx2 3 -1 roll put} {pop} ifelse
      dup TBy1 lt {userdict /TBy1 3 -1 roll put} {pop} ifelse
      dup TBx1 lt {userdict /TBx1 3 -1 roll put} {pop} ifelse
      grestore } if } def
/PopTextBox { newpath TBx1 TBxmargin sub TBy1 TBymargin sub M
               TBx1 TBxmargin sub TBy2 TBymargin add L
	       TBx2 TBxmargin add TBy2 TBymargin add L
	       TBx2 TBxmargin add TBy1 TBymargin sub L closepath } def
/DrawTextBox { PopTextBox stroke /Boxing false def} def
/FillTextBox { gsave PopTextBox 1 1 1 setrgbcolor fill grestore /Boxing false def} def
0 0 0 0 InitTextBox
/TBxmargin 20 def
/TBymargin 20 def
/Boxing false def
/textshow { ExtendTextBox Gshow } def
%
% redundant definitions for compatibility with prologue.ps older than 5.0.2
/LTB {BL [] LCb DL} def
/LTb {PL [] LCb DL} def
end
%%EndProlog
%%Page: 1 1
gnudict begin
gsave
doclip
50 50 translate
0.050 0.050 scale
0 setgray
newpath
(Arial) findfont 200 scalefont setfont
BackgroundColor 0 lt 3 1 roll 0 lt exch 0 lt or or not {BackgroundColor C 1.000 0 0 14400.00 5040.00 BoxColFill} if
1.000 UL
LTb
0.00 0.00 0.00 C 0.500 UL
LTa
0.50 0.50 0.50 C 980 1000 M
12139 0 V
stroke
1.000 UL
LTb
0.00 0.00 0.00 C 980 1000 M
63 0 V
stroke
860 1000 M
[ [(Arial) 200.0 0.0 true true 0 ( 40)]
] -66.7 MRshow
1.000 UL
LTb
0.00 0.00 0.00 C 0.500 UL
LTa
0.50 0.50 0.50 C 980 1345 M
12139 0 V
stroke
1.000 UL
LTb
0.00 0.00 0.00 C 980 1345 M
63 0 V
stroke
860 1345 M
[ [(Arial) 200.0 0.0 true true 0 ( 50)]
] -66.7 MRshow
1.000 UL
LTb
0.00 0.00 0.00 C 0.500 UL
LTa
0.50 0.50 0.50 C 980 1691 M
12139 0 V
stroke
1.000 UL
LTb
0.00 0.00 0.00 C 980 1691 M
63 0 V
stroke
860 1691 M
[ [(Arial) 200.0 0.0 true true 0 ( 60)]
] -66.7 MRshow
1.000 UL
LTb
0.00 0.00 0.00 C 0.500 UL
LTa
0.50 0.50 0.50 C 980 2036 M
12139 0 V
stroke
1.000 UL
LTb
0.00 0.00 0.00 C 980 2036 M
63 0 V
stroke
860 2036 M
[ [(Arial) 200.0 0.0 true true 0 ( 70)]
] -66.7 MRshow
1.000 UL
LTb
0.00 0.00 0.00 C 0.500 UL
LTa
0.50 0.50 0.50 C 980 2381 M
12139 0 V
stroke
1.000 UL
LTb
0.00 0.00 0.00 C 980 2381 M
63 0 V
stroke
860 2381 M
[ [(Arial) 200.0 0.0 true true 0 ( 80)]
] -66.7 MRshow
1.000 UL
LTb
0.00 0.00 0.00 C 0.500 UL
LTa
0.50 0.50 0.50 C 980 2727 M
12139 0 V
stroke
1.000 UL
LTb
0.00 0.00 0.00 C 980 2727 M
63 0 V
stroke
860 2727 M
[ [(Arial) 200.0 0.0 true true 0 ( 90)]
] -66.7 MRshow
1.000 UL
LTb
0.00 0.00 0.00 C 0.500 UL
LTa
0.50 0.50 0.50 C 980 3072 M
12139 0 V
stroke
1.000 UL
LTb
0.00 0.00 0.00 C 980 3072 M
63 0 V
stroke
860 3072 M
[ [(Arial) 200.0 0.0 true true 0 ( 100)]
] -66.7 MRshow
1.000 UL
LTb
0.00 0.00 0.00 C 0.500 UL
LTa
0.50 0.50 0.50 C 980 3418 M
12139 0 V
stroke
1.000 UL
LTb
0.00 0.00 0.00 C 980 3418 M
63 0 V
stroke
860 3418 M
[ [(Arial) 200.0 0.0 true true 0 ( 110)]
] -66.7 MRshow
1.000 UL
LTb
0.00 0.00 0.00 C 0.500 UL
LTa
0.50 0.50 0.50 C 980 3763 M
12139 0 V
stroke
1.000 UL
LTb
0.00 0.00 0.00 C 980 3763 M
63 0 V
stroke
860 3763 M
[ [(Arial) 200.0 0.0 true true 0 ( 120)]
] -66.7 MRshow
1.000 UL
LTb
0.00 0.00 0.00 C 0.500 UL
LTa
0.50 0.50 0.50 C 980 4108 M
12139 0 V
stroke
1.000 UL
LTb
0.00 0.00 0.00 C 980 4108 M
63 0 V
stroke
860 4108 M
[ [(Arial) 200.0 0.0 true true 0 ( 130)]
] -66.7 MRshow
1.000 UL
LTb
0.00 0.00 0.00 C 0.500 UL
LTa
0.50 0.50 0.50 C 980 4454 M
12139 0 V
stroke
1.000 UL
LTb
0.00 0.00 0.00 C 980 4454 M
63 0 V
stroke
860 4454 M
[ [(Arial) 200.0 0.0 true true 0 ( 140)]
] -66.7 MRshow
1.000 UL
LTb
0.00 0.00 0.00 C 0.500 UL
LTa
0.50 0.50 0.50 C 980 4799 M
12139 0 V
stroke
1.000 UL
LTb
0.00 0.00 0.00 C 980 4799 M
63 0 V
stroke
860 4799 M
[ [(Arial) 200.0 0.0 true true 0 ( 150)]
] -66.7 MRshow
1.000 UL
LTb
0.00 0.00 0.00 C 0.500 UL
LTa
0.50 0.50 0.50 C 1359 1000 M
0 3799 V
stroke
1.000 UL
LTb
0.00 0.00 0.00 C 1359 1000 M
0 63 V
0 3736 R
0 -63 V
stroke
1359 800 M
[ [(Arial) 200.0 0.0 true true 0 ( 270)]
] -66.7 MCshow
1.000 UL
LTb
0.00 0.00 0.00 C 0.500 UL
LTa
0.50 0.50 0.50 C 2118 1000 M
0 3799 V
stroke
1.000 UL
LTb
0.00 0.00 0.00 C 2118 1000 M
0 63 V
0 3736 R
0 -63 V
stroke
2118 800 M
[ [(Arial) 200.0 0.0 true true 0 ( 300)]
] -66.7 MCshow
1.000 UL
LTb
0.00 0.00 0.00 C 0.500 UL
LTa
0.50 0.50 0.50 C 2877 1000 M
0 3799 V
stroke
1.000 UL
LTb
0.00 0.00 0.00 C 2877 1000 M
0 63 V
0 3736 R
0 -63 V
stroke
2877 800 M
[ [(Arial) 200.0 0.0 true true 0 ( 330)]
] -66.7 MCshow
1.000 UL
LTb
0.00 0.00 0.00 C 0.500 UL
LTa
0.50 0.50 0.50 C 3635 1000 M
0 3799 V
stroke
1.000 UL
LTb
0.00 0.00 0.00 C 3635 1000 M
0 63 V
0 3736 R
0 -63 V
stroke
3635 800 M
[ [(Arial) 200.0 0.0 true true 0 ( 360)]
] -66.7 MCshow
1.000 UL
LTb
0.00 0.00 0.00 C 0.500 UL
LTa
0.50 0.50 0.50 C 4394 1000 M
0 3799 V
stroke
1.000 UL
LTb
0.00 0.00 0.00 C 4394 1000 M
0 63 V
0 3736 R
0 -63 V
stroke
4394 800 M
[ [(Arial) 200.0 0.0 true true 0 ( 390)]
] -66.7 MCshow
1.000 UL
LTb
0.00 0.00 0.00 C 0.500 UL
LTa
0.50 0.50 0.50 C 5153 1000 M
0 3799 V
stroke
1.000 UL
LTb
0.00 0.00 0.00 C 5153 1000 M
0 63 V
0 3736 R
0 -63 V
stroke
5153 800 M
[ [(Arial) 200.0 0.0 true true 0 ( 420)]
] -66.7 MCshow
1.000 UL
LTb
0.00 0.00 0.00 C 0.500 UL
LTa
0.50 0.50 0.50 C 5911 1000 M
0 3799 V
stroke
1.000 UL
LTb
0.00 0.00 0.00 C 5911 1000 M
0 63 V
0 3736 R
0 -63 V
stroke
5911 800 M
[ [(Arial) 200.0 0.0 true true 0 ( 450)]
] -66.7 MCshow
1.000 UL
LTb
0.00 0.00 0.00 C 0.500 UL
LTa
0.50 0.50 0.50 C 6670 1000 M
0 3799 V
stroke
1.000 UL
LTb
0.00 0.00 0.00 C 6670 1000 M
0 63 V
0 3736 R
0 -63 V
stroke
6670 800 M
[ [(Arial) 200.0 0.0 true true 0 ( 480)]
] -66.7 MCshow
1.000 UL
LTb
0.00 0.00 0.00 C 0.500 UL
LTa
0.50 0.50 0.50 C 7429 1000 M
0 3799 V
stroke
1.000 UL
LTb
0.00 0.00 0.00 C 7429 1000 M
0 63 V
0 3736 R
0 -63 V
stroke
7429 800 M
[ [(Arial) 200.0 0.0 true true 0 ( 510)]
] -66.7 MCshow
1.000 UL
LTb
0.00 0.00 0.00 C 0.500 UL
LTa
0.50 0.50 0.50 C 8188 1000 M
0 3799 V
stroke
1.000 UL
LTb
0.00 0.00 0.00 C 8188 1000 M
0 63 V
0 3736 R
0 -63 V
stroke
8188 800 M
[ [(Arial) 200.0 0.0 true true 0 ( 540)]
] -66.7 MCshow
1.000 UL
LTb
0.00 0.00 0.00 C 0.500 UL
LTa
0.50 0.50 0.50 C 8946 1000 M
0 3799 V
stroke
1.000 UL
LTb
0.00 0.00 0.00 C 8946 1000 M
0 63 V
0 3736 R
0 -63 V
stroke
8946 800 M
[ [(Arial) 200.0 0.0 true true 0 ( 570)]
] -66.7 MCshow
1.000 UL
LTb
0.00 0.00 0.00 C 0.500 UL
LTa
0.50 0.50 0.50 C 9705 1000 M
0 3799 V
stroke
1.000 UL
LTb
0.00 0.00 0.00 C 9705 1000 M
0 63 V
0 3736 R
0 -63 V
stroke
9705 800 M
[ [(Arial) 200.0 0.0 true true 0 ( 600)]
] -66.7 MCshow
1.000 UL
LTb
0.00 0.00 0.00 C 0.500 UL
LTa
0.50 0.50 0.50 C 10464 1000 M
0 3799 V
stroke
1.000 UL
LTb
0.00 0.00 0.00 C 10464 1000 M
0 63 V
0 3736 R
0 -63 V
stroke
10464 800 M
[ [(Arial) 200.0 0.0 true true 0 ( 630)]
] -66.7 MCshow
1.000 UL
LTb
0.00 0.00 0.00 C 0.500 UL
LTa
0.50 0.50 0.50 C 11222 1000 M
0 3799 V
stroke
1.000 UL
LTb
0.00 0.00 0.00 C 11222 1000 M
0 63 V
0 3736 R
0 -63 V
stroke
11222 800 M
[ [(Arial) 200.0 0.0 true true 0 ( 660)]
] -66.7 MCshow
1.000 UL
LTb
0.00 0.00 0.00 C 0.500 UL
LTa
0.50 0.50 0.50 C 11981 1000 M
0 3799 V
stroke
1.000 UL
LTb
0.00 0.00 0.00 C 11981 1000 M
0 63 V
0 3736 R
0 -63 V
stroke
11981 800 M
[ [(Arial) 200.0 0.0 true true 0 ( 690)]
] -66.7 MCshow
1.000 UL
LTb
0.00 0.00 0.00 C 0.500 UL
LTa
0.50 0.50 0.50 C 12740 1000 M
0 3799 V
stroke
1.000 UL
LTb
0.00 0.00 0.00 C 12740 1000 M
0 63 V
0 3736 R
0 -63 V
stroke
12740 800 M
[ [(Arial) 200.0 0.0 true true 0 ( 720)]
] -66.7 MCshow
1.000 UL
LTb
0.00 0.00 0.00 C 13119 1000 M
-63 0 V
stroke
13239 1000 M
[ [(Arial) 200.0 0.0 true true 0 ( 0)]
] -66.7 MLshow
1.000 UL
LTb
0.00 0.00 0.00 C 13119 1760 M
-63 0 V
stroke
13239 1760 M
[ [(Arial) 200.0 0.0 true true 0 ( 20)]
] -66.7 MLshow
1.000 UL
LTb
0.00 0.00 0.00 C 13119 2520 M
-63 0 V
stroke
13239 2520 M
[ [(Arial) 200.0 0.0 true true 0 ( 40)]
] -66.7 MLshow
1.000 UL
LTb
0.00 0.00 0.00 C 13119 3279 M
-63 0 V
stroke
13239 3279 M
[ [(Arial) 200.0 0.0 true true 0 ( 60)]
] -66.7 MLshow
1.000 UL
LTb
0.00 0.00 0.00 C 13119 4039 M
-63 0 V
stroke
13239 4039 M
[ [(Arial) 200.0 0.0 true true 0 ( 80)]
] -66.7 MLshow
1.000 UL
LTb
0.00 0.00 0.00 C 13119 4799 M
-63 0 V
stroke
13239 4799 M
[ [(Arial) 200.0 0.0 true true 0 ( 100)]
] -66.7 MLshow
1.000 UL
LTb
0.00 0.00 0.00 C 1.000 UL
LTB
0.00 0.00 0.00 C 980 4799 M
0 -3799 V
12139 0 V
0 3799 R
980 4799 M
1.000 UP
stroke
LTb
0.00 0.00 0.00 C LCb setrgbcolor
160 2899 M
currentpoint gsave translate -270 rotate 0 0 moveto
[ [(Arial) 200.0 0.0 true true 0 (RTT \(ms\))]
] -66.7 MCshow
grestore
LTb
LCb setrgbcolor
13938 2899 M
currentpoint gsave translate -270 rotate 0 0 moveto
[ [(Arial) 200.0 0.0 true true 0 (TCP delivery ratio [%])]
] -66.7 MCshow
grestore
LTb
LCb setrgbcolor
7049 500 M
[ [(Arial) 200.0 0.0 true true 0 (Local backhaul traffic traffic \(Mb/s\))]
] -66.7 MCshow
LTb
% Begin plot #1
1.000 UL
LTb
0.60 0.60 0.00 C LCb setrgbcolor
4714 333 M
[ [(Arial) 180.0 0.0 true true 0 (RTT      :   olsr)]
] -60.0 MRshow
1.000 UL
LTb
0.60 0.60 0.00 C 4822 288 333 90 80 -45 0 PatternFill
4822 288 N
333 0 V
0 90 V
-333 0 V
0 -90 V
Z stroke
1.000 UL
LTb
0.60 0.60 0.00 C 1094 1273 152 376 80 -45 0 PatternFill
1170 1215 M
0 58 V
0 376 R
0 1154 V
stroke
1094 1273 N
152 0 V
0 376 V
-152 0 V
0 -376 V
Z stroke
1094 2803 M
152 0 V
1094 1215 M
152 0 V
stroke
1852 1266 152 382 80 -45 0 PatternFill
1928 1212 M
0 54 V
0 382 R
0 1098 V
stroke
1852 1266 N
152 0 V
0 382 V
-152 0 V
0 -382 V
Z stroke
1852 2746 M
152 0 V
1852 1212 M
152 0 V
stroke
2611 1267 152 358 80 -45 0 PatternFill
2687 1210 M
0 57 V
0 358 R
0 1105 V
stroke
2611 1267 N
152 0 V
0 358 V
-152 0 V
0 -358 V
Z stroke
2611 2730 M
152 0 V
2611 1210 M
152 0 V
stroke
3370 1271 152 373 80 -45 0 PatternFill
3446 1215 M
0 56 V
0 373 R
0 1189 V
stroke
3370 1271 N
152 0 V
0 373 V
-152 0 V
0 -373 V
Z stroke
3370 2833 M
152 0 V
3370 1215 M
152 0 V
stroke
4129 1265 152 366 80 -45 0 PatternFill
4205 1213 M
0 52 V
0 366 R
0 1115 V
stroke
4129 1265 N
152 0 V
0 366 V
-152 0 V
0 -366 V
Z stroke
4129 2746 M
152 0 V
4129 1213 M
152 0 V
stroke
4887 1271 152 379 80 -45 0 PatternFill
4963 1214 M
0 57 V
0 379 R
0 1052 V
stroke
4887 1271 N
152 0 V
0 379 V
-152 0 V
0 -379 V
Z stroke
4887 2702 M
152 0 V
4887 1214 M
152 0 V
stroke
5646 1273 152 366 80 -45 0 PatternFill
5722 1217 M
0 56 V
0 366 R
0 1185 V
stroke
5646 1273 N
152 0 V
0 366 V
-152 0 V
0 -366 V
Z stroke
5646 2824 M
152 0 V
5646 1217 M
152 0 V
stroke
6405 1285 152 432 80 -45 0 PatternFill
6481 1224 M
0 61 V
0 432 R
0 1200 V
stroke
6405 1285 N
152 0 V
0 432 V
-152 0 V
0 -432 V
Z stroke
6405 2917 M
152 0 V
6405 1224 M
152 0 V
stroke
7163 1260 152 315 80 -45 0 PatternFill
7239 1209 M
0 51 V
0 315 R
0 978 V
stroke
7163 1260 N
152 0 V
0 315 V
-152 0 V
0 -315 V
Z stroke
7163 2553 M
152 0 V
7163 1209 M
152 0 V
stroke
7922 1282 152 369 80 -45 0 PatternFill
7998 1218 M
0 64 V
0 369 R
0 1154 V
stroke
7922 1282 N
152 0 V
0 369 V
-152 0 V
0 -369 V
Z stroke
7922 2805 M
152 0 V
7922 1218 M
152 0 V
stroke
8681 1271 152 371 80 -45 0 PatternFill
8757 1214 M
0 57 V
0 371 R
0 1156 V
stroke
8681 1271 N
152 0 V
0 371 V
-152 0 V
0 -371 V
Z stroke
8681 2798 M
152 0 V
8681 1214 M
152 0 V
stroke
9439 1265 152 356 80 -45 0 PatternFill
9515 1210 M
0 55 V
0 356 R
0 1131 V
stroke
9439 1265 N
152 0 V
0 356 V
-152 0 V
0 -356 V
Z stroke
9439 2752 M
152 0 V
9439 1210 M
152 0 V
stroke
10198 1277 152 390 80 -45 0 PatternFill
10274 1222 M
0 55 V
0 390 R
0 1091 V
stroke
10198 1277 N
152 0 V
0 390 V
-152 0 V
0 -390 V
Z stroke
10198 2758 M
152 0 V
10198 1222 M
152 0 V
stroke
10957 1268 152 333 80 -45 0 PatternFill
11033 1211 M
0 57 V
0 333 R
0 1206 V
stroke
10957 1268 N
152 0 V
0 333 V
-152 0 V
0 -333 V
Z stroke
10957 2807 M
152 0 V
10957 1211 M
152 0 V
stroke
11715 1270 152 373 80 -45 0 PatternFill
11791 1209 M
0 61 V
0 373 R
0 1126 V
stroke
11715 1270 N
152 0 V
0 373 V
-152 0 V
0 -373 V
Z stroke
11715 2769 M
152 0 V
11715 1209 M
152 0 V
stroke
12474 1278 152 391 80 -45 0 PatternFill
12550 1214 M
0 64 V
0 391 R
0 1173 V
stroke
12474 1278 N
152 0 V
0 391 V
-152 0 V
0 -391 V
Z stroke
12474 2842 M
152 0 V
12474 1214 M
152 0 V
% End plot #1
% Begin plot #2
stroke
LTb
LCb setrgbcolor

 /TransparentPatterns true def
1094 1582 152 0 40 30 0 PatternFill
1170 1582 M
stroke
1094 1582 N
152 0 V
-152 0 V
Z stroke
1094 1582 M
152 0 V
-152 0 R
152 0 V
stroke

 /TransparentPatterns true def
1852 1574 152 0 40 30 0 PatternFill
1928 1574 M
stroke
1852 1574 N
152 0 V
-152 0 V
Z stroke
1852 1574 M
152 0 V
-152 0 R
152 0 V
stroke

 /TransparentPatterns true def
2611 1563 152 0 40 30 0 PatternFill
2687 1563 M
stroke
2611 1563 N
152 0 V
-152 0 V
Z stroke
2611 1563 M
152 0 V
-152 0 R
152 0 V
stroke

 /TransparentPatterns true def
3370 1593 152 0 40 30 0 PatternFill
3446 1593 M
stroke
3370 1593 N
152 0 V
-152 0 V
Z stroke
3370 1593 M
152 0 V
-152 0 R
152 0 V
stroke

 /TransparentPatterns true def
4129 1571 152 0 40 30 0 PatternFill
4205 1571 M
stroke
4129 1571 N
152 0 V
-152 0 V
Z stroke
4129 1571 M
152 0 V
-152 0 R
152 0 V
stroke

 /TransparentPatterns true def
4887 1572 152 0 40 30 0 PatternFill
4963 1572 M
stroke
4887 1572 N
152 0 V
-152 0 V
Z stroke
4887 1572 M
152 0 V
-152 0 R
152 0 V
stroke

 /TransparentPatterns true def
5646 1586 152 0 40 30 0 PatternFill
5722 1586 M
stroke
5646 1586 N
152 0 V
-152 0 V
Z stroke
5646 1586 M
152 0 V
-152 0 R
152 0 V
stroke

 /TransparentPatterns true def
6405 1621 152 0 40 30 0 PatternFill
6481 1621 M
stroke
6405 1621 N
152 0 V
-152 0 V
Z stroke
6405 1621 M
152 0 V
-152 0 R
152 0 V
stroke

 /TransparentPatterns true def
7163 1536 152 0 40 30 0 PatternFill
7239 1536 M
stroke
7163 1536 N
152 0 V
-152 0 V
Z stroke
7163 1536 M
152 0 V
-152 0 R
152 0 V
stroke

 /TransparentPatterns true def
7922 1590 152 0 40 30 0 PatternFill
7998 1590 M
stroke
7922 1590 N
152 0 V
-152 0 V
Z stroke
7922 1590 M
152 0 V
-152 0 R
152 0 V
stroke

 /TransparentPatterns true def
8681 1582 152 0 40 30 0 PatternFill
8757 1582 M
stroke
8681 1582 N
152 0 V
-152 0 V
Z stroke
8681 1582 M
152 0 V
-152 0 R
152 0 V
stroke

 /TransparentPatterns true def
9439 1559 152 0 40 30 0 PatternFill
9515 1559 M
stroke
9439 1559 N
152 0 V
-152 0 V
Z stroke
9439 1559 M
152 0 V
-152 0 R
152 0 V
stroke

 /TransparentPatterns true def
10198 1585 152 0 40 30 0 PatternFill
10274 1585 M
stroke
10198 1585 N
152 0 V
-152 0 V
Z stroke
10198 1585 M
152 0 V
-152 0 R
152 0 V
stroke

 /TransparentPatterns true def
10957 1569 152 0 40 30 0 PatternFill
11033 1569 M
stroke
10957 1569 N
152 0 V
-152 0 V
Z stroke
10957 1569 M
152 0 V
-152 0 R
152 0 V
stroke

 /TransparentPatterns true def
11715 1575 152 0 40 30 0 PatternFill
11791 1575 M
stroke
11715 1575 N
152 0 V
-152 0 V
Z stroke
11715 1575 M
152 0 V
-152 0 R
152 0 V
stroke

 /TransparentPatterns true def
12474 1598 152 0 40 30 0 PatternFill
12550 1598 M
stroke
12474 1598 N
152 0 V
-152 0 V
Z stroke
12474 1598 M
152 0 V
-152 0 R
152 0 V
% End plot #2
% Begin plot #3
2.000 UP
stroke
LTa
0.60 0.60 0.00 C LCb setrgbcolor
4714 153 M
[ [(Arial) 180.0 0.0 true true 0 (app. received bytes :         )]
] -60.0 MRshow
2.000 UP
1.000 UL
LTa
0.60 0.60 0.00 C 4822 153 M
333 0 V
980 4799 M
190 0 V
758 0 V
759 0 V
759 0 V
758 0 V
759 0 V
759 0 V
758 0 V
759 0 V
759 0 V
759 0 V
758 0 V
759 0 V
759 0 V
758 0 V
759 0 V
569 0 V
1170 4799 Box
1928 4799 Box
2687 4799 Box
3446 4799 Box
4204 4799 Box
4963 4799 Box
5722 4799 Box
6480 4799 Box
7239 4799 Box
7998 4799 Box
8757 4799 Box
9515 4799 Box
10274 4799 Box
11033 4799 Box
11791 4799 Box
12550 4799 Box
4988 153 Box
% End plot #3
% Begin plot #4
1.000 UL
LTb
0.00 0.00 0.63 C LCb setrgbcolor
8287 333 M
[ [(Arial) 180.0 0.0 true true 0 (per-packet)]
] -60.0 MRshow
1.000 UL
LTb
0.00 0.00 0.63 C 8395 288 333 90 80 45 0 PatternFill
8395 288 N
333 0 V
0 90 V
-333 0 V
0 -90 V
Z stroke
1.000 UL
LTb
0.00 0.00 0.63 C 1283 1286 152 420 80 45 0 PatternFill
1359 1220 M
0 66 V
0 420 R
0 1245 V
stroke
1283 1286 N
152 0 V
0 420 V
-152 0 V
0 -420 V
Z stroke
1283 2951 M
152 0 V
1283 1220 M
152 0 V
stroke
2042 1294 152 442 80 45 0 PatternFill
2118 1224 M
0 70 V
0 442 R
0 1223 V
stroke
2042 1294 N
152 0 V
0 442 V
-152 0 V
0 -442 V
Z stroke
2042 2959 M
152 0 V
2042 1224 M
152 0 V
stroke
2801 1291 152 510 80 45 0 PatternFill
2877 1225 M
0 66 V
0 510 R
0 1305 V
stroke
2801 1291 N
152 0 V
0 510 V
-152 0 V
0 -510 V
Z stroke
2801 3106 M
152 0 V
2801 1225 M
152 0 V
stroke
3560 1290 152 501 80 45 0 PatternFill
3636 1222 M
0 68 V
0 501 R
0 1254 V
stroke
3560 1290 N
152 0 V
0 501 V
-152 0 V
0 -501 V
Z stroke
3560 3045 M
152 0 V
3560 1222 M
152 0 V
stroke
4318 1290 152 515 80 45 0 PatternFill
4394 1223 M
0 67 V
0 515 R
0 1261 V
stroke
4318 1290 N
152 0 V
0 515 V
-152 0 V
0 -515 V
Z stroke
4318 3066 M
152 0 V
4318 1223 M
152 0 V
stroke
5077 1287 152 453 80 45 0 PatternFill
5153 1222 M
0 65 V
0 453 R
0 1324 V
stroke
5077 1287 N
152 0 V
0 453 V
-152 0 V
0 -453 V
Z stroke
5077 3064 M
152 0 V
5077 1222 M
152 0 V
stroke
5836 1298 152 552 80 45 0 PatternFill
5912 1226 M
0 72 V
0 552 R
0 1367 V
stroke
5836 1298 N
152 0 V
0 552 V
-152 0 V
0 -552 V
Z stroke
5836 3217 M
152 0 V
5836 1226 M
152 0 V
stroke
6594 1291 152 437 80 45 0 PatternFill
6670 1225 M
0 66 V
0 437 R
0 1211 V
stroke
6594 1291 N
152 0 V
0 437 V
-152 0 V
0 -437 V
Z stroke
6594 2939 M
152 0 V
6594 1225 M
152 0 V
stroke
7353 1291 152 510 80 45 0 PatternFill
7429 1224 M
0 67 V
0 510 R
0 1220 V
stroke
7353 1291 N
152 0 V
0 510 V
-152 0 V
0 -510 V
Z stroke
7353 3021 M
152 0 V
7353 1224 M
152 0 V
stroke
8112 1294 152 521 80 45 0 PatternFill
8188 1226 M
0 68 V
0 521 R
0 1209 V
stroke
8112 1294 N
152 0 V
0 521 V
-152 0 V
0 -521 V
Z stroke
8112 3024 M
152 0 V
8112 1226 M
152 0 V
stroke
8870 1290 152 422 80 45 0 PatternFill
8946 1225 M
0 65 V
0 422 R
0 1198 V
stroke
8870 1290 N
152 0 V
0 422 V
-152 0 V
0 -422 V
Z stroke
8870 2910 M
152 0 V
8870 1225 M
152 0 V
stroke
9629 1289 152 419 80 45 0 PatternFill
9705 1223 M
0 66 V
0 419 R
0 1213 V
stroke
9629 1289 N
152 0 V
0 419 V
-152 0 V
0 -419 V
Z stroke
9629 2921 M
152 0 V
9629 1223 M
152 0 V
stroke
10388 1286 152 507 80 45 0 PatternFill
10464 1223 M
0 63 V
0 507 R
0 1240 V
stroke
10388 1286 N
152 0 V
0 507 V
-152 0 V
0 -507 V
Z stroke
10388 3033 M
152 0 V
10388 1223 M
152 0 V
stroke
11146 1291 152 479 80 45 0 PatternFill
11222 1222 M
0 69 V
0 479 R
0 1183 V
stroke
11146 1291 N
152 0 V
0 479 V
-152 0 V
0 -479 V
Z stroke
11146 2953 M
152 0 V
11146 1222 M
152 0 V
stroke
11905 1286 152 525 80 45 0 PatternFill
11981 1222 M
0 64 V
0 525 R
0 1470 V
stroke
11905 1286 N
152 0 V
0 525 V
-152 0 V
0 -525 V
Z stroke
11905 3281 M
152 0 V
11905 1222 M
152 0 V
stroke
12664 1289 152 466 80 45 0 PatternFill
12740 1223 M
0 66 V
0 466 R
0 1253 V
stroke
12664 1289 N
152 0 V
0 466 V
-152 0 V
0 -466 V
Z stroke
12664 3008 M
152 0 V
12664 1223 M
152 0 V
% End plot #4
% Begin plot #5
stroke
LTb
LCb setrgbcolor

 /TransparentPatterns true def
1283 1617 152 0 80 -45 0 PatternFill
1359 1617 M
stroke
1283 1617 N
152 0 V
-152 0 V
Z stroke
1283 1617 M
152 0 V
-152 0 R
152 0 V
stroke

 /TransparentPatterns true def
2042 1619 152 0 80 -45 0 PatternFill
2118 1619 M
stroke
2042 1619 N
152 0 V
-152 0 V
Z stroke
2042 1619 M
152 0 V
-152 0 R
152 0 V
stroke

 /TransparentPatterns true def
2801 1636 152 0 80 -45 0 PatternFill
2877 1636 M
stroke
2801 1636 N
152 0 V
-152 0 V
Z stroke
2801 1636 M
152 0 V
-152 0 R
152 0 V
stroke

 /TransparentPatterns true def
3560 1638 152 0 80 -45 0 PatternFill
3636 1638 M
stroke
3560 1638 N
152 0 V
-152 0 V
Z stroke
3560 1638 M
152 0 V
-152 0 R
152 0 V
stroke

 /TransparentPatterns true def
4318 1647 152 0 80 -45 0 PatternFill
4394 1647 M
stroke
4318 1647 N
152 0 V
-152 0 V
Z stroke
4318 1647 M
152 0 V
-152 0 R
152 0 V
stroke

 /TransparentPatterns true def
5077 1632 152 0 80 -45 0 PatternFill
5153 1632 M
stroke
5077 1632 N
152 0 V
-152 0 V
Z stroke
5077 1632 M
152 0 V
-152 0 R
152 0 V
stroke

 /TransparentPatterns true def
5836 1676 152 0 80 -45 0 PatternFill
5912 1676 M
stroke
5836 1676 N
152 0 V
-152 0 V
Z stroke
5836 1676 M
152 0 V
-152 0 R
152 0 V
stroke

 /TransparentPatterns true def
6594 1611 152 0 80 -45 0 PatternFill
6670 1611 M
stroke
6594 1611 N
152 0 V
-152 0 V
Z stroke
6594 1611 M
152 0 V
-152 0 R
152 0 V
stroke

 /TransparentPatterns true def
7353 1639 152 0 80 -45 0 PatternFill
7429 1639 M
stroke
7353 1639 N
152 0 V
-152 0 V
Z stroke
7353 1639 M
152 0 V
-152 0 R
152 0 V
stroke

 /TransparentPatterns true def
8112 1647 152 0 80 -45 0 PatternFill
8188 1647 M
stroke
8112 1647 N
152 0 V
-152 0 V
Z stroke
8112 1647 M
152 0 V
-152 0 R
152 0 V
stroke

 /TransparentPatterns true def
8870 1611 152 0 80 -45 0 PatternFill
8946 1611 M
stroke
8870 1611 N
152 0 V
-152 0 V
Z stroke
8870 1611 M
152 0 V
-152 0 R
152 0 V
stroke

 /TransparentPatterns true def
9629 1616 152 0 80 -45 0 PatternFill
9705 1616 M
stroke
9629 1616 N
152 0 V
-152 0 V
Z stroke
9629 1616 M
152 0 V
-152 0 R
152 0 V
stroke

 /TransparentPatterns true def
10388 1645 152 0 80 -45 0 PatternFill
10464 1645 M
stroke
10388 1645 N
152 0 V
-152 0 V
Z stroke
10388 1645 M
152 0 V
-152 0 R
152 0 V
stroke

 /TransparentPatterns true def
11146 1633 152 0 80 -45 0 PatternFill
11222 1633 M
stroke
11146 1633 N
152 0 V
-152 0 V
Z stroke
11146 1633 M
152 0 V
-152 0 R
152 0 V
stroke

 /TransparentPatterns true def
11905 1663 152 0 80 -45 0 PatternFill
11981 1663 M
stroke
11905 1663 N
152 0 V
-152 0 V
Z stroke
11905 1663 M
152 0 V
-152 0 R
152 0 V
stroke

 /TransparentPatterns true def
12664 1623 152 0 80 -45 0 PatternFill
12740 1623 M
stroke
12664 1623 N
152 0 V
-152 0 V
Z stroke
12664 1623 M
152 0 V
-152 0 R
152 0 V
% End plot #5
% Begin plot #6
2.000 UP
stroke
LTa
0.00 0.00 0.63 C LCb setrgbcolor
8287 153 M
[ [(Arial) 180.0 0.0 true true 0 ( )]
] -60.0 MRshow
2.000 UP
1.000 UL
LTa
0.00 0.00 0.63 C 8395 153 M
333 0 V
980 4797 M
379 2 V
759 0 V
759 0 V
758 -4 V
759 4 V
759 0 V
758 0 V
759 -8 V
759 8 V
759 0 V
758 0 V
759 -4 V
759 4 V
758 0 V
759 0 V
759 0 V
379 0 V
1359 4799 Circle
2118 4799 Circle
2877 4799 Circle
3635 4795 Circle
4394 4799 Circle
5153 4799 Circle
5911 4799 Circle
6670 4791 Circle
7429 4799 Circle
8188 4799 Circle
8946 4799 Circle
9705 4795 Circle
10464 4799 Circle
11222 4799 Circle
11981 4799 Circle
12740 4799 Circle
8561 153 Circle
% End plot #6
% Begin plot #7
1.000 UL
LTb
0.00 0.38 0.82 C LCb setrgbcolor
11860 333 M
[ [(Arial) 180.0 0.0 true true 0 (per-flow)]
] -60.0 MRshow
1.000 UL
LTb
0.00 0.38 0.82 C 11968 288 333 90 40 30 0 PatternFill
11968 288 N
333 0 V
0 90 V
-333 0 V
0 -90 V
Z stroke
1.000 UL
LTb
0.00 0.38 0.82 C 1473 1287 152 763 40 30 0 PatternFill
1549 1222 M
0 65 V
0 763 R
0 2472 V
stroke
1473 1287 N
152 0 V
0 763 V
-152 0 V
0 -763 V
Z stroke
1473 4522 M
152 0 V
1473 1222 M
152 0 V
stroke
2232 1277 152 595 40 30 0 PatternFill
2308 1213 M
0 64 V
0 595 R
0 2187 V
stroke
2232 1277 N
152 0 V
0 595 V
-152 0 V
0 -595 V
Z stroke
2232 4059 M
152 0 V
2232 1213 M
152 0 V
stroke
2991 1285 152 640 40 30 0 PatternFill
3067 1216 M
0 69 V
0 640 R
0 2185 V
stroke
2991 1285 N
152 0 V
0 640 V
-152 0 V
0 -640 V
Z stroke
2991 4110 M
152 0 V
2991 1216 M
152 0 V
stroke
3749 1281 152 664 40 30 0 PatternFill
3825 1214 M
0 67 V
0 664 R
0 2302 V
stroke
3749 1281 N
152 0 V
0 664 V
-152 0 V
0 -664 V
Z stroke
3749 4247 M
152 0 V
3749 1214 M
152 0 V
stroke
4508 1293 152 817 40 30 0 PatternFill
4584 1222 M
0 71 V
0 817 R
0 2151 V
stroke
4508 1293 N
152 0 V
0 817 V
-152 0 V
0 -817 V
Z stroke
4508 4261 M
152 0 V
4508 1222 M
152 0 V
stroke
5267 1276 152 711 40 30 0 PatternFill
5343 1216 M
0 60 V
0 711 R
0 2092 V
stroke
5267 1276 N
152 0 V
0 711 V
-152 0 V
0 -711 V
Z stroke
5267 4079 M
152 0 V
5267 1216 M
152 0 V
stroke
6025 1289 152 704 40 30 0 PatternFill
6101 1221 M
0 68 V
0 704 R
0 2080 V
stroke
6025 1289 N
152 0 V
0 704 V
-152 0 V
0 -704 V
Z stroke
6025 4073 M
152 0 V
6025 1221 M
152 0 V
stroke
6784 1286 152 712 40 30 0 PatternFill
6860 1217 M
0 69 V
0 712 R
0 2442 V
stroke
6784 1286 N
152 0 V
0 712 V
-152 0 V
0 -712 V
Z stroke
6784 4440 M
152 0 V
6784 1217 M
152 0 V
stroke
7543 1289 152 582 40 30 0 PatternFill
7619 1220 M
0 69 V
0 582 R
0 1892 V
stroke
7543 1289 N
152 0 V
0 582 V
-152 0 V
0 -582 V
Z stroke
7543 3763 M
152 0 V
7543 1220 M
152 0 V
stroke
8301 1286 152 615 40 30 0 PatternFill
8377 1219 M
0 67 V
0 615 R
0 2356 V
stroke
8301 1286 N
152 0 V
0 615 V
-152 0 V
0 -615 V
Z stroke
8301 4257 M
152 0 V
8301 1219 M
152 0 V
stroke
9060 1298 152 745 40 30 0 PatternFill
9136 1223 M
0 75 V
0 745 R
0 2202 V
stroke
9060 1298 N
152 0 V
0 745 V
-152 0 V
0 -745 V
Z stroke
9060 4245 M
152 0 V
9060 1223 M
152 0 V
stroke
9819 1290 152 587 40 30 0 PatternFill
9895 1218 M
0 72 V
0 587 R
0 1919 V
stroke
9819 1290 N
152 0 V
0 587 V
-152 0 V
0 -587 V
Z stroke
9819 3796 M
152 0 V
9819 1218 M
152 0 V
stroke
10577 1291 152 656 40 30 0 PatternFill
10653 1220 M
0 71 V
0 656 R
0 1912 V
stroke
10577 1291 N
152 0 V
0 656 V
-152 0 V
0 -656 V
Z stroke
10577 3859 M
152 0 V
10577 1220 M
152 0 V
stroke
11336 1291 152 637 40 30 0 PatternFill
11412 1217 M
0 74 V
0 637 R
0 2446 V
stroke
11336 1291 N
152 0 V
0 637 V
-152 0 V
0 -637 V
Z stroke
11336 4374 M
152 0 V
11336 1217 M
152 0 V
stroke
12095 1288 152 682 40 30 0 PatternFill
12171 1220 M
0 68 V
0 682 R
0 1961 V
stroke
12095 1288 N
152 0 V
0 682 V
-152 0 V
0 -682 V
Z stroke
12095 3931 M
152 0 V
12095 1220 M
152 0 V
stroke
12853 1275 152 647 40 30 0 PatternFill
12929 1215 M
0 60 V
0 647 R
0 2046 V
stroke
12853 1275 N
152 0 V
0 647 V
-152 0 V
0 -647 V
Z stroke
12853 3968 M
152 0 V
12853 1215 M
152 0 V
% End plot #7
% Begin plot #8
stroke
LTb
LCb setrgbcolor

 /TransparentPatterns true def
1473 1862 152 0 40 -30 0 PatternFill
1549 1862 M
stroke
1473 1862 N
152 0 V
-152 0 V
Z stroke
1473 1862 M
152 0 V
-152 0 R
152 0 V
stroke

 /TransparentPatterns true def
2232 1769 152 0 40 -30 0 PatternFill
2308 1769 M
stroke
2232 1769 N
152 0 V
-152 0 V
Z stroke
2232 1769 M
152 0 V
-152 0 R
152 0 V
stroke

 /TransparentPatterns true def
2991 1795 152 0 40 -30 0 PatternFill
3067 1795 M
stroke
2991 1795 N
152 0 V
-152 0 V
Z stroke
2991 1795 M
152 0 V
-152 0 R
152 0 V
stroke

 /TransparentPatterns true def
3749 1818 152 0 40 -30 0 PatternFill
3825 1818 M
stroke
3749 1818 N
152 0 V
-152 0 V
Z stroke
3749 1818 M
152 0 V
-152 0 R
152 0 V
stroke

 /TransparentPatterns true def
4508 1852 152 0 40 -30 0 PatternFill
4584 1852 M
stroke
4508 1852 N
152 0 V
-152 0 V
Z stroke
4508 1852 M
152 0 V
-152 0 R
152 0 V
stroke

 /TransparentPatterns true def
5267 1793 152 0 40 -30 0 PatternFill
5343 1793 M
stroke
5267 1793 N
152 0 V
-152 0 V
Z stroke
5267 1793 M
152 0 V
-152 0 R
152 0 V
stroke

 /TransparentPatterns true def
6025 1809 152 0 40 -30 0 PatternFill
6101 1809 M
stroke
6025 1809 N
152 0 V
-152 0 V
Z stroke
6025 1809 M
152 0 V
-152 0 R
152 0 V
stroke

 /TransparentPatterns true def
6784 1845 152 0 40 -30 0 PatternFill
6860 1845 M
stroke
6784 1845 N
152 0 V
-152 0 V
Z stroke
6784 1845 M
152 0 V
-152 0 R
152 0 V
stroke

 /TransparentPatterns true def
7543 1740 152 0 40 -30 0 PatternFill
7619 1740 M
stroke
7543 1740 N
152 0 V
-152 0 V
Z stroke
7543 1740 M
152 0 V
-152 0 R
152 0 V
stroke

 /TransparentPatterns true def
8301 1813 152 0 40 -30 0 PatternFill
8377 1813 M
stroke
8301 1813 N
152 0 V
-152 0 V
Z stroke
8301 1813 M
152 0 V
-152 0 R
152 0 V
stroke

 /TransparentPatterns true def
9060 1851 152 0 40 -30 0 PatternFill
9136 1851 M
stroke
9060 1851 N
152 0 V
-152 0 V
Z stroke
9060 1851 M
152 0 V
-152 0 R
152 0 V
stroke

 /TransparentPatterns true def
9819 1753 152 0 40 -30 0 PatternFill
9895 1753 M
stroke
9819 1753 N
152 0 V
-152 0 V
Z stroke
9819 1753 M
152 0 V
-152 0 R
152 0 V
stroke

 /TransparentPatterns true def
10577 1781 152 0 40 -30 0 PatternFill
10653 1781 M
stroke
10577 1781 N
152 0 V
-152 0 V
Z stroke
10577 1781 M
152 0 V
-152 0 R
152 0 V
stroke

 /TransparentPatterns true def
11336 1819 152 0 40 -30 0 PatternFill
11412 1819 M
stroke
11336 1819 N
152 0 V
-152 0 V
Z stroke
11336 1819 M
152 0 V
-152 0 R
152 0 V
stroke

 /TransparentPatterns true def
12095 1781 152 0 40 -30 0 PatternFill
12171 1781 M
stroke
12095 1781 N
152 0 V
-152 0 V
Z stroke
12095 1781 M
152 0 V
-152 0 R
152 0 V
stroke

 /TransparentPatterns true def
12853 1771 152 0 40 -30 0 PatternFill
12929 1771 M
stroke
12853 1771 N
152 0 V
-152 0 V
Z stroke
12853 1771 M
152 0 V
-152 0 R
152 0 V
% End plot #8
% Begin plot #9
2.000 UP
stroke
LTa
0.00 0.38 0.82 C LCb setrgbcolor
11860 153 M
[ [(Arial) 180.0 0.0 true true 0 ( )]
] -60.0 MRshow
2.000 UP
1.000 UL
LTa
0.00 0.38 0.82 C 11968 153 M
333 0 V
980 4799 M
569 0 V
759 0 V
758 0 V
759 0 V
759 0 V
758 0 V
759 0 V
759 0 V
759 0 V
758 0 V
759 0 V
759 0 V
758 0 V
759 0 V
759 0 V
758 0 V
190 0 V
1549 4799 TriU
2308 4799 TriU
3066 4799 TriU
3825 4799 TriU
4584 4799 TriU
5342 4799 TriU
6101 4799 TriU
6860 4799 TriU
7619 4799 TriU
8377 4799 TriU
9136 4799 TriU
9895 4799 TriU
10653 4799 TriU
11412 4799 TriU
12171 4799 TriU
12929 4799 TriU
12134 153 TriU
% End plot #9
2.000 UL
LTb
LCb setrgbcolor
1.000 UP
1.000 UL
LTb
0.00 0.00 0.00 C stroke
grestore
end
showpage
%%Trailer
%%DocumentFonts: Arial
