%!PS-Adobe-2.0 EPSF-2.0
%%Title: TcpWestwood-download-finishtime-50UE-90-240.eps
%%Creator: gnuplot 5.0 patchlevel 3
%%CreationDate: Thu May 19 16:44:21 2016
%%DocumentFonts: (atend)
%%BoundingBox: 50 50 770 302
%%EndComments
%%BeginProlog
/gnudict 256 dict def
gnudict begin
%
% The following true/false flags may be edited by hand if desired.
% The unit line width and grayscale image gamma correction may also be changed.
%
/Color true def
/Blacktext false def
/Solid false def
/Dashlength 3 def
/Landscape false def
/Level1 false def
/Level3 false def
/Rounded false def
/ClipToBoundingBox false def
/SuppressPDFMark false def
/TransparentPatterns false def
/gnulinewidth 15.000 def
/userlinewidth gnulinewidth def
/Gamma 1.0 def
/BackgroundColor {-1.000 -1.000 -1.000} def
%
/vshift -66 def
/dl1 {
  10.0 Dashlength userlinewidth gnulinewidth div mul mul mul
  Rounded { currentlinewidth 0.75 mul sub dup 0 le { pop 0.01 } if } if
} def
/dl2 {
  10.0 Dashlength userlinewidth gnulinewidth div mul mul mul
  Rounded { currentlinewidth 0.75 mul add } if
} def
/hpt_ 31.5 def
/vpt_ 31.5 def
/hpt hpt_ def
/vpt vpt_ def
/doclip {
  ClipToBoundingBox {
    newpath 50 50 moveto 770 50 lineto 770 302 lineto 50 302 lineto closepath
    clip
  } if
} def
%
% Gnuplot Prolog Version 5.1 (Oct 2015)
%
%/SuppressPDFMark true def
%
/M {moveto} bind def
/L {lineto} bind def
/R {rmoveto} bind def
/V {rlineto} bind def
/N {newpath moveto} bind def
/Z {closepath} bind def
/C {setrgbcolor} bind def
/f {rlineto fill} bind def
/g {setgray} bind def
/Gshow {show} def   % May be redefined later in the file to support UTF-8
/vpt2 vpt 2 mul def
/hpt2 hpt 2 mul def
/Lshow {currentpoint stroke M 0 vshift R 
	Blacktext {gsave 0 setgray textshow grestore} {textshow} ifelse} def
/Rshow {currentpoint stroke M dup stringwidth pop neg vshift R
	Blacktext {gsave 0 setgray textshow grestore} {textshow} ifelse} def
/Cshow {currentpoint stroke M dup stringwidth pop -2 div vshift R 
	Blacktext {gsave 0 setgray textshow grestore} {textshow} ifelse} def
/UP {dup vpt_ mul /vpt exch def hpt_ mul /hpt exch def
  /hpt2 hpt 2 mul def /vpt2 vpt 2 mul def} def
/DL {Color {setrgbcolor Solid {pop []} if 0 setdash}
 {pop pop pop 0 setgray Solid {pop []} if 0 setdash} ifelse} def
/BL {stroke userlinewidth 2 mul setlinewidth
	Rounded {1 setlinejoin 1 setlinecap} if} def
/AL {stroke userlinewidth 2 div setlinewidth
	Rounded {1 setlinejoin 1 setlinecap} if} def
/UL {dup gnulinewidth mul /userlinewidth exch def
	dup 1 lt {pop 1} if 10 mul /udl exch def} def
/PL {stroke userlinewidth setlinewidth
	Rounded {1 setlinejoin 1 setlinecap} if} def
3.8 setmiterlimit
% Classic Line colors (version 5.0)
/LCw {1 1 1} def
/LCb {0 0 0} def
/LCa {0 0 0} def
/LC0 {1 0 0} def
/LC1 {0 1 0} def
/LC2 {0 0 1} def
/LC3 {1 0 1} def
/LC4 {0 1 1} def
/LC5 {1 1 0} def
/LC6 {0 0 0} def
/LC7 {1 0.3 0} def
/LC8 {0.5 0.5 0.5} def
% Default dash patterns (version 5.0)
/LTB {BL [] LCb DL} def
/LTw {PL [] 1 setgray} def
/LTb {PL [] LCb DL} def
/LTa {AL [1 udl mul 2 udl mul] 0 setdash LCa setrgbcolor} def
/LT0 {PL [] LC0 DL} def
/LT1 {PL [2 dl1 3 dl2] LC1 DL} def
/LT2 {PL [1 dl1 1.5 dl2] LC2 DL} def
/LT3 {PL [6 dl1 2 dl2 1 dl1 2 dl2] LC3 DL} def
/LT4 {PL [1 dl1 2 dl2 6 dl1 2 dl2 1 dl1 2 dl2] LC4 DL} def
/LT5 {PL [4 dl1 2 dl2] LC5 DL} def
/LT6 {PL [1.5 dl1 1.5 dl2 1.5 dl1 1.5 dl2 1.5 dl1 6 dl2] LC6 DL} def
/LT7 {PL [3 dl1 3 dl2 1 dl1 3 dl2] LC7 DL} def
/LT8 {PL [2 dl1 2 dl2 2 dl1 6 dl2] LC8 DL} def
/SL {[] 0 setdash} def
/Pnt {stroke [] 0 setdash gsave 1 setlinecap M 0 0 V stroke grestore} def
/Dia {stroke [] 0 setdash 2 copy vpt add M
  hpt neg vpt neg V hpt vpt neg V
  hpt vpt V hpt neg vpt V closepath stroke
  Pnt} def
/Pls {stroke [] 0 setdash vpt sub M 0 vpt2 V
  currentpoint stroke M
  hpt neg vpt neg R hpt2 0 V stroke
 } def
/Box {stroke [] 0 setdash 2 copy exch hpt sub exch vpt add M
  0 vpt2 neg V hpt2 0 V 0 vpt2 V
  hpt2 neg 0 V closepath stroke
  Pnt} def
/Crs {stroke [] 0 setdash exch hpt sub exch vpt add M
  hpt2 vpt2 neg V currentpoint stroke M
  hpt2 neg 0 R hpt2 vpt2 V stroke} def
/TriU {stroke [] 0 setdash 2 copy vpt 1.12 mul add M
  hpt neg vpt -1.62 mul V
  hpt 2 mul 0 V
  hpt neg vpt 1.62 mul V closepath stroke
  Pnt} def
/Star {2 copy Pls Crs} def
/BoxF {stroke [] 0 setdash exch hpt sub exch vpt add M
  0 vpt2 neg V hpt2 0 V 0 vpt2 V
  hpt2 neg 0 V closepath fill} def
/TriUF {stroke [] 0 setdash vpt 1.12 mul add M
  hpt neg vpt -1.62 mul V
  hpt 2 mul 0 V
  hpt neg vpt 1.62 mul V closepath fill} def
/TriD {stroke [] 0 setdash 2 copy vpt 1.12 mul sub M
  hpt neg vpt 1.62 mul V
  hpt 2 mul 0 V
  hpt neg vpt -1.62 mul V closepath stroke
  Pnt} def
/TriDF {stroke [] 0 setdash vpt 1.12 mul sub M
  hpt neg vpt 1.62 mul V
  hpt 2 mul 0 V
  hpt neg vpt -1.62 mul V closepath fill} def
/DiaF {stroke [] 0 setdash vpt add M
  hpt neg vpt neg V hpt vpt neg V
  hpt vpt V hpt neg vpt V closepath fill} def
/Pent {stroke [] 0 setdash 2 copy gsave
  translate 0 hpt M 4 {72 rotate 0 hpt L} repeat
  closepath stroke grestore Pnt} def
/PentF {stroke [] 0 setdash gsave
  translate 0 hpt M 4 {72 rotate 0 hpt L} repeat
  closepath fill grestore} def
/Circle {stroke [] 0 setdash 2 copy
  hpt 0 360 arc stroke Pnt} def
/CircleF {stroke [] 0 setdash hpt 0 360 arc fill} def
/C0 {BL [] 0 setdash 2 copy moveto vpt 90 450 arc} bind def
/C1 {BL [] 0 setdash 2 copy moveto
	2 copy vpt 0 90 arc closepath fill
	vpt 0 360 arc closepath} bind def
/C2 {BL [] 0 setdash 2 copy moveto
	2 copy vpt 90 180 arc closepath fill
	vpt 0 360 arc closepath} bind def
/C3 {BL [] 0 setdash 2 copy moveto
	2 copy vpt 0 180 arc closepath fill
	vpt 0 360 arc closepath} bind def
/C4 {BL [] 0 setdash 2 copy moveto
	2 copy vpt 180 270 arc closepath fill
	vpt 0 360 arc closepath} bind def
/C5 {BL [] 0 setdash 2 copy moveto
	2 copy vpt 0 90 arc
	2 copy moveto
	2 copy vpt 180 270 arc closepath fill
	vpt 0 360 arc} bind def
/C6 {BL [] 0 setdash 2 copy moveto
	2 copy vpt 90 270 arc closepath fill
	vpt 0 360 arc closepath} bind def
/C7 {BL [] 0 setdash 2 copy moveto
	2 copy vpt 0 270 arc closepath fill
	vpt 0 360 arc closepath} bind def
/C8 {BL [] 0 setdash 2 copy moveto
	2 copy vpt 270 360 arc closepath fill
	vpt 0 360 arc closepath} bind def
/C9 {BL [] 0 setdash 2 copy moveto
	2 copy vpt 270 450 arc closepath fill
	vpt 0 360 arc closepath} bind def
/C10 {BL [] 0 setdash 2 copy 2 copy moveto vpt 270 360 arc closepath fill
	2 copy moveto
	2 copy vpt 90 180 arc closepath fill
	vpt 0 360 arc closepath} bind def
/C11 {BL [] 0 setdash 2 copy moveto
	2 copy vpt 0 180 arc closepath fill
	2 copy moveto
	2 copy vpt 270 360 arc closepath fill
	vpt 0 360 arc closepath} bind def
/C12 {BL [] 0 setdash 2 copy moveto
	2 copy vpt 180 360 arc closepath fill
	vpt 0 360 arc closepath} bind def
/C13 {BL [] 0 setdash 2 copy moveto
	2 copy vpt 0 90 arc closepath fill
	2 copy moveto
	2 copy vpt 180 360 arc closepath fill
	vpt 0 360 arc closepath} bind def
/C14 {BL [] 0 setdash 2 copy moveto
	2 copy vpt 90 360 arc closepath fill
	vpt 0 360 arc} bind def
/C15 {BL [] 0 setdash 2 copy vpt 0 360 arc closepath fill
	vpt 0 360 arc closepath} bind def
/Rec {newpath 4 2 roll moveto 1 index 0 rlineto 0 exch rlineto
	neg 0 rlineto closepath} bind def
/Square {dup Rec} bind def
/Bsquare {vpt sub exch vpt sub exch vpt2 Square} bind def
/S0 {BL [] 0 setdash 2 copy moveto 0 vpt rlineto BL Bsquare} bind def
/S1 {BL [] 0 setdash 2 copy vpt Square fill Bsquare} bind def
/S2 {BL [] 0 setdash 2 copy exch vpt sub exch vpt Square fill Bsquare} bind def
/S3 {BL [] 0 setdash 2 copy exch vpt sub exch vpt2 vpt Rec fill Bsquare} bind def
/S4 {BL [] 0 setdash 2 copy exch vpt sub exch vpt sub vpt Square fill Bsquare} bind def
/S5 {BL [] 0 setdash 2 copy 2 copy vpt Square fill
	exch vpt sub exch vpt sub vpt Square fill Bsquare} bind def
/S6 {BL [] 0 setdash 2 copy exch vpt sub exch vpt sub vpt vpt2 Rec fill Bsquare} bind def
/S7 {BL [] 0 setdash 2 copy exch vpt sub exch vpt sub vpt vpt2 Rec fill
	2 copy vpt Square fill Bsquare} bind def
/S8 {BL [] 0 setdash 2 copy vpt sub vpt Square fill Bsquare} bind def
/S9 {BL [] 0 setdash 2 copy vpt sub vpt vpt2 Rec fill Bsquare} bind def
/S10 {BL [] 0 setdash 2 copy vpt sub vpt Square fill 2 copy exch vpt sub exch vpt Square fill
	Bsquare} bind def
/S11 {BL [] 0 setdash 2 copy vpt sub vpt Square fill 2 copy exch vpt sub exch vpt2 vpt Rec fill
	Bsquare} bind def
/S12 {BL [] 0 setdash 2 copy exch vpt sub exch vpt sub vpt2 vpt Rec fill Bsquare} bind def
/S13 {BL [] 0 setdash 2 copy exch vpt sub exch vpt sub vpt2 vpt Rec fill
	2 copy vpt Square fill Bsquare} bind def
/S14 {BL [] 0 setdash 2 copy exch vpt sub exch vpt sub vpt2 vpt Rec fill
	2 copy exch vpt sub exch vpt Square fill Bsquare} bind def
/S15 {BL [] 0 setdash 2 copy Bsquare fill Bsquare} bind def
/D0 {gsave translate 45 rotate 0 0 S0 stroke grestore} bind def
/D1 {gsave translate 45 rotate 0 0 S1 stroke grestore} bind def
/D2 {gsave translate 45 rotate 0 0 S2 stroke grestore} bind def
/D3 {gsave translate 45 rotate 0 0 S3 stroke grestore} bind def
/D4 {gsave translate 45 rotate 0 0 S4 stroke grestore} bind def
/D5 {gsave translate 45 rotate 0 0 S5 stroke grestore} bind def
/D6 {gsave translate 45 rotate 0 0 S6 stroke grestore} bind def
/D7 {gsave translate 45 rotate 0 0 S7 stroke grestore} bind def
/D8 {gsave translate 45 rotate 0 0 S8 stroke grestore} bind def
/D9 {gsave translate 45 rotate 0 0 S9 stroke grestore} bind def
/D10 {gsave translate 45 rotate 0 0 S10 stroke grestore} bind def
/D11 {gsave translate 45 rotate 0 0 S11 stroke grestore} bind def
/D12 {gsave translate 45 rotate 0 0 S12 stroke grestore} bind def
/D13 {gsave translate 45 rotate 0 0 S13 stroke grestore} bind def
/D14 {gsave translate 45 rotate 0 0 S14 stroke grestore} bind def
/D15 {gsave translate 45 rotate 0 0 S15 stroke grestore} bind def
/DiaE {stroke [] 0 setdash vpt add M
  hpt neg vpt neg V hpt vpt neg V
  hpt vpt V hpt neg vpt V closepath stroke} def
/BoxE {stroke [] 0 setdash exch hpt sub exch vpt add M
  0 vpt2 neg V hpt2 0 V 0 vpt2 V
  hpt2 neg 0 V closepath stroke} def
/TriUE {stroke [] 0 setdash vpt 1.12 mul add M
  hpt neg vpt -1.62 mul V
  hpt 2 mul 0 V
  hpt neg vpt 1.62 mul V closepath stroke} def
/TriDE {stroke [] 0 setdash vpt 1.12 mul sub M
  hpt neg vpt 1.62 mul V
  hpt 2 mul 0 V
  hpt neg vpt -1.62 mul V closepath stroke} def
/PentE {stroke [] 0 setdash gsave
  translate 0 hpt M 4 {72 rotate 0 hpt L} repeat
  closepath stroke grestore} def
/CircE {stroke [] 0 setdash 
  hpt 0 360 arc stroke} def
/Opaque {gsave closepath 1 setgray fill grestore 0 setgray closepath} def
/DiaW {stroke [] 0 setdash vpt add M
  hpt neg vpt neg V hpt vpt neg V
  hpt vpt V hpt neg vpt V Opaque stroke} def
/BoxW {stroke [] 0 setdash exch hpt sub exch vpt add M
  0 vpt2 neg V hpt2 0 V 0 vpt2 V
  hpt2 neg 0 V Opaque stroke} def
/TriUW {stroke [] 0 setdash vpt 1.12 mul add M
  hpt neg vpt -1.62 mul V
  hpt 2 mul 0 V
  hpt neg vpt 1.62 mul V Opaque stroke} def
/TriDW {stroke [] 0 setdash vpt 1.12 mul sub M
  hpt neg vpt 1.62 mul V
  hpt 2 mul 0 V
  hpt neg vpt -1.62 mul V Opaque stroke} def
/PentW {stroke [] 0 setdash gsave
  translate 0 hpt M 4 {72 rotate 0 hpt L} repeat
  Opaque stroke grestore} def
/CircW {stroke [] 0 setdash 
  hpt 0 360 arc Opaque stroke} def
/BoxFill {gsave Rec 1 setgray fill grestore} def
/Density {
  /Fillden exch def
  currentrgbcolor
  /ColB exch def /ColG exch def /ColR exch def
  /ColR ColR Fillden mul Fillden sub 1 add def
  /ColG ColG Fillden mul Fillden sub 1 add def
  /ColB ColB Fillden mul Fillden sub 1 add def
  ColR ColG ColB setrgbcolor} def
/BoxColFill {gsave Rec PolyFill} def
/PolyFill {gsave Density fill grestore grestore} def
/h {rlineto rlineto rlineto gsave closepath fill grestore} bind def
%
% PostScript Level 1 Pattern Fill routine for rectangles
% Usage: x y w h s a XX PatternFill
%	x,y = lower left corner of box to be filled
%	w,h = width and height of box
%	  a = angle in degrees between lines and x-axis
%	 XX = 0/1 for no/yes cross-hatch
%
/PatternFill {gsave /PFa [ 9 2 roll ] def
  PFa 0 get PFa 2 get 2 div add PFa 1 get PFa 3 get 2 div add translate
  PFa 2 get -2 div PFa 3 get -2 div PFa 2 get PFa 3 get Rec
  TransparentPatterns {} {gsave 1 setgray fill grestore} ifelse
  clip
  currentlinewidth 0.5 mul setlinewidth
  /PFs PFa 2 get dup mul PFa 3 get dup mul add sqrt def
  0 0 M PFa 5 get rotate PFs -2 div dup translate
  0 1 PFs PFa 4 get div 1 add floor cvi
	{PFa 4 get mul 0 M 0 PFs V} for
  0 PFa 6 get ne {
	0 1 PFs PFa 4 get div 1 add floor cvi
	{PFa 4 get mul 0 2 1 roll M PFs 0 V} for
 } if
  stroke grestore} def
%
/languagelevel where
 {pop languagelevel} {1} ifelse
dup 2 lt
	{/InterpretLevel1 true def
	 /InterpretLevel3 false def}
	{/InterpretLevel1 Level1 def
	 2 gt
	    {/InterpretLevel3 Level3 def}
	    {/InterpretLevel3 false def}
	 ifelse }
 ifelse
%
% PostScript level 2 pattern fill definitions
%
/Level2PatternFill {
/Tile8x8 {/PaintType 2 /PatternType 1 /TilingType 1 /BBox [0 0 8 8] /XStep 8 /YStep 8}
	bind def
/KeepColor {currentrgbcolor [/Pattern /DeviceRGB] setcolorspace} bind def
<< Tile8x8
 /PaintProc {0.5 setlinewidth pop 0 0 M 8 8 L 0 8 M 8 0 L stroke} 
>> matrix makepattern
/Pat1 exch def
<< Tile8x8
 /PaintProc {0.5 setlinewidth pop 0 0 M 8 8 L 0 8 M 8 0 L stroke
	0 4 M 4 8 L 8 4 L 4 0 L 0 4 L stroke}
>> matrix makepattern
/Pat2 exch def
<< Tile8x8
 /PaintProc {0.5 setlinewidth pop 0 0 M 0 8 L
	8 8 L 8 0 L 0 0 L fill}
>> matrix makepattern
/Pat3 exch def
<< Tile8x8
 /PaintProc {0.5 setlinewidth pop -4 8 M 8 -4 L
	0 12 M 12 0 L stroke}
>> matrix makepattern
/Pat4 exch def
<< Tile8x8
 /PaintProc {0.5 setlinewidth pop -4 0 M 8 12 L
	0 -4 M 12 8 L stroke}
>> matrix makepattern
/Pat5 exch def
<< Tile8x8
 /PaintProc {0.5 setlinewidth pop -2 8 M 4 -4 L
	0 12 M 8 -4 L 4 12 M 10 0 L stroke}
>> matrix makepattern
/Pat6 exch def
<< Tile8x8
 /PaintProc {0.5 setlinewidth pop -2 0 M 4 12 L
	0 -4 M 8 12 L 4 -4 M 10 8 L stroke}
>> matrix makepattern
/Pat7 exch def
<< Tile8x8
 /PaintProc {0.5 setlinewidth pop 8 -2 M -4 4 L
	12 0 M -4 8 L 12 4 M 0 10 L stroke}
>> matrix makepattern
/Pat8 exch def
<< Tile8x8
 /PaintProc {0.5 setlinewidth pop 0 -2 M 12 4 L
	-4 0 M 12 8 L -4 4 M 8 10 L stroke}
>> matrix makepattern
/Pat9 exch def
/Pattern1 {PatternBgnd KeepColor Pat1 setpattern} bind def
/Pattern2 {PatternBgnd KeepColor Pat2 setpattern} bind def
/Pattern3 {PatternBgnd KeepColor Pat3 setpattern} bind def
/Pattern4 {PatternBgnd KeepColor Landscape {Pat5} {Pat4} ifelse setpattern} bind def
/Pattern5 {PatternBgnd KeepColor Landscape {Pat4} {Pat5} ifelse setpattern} bind def
/Pattern6 {PatternBgnd KeepColor Landscape {Pat9} {Pat6} ifelse setpattern} bind def
/Pattern7 {PatternBgnd KeepColor Landscape {Pat8} {Pat7} ifelse setpattern} bind def
} def
%
%
%End of PostScript Level 2 code
%
/PatternBgnd {
  TransparentPatterns {} {gsave 1 setgray fill grestore} ifelse
} def
%
% Substitute for Level 2 pattern fill codes with
% grayscale if Level 2 support is not selected.
%
/Level1PatternFill {
/Pattern1 {0.250 Density} bind def
/Pattern2 {0.500 Density} bind def
/Pattern3 {0.750 Density} bind def
/Pattern4 {0.125 Density} bind def
/Pattern5 {0.375 Density} bind def
/Pattern6 {0.625 Density} bind def
/Pattern7 {0.875 Density} bind def
} def
%
% Now test for support of Level 2 code
%
Level1 {Level1PatternFill} {Level2PatternFill} ifelse
%
/Symbol-Oblique /Symbol findfont [1 0 .167 1 0 0] makefont
dup length dict begin {1 index /FID eq {pop pop} {def} ifelse} forall
currentdict end definefont pop
%
/MFshow {
   { dup 5 get 3 ge
     { 5 get 3 eq {gsave} {grestore} ifelse }
     {dup dup 0 get findfont exch 1 get scalefont setfont
     [ currentpoint ] exch dup 2 get 0 exch R dup 5 get 2 ne {dup dup 6
     get exch 4 get {textshow} {stringwidth pop 0 R} ifelse }if dup 5 get 0 eq
     {dup 3 get {2 get neg 0 exch R pop} {pop aload pop M} ifelse} {dup 5
     get 1 eq {dup 2 get exch dup 3 get exch 6 get stringwidth pop -2 div
     dup 0 R} {dup 6 get stringwidth pop -2 div 0 R 6 get
     textshow 2 index {aload pop M neg 3 -1 roll neg R pop pop} {pop pop pop
     pop aload pop M} ifelse }ifelse }ifelse }
     ifelse }
   forall} def
/Gswidth {dup type /stringtype eq {stringwidth} {pop (n) stringwidth} ifelse} def
/MFwidth {0 exch { dup 5 get 3 ge { 5 get 3 eq { 0 } { pop } ifelse }
 {dup 3 get{dup dup 0 get findfont exch 1 get scalefont setfont
     6 get Gswidth pop add} {pop} ifelse} ifelse} forall} def
/MLshow { currentpoint stroke M
  0 exch R
  Blacktext {gsave 0 setgray MFshow grestore} {MFshow} ifelse } bind def
/MRshow { currentpoint stroke M
  exch dup MFwidth neg 3 -1 roll R
  Blacktext {gsave 0 setgray MFshow grestore} {MFshow} ifelse } bind def
/MCshow { currentpoint stroke M
  exch dup MFwidth -2 div 3 -1 roll R
  Blacktext {gsave 0 setgray MFshow grestore} {MFshow} ifelse } bind def
/XYsave    { [( ) 1 2 true false 3 ()] } bind def
/XYrestore { [( ) 1 2 true false 4 ()] } bind def
Level1 SuppressPDFMark or 
{} {
/SDict 10 dict def
systemdict /pdfmark known not {
  userdict /pdfmark systemdict /cleartomark get put
} if
SDict begin [
  /Title (TcpWestwood-download-finishtime-50UE-90-240.eps)
  /Subject (gnuplot plot)
  /Creator (gnuplot 5.0 patchlevel 3)
  /Author (nat)
%  /Producer (gnuplot)
%  /Keywords ()
  /CreationDate (Thu May 19 16:44:21 2016)
  /DOCINFO pdfmark
end
} ifelse
%
% Support for boxed text - Ethan A Merritt May 2005
%
/InitTextBox { userdict /TBy2 3 -1 roll put userdict /TBx2 3 -1 roll put
           userdict /TBy1 3 -1 roll put userdict /TBx1 3 -1 roll put
	   /Boxing true def } def
/ExtendTextBox { Boxing
    { gsave dup false charpath pathbbox
      dup TBy2 gt {userdict /TBy2 3 -1 roll put} {pop} ifelse
      dup TBx2 gt {userdict /TBx2 3 -1 roll put} {pop} ifelse
      dup TBy1 lt {userdict /TBy1 3 -1 roll put} {pop} ifelse
      dup TBx1 lt {userdict /TBx1 3 -1 roll put} {pop} ifelse
      grestore } if } def
/PopTextBox { newpath TBx1 TBxmargin sub TBy1 TBymargin sub M
               TBx1 TBxmargin sub TBy2 TBymargin add L
	       TBx2 TBxmargin add TBy2 TBymargin add L
	       TBx2 TBxmargin add TBy1 TBymargin sub L closepath } def
/DrawTextBox { PopTextBox stroke /Boxing false def} def
/FillTextBox { gsave PopTextBox 1 1 1 setrgbcolor fill grestore /Boxing false def} def
0 0 0 0 InitTextBox
/TBxmargin 20 def
/TBymargin 20 def
/Boxing false def
/textshow { ExtendTextBox Gshow } def
%
% redundant definitions for compatibility with prologue.ps older than 5.0.2
/LTB {BL [] LCb DL} def
/LTb {PL [] LCb DL} def
end
%%EndProlog
%%Page: 1 1
gnudict begin
gsave
doclip
50 50 translate
0.050 0.050 scale
0 setgray
newpath
(Arial) findfont 200 scalefont setfont
BackgroundColor 0 lt 3 1 roll 0 lt exch 0 lt or or not {BackgroundColor C 1.000 0 0 14400.00 5040.00 BoxColFill} if
1.000 UL
LTb
0.00 0.00 0.00 C 0.500 UL
LTa
0.50 0.50 0.50 C 980 1000 M
12139 0 V
stroke
1.000 UL
LTb
0.00 0.00 0.00 C 980 1000 M
63 0 V
stroke
860 1000 M
[ [(Arial) 200.0 0.0 true true 0 ( 0)]
] -66.7 MRshow
1.000 UL
LTb
0.00 0.00 0.00 C 0.500 UL
LTa
0.50 0.50 0.50 C 980 1760 M
12139 0 V
stroke
1.000 UL
LTb
0.00 0.00 0.00 C 980 1760 M
63 0 V
stroke
860 1760 M
[ [(Arial) 200.0 0.0 true true 0 ( 50)]
] -66.7 MRshow
1.000 UL
LTb
0.00 0.00 0.00 C 0.500 UL
LTa
0.50 0.50 0.50 C 980 2520 M
12139 0 V
stroke
1.000 UL
LTb
0.00 0.00 0.00 C 980 2520 M
63 0 V
stroke
860 2520 M
[ [(Arial) 200.0 0.0 true true 0 ( 100)]
] -66.7 MRshow
1.000 UL
LTb
0.00 0.00 0.00 C 0.500 UL
LTa
0.50 0.50 0.50 C 980 3279 M
12139 0 V
stroke
1.000 UL
LTb
0.00 0.00 0.00 C 980 3279 M
63 0 V
stroke
860 3279 M
[ [(Arial) 200.0 0.0 true true 0 ( 150)]
] -66.7 MRshow
1.000 UL
LTb
0.00 0.00 0.00 C 0.500 UL
LTa
0.50 0.50 0.50 C 980 4039 M
12139 0 V
stroke
1.000 UL
LTb
0.00 0.00 0.00 C 980 4039 M
63 0 V
stroke
860 4039 M
[ [(Arial) 200.0 0.0 true true 0 ( 200)]
] -66.7 MRshow
1.000 UL
LTb
0.00 0.00 0.00 C 0.500 UL
LTa
0.50 0.50 0.50 C 980 4799 M
12139 0 V
stroke
1.000 UL
LTb
0.00 0.00 0.00 C 980 4799 M
63 0 V
stroke
860 4799 M
[ [(Arial) 200.0 0.0 true true 0 ( 250)]
] -66.7 MRshow
1.000 UL
LTb
0.00 0.00 0.00 C 0.500 UL
LTa
0.50 0.50 0.50 C 1359 1000 M
0 3799 V
stroke
1.000 UL
LTb
0.00 0.00 0.00 C 1359 1000 M
0 63 V
0 3736 R
0 -63 V
stroke
1359 800 M
[ [(Arial) 200.0 0.0 true true 0 ( 270)]
] -66.7 MCshow
1.000 UL
LTb
0.00 0.00 0.00 C 0.500 UL
LTa
0.50 0.50 0.50 C 2118 1000 M
0 3799 V
stroke
1.000 UL
LTb
0.00 0.00 0.00 C 2118 1000 M
0 63 V
0 3736 R
0 -63 V
stroke
2118 800 M
[ [(Arial) 200.0 0.0 true true 0 ( 300)]
] -66.7 MCshow
1.000 UL
LTb
0.00 0.00 0.00 C 0.500 UL
LTa
0.50 0.50 0.50 C 2877 1000 M
0 3799 V
stroke
1.000 UL
LTb
0.00 0.00 0.00 C 2877 1000 M
0 63 V
0 3736 R
0 -63 V
stroke
2877 800 M
[ [(Arial) 200.0 0.0 true true 0 ( 330)]
] -66.7 MCshow
1.000 UL
LTb
0.00 0.00 0.00 C 0.500 UL
LTa
0.50 0.50 0.50 C 3635 1000 M
0 3799 V
stroke
1.000 UL
LTb
0.00 0.00 0.00 C 3635 1000 M
0 63 V
0 3736 R
0 -63 V
stroke
3635 800 M
[ [(Arial) 200.0 0.0 true true 0 ( 360)]
] -66.7 MCshow
1.000 UL
LTb
0.00 0.00 0.00 C 0.500 UL
LTa
0.50 0.50 0.50 C 4394 1000 M
0 3799 V
stroke
1.000 UL
LTb
0.00 0.00 0.00 C 4394 1000 M
0 63 V
0 3736 R
0 -63 V
stroke
4394 800 M
[ [(Arial) 200.0 0.0 true true 0 ( 390)]
] -66.7 MCshow
1.000 UL
LTb
0.00 0.00 0.00 C 0.500 UL
LTa
0.50 0.50 0.50 C 5153 1000 M
0 3799 V
stroke
1.000 UL
LTb
0.00 0.00 0.00 C 5153 1000 M
0 63 V
0 3736 R
0 -63 V
stroke
5153 800 M
[ [(Arial) 200.0 0.0 true true 0 ( 420)]
] -66.7 MCshow
1.000 UL
LTb
0.00 0.00 0.00 C 0.500 UL
LTa
0.50 0.50 0.50 C 5911 1000 M
0 3799 V
stroke
1.000 UL
LTb
0.00 0.00 0.00 C 5911 1000 M
0 63 V
0 3736 R
0 -63 V
stroke
5911 800 M
[ [(Arial) 200.0 0.0 true true 0 ( 450)]
] -66.7 MCshow
1.000 UL
LTb
0.00 0.00 0.00 C 0.500 UL
LTa
0.50 0.50 0.50 C 6670 1000 M
0 3799 V
stroke
1.000 UL
LTb
0.00 0.00 0.00 C 6670 1000 M
0 63 V
0 3736 R
0 -63 V
stroke
6670 800 M
[ [(Arial) 200.0 0.0 true true 0 ( 480)]
] -66.7 MCshow
1.000 UL
LTb
0.00 0.00 0.00 C 0.500 UL
LTa
0.50 0.50 0.50 C 7429 1000 M
0 3799 V
stroke
1.000 UL
LTb
0.00 0.00 0.00 C 7429 1000 M
0 63 V
0 3736 R
0 -63 V
stroke
7429 800 M
[ [(Arial) 200.0 0.0 true true 0 ( 510)]
] -66.7 MCshow
1.000 UL
LTb
0.00 0.00 0.00 C 0.500 UL
LTa
0.50 0.50 0.50 C 8188 1000 M
0 3799 V
stroke
1.000 UL
LTb
0.00 0.00 0.00 C 8188 1000 M
0 63 V
0 3736 R
0 -63 V
stroke
8188 800 M
[ [(Arial) 200.0 0.0 true true 0 ( 540)]
] -66.7 MCshow
1.000 UL
LTb
0.00 0.00 0.00 C 0.500 UL
LTa
0.50 0.50 0.50 C 8946 1000 M
0 3799 V
stroke
1.000 UL
LTb
0.00 0.00 0.00 C 8946 1000 M
0 63 V
0 3736 R
0 -63 V
stroke
8946 800 M
[ [(Arial) 200.0 0.0 true true 0 ( 570)]
] -66.7 MCshow
1.000 UL
LTb
0.00 0.00 0.00 C 0.500 UL
LTa
0.50 0.50 0.50 C 9705 1000 M
0 3799 V
stroke
1.000 UL
LTb
0.00 0.00 0.00 C 9705 1000 M
0 63 V
0 3736 R
0 -63 V
stroke
9705 800 M
[ [(Arial) 200.0 0.0 true true 0 ( 600)]
] -66.7 MCshow
1.000 UL
LTb
0.00 0.00 0.00 C 0.500 UL
LTa
0.50 0.50 0.50 C 10464 1000 M
0 3799 V
stroke
1.000 UL
LTb
0.00 0.00 0.00 C 10464 1000 M
0 63 V
0 3736 R
0 -63 V
stroke
10464 800 M
[ [(Arial) 200.0 0.0 true true 0 ( 630)]
] -66.7 MCshow
1.000 UL
LTb
0.00 0.00 0.00 C 0.500 UL
LTa
0.50 0.50 0.50 C 11222 1000 M
0 3799 V
stroke
1.000 UL
LTb
0.00 0.00 0.00 C 11222 1000 M
0 63 V
0 3736 R
0 -63 V
stroke
11222 800 M
[ [(Arial) 200.0 0.0 true true 0 ( 660)]
] -66.7 MCshow
1.000 UL
LTb
0.00 0.00 0.00 C 0.500 UL
LTa
0.50 0.50 0.50 C 11981 1000 M
0 3799 V
stroke
1.000 UL
LTb
0.00 0.00 0.00 C 11981 1000 M
0 63 V
0 3736 R
0 -63 V
stroke
11981 800 M
[ [(Arial) 200.0 0.0 true true 0 ( 690)]
] -66.7 MCshow
1.000 UL
LTb
0.00 0.00 0.00 C 0.500 UL
LTa
0.50 0.50 0.50 C 12740 1000 M
0 3799 V
stroke
1.000 UL
LTb
0.00 0.00 0.00 C 12740 1000 M
0 63 V
0 3736 R
0 -63 V
stroke
12740 800 M
[ [(Arial) 200.0 0.0 true true 0 ( 720)]
] -66.7 MCshow
1.000 UL
LTb
0.00 0.00 0.00 C 13119 1000 M
-63 0 V
stroke
13239 1000 M
[ [(Arial) 200.0 0.0 true true 0 ( 0)]
] -66.7 MLshow
1.000 UL
LTb
0.00 0.00 0.00 C 13119 1760 M
-63 0 V
stroke
13239 1760 M
[ [(Arial) 200.0 0.0 true true 0 ( 20)]
] -66.7 MLshow
1.000 UL
LTb
0.00 0.00 0.00 C 13119 2520 M
-63 0 V
stroke
13239 2520 M
[ [(Arial) 200.0 0.0 true true 0 ( 40)]
] -66.7 MLshow
1.000 UL
LTb
0.00 0.00 0.00 C 13119 3279 M
-63 0 V
stroke
13239 3279 M
[ [(Arial) 200.0 0.0 true true 0 ( 60)]
] -66.7 MLshow
1.000 UL
LTb
0.00 0.00 0.00 C 13119 4039 M
-63 0 V
stroke
13239 4039 M
[ [(Arial) 200.0 0.0 true true 0 ( 80)]
] -66.7 MLshow
1.000 UL
LTb
0.00 0.00 0.00 C 13119 4799 M
-63 0 V
stroke
13239 4799 M
[ [(Arial) 200.0 0.0 true true 0 ( 100)]
] -66.7 MLshow
1.000 UL
LTb
0.00 0.00 0.00 C 1.000 UL
LTB
0.00 0.00 0.00 C 980 4799 M
0 -3799 V
12139 0 V
0 3799 R
980 4799 M
1.000 UP
stroke
LTb
0.00 0.00 0.00 C LCb setrgbcolor
160 2899 M
currentpoint gsave translate -270 rotate 0 0 moveto
[ [(Arial) 200.0 0.0 true true 0 (File download time \(s\))]
] -66.7 MCshow
grestore
LTb
LCb setrgbcolor
13938 2899 M
currentpoint gsave translate -270 rotate 0 0 moveto
[ [(Arial) 200.0 0.0 true true 0 (Average UDP throughput [%])]
] -66.7 MCshow
grestore
LTb
LCb setrgbcolor
7049 500 M
[ [(Arial) 200.0 0.0 true true 0 (Local Backhaul traffic \(Mb/s\))]
] -66.7 MCshow
LTb
% Begin plot #1
1.000 UL
LTb
0.60 0.60 0.00 C LCb setrgbcolor
4714 333 M
[ [(Arial) 180.0 0.0 true true 0 (file download time    :   olsr)]
] -60.0 MRshow
1.000 UL
LTb
0.60 0.60 0.00 C 4822 288 333 90 80 -45 0 PatternFill
4822 288 N
333 0 V
0 90 V
-333 0 V
0 -90 V
Z stroke
1.000 UL
LTb
0.60 0.60 0.00 C 1094 1240 152 235 80 -45 0 PatternFill
1170 1106 M
0 134 V
0 235 R
0 494 V
stroke
1094 1240 N
152 0 V
0 235 V
-152 0 V
0 -235 V
Z stroke
1094 1969 M
152 0 V
1094 1106 M
152 0 V
stroke
1852 1252 152 205 80 -45 0 PatternFill
1928 1102 M
0 150 V
0 205 R
0 512 V
stroke
1852 1252 N
152 0 V
0 205 V
-152 0 V
0 -205 V
Z stroke
1852 1969 M
152 0 V
1852 1102 M
152 0 V
stroke
2611 1224 152 245 80 -45 0 PatternFill
2687 1100 M
0 124 V
0 245 R
0 552 V
stroke
2611 1224 N
152 0 V
0 245 V
-152 0 V
0 -245 V
Z stroke
2611 2021 M
152 0 V
2611 1100 M
152 0 V
stroke
3370 1242 152 226 80 -45 0 PatternFill
3446 1145 M
0 97 V
0 226 R
0 366 V
stroke
3370 1242 N
152 0 V
0 226 V
-152 0 V
0 -226 V
Z stroke
3370 1834 M
152 0 V
3370 1145 M
152 0 V
stroke
4129 1248 152 202 80 -45 0 PatternFill
4205 1132 M
0 116 V
0 202 R
0 604 V
stroke
4129 1248 N
152 0 V
0 202 V
-152 0 V
0 -202 V
Z stroke
4129 2054 M
152 0 V
4129 1132 M
152 0 V
stroke
4887 1259 152 229 80 -45 0 PatternFill
4963 1128 M
0 131 V
0 229 R
0 670 V
stroke
4887 1259 N
152 0 V
0 229 V
-152 0 V
0 -229 V
Z stroke
4887 2158 M
152 0 V
4887 1128 M
152 0 V
stroke
5646 1273 152 181 80 -45 0 PatternFill
5722 1133 M
0 140 V
0 181 R
0 538 V
stroke
5646 1273 N
152 0 V
0 181 V
-152 0 V
0 -181 V
Z stroke
5646 1992 M
152 0 V
5646 1133 M
152 0 V
stroke
6405 1282 152 165 80 -45 0 PatternFill
6481 1121 M
0 161 V
0 165 R
0 390 V
stroke
6405 1282 N
152 0 V
0 165 V
-152 0 V
0 -165 V
Z stroke
6405 1837 M
152 0 V
6405 1121 M
152 0 V
stroke
7163 1273 152 234 80 -45 0 PatternFill
7239 1127 M
0 146 V
0 234 R
0 511 V
stroke
7163 1273 N
152 0 V
0 234 V
-152 0 V
0 -234 V
Z stroke
7163 2018 M
152 0 V
7163 1127 M
152 0 V
stroke
7922 1271 152 229 80 -45 0 PatternFill
7998 1086 M
0 185 V
0 229 R
0 556 V
stroke
7922 1271 N
152 0 V
0 229 V
-152 0 V
0 -229 V
Z stroke
7922 2056 M
152 0 V
7922 1086 M
152 0 V
stroke
8681 1285 152 201 80 -45 0 PatternFill
8757 1103 M
0 182 V
0 201 R
0 359 V
stroke
8681 1285 N
152 0 V
0 201 V
-152 0 V
0 -201 V
Z stroke
8681 1845 M
152 0 V
8681 1103 M
152 0 V
stroke
9439 1244 152 249 80 -45 0 PatternFill
9515 1102 M
0 142 V
0 249 R
0 475 V
stroke
9439 1244 N
152 0 V
0 249 V
-152 0 V
0 -249 V
Z stroke
9439 1968 M
152 0 V
9439 1102 M
152 0 V
stroke
10198 1267 152 207 80 -45 0 PatternFill
10274 1106 M
0 161 V
0 207 R
0 484 V
stroke
10198 1267 N
152 0 V
0 207 V
-152 0 V
0 -207 V
Z stroke
10198 1958 M
152 0 V
-152 -852 R
152 0 V
stroke
10957 1260 152 272 80 -45 0 PatternFill
11033 1100 M
0 160 V
0 272 R
0 440 V
stroke
10957 1260 N
152 0 V
0 272 V
-152 0 V
0 -272 V
Z stroke
10957 1972 M
152 0 V
-152 -872 R
152 0 V
stroke
11715 1242 152 241 80 -45 0 PatternFill
11791 1105 M
0 137 V
0 241 R
0 555 V
stroke
11715 1242 N
152 0 V
0 241 V
-152 0 V
0 -241 V
Z stroke
11715 2038 M
152 0 V
-152 -933 R
152 0 V
stroke
12474 1279 152 207 80 -45 0 PatternFill
12550 1149 M
0 130 V
0 207 R
0 424 V
stroke
12474 1279 N
152 0 V
0 207 V
-152 0 V
0 -207 V
Z stroke
12474 1910 M
152 0 V
-152 -761 R
152 0 V
% End plot #1
% Begin plot #2
stroke
LTb
LCb setrgbcolor

 /TransparentPatterns true def
1094 1370 152 0 40 30 0 PatternFill
1170 1370 M
stroke
1094 1370 N
152 0 V
-152 0 V
Z stroke
1094 1370 M
152 0 V
-152 0 R
152 0 V
stroke

 /TransparentPatterns true def
1852 1357 152 0 40 30 0 PatternFill
1928 1357 M
stroke
1852 1357 N
152 0 V
-152 0 V
Z stroke
1852 1357 M
152 0 V
-152 0 R
152 0 V
stroke

 /TransparentPatterns true def
2611 1372 152 0 40 30 0 PatternFill
2687 1372 M
stroke
2611 1372 N
152 0 V
-152 0 V
Z stroke
2611 1372 M
152 0 V
-152 0 R
152 0 V
stroke

 /TransparentPatterns true def
3370 1368 152 0 40 30 0 PatternFill
3446 1368 M
stroke
3370 1368 N
152 0 V
-152 0 V
Z stroke
3370 1368 M
152 0 V
-152 0 R
152 0 V
stroke

 /TransparentPatterns true def
4129 1369 152 0 40 30 0 PatternFill
4205 1369 M
stroke
4129 1369 N
152 0 V
-152 0 V
Z stroke
4129 1369 M
152 0 V
-152 0 R
152 0 V
stroke

 /TransparentPatterns true def
4887 1379 152 0 40 30 0 PatternFill
4963 1379 M
stroke
4887 1379 N
152 0 V
-152 0 V
Z stroke
4887 1379 M
152 0 V
-152 0 R
152 0 V
stroke

 /TransparentPatterns true def
5646 1367 152 0 40 30 0 PatternFill
5722 1367 M
stroke
5646 1367 N
152 0 V
-152 0 V
Z stroke
5646 1367 M
152 0 V
-152 0 R
152 0 V
stroke

 /TransparentPatterns true def
6405 1369 152 0 40 30 0 PatternFill
6481 1369 M
stroke
6405 1369 N
152 0 V
-152 0 V
Z stroke
6405 1369 M
152 0 V
-152 0 R
152 0 V
stroke

 /TransparentPatterns true def
7163 1395 152 0 40 30 0 PatternFill
7239 1395 M
stroke
7163 1395 N
152 0 V
-152 0 V
Z stroke
7163 1395 M
152 0 V
-152 0 R
152 0 V
stroke

 /TransparentPatterns true def
7922 1388 152 0 40 30 0 PatternFill
7998 1388 M
stroke
7922 1388 N
152 0 V
-152 0 V
Z stroke
7922 1388 M
152 0 V
-152 0 R
152 0 V
stroke

 /TransparentPatterns true def
8681 1378 152 0 40 30 0 PatternFill
8757 1378 M
stroke
8681 1378 N
152 0 V
-152 0 V
Z stroke
8681 1378 M
152 0 V
-152 0 R
152 0 V
stroke

 /TransparentPatterns true def
9439 1374 152 0 40 30 0 PatternFill
9515 1374 M
stroke
9439 1374 N
152 0 V
-152 0 V
Z stroke
9439 1374 M
152 0 V
-152 0 R
152 0 V
stroke

 /TransparentPatterns true def
10198 1389 152 0 40 30 0 PatternFill
10274 1389 M
stroke
10198 1389 N
152 0 V
-152 0 V
Z stroke
10198 1389 M
152 0 V
-152 0 R
152 0 V
stroke

 /TransparentPatterns true def
10957 1389 152 0 40 30 0 PatternFill
11033 1389 M
stroke
10957 1389 N
152 0 V
-152 0 V
Z stroke
10957 1389 M
152 0 V
-152 0 R
152 0 V
stroke

 /TransparentPatterns true def
11715 1377 152 0 40 30 0 PatternFill
11791 1377 M
stroke
11715 1377 N
152 0 V
-152 0 V
Z stroke
11715 1377 M
152 0 V
-152 0 R
152 0 V
stroke

 /TransparentPatterns true def
12474 1388 152 0 40 30 0 PatternFill
12550 1388 M
stroke
12474 1388 N
152 0 V
-152 0 V
Z stroke
12474 1388 M
152 0 V
-152 0 R
152 0 V
% End plot #2
% Begin plot #3
2.000 UP
stroke
LTa
0.60 0.60 0.00 C LCb setrgbcolor
4714 153 M
[ [(Arial) 180.0 0.0 true true 0 (avg. throughput :         )]
] -60.0 MRshow
2.000 UP
1.000 UL
LTa
0.60 0.60 0.00 C 4822 153 M
333 0 V
980 4264 M
190 3 V
758 0 V
759 28 V
759 -104 V
758 117 V
759 41 V
759 -67 V
758 -81 V
759 88 V
759 20 V
759 -108 V
758 68 V
759 -9 V
759 9 V
758 33 V
759 -65 V
569 34 V
1170 4267 Box
1928 4267 Box
2687 4295 Box
3446 4191 Box
4204 4308 Box
4963 4349 Box
5722 4282 Box
6480 4201 Box
7239 4289 Box
7998 4309 Box
8757 4201 Box
9515 4269 Box
10274 4260 Box
11033 4269 Box
11791 4302 Box
12550 4237 Box
4988 153 Box
% End plot #3
% Begin plot #4
1.000 UL
LTb
0.00 0.00 0.63 C LCb setrgbcolor
8287 333 M
[ [(Arial) 180.0 0.0 true true 0 (per-packet)]
] -60.0 MRshow
1.000 UL
LTb
0.00 0.00 0.63 C 8395 288 333 90 80 45 0 PatternFill
8395 288 N
333 0 V
0 90 V
-333 0 V
0 -90 V
Z stroke
1.000 UL
LTb
0.00 0.00 0.63 C 1283 1148 152 985 80 45 0 PatternFill
1359 1101 M
0 47 V
0 985 R
0 444 V
stroke
1283 1148 N
152 0 V
0 985 V
-152 0 V
0 -985 V
Z stroke
1283 2577 M
152 0 V
1283 1101 M
152 0 V
stroke
2042 1178 152 1005 80 45 0 PatternFill
2118 1106 M
0 72 V
0 1005 R
0 384 V
stroke
2042 1178 N
152 0 V
0 1005 V
-152 0 V
0 -1005 V
Z stroke
2042 2567 M
152 0 V
2042 1106 M
152 0 V
stroke
2801 1178 152 1006 80 45 0 PatternFill
2877 1118 M
0 60 V
0 1006 R
0 276 V
stroke
2801 1178 N
152 0 V
0 1006 V
-152 0 V
0 -1006 V
Z stroke
2801 2460 M
152 0 V
2801 1118 M
152 0 V
stroke
3560 1181 152 995 80 45 0 PatternFill
3636 1095 M
0 86 V
0 995 R
0 325 V
stroke
3560 1181 N
152 0 V
0 995 V
-152 0 V
0 -995 V
Z stroke
3560 2501 M
152 0 V
3560 1095 M
152 0 V
stroke
4318 1182 152 987 80 45 0 PatternFill
4394 1099 M
0 83 V
0 987 R
0 399 V
stroke
4318 1182 N
152 0 V
0 987 V
-152 0 V
0 -987 V
Z stroke
4318 2568 M
152 0 V
4318 1099 M
152 0 V
stroke
5077 1187 152 987 80 45 0 PatternFill
5153 1101 M
0 86 V
0 987 R
0 231 V
stroke
5077 1187 N
152 0 V
0 987 V
-152 0 V
0 -987 V
Z stroke
5077 2405 M
152 0 V
5077 1101 M
152 0 V
stroke
5836 1176 152 1000 80 45 0 PatternFill
5912 1095 M
0 81 V
0 1000 R
0 374 V
stroke
5836 1176 N
152 0 V
0 1000 V
-152 0 V
0 -1000 V
Z stroke
5836 2550 M
152 0 V
5836 1095 M
152 0 V
stroke
6594 1170 152 1000 80 45 0 PatternFill
6670 1087 M
0 83 V
0 1000 R
0 402 V
stroke
6594 1170 N
152 0 V
0 1000 V
-152 0 V
0 -1000 V
Z stroke
6594 2572 M
152 0 V
6594 1087 M
152 0 V
stroke
7353 1161 152 933 80 45 0 PatternFill
7429 1047 M
0 114 V
0 933 R
0 396 V
stroke
7353 1161 N
152 0 V
0 933 V
-152 0 V
0 -933 V
Z stroke
7353 2490 M
152 0 V
7353 1047 M
152 0 V
stroke
8112 1172 152 986 80 45 0 PatternFill
8188 1105 M
0 67 V
0 986 R
0 274 V
stroke
8112 1172 N
152 0 V
0 986 V
-152 0 V
0 -986 V
Z stroke
8112 2432 M
152 0 V
8112 1105 M
152 0 V
stroke
8870 1177 152 1014 80 45 0 PatternFill
8946 1097 M
0 80 V
0 1014 R
0 204 V
stroke
8870 1177 N
152 0 V
0 1014 V
-152 0 V
0 -1014 V
Z stroke
8870 2395 M
152 0 V
8870 1097 M
152 0 V
stroke
9629 1175 152 981 80 45 0 PatternFill
9705 1091 M
0 84 V
0 981 R
0 275 V
stroke
9629 1175 N
152 0 V
0 981 V
-152 0 V
0 -981 V
Z stroke
9629 2431 M
152 0 V
9629 1091 M
152 0 V
stroke
10388 1165 152 1032 80 45 0 PatternFill
10464 1085 M
0 80 V
0 1032 R
0 177 V
stroke
10388 1165 N
152 0 V
0 1032 V
-152 0 V
0 -1032 V
Z stroke
10388 2374 M
152 0 V
10388 1085 M
152 0 V
stroke
11146 1158 152 998 80 45 0 PatternFill
11222 1075 M
0 83 V
0 998 R
0 168 V
stroke
11146 1158 N
152 0 V
0 998 V
-152 0 V
0 -998 V
Z stroke
11146 2324 M
152 0 V
11146 1075 M
152 0 V
stroke
11905 1185 152 978 80 45 0 PatternFill
11981 1048 M
0 137 V
0 978 R
0 319 V
stroke
11905 1185 N
152 0 V
0 978 V
-152 0 V
0 -978 V
Z stroke
11905 2482 M
152 0 V
11905 1048 M
152 0 V
stroke
12664 1172 152 1000 80 45 0 PatternFill
12740 1093 M
0 79 V
0 1000 R
0 299 V
stroke
12664 1172 N
152 0 V
0 1000 V
-152 0 V
0 -1000 V
Z stroke
12664 2471 M
152 0 V
12664 1093 M
152 0 V
% End plot #4
% Begin plot #5
stroke
LTb
LCb setrgbcolor

 /TransparentPatterns true def
1283 1548 152 0 80 -45 0 PatternFill
1359 1548 M
stroke
1283 1548 N
152 0 V
-152 0 V
Z stroke
1283 1548 M
152 0 V
-152 0 R
152 0 V
stroke

 /TransparentPatterns true def
2042 1566 152 0 80 -45 0 PatternFill
2118 1566 M
stroke
2042 1566 N
152 0 V
-152 0 V
Z stroke
2042 1566 M
152 0 V
-152 0 R
152 0 V
stroke

 /TransparentPatterns true def
2801 1561 152 0 80 -45 0 PatternFill
2877 1561 M
stroke
2801 1561 N
152 0 V
-152 0 V
Z stroke
2801 1561 M
152 0 V
-152 0 R
152 0 V
stroke

 /TransparentPatterns true def
3560 1535 152 0 80 -45 0 PatternFill
3636 1535 M
stroke
3560 1535 N
152 0 V
-152 0 V
Z stroke
3560 1535 M
152 0 V
-152 0 R
152 0 V
stroke

 /TransparentPatterns true def
4318 1555 152 0 80 -45 0 PatternFill
4394 1555 M
stroke
4318 1555 N
152 0 V
-152 0 V
Z stroke
4318 1555 M
152 0 V
-152 0 R
152 0 V
stroke

 /TransparentPatterns true def
5077 1567 152 0 80 -45 0 PatternFill
5153 1567 M
stroke
5077 1567 N
152 0 V
-152 0 V
Z stroke
5077 1567 M
152 0 V
-152 0 R
152 0 V
stroke

 /TransparentPatterns true def
5836 1554 152 0 80 -45 0 PatternFill
5912 1554 M
stroke
5836 1554 N
152 0 V
-152 0 V
Z stroke
5836 1554 M
152 0 V
-152 0 R
152 0 V
stroke

 /TransparentPatterns true def
6594 1550 152 0 80 -45 0 PatternFill
6670 1550 M
stroke
6594 1550 N
152 0 V
-152 0 V
Z stroke
6594 1550 M
152 0 V
-152 0 R
152 0 V
stroke

 /TransparentPatterns true def
7353 1530 152 0 80 -45 0 PatternFill
7429 1530 M
stroke
7353 1530 N
152 0 V
-152 0 V
Z stroke
7353 1530 M
152 0 V
-152 0 R
152 0 V
stroke

 /TransparentPatterns true def
8112 1551 152 0 80 -45 0 PatternFill
8188 1551 M
stroke
8112 1551 N
152 0 V
-152 0 V
Z stroke
8112 1551 M
152 0 V
-152 0 R
152 0 V
stroke

 /TransparentPatterns true def
8870 1557 152 0 80 -45 0 PatternFill
8946 1557 M
stroke
8870 1557 N
152 0 V
-152 0 V
Z stroke
8870 1557 M
152 0 V
-152 0 R
152 0 V
stroke

 /TransparentPatterns true def
9629 1542 152 0 80 -45 0 PatternFill
9705 1542 M
stroke
9629 1542 N
152 0 V
-152 0 V
Z stroke
9629 1542 M
152 0 V
-152 0 R
152 0 V
stroke

 /TransparentPatterns true def
10388 1531 152 0 80 -45 0 PatternFill
10464 1531 M
stroke
10388 1531 N
152 0 V
-152 0 V
Z stroke
10388 1531 M
152 0 V
-152 0 R
152 0 V
stroke

 /TransparentPatterns true def
11146 1533 152 0 80 -45 0 PatternFill
11222 1533 M
stroke
11146 1533 N
152 0 V
-152 0 V
Z stroke
11146 1533 M
152 0 V
-152 0 R
152 0 V
stroke

 /TransparentPatterns true def
11905 1565 152 0 80 -45 0 PatternFill
11981 1565 M
stroke
11905 1565 N
152 0 V
-152 0 V
Z stroke
11905 1565 M
152 0 V
-152 0 R
152 0 V
stroke

 /TransparentPatterns true def
12664 1558 152 0 80 -45 0 PatternFill
12740 1558 M
stroke
12664 1558 N
152 0 V
-152 0 V
Z stroke
12664 1558 M
152 0 V
-152 0 R
152 0 V
% End plot #5
% Begin plot #6
2.000 UP
stroke
LTa
0.00 0.00 0.63 C LCb setrgbcolor
8287 153 M
[ [(Arial) 180.0 0.0 true true 0 ( )]
] -60.0 MRshow
2.000 UP
1.000 UL
LTa
0.00 0.00 0.63 C 8395 153 M
333 0 V
980 4777 M
379 -12 V
759 23 V
759 -27 V
758 25 V
759 -22 V
759 -3 V
758 28 V
759 -2 V
759 -24 V
759 -2 V
758 0 V
759 27 V
759 -29 V
758 0 V
759 28 V
759 -24 V
379 0 V
1359 4765 Circle
2118 4788 Circle
2877 4761 Circle
3635 4786 Circle
4394 4764 Circle
5153 4761 Circle
5911 4789 Circle
6670 4787 Circle
7429 4763 Circle
8188 4761 Circle
8946 4761 Circle
9705 4788 Circle
10464 4759 Circle
11222 4759 Circle
11981 4787 Circle
12740 4763 Circle
8561 153 Circle
% End plot #6
% Begin plot #7
1.000 UL
LTb
0.00 0.38 0.82 C LCb setrgbcolor
11860 333 M
[ [(Arial) 180.0 0.0 true true 0 (per-flow)]
] -60.0 MRshow
1.000 UL
LTb
0.00 0.38 0.82 C 11968 288 333 90 40 30 0 PatternFill
11968 288 N
333 0 V
0 90 V
-333 0 V
0 -90 V
Z stroke
1.000 UL
LTb
0.00 0.38 0.82 C 1473 1209 152 142 40 30 0 PatternFill
1549 1117 M
0 92 V
0 142 R
0 468 V
stroke
1473 1209 N
152 0 V
0 142 V
-152 0 V
0 -142 V
Z stroke
1473 1819 M
152 0 V
1473 1117 M
152 0 V
stroke
2232 1176 152 218 40 30 0 PatternFill
2308 1100 M
0 76 V
0 218 R
0 489 V
stroke
2232 1176 N
152 0 V
0 218 V
-152 0 V
0 -218 V
Z stroke
2232 1883 M
152 0 V
2232 1100 M
152 0 V
stroke
2991 1183 152 165 40 30 0 PatternFill
3067 1106 M
0 77 V
0 165 R
0 500 V
stroke
2991 1183 N
152 0 V
0 165 V
-152 0 V
0 -165 V
Z stroke
2991 1848 M
152 0 V
2991 1106 M
152 0 V
stroke
3749 1161 152 165 40 30 0 PatternFill
3825 1118 M
0 43 V
0 165 R
0 559 V
stroke
3749 1161 N
152 0 V
0 165 V
-152 0 V
0 -165 V
Z stroke
3749 1885 M
152 0 V
3749 1118 M
152 0 V
stroke
4508 1189 152 121 40 30 0 PatternFill
4584 1103 M
0 86 V
0 121 R
0 657 V
stroke
4508 1189 N
152 0 V
0 121 V
-152 0 V
0 -121 V
Z stroke
4508 1967 M
152 0 V
4508 1103 M
152 0 V
stroke
5267 1174 152 156 40 30 0 PatternFill
5343 1104 M
0 70 V
0 156 R
0 643 V
stroke
5267 1174 N
152 0 V
0 156 V
-152 0 V
0 -156 V
Z stroke
5267 1973 M
152 0 V
5267 1104 M
152 0 V
stroke
6025 1153 152 185 40 30 0 PatternFill
6101 1097 M
0 56 V
0 185 R
0 687 V
stroke
6025 1153 N
152 0 V
0 185 V
-152 0 V
0 -185 V
Z stroke
6025 2025 M
152 0 V
6025 1097 M
152 0 V
stroke
6784 1181 152 148 40 30 0 PatternFill
6860 1119 M
0 62 V
0 148 R
0 601 V
stroke
6784 1181 N
152 0 V
0 148 V
-152 0 V
0 -148 V
Z stroke
6784 1930 M
152 0 V
6784 1119 M
152 0 V
stroke
7543 1192 152 163 40 30 0 PatternFill
7619 1104 M
0 88 V
0 163 R
0 619 V
stroke
7543 1192 N
152 0 V
0 163 V
-152 0 V
0 -163 V
Z stroke
7543 1974 M
152 0 V
7543 1104 M
152 0 V
stroke
8301 1191 152 173 40 30 0 PatternFill
8377 1091 M
0 100 V
0 173 R
0 481 V
stroke
8301 1191 N
152 0 V
0 173 V
-152 0 V
0 -173 V
Z stroke
8301 1845 M
152 0 V
8301 1091 M
152 0 V
stroke
9060 1175 152 136 40 30 0 PatternFill
9136 1105 M
0 70 V
0 136 R
0 833 V
stroke
9060 1175 N
152 0 V
0 136 V
-152 0 V
0 -136 V
Z stroke
9060 2144 M
152 0 V
9060 1105 M
152 0 V
stroke
9819 1176 152 157 40 30 0 PatternFill
9895 1101 M
0 75 V
0 157 R
0 786 V
stroke
9819 1176 N
152 0 V
0 157 V
-152 0 V
0 -157 V
Z stroke
9819 2119 M
152 0 V
9819 1101 M
152 0 V
stroke
10577 1195 152 125 40 30 0 PatternFill
10653 1102 M
0 93 V
0 125 R
0 665 V
stroke
10577 1195 N
152 0 V
0 125 V
-152 0 V
0 -125 V
Z stroke
10577 1985 M
152 0 V
-152 -883 R
152 0 V
stroke
11336 1175 152 202 40 30 0 PatternFill
11412 1091 M
0 84 V
0 202 R
0 523 V
stroke
11336 1175 N
152 0 V
0 202 V
-152 0 V
0 -202 V
Z stroke
11336 1900 M
152 0 V
-152 -809 R
152 0 V
stroke
12095 1176 152 151 40 30 0 PatternFill
12171 1098 M
0 78 V
0 151 R
0 614 V
stroke
12095 1176 N
152 0 V
0 151 V
-152 0 V
0 -151 V
Z stroke
12095 1941 M
152 0 V
-152 -843 R
152 0 V
stroke
12853 1163 152 157 40 30 0 PatternFill
12929 1116 M
0 47 V
0 157 R
0 507 V
stroke
12853 1163 N
152 0 V
0 157 V
-152 0 V
0 -157 V
Z stroke
12853 1827 M
152 0 V
-152 -711 R
152 0 V
% End plot #7
% Begin plot #8
stroke
LTb
LCb setrgbcolor

 /TransparentPatterns true def
1473 1285 152 0 40 -30 0 PatternFill
1549 1285 M
stroke
1473 1285 N
152 0 V
-152 0 V
Z stroke
1473 1285 M
152 0 V
-152 0 R
152 0 V
stroke

 /TransparentPatterns true def
2232 1275 152 0 40 -30 0 PatternFill
2308 1275 M
stroke
2232 1275 N
152 0 V
-152 0 V
Z stroke
2232 1275 M
152 0 V
-152 0 R
152 0 V
stroke

 /TransparentPatterns true def
2991 1276 152 0 40 -30 0 PatternFill
3067 1276 M
stroke
2991 1276 N
152 0 V
-152 0 V
Z stroke
2991 1276 M
152 0 V
-152 0 R
152 0 V
stroke

 /TransparentPatterns true def
3749 1270 152 0 40 -30 0 PatternFill
3825 1270 M
stroke
3749 1270 N
152 0 V
-152 0 V
Z stroke
3749 1270 M
152 0 V
-152 0 R
152 0 V
stroke

 /TransparentPatterns true def
4508 1269 152 0 40 -30 0 PatternFill
4584 1269 M
stroke
4508 1269 N
152 0 V
-152 0 V
Z stroke
4508 1269 M
152 0 V
-152 0 R
152 0 V
stroke

 /TransparentPatterns true def
5267 1265 152 0 40 -30 0 PatternFill
5343 1265 M
stroke
5267 1265 N
152 0 V
-152 0 V
Z stroke
5267 1265 M
152 0 V
-152 0 R
152 0 V
stroke

 /TransparentPatterns true def
6025 1255 152 0 40 -30 0 PatternFill
6101 1255 M
stroke
6025 1255 N
152 0 V
-152 0 V
Z stroke
6025 1255 M
152 0 V
-152 0 R
152 0 V
stroke

 /TransparentPatterns true def
6784 1262 152 0 40 -30 0 PatternFill
6860 1262 M
stroke
6784 1262 N
152 0 V
-152 0 V
Z stroke
6784 1262 M
152 0 V
-152 0 R
152 0 V
stroke

 /TransparentPatterns true def
7543 1279 152 0 40 -30 0 PatternFill
7619 1279 M
stroke
7543 1279 N
152 0 V
-152 0 V
Z stroke
7543 1279 M
152 0 V
-152 0 R
152 0 V
stroke

 /TransparentPatterns true def
8301 1281 152 0 40 -30 0 PatternFill
8377 1281 M
stroke
8301 1281 N
152 0 V
-152 0 V
Z stroke
8301 1281 M
152 0 V
-152 0 R
152 0 V
stroke

 /TransparentPatterns true def
9060 1274 152 0 40 -30 0 PatternFill
9136 1274 M
stroke
9060 1274 N
152 0 V
-152 0 V
Z stroke
9060 1274 M
152 0 V
-152 0 R
152 0 V
stroke

 /TransparentPatterns true def
9819 1279 152 0 40 -30 0 PatternFill
9895 1279 M
stroke
9819 1279 N
152 0 V
-152 0 V
Z stroke
9819 1279 M
152 0 V
-152 0 R
152 0 V
stroke

 /TransparentPatterns true def
10577 1267 152 0 40 -30 0 PatternFill
10653 1267 M
stroke
10577 1267 N
152 0 V
-152 0 V
Z stroke
10577 1267 M
152 0 V
-152 0 R
152 0 V
stroke

 /TransparentPatterns true def
11336 1278 152 0 40 -30 0 PatternFill
11412 1278 M
stroke
11336 1278 N
152 0 V
-152 0 V
Z stroke
11336 1278 M
152 0 V
-152 0 R
152 0 V
stroke

 /TransparentPatterns true def
12095 1273 152 0 40 -30 0 PatternFill
12171 1273 M
stroke
12095 1273 N
152 0 V
-152 0 V
Z stroke
12095 1273 M
152 0 V
-152 0 R
152 0 V
stroke

 /TransparentPatterns true def
12853 1258 152 0 40 -30 0 PatternFill
12929 1258 M
stroke
12853 1258 N
152 0 V
-152 0 V
Z stroke
12853 1258 M
152 0 V
-152 0 R
152 0 V
% End plot #8
% Begin plot #9
2.000 UP
stroke
LTa
0.00 0.38 0.82 C LCb setrgbcolor
11860 153 M
[ [(Arial) 180.0 0.0 true true 0 ( )]
] -60.0 MRshow
2.000 UP
1.000 UL
LTa
0.00 0.38 0.82 C 11968 153 M
333 0 V
980 4744 M
569 -8 V
759 6 V
758 -2 V
759 2 V
759 4 V
758 -1 V
759 3 V
759 -4 V
759 1 V
758 -7 V
759 15 V
759 -1 V
758 -5 V
759 -5 V
759 2 V
758 -7 V
190 2 V
1549 4736 TriU
2308 4742 TriU
3066 4740 TriU
3825 4742 TriU
4584 4746 TriU
5342 4745 TriU
6101 4748 TriU
6860 4744 TriU
7619 4745 TriU
8377 4738 TriU
9136 4753 TriU
9895 4752 TriU
10653 4747 TriU
11412 4742 TriU
12171 4744 TriU
12929 4737 TriU
12134 153 TriU
% End plot #9
2.000 UL
LTb
LCb setrgbcolor
1.000 UP
1.000 UL
LTb
0.00 0.00 0.00 C stroke
grestore
end
showpage
%%Trailer
%%DocumentFonts: Arial
