%!PS-Adobe-2.0 EPSF-2.0
%%Title: TcpWestwood-download-finishtime-50UE-250-400.eps
%%Creator: gnuplot 5.0 patchlevel 3
%%CreationDate: Thu May 19 16:44:21 2016
%%DocumentFonts: (atend)
%%BoundingBox: 50 50 770 302
%%EndComments
%%BeginProlog
/gnudict 256 dict def
gnudict begin
%
% The following true/false flags may be edited by hand if desired.
% The unit line width and grayscale image gamma correction may also be changed.
%
/Color true def
/Blacktext false def
/Solid false def
/Dashlength 3 def
/Landscape false def
/Level1 false def
/Level3 false def
/Rounded false def
/ClipToBoundingBox false def
/SuppressPDFMark false def
/TransparentPatterns false def
/gnulinewidth 15.000 def
/userlinewidth gnulinewidth def
/Gamma 1.0 def
/BackgroundColor {-1.000 -1.000 -1.000} def
%
/vshift -66 def
/dl1 {
  10.0 Dashlength userlinewidth gnulinewidth div mul mul mul
  Rounded { currentlinewidth 0.75 mul sub dup 0 le { pop 0.01 } if } if
} def
/dl2 {
  10.0 Dashlength userlinewidth gnulinewidth div mul mul mul
  Rounded { currentlinewidth 0.75 mul add } if
} def
/hpt_ 31.5 def
/vpt_ 31.5 def
/hpt hpt_ def
/vpt vpt_ def
/doclip {
  ClipToBoundingBox {
    newpath 50 50 moveto 770 50 lineto 770 302 lineto 50 302 lineto closepath
    clip
  } if
} def
%
% Gnuplot Prolog Version 5.1 (Oct 2015)
%
%/SuppressPDFMark true def
%
/M {moveto} bind def
/L {lineto} bind def
/R {rmoveto} bind def
/V {rlineto} bind def
/N {newpath moveto} bind def
/Z {closepath} bind def
/C {setrgbcolor} bind def
/f {rlineto fill} bind def
/g {setgray} bind def
/Gshow {show} def   % May be redefined later in the file to support UTF-8
/vpt2 vpt 2 mul def
/hpt2 hpt 2 mul def
/Lshow {currentpoint stroke M 0 vshift R 
	Blacktext {gsave 0 setgray textshow grestore} {textshow} ifelse} def
/Rshow {currentpoint stroke M dup stringwidth pop neg vshift R
	Blacktext {gsave 0 setgray textshow grestore} {textshow} ifelse} def
/Cshow {currentpoint stroke M dup stringwidth pop -2 div vshift R 
	Blacktext {gsave 0 setgray textshow grestore} {textshow} ifelse} def
/UP {dup vpt_ mul /vpt exch def hpt_ mul /hpt exch def
  /hpt2 hpt 2 mul def /vpt2 vpt 2 mul def} def
/DL {Color {setrgbcolor Solid {pop []} if 0 setdash}
 {pop pop pop 0 setgray Solid {pop []} if 0 setdash} ifelse} def
/BL {stroke userlinewidth 2 mul setlinewidth
	Rounded {1 setlinejoin 1 setlinecap} if} def
/AL {stroke userlinewidth 2 div setlinewidth
	Rounded {1 setlinejoin 1 setlinecap} if} def
/UL {dup gnulinewidth mul /userlinewidth exch def
	dup 1 lt {pop 1} if 10 mul /udl exch def} def
/PL {stroke userlinewidth setlinewidth
	Rounded {1 setlinejoin 1 setlinecap} if} def
3.8 setmiterlimit
% Classic Line colors (version 5.0)
/LCw {1 1 1} def
/LCb {0 0 0} def
/LCa {0 0 0} def
/LC0 {1 0 0} def
/LC1 {0 1 0} def
/LC2 {0 0 1} def
/LC3 {1 0 1} def
/LC4 {0 1 1} def
/LC5 {1 1 0} def
/LC6 {0 0 0} def
/LC7 {1 0.3 0} def
/LC8 {0.5 0.5 0.5} def
% Default dash patterns (version 5.0)
/LTB {BL [] LCb DL} def
/LTw {PL [] 1 setgray} def
/LTb {PL [] LCb DL} def
/LTa {AL [1 udl mul 2 udl mul] 0 setdash LCa setrgbcolor} def
/LT0 {PL [] LC0 DL} def
/LT1 {PL [2 dl1 3 dl2] LC1 DL} def
/LT2 {PL [1 dl1 1.5 dl2] LC2 DL} def
/LT3 {PL [6 dl1 2 dl2 1 dl1 2 dl2] LC3 DL} def
/LT4 {PL [1 dl1 2 dl2 6 dl1 2 dl2 1 dl1 2 dl2] LC4 DL} def
/LT5 {PL [4 dl1 2 dl2] LC5 DL} def
/LT6 {PL [1.5 dl1 1.5 dl2 1.5 dl1 1.5 dl2 1.5 dl1 6 dl2] LC6 DL} def
/LT7 {PL [3 dl1 3 dl2 1 dl1 3 dl2] LC7 DL} def
/LT8 {PL [2 dl1 2 dl2 2 dl1 6 dl2] LC8 DL} def
/SL {[] 0 setdash} def
/Pnt {stroke [] 0 setdash gsave 1 setlinecap M 0 0 V stroke grestore} def
/Dia {stroke [] 0 setdash 2 copy vpt add M
  hpt neg vpt neg V hpt vpt neg V
  hpt vpt V hpt neg vpt V closepath stroke
  Pnt} def
/Pls {stroke [] 0 setdash vpt sub M 0 vpt2 V
  currentpoint stroke M
  hpt neg vpt neg R hpt2 0 V stroke
 } def
/Box {stroke [] 0 setdash 2 copy exch hpt sub exch vpt add M
  0 vpt2 neg V hpt2 0 V 0 vpt2 V
  hpt2 neg 0 V closepath stroke
  Pnt} def
/Crs {stroke [] 0 setdash exch hpt sub exch vpt add M
  hpt2 vpt2 neg V currentpoint stroke M
  hpt2 neg 0 R hpt2 vpt2 V stroke} def
/TriU {stroke [] 0 setdash 2 copy vpt 1.12 mul add M
  hpt neg vpt -1.62 mul V
  hpt 2 mul 0 V
  hpt neg vpt 1.62 mul V closepath stroke
  Pnt} def
/Star {2 copy Pls Crs} def
/BoxF {stroke [] 0 setdash exch hpt sub exch vpt add M
  0 vpt2 neg V hpt2 0 V 0 vpt2 V
  hpt2 neg 0 V closepath fill} def
/TriUF {stroke [] 0 setdash vpt 1.12 mul add M
  hpt neg vpt -1.62 mul V
  hpt 2 mul 0 V
  hpt neg vpt 1.62 mul V closepath fill} def
/TriD {stroke [] 0 setdash 2 copy vpt 1.12 mul sub M
  hpt neg vpt 1.62 mul V
  hpt 2 mul 0 V
  hpt neg vpt -1.62 mul V closepath stroke
  Pnt} def
/TriDF {stroke [] 0 setdash vpt 1.12 mul sub M
  hpt neg vpt 1.62 mul V
  hpt 2 mul 0 V
  hpt neg vpt -1.62 mul V closepath fill} def
/DiaF {stroke [] 0 setdash vpt add M
  hpt neg vpt neg V hpt vpt neg V
  hpt vpt V hpt neg vpt V closepath fill} def
/Pent {stroke [] 0 setdash 2 copy gsave
  translate 0 hpt M 4 {72 rotate 0 hpt L} repeat
  closepath stroke grestore Pnt} def
/PentF {stroke [] 0 setdash gsave
  translate 0 hpt M 4 {72 rotate 0 hpt L} repeat
  closepath fill grestore} def
/Circle {stroke [] 0 setdash 2 copy
  hpt 0 360 arc stroke Pnt} def
/CircleF {stroke [] 0 setdash hpt 0 360 arc fill} def
/C0 {BL [] 0 setdash 2 copy moveto vpt 90 450 arc} bind def
/C1 {BL [] 0 setdash 2 copy moveto
	2 copy vpt 0 90 arc closepath fill
	vpt 0 360 arc closepath} bind def
/C2 {BL [] 0 setdash 2 copy moveto
	2 copy vpt 90 180 arc closepath fill
	vpt 0 360 arc closepath} bind def
/C3 {BL [] 0 setdash 2 copy moveto
	2 copy vpt 0 180 arc closepath fill
	vpt 0 360 arc closepath} bind def
/C4 {BL [] 0 setdash 2 copy moveto
	2 copy vpt 180 270 arc closepath fill
	vpt 0 360 arc closepath} bind def
/C5 {BL [] 0 setdash 2 copy moveto
	2 copy vpt 0 90 arc
	2 copy moveto
	2 copy vpt 180 270 arc closepath fill
	vpt 0 360 arc} bind def
/C6 {BL [] 0 setdash 2 copy moveto
	2 copy vpt 90 270 arc closepath fill
	vpt 0 360 arc closepath} bind def
/C7 {BL [] 0 setdash 2 copy moveto
	2 copy vpt 0 270 arc closepath fill
	vpt 0 360 arc closepath} bind def
/C8 {BL [] 0 setdash 2 copy moveto
	2 copy vpt 270 360 arc closepath fill
	vpt 0 360 arc closepath} bind def
/C9 {BL [] 0 setdash 2 copy moveto
	2 copy vpt 270 450 arc closepath fill
	vpt 0 360 arc closepath} bind def
/C10 {BL [] 0 setdash 2 copy 2 copy moveto vpt 270 360 arc closepath fill
	2 copy moveto
	2 copy vpt 90 180 arc closepath fill
	vpt 0 360 arc closepath} bind def
/C11 {BL [] 0 setdash 2 copy moveto
	2 copy vpt 0 180 arc closepath fill
	2 copy moveto
	2 copy vpt 270 360 arc closepath fill
	vpt 0 360 arc closepath} bind def
/C12 {BL [] 0 setdash 2 copy moveto
	2 copy vpt 180 360 arc closepath fill
	vpt 0 360 arc closepath} bind def
/C13 {BL [] 0 setdash 2 copy moveto
	2 copy vpt 0 90 arc closepath fill
	2 copy moveto
	2 copy vpt 180 360 arc closepath fill
	vpt 0 360 arc closepath} bind def
/C14 {BL [] 0 setdash 2 copy moveto
	2 copy vpt 90 360 arc closepath fill
	vpt 0 360 arc} bind def
/C15 {BL [] 0 setdash 2 copy vpt 0 360 arc closepath fill
	vpt 0 360 arc closepath} bind def
/Rec {newpath 4 2 roll moveto 1 index 0 rlineto 0 exch rlineto
	neg 0 rlineto closepath} bind def
/Square {dup Rec} bind def
/Bsquare {vpt sub exch vpt sub exch vpt2 Square} bind def
/S0 {BL [] 0 setdash 2 copy moveto 0 vpt rlineto BL Bsquare} bind def
/S1 {BL [] 0 setdash 2 copy vpt Square fill Bsquare} bind def
/S2 {BL [] 0 setdash 2 copy exch vpt sub exch vpt Square fill Bsquare} bind def
/S3 {BL [] 0 setdash 2 copy exch vpt sub exch vpt2 vpt Rec fill Bsquare} bind def
/S4 {BL [] 0 setdash 2 copy exch vpt sub exch vpt sub vpt Square fill Bsquare} bind def
/S5 {BL [] 0 setdash 2 copy 2 copy vpt Square fill
	exch vpt sub exch vpt sub vpt Square fill Bsquare} bind def
/S6 {BL [] 0 setdash 2 copy exch vpt sub exch vpt sub vpt vpt2 Rec fill Bsquare} bind def
/S7 {BL [] 0 setdash 2 copy exch vpt sub exch vpt sub vpt vpt2 Rec fill
	2 copy vpt Square fill Bsquare} bind def
/S8 {BL [] 0 setdash 2 copy vpt sub vpt Square fill Bsquare} bind def
/S9 {BL [] 0 setdash 2 copy vpt sub vpt vpt2 Rec fill Bsquare} bind def
/S10 {BL [] 0 setdash 2 copy vpt sub vpt Square fill 2 copy exch vpt sub exch vpt Square fill
	Bsquare} bind def
/S11 {BL [] 0 setdash 2 copy vpt sub vpt Square fill 2 copy exch vpt sub exch vpt2 vpt Rec fill
	Bsquare} bind def
/S12 {BL [] 0 setdash 2 copy exch vpt sub exch vpt sub vpt2 vpt Rec fill Bsquare} bind def
/S13 {BL [] 0 setdash 2 copy exch vpt sub exch vpt sub vpt2 vpt Rec fill
	2 copy vpt Square fill Bsquare} bind def
/S14 {BL [] 0 setdash 2 copy exch vpt sub exch vpt sub vpt2 vpt Rec fill
	2 copy exch vpt sub exch vpt Square fill Bsquare} bind def
/S15 {BL [] 0 setdash 2 copy Bsquare fill Bsquare} bind def
/D0 {gsave translate 45 rotate 0 0 S0 stroke grestore} bind def
/D1 {gsave translate 45 rotate 0 0 S1 stroke grestore} bind def
/D2 {gsave translate 45 rotate 0 0 S2 stroke grestore} bind def
/D3 {gsave translate 45 rotate 0 0 S3 stroke grestore} bind def
/D4 {gsave translate 45 rotate 0 0 S4 stroke grestore} bind def
/D5 {gsave translate 45 rotate 0 0 S5 stroke grestore} bind def
/D6 {gsave translate 45 rotate 0 0 S6 stroke grestore} bind def
/D7 {gsave translate 45 rotate 0 0 S7 stroke grestore} bind def
/D8 {gsave translate 45 rotate 0 0 S8 stroke grestore} bind def
/D9 {gsave translate 45 rotate 0 0 S9 stroke grestore} bind def
/D10 {gsave translate 45 rotate 0 0 S10 stroke grestore} bind def
/D11 {gsave translate 45 rotate 0 0 S11 stroke grestore} bind def
/D12 {gsave translate 45 rotate 0 0 S12 stroke grestore} bind def
/D13 {gsave translate 45 rotate 0 0 S13 stroke grestore} bind def
/D14 {gsave translate 45 rotate 0 0 S14 stroke grestore} bind def
/D15 {gsave translate 45 rotate 0 0 S15 stroke grestore} bind def
/DiaE {stroke [] 0 setdash vpt add M
  hpt neg vpt neg V hpt vpt neg V
  hpt vpt V hpt neg vpt V closepath stroke} def
/BoxE {stroke [] 0 setdash exch hpt sub exch vpt add M
  0 vpt2 neg V hpt2 0 V 0 vpt2 V
  hpt2 neg 0 V closepath stroke} def
/TriUE {stroke [] 0 setdash vpt 1.12 mul add M
  hpt neg vpt -1.62 mul V
  hpt 2 mul 0 V
  hpt neg vpt 1.62 mul V closepath stroke} def
/TriDE {stroke [] 0 setdash vpt 1.12 mul sub M
  hpt neg vpt 1.62 mul V
  hpt 2 mul 0 V
  hpt neg vpt -1.62 mul V closepath stroke} def
/PentE {stroke [] 0 setdash gsave
  translate 0 hpt M 4 {72 rotate 0 hpt L} repeat
  closepath stroke grestore} def
/CircE {stroke [] 0 setdash 
  hpt 0 360 arc stroke} def
/Opaque {gsave closepath 1 setgray fill grestore 0 setgray closepath} def
/DiaW {stroke [] 0 setdash vpt add M
  hpt neg vpt neg V hpt vpt neg V
  hpt vpt V hpt neg vpt V Opaque stroke} def
/BoxW {stroke [] 0 setdash exch hpt sub exch vpt add M
  0 vpt2 neg V hpt2 0 V 0 vpt2 V
  hpt2 neg 0 V Opaque stroke} def
/TriUW {stroke [] 0 setdash vpt 1.12 mul add M
  hpt neg vpt -1.62 mul V
  hpt 2 mul 0 V
  hpt neg vpt 1.62 mul V Opaque stroke} def
/TriDW {stroke [] 0 setdash vpt 1.12 mul sub M
  hpt neg vpt 1.62 mul V
  hpt 2 mul 0 V
  hpt neg vpt -1.62 mul V Opaque stroke} def
/PentW {stroke [] 0 setdash gsave
  translate 0 hpt M 4 {72 rotate 0 hpt L} repeat
  Opaque stroke grestore} def
/CircW {stroke [] 0 setdash 
  hpt 0 360 arc Opaque stroke} def
/BoxFill {gsave Rec 1 setgray fill grestore} def
/Density {
  /Fillden exch def
  currentrgbcolor
  /ColB exch def /ColG exch def /ColR exch def
  /ColR ColR Fillden mul Fillden sub 1 add def
  /ColG ColG Fillden mul Fillden sub 1 add def
  /ColB ColB Fillden mul Fillden sub 1 add def
  ColR ColG ColB setrgbcolor} def
/BoxColFill {gsave Rec PolyFill} def
/PolyFill {gsave Density fill grestore grestore} def
/h {rlineto rlineto rlineto gsave closepath fill grestore} bind def
%
% PostScript Level 1 Pattern Fill routine for rectangles
% Usage: x y w h s a XX PatternFill
%	x,y = lower left corner of box to be filled
%	w,h = width and height of box
%	  a = angle in degrees between lines and x-axis
%	 XX = 0/1 for no/yes cross-hatch
%
/PatternFill {gsave /PFa [ 9 2 roll ] def
  PFa 0 get PFa 2 get 2 div add PFa 1 get PFa 3 get 2 div add translate
  PFa 2 get -2 div PFa 3 get -2 div PFa 2 get PFa 3 get Rec
  TransparentPatterns {} {gsave 1 setgray fill grestore} ifelse
  clip
  currentlinewidth 0.5 mul setlinewidth
  /PFs PFa 2 get dup mul PFa 3 get dup mul add sqrt def
  0 0 M PFa 5 get rotate PFs -2 div dup translate
  0 1 PFs PFa 4 get div 1 add floor cvi
	{PFa 4 get mul 0 M 0 PFs V} for
  0 PFa 6 get ne {
	0 1 PFs PFa 4 get div 1 add floor cvi
	{PFa 4 get mul 0 2 1 roll M PFs 0 V} for
 } if
  stroke grestore} def
%
/languagelevel where
 {pop languagelevel} {1} ifelse
dup 2 lt
	{/InterpretLevel1 true def
	 /InterpretLevel3 false def}
	{/InterpretLevel1 Level1 def
	 2 gt
	    {/InterpretLevel3 Level3 def}
	    {/InterpretLevel3 false def}
	 ifelse }
 ifelse
%
% PostScript level 2 pattern fill definitions
%
/Level2PatternFill {
/Tile8x8 {/PaintType 2 /PatternType 1 /TilingType 1 /BBox [0 0 8 8] /XStep 8 /YStep 8}
	bind def
/KeepColor {currentrgbcolor [/Pattern /DeviceRGB] setcolorspace} bind def
<< Tile8x8
 /PaintProc {0.5 setlinewidth pop 0 0 M 8 8 L 0 8 M 8 0 L stroke} 
>> matrix makepattern
/Pat1 exch def
<< Tile8x8
 /PaintProc {0.5 setlinewidth pop 0 0 M 8 8 L 0 8 M 8 0 L stroke
	0 4 M 4 8 L 8 4 L 4 0 L 0 4 L stroke}
>> matrix makepattern
/Pat2 exch def
<< Tile8x8
 /PaintProc {0.5 setlinewidth pop 0 0 M 0 8 L
	8 8 L 8 0 L 0 0 L fill}
>> matrix makepattern
/Pat3 exch def
<< Tile8x8
 /PaintProc {0.5 setlinewidth pop -4 8 M 8 -4 L
	0 12 M 12 0 L stroke}
>> matrix makepattern
/Pat4 exch def
<< Tile8x8
 /PaintProc {0.5 setlinewidth pop -4 0 M 8 12 L
	0 -4 M 12 8 L stroke}
>> matrix makepattern
/Pat5 exch def
<< Tile8x8
 /PaintProc {0.5 setlinewidth pop -2 8 M 4 -4 L
	0 12 M 8 -4 L 4 12 M 10 0 L stroke}
>> matrix makepattern
/Pat6 exch def
<< Tile8x8
 /PaintProc {0.5 setlinewidth pop -2 0 M 4 12 L
	0 -4 M 8 12 L 4 -4 M 10 8 L stroke}
>> matrix makepattern
/Pat7 exch def
<< Tile8x8
 /PaintProc {0.5 setlinewidth pop 8 -2 M -4 4 L
	12 0 M -4 8 L 12 4 M 0 10 L stroke}
>> matrix makepattern
/Pat8 exch def
<< Tile8x8
 /PaintProc {0.5 setlinewidth pop 0 -2 M 12 4 L
	-4 0 M 12 8 L -4 4 M 8 10 L stroke}
>> matrix makepattern
/Pat9 exch def
/Pattern1 {PatternBgnd KeepColor Pat1 setpattern} bind def
/Pattern2 {PatternBgnd KeepColor Pat2 setpattern} bind def
/Pattern3 {PatternBgnd KeepColor Pat3 setpattern} bind def
/Pattern4 {PatternBgnd KeepColor Landscape {Pat5} {Pat4} ifelse setpattern} bind def
/Pattern5 {PatternBgnd KeepColor Landscape {Pat4} {Pat5} ifelse setpattern} bind def
/Pattern6 {PatternBgnd KeepColor Landscape {Pat9} {Pat6} ifelse setpattern} bind def
/Pattern7 {PatternBgnd KeepColor Landscape {Pat8} {Pat7} ifelse setpattern} bind def
} def
%
%
%End of PostScript Level 2 code
%
/PatternBgnd {
  TransparentPatterns {} {gsave 1 setgray fill grestore} ifelse
} def
%
% Substitute for Level 2 pattern fill codes with
% grayscale if Level 2 support is not selected.
%
/Level1PatternFill {
/Pattern1 {0.250 Density} bind def
/Pattern2 {0.500 Density} bind def
/Pattern3 {0.750 Density} bind def
/Pattern4 {0.125 Density} bind def
/Pattern5 {0.375 Density} bind def
/Pattern6 {0.625 Density} bind def
/Pattern7 {0.875 Density} bind def
} def
%
% Now test for support of Level 2 code
%
Level1 {Level1PatternFill} {Level2PatternFill} ifelse
%
/Symbol-Oblique /Symbol findfont [1 0 .167 1 0 0] makefont
dup length dict begin {1 index /FID eq {pop pop} {def} ifelse} forall
currentdict end definefont pop
%
/MFshow {
   { dup 5 get 3 ge
     { 5 get 3 eq {gsave} {grestore} ifelse }
     {dup dup 0 get findfont exch 1 get scalefont setfont
     [ currentpoint ] exch dup 2 get 0 exch R dup 5 get 2 ne {dup dup 6
     get exch 4 get {textshow} {stringwidth pop 0 R} ifelse }if dup 5 get 0 eq
     {dup 3 get {2 get neg 0 exch R pop} {pop aload pop M} ifelse} {dup 5
     get 1 eq {dup 2 get exch dup 3 get exch 6 get stringwidth pop -2 div
     dup 0 R} {dup 6 get stringwidth pop -2 div 0 R 6 get
     textshow 2 index {aload pop M neg 3 -1 roll neg R pop pop} {pop pop pop
     pop aload pop M} ifelse }ifelse }ifelse }
     ifelse }
   forall} def
/Gswidth {dup type /stringtype eq {stringwidth} {pop (n) stringwidth} ifelse} def
/MFwidth {0 exch { dup 5 get 3 ge { 5 get 3 eq { 0 } { pop } ifelse }
 {dup 3 get{dup dup 0 get findfont exch 1 get scalefont setfont
     6 get Gswidth pop add} {pop} ifelse} ifelse} forall} def
/MLshow { currentpoint stroke M
  0 exch R
  Blacktext {gsave 0 setgray MFshow grestore} {MFshow} ifelse } bind def
/MRshow { currentpoint stroke M
  exch dup MFwidth neg 3 -1 roll R
  Blacktext {gsave 0 setgray MFshow grestore} {MFshow} ifelse } bind def
/MCshow { currentpoint stroke M
  exch dup MFwidth -2 div 3 -1 roll R
  Blacktext {gsave 0 setgray MFshow grestore} {MFshow} ifelse } bind def
/XYsave    { [( ) 1 2 true false 3 ()] } bind def
/XYrestore { [( ) 1 2 true false 4 ()] } bind def
Level1 SuppressPDFMark or 
{} {
/SDict 10 dict def
systemdict /pdfmark known not {
  userdict /pdfmark systemdict /cleartomark get put
} if
SDict begin [
  /Title (TcpWestwood-download-finishtime-50UE-250-400.eps)
  /Subject (gnuplot plot)
  /Creator (gnuplot 5.0 patchlevel 3)
  /Author (nat)
%  /Producer (gnuplot)
%  /Keywords ()
  /CreationDate (Thu May 19 16:44:21 2016)
  /DOCINFO pdfmark
end
} ifelse
%
% Support for boxed text - Ethan A Merritt May 2005
%
/InitTextBox { userdict /TBy2 3 -1 roll put userdict /TBx2 3 -1 roll put
           userdict /TBy1 3 -1 roll put userdict /TBx1 3 -1 roll put
	   /Boxing true def } def
/ExtendTextBox { Boxing
    { gsave dup false charpath pathbbox
      dup TBy2 gt {userdict /TBy2 3 -1 roll put} {pop} ifelse
      dup TBx2 gt {userdict /TBx2 3 -1 roll put} {pop} ifelse
      dup TBy1 lt {userdict /TBy1 3 -1 roll put} {pop} ifelse
      dup TBx1 lt {userdict /TBx1 3 -1 roll put} {pop} ifelse
      grestore } if } def
/PopTextBox { newpath TBx1 TBxmargin sub TBy1 TBymargin sub M
               TBx1 TBxmargin sub TBy2 TBymargin add L
	       TBx2 TBxmargin add TBy2 TBymargin add L
	       TBx2 TBxmargin add TBy1 TBymargin sub L closepath } def
/DrawTextBox { PopTextBox stroke /Boxing false def} def
/FillTextBox { gsave PopTextBox 1 1 1 setrgbcolor fill grestore /Boxing false def} def
0 0 0 0 InitTextBox
/TBxmargin 20 def
/TBymargin 20 def
/Boxing false def
/textshow { ExtendTextBox Gshow } def
%
% redundant definitions for compatibility with prologue.ps older than 5.0.2
/LTB {BL [] LCb DL} def
/LTb {PL [] LCb DL} def
end
%%EndProlog
%%Page: 1 1
gnudict begin
gsave
doclip
50 50 translate
0.050 0.050 scale
0 setgray
newpath
(Arial) findfont 200 scalefont setfont
BackgroundColor 0 lt 3 1 roll 0 lt exch 0 lt or or not {BackgroundColor C 1.000 0 0 14400.00 5040.00 BoxColFill} if
1.000 UL
LTb
0.00 0.00 0.00 C 0.500 UL
LTa
0.50 0.50 0.50 C 980 1000 M
12139 0 V
stroke
1.000 UL
LTb
0.00 0.00 0.00 C 980 1000 M
63 0 V
stroke
860 1000 M
[ [(Arial) 200.0 0.0 true true 0 ( 0)]
] -66.7 MRshow
1.000 UL
LTb
0.00 0.00 0.00 C 0.500 UL
LTa
0.50 0.50 0.50 C 980 1760 M
12139 0 V
stroke
1.000 UL
LTb
0.00 0.00 0.00 C 980 1760 M
63 0 V
stroke
860 1760 M
[ [(Arial) 200.0 0.0 true true 0 ( 50)]
] -66.7 MRshow
1.000 UL
LTb
0.00 0.00 0.00 C 0.500 UL
LTa
0.50 0.50 0.50 C 980 2520 M
12139 0 V
stroke
1.000 UL
LTb
0.00 0.00 0.00 C 980 2520 M
63 0 V
stroke
860 2520 M
[ [(Arial) 200.0 0.0 true true 0 ( 100)]
] -66.7 MRshow
1.000 UL
LTb
0.00 0.00 0.00 C 0.500 UL
LTa
0.50 0.50 0.50 C 980 3279 M
12139 0 V
stroke
1.000 UL
LTb
0.00 0.00 0.00 C 980 3279 M
63 0 V
stroke
860 3279 M
[ [(Arial) 200.0 0.0 true true 0 ( 150)]
] -66.7 MRshow
1.000 UL
LTb
0.00 0.00 0.00 C 0.500 UL
LTa
0.50 0.50 0.50 C 980 4039 M
12139 0 V
stroke
1.000 UL
LTb
0.00 0.00 0.00 C 980 4039 M
63 0 V
stroke
860 4039 M
[ [(Arial) 200.0 0.0 true true 0 ( 200)]
] -66.7 MRshow
1.000 UL
LTb
0.00 0.00 0.00 C 0.500 UL
LTa
0.50 0.50 0.50 C 980 4799 M
12139 0 V
stroke
1.000 UL
LTb
0.00 0.00 0.00 C 980 4799 M
63 0 V
stroke
860 4799 M
[ [(Arial) 200.0 0.0 true true 0 ( 250)]
] -66.7 MRshow
1.000 UL
LTb
0.00 0.00 0.00 C 0.500 UL
LTa
0.50 0.50 0.50 C 1359 1000 M
0 3799 V
stroke
1.000 UL
LTb
0.00 0.00 0.00 C 1359 1000 M
0 63 V
0 3736 R
0 -63 V
stroke
1359 800 M
[ [(Arial) 200.0 0.0 true true 0 ( 750)]
] -66.7 MCshow
1.000 UL
LTb
0.00 0.00 0.00 C 0.500 UL
LTa
0.50 0.50 0.50 C 2118 1000 M
0 3799 V
stroke
1.000 UL
LTb
0.00 0.00 0.00 C 2118 1000 M
0 63 V
0 3736 R
0 -63 V
stroke
2118 800 M
[ [(Arial) 200.0 0.0 true true 0 ( 780)]
] -66.7 MCshow
1.000 UL
LTb
0.00 0.00 0.00 C 0.500 UL
LTa
0.50 0.50 0.50 C 2877 1000 M
0 3799 V
stroke
1.000 UL
LTb
0.00 0.00 0.00 C 2877 1000 M
0 63 V
0 3736 R
0 -63 V
stroke
2877 800 M
[ [(Arial) 200.0 0.0 true true 0 ( 810)]
] -66.7 MCshow
1.000 UL
LTb
0.00 0.00 0.00 C 0.500 UL
LTa
0.50 0.50 0.50 C 3635 1000 M
0 3799 V
stroke
1.000 UL
LTb
0.00 0.00 0.00 C 3635 1000 M
0 63 V
0 3736 R
0 -63 V
stroke
3635 800 M
[ [(Arial) 200.0 0.0 true true 0 ( 840)]
] -66.7 MCshow
1.000 UL
LTb
0.00 0.00 0.00 C 0.500 UL
LTa
0.50 0.50 0.50 C 4394 1000 M
0 3799 V
stroke
1.000 UL
LTb
0.00 0.00 0.00 C 4394 1000 M
0 63 V
0 3736 R
0 -63 V
stroke
4394 800 M
[ [(Arial) 200.0 0.0 true true 0 ( 870)]
] -66.7 MCshow
1.000 UL
LTb
0.00 0.00 0.00 C 0.500 UL
LTa
0.50 0.50 0.50 C 5153 1000 M
0 3799 V
stroke
1.000 UL
LTb
0.00 0.00 0.00 C 5153 1000 M
0 63 V
0 3736 R
0 -63 V
stroke
5153 800 M
[ [(Arial) 200.0 0.0 true true 0 ( 900)]
] -66.7 MCshow
1.000 UL
LTb
0.00 0.00 0.00 C 0.500 UL
LTa
0.50 0.50 0.50 C 5911 1000 M
0 3799 V
stroke
1.000 UL
LTb
0.00 0.00 0.00 C 5911 1000 M
0 63 V
0 3736 R
0 -63 V
stroke
5911 800 M
[ [(Arial) 200.0 0.0 true true 0 ( 930)]
] -66.7 MCshow
1.000 UL
LTb
0.00 0.00 0.00 C 0.500 UL
LTa
0.50 0.50 0.50 C 6670 1000 M
0 3799 V
stroke
1.000 UL
LTb
0.00 0.00 0.00 C 6670 1000 M
0 63 V
0 3736 R
0 -63 V
stroke
6670 800 M
[ [(Arial) 200.0 0.0 true true 0 ( 960)]
] -66.7 MCshow
1.000 UL
LTb
0.00 0.00 0.00 C 0.500 UL
LTa
0.50 0.50 0.50 C 7429 1000 M
0 3799 V
stroke
1.000 UL
LTb
0.00 0.00 0.00 C 7429 1000 M
0 63 V
0 3736 R
0 -63 V
stroke
7429 800 M
[ [(Arial) 200.0 0.0 true true 0 ( 990)]
] -66.7 MCshow
1.000 UL
LTb
0.00 0.00 0.00 C 0.500 UL
LTa
0.50 0.50 0.50 C 8188 1000 M
0 3799 V
stroke
1.000 UL
LTb
0.00 0.00 0.00 C 8188 1000 M
0 63 V
0 3736 R
0 -63 V
stroke
8188 800 M
[ [(Arial) 200.0 0.0 true true 0 ( 1020)]
] -66.7 MCshow
1.000 UL
LTb
0.00 0.00 0.00 C 0.500 UL
LTa
0.50 0.50 0.50 C 8946 1000 M
0 3799 V
stroke
1.000 UL
LTb
0.00 0.00 0.00 C 8946 1000 M
0 63 V
0 3736 R
0 -63 V
stroke
8946 800 M
[ [(Arial) 200.0 0.0 true true 0 ( 1050)]
] -66.7 MCshow
1.000 UL
LTb
0.00 0.00 0.00 C 0.500 UL
LTa
0.50 0.50 0.50 C 9705 1000 M
0 3799 V
stroke
1.000 UL
LTb
0.00 0.00 0.00 C 9705 1000 M
0 63 V
0 3736 R
0 -63 V
stroke
9705 800 M
[ [(Arial) 200.0 0.0 true true 0 ( 1080)]
] -66.7 MCshow
1.000 UL
LTb
0.00 0.00 0.00 C 0.500 UL
LTa
0.50 0.50 0.50 C 10464 1000 M
0 3799 V
stroke
1.000 UL
LTb
0.00 0.00 0.00 C 10464 1000 M
0 63 V
0 3736 R
0 -63 V
stroke
10464 800 M
[ [(Arial) 200.0 0.0 true true 0 ( 1110)]
] -66.7 MCshow
1.000 UL
LTb
0.00 0.00 0.00 C 0.500 UL
LTa
0.50 0.50 0.50 C 11222 1000 M
0 3799 V
stroke
1.000 UL
LTb
0.00 0.00 0.00 C 11222 1000 M
0 63 V
0 3736 R
0 -63 V
stroke
11222 800 M
[ [(Arial) 200.0 0.0 true true 0 ( 1140)]
] -66.7 MCshow
1.000 UL
LTb
0.00 0.00 0.00 C 0.500 UL
LTa
0.50 0.50 0.50 C 11981 1000 M
0 3799 V
stroke
1.000 UL
LTb
0.00 0.00 0.00 C 11981 1000 M
0 63 V
0 3736 R
0 -63 V
stroke
11981 800 M
[ [(Arial) 200.0 0.0 true true 0 ( 1170)]
] -66.7 MCshow
1.000 UL
LTb
0.00 0.00 0.00 C 0.500 UL
LTa
0.50 0.50 0.50 C 12740 1000 M
0 3799 V
stroke
1.000 UL
LTb
0.00 0.00 0.00 C 12740 1000 M
0 63 V
0 3736 R
0 -63 V
stroke
12740 800 M
[ [(Arial) 200.0 0.0 true true 0 ( 1200)]
] -66.7 MCshow
1.000 UL
LTb
0.00 0.00 0.00 C 13119 1000 M
-63 0 V
stroke
13239 1000 M
[ [(Arial) 200.0 0.0 true true 0 ( 0)]
] -66.7 MLshow
1.000 UL
LTb
0.00 0.00 0.00 C 13119 1760 M
-63 0 V
stroke
13239 1760 M
[ [(Arial) 200.0 0.0 true true 0 ( 20)]
] -66.7 MLshow
1.000 UL
LTb
0.00 0.00 0.00 C 13119 2520 M
-63 0 V
stroke
13239 2520 M
[ [(Arial) 200.0 0.0 true true 0 ( 40)]
] -66.7 MLshow
1.000 UL
LTb
0.00 0.00 0.00 C 13119 3279 M
-63 0 V
stroke
13239 3279 M
[ [(Arial) 200.0 0.0 true true 0 ( 60)]
] -66.7 MLshow
1.000 UL
LTb
0.00 0.00 0.00 C 13119 4039 M
-63 0 V
stroke
13239 4039 M
[ [(Arial) 200.0 0.0 true true 0 ( 80)]
] -66.7 MLshow
1.000 UL
LTb
0.00 0.00 0.00 C 13119 4799 M
-63 0 V
stroke
13239 4799 M
[ [(Arial) 200.0 0.0 true true 0 ( 100)]
] -66.7 MLshow
1.000 UL
LTb
0.00 0.00 0.00 C 1.000 UL
LTB
0.00 0.00 0.00 C 980 4799 M
0 -3799 V
12139 0 V
0 3799 R
980 4799 M
1.000 UP
stroke
LTb
0.00 0.00 0.00 C LCb setrgbcolor
160 2899 M
currentpoint gsave translate -270 rotate 0 0 moveto
[ [(Arial) 200.0 0.0 true true 0 (File download time \(s\))]
] -66.7 MCshow
grestore
LTb
LCb setrgbcolor
13938 2899 M
currentpoint gsave translate -270 rotate 0 0 moveto
[ [(Arial) 200.0 0.0 true true 0 (Average UDP throughput [%])]
] -66.7 MCshow
grestore
LTb
LCb setrgbcolor
7049 500 M
[ [(Arial) 200.0 0.0 true true 0 (Local Backhaul traffic \(Mb/s\))]
] -66.7 MCshow
LTb
% Begin plot #1
1.000 UL
LTb
0.60 0.60 0.00 C LCb setrgbcolor
4714 333 M
[ [(Arial) 180.0 0.0 true true 0 (file download time    :   olsr)]
] -60.0 MRshow
1.000 UL
LTb
0.60 0.60 0.00 C 4822 288 333 90 80 -45 0 PatternFill
4822 288 N
333 0 V
0 90 V
-333 0 V
0 -90 V
Z stroke
1.000 UL
LTb
0.60 0.60 0.00 C 1094 1262 152 212 80 -45 0 PatternFill
1170 1097 M
0 165 V
0 212 R
0 529 V
stroke
1094 1262 N
152 0 V
0 212 V
-152 0 V
0 -212 V
Z stroke
1094 2003 M
152 0 V
1094 1097 M
152 0 V
stroke
1852 1265 152 203 80 -45 0 PatternFill
1928 1098 M
0 167 V
0 203 R
0 375 V
stroke
1852 1265 N
152 0 V
0 203 V
-152 0 V
0 -203 V
Z stroke
1852 1843 M
152 0 V
1852 1098 M
152 0 V
stroke
2611 1254 152 221 80 -45 0 PatternFill
2687 1105 M
0 149 V
0 221 R
0 549 V
stroke
2611 1254 N
152 0 V
0 221 V
-152 0 V
0 -221 V
Z stroke
2611 2024 M
152 0 V
2611 1105 M
152 0 V
stroke
3370 1255 152 220 80 -45 0 PatternFill
3446 1128 M
0 127 V
0 220 R
0 431 V
stroke
3370 1255 N
152 0 V
0 220 V
-152 0 V
0 -220 V
Z stroke
3370 1906 M
152 0 V
3370 1128 M
152 0 V
stroke
4129 1246 152 242 80 -45 0 PatternFill
4205 1127 M
0 119 V
0 242 R
0 510 V
stroke
4129 1246 N
152 0 V
0 242 V
-152 0 V
0 -242 V
Z stroke
4129 1998 M
152 0 V
4129 1127 M
152 0 V
stroke
4887 1246 152 236 80 -45 0 PatternFill
4963 1095 M
0 151 V
0 236 R
0 430 V
stroke
4887 1246 N
152 0 V
0 236 V
-152 0 V
0 -236 V
Z stroke
4887 1912 M
152 0 V
4887 1095 M
152 0 V
stroke
5646 1244 152 234 80 -45 0 PatternFill
5722 1104 M
0 140 V
0 234 R
0 532 V
stroke
5646 1244 N
152 0 V
0 234 V
-152 0 V
0 -234 V
Z stroke
5646 2010 M
152 0 V
5646 1104 M
152 0 V
stroke
6405 1243 152 236 80 -45 0 PatternFill
6481 1102 M
0 141 V
0 236 R
0 425 V
stroke
6405 1243 N
152 0 V
0 236 V
-152 0 V
0 -236 V
Z stroke
6405 1904 M
152 0 V
6405 1102 M
152 0 V
stroke
7163 1239 152 223 80 -45 0 PatternFill
7239 1112 M
0 127 V
0 223 R
0 385 V
stroke
7163 1239 N
152 0 V
0 223 V
-152 0 V
0 -223 V
Z stroke
7163 1847 M
152 0 V
7163 1112 M
152 0 V
stroke
7922 1275 152 193 80 -45 0 PatternFill
7998 1108 M
0 167 V
0 193 R
0 594 V
stroke
7922 1275 N
152 0 V
0 193 V
-152 0 V
0 -193 V
Z stroke
7922 2062 M
152 0 V
7922 1108 M
152 0 V
stroke
8681 1251 152 209 80 -45 0 PatternFill
8757 1134 M
0 117 V
0 209 R
0 323 V
stroke
8681 1251 N
152 0 V
0 209 V
-152 0 V
0 -209 V
Z stroke
8681 1783 M
152 0 V
8681 1134 M
152 0 V
stroke
9439 1297 152 180 80 -45 0 PatternFill
9515 1107 M
0 190 V
0 180 R
0 521 V
stroke
9439 1297 N
152 0 V
0 180 V
-152 0 V
0 -180 V
Z stroke
9439 1998 M
152 0 V
9439 1107 M
152 0 V
stroke
10198 1259 152 202 80 -45 0 PatternFill
10274 1093 M
0 166 V
0 202 R
0 634 V
stroke
10198 1259 N
152 0 V
0 202 V
-152 0 V
0 -202 V
Z stroke
10198 2095 M
152 0 V
10198 1093 M
152 0 V
stroke
10957 1271 152 202 80 -45 0 PatternFill
11033 1092 M
0 179 V
0 202 R
0 297 V
stroke
10957 1271 N
152 0 V
0 202 V
-152 0 V
0 -202 V
Z stroke
10957 1770 M
152 0 V
-152 -678 R
152 0 V
stroke
11715 1282 152 198 80 -45 0 PatternFill
11791 1093 M
0 189 V
0 198 R
0 484 V
stroke
11715 1282 N
152 0 V
0 198 V
-152 0 V
0 -198 V
Z stroke
11715 1964 M
152 0 V
-152 -871 R
152 0 V
stroke
12474 1255 152 208 80 -45 0 PatternFill
12550 1112 M
0 143 V
0 208 R
0 378 V
stroke
12474 1255 N
152 0 V
0 208 V
-152 0 V
0 -208 V
Z stroke
12474 1841 M
152 0 V
-152 -729 R
152 0 V
% End plot #1
% Begin plot #2
stroke
LTb
LCb setrgbcolor

 /TransparentPatterns true def
1094 1368 152 0 40 30 0 PatternFill
1170 1368 M
stroke
1094 1368 N
152 0 V
-152 0 V
Z stroke
1094 1368 M
152 0 V
-152 0 R
152 0 V
stroke

 /TransparentPatterns true def
1852 1369 152 0 40 30 0 PatternFill
1928 1369 M
stroke
1852 1369 N
152 0 V
-152 0 V
Z stroke
1852 1369 M
152 0 V
-152 0 R
152 0 V
stroke

 /TransparentPatterns true def
2611 1378 152 0 40 30 0 PatternFill
2687 1378 M
stroke
2611 1378 N
152 0 V
-152 0 V
Z stroke
2611 1378 M
152 0 V
-152 0 R
152 0 V
stroke

 /TransparentPatterns true def
3370 1359 152 0 40 30 0 PatternFill
3446 1359 M
stroke
3370 1359 N
152 0 V
-152 0 V
Z stroke
3370 1359 M
152 0 V
-152 0 R
152 0 V
stroke

 /TransparentPatterns true def
4129 1379 152 0 40 30 0 PatternFill
4205 1379 M
stroke
4129 1379 N
152 0 V
-152 0 V
Z stroke
4129 1379 M
152 0 V
-152 0 R
152 0 V
stroke

 /TransparentPatterns true def
4887 1372 152 0 40 30 0 PatternFill
4963 1372 M
stroke
4887 1372 N
152 0 V
-152 0 V
Z stroke
4887 1372 M
152 0 V
-152 0 R
152 0 V
stroke

 /TransparentPatterns true def
5646 1380 152 0 40 30 0 PatternFill
5722 1380 M
stroke
5646 1380 N
152 0 V
-152 0 V
Z stroke
5646 1380 M
152 0 V
-152 0 R
152 0 V
stroke

 /TransparentPatterns true def
6405 1365 152 0 40 30 0 PatternFill
6481 1365 M
stroke
6405 1365 N
152 0 V
-152 0 V
Z stroke
6405 1365 M
152 0 V
-152 0 R
152 0 V
stroke

 /TransparentPatterns true def
7163 1363 152 0 40 30 0 PatternFill
7239 1363 M
stroke
7163 1363 N
152 0 V
-152 0 V
Z stroke
7163 1363 M
152 0 V
-152 0 R
152 0 V
stroke

 /TransparentPatterns true def
7922 1375 152 0 40 30 0 PatternFill
7998 1375 M
stroke
7922 1375 N
152 0 V
-152 0 V
Z stroke
7922 1375 M
152 0 V
-152 0 R
152 0 V
stroke

 /TransparentPatterns true def
8681 1366 152 0 40 30 0 PatternFill
8757 1366 M
stroke
8681 1366 N
152 0 V
-152 0 V
Z stroke
8681 1366 M
152 0 V
-152 0 R
152 0 V
stroke

 /TransparentPatterns true def
9439 1385 152 0 40 30 0 PatternFill
9515 1385 M
stroke
9439 1385 N
152 0 V
-152 0 V
Z stroke
9439 1385 M
152 0 V
-152 0 R
152 0 V
stroke

 /TransparentPatterns true def
10198 1369 152 0 40 30 0 PatternFill
10274 1369 M
stroke
10198 1369 N
152 0 V
-152 0 V
Z stroke
10198 1369 M
152 0 V
-152 0 R
152 0 V
stroke

 /TransparentPatterns true def
10957 1369 152 0 40 30 0 PatternFill
11033 1369 M
stroke
10957 1369 N
152 0 V
-152 0 V
Z stroke
10957 1369 M
152 0 V
-152 0 R
152 0 V
stroke

 /TransparentPatterns true def
11715 1373 152 0 40 30 0 PatternFill
11791 1373 M
stroke
11715 1373 N
152 0 V
-152 0 V
Z stroke
11715 1373 M
152 0 V
-152 0 R
152 0 V
stroke

 /TransparentPatterns true def
12474 1368 152 0 40 30 0 PatternFill
12550 1368 M
stroke
12474 1368 N
152 0 V
-152 0 V
Z stroke
12474 1368 M
152 0 V
-152 0 R
152 0 V
% End plot #2
% Begin plot #3
2.000 UP
stroke
LTa
0.60 0.60 0.00 C LCb setrgbcolor
4714 153 M
[ [(Arial) 180.0 0.0 true true 0 (avg. throughput :         )]
] -60.0 MRshow
2.000 UP
1.000 UL
LTa
0.60 0.60 0.00 C 4822 153 M
333 0 V
980 4271 M
190 11 V
758 -81 V
759 96 V
759 -60 V
758 46 V
759 -46 V
759 52 V
758 -53 V
759 -34 V
759 106 V
759 -146 V
758 120 V
759 45 V
759 -176 V
758 117 V
759 -66 V
1170 4282 Box
1928 4201 Box
2687 4297 Box
3446 4237 Box
4204 4283 Box
4963 4237 Box
5722 4289 Box
6480 4236 Box
7239 4202 Box
7998 4308 Box
8757 4162 Box
9515 4282 Box
10274 4327 Box
11033 4151 Box
11791 4268 Box
12550 4202 Box
4988 153 Box
% End plot #3
% Begin plot #4
1.000 UL
LTb
0.00 0.00 0.63 C LCb setrgbcolor
8287 333 M
[ [(Arial) 180.0 0.0 true true 0 (per-packet)]
] -60.0 MRshow
1.000 UL
LTb
0.00 0.00 0.63 C 8395 288 333 90 80 45 0 PatternFill
8395 288 N
333 0 V
0 90 V
-333 0 V
0 -90 V
Z stroke
1.000 UL
LTb
0.00 0.00 0.63 C 1283 1179 152 955 80 45 0 PatternFill
1359 1090 M
0 89 V
0 955 R
0 318 V
stroke
1283 1179 N
152 0 V
0 955 V
-152 0 V
0 -955 V
Z stroke
1283 2452 M
152 0 V
1283 1090 M
152 0 V
stroke
2042 1169 152 926 80 45 0 PatternFill
2118 1068 M
0 101 V
0 926 R
0 372 V
stroke
2042 1169 N
152 0 V
0 926 V
-152 0 V
0 -926 V
Z stroke
2042 2467 M
152 0 V
2042 1068 M
152 0 V
stroke
2801 1160 152 958 80 45 0 PatternFill
2877 1068 M
0 92 V
0 958 R
0 198 V
stroke
2801 1160 N
152 0 V
0 958 V
-152 0 V
0 -958 V
Z stroke
2801 2316 M
152 0 V
2801 1068 M
152 0 V
stroke
3560 1171 152 981 80 45 0 PatternFill
3636 1091 M
0 80 V
0 981 R
0 268 V
stroke
3560 1171 N
152 0 V
0 981 V
-152 0 V
0 -981 V
Z stroke
3560 2420 M
152 0 V
3560 1091 M
152 0 V
stroke
4318 1144 152 967 80 45 0 PatternFill
4394 1063 M
0 81 V
0 967 R
0 291 V
stroke
4318 1144 N
152 0 V
0 967 V
-152 0 V
0 -967 V
Z stroke
4318 2402 M
152 0 V
4318 1063 M
152 0 V
stroke
5077 1180 152 927 80 45 0 PatternFill
5153 1107 M
0 73 V
0 927 R
0 384 V
stroke
5077 1180 N
152 0 V
0 927 V
-152 0 V
0 -927 V
Z stroke
5077 2491 M
152 0 V
5077 1107 M
152 0 V
stroke
5836 1182 152 972 80 45 0 PatternFill
5912 1112 M
0 70 V
0 972 R
0 378 V
stroke
5836 1182 N
152 0 V
0 972 V
-152 0 V
0 -972 V
Z stroke
5836 2532 M
152 0 V
5836 1112 M
152 0 V
stroke
6594 1169 152 947 80 45 0 PatternFill
6670 1101 M
0 68 V
0 947 R
0 337 V
stroke
6594 1169 N
152 0 V
0 947 V
-152 0 V
0 -947 V
Z stroke
6594 2453 M
152 0 V
6594 1101 M
152 0 V
stroke
7353 1186 152 886 80 45 0 PatternFill
7429 1113 M
0 73 V
0 886 R
0 438 V
stroke
7353 1186 N
152 0 V
0 886 V
-152 0 V
0 -886 V
Z stroke
7353 2510 M
152 0 V
7353 1113 M
152 0 V
stroke
8112 1157 152 950 80 45 0 PatternFill
8188 1097 M
0 60 V
0 950 R
0 380 V
stroke
8112 1157 N
152 0 V
0 950 V
-152 0 V
0 -950 V
Z stroke
8112 2487 M
152 0 V
8112 1097 M
152 0 V
stroke
8870 1158 152 970 80 45 0 PatternFill
8946 1097 M
0 61 V
0 970 R
0 305 V
stroke
8870 1158 N
152 0 V
0 970 V
-152 0 V
0 -970 V
Z stroke
8870 2433 M
152 0 V
8870 1097 M
152 0 V
stroke
9629 1164 152 940 80 45 0 PatternFill
9705 1103 M
0 61 V
0 940 R
0 367 V
stroke
9629 1164 N
152 0 V
0 940 V
-152 0 V
0 -940 V
Z stroke
9629 2471 M
152 0 V
9629 1103 M
152 0 V
stroke
10388 1168 152 950 80 45 0 PatternFill
10464 1100 M
0 68 V
0 950 R
0 251 V
stroke
10388 1168 N
152 0 V
0 950 V
-152 0 V
0 -950 V
Z stroke
10388 2369 M
152 0 V
10388 1100 M
152 0 V
stroke
11146 1175 152 932 80 45 0 PatternFill
11222 1099 M
0 76 V
0 932 R
0 301 V
stroke
11146 1175 N
152 0 V
0 932 V
-152 0 V
0 -932 V
Z stroke
11146 2408 M
152 0 V
11146 1099 M
152 0 V
stroke
11905 1160 152 901 80 45 0 PatternFill
11981 1101 M
0 59 V
0 901 R
0 441 V
stroke
11905 1160 N
152 0 V
0 901 V
-152 0 V
0 -901 V
Z stroke
11905 2502 M
152 0 V
11905 1101 M
152 0 V
stroke
12664 1170 152 931 80 45 0 PatternFill
12740 1096 M
0 74 V
0 931 R
0 266 V
stroke
12664 1170 N
152 0 V
0 931 V
-152 0 V
0 -931 V
Z stroke
12664 2367 M
152 0 V
12664 1096 M
152 0 V
% End plot #4
% Begin plot #5
stroke
LTb
LCb setrgbcolor

 /TransparentPatterns true def
1283 1547 152 0 80 -45 0 PatternFill
1359 1547 M
stroke
1283 1547 N
152 0 V
-152 0 V
Z stroke
1283 1547 M
152 0 V
-152 0 R
152 0 V
stroke

 /TransparentPatterns true def
2042 1523 152 0 80 -45 0 PatternFill
2118 1523 M
stroke
2042 1523 N
152 0 V
-152 0 V
Z stroke
2042 1523 M
152 0 V
-152 0 R
152 0 V
stroke

 /TransparentPatterns true def
2801 1523 152 0 80 -45 0 PatternFill
2877 1523 M
stroke
2801 1523 N
152 0 V
-152 0 V
Z stroke
2801 1523 M
152 0 V
-152 0 R
152 0 V
stroke

 /TransparentPatterns true def
3560 1534 152 0 80 -45 0 PatternFill
3636 1534 M
stroke
3560 1534 N
152 0 V
-152 0 V
Z stroke
3560 1534 M
152 0 V
-152 0 R
152 0 V
stroke

 /TransparentPatterns true def
4318 1545 152 0 80 -45 0 PatternFill
4394 1545 M
stroke
4318 1545 N
152 0 V
-152 0 V
Z stroke
4318 1545 M
152 0 V
-152 0 R
152 0 V
stroke

 /TransparentPatterns true def
5077 1539 152 0 80 -45 0 PatternFill
5153 1539 M
stroke
5077 1539 N
152 0 V
-152 0 V
Z stroke
5077 1539 M
152 0 V
-152 0 R
152 0 V
stroke

 /TransparentPatterns true def
5836 1550 152 0 80 -45 0 PatternFill
5912 1550 M
stroke
5836 1550 N
152 0 V
-152 0 V
Z stroke
5836 1550 M
152 0 V
-152 0 R
152 0 V
stroke

 /TransparentPatterns true def
6594 1537 152 0 80 -45 0 PatternFill
6670 1537 M
stroke
6594 1537 N
152 0 V
-152 0 V
Z stroke
6594 1537 M
152 0 V
-152 0 R
152 0 V
stroke

 /TransparentPatterns true def
7353 1546 152 0 80 -45 0 PatternFill
7429 1546 M
stroke
7353 1546 N
152 0 V
-152 0 V
Z stroke
7353 1546 M
152 0 V
-152 0 R
152 0 V
stroke

 /TransparentPatterns true def
8112 1531 152 0 80 -45 0 PatternFill
8188 1531 M
stroke
8112 1531 N
152 0 V
-152 0 V
Z stroke
8112 1531 M
152 0 V
-152 0 R
152 0 V
stroke

 /TransparentPatterns true def
8870 1527 152 0 80 -45 0 PatternFill
8946 1527 M
stroke
8870 1527 N
152 0 V
-152 0 V
Z stroke
8870 1527 M
152 0 V
-152 0 R
152 0 V
stroke

 /TransparentPatterns true def
9629 1547 152 0 80 -45 0 PatternFill
9705 1547 M
stroke
9629 1547 N
152 0 V
-152 0 V
Z stroke
9629 1547 M
152 0 V
-152 0 R
152 0 V
stroke

 /TransparentPatterns true def
10388 1542 152 0 80 -45 0 PatternFill
10464 1542 M
stroke
10388 1542 N
152 0 V
-152 0 V
Z stroke
10388 1542 M
152 0 V
-152 0 R
152 0 V
stroke

 /TransparentPatterns true def
11146 1539 152 0 80 -45 0 PatternFill
11222 1539 M
stroke
11146 1539 N
152 0 V
-152 0 V
Z stroke
11146 1539 M
152 0 V
-152 0 R
152 0 V
stroke

 /TransparentPatterns true def
11905 1537 152 0 80 -45 0 PatternFill
11981 1537 M
stroke
11905 1537 N
152 0 V
-152 0 V
Z stroke
11905 1537 M
152 0 V
-152 0 R
152 0 V
stroke

 /TransparentPatterns true def
12664 1540 152 0 80 -45 0 PatternFill
12740 1540 M
stroke
12664 1540 N
152 0 V
-152 0 V
Z stroke
12664 1540 M
152 0 V
-152 0 R
152 0 V
% End plot #5
% Begin plot #6
2.000 UP
stroke
LTa
0.00 0.00 0.63 C LCb setrgbcolor
8287 153 M
[ [(Arial) 180.0 0.0 true true 0 ( )]
] -60.0 MRshow
2.000 UP
1.000 UL
LTa
0.00 0.00 0.63 C 8395 153 M
333 0 V
980 4763 M
379 0 V
759 24 V
759 -29 V
758 3 V
759 0 V
759 27 V
758 0 V
759 -26 V
759 1 V
759 25 V
758 0 V
759 -26 V
759 -2 V
758 28 V
759 0 V
759 -28 V
1359 4763 Circle
2118 4787 Circle
2877 4758 Circle
3635 4761 Circle
4394 4761 Circle
5153 4788 Circle
5911 4788 Circle
6670 4762 Circle
7429 4763 Circle
8188 4788 Circle
8946 4788 Circle
9705 4762 Circle
10464 4760 Circle
11222 4788 Circle
11981 4788 Circle
12740 4760 Circle
8561 153 Circle
% End plot #6
% Begin plot #7
1.000 UL
LTb
0.00 0.38 0.82 C LCb setrgbcolor
11860 333 M
[ [(Arial) 180.0 0.0 true true 0 (per-flow)]
] -60.0 MRshow
1.000 UL
LTb
0.00 0.38 0.82 C 11968 288 333 90 40 30 0 PatternFill
11968 288 N
333 0 V
0 90 V
-333 0 V
0 -90 V
Z stroke
1.000 UL
LTb
0.00 0.38 0.82 C 1473 1184 152 134 40 30 0 PatternFill
1549 1119 M
0 65 V
0 134 R
0 650 V
stroke
1473 1184 N
152 0 V
0 134 V
-152 0 V
0 -134 V
Z stroke
1473 1968 M
152 0 V
1473 1119 M
152 0 V
stroke
2232 1180 152 164 40 30 0 PatternFill
2308 1115 M
0 65 V
0 164 R
0 550 V
stroke
2232 1180 N
152 0 V
0 164 V
-152 0 V
0 -164 V
Z stroke
2232 1894 M
152 0 V
2232 1115 M
152 0 V
stroke
2991 1188 152 176 40 30 0 PatternFill
3067 1090 M
0 98 V
0 176 R
0 564 V
stroke
2991 1188 N
152 0 V
0 176 V
-152 0 V
0 -176 V
Z stroke
2991 1928 M
152 0 V
2991 1090 M
152 0 V
stroke
3749 1176 152 200 40 30 0 PatternFill
3825 1120 M
0 56 V
0 200 R
0 496 V
stroke
3749 1176 N
152 0 V
0 200 V
-152 0 V
0 -200 V
Z stroke
3749 1872 M
152 0 V
3749 1120 M
152 0 V
stroke
4508 1170 152 193 40 30 0 PatternFill
4584 1107 M
0 63 V
0 193 R
0 395 V
stroke
4508 1170 N
152 0 V
0 193 V
-152 0 V
0 -193 V
Z stroke
4508 1758 M
152 0 V
4508 1107 M
152 0 V
stroke
5267 1172 152 181 40 30 0 PatternFill
5343 1107 M
0 65 V
0 181 R
0 568 V
stroke
5267 1172 N
152 0 V
0 181 V
-152 0 V
0 -181 V
Z stroke
5267 1921 M
152 0 V
5267 1107 M
152 0 V
stroke
6025 1172 152 185 40 30 0 PatternFill
6101 1111 M
0 61 V
0 185 R
0 503 V
stroke
6025 1172 N
152 0 V
0 185 V
-152 0 V
0 -185 V
Z stroke
6025 1860 M
152 0 V
6025 1111 M
152 0 V
stroke
6784 1182 152 177 40 30 0 PatternFill
6860 1111 M
0 71 V
0 177 R
0 526 V
stroke
6784 1182 N
152 0 V
0 177 V
-152 0 V
0 -177 V
Z stroke
6784 1885 M
152 0 V
6784 1111 M
152 0 V
stroke
7543 1163 152 166 40 30 0 PatternFill
7619 1119 M
0 44 V
0 166 R
0 445 V
stroke
7543 1163 N
152 0 V
0 166 V
-152 0 V
0 -166 V
Z stroke
7543 1774 M
152 0 V
7543 1119 M
152 0 V
stroke
8301 1171 152 185 40 30 0 PatternFill
8377 1100 M
0 71 V
0 185 R
0 526 V
stroke
8301 1171 N
152 0 V
0 185 V
-152 0 V
0 -185 V
Z stroke
8301 1882 M
152 0 V
8301 1100 M
152 0 V
stroke
9060 1181 152 180 40 30 0 PatternFill
9136 1107 M
0 74 V
0 180 R
0 422 V
stroke
9060 1181 N
152 0 V
0 180 V
-152 0 V
0 -180 V
Z stroke
9060 1783 M
152 0 V
9060 1107 M
152 0 V
stroke
9819 1180 152 177 40 30 0 PatternFill
9895 1106 M
0 74 V
0 177 R
0 532 V
stroke
9819 1180 N
152 0 V
0 177 V
-152 0 V
0 -177 V
Z stroke
9819 1889 M
152 0 V
9819 1106 M
152 0 V
stroke
10577 1166 152 215 40 30 0 PatternFill
10653 1104 M
0 62 V
0 215 R
0 370 V
stroke
10577 1166 N
152 0 V
0 215 V
-152 0 V
0 -215 V
Z stroke
10577 1751 M
152 0 V
-152 -647 R
152 0 V
stroke
11336 1171 152 182 40 30 0 PatternFill
11412 1108 M
0 63 V
0 182 R
0 631 V
stroke
11336 1171 N
152 0 V
0 182 V
-152 0 V
0 -182 V
Z stroke
11336 1984 M
152 0 V
-152 -876 R
152 0 V
stroke
12095 1191 152 148 40 30 0 PatternFill
12171 1110 M
0 81 V
0 148 R
0 502 V
stroke
12095 1191 N
152 0 V
0 148 V
-152 0 V
0 -148 V
Z stroke
12095 1841 M
152 0 V
-152 -731 R
152 0 V
stroke
12853 1178 152 171 40 30 0 PatternFill
12929 1124 M
0 54 V
0 171 R
0 559 V
stroke
12853 1178 N
152 0 V
0 171 V
-152 0 V
0 -171 V
Z stroke
12853 1908 M
152 0 V
-152 -784 R
152 0 V
% End plot #7
% Begin plot #8
stroke
LTb
LCb setrgbcolor

 /TransparentPatterns true def
1473 1278 152 0 40 -30 0 PatternFill
1549 1278 M
stroke
1473 1278 N
152 0 V
-152 0 V
Z stroke
1473 1278 M
152 0 V
-152 0 R
152 0 V
stroke

 /TransparentPatterns true def
2232 1277 152 0 40 -30 0 PatternFill
2308 1277 M
stroke
2232 1277 N
152 0 V
-152 0 V
Z stroke
2232 1277 M
152 0 V
-152 0 R
152 0 V
stroke

 /TransparentPatterns true def
2991 1277 152 0 40 -30 0 PatternFill
3067 1277 M
stroke
2991 1277 N
152 0 V
-152 0 V
Z stroke
2991 1277 M
152 0 V
-152 0 R
152 0 V
stroke

 /TransparentPatterns true def
3749 1276 152 0 40 -30 0 PatternFill
3825 1276 M
stroke
3749 1276 N
152 0 V
-152 0 V
Z stroke
3749 1276 M
152 0 V
-152 0 R
152 0 V
stroke

 /TransparentPatterns true def
4508 1265 152 0 40 -30 0 PatternFill
4584 1265 M
stroke
4508 1265 N
152 0 V
-152 0 V
Z stroke
4508 1265 M
152 0 V
-152 0 R
152 0 V
stroke

 /TransparentPatterns true def
5267 1273 152 0 40 -30 0 PatternFill
5343 1273 M
stroke
5267 1273 N
152 0 V
-152 0 V
Z stroke
5267 1273 M
152 0 V
-152 0 R
152 0 V
stroke

 /TransparentPatterns true def
6025 1271 152 0 40 -30 0 PatternFill
6101 1271 M
stroke
6025 1271 N
152 0 V
-152 0 V
Z stroke
6025 1271 M
152 0 V
-152 0 R
152 0 V
stroke

 /TransparentPatterns true def
6784 1280 152 0 40 -30 0 PatternFill
6860 1280 M
stroke
6784 1280 N
152 0 V
-152 0 V
Z stroke
6784 1280 M
152 0 V
-152 0 R
152 0 V
stroke

 /TransparentPatterns true def
7543 1265 152 0 40 -30 0 PatternFill
7619 1265 M
stroke
7543 1265 N
152 0 V
-152 0 V
Z stroke
7543 1265 M
152 0 V
-152 0 R
152 0 V
stroke

 /TransparentPatterns true def
8301 1267 152 0 40 -30 0 PatternFill
8377 1267 M
stroke
8301 1267 N
152 0 V
-152 0 V
Z stroke
8301 1267 M
152 0 V
-152 0 R
152 0 V
stroke

 /TransparentPatterns true def
9060 1274 152 0 40 -30 0 PatternFill
9136 1274 M
stroke
9060 1274 N
152 0 V
-152 0 V
Z stroke
9060 1274 M
152 0 V
-152 0 R
152 0 V
stroke

 /TransparentPatterns true def
9819 1275 152 0 40 -30 0 PatternFill
9895 1275 M
stroke
9819 1275 N
152 0 V
-152 0 V
Z stroke
9819 1275 M
152 0 V
-152 0 R
152 0 V
stroke

 /TransparentPatterns true def
10577 1267 152 0 40 -30 0 PatternFill
10653 1267 M
stroke
10577 1267 N
152 0 V
-152 0 V
Z stroke
10577 1267 M
152 0 V
-152 0 R
152 0 V
stroke

 /TransparentPatterns true def
11336 1266 152 0 40 -30 0 PatternFill
11412 1266 M
stroke
11336 1266 N
152 0 V
-152 0 V
Z stroke
11336 1266 M
152 0 V
-152 0 R
152 0 V
stroke

 /TransparentPatterns true def
12095 1272 152 0 40 -30 0 PatternFill
12171 1272 M
stroke
12095 1272 N
152 0 V
-152 0 V
Z stroke
12095 1272 M
152 0 V
-152 0 R
152 0 V
stroke

 /TransparentPatterns true def
12853 1286 152 0 40 -30 0 PatternFill
12929 1286 M
stroke
12853 1286 N
152 0 V
-152 0 V
Z stroke
12853 1286 M
152 0 V
-152 0 R
152 0 V
% End plot #8
% Begin plot #9
2.000 UP
stroke
LTa
0.00 0.38 0.82 C LCb setrgbcolor
11860 153 M
[ [(Arial) 180.0 0.0 true true 0 ( )]
] -60.0 MRshow
2.000 UP
1.000 UL
LTa
0.00 0.38 0.82 C 11968 153 M
333 0 V
980 4739 M
569 7 V
759 -5 V
758 3 V
759 -3 V
759 -9 V
758 11 V
759 -4 V
759 2 V
759 -8 V
758 7 V
759 -6 V
759 7 V
758 -9 V
759 14 V
759 -7 V
758 3 V
1549 4746 TriU
2308 4741 TriU
3066 4744 TriU
3825 4741 TriU
4584 4732 TriU
5342 4743 TriU
6101 4739 TriU
6860 4741 TriU
7619 4733 TriU
8377 4740 TriU
9136 4734 TriU
9895 4741 TriU
10653 4732 TriU
11412 4746 TriU
12171 4739 TriU
12929 4742 TriU
12134 153 TriU
% End plot #9
2.000 UL
LTb
LCb setrgbcolor
1.000 UP
1.000 UL
LTb
0.00 0.00 0.00 C stroke
grestore
end
showpage
%%Trailer
%%DocumentFonts: Arial
