%!PS-Adobe-2.0 EPSF-2.0
%%Title: TcpBic-cwnd-1Mbps-UE8.eps
%%Creator: gnuplot 5.0 patchlevel 3
%%CreationDate: Tue May 24 14:35:43 2016
%%DocumentFonts: (atend)
%%BoundingBox: 50 50 410 302
%%EndComments
%%BeginProlog
/gnudict 256 dict def
gnudict begin
%
% The following true/false flags may be edited by hand if desired.
% The unit line width and grayscale image gamma correction may also be changed.
%
/Color true def
/Blacktext false def
/Solid false def
/Dashlength 3 def
/Landscape false def
/Level1 false def
/Level3 false def
/Rounded false def
/ClipToBoundingBox false def
/SuppressPDFMark false def
/TransparentPatterns false def
/gnulinewidth 15.000 def
/userlinewidth gnulinewidth def
/Gamma 1.0 def
/BackgroundColor {-1.000 -1.000 -1.000} def
%
/vshift -66 def
/dl1 {
  10.0 Dashlength userlinewidth gnulinewidth div mul mul mul
  Rounded { currentlinewidth 0.75 mul sub dup 0 le { pop 0.01 } if } if
} def
/dl2 {
  10.0 Dashlength userlinewidth gnulinewidth div mul mul mul
  Rounded { currentlinewidth 0.75 mul add } if
} def
/hpt_ 31.5 def
/vpt_ 31.5 def
/hpt hpt_ def
/vpt vpt_ def
/doclip {
  ClipToBoundingBox {
    newpath 50 50 moveto 410 50 lineto 410 302 lineto 50 302 lineto closepath
    clip
  } if
} def
%
% Gnuplot Prolog Version 5.1 (Oct 2015)
%
%/SuppressPDFMark true def
%
/M {moveto} bind def
/L {lineto} bind def
/R {rmoveto} bind def
/V {rlineto} bind def
/N {newpath moveto} bind def
/Z {closepath} bind def
/C {setrgbcolor} bind def
/f {rlineto fill} bind def
/g {setgray} bind def
/Gshow {show} def   % May be redefined later in the file to support UTF-8
/vpt2 vpt 2 mul def
/hpt2 hpt 2 mul def
/Lshow {currentpoint stroke M 0 vshift R 
	Blacktext {gsave 0 setgray textshow grestore} {textshow} ifelse} def
/Rshow {currentpoint stroke M dup stringwidth pop neg vshift R
	Blacktext {gsave 0 setgray textshow grestore} {textshow} ifelse} def
/Cshow {currentpoint stroke M dup stringwidth pop -2 div vshift R 
	Blacktext {gsave 0 setgray textshow grestore} {textshow} ifelse} def
/UP {dup vpt_ mul /vpt exch def hpt_ mul /hpt exch def
  /hpt2 hpt 2 mul def /vpt2 vpt 2 mul def} def
/DL {Color {setrgbcolor Solid {pop []} if 0 setdash}
 {pop pop pop 0 setgray Solid {pop []} if 0 setdash} ifelse} def
/BL {stroke userlinewidth 2 mul setlinewidth
	Rounded {1 setlinejoin 1 setlinecap} if} def
/AL {stroke userlinewidth 2 div setlinewidth
	Rounded {1 setlinejoin 1 setlinecap} if} def
/UL {dup gnulinewidth mul /userlinewidth exch def
	dup 1 lt {pop 1} if 10 mul /udl exch def} def
/PL {stroke userlinewidth setlinewidth
	Rounded {1 setlinejoin 1 setlinecap} if} def
3.8 setmiterlimit
% Classic Line colors (version 5.0)
/LCw {1 1 1} def
/LCb {0 0 0} def
/LCa {0 0 0} def
/LC0 {1 0 0} def
/LC1 {0 1 0} def
/LC2 {0 0 1} def
/LC3 {1 0 1} def
/LC4 {0 1 1} def
/LC5 {1 1 0} def
/LC6 {0 0 0} def
/LC7 {1 0.3 0} def
/LC8 {0.5 0.5 0.5} def
% Default dash patterns (version 5.0)
/LTB {BL [] LCb DL} def
/LTw {PL [] 1 setgray} def
/LTb {PL [] LCb DL} def
/LTa {AL [1 udl mul 2 udl mul] 0 setdash LCa setrgbcolor} def
/LT0 {PL [] LC0 DL} def
/LT1 {PL [2 dl1 3 dl2] LC1 DL} def
/LT2 {PL [1 dl1 1.5 dl2] LC2 DL} def
/LT3 {PL [6 dl1 2 dl2 1 dl1 2 dl2] LC3 DL} def
/LT4 {PL [1 dl1 2 dl2 6 dl1 2 dl2 1 dl1 2 dl2] LC4 DL} def
/LT5 {PL [4 dl1 2 dl2] LC5 DL} def
/LT6 {PL [1.5 dl1 1.5 dl2 1.5 dl1 1.5 dl2 1.5 dl1 6 dl2] LC6 DL} def
/LT7 {PL [3 dl1 3 dl2 1 dl1 3 dl2] LC7 DL} def
/LT8 {PL [2 dl1 2 dl2 2 dl1 6 dl2] LC8 DL} def
/SL {[] 0 setdash} def
/Pnt {stroke [] 0 setdash gsave 1 setlinecap M 0 0 V stroke grestore} def
/Dia {stroke [] 0 setdash 2 copy vpt add M
  hpt neg vpt neg V hpt vpt neg V
  hpt vpt V hpt neg vpt V closepath stroke
  Pnt} def
/Pls {stroke [] 0 setdash vpt sub M 0 vpt2 V
  currentpoint stroke M
  hpt neg vpt neg R hpt2 0 V stroke
 } def
/Box {stroke [] 0 setdash 2 copy exch hpt sub exch vpt add M
  0 vpt2 neg V hpt2 0 V 0 vpt2 V
  hpt2 neg 0 V closepath stroke
  Pnt} def
/Crs {stroke [] 0 setdash exch hpt sub exch vpt add M
  hpt2 vpt2 neg V currentpoint stroke M
  hpt2 neg 0 R hpt2 vpt2 V stroke} def
/TriU {stroke [] 0 setdash 2 copy vpt 1.12 mul add M
  hpt neg vpt -1.62 mul V
  hpt 2 mul 0 V
  hpt neg vpt 1.62 mul V closepath stroke
  Pnt} def
/Star {2 copy Pls Crs} def
/BoxF {stroke [] 0 setdash exch hpt sub exch vpt add M
  0 vpt2 neg V hpt2 0 V 0 vpt2 V
  hpt2 neg 0 V closepath fill} def
/TriUF {stroke [] 0 setdash vpt 1.12 mul add M
  hpt neg vpt -1.62 mul V
  hpt 2 mul 0 V
  hpt neg vpt 1.62 mul V closepath fill} def
/TriD {stroke [] 0 setdash 2 copy vpt 1.12 mul sub M
  hpt neg vpt 1.62 mul V
  hpt 2 mul 0 V
  hpt neg vpt -1.62 mul V closepath stroke
  Pnt} def
/TriDF {stroke [] 0 setdash vpt 1.12 mul sub M
  hpt neg vpt 1.62 mul V
  hpt 2 mul 0 V
  hpt neg vpt -1.62 mul V closepath fill} def
/DiaF {stroke [] 0 setdash vpt add M
  hpt neg vpt neg V hpt vpt neg V
  hpt vpt V hpt neg vpt V closepath fill} def
/Pent {stroke [] 0 setdash 2 copy gsave
  translate 0 hpt M 4 {72 rotate 0 hpt L} repeat
  closepath stroke grestore Pnt} def
/PentF {stroke [] 0 setdash gsave
  translate 0 hpt M 4 {72 rotate 0 hpt L} repeat
  closepath fill grestore} def
/Circle {stroke [] 0 setdash 2 copy
  hpt 0 360 arc stroke Pnt} def
/CircleF {stroke [] 0 setdash hpt 0 360 arc fill} def
/C0 {BL [] 0 setdash 2 copy moveto vpt 90 450 arc} bind def
/C1 {BL [] 0 setdash 2 copy moveto
	2 copy vpt 0 90 arc closepath fill
	vpt 0 360 arc closepath} bind def
/C2 {BL [] 0 setdash 2 copy moveto
	2 copy vpt 90 180 arc closepath fill
	vpt 0 360 arc closepath} bind def
/C3 {BL [] 0 setdash 2 copy moveto
	2 copy vpt 0 180 arc closepath fill
	vpt 0 360 arc closepath} bind def
/C4 {BL [] 0 setdash 2 copy moveto
	2 copy vpt 180 270 arc closepath fill
	vpt 0 360 arc closepath} bind def
/C5 {BL [] 0 setdash 2 copy moveto
	2 copy vpt 0 90 arc
	2 copy moveto
	2 copy vpt 180 270 arc closepath fill
	vpt 0 360 arc} bind def
/C6 {BL [] 0 setdash 2 copy moveto
	2 copy vpt 90 270 arc closepath fill
	vpt 0 360 arc closepath} bind def
/C7 {BL [] 0 setdash 2 copy moveto
	2 copy vpt 0 270 arc closepath fill
	vpt 0 360 arc closepath} bind def
/C8 {BL [] 0 setdash 2 copy moveto
	2 copy vpt 270 360 arc closepath fill
	vpt 0 360 arc closepath} bind def
/C9 {BL [] 0 setdash 2 copy moveto
	2 copy vpt 270 450 arc closepath fill
	vpt 0 360 arc closepath} bind def
/C10 {BL [] 0 setdash 2 copy 2 copy moveto vpt 270 360 arc closepath fill
	2 copy moveto
	2 copy vpt 90 180 arc closepath fill
	vpt 0 360 arc closepath} bind def
/C11 {BL [] 0 setdash 2 copy moveto
	2 copy vpt 0 180 arc closepath fill
	2 copy moveto
	2 copy vpt 270 360 arc closepath fill
	vpt 0 360 arc closepath} bind def
/C12 {BL [] 0 setdash 2 copy moveto
	2 copy vpt 180 360 arc closepath fill
	vpt 0 360 arc closepath} bind def
/C13 {BL [] 0 setdash 2 copy moveto
	2 copy vpt 0 90 arc closepath fill
	2 copy moveto
	2 copy vpt 180 360 arc closepath fill
	vpt 0 360 arc closepath} bind def
/C14 {BL [] 0 setdash 2 copy moveto
	2 copy vpt 90 360 arc closepath fill
	vpt 0 360 arc} bind def
/C15 {BL [] 0 setdash 2 copy vpt 0 360 arc closepath fill
	vpt 0 360 arc closepath} bind def
/Rec {newpath 4 2 roll moveto 1 index 0 rlineto 0 exch rlineto
	neg 0 rlineto closepath} bind def
/Square {dup Rec} bind def
/Bsquare {vpt sub exch vpt sub exch vpt2 Square} bind def
/S0 {BL [] 0 setdash 2 copy moveto 0 vpt rlineto BL Bsquare} bind def
/S1 {BL [] 0 setdash 2 copy vpt Square fill Bsquare} bind def
/S2 {BL [] 0 setdash 2 copy exch vpt sub exch vpt Square fill Bsquare} bind def
/S3 {BL [] 0 setdash 2 copy exch vpt sub exch vpt2 vpt Rec fill Bsquare} bind def
/S4 {BL [] 0 setdash 2 copy exch vpt sub exch vpt sub vpt Square fill Bsquare} bind def
/S5 {BL [] 0 setdash 2 copy 2 copy vpt Square fill
	exch vpt sub exch vpt sub vpt Square fill Bsquare} bind def
/S6 {BL [] 0 setdash 2 copy exch vpt sub exch vpt sub vpt vpt2 Rec fill Bsquare} bind def
/S7 {BL [] 0 setdash 2 copy exch vpt sub exch vpt sub vpt vpt2 Rec fill
	2 copy vpt Square fill Bsquare} bind def
/S8 {BL [] 0 setdash 2 copy vpt sub vpt Square fill Bsquare} bind def
/S9 {BL [] 0 setdash 2 copy vpt sub vpt vpt2 Rec fill Bsquare} bind def
/S10 {BL [] 0 setdash 2 copy vpt sub vpt Square fill 2 copy exch vpt sub exch vpt Square fill
	Bsquare} bind def
/S11 {BL [] 0 setdash 2 copy vpt sub vpt Square fill 2 copy exch vpt sub exch vpt2 vpt Rec fill
	Bsquare} bind def
/S12 {BL [] 0 setdash 2 copy exch vpt sub exch vpt sub vpt2 vpt Rec fill Bsquare} bind def
/S13 {BL [] 0 setdash 2 copy exch vpt sub exch vpt sub vpt2 vpt Rec fill
	2 copy vpt Square fill Bsquare} bind def
/S14 {BL [] 0 setdash 2 copy exch vpt sub exch vpt sub vpt2 vpt Rec fill
	2 copy exch vpt sub exch vpt Square fill Bsquare} bind def
/S15 {BL [] 0 setdash 2 copy Bsquare fill Bsquare} bind def
/D0 {gsave translate 45 rotate 0 0 S0 stroke grestore} bind def
/D1 {gsave translate 45 rotate 0 0 S1 stroke grestore} bind def
/D2 {gsave translate 45 rotate 0 0 S2 stroke grestore} bind def
/D3 {gsave translate 45 rotate 0 0 S3 stroke grestore} bind def
/D4 {gsave translate 45 rotate 0 0 S4 stroke grestore} bind def
/D5 {gsave translate 45 rotate 0 0 S5 stroke grestore} bind def
/D6 {gsave translate 45 rotate 0 0 S6 stroke grestore} bind def
/D7 {gsave translate 45 rotate 0 0 S7 stroke grestore} bind def
/D8 {gsave translate 45 rotate 0 0 S8 stroke grestore} bind def
/D9 {gsave translate 45 rotate 0 0 S9 stroke grestore} bind def
/D10 {gsave translate 45 rotate 0 0 S10 stroke grestore} bind def
/D11 {gsave translate 45 rotate 0 0 S11 stroke grestore} bind def
/D12 {gsave translate 45 rotate 0 0 S12 stroke grestore} bind def
/D13 {gsave translate 45 rotate 0 0 S13 stroke grestore} bind def
/D14 {gsave translate 45 rotate 0 0 S14 stroke grestore} bind def
/D15 {gsave translate 45 rotate 0 0 S15 stroke grestore} bind def
/DiaE {stroke [] 0 setdash vpt add M
  hpt neg vpt neg V hpt vpt neg V
  hpt vpt V hpt neg vpt V closepath stroke} def
/BoxE {stroke [] 0 setdash exch hpt sub exch vpt add M
  0 vpt2 neg V hpt2 0 V 0 vpt2 V
  hpt2 neg 0 V closepath stroke} def
/TriUE {stroke [] 0 setdash vpt 1.12 mul add M
  hpt neg vpt -1.62 mul V
  hpt 2 mul 0 V
  hpt neg vpt 1.62 mul V closepath stroke} def
/TriDE {stroke [] 0 setdash vpt 1.12 mul sub M
  hpt neg vpt 1.62 mul V
  hpt 2 mul 0 V
  hpt neg vpt -1.62 mul V closepath stroke} def
/PentE {stroke [] 0 setdash gsave
  translate 0 hpt M 4 {72 rotate 0 hpt L} repeat
  closepath stroke grestore} def
/CircE {stroke [] 0 setdash 
  hpt 0 360 arc stroke} def
/Opaque {gsave closepath 1 setgray fill grestore 0 setgray closepath} def
/DiaW {stroke [] 0 setdash vpt add M
  hpt neg vpt neg V hpt vpt neg V
  hpt vpt V hpt neg vpt V Opaque stroke} def
/BoxW {stroke [] 0 setdash exch hpt sub exch vpt add M
  0 vpt2 neg V hpt2 0 V 0 vpt2 V
  hpt2 neg 0 V Opaque stroke} def
/TriUW {stroke [] 0 setdash vpt 1.12 mul add M
  hpt neg vpt -1.62 mul V
  hpt 2 mul 0 V
  hpt neg vpt 1.62 mul V Opaque stroke} def
/TriDW {stroke [] 0 setdash vpt 1.12 mul sub M
  hpt neg vpt 1.62 mul V
  hpt 2 mul 0 V
  hpt neg vpt -1.62 mul V Opaque stroke} def
/PentW {stroke [] 0 setdash gsave
  translate 0 hpt M 4 {72 rotate 0 hpt L} repeat
  Opaque stroke grestore} def
/CircW {stroke [] 0 setdash 
  hpt 0 360 arc Opaque stroke} def
/BoxFill {gsave Rec 1 setgray fill grestore} def
/Density {
  /Fillden exch def
  currentrgbcolor
  /ColB exch def /ColG exch def /ColR exch def
  /ColR ColR Fillden mul Fillden sub 1 add def
  /ColG ColG Fillden mul Fillden sub 1 add def
  /ColB ColB Fillden mul Fillden sub 1 add def
  ColR ColG ColB setrgbcolor} def
/BoxColFill {gsave Rec PolyFill} def
/PolyFill {gsave Density fill grestore grestore} def
/h {rlineto rlineto rlineto gsave closepath fill grestore} bind def
%
% PostScript Level 1 Pattern Fill routine for rectangles
% Usage: x y w h s a XX PatternFill
%	x,y = lower left corner of box to be filled
%	w,h = width and height of box
%	  a = angle in degrees between lines and x-axis
%	 XX = 0/1 for no/yes cross-hatch
%
/PatternFill {gsave /PFa [ 9 2 roll ] def
  PFa 0 get PFa 2 get 2 div add PFa 1 get PFa 3 get 2 div add translate
  PFa 2 get -2 div PFa 3 get -2 div PFa 2 get PFa 3 get Rec
  TransparentPatterns {} {gsave 1 setgray fill grestore} ifelse
  clip
  currentlinewidth 0.5 mul setlinewidth
  /PFs PFa 2 get dup mul PFa 3 get dup mul add sqrt def
  0 0 M PFa 5 get rotate PFs -2 div dup translate
  0 1 PFs PFa 4 get div 1 add floor cvi
	{PFa 4 get mul 0 M 0 PFs V} for
  0 PFa 6 get ne {
	0 1 PFs PFa 4 get div 1 add floor cvi
	{PFa 4 get mul 0 2 1 roll M PFs 0 V} for
 } if
  stroke grestore} def
%
/languagelevel where
 {pop languagelevel} {1} ifelse
dup 2 lt
	{/InterpretLevel1 true def
	 /InterpretLevel3 false def}
	{/InterpretLevel1 Level1 def
	 2 gt
	    {/InterpretLevel3 Level3 def}
	    {/InterpretLevel3 false def}
	 ifelse }
 ifelse
%
% PostScript level 2 pattern fill definitions
%
/Level2PatternFill {
/Tile8x8 {/PaintType 2 /PatternType 1 /TilingType 1 /BBox [0 0 8 8] /XStep 8 /YStep 8}
	bind def
/KeepColor {currentrgbcolor [/Pattern /DeviceRGB] setcolorspace} bind def
<< Tile8x8
 /PaintProc {0.5 setlinewidth pop 0 0 M 8 8 L 0 8 M 8 0 L stroke} 
>> matrix makepattern
/Pat1 exch def
<< Tile8x8
 /PaintProc {0.5 setlinewidth pop 0 0 M 8 8 L 0 8 M 8 0 L stroke
	0 4 M 4 8 L 8 4 L 4 0 L 0 4 L stroke}
>> matrix makepattern
/Pat2 exch def
<< Tile8x8
 /PaintProc {0.5 setlinewidth pop 0 0 M 0 8 L
	8 8 L 8 0 L 0 0 L fill}
>> matrix makepattern
/Pat3 exch def
<< Tile8x8
 /PaintProc {0.5 setlinewidth pop -4 8 M 8 -4 L
	0 12 M 12 0 L stroke}
>> matrix makepattern
/Pat4 exch def
<< Tile8x8
 /PaintProc {0.5 setlinewidth pop -4 0 M 8 12 L
	0 -4 M 12 8 L stroke}
>> matrix makepattern
/Pat5 exch def
<< Tile8x8
 /PaintProc {0.5 setlinewidth pop -2 8 M 4 -4 L
	0 12 M 8 -4 L 4 12 M 10 0 L stroke}
>> matrix makepattern
/Pat6 exch def
<< Tile8x8
 /PaintProc {0.5 setlinewidth pop -2 0 M 4 12 L
	0 -4 M 8 12 L 4 -4 M 10 8 L stroke}
>> matrix makepattern
/Pat7 exch def
<< Tile8x8
 /PaintProc {0.5 setlinewidth pop 8 -2 M -4 4 L
	12 0 M -4 8 L 12 4 M 0 10 L stroke}
>> matrix makepattern
/Pat8 exch def
<< Tile8x8
 /PaintProc {0.5 setlinewidth pop 0 -2 M 12 4 L
	-4 0 M 12 8 L -4 4 M 8 10 L stroke}
>> matrix makepattern
/Pat9 exch def
/Pattern1 {PatternBgnd KeepColor Pat1 setpattern} bind def
/Pattern2 {PatternBgnd KeepColor Pat2 setpattern} bind def
/Pattern3 {PatternBgnd KeepColor Pat3 setpattern} bind def
/Pattern4 {PatternBgnd KeepColor Landscape {Pat5} {Pat4} ifelse setpattern} bind def
/Pattern5 {PatternBgnd KeepColor Landscape {Pat4} {Pat5} ifelse setpattern} bind def
/Pattern6 {PatternBgnd KeepColor Landscape {Pat9} {Pat6} ifelse setpattern} bind def
/Pattern7 {PatternBgnd KeepColor Landscape {Pat8} {Pat7} ifelse setpattern} bind def
} def
%
%
%End of PostScript Level 2 code
%
/PatternBgnd {
  TransparentPatterns {} {gsave 1 setgray fill grestore} ifelse
} def
%
% Substitute for Level 2 pattern fill codes with
% grayscale if Level 2 support is not selected.
%
/Level1PatternFill {
/Pattern1 {0.250 Density} bind def
/Pattern2 {0.500 Density} bind def
/Pattern3 {0.750 Density} bind def
/Pattern4 {0.125 Density} bind def
/Pattern5 {0.375 Density} bind def
/Pattern6 {0.625 Density} bind def
/Pattern7 {0.875 Density} bind def
} def
%
% Now test for support of Level 2 code
%
Level1 {Level1PatternFill} {Level2PatternFill} ifelse
%
/Symbol-Oblique /Symbol findfont [1 0 .167 1 0 0] makefont
dup length dict begin {1 index /FID eq {pop pop} {def} ifelse} forall
currentdict end definefont pop
%
/MFshow {
   { dup 5 get 3 ge
     { 5 get 3 eq {gsave} {grestore} ifelse }
     {dup dup 0 get findfont exch 1 get scalefont setfont
     [ currentpoint ] exch dup 2 get 0 exch R dup 5 get 2 ne {dup dup 6
     get exch 4 get {textshow} {stringwidth pop 0 R} ifelse }if dup 5 get 0 eq
     {dup 3 get {2 get neg 0 exch R pop} {pop aload pop M} ifelse} {dup 5
     get 1 eq {dup 2 get exch dup 3 get exch 6 get stringwidth pop -2 div
     dup 0 R} {dup 6 get stringwidth pop -2 div 0 R 6 get
     textshow 2 index {aload pop M neg 3 -1 roll neg R pop pop} {pop pop pop
     pop aload pop M} ifelse }ifelse }ifelse }
     ifelse }
   forall} def
/Gswidth {dup type /stringtype eq {stringwidth} {pop (n) stringwidth} ifelse} def
/MFwidth {0 exch { dup 5 get 3 ge { 5 get 3 eq { 0 } { pop } ifelse }
 {dup 3 get{dup dup 0 get findfont exch 1 get scalefont setfont
     6 get Gswidth pop add} {pop} ifelse} ifelse} forall} def
/MLshow { currentpoint stroke M
  0 exch R
  Blacktext {gsave 0 setgray MFshow grestore} {MFshow} ifelse } bind def
/MRshow { currentpoint stroke M
  exch dup MFwidth neg 3 -1 roll R
  Blacktext {gsave 0 setgray MFshow grestore} {MFshow} ifelse } bind def
/MCshow { currentpoint stroke M
  exch dup MFwidth -2 div 3 -1 roll R
  Blacktext {gsave 0 setgray MFshow grestore} {MFshow} ifelse } bind def
/XYsave    { [( ) 1 2 true false 3 ()] } bind def
/XYrestore { [( ) 1 2 true false 4 ()] } bind def
Level1 SuppressPDFMark or 
{} {
/SDict 10 dict def
systemdict /pdfmark known not {
  userdict /pdfmark systemdict /cleartomark get put
} if
SDict begin [
  /Title (TcpBic-cwnd-1Mbps-UE8.eps)
  /Subject (gnuplot plot)
  /Creator (gnuplot 5.0 patchlevel 3)
  /Author (nat)
%  /Producer (gnuplot)
%  /Keywords ()
  /CreationDate (Tue May 24 14:35:43 2016)
  /DOCINFO pdfmark
end
} ifelse
%
% Support for boxed text - Ethan A Merritt May 2005
%
/InitTextBox { userdict /TBy2 3 -1 roll put userdict /TBx2 3 -1 roll put
           userdict /TBy1 3 -1 roll put userdict /TBx1 3 -1 roll put
	   /Boxing true def } def
/ExtendTextBox { Boxing
    { gsave dup false charpath pathbbox
      dup TBy2 gt {userdict /TBy2 3 -1 roll put} {pop} ifelse
      dup TBx2 gt {userdict /TBx2 3 -1 roll put} {pop} ifelse
      dup TBy1 lt {userdict /TBy1 3 -1 roll put} {pop} ifelse
      dup TBx1 lt {userdict /TBx1 3 -1 roll put} {pop} ifelse
      grestore } if } def
/PopTextBox { newpath TBx1 TBxmargin sub TBy1 TBymargin sub M
               TBx1 TBxmargin sub TBy2 TBymargin add L
	       TBx2 TBxmargin add TBy2 TBymargin add L
	       TBx2 TBxmargin add TBy1 TBymargin sub L closepath } def
/DrawTextBox { PopTextBox stroke /Boxing false def} def
/FillTextBox { gsave PopTextBox 1 1 1 setrgbcolor fill grestore /Boxing false def} def
0 0 0 0 InitTextBox
/TBxmargin 20 def
/TBymargin 20 def
/Boxing false def
/textshow { ExtendTextBox Gshow } def
%
% redundant definitions for compatibility with prologue.ps older than 5.0.2
/LTB {BL [] LCb DL} def
/LTb {PL [] LCb DL} def
end
%%EndProlog
%%Page: 1 1
gnudict begin
gsave
doclip
50 50 translate
0.050 0.050 scale
0 setgray
newpath
(Arial) findfont 200 scalefont setfont
BackgroundColor 0 lt 3 1 roll 0 lt exch 0 lt or or not {BackgroundColor C 1.000 0 0 7200.00 5040.00 BoxColFill} if
1.000 UL
LTb
0.00 0.00 0.00 C 0.500 UL
LTa
0.50 0.50 0.50 C 1220 820 M
5619 0 V
stroke
1.000 UL
LTb
0.00 0.00 0.00 C 1220 820 M
63 0 V
5556 0 R
-63 0 V
stroke
1100 820 M
[ [(Arial) 200.0 0.0 true true 0 ( 0.1)]
] -66.7 MRshow
1.000 UL
LTb
0.00 0.00 0.00 C 1220 1060 M
31 0 V
5588 0 R
-31 0 V
1220 1376 M
31 0 V
5588 0 R
-31 0 V
1220 1539 M
31 0 V
5588 0 R
-31 0 V
stroke
0.500 UL
LTa
0.50 0.50 0.50 C 1220 1616 M
5619 0 V
stroke
1.000 UL
LTb
0.00 0.00 0.00 C 1220 1616 M
63 0 V
5556 0 R
-63 0 V
stroke
1100 1616 M
[ [(Arial) 200.0 0.0 true true 0 ( 1)]
] -66.7 MRshow
1.000 UL
LTb
0.00 0.00 0.00 C 1220 1855 M
31 0 V
5588 0 R
-31 0 V
1220 2172 M
31 0 V
5588 0 R
-31 0 V
1220 2334 M
31 0 V
5588 0 R
-31 0 V
stroke
0.500 UL
LTa
0.50 0.50 0.50 C 1220 2412 M
5619 0 V
stroke
1.000 UL
LTb
0.00 0.00 0.00 C 1220 2412 M
63 0 V
5556 0 R
-63 0 V
stroke
1100 2412 M
[ [(Arial) 200.0 0.0 true true 0 ( 10)]
] -66.7 MRshow
1.000 UL
LTb
0.00 0.00 0.00 C 1220 2651 M
31 0 V
5588 0 R
-31 0 V
1220 2968 M
31 0 V
5588 0 R
-31 0 V
1220 3130 M
31 0 V
5588 0 R
-31 0 V
stroke
0.500 UL
LTa
0.50 0.50 0.50 C 1220 3207 M
5619 0 V
stroke
1.000 UL
LTb
0.00 0.00 0.00 C 1220 3207 M
63 0 V
5556 0 R
-63 0 V
stroke
1100 3207 M
[ [(Arial) 200.0 0.0 true true 0 ( 100)]
] -66.7 MRshow
1.000 UL
LTb
0.00 0.00 0.00 C 1220 3447 M
31 0 V
5588 0 R
-31 0 V
1220 3764 M
31 0 V
5588 0 R
-31 0 V
1220 3926 M
31 0 V
5588 0 R
-31 0 V
stroke
0.500 UL
LTa
0.50 0.50 0.50 C 1220 4003 M
5619 0 V
stroke
1.000 UL
LTb
0.00 0.00 0.00 C 1220 4003 M
63 0 V
5556 0 R
-63 0 V
stroke
1100 4003 M
[ [(Arial) 200.0 0.0 true true 0 ( 1000)]
] -66.7 MRshow
1.000 UL
LTb
0.00 0.00 0.00 C 1220 4243 M
31 0 V
5588 0 R
-31 0 V
1220 4559 M
31 0 V
5588 0 R
-31 0 V
1220 4722 M
31 0 V
5588 0 R
-31 0 V
stroke
0.500 UL
LTa
0.50 0.50 0.50 C 1220 4799 M
5619 0 V
stroke
1.000 UL
LTb
0.00 0.00 0.00 C 1220 4799 M
63 0 V
5556 0 R
-63 0 V
stroke
1100 4799 M
[ [(Arial) 200.0 0.0 true true 0 ( 10000)]
] -66.7 MRshow
1.000 UL
LTb
0.00 0.00 0.00 C 0.500 UL
LTa
0.50 0.50 0.50 C 1822 820 M
0 3979 V
stroke
1.000 UL
LTb
0.00 0.00 0.00 C 1822 820 M
0 63 V
0 3916 R
0 -63 V
stroke
1822 620 M
[ [(Arial) 200.0 0.0 true true 0 ( 10)]
] -66.7 MCshow
1.000 UL
LTb
0.00 0.00 0.00 C 0.500 UL
LTa
0.50 0.50 0.50 C 2825 820 M
0 3979 V
stroke
1.000 UL
LTb
0.00 0.00 0.00 C 2825 820 M
0 63 V
0 3916 R
0 -63 V
stroke
2825 620 M
[ [(Arial) 200.0 0.0 true true 0 ( 20)]
] -66.7 MCshow
1.000 UL
LTb
0.00 0.00 0.00 C 0.500 UL
LTa
0.50 0.50 0.50 C 3829 820 M
0 3979 V
stroke
1.000 UL
LTb
0.00 0.00 0.00 C 3829 820 M
0 63 V
0 3916 R
0 -63 V
stroke
3829 620 M
[ [(Arial) 200.0 0.0 true true 0 ( 30)]
] -66.7 MCshow
1.000 UL
LTb
0.00 0.00 0.00 C 0.500 UL
LTa
0.50 0.50 0.50 C 4832 820 M
0 3979 V
stroke
1.000 UL
LTb
0.00 0.00 0.00 C 4832 820 M
0 63 V
0 3916 R
0 -63 V
stroke
4832 620 M
[ [(Arial) 200.0 0.0 true true 0 ( 40)]
] -66.7 MCshow
1.000 UL
LTb
0.00 0.00 0.00 C 0.500 UL
LTa
0.50 0.50 0.50 C 5836 820 M
0 3979 V
stroke
1.000 UL
LTb
0.00 0.00 0.00 C 5836 820 M
0 63 V
0 3916 R
0 -63 V
stroke
5836 620 M
[ [(Arial) 200.0 0.0 true true 0 ( 50)]
] -66.7 MCshow
1.000 UL
LTb
0.00 0.00 0.00 C 0.500 UL
LTa
0.50 0.50 0.50 C 6839 820 M
0 3979 V
stroke
1.000 UL
LTb
0.00 0.00 0.00 C 6839 820 M
0 63 V
0 3916 R
0 -63 V
stroke
6839 620 M
[ [(Arial) 200.0 0.0 true true 0 ( 60)]
] -66.7 MCshow
1.000 UL
LTb
0.00 0.00 0.00 C 1.000 UL
LTB
0.00 0.00 0.00 C 1220 4799 M
0 -3979 V
5619 0 V
0 3979 R
-5619 0 R
1.000 UP
stroke
LTb
0.00 0.00 0.00 C LCb setrgbcolor
160 2809 M
currentpoint gsave translate -270 rotate 0 0 moveto
[ [(Arial) 200.0 0.0 true true 0 (cWnd \(KB\))]
] -66.7 MCshow
grestore
LTb
LCb setrgbcolor
4029 320 M
[ [(Arial) 200.0 0.0 true true 0 (Time \(s\))]
] -66.7 MCshow
LTb
% Begin plot #1
1.000 UL
LTa
0.60 0.60 0.00 C 2168 1957 M
5 140 V
5 99 V
6 77 V
0 63 V
5 53 V
0 47 V
0 40 V
6 37 V
0 33 V
0 30 V
0 27 V
5 26 V
0 24 V
0 22 V
0 21 V
0 20 V
0 19 V
6 17 V
0 17 V
0 16 V
0 16 V
0 14 V
0 14 V
0 14 V
0 13 V
0 13 V
6 12 V
0 11 V
0 12 V
0 11 V
0 10 V
0 11 V
0 10 V
0 9 V
0 10 V
0 9 V
0 9 V
0 9 V
0 8 V
0 9 V
6 8 V
0 8 V
0 8 V
0 7 V
0 8 V
0 7 V
0 7 V
0 7 V
0 7 V
0 7 V
0 6 V
0 7 V
0 6 V
0 6 V
0 6 V
0 6 V
0 6 V
0 6 V
0 6 V
0 5 V
0 6 V
6 5 V
0 6 V
0 5 V
0 5 V
0 5 V
0 5 V
0 5 V
0 5 V
0 5 V
0 5 V
0 4 V
0 5 V
0 5 V
0 4 V
0 5 V
0 4 V
0 4 V
0 5 V
0 4 V
0 4 V
0 4 V
0 4 V
0 4 V
0 4 V
0 4 V
0 4 V
0 4 V
0 4 V
0 4 V
10 3 V
0 4 V
0 4 V
0 3 V
0 4 V
0 4 V
0 3 V
0 4 V
0 3 V
0 3 V
0 4 V
0 3 V
0 3 V
0 4 V
stroke 2234 3329 M
0 3 V
0 3 V
0 3 V
0 3 V
0 4 V
0 3 V
0 3 V
0 3 V
0 3 V
0 3 V
0 3 V
0 3 V
0 3 V
0 3 V
0 2 V
0 3 V
0 3 V
0 3 V
0 3 V
0 2 V
0 3 V
0 3 V
0 3 V
0 2 V
0 3 V
0 3 V
0 2 V
0 3 V
0 2 V
0 3 V
0 2 V
6 3 V
0 2 V
0 3 V
0 2 V
0 3 V
0 2 V
0 3 V
0 2 V
0 2 V
0 3 V
0 2 V
0 2 V
0 3 V
0 2 V
0 2 V
0 3 V
0 2 V
0 2 V
0 2 V
0 2 V
0 3 V
0 2 V
0 2 V
0 2 V
0 2 V
1 2 V
11 3 V
0 2 V
0 2 V
0 2 V
0 2 V
0 2 V
10 2 V
0 2 V
0 2 V
0 -70 V
0 3 V
0 2 V
0 3 V
0 2 V
0 2 V
0 3 V
0 2 V
0 2 V
0 3 V
0 2 V
0 2 V
0 3 V
0 2 V
0 2 V
0 2 V
0 3 V
0 2 V
0 2 V
0 2 V
0 2 V
0 2 V
0 3 V
0 2 V
0 2 V
0 2 V
0 2 V
0 2 V
0 2 V
0 2 V
0 2 V
0 2 V
0 2 V
0 2 V
0 2 V
0 2 V
0 2 V
0 2 V
stroke 2262 3507 M
0 2 V
0 2 V
0 2 V
0 2 V
0 2 V
0 2 V
0 1 V
0 2 V
0 2 V
0 2 V
0 2 V
0 2 V
0 1 V
0 2 V
0 2 V
0 2 V
0 2 V
0 1 V
0 2 V
0 2 V
0 2 V
0 1 V
0 2 V
0 2 V
0 2 V
0 1 V
0 2 V
0 2 V
0 1 V
0 2 V
0 2 V
0 1 V
0 2 V
0 2 V
0 1 V
0 2 V
0 1 V
0 2 V
0 2 V
0 1 V
0 2 V
0 1 V
0 2 V
0 2 V
0 1 V
0 2 V
0 1 V
0 2 V
0 1 V
0 2 V
0 1 V
0 2 V
0 1 V
0 2 V
0 1 V
0 2 V
0 1 V
0 2 V
0 1 V
0 2 V
6 1 V
0 2 V
0 1 V
0 1 V
0 2 V
0 1 V
0 2 V
0 1 V
0 1 V
0 2 V
0 1 V
0 2 V
0 1 V
0 1 V
0 2 V
0 1 V
0 2 V
0 1 V
0 1 V
0 2 V
0 1 V
0 1 V
0 2 V
0 1 V
0 1 V
0 2 V
0 1 V
0 1 V
0 1 V
0 2 V
0 1 V
0 1 V
0 2 V
0 1 V
0 1 V
0 1 V
0 2 V
0 1 V
0 1 V
0 1 V
0 2 V
0 1 V
0 -1 V
0 1 V
stroke 2268 3664 M
0 1 V
0 1 V
0 2 V
0 1 V
0 1 V
0 1 V
0 1 V
0 2 V
0 1 V
1 1 V
10 1 V
10 1 V
0 2 V
0 1 V
0 1 V
0 1 V
0 1 V
0 1 V
0 2 V
0 1 V
0 1 V
0 1 V
0 1 V
0 1 V
0 2 V
0 1 V
0 1 V
0 1 V
0 1 V
0 1 V
0 1 V
0 1 V
0 1 V
0 2 V
0 1 V
0 1 V
0 1 V
0 1 V
0 1 V
0 1 V
0 1 V
0 1 V
0 1 V
0 1 V
0 1 V
0 2 V
0 1 V
0 1 V
0 1 V
0 1 V
0 1 V
0 1 V
0 1 V
0 1 V
0 1 V
0 1 V
0 1 V
0 1 V
0 1 V
0 1 V
0 1 V
0 1 V
0 1 V
0 1 V
0 1 V
0 1 V
0 1 V
0 1 V
0 1 V
0 1 V
0 1 V
0 1 V
0 1 V
0 1 V
0 1 V
0 1 V
0 1 V
0 1 V
0 1 V
0 1 V
0 1 V
0 1 V
0 1 V
0 1 V
0 1 V
0 1 V
0 1 V
0 1 V
0 1 V
0 1 V
0 1 V
0 1 V
0 1 V
0 1 V
0 1 V
0 1 V
0 -1 V
0 1 V
0 1 V
0 1 V
0 1 V
0 1 V
0 1 V
0 1 V
stroke 2289 3773 M
0 1 V
0 1 V
0 1 V
0 1 V
0 1 V
6 1 V
0 1 V
0 1 V
0 1 V
0 1 V
0 1 V
0 1 V
0 1 V
0 1 V
0 1 V
0 1 V
0 1 V
0 1 V
0 1 V
0 1 V
0 1 V
0 1 V
0 1 V
0 1 V
0 1 V
0 1 V
0 1 V
0 1 V
0 1 V
0 1 V
0 1 V
0 1 V
0 1 V
0 1 V
0 1 V
0 1 V
0 1 V
0 1 V
0 1 V
0 1 V
0 1 V
0 1 V
0 1 V
0 1 V
0 1 V
0 1 V
0 1 V
0 1 V
0 1 V
0 1 V
0 1 V
0 1 V
0 1 V
0 1 V
0 1 V
0 1 V
0 1 V
0 1 V
0 1 V
0 1 V
0 1 V
0 1 V
0 1 V
1 1 V
0 1 V
0 1 V
0 1 V
0 1 V
0 1 V
0 1 V
0 1 V
0 1 V
0 1 V
0 1 V
15 -1 V
0 1 V
0 1 V
0 1 V
0 1 V
0 1 V
0 1 V
0 1 V
0 1 V
0 1 V
0 1 V
0 1 V
0 1 V
0 1 V
0 1 V
0 1 V
0 1 V
0 1 V
0 1 V
0 1 V
0 1 V
0 1 V
0 1 V
0 1 V
0 1 V
0 1 V
0 1 V
0 1 V
0 1 V
0 1 V
stroke 2311 3875 M
0 1 V
0 1 V
0 1 V
0 1 V
0 1 V
0 1 V
0 1 V
0 1 V
0 1 V
0 1 V
1 1 V
0 1 V
0 1 V
0 1 V
0 1 V
0 1 V
0 1 V
0 1 V
0 1 V
0 1 V
0 1 V
0 1 V
0 1 V
0 1 V
0 1 V
5 -1 V
0 1 V
0 1 V
0 1 V
0 1 V
0 1 V
0 1 V
0 1 V
0 1 V
0 1 V
0 1 V
0 1 V
0 1 V
0 1 V
0 1 V
0 1 V
0 1 V
0 1 V
0 1 V
0 1 V
0 1 V
0 1 V
0 1 V
0 1 V
0 1 V
0 1 V
0 1 V
0 1 V
0 1 V
0 1 V
0 1 V
0 1 V
0 1 V
0 1 V
0 1 V
0 1 V
0 1 V
0 1 V
0 1 V
0 1 V
0 1 V
0 1 V
0 1 V
0 1 V
0 1 V
0 1 V
2 0 V
0 1 V
0 1 V
0 1 V
3 -1 V
0 1 V
0 1 V
0 1 V
0 1 V
0 1 V
0 1 V
0 1 V
0 1 V
0 1 V
0 1 V
0 1 V
1 0 V
0 1 V
0 1 V
0 1 V
0 1 V
0 1 V
0 1 V
0 1 V
0 1 V
0 1 V
0 1 V
0 1 V
0 1 V
0 1 V
0 1 V
0 1 V
0 1 V
stroke 2323 3973 M
0 1 V
0 1 V
0 1 V
12 1 V
0 1 V
0 1 V
10 -1 V
0 1 V
0 1 V
0 1 V
0 1 V
0 1 V
0 1 V
0 1 V
0 1 V
6 -1 V
0 1 V
0 1 V
0 1 V
0 1 V
0 1 V
0 1 V
0 1 V
0 1 V
6 0 V
0 1 V
0 1 V
0 1 V
0 1 V
0 1 V
0 1 V
0 1 V
0 1 V
6 -1 V
0 1 V
0 1 V
0 1 V
0 1 V
0 1 V
0 1 V
0 1 V
0 1 V
6 -2291 V
15 240 V
6 140 V
0 99 V
6 77 V
0 63 V
0 53 V
0 47 V
5 40 V
0 37 V
0 33 V
0 30 V
0 27 V
1 26 V
0 24 V
16 22 V
6 21 V
0 20 V
0 19 V
0 17 V
0 17 V
6 16 V
5 16 V
0 14 V
0 14 V
0 14 V
1 13 V
0 13 V
0 -34 V
0 13 V
0 13 V
0 13 V
0 11 V
0 12 V
0 11 V
0 11 V
0 11 V
0 10 V
0 10 V
0 9 V
0 10 V
0 9 V
0 9 V
0 8 V
0 9 V
0 8 V
0 8 V
0 8 V
0 8 V
0 7 V
0 8 V
0 7 V
0 7 V
0 7 V
0 7 V
0 6 V
0 7 V
0 6 V
0 6 V
0 7 V
0 6 V
0 6 V
stroke 2436 3123 M
0 6 V
0 5 V
0 6 V
0 6 V
0 5 V
0 5 V
0 6 V
0 5 V
0 5 V
0 5 V
0 5 V
0 5 V
0 5 V
17 -401 V
0 16 V
6 14 V
15 -33 V
0 16 V
0 14 V
0 14 V
0 14 V
0 13 V
0 12 V
0 12 V
0 12 V
0 11 V
0 11 V
0 10 V
0 11 V
0 10 V
0 9 V
0 10 V
0 9 V
1 9 V
5 9 V
0 8 V
0 8 V
0 -8 V
0 8 V
0 8 V
0 8 V
0 8 V
0 8 V
0 7 V
0 7 V
0 7 V
0 7 V
0 7 V
0 7 V
0 6 V
0 7 V
0 6 V
6 6 V
0 6 V
0 6 V
0 -383 V
0 18 V
5 16 V
11 16 V
6 16 V
6 14 V
11 14 V
5 14 V
2631 1717 L
16 240 V
5 140 V
6 99 V
6 77 V
0 63 V
6 53 V
0 47 V
0 40 V
6 37 V
0 33 V
0 30 V
0 27 V
36 26 V
6 24 V
0 22 V
0 21 V
0 20 V
0 19 V
0 17 V
0 17 V
36 16 V
11 16 V
17 14 V
5 14 V
11 14 V
21 13 V
6 13 V
10 12 V
6 11 V
5 12 V
0 11 V
2952 1717 L
15 240 V
5 140 V
5 99 V
5 77 V
0 63 V
5 53 V
0 47 V
0 40 V
6 37 V
0 33 V
0 30 V
0 27 V
5 26 V
0 24 V
0 22 V
0 21 V
0 20 V
0 19 V
6 17 V
0 17 V
0 16 V
0 16 V
0 14 V
0 14 V
0 14 V
6 13 V
6 13 V
3122 1717 L
16 240 V
5 140 V
6 99 V
5 77 V
0 63 V
5 53 V
0 47 V
0 40 V
5 37 V
0 33 V
0 30 V
0 27 V
6 26 V
0 24 V
0 22 V
0 21 V
0 20 V
0 19 V
6 17 V
0 17 V
0 16 V
0 16 V
0 14 V
5 14 V
11 14 V
5 13 V
0 13 V
5 12 V
1 11 V
4 12 V
0 11 V
1 10 V
5 11 V
0 10 V
2 9 V
14 -42 V
0 10 V
0 11 V
0 10 V
0 10 V
0 9 V
0 9 V
0 9 V
0 9 V
0 9 V
0 8 V
0 8 V
0 8 V
0 8 V
0 8 V
0 7 V
0 7 V
0 8 V
0 7 V
0 6 V
0 7 V
0 7 V
0 6 V
0 7 V
0 6 V
5 6 V
0 6 V
0 6 V
0 -6 V
0 6 V
0 6 V
0 6 V
0 5 V
0 6 V
0 5 V
0 6 V
0 5 V
0 5 V
0 5 V
0 5 V
0 5 V
0 5 V
0 5 V
0 5 V
0 5 V
0 4 V
0 5 V
6 4 V
0 5 V
0 4 V
0 -4 V
0 4 V
0 5 V
0 4 V
0 4 V
0 4 V
0 4 V
0 5 V
0 4 V
0 4 V
0 4 V
0 3 V
0 4 V
0 4 V
0 4 V
0 4 V
0 3 V
0 4 V
0 4 V
stroke 3240 3294 M
0 3 V
6 4 V
0 3 V
0 4 V
0 -4 V
0 4 V
0 3 V
0 4 V
0 3 V
0 3 V
0 4 V
0 3 V
0 3 V
0 4 V
0 3 V
0 3 V
0 3 V
0 3 V
0 3 V
0 3 V
0 3 V
0 3 V
0 3 V
0 3 V
0 3 V
5 3 V
0 3 V
0 3 V
0 -3 V
0 3 V
0 3 V
0 2 V
0 3 V
0 3 V
0 3 V
0 2 V
0 3 V
0 3 V
0 2 V
0 3 V
0 3 V
0 2 V
0 3 V
0 2 V
0 3 V
0 2 V
2 3 V
0 2 V
0 3 V
0 2 V
3 3 V
0 2 V
0 2 V
0 -2 V
0 2 V
0 3 V
0 2 V
0 3 V
0 2 V
0 2 V
0 3 V
0 2 V
0 2 V
0 2 V
0 3 V
0 2 V
0 2 V
0 2 V
0 2 V
0 3 V
0 2 V
0 2 V
3 2 V
0 2 V
0 2 V
0 2 V
2 2 V
0 2 V
0 2 V
0 -2 V
0 2 V
0 3 V
0 2 V
0 2 V
0 2 V
0 2 V
0 2 V
0 2 V
0 1 V
0 2 V
0 2 V
0 2 V
0 2 V
0 2 V
0 2 V
0 2 V
0 2 V
0 2 V
0 2 V
5 1 V
0 2 V
0 2 V
0 2 V
1 2 V
stroke 3267 3534 M
0 1 V
0 2 V
0 -659 V
0 12 V
6 12 V
19 11 V
5 10 V
11 11 V
5 10 V
5 10 V
11 9 V
5 9 V
5 9 V
6 9 V
10 9 V
5 8 V
12 8 V
0 8 V
5 8 V
0 8 V
6 7 V
0 7 V
0 8 V
7 7 V
0 6 V
0 7 V
0 7 V
5 6 V
0 7 V
0 6 V
0 6 V
0 6 V
2 6 V
3 6 V
0 6 V
0 5 V
0 6 V
0 5 V
0 6 V
2 5 V
3 5 V
0 5 V
0 5 V
0 5 V
0 5 V
0 5 V
0 5 V
2 5 V
3 4 V
0 5 V
0 4 V
0 5 V
0 4 V
0 5 V
0 4 V
0 4 V
0 4 V
0 4 V
0 5 V
2 4 V
3 4 V
0 4 V
0 3 V
0 4 V
0 4 V
0 4 V
0 4 V
1 3 V
0 4 V
0 4 V
0 3 V
0 4 V
2 3 V
2 4 V
0 3 V
0 4 V
0 3 V
0 3 V
0 4 V
0 3 V
1 3 V
0 4 V
0 3 V
0 3 V
2 3 V
3 3 V
0 3 V
0 3 V
0 3 V
0 3 V
0 3 V
0 3 V
0 3 V
0 3 V
0 3 V
0 3 V
0 3 V
0 2 V
2 3 V
3 3 V
0 3 V
0 2 V
0 3 V
0 3 V
stroke 3431 3399 M
0 2 V
0 3 V
0 3 V
0 2 V
0 3 V
0 2 V
1 3 V
0 2 V
4 3 V
0 2 V
0 3 V
0 2 V
0 3 V
0 2 V
0 2 V
0 3 V
1 2 V
0 3 V
0 2 V
0 2 V
0 3 V
0 2 V
4 2 V
0 2 V
0 3 V
0 2 V
0 2 V
0 2 V
0 2 V
2 3 V
0 2 V
0 2 V
0 2 V
0 2 V
0 2 V
0 2 V
3 2 V
0 2 V
0 2 V
0 3 V
0 2 V
0 2 V
12 2 V
0 2 V
0 2 V
0 2 V
0 1 V
0 2 V
0 2 V
0 2 V
0 2 V
0 2 V
6 2 V
0 2 V
0 2 V
0 2 V
0 2 V
0 1 V
0 2 V
0 2 V
0 -72 V
1 2 V
0 3 V
0 2 V
0 2 V
0 2 V
5 2 V
0 3 V
0 2 V
0 2 V
0 2 V
0 2 V
0 2 V
0 2 V
0 2 V
0 2 V
0 2 V
0 2 V
0 2 V
0 2 V
0 2 V
0 2 V
0 2 V
0 2 V
0 2 V
0 2 V
0 2 V
0 2 V
0 2 V
0 2 V
0 2 V
0 2 V
0 1 V
0 2 V
0 2 V
0 2 V
0 2 V
0 2 V
0 1 V
0 2 V
0 2 V
0 2 V
0 1 V
0 2 V
stroke 3470 3543 M
0 2 V
0 2 V
0 1 V
0 2 V
0 2 V
0 2 V
0 1 V
0 2 V
0 2 V
0 1 V
0 2 V
0 2 V
0 1 V
0 2 V
0 2 V
0 1 V
0 2 V
0 1 V
0 2 V
0 2 V
0 1 V
0 2 V
0 1 V
0 2 V
0 1 V
0 2 V
0 2 V
0 1 V
0 2 V
0 1 V
0 2 V
0 1 V
0 2 V
0 1 V
0 2 V
0 1 V
0 2 V
0 1 V
0 2 V
0 1 V
0 2 V
0 1 V
0 1 V
0 2 V
0 1 V
0 2 V
0 1 V
0 2 V
0 1 V
0 1 V
0 2 V
0 1 V
0 2 V
0 1 V
0 1 V
0 2 V
0 1 V
0 1 V
0 2 V
0 1 V
0 1 V
0 2 V
0 1 V
0 1 V
0 2 V
0 1 V
0 1 V
0 2 V
0 1 V
0 1 V
0 -1 V
0 1 V
5 2 V
0 1 V
0 1 V
0 1 V
0 2 V
0 1 V
0 1 V
0 1 V
0 2 V
0 1 V
0 1 V
0 1 V
0 2 V
0 1 V
0 1 V
0 1 V
0 2 V
0 1 V
0 1 V
0 1 V
0 1 V
0 2 V
0 1 V
0 1 V
0 1 V
0 1 V
0 1 V
0 2 V
0 1 V
0 1 V
0 1 V
0 1 V
stroke 3475 3687 M
0 1 V
0 2 V
0 1 V
0 1 V
0 1 V
0 1 V
0 1 V
0 1 V
0 2 V
0 1 V
0 1 V
0 1 V
0 1 V
0 1 V
0 1 V
0 1 V
0 1 V
0 2 V
0 1 V
0 1 V
0 1 V
0 1 V
1 1 V
0 1 V
0 1 V
0 1 V
0 1 V
0 1 V
0 1 V
0 1 V
0 1 V
0 1 V
0 1 V
0 2 V
0 1 V
0 1 V
0 1 V
0 1 V
0 1 V
0 1 V
0 1 V
0 1 V
0 1 V
0 1 V
0 -1 V
0 1 V
0 1 V
5 1 V
0 1 V
0 1 V
0 1 V
0 1 V
0 1 V
0 1 V
0 1 V
0 1 V
0 1 V
0 1 V
0 1 V
0 1 V
0 1 V
0 1 V
0 1 V
0 1 V
0 1 V
0 1 V
0 1 V
0 1 V
0 1 V
0 1 V
0 1 V
0 1 V
0 1 V
0 1 V
0 1 V
0 1 V
1 1 V
0 1 V
0 1 V
0 1 V
0 1 V
0 1 V
0 1 V
0 1 V
0 1 V
0 1 V
0 1 V
0 1 V
0 1 V
0 1 V
0 1 V
0 1 V
0 1 V
0 1 V
0 1 V
0 1 V
0 1 V
0 1 V
0 1 V
0 1 V
0 1 V
0 1 V
0 1 V
0 1 V
stroke 3482 3793 M
0 1 V
0 1 V
0 1 V
0 1 V
0 1 V
0 1 V
0 1 V
0 1 V
0 1 V
0 1 V
0 1 V
0 1 V
0 -1 V
0 1 V
0 1 V
5 1 V
0 1 V
0 1 V
0 1 V
0 1 V
0 1 V
0 1 V
0 1 V
0 1 V
0 1 V
0 1 V
0 1 V
0 1 V
0 1 V
0 1 V
0 1 V
0 1 V
0 1 V
0 1 V
0 1 V
0 1 V
0 1 V
0 1 V
0 1 V
0 1 V
0 1 V
0 1 V
0 1 V
0 1 V
0 1 V
0 1 V
0 1 V
1 1 V
0 1 V
0 1 V
0 1 V
0 1 V
0 1 V
0 1 V
0 1 V
0 1 V
0 1 V
0 1 V
0 1 V
0 1 V
0 1 V
0 1 V
0 1 V
0 1 V
0 1 V
0 1 V
10 1 V
0 -1 V
0 1 V
0 1 V
0 1 V
0 1 V
0 1 V
0 1 V
0 1 V
0 1 V
0 1 V
0 1 V
0 1 V
0 1 V
0 1 V
0 1 V
0 1 V
0 1 V
0 1 V
0 1 V
0 1 V
0 1 V
0 1 V
0 1 V
0 1 V
0 1 V
0 1 V
0 1 V
0 1 V
0 1 V
0 1 V
0 1 V
0 1 V
0 1 V
0 1 V
0 1 V
0 1 V
0 1 V
stroke 3498 3893 M
0 1 V
0 1 V
0 1 V
0 1 V
0 1 V
0 1 V
0 1 V
0 1 V
0 1 V
0 1 V
0 1 V
5 1 V
0 -1 V
0 1 V
0 1 V
0 1 V
0 1 V
0 1 V
0 1 V
0 1 V
0 1 V
0 1 V
0 1 V
0 1 V
0 1 V
0 1 V
0 1 V
0 1 V
0 1 V
0 1 V
0 1 V
0 1 V
0 1 V
0 1 V
0 1 V
0 1 V
0 1 V
0 1 V
0 1 V
0 1 V
2 1 V
0 1 V
0 1 V
0 1 V
0 1 V
0 1 V
0 1 V
0 1 V
0 1 V
0 1 V
0 1 V
0 1 V
0 1 V
0 1 V
0 1 V
3 0 V
0 -1 V
0 1 V
0 1 V
0 1 V
0 1 V
0 1 V
0 1 V
0 1 V
0 1 V
0 1 V
0 1 V
0 1 V
0 1 V
0 1 V
0 1 V
0 1 V
0 1 V
0 1 V
0 1 V
0 1 V
0 1 V
0 1 V
0 1 V
0 1 V
0 1 V
0 1 V
2 1 V
0 1 V
0 1 V
0 1 V
0 1 V
0 1 V
0 1 V
0 1 V
0 1 V
0 1 V
0 1 V
0 1 V
0 1 V
3 1 V
0 -1 V
0 1 V
0 1 V
0 1 V
0 1 V
0 1 V
0 1 V
0 1 V
stroke 3513 3990 M
0 1 V
0 1 V
0 1 V
0 1 V
0 1 V
0 1 V
0 1 V
0 1 V
0 1 V
0 1 V
0 1 V
0 1 V
0 1 V
0 1 V
0 1 V
0 1 V
2 0 V
0 1 V
0 1 V
0 1 V
0 1 V
0 1 V
0 1 V
0 1 V
0 1 V
0 1 V
0 1 V
0 1 V
0 1 V
3 0 V
0 1 V
0 1 V
0 1 V
0 1 V
0 1 V
0 1 V
0 1 V
0 1 V
0 1 V
0 1 V
0 1 V
0 1 V
0 1 V
0 1 V
0 1 V
0 1 V
0 1 V
0 1 V
0 1 V
0 1 V
0 1 V
2 0 V
0 1 V
0 1 V
0 1 V
0 1 V
0 1 V
0 1 V
0 1 V
0 1 V
0 1 V
0 1 V
3 1 V
0 -1 V
0 1 V
0 1 V
0 1 V
0 1 V
0 1 V
0 1 V
0 1 V
0 1 V
0 1 V
0 1 V
0 1 V
0 1 V
0 1 V
0 1 V
0 1 V
0 1 V
0 1 V
0 1 V
0 1 V
0 1 V
2 1 V
0 1 V
0 1 V
0 1 V
0 1 V
0 1 V
0 1 V
0 1 V
0 1 V
0 1 V
3 0 V
0 1 V
0 1 V
0 1 V
0 1 V
0 1 V
0 1 V
0 1 V
1 0 V
0 1 V
stroke 3529 4087 M
0 1 V
0 1 V
0 1 V
0 1 V
0 1 V
0 1 V
0 1 V
0 1 V
0 1 V
0 1 V
1 1 V
0 1 V
0 1 V
0 1 V
0 1 V
0 1 V
0 1 V
0 1 V
0 1 V
3 1 V
0 -1 V
0 1 V
0 1 V
0 1 V
0 1 V
0 1 V
0 1 V
0 1 V
0 1 V
0 1 V
0 1 V
0 1 V
0 1 V
0 1 V
0 1 V
0 1 V
0 1 V
0 1 V
0 1 V
2 0 V
0 1 V
0 1 V
0 1 V
0 1 V
0 1 V
0 1 V
0 1 V
0 1 V
15 0 V
0 1 V
0 1 V
0 1 V
0 1 V
0 1 V
0 1 V
0 1 V
0 1 V
6 0 V
0 1 V
0 1 V
0 1 V
0 1 V
0 1 V
0 1 V
0 1 V
0 1 V
5 0 V
0 1 V
0 1 V
0 1 V
0 1 V
0 1 V
0 1 V
1 0 V
0 1 V
0 1 V
4 0 V
0 1 V
0 1 V
0 1 V
1 0 V
0 1 V
0 1 V
0 1 V
0 1 V
0 1 V
0 1 V
4 -2448 V
1 240 V
5 140 V
0 99 V
0 77 V
0 63 V
0 53 V
0 47 V
0 40 V
0 37 V
0 33 V
0 30 V
0 27 V
0 26 V
0 24 V
0 22 V
0 21 V
stroke 3577 2696 M
0 20 V
0 19 V
0 17 V
0 17 V
0 16 V
0 16 V
0 14 V
0 14 V
0 14 V
0 13 V
0 13 V
0 12 V
0 11 V
4 12 V
1 11 V
0 10 V
0 11 V
0 10 V
0 9 V
0 10 V
0 9 V
0 9 V
0 9 V
0 8 V
0 9 V
0 8 V
0 8 V
0 8 V
0 7 V
0 8 V
0 7 V
0 7 V
0 7 V
0 7 V
0 7 V
0 6 V
0 7 V
0 6 V
0 6 V
0 6 V
0 6 V
4 6 V
1 6 V
0 6 V
5 5 V
0 6 V
0 5 V
0 6 V
0 5 V
0 5 V
0 5 V
0 5 V
0 -59 V
0 6 V
0 6 V
0 6 V
0 5 V
0 6 V
0 5 V
0 6 V
0 5 V
0 5 V
0 5 V
0 5 V
0 5 V
0 5 V
0 5 V
0 5 V
0 4 V
0 5 V
0 5 V
0 4 V
0 5 V
0 4 V
0 4 V
0 5 V
0 4 V
0 4 V
0 4 V
0 4 V
0 4 V
0 4 V
0 4 V
0 4 V
0 4 V
0 4 V
0 3 V
0 4 V
0 4 V
0 4 V
0 3 V
0 4 V
0 3 V
0 4 V
0 3 V
0 4 V
0 3 V
0 3 V
0 4 V
0 3 V
0 3 V
0 4 V
0 3 V
0 3 V
stroke 3592 3339 M
0 3 V
0 3 V
0 3 V
0 3 V
0 3 V
0 3 V
0 3 V
0 3 V
0 3 V
0 3 V
0 3 V
0 3 V
0 3 V
0 3 V
0 2 V
0 3 V
0 3 V
1 3 V
0 2 V
0 3 V
0 3 V
0 2 V
0 3 V
0 3 V
0 2 V
0 3 V
0 2 V
0 3 V
0 2 V
0 3 V
0 2 V
0 3 V
0 2 V
0 3 V
0 2 V
0 2 V
0 3 V
0 2 V
3 3 V
0 2 V
1 2 V
0 2 V
0 -4 V
0 2 V
0 -4 V
0 2 V
0 -5 V
0 3 V
0 -5 V
0 2 V
0 -5 V
0 3 V
0 -5 V
0 2 V
0 -4 V
0 2 V
0 -5 V
0 3 V
0 -5 V
0 2 V
0 -5 V
0 3 V
0 -5 V
0 2 V
0 -5 V
0 3 V
0 -5 V
0 2 V
0 -5 V
0 3 V
0 -5 V
0 2 V
0 -5 V
0 3 V
0 -5 V
0 2 V
0 -5 V
0 3 V
0 -6 V
0 3 V
0 -5 V
0 2 V
0 -5 V
0 3 V
0 -6 V
0 3 V
0 -5 V
0 2 V
0 -5 V
0 3 V
0 -6 V
0 3 V
0 -6 V
0 3 V
0 -5 V
0 2 V
0 -5 V
0 3 V
0 -6 V
0 3 V
0 -6 V
0 3 V
0 -6 V
0 3 V
stroke 3597 3372 M
0 -6 V
0 3 V
0 -6 V
0 3 V
0 -6 V
0 3 V
0 -6 V
0 3 V
0 -257 V
1 -55 V
0 7 V
0 7 V
0 7 V
0 7 V
0 7 V
0 6 V
0 7 V
0 6 V
0 6 V
0 6 V
0 6 V
0 6 V
0 6 V
0 6 V
0 5 V
0 6 V
0 5 V
0 6 V
0 5 V
0 5 V
0 5 V
0 5 V
0 5 V
0 5 V
0 5 V
0 5 V
0 4 V
0 5 V
0 5 V
0 4 V
0 5 V
0 4 V
0 4 V
0 5 V
0 4 V
0 4 V
0 4 V
0 4 V
0 4 V
0 4 V
1 4 V
0 4 V
0 4 V
0 4 V
0 4 V
2 3 V
0 4 V
1 4 V
0 3 V
0 4 V
0 4 V
0 3 V
0 4 V
0 3 V
0 3 V
0 4 V
0 3 V
0 3 V
0 4 V
0 3 V
0 3 V
0 3 V
0 3 V
0 4 V
0 3 V
0 3 V
0 3 V
0 3 V
0 3 V
0 3 V
0 3 V
0 3 V
0 3 V
0 2 V
0 3 V
0 3 V
0 3 V
0 3 V
0 2 V
0 3 V
0 3 V
0 3 V
0 2 V
0 3 V
0 3 V
0 2 V
0 3 V
0 2 V
0 3 V
0 2 V
0 3 V
0 2 V
0 3 V
0 2 V
stroke 3602 3427 M
0 3 V
0 2 V
0 3 V
0 2 V
0 2 V
0 3 V
0 2 V
0 2 V
0 3 V
0 2 V
0 2 V
0 3 V
0 2 V
0 2 V
0 2 V
0 2 V
0 3 V
0 2 V
0 2 V
0 2 V
1 2 V
0 2 V
0 3 V
0 2 V
0 2 V
0 2 V
0 2 V
0 -2 V
0 2 V
4 2 V
0 2 V
0 2 V
0 2 V
0 2 V
0 2 V
0 2 V
0 2 V
0 2 V
0 2 V
0 2 V
0 2 V
0 2 V
0 2 V
0 1 V
0 2 V
0 2 V
0 2 V
0 2 V
0 2 V
0 2 V
0 1 V
0 2 V
0 2 V
0 2 V
0 2 V
0 1 V
0 2 V
0 2 V
0 2 V
0 1 V
0 2 V
0 2 V
0 2 V
0 1 V
0 2 V
0 2 V
0 1 V
0 2 V
0 2 V
0 1 V
0 2 V
0 2 V
0 1 V
0 2 V
0 1 V
0 2 V
0 2 V
0 1 V
0 2 V
0 1 V
0 2 V
0 2 V
0 1 V
0 2 V
1 1 V
0 2 V
0 1 V
0 2 V
0 1 V
0 2 V
0 1 V
0 2 V
0 1 V
0 2 V
0 1 V
0 2 V
0 1 V
0 2 V
0 1 V
0 2 V
0 1 V
0 2 V
0 1 V
0 1 V
stroke 3608 3615 M
0 -1 V
0 1 V
0 2 V
4 1 V
1 2 V
0 1 V
0 1 V
0 2 V
0 1 V
0 2 V
0 1 V
0 1 V
0 2 V
0 1 V
0 1 V
0 2 V
0 1 V
0 1 V
0 2 V
0 1 V
0 1 V
0 2 V
0 1 V
0 1 V
0 2 V
0 1 V
0 1 V
0 2 V
0 1 V
0 1 V
0 1 V
0 2 V
0 1 V
0 1 V
0 1 V
0 2 V
0 1 V
0 1 V
0 1 V
0 2 V
0 1 V
0 1 V
0 1 V
0 2 V
0 1 V
0 1 V
0 1 V
0 1 V
0 2 V
0 1 V
0 1 V
0 1 V
0 1 V
0 1 V
0 2 V
0 1 V
0 1 V
0 1 V
0 1 V
0 1 V
0 2 V
0 1 V
0 1 V
0 1 V
0 1 V
0 1 V
0 1 V
0 1 V
0 2 V
0 1 V
0 1 V
0 1 V
0 1 V
0 1 V
0 1 V
0 1 V
0 1 V
0 1 V
0 -1 V
0 1 V
0 2 V
0 1 V
4 1 V
1 1 V
0 1 V
0 1 V
0 1 V
0 1 V
0 1 V
0 1 V
0 1 V
0 1 V
0 1 V
0 1 V
0 1 V
0 1 V
0 1 V
0 1 V
0 1 V
0 1 V
0 2 V
0 1 V
0 1 V
0 1 V
stroke 3618 3735 M
0 1 V
0 1 V
0 1 V
0 1 V
0 1 V
0 1 V
0 1 V
0 1 V
0 1 V
0 1 V
0 1 V
0 1 V
0 1 V
0 1 V
0 1 V
0 1 V
0 1 V
0 1 V
0 1 V
0 1 V
0 1 V
0 1 V
0 1 V
0 1 V
0 1 V
0 1 V
0 1 V
0 1 V
0 1 V
0 1 V
0 1 V
0 1 V
0 1 V
0 1 V
0 1 V
0 1 V
0 1 V
0 1 V
0 1 V
0 1 V
0 1 V
0 1 V
0 1 V
0 1 V
0 1 V
0 1 V
0 1 V
0 1 V
0 1 V
0 -759 V
0 8 V
5 7 V
0 8 V
0 7 V
10 7 V
5 7 V
7 7 V
9 7 V
5 6 V
7 7 V
5 6 V
8 6 V
5 6 V
7 6 V
9 6 V
2 6 V
3 6 V
5 5 V
0 6 V
2 5 V
3 6 V
2 5 V
0 5 V
3 5 V
0 5 V
3 5 V
0 5 V
2 5 V
0 5 V
0 4 V
3 5 V
0 5 V
2 4 V
0 5 V
0 4 V
0 4 V
3 5 V
0 4 V
0 4 V
0 4 V
2 4 V
0 4 V
1 4 V
0 4 V
2 4 V
0 4 V
0 4 V
0 4 V
0 3 V
0 -2463 V
% End plot #1
% Begin plot #2
2.000 UP
stroke
LTa
0.60 0.60 0.00 C 2168 1957 Box
3159 2476 Box
3515 4016 Box
3618 3764 Box
% End plot #2
% Begin plot #3
2.000 UP
1.000 UL
LTa
0.60 0.60 0.00 C LCb setrgbcolor
2774 153 M
[ [(Arial) 180.0 0.0 true true 0 (olsr)]
] -60.0 MRshow
2.000 UP
1.000 UL
LTa
0.60 0.60 0.00 C 2882 153 M
333 0 V
2168 1957 M
2168 1957 Box
3048 153 Box
% End plot #3
% Begin plot #4
1.000 UL
LTb
LT1
0.00 0.00 0.63 C 1265 1957 M
5 140 V
5 99 V
6 77 V
0 63 V
5 53 V
0 47 V
5 40 V
0 37 V
0 33 V
6 30 V
0 27 V
0 26 V
0 24 V
6 22 V
0 21 V
0 20 V
0 19 V
0 17 V
0 17 V
0 16 V
0 16 V
1404 1717 L
15 240 V
6 140 V
6 99 V
6 77 V
0 63 V
6 53 V
0 47 V
0 40 V
6 37 V
0 33 V
0 30 V
0 27 V
6 26 V
0 24 V
0 -24 V
0 24 V
0 22 V
0 -199 V
0 37 V
6 -37 V
0 37 V
0 -124 V
0 47 V
0 40 V
0 37 V
0 -77 V
0 40 V
0 37 V
0 33 V
0 30 V
6 -119 V
0 38 V
0 35 V
0 -117 V
0 44 V
0 38 V
0 35 V
0 -496 V
0 116 V
6 -433 V
0 240 V
5 140 V
6 99 V
6 77 V
0 63 V
6 -30 V
0 -449 V
0 177 V
6 -177 V
0 177 V
6 239 V
0 63 V
0 -239 V
0 99 V
6 -239 V
0 140 V
12 99 V
12 77 V
6 63 V
11 53 V
6 47 V
42 40 V
6 37 V
5 33 V
5 30 V
12 27 V
0 -127 V
0 37 V
0 -177 V
0 53 V
0 47 V
0 -100 V
0 53 V
0 -292 V
0 99 V
6 -239 V
0 140 V
0 -380 V
0 240 V
0 239 V
0 77 V
6 63 V
0 53 V
0 47 V
0 40 V
0 37 V
0 -124 V
0 47 V
0 -479 V
5 316 V
0 63 V
0 -379 V
0 140 V
0 99 V
6 -239 V
5 140 V
11 99 V
10 77 V
6 63 V
10 53 V
6 47 V
11 40 V
6 -87 V
0 47 V
stroke 1719 2436 M
0 40 V
2 -379 V
0 99 V
4 -239 V
0 140 V
0 -140 V
0 140 V
0 99 V
0 77 V
12 63 V
6 53 V
10 47 V
5 -72 V
0 49 V
0 -263 V
0 87 V
0 -203 V
0 116 V
5 -293 V
0 177 V
0 63 V
0 99 V
0 77 V
10 63 V
6 53 V
10 47 V
6 40 V
5 37 V
11 33 V
5 30 V
5 27 V
5 -127 V
0 -759 V
0 240 V
0 -240 V
0 240 V
0 -1137 V
1 0 R
0 897 V
0 -897 V
4 0 R
0 897 V
0 240 V
1 -240 V
0 240 V
0 239 V
0 77 V
5 63 V
0 53 V
0 -53 V
0 53 V
0 47 V
0 40 V
0 -40 V
0 40 V
0 -519 V
5 140 V
6 99 V
5 77 V
11 63 V
5 53 V
11 47 V
5 40 V
12 37 V
0 -100 V
0 44 V
0 -220 V
0 69 V
0 -69 V
0 69 V
1 -156 V
0 87 V
4 69 V
0 58 V
0 49 V
0 -49 V
0 49 V
0 -176 V
5 69 V
10 58 V
6 49 V
5 44 V
10 38 V
6 35 V
5 31 V
11 29 V
5 26 V
5 25 V
6 23 V
6 22 V
5 20 V
1 19 V
4 19 V
0 17 V
1 -26 V
1 -60 V
0 21 V
0 -67 V
0 24 V
3 -24 V
0 24 V
0 -50 V
0 26 V
0 -26 V
stroke 1997 2603 M
0 26 V
0 24 V
1 22 V
0 21 V
0 -183 V
0 33 V
0 -33 V
0 33 V
0 -70 V
0 37 V
0 63 V
0 27 V
4 -127 V
0 37 V
0 -77 V
0 40 V
0 -40 V
0 40 V
0 -40 V
0 40 V
0 -87 V
0 47 V
0 -47 V
0 47 V
1 40 V
0 -140 V
0 53 V
0 47 V
0 -100 V
0 53 V
1 -116 V
0 63 V
4 -30 V
0 58 V
0 49 V
0 -107 V
0 58 V
0 -58 V
0 58 V
1 -58 V
0 58 V
4 -127 V
0 69 V
0 -272 V
0 239 V
1 -77 V
0 77 V
4 -77 V
0 77 V
0 -176 V
0 99 V
0 -239 V
6 140 V
5 99 V
11 77 V
11 63 V
6 53 V
6 47 V
12 40 V
6 37 V
5 33 V
6 30 V
5 -119 V
0 -151 V
0 58 V
0 -127 V
0 69 V
0 58 V
0 -330 V
0 116 V
6 -293 V
0 177 V
0 -557 V
0 380 V
0 177 V
5 63 V
0 99 V
6 77 V
0 63 V
5 53 V
5 47 V
10 40 V
5 37 V
9 33 V
8 30 V
6 27 V
5 -127 V
1 37 V
0 -77 V
0 40 V
0 37 V
0 -124 V
0 47 V
0 -163 V
0 63 V
1 -140 V
0 77 V
3 -176 V
0 99 V
0 77 V
0 63 V
2 -30 V
3 -156 V
0 87 V
stroke 2177 2237 M
0 69 V
0 -272 V
6 116 V
10 87 V
11 69 V
5 58 V
11 49 V
5 44 V
10 38 V
6 35 V
5 -117 V
0 44 V
1 38 V
0 -1018 V
0 380 V
0 -1037 V
4 0 R
0 897 V
0 380 V
0 99 V
5 77 V
0 63 V
10 53 V
5 47 V
6 -72 V
0 -330 V
0 116 V
0 -293 V
0 177 V
5 -557 V
0 380 V
0 177 V
0 116 V
0 -53 V
0 99 V
6 77 V
0 63 V
0 -239 V
0 99 V
0 -239 V
0 140 V
25 -140 V
0 140 V
10 99 V
10 77 V
5 63 V
11 53 V
5 47 V
5 40 V
10 37 V
5 33 V
6 30 V
5 27 V
5 -127 V
0 -140 V
0 53 V
0 47 V
0 40 V
0 37 V
0 33 V
0 -70 V
0 37 V
2 33 V
0 -273 V
0 63 V
4 -63 V
0 63 V
0 -140 V
0 77 V
0 63 V
0 -140 V
0 77 V
1 63 V
5 53 V
5 47 V
10 40 V
5 37 V
5 -100 V
0 -1593 V
0 897 V
0 -897 V
6 0 R
0 897 V
0 -897 V
0 897 V
0 240 V
0 140 V
5 99 V
2 77 V
4 63 V
10 53 V
5 47 V
11 40 V
5 37 V
10 33 V
0 -110 V
1 40 V
0 -280 V
0 77 V
0 -176 V
0 99 V
4 77 V
0 -176 V
0 99 V
stroke 2490 2196 M
0 77 V
0 -77 V
0 77 V
5 63 V
0 53 V
0 -116 V
0 63 V
0 -140 V
0 77 V
0 63 V
0 53 V
0 -116 V
0 63 V
0 -379 V
6 140 V
10 99 V
10 77 V
5 63 V
10 53 V
6 47 V
10 40 V
5 37 V
6 33 V
5 30 V
5 27 V
9 26 V
1 24 V
0 22 V
5 21 V
0 20 V
0 19 V
5 17 V
0 17 V
0 16 V
0 16 V
6 14 V
0 14 V
0 14 V
0 13 V
5 13 V
0 12 V
0 11 V
1 -36 V
0 -203 V
0 22 V
4 -46 V
0 24 V
0 22 V
0 21 V
0 -43 V
0 22 V
0 -239 V
0 40 V
0 -87 V
0 47 V
0 40 V
0 -40 V
0 40 V
0 -140 V
0 53 V
1 -53 V
0 53 V
0 87 V
0 37 V
5 33 V
0 -110 V
0 -240 V
0 77 V
0 63 V
0 -140 V
0 77 V
0 63 V
1 -63 V
0 63 V
0 -140 V
0 77 V
4 -176 V
0 99 V
0 77 V
2 -77 V
0 77 V
0 63 V
3 53 V
0 47 V
0 -163 V
0 63 V
0 53 V
0 47 V
0 40 V
0 -519 V
6 140 V
0 99 V
11 77 V
5 63 V
11 53 V
5 47 V
6 40 V
10 37 V
5 33 V
5 -110 V
0 -479 V
0 140 V
5 -140 V
0 140 V
stroke 2694 2097 M
0 -1277 V
0 897 V
0 240 V
0 140 V
0 99 V
5 77 V
0 63 V
5 53 V
11 47 V
11 40 V
0 -87 V
0 47 V
0 -719 V
0 240 V
5 -240 V
0 240 V
0 239 V
5 77 V
0 -77 V
0 77 V
0 -77 V
0 77 V
0 63 V
0 -239 V
0 99 V
6 -239 V
5 140 V
5 99 V
5 77 V
11 63 V
5 53 V
5 47 V
11 40 V
5 37 V
6 33 V
10 30 V
5 27 V
8 26 V
3 24 V
0 22 V
2 21 V
3 20 V
0 19 V
2 17 V
4 17 V
0 16 V
0 16 V
1 14 V
4 14 V
0 14 V
0 13 V
1 13 V
4 12 V
0 -35 V
0 13 V
0 12 V
0 -25 V
0 13 V
0 12 V
0 12 V
0 -95 V
0 16 V
0 -32 V
0 16 V
0 -131 V
0 22 V
1 -45 V
0 23 V
0 -48 V
0 25 V
0 23 V
0 -48 V
0 25 V
5 -25 V
0 25 V
0 23 V
0 22 V
0 -70 V
0 25 V
0 19 V
0 22 V
0 21 V
0 20 V
0 19 V
1 17 V
4 17 V
0 -20 V
0 -57 V
0 20 V
0 19 V
0 -83 V
0 23 V
0 21 V
0 -223 V
0 37 V
0 -37 V
0 37 V
0 -79 V
0 42 V
5 -90 V
0 48 V
0 42 V
0 -90 V
0 48 V
stroke 2863 2427 M
0 49 V
0 37 V
0 33 V
1 30 V
4 -119 V
0 38 V
0 -345 V
0 87 V
0 69 V
0 -156 V
0 87 V
0 -87 V
0 87 V
0 -203 V
0 116 V
6 -293 V
0 177 V
0 116 V
0 46 V
0 77 V
5 63 V
0 -140 V
0 77 V
0 63 V
0 53 V
0 -432 V
10 140 V
12 99 V
10 77 V
5 63 V
10 53 V
5 47 V
10 40 V
0 -87 V
0 47 V
0 -240 V
0 77 V
0 -176 V
0 99 V
6 -239 V
0 140 V
0 99 V
5 77 V
0 -176 V
0 99 V
0 77 V
0 -316 V
0 140 V
5 -140 V
5 140 V
10 99 V
10 77 V
6 63 V
10 53 V
7 47 V
5 40 V
5 37 V
10 33 V
5 30 V
6 27 V
5 26 V
4 24 V
1 22 V
0 21 V
4 20 V
0 19 V
2 17 V
0 17 V
3 16 V
1 16 V
1 14 V
0 14 V
4 14 V
0 13 V
1 13 V
1 12 V
3 11 V
0 12 V
1 11 V
1 10 V
0 11 V
3 10 V
0 9 V
1 10 V
1 9 V
0 9 V
0 9 V
3 8 V
0 -46 V
0 9 V
0 -110 V
0 13 V
1 -26 V
0 13 V
0 -26 V
0 13 V
0 -13 V
0 13 V
0 -28 V
0 15 V
1 -15 V
0 15 V
0 13 V
0 -13 V
stroke 3078 2827 M
0 13 V
0 13 V
0 13 V
0 12 V
0 -66 V
0 15 V
0 -61 V
0 16 V
0 16 V
0 -32 V
0 16 V
2 -33 V
0 17 V
0 -17 V
0 17 V
0 -35 V
0 18 V
1 -18 V
0 18 V
0 -37 V
0 19 V
0 18 V
0 17 V
0 16 V
0 16 V
0 -67 V
0 18 V
1 -33 V
0 19 V
0 -15 V
1 18 V
0 18 V
0 -77 V
0 21 V
0 -21 V
0 21 V
0 -43 V
0 22 V
0 21 V
2 -21 V
0 21 V
0 -21 V
0 21 V
0 20 V
0 18 V
0 -38 V
0 20 V
1 18 V
0 -38 V
0 20 V
0 -63 V
0 22 V
0 -45 V
0 23 V
0 22 V
1 -45 V
0 23 V
8 22 V
7 21 V
6 20 V
5 -16 V
0 -90 V
0 25 V
2 -52 V
0 27 V
0 -27 V
0 27 V
0 -88 V
0 32 V
2 -67 V
0 35 V
1 -74 V
0 39 V
0 -39 V
0 39 V
0 35 V
0 -74 V
0 39 V
0 35 V
0 -35 V
0 35 V
0 50 V
0 27 V
3 -127 V
1 -40 V
0 40 V
1 -40 V
0 40 V
0 -40 V
0 40 V
0 37 V
0 -37 V
0 37 V
0 -77 V
0 40 V
0 -140 V
0 53 V
1 47 V
0 -240 V
0 77 V
2 63 V
3 -30 V
0 58 V
0 -214 V
stroke 3129 2150 M
0 87 V
2 -203 V
0 116 V
0 87 V
0 -203 V
0 116 V
3 -116 V
2 116 V
9 87 V
10 69 V
6 58 V
10 49 V
5 44 V
10 38 V
5 35 V
6 31 V
6 29 V
4 26 V
11 25 V
0 23 V
5 22 V
1 20 V
5 19 V
0 19 V
0 17 V
5 16 V
0 -28 V
0 17 V
0 -54 V
0 19 V
0 18 V
0 17 V
0 16 V
0 -16 V
0 16 V
0 16 V
0 14 V
0 -30 V
0 16 V
0 -86 V
0 19 V
0 18 V
0 -37 V
0 19 V
0 18 V
3 -78 V
0 21 V
2 -44 V
0 23 V
0 21 V
0 20 V
0 -109 V
0 26 V
0 24 V
1 22 V
0 21 V
11 20 V
5 -12 V
0 -90 V
0 25 V
0 23 V
0 22 V
0 20 V
0 -20 V
0 20 V
0 -90 V
0 25 V
0 -52 V
0 27 V
0 -56 V
0 29 V
0 27 V
0 -88 V
0 32 V
5 -67 V
0 35 V
0 32 V
0 29 V
0 27 V
0 25 V
0 -63 V
0 27 V
0 26 V
0 5 V
0 23 V
0 -76 V
0 28 V
5 25 V
0 -53 V
0 28 V
0 -490 V
0 94 V
0 74 V
0 61 V
6 -12 V
0 53 V
0 47 V
0 40 V
5 37 V
0 33 V
0 30 V
0 27 V
11 26 V
6 24 V
stroke 3294 2653 M
6 22 V
7 -4 V
0 21 V
0 20 V
0 -114 V
0 26 V
0 -85 V
0 31 V
3 -64 V
0 33 V
0 -33 V
0 33 V
0 -70 V
0 37 V
2 -79 V
0 42 V
0 -90 V
0 48 V
0 42 V
0 7 V
0 37 V
3 33 V
0 30 V
3 27 V
0 -127 V
0 37 V
0 33 V
0 -350 V
0 77 V
2 -77 V
0 77 V
0 -77 V
0 77 V
0 63 V
0 -239 V
0 99 V
3 -99 V
0 99 V
0 77 V
0 63 V
3 -30 V
0 58 V
2 -58 V
0 58 V
0 -214 V
0 87 V
0 -203 V
0 116 V
3 -116 V
3 239 V
0 63 V
2 -140 V
0 77 V
3 -316 V
0 140 V
7 99 V
10 77 V
5 63 V
11 53 V
5 47 V
7 40 V
11 37 V
0 -100 V
0 -556 V
0 177 V
5 -557 V
0 380 V
0 -1037 V
0 897 V
0 240 V
6 140 V
0 99 V
0 77 V
10 63 V
5 53 V
11 47 V
100 -719 V
226 240 V
5 140 V
5 99 V
0 77 V
11 63 V
6 53 V
10 47 V
5 40 V
5 37 V
5 -100 V
0 44 V
0 38 V
0 35 V
0 -166 V
0 49 V
0 -107 V
0 58 V
0 -330 V
0 116 V
5 -193 V
0 140 V
0 176 V
0 -77 V
0 77 V
7 -77 V
0 77 V
0 63 V
stroke 3822 2336 M
0 -140 V
0 77 V
0 -316 V
5 140 V
10 99 V
10 77 V
7 63 V
9 53 V
7 47 V
5 40 V
9 37 V
7 33 V
5 30 V
5 27 V
20 26 V
0 24 V
0 22 V
6 21 V
0 20 V
0 19 V
5 17 V
0 17 V
0 -20 V
0 -78 V
0 21 V
0 -44 V
0 23 V
5 -23 V
0 23 V
0 21 V
0 -44 V
0 23 V
0 -47 V
0 24 V
0 23 V
0 -47 V
0 24 V
0 -142 V
0 33 V
0 -70 V
0 37 V
0 33 V
0 -33 V
0 33 V
0 37 V
0 27 V
2 -127 V
3 37 V
0 33 V
0 30 V
0 -187 V
0 47 V
0 -100 V
0 53 V
0 47 V
0 40 V
0 -203 V
0 63 V
0 -239 V
0 99 V
5 77 V
0 63 V
5 53 V
5 47 V
8 40 V
8 37 V
6 33 V
5 30 V
7 27 V
4 -127 V
0 37 V
0 33 V
0 -589 V
0 140 V
2 -380 V
0 240 V
0 -1137 V
3 0 R
0 897 V
0 479 V
0 77 V
5 63 V
5 53 V
6 47 V
10 40 V
5 37 V
6 33 V
6 30 V
9 27 V
6 26 V
5 24 V
10 22 V
5 21 V
5 20 V
5 19 V
0 17 V
5 17 V
1 16 V
4 16 V
0 14 V
2 14 V
14 14 V
0 13 V
5 13 V
stroke 4119 2869 M
0 -34 V
0 -112 V
0 19 V
0 17 V
0 -55 V
0 19 V
0 -19 V
0 19 V
0 -39 V
0 20 V
0 19 V
0 -39 V
0 20 V
0 19 V
0 -61 V
0 22 V
5 -45 V
0 23 V
0 22 V
0 -97 V
0 27 V
0 25 V
0 14 V
0 22 V
0 -4 V
0 21 V
0 20 V
0 19 V
0 -39 V
0 20 V
0 -41 V
0 21 V
0 20 V
6 19 V
0 -83 V
0 23 V
0 -47 V
0 24 V
0 -24 V
0 24 V
0 23 V
0 21 V
0 20 V
0 -64 V
0 23 V
0 -23 V
0 23 V
0 -73 V
5 -141 V
0 -220 V
0 69 V
0 -272 V
0 116 V
0 -293 V
0 177 V
6 -557 V
0 380 V
0 177 V
0 -557 V
0 380 V
1 240 V
0 99 V
4 77 V
0 63 V
1 -140 V
0 77 V
0 63 V
0 -63 V
0 63 V
0 -140 V
0 77 V
4 -316 V
2 140 V
5 99 V
5 77 V
11 63 V
6 53 V
11 47 V
5 40 V
10 37 V
7 33 V
8 30 V
6 27 V
5 26 V
2 24 V
3 22 V
0 21 V
2 20 V
3 -12 V
0 19 V
0 -84 V
0 23 V
0 22 V
0 -97 V
0 27 V
0 -56 V
0 29 V
2 -29 V
0 29 V
0 -61 V
0 32 V
0 -67 V
0 35 V
3 -35 V
stroke 4247 2491 M
0 35 V
0 32 V
0 18 V
0 27 V
0 26 V
2 24 V
15 22 V
10 -4 V
0 -73 V
0 26 V
0 -85 V
0 31 V
0 -64 V
0 33 V
0 -33 V
0 33 V
0 31 V
0 -31 V
0 31 V
0 28 V
1 -59 V
0 31 V
0 -101 V
0 37 V
4 -37 V
0 37 V
0 40 V
0 30 V
0 27 V
0 26 V
11 24 V
5 22 V
17 21 V
6 -8 V
0 -155 V
0 31 V
0 -517 V
0 113 V
5 -281 V
0 168 V
0 149 V
0 77 V
5 63 V
0 -379 V
0 140 V
1 -140 V
0 140 V
0 -140 V
5 316 V
0 63 V
0 53 V
0 -193 V
0 77 V
5 -316 V
0 140 V
5 99 V
5 77 V
12 63 V
5 53 V
11 47 V
5 40 V
5 37 V
10 33 V
5 30 V
5 27 V
6 26 V
5 24 V
0 -140 V
0 33 V
0 -110 V
0 40 V
5 -87 V
0 47 V
0 -100 V
0 53 V
0 -193 V
0 77 V
0 116 V
0 47 V
5 -72 V
0 -58 V
0 58 V
0 -58 V
0 58 V
0 -214 V
0 87 V
0 -87 V
0 87 V
0 69 V
0 58 V
0 -214 V
5 87 V
5 69 V
10 58 V
5 49 V
11 44 V
5 38 V
5 35 V
101 -813 V
15 240 V
5 140 V
5 99 V
5 77 V
6 63 V
stroke 4611 2336 M
5 53 V
5 47 V
10 40 V
5 37 V
6 33 V
5 30 V
11 27 V
5 26 V
6 24 V
5 22 V
0 21 V
5 20 V
5 19 V
0 17 V
5 17 V
0 16 V
2 16 V
3 14 V
0 14 V
2 14 V
0 13 V
3 13 V
0 12 V
2 11 V
0 12 V
3 11 V
0 10 V
0 11 V
2 10 V
0 9 V
3 -42 V
0 10 V
0 11 V
0 -56 V
0 12 V
0 -50 V
0 13 V
0 13 V
1 12 V
0 -254 V
0 24 V
0 23 V
0 -73 V
0 26 V
1 24 V
0 -50 V
0 26 V
0 -118 V
0 33 V
4 -70 V
0 37 V
0 33 V
0 7 V
0 30 V
0 -119 V
0 -44 V
0 44 V
0 -93 V
0 49 V
1 -107 V
0 58 V
0 49 V
0 44 V
4 -93 V
0 49 V
0 -49 V
0 49 V
0 44 V
0 38 V
16 -189 V
0 58 V
10 49 V
6 44 V
10 38 V
5 35 V
7 31 V
5 29 V
9 26 V
5 25 V
5 23 V
4 22 V
1 20 V
6 19 V
0 19 V
5 17 V
0 16 V
1 16 V
4 15 V
0 14 V
0 14 V
3 14 V
2 12 V
1 -38 V
0 14 V
0 13 V
0 -72 V
0 16 V
0 15 V
0 -102 V
0 19 V
0 -19 V
0 19 V
0 -61 V
0 22 V
stroke 4825 2688 M
0 -44 V
0 22 V
2 -22 V
0 22 V
0 -133 V
0 31 V
2 -65 V
0 34 V
0 31 V
0 -65 V
0 34 V
0 31 V
0 12 V
0 27 V
1 26 V
0 5 V
0 -53 V
0 28 V
0 25 V
2 23 V
0 -23 V
0 23 V
2 -23 V
0 23 V
0 22 V
0 -195 V
0 36 V
0 -76 V
0 40 V
0 62 V
0 30 V
5 -119 V
0 -151 V
0 58 V
0 -127 V
0 69 V
0 -1486 V
0 897 V
0 -897 V
4 0 R
0 897 V
1 380 V
0 99 V
0 77 V
5 63 V
1 -63 V
0 63 V
0 -140 V
0 77 V
0 63 V
0 -140 V
0 77 V
0 -316 V
5 140 V
5 99 V
10 77 V
5 63 V
11 53 V
5 47 V
5 40 V
5 37 V
11 33 V
5 30 V
5 27 V
6 26 V
4 24 V
0 22 V
2 21 V
4 20 V
0 19 V
1 17 V
35 17 V
5 16 V
0 16 V
5 14 V
0 14 V
0 14 V
5 13 V
0 13 V
1 12 V
0 11 V
0 12 V
5 11 V
0 10 V
0 11 V
5 10 V
0 9 V
0 -42 V
0 10 V
0 -45 V
0 12 V
0 12 V
0 11 V
0 -35 V
0 12 V
0 12 V
0 11 V
0 10 V
0 -10 V
0 10 V
0 11 V
0 -56 V
0 12 V
0 12 V
stroke 5000 2902 M
0 -24 V
0 12 V
0 12 V
0 -75 V
0 13 V
0 -58 V
0 16 V
5 -32 V
0 16 V
0 -33 V
0 17 V
0 -17 V
0 17 V
0 16 V
0 -33 V
0 17 V
0 16 V
0 16 V
0 14 V
0 -60 V
0 17 V
0 16 V
0 16 V
0 14 V
0 14 V
5 14 V
0 13 V
0 13 V
0 12 V
5 -35 V
0 -126 V
0 18 V
0 18 V
0 16 V
0 16 V
0 16 V
0 -48 V
0 16 V
0 -52 V
0 18 V
0 18 V
0 -77 V
0 21 V
0 20 V
0 -63 V
0 22 V
5 -45 V
0 23 V
0 -23 V
0 23 V
0 -48 V
0 25 V
0 -25 V
0 25 V
0 -25 V
0 25 V
0 41 V
0 21 V
0 -8 V
0 -44 V
0 22 V
0 -47 V
0 25 V
0 22 V
0 22 V
0 -44 V
0 22 V
5 22 V
0 -22 V
0 22 V
0 20 V
0 -64 V
0 22 V
0 -22 V
0 22 V
0 -133 V
0 31 V
0 39 V
0 26 V
0 24 V
21 22 V
5 -4 V
0 21 V
0 20 V
0 -41 V
0 21 V
0 -21 V
0 21 V
0 -265 V
0 42 V
0 -90 V
0 48 V
5 -103 V
0 55 V
0 57 V
0 40 V
1 37 V
4 33 V
0 30 V
0 27 V
6 26 V
5 5 V
0 23 V
0 22 V
stroke 5072 2679 M
0 21 V
0 20 V
0 -63 V
0 22 V
0 21 V
0 20 V
0 -236 V
0 36 V
5 -76 V
0 40 V
0 -211 V
0 63 V
0 53 V
0 47 V
0 40 V
5 -87 V
0 47 V
0 -240 V
0 77 V
0 63 V
0 -239 V
0 99 V
0 -239 V
0 140 V
5 99 V
0 77 V
0 63 V
5 -140 V
0 77 V
0 -77 V
0 77 V
0 63 V
0 -379 V
11 140 V
10 99 V
5 77 V
10 63 V
5 53 V
11 47 V
5 40 V
10 37 V
5 33 V
6 30 V
5 27 V
10 26 V
0 24 V
5 22 V
0 21 V
5 20 V
0 19 V
0 17 V
0 17 V
5 16 V
0 16 V
0 14 V
0 14 V
6 14 V
0 -31 V
0 -46 V
0 16 V
0 -33 V
0 17 V
0 -54 V
0 19 V
0 -83 V
0 23 V
0 21 V
0 -44 V
0 23 V
0 -47 V
0 24 V
0 -109 V
0 31 V
5 -64 V
0 33 V
0 31 V
0 -31 V
0 31 V
0 33 V
0 26 V
0 5 V
0 23 V
0 22 V
0 21 V
0 -21 V
0 21 V
0 -21 V
0 21 V
5 -21 V
0 21 V
0 -21 V
0 21 V
0 -21 V
0 21 V
0 20 V
0 18 V
0 -18 V
0 18 V
0 18 V
0 16 V
0 -220 V
5 29 V
5 28 V
5 25 V
stroke 5231 2634 M
10 23 V
0 -48 V
0 25 V
0 -53 V
0 28 V
0 -125 V
0 36 V
0 -172 V
0 51 V
6 -112 V
0 61 V
0 -61 V
0 61 V
0 51 V
0 37 V
0 40 V
0 37 V
5 33 V
0 30 V
0 27 V
5 26 V
10 24 V
5 22 V
5 21 V
10 20 V
6 -12 V
0 19 V
0 -109 V
0 25 V
0 23 V
0 -104 V
0 29 V
0 27 V
0 25 V
0 23 V
0 -23 V
0 23 V
0 -23 V
0 23 V
0 22 V
0 -97 V
0 27 V
0 -88 V
0 32 V
5 -32 V
0 32 V
0 -12 V
0 30 V
0 27 V
0 26 V
5 5 V
0 -53 V
0 28 V
0 25 V
0 -25 V
0 25 V
0 -53 V
0 28 V
0 -57 V
0 29 V
0 28 V
0 -165 V
0 40 V
0 -85 V
0 45 V
0 69 V
0 33 V
5 30 V
0 -119 V
0 -151 V
0 58 V
0 -58 V
0 58 V
0 -214 V
0 87 V
0 -203 V
0 116 V
5 -116 V
0 116 V
0 87 V
0 -87 V
0 87 V
0 69 V
5 -33 V
0 -77 V
0 77 V
0 -176 V
0 99 V
0 -99 V
0 99 V
0 -239 V
5 316 V
0 63 V
0 53 V
0 -116 V
0 63 V
6 -379 V
0 140 V
10 99 V
11 77 V
5 63 V
11 53 V
5 47 V
11 40 V
stroke 5382 2476 M
6 -87 V
0 -292 V
0 99 V
5 -239 V
0 140 V
0 -1277 V
0 897 V
0 479 V
5 77 V
0 -316 V
0 140 V
0 -380 V
0 240 V
5 140 V
5 99 V
10 77 V
5 63 V
12 53 V
5 47 V
5 40 V
10 37 V
6 33 V
6 -110 V
0 40 V
0 37 V
0 -240 V
0 63 V
0 -140 V
0 77 V
5 -176 V
0 99 V
0 -99 V
0 99 V
0 77 V
6 -77 V
0 77 V
0 -176 V
0 99 V
0 -239 V
5 316 V
0 -176 V
0 99 V
0 77 V
6 -316 V
0 316 V
0 63 V
0 -239 V
0 99 V
5 -239 V
0 140 V
5 99 V
10 77 V
6 63 V
10 53 V
6 47 V
29 40 V
15 -87 V
0 47 V
0 40 V
5 37 V
0 -37 V
0 37 V
0 33 V
6 -33 V
0 33 V
0 30 V
5 -30 V
0 30 V
0 27 V
0 26 V
6 -433 V
0 77 V
7 63 V
11 53 V
5 47 V
5 40 V
10 37 V
5 33 V
5 30 V
11 27 V
5 26 V
6 24 V
0 22 V
5 -4 V
0 21 V
0 -21 V
0 21 V
0 20 V
0 19 V
0 -225 V
0 33 V
0 -160 V
0 48 V
5 -103 V
0 55 V
0 57 V
0 40 V
1 37 V
0 33 V
4 30 V
0 27 V
5 26 V
10 24 V
6 22 V
stroke 5703 2675 M
6 21 V
5 -8 V
1 20 V
0 -115 V
0 26 V
0 -120 V
0 34 V
0 -72 V
0 38 V
3 -81 V
0 43 V
0 -92 V
0 49 V
1 -49 V
0 49 V
0 -49 V
0 49 V
0 58 V
0 37 V
1 33 V
4 30 V
0 27 V
0 -127 V
0 -140 V
0 53 V
0 47 V
0 -163 V
0 63 V
0 -140 V
0 77 V
5 -176 V
0 99 V
0 77 V
0 -176 V
0 99 V
0 -99 V
0 99 V
0 140 V
0 -30 V
6 58 V
0 49 V
0 -49 V
0 49 V
0 -49 V
0 49 V
0 44 V
0 -151 V
0 58 V
0 -58 V
0 58 V
0 -330 V
5 239 V
0 -77 V
0 77 V
0 63 V
0 -63 V
0 63 V
0 53 V
0 -193 V
0 77 V
0 63 V
5 -379 V
0 140 V
5 99 V
11 77 V
5 63 V
10 53 V
6 47 V
5 40 V
10 37 V
6 33 V
5 30 V
106 -859 V
15 240 V
5 140 V
5 99 V
5 77 V
0 63 V
0 53 V
11 47 V
5 40 V
6 37 V
9 33 V
102 -829 V
16 240 V
5 140 V
5 99 V
5 77 V
0 63 V
0 53 V
10 47 V
5 40 V
5 37 V
5 -100 V
0 -107 V
0 58 V
0 49 V
1 -379 V
0 116 V
5 -116 V
0 116 V
0 87 V
2 36 V
3 63 V
stroke 6144 2336 M
0 -379 V
5 140 V
10 99 V
11 77 V
5 63 V
11 53 V
5 47 V
10 40 V
6 37 V
5 33 V
6 30 V
21 27 V
5 26 V
1 24 V
0 22 V
4 21 V
1 20 V
0 19 V
4 17 V
0 17 V
1 16 V
5 16 V
0 14 V
0 14 V
0 14 V
0 13 V
5 -32 V
0 -45 V
0 16 V
1 15 V
0 -65 V
0 18 V
0 -345 V
0 43 V
0 38 V
0 -81 V
0 43 V
0 38 V
0 -130 V
0 49 V
4 -106 V
0 57 V
0 49 V
0 18 V
0 40 V
1 -87 V
0 47 V
0 -47 V
0 47 V
0 40 V
0 -87 V
0 47 V
4 40 V
0 37 V
0 -124 V
0 47 V
0 40 V
0 -203 V
0 63 V
0 -140 V
6 77 V
0 -176 V
0 99 V
0 77 V
0 -556 V
0 240 V
0 140 V
6 -140 V
0 140 V
10 99 V
10 77 V
6 63 V
10 53 V
6 47 V
10 40 V
5 37 V
5 33 V
5 -110 V
0 40 V
2 -203 V
0 63 V
0 53 V
0 -432 V
0 140 V
3 -140 V
0 140 V
0 99 V
0 77 V
0 -176 V
0 99 V
5 77 V
0 -556 V
0 240 V
7 140 V
9 99 V
10 77 V
5 63 V
10 53 V
5 47 V
6 40 V
10 37 V
0 -100 V
0 -379 V
0 116 V
stroke 6426 2150 M
6 -116 V
0 116 V
0 87 V
0 -380 V
0 177 V
0 -557 V
0 380 V
0 240 V
0 99 V
5 77 V
0 63 V
106 -619 V
15 240 V
5 140 V
0 99 V
11 77 V
5 63 V
10 53 V
5 47 V
5 40 V
10 37 V
5 33 V
6 30 V
8 27 V
5 26 V
2 24 V
3 22 V
2 21 V
0 20 V
3 19 V
0 17 V
2 17 V
0 16 V
3 16 V
0 14 V
2 14 V
0 14 V
3 13 V
0 -32 V
0 -14 V
0 14 V
0 -45 V
0 16 V
0 15 V
0 -31 V
0 16 V
0 -68 V
0 18 V
2 -18 V
0 18 V
0 -18 V
0 18 V
0 18 V
0 -75 V
0 20 V
0 19 V
0 18 V
0 18 V
0 -144 V
0 25 V
0 -51 V
0 26 V
3 -55 V
0 29 V
0 -29 V
0 29 V
0 26 V
0 10 V
0 24 V
3 22 V
0 -4 V
0 21 V
0 -68 V
0 24 V
0 23 V
0 -47 V
0 24 V
0 -78 V
0 28 V
0 26 V
2 24 V
0 -78 V
0 28 V
0 -129 V
0 37 V
3 -79 V
0 42 V
0 7 V
0 37 V
3 33 V
0 30 V
2 27 V
6 26 V
5 24 V
8 22 V
2 -4 V
0 -23 V
0 23 V
0 -132 V
0 31 V
3 -64 V
0 33 V
0 -33 V
0 33 V
stroke 6695 2539 M
0 -70 V
0 37 V
2 -79 V
0 42 V
0 -42 V
0 42 V
0 37 V
0 7 V
0 33 V
0 -110 V
3 40 V
0 -40 V
0 40 V
2 -40 V
0 40 V
0 -87 V
0 47 V
0 40 V
0 37 V
0 -317 V
0 77 V
0 -176 V
0 99 V
0 77 V
5 63 V
5 53 V
6 47 V
8 40 V
7 37 V
6 33 V
5 30 V
9 27 V
6 26 V
2 24 V
3 22 V
5 21 V
0 20 V
2 19 V
4 17 V
2 17 V
0 -20 V
0 -101 V
0 23 V
3 -23 V
0 23 V
0 21 V
0 -122 V
0 28 V
0 -171 V
0 42 V
0 -90 V
0 48 V
2 -103 V
0 55 V
0 -55 V
0 55 V
0 48 V
0 42 V
0 -33 V
0 40 V
4 37 V
1 33 V
0 30 V
0 27 V
4 26 V
0 24 V
2 22 V
0 21 V
5 20 V
5 -12 V
0 -42 V
0 22 V
0 20 V
0 -146 V
0 29 V
3 -29 V
0 29 V
0 -61 V
0 32 V
0 -106 V
0 39 V
0 -82 V
0 43 V
2 -93 V
0 50 V
0 67 V
0 37 V
0 -100 V
3 44 V
0 -44 V
0 44 V
0 -44 V
0 44 V
0 -93 V
0 49 V
0 44 V
0 38 V
0 35 V
2 31 V
0 29 V
0 26 V
0 25 V
0 23 V
0 22 V
stroke 6813 2686 M
0 -96 V
0 26 V
0 -55 V
0 29 V
0 26 V
0 -899 V
0 240 V
3 316 V
0 -176 V
0 99 V
0 77 V
2 -556 V
0 240 V
0 140 V
0 -1277 V
% End plot #4
% Begin plot #5
2.000 UP
stroke
LTb
LT1
0.00 0.00 0.63 C 1265 1957 Circle
1637 1717 Circle
1902 2364 Circle
2103 2034 Circle
2396 2273 Circle
2615 2436 Circle
2847 2804 Circle
3025 2546 Circle
3086 2657 Circle
3239 2692 Circle
3328 2237 Circle
3937 2539 Circle
4130 2624 Circle
4318 2533 Circle
4709 2913 Circle
4834 2520 Circle
5005 2815 Circle
5082 2336 Circle
5247 2476 Circle
5398 1717 Circle
5715 2461 Circle
6170 2273 Circle
6426 2150 Circle
6692 2570 Circle
6811 2457 Circle
% End plot #5
% Begin plot #6
2.000 UP
1.000 UL
LTb
LT1
0.00 0.00 0.63 C LCb setrgbcolor
4187 153 M
[ [(Arial) 180.0 0.0 true true 0 (per-packet)]
] -60.0 MRshow
2.000 UP
1.000 UL
LTb
LT1
0.00 0.00 0.63 C 1265 1957 Circle
4461 153 Circle
% End plot #6
% Begin plot #7
1.000 UL
LTb
LT3
0.00 0.38 0.82 C 1265 1957 M
5 140 V
5 99 V
6 77 V
0 63 V
5 53 V
0 47 V
0 40 V
5 37 V
0 33 V
0 30 V
0 27 V
7 26 V
0 24 V
0 22 V
0 21 V
0 20 V
0 19 V
5 17 V
0 17 V
0 16 V
0 16 V
0 14 V
0 14 V
0 14 V
0 13 V
0 13 V
6 12 V
0 11 V
0 12 V
0 11 V
0 10 V
0 11 V
0 10 V
0 9 V
0 10 V
0 9 V
0 9 V
0 9 V
0 8 V
0 9 V
6 8 V
0 8 V
0 8 V
0 7 V
0 8 V
0 7 V
0 7 V
0 7 V
0 7 V
0 7 V
11 -54 V
0 8 V
0 8 V
0 7 V
0 7 V
0 7 V
0 7 V
0 7 V
0 7 V
0 6 V
0 6 V
0 7 V
0 6 V
0 6 V
0 6 V
0 6 V
0 5 V
0 6 V
0 6 V
0 5 V
0 6 V
0 5 V
0 5 V
0 5 V
0 5 V
0 5 V
0 5 V
0 5 V
0 5 V
0 5 V
0 4 V
0 5 V
0 4 V
0 5 V
0 4 V
0 5 V
0 4 V
0 4 V
0 4 V
0 5 V
0 4 V
0 4 V
0 4 V
5 4 V
0 4 V
0 -4 V
0 4 V
0 4 V
0 3 V
0 4 V
0 4 V
0 4 V
0 3 V
0 4 V
stroke 1331 3293 M
0 4 V
0 3 V
1 4 V
0 3 V
0 4 V
0 3 V
0 3 V
0 4 V
0 3 V
0 3 V
0 4 V
0 3 V
0 3 V
0 3 V
0 3 V
0 3 V
0 4 V
0 3 V
0 3 V
0 3 V
0 3 V
0 3 V
0 3 V
0 2 V
0 3 V
5 3 V
0 3 V
0 -3 V
0 3 V
0 3 V
0 3 V
0 2 V
0 3 V
0 3 V
0 2 V
0 3 V
0 3 V
0 2 V
0 3 V
0 3 V
0 2 V
0 3 V
0 2 V
0 3 V
0 2 V
0 3 V
1 2 V
0 3 V
0 2 V
0 3 V
0 2 V
0 2 V
0 3 V
0 2 V
0 2 V
0 3 V
0 2 V
0 2 V
0 3 V
0 2 V
0 2 V
0 2 V
5 3 V
0 2 V
0 -2 V
0 2 V
0 2 V
0 2 V
0 2 V
0 2 V
0 3 V
0 2 V
0 2 V
0 2 V
0 2 V
0 2 V
0 2 V
0 2 V
0 2 V
0 2 V
0 2 V
0 2 V
0 2 V
0 2 V
0 2 V
0 2 V
0 2 V
0 2 V
0 2 V
0 2 V
0 2 V
0 2 V
0 1 V
0 2 V
0 2 V
0 2 V
0 2 V
0 2 V
0 1 V
0 2 V
6 2 V
0 2 V
0 -2 V
0 2 V
stroke 1349 3537 M
0 2 V
0 1 V
0 2 V
0 2 V
0 2 V
0 1 V
0 2 V
0 2 V
0 2 V
0 1 V
0 2 V
0 2 V
0 1 V
0 2 V
0 2 V
0 1 V
0 2 V
0 2 V
0 1 V
0 2 V
0 1 V
0 2 V
0 2 V
0 1 V
0 2 V
0 1 V
0 2 V
0 2 V
0 1 V
0 2 V
0 1 V
0 2 V
0 1 V
0 2 V
0 1 V
6 2 V
0 1 V
0 -1 V
0 1 V
0 2 V
0 1 V
0 2 V
0 1 V
0 2 V
0 1 V
0 2 V
0 1 V
0 2 V
0 1 V
0 1 V
0 2 V
0 1 V
0 2 V
0 1 V
0 1 V
0 2 V
0 1 V
0 2 V
0 1 V
0 1 V
0 2 V
0 1 V
0 2 V
0 1 V
0 1 V
0 2 V
0 1 V
0 1 V
0 2 V
0 1 V
0 1 V
0 2 V
0 1 V
0 1 V
0 1 V
6 2 V
0 1 V
0 -1 V
0 1 V
0 1 V
0 2 V
0 1 V
0 1 V
0 1 V
0 2 V
0 1 V
0 1 V
0 1 V
0 2 V
0 1 V
0 1 V
0 1 V
0 2 V
0 1 V
0 1 V
0 1 V
0 1 V
0 2 V
0 1 V
0 1 V
0 1 V
0 1 V
0 2 V
0 1 V
stroke 1361 3681 M
0 1 V
0 1 V
0 1 V
0 1 V
0 2 V
0 1 V
0 1 V
0 1 V
0 1 V
0 1 V
0 2 V
0 1 V
6 1 V
0 1 V
0 -692 V
0 9 V
0 8 V
6 7 V
0 8 V
11 8 V
17 -55 V
0 9 V
0 8 V
0 8 V
0 8 V
0 8 V
0 8 V
0 7 V
0 7 V
0 8 V
0 7 V
0 6 V
0 7 V
0 7 V
0 6 V
0 7 V
0 6 V
0 6 V
0 6 V
0 6 V
0 6 V
0 6 V
0 5 V
0 6 V
0 5 V
0 6 V
0 5 V
1 5 V
0 5 V
0 5 V
0 5 V
0 5 V
0 5 V
0 5 V
0 5 V
0 4 V
5 5 V
0 4 V
0 -4 V
0 4 V
0 5 V
0 4 V
0 5 V
0 4 V
0 4 V
0 4 V
0 4 V
0 5 V
0 4 V
0 4 V
0 4 V
0 3 V
0 4 V
0 4 V
0 4 V
0 4 V
0 3 V
0 4 V
0 4 V
0 3 V
0 4 V
0 3 V
0 4 V
0 3 V
0 4 V
0 3 V
6 3 V
0 4 V
0 -4 V
0 4 V
0 3 V
0 3 V
0 4 V
0 3 V
0 3 V
0 3 V
0 3 V
0 3 V
0 3 V
0 3 V
0 3 V
0 3 V
0 3 V
0 3 V
stroke 1413 3368 M
0 3 V
0 3 V
0 3 V
0 3 V
0 2 V
0 3 V
0 3 V
0 3 V
0 2 V
0 3 V
0 3 V
0 2 V
0 3 V
6 3 V
0 2 V
0 -2 V
0 2 V
0 3 V
0 2 V
0 3 V
0 2 V
0 3 V
0 2 V
0 3 V
0 2 V
0 3 V
0 2 V
0 2 V
0 3 V
0 2 V
0 3 V
0 2 V
0 2 V
0 3 V
0 2 V
0 2 V
0 2 V
0 3 V
0 2 V
0 2 V
0 2 V
0 2 V
0 3 V
0 2 V
0 2 V
6 2 V
0 2 V
0 -2 V
0 2 V
0 2 V
0 2 V
0 2 V
0 2 V
0 2 V
0 3 V
0 2 V
0 2 V
0 2 V
0 2 V
0 2 V
0 2 V
0 1 V
0 2 V
0 2 V
0 2 V
0 2 V
0 2 V
0 2 V
0 2 V
0 2 V
0 2 V
0 2 V
0 1 V
0 2 V
0 2 V
0 2 V
0 2 V
0 1 V
6 2 V
0 2 V
0 -2 V
0 2 V
0 2 V
0 2 V
0 1 V
0 2 V
0 2 V
0 1 V
0 2 V
0 2 V
0 2 V
0 1 V
0 2 V
0 2 V
0 1 V
0 2 V
0 2 V
0 1 V
0 2 V
0 2 V
0 1 V
0 2 V
0 1 V
0 2 V
stroke 1431 3576 M
0 2 V
0 1 V
0 2 V
0 1 V
0 2 V
0 1 V
0 2 V
0 2 V
6 1 V
0 2 V
0 -2 V
0 2 V
0 1 V
0 2 V
0 1 V
0 2 V
0 1 V
0 2 V
0 1 V
0 2 V
0 1 V
0 1 V
0 2 V
0 1 V
0 2 V
0 1 V
0 2 V
0 1 V
0 2 V
0 1 V
0 1 V
0 2 V
0 1 V
0 2 V
0 1 V
0 1 V
0 2 V
0 1 V
0 1 V
0 2 V
0 1 V
0 2 V
0 1 V
6 1 V
0 2 V
0 -2 V
0 2 V
0 1 V
0 1 V
0 1 V
0 2 V
0 1 V
0 1 V
0 2 V
0 1 V
0 1 V
0 2 V
0 1 V
0 1 V
0 1 V
0 2 V
0 1 V
0 1 V
0 1 V
0 2 V
0 1 V
0 1 V
0 1 V
0 2 V
0 1 V
0 1 V
0 1 V
0 1 V
0 2 V
0 1 V
0 1 V
0 1 V
0 1 V
0 2 V
5 1 V
0 1 V
0 -718 V
0 9 V
6 9 V
6 9 V
12 9 V
0 8 V
36 8 V
16 -54 V
0 9 V
0 10 V
0 8 V
0 9 V
0 8 V
0 9 V
0 8 V
0 7 V
0 8 V
0 8 V
0 7 V
0 7 V
0 7 V
0 7 V
0 7 V
stroke 1524 3080 M
0 7 V
0 6 V
1 6 V
0 7 V
0 6 V
0 6 V
0 6 V
0 6 V
0 5 V
0 6 V
0 6 V
0 5 V
0 6 V
0 5 V
0 5 V
0 5 V
0 5 V
5 5 V
0 5 V
0 -5 V
0 5 V
0 5 V
0 5 V
0 5 V
0 4 V
0 5 V
0 4 V
0 5 V
0 4 V
0 5 V
0 4 V
0 4 V
0 4 V
0 5 V
0 4 V
0 4 V
0 4 V
0 4 V
0 4 V
0 4 V
0 3 V
0 4 V
0 4 V
0 4 V
0 3 V
6 4 V
0 4 V
0 -4 V
0 4 V
0 3 V
0 4 V
0 3 V
0 4 V
0 3 V
0 3 V
0 4 V
0 3 V
0 3 V
0 4 V
0 3 V
0 3 V
0 3 V
0 3 V
0 3 V
0 4 V
0 3 V
1 3 V
0 3 V
0 3 V
0 3 V
0 3 V
0 2 V
0 3 V
0 3 V
5 3 V
0 3 V
0 -3 V
0 3 V
0 3 V
0 2 V
0 3 V
0 3 V
0 2 V
0 3 V
0 3 V
0 2 V
0 3 V
0 3 V
0 2 V
0 3 V
0 2 V
0 3 V
0 2 V
0 3 V
0 2 V
0 3 V
0 2 V
0 3 V
0 2 V
0 2 V
0 3 V
0 2 V
0 2 V
0 3 V
stroke 1542 3448 M
6 2 V
0 2 V
0 -2 V
0 2 V
0 3 V
0 2 V
0 2 V
0 2 V
0 3 V
0 2 V
0 2 V
0 2 V
0 2 V
0 2 V
0 3 V
0 2 V
0 2 V
0 2 V
0 2 V
0 2 V
0 2 V
0 2 V
0 2 V
0 2 V
0 2 V
0 2 V
0 2 V
0 2 V
0 2 V
0 2 V
0 2 V
6 2 V
0 2 V
0 -2 V
0 2 V
0 2 V
0 2 V
0 2 V
0 1 V
0 2 V
0 2 V
0 2 V
0 2 V
0 2 V
0 1 V
0 2 V
0 2 V
0 2 V
0 2 V
0 1 V
0 2 V
0 2 V
0 2 V
0 1 V
0 2 V
0 2 V
0 2 V
0 1 V
0 2 V
0 2 V
0 1 V
0 2 V
0 2 V
6 1 V
0 2 V
0 -2 V
0 2 V
0 2 V
0 1 V
0 2 V
0 1 V
0 2 V
0 2 V
0 1 V
0 2 V
0 1 V
0 2 V
0 2 V
0 1 V
0 2 V
0 1 V
0 2 V
0 1 V
0 2 V
0 1 V
0 2 V
0 1 V
0 2 V
0 1 V
0 2 V
0 1 V
0 2 V
0 1 V
0 2 V
0 1 V
0 2 V
6 1 V
0 1 V
0 -681 V
0 10 V
0 10 V
6 9 V
1678 1717 L
16 240 V
6 140 V
6 99 V
6 77 V
0 63 V
6 53 V
0 47 V
0 40 V
6 37 V
0 33 V
0 30 V
0 27 V
6 26 V
0 24 V
0 22 V
0 21 V
0 20 V
0 19 V
36 17 V
6 17 V
0 16 V
0 16 V
0 14 V
0 14 V
0 14 V
0 13 V
0 13 V
0 12 V
0 11 V
12 12 V
5 11 V
5 10 V
0 11 V
6 10 V
0 9 V
6 10 V
0 9 V
5 9 V
1 9 V
0 8 V
0 9 V
15 -48 V
0 9 V
0 10 V
0 8 V
0 9 V
0 8 V
0 9 V
1 8 V
0 7 V
0 8 V
0 8 V
0 7 V
0 7 V
0 7 V
0 7 V
0 7 V
0 7 V
0 6 V
0 6 V
0 7 V
0 6 V
0 6 V
0 6 V
0 6 V
0 5 V
0 6 V
0 6 V
0 5 V
0 6 V
0 5 V
0 5 V
0 5 V
0 5 V
0 5 V
0 5 V
0 5 V
0 5 V
0 5 V
0 4 V
5 5 V
0 4 V
0 -284 V
0 10 V
16 10 V
6 9 V
12 9 V
6 10 V
20 8 V
10 9 V
6 8 V
5 9 V
11 8 V
5 7 V
6 8 V
11 8 V
0 7 V
6 7 V
5 7 V
0 7 V
2 7 V
3 7 V
1 6 V
1 6 V
stroke 1965 3099 M
4 7 V
0 6 V
0 6 V
2 6 V
3 6 V
0 5 V
11 -59 V
0 7 V
0 6 V
0 7 V
0 6 V
0 6 V
0 6 V
0 6 V
0 6 V
0 6 V
0 6 V
0 5 V
0 6 V
0 5 V
0 6 V
0 5 V
0 5 V
0 5 V
0 5 V
0 5 V
0 5 V
0 5 V
0 5 V
0 4 V
0 5 V
0 5 V
0 4 V
0 5 V
0 4 V
0 4 V
0 5 V
0 4 V
0 4 V
0 4 V
0 4 V
0 4 V
0 4 V
0 4 V
0 4 V
0 4 V
0 4 V
0 4 V
0 3 V
0 4 V
0 4 V
0 3 V
0 4 V
0 4 V
0 3 V
5 4 V
0 3 V
0 3 V
0 -3 V
0 3 V
0 4 V
0 3 V
0 3 V
0 4 V
0 3 V
0 3 V
0 3 V
0 3 V
0 4 V
16 3 V
0 3 V
0 3 V
0 -3 V
0 3 V
0 3 V
0 3 V
0 3 V
0 3 V
0 3 V
0 3 V
0 2 V
0 3 V
0 3 V
0 3 V
6 3 V
0 2 V
0 3 V
0 -3 V
0 3 V
0 3 V
0 3 V
0 2 V
0 3 V
0 3 V
0 2 V
0 3 V
0 2 V
0 3 V
0 2 V
0 3 V
5 2 V
0 3 V
0 2 V
0 -2 V
stroke 2017 3425 M
0 2 V
0 3 V
0 2 V
15 3 V
0 2 V
0 2 V
0 -2 V
0 2 V
0 3 V
0 2 V
0 2 V
5 3 V
0 2 V
0 2 V
0 -2 V
0 2 V
0 3 V
0 2 V
0 2 V
0 2 V
5 2 V
0 3 V
0 2 V
0 -414 V
0 7 V
5 7 V
0 7 V
6 7 V
5 6 V
5 7 V
5 6 V
5 6 V
10 6 V
5 6 V
6 6 V
10 6 V
15 -56 V
0 7 V
0 6 V
0 7 V
0 6 V
0 6 V
0 6 V
0 6 V
0 6 V
0 6 V
0 6 V
0 5 V
0 6 V
0 5 V
0 6 V
0 5 V
0 5 V
0 5 V
0 5 V
0 5 V
0 5 V
0 5 V
0 5 V
0 4 V
0 5 V
0 5 V
0 4 V
0 5 V
0 4 V
0 4 V
0 5 V
0 4 V
0 4 V
0 4 V
0 4 V
0 4 V
0 4 V
0 4 V
0 4 V
0 4 V
0 4 V
0 4 V
0 3 V
0 4 V
0 4 V
0 3 V
0 4 V
0 4 V
5 3 V
0 4 V
0 3 V
0 -3 V
0 3 V
0 3 V
0 4 V
0 3 V
0 3 V
0 4 V
0 3 V
0 3 V
0 3 V
0 3 V
0 4 V
0 3 V
0 3 V
0 3 V
0 3 V
0 3 V
stroke 2124 3360 M
0 3 V
0 3 V
0 3 V
0 3 V
0 2 V
0 3 V
0 3 V
0 3 V
0 3 V
0 2 V
0 3 V
0 3 V
0 3 V
0 2 V
0 3 V
0 3 V
0 2 V
0 3 V
0 2 V
0 3 V
0 2 V
5 3 V
0 2 V
0 3 V
0 -3 V
0 3 V
0 2 V
0 3 V
0 2 V
0 3 V
0 2 V
0 2 V
0 3 V
0 2 V
0 2 V
0 3 V
0 2 V
0 2 V
0 3 V
0 2 V
0 2 V
0 2 V
0 2 V
0 3 V
0 2 V
0 2 V
0 2 V
0 2 V
0 2 V
0 3 V
0 2 V
0 2 V
0 2 V
0 2 V
0 2 V
0 2 V
0 2 V
0 2 V
0 2 V
0 2 V
0 2 V
0 2 V
0 2 V
5 2 V
0 2 V
0 2 V
0 -2 V
0 2 V
0 2 V
0 2 V
0 1 V
0 2 V
0 2 V
0 2 V
0 2 V
0 2 V
0 2 V
0 1 V
0 2 V
0 2 V
0 2 V
0 2 V
0 1 V
0 2 V
0 2 V
0 2 V
0 1 V
0 2 V
0 2 V
0 2 V
0 1 V
0 2 V
0 2 V
0 1 V
0 2 V
0 2 V
0 1 V
0 2 V
0 2 V
0 1 V
0 2 V
0 1 V
0 2 V
0 2 V
stroke 2134 3575 M
0 1 V
0 2 V
5 1 V
0 2 V
0 2 V
0 -2 V
0 2 V
0 1 V
0 2 V
0 1 V
0 2 V
0 1 V
0 2 V
1 1 V
0 2 V
0 1 V
0 2 V
0 1 V
0 2 V
0 1 V
0 2 V
0 1 V
0 2 V
0 1 V
0 2 V
0 1 V
0 2 V
0 1 V
0 1 V
0 2 V
0 1 V
0 2 V
0 1 V
0 1 V
0 2 V
0 1 V
0 2 V
0 1 V
0 1 V
0 2 V
0 1 V
0 1 V
0 2 V
0 1 V
0 1 V
0 2 V
5 1 V
0 1 V
0 2 V
0 -2 V
0 2 V
0 1 V
0 1 V
0 2 V
0 1 V
0 1 V
0 2 V
0 1 V
0 1 V
0 1 V
0 2 V
0 1 V
0 1 V
0 1 V
0 2 V
0 1 V
0 1 V
0 1 V
0 2 V
0 1 V
0 1 V
0 1 V
0 2 V
0 1 V
0 1 V
0 1 V
0 1 V
0 2 V
0 1 V
0 1 V
0 1 V
0 1 V
0 1 V
0 2 V
0 1 V
0 1 V
0 1 V
0 1 V
0 1 V
0 2 V
0 1 V
5 1 V
0 1 V
0 1 V
0 -1 V
0 1 V
0 1 V
0 1 V
0 1 V
0 2 V
0 1 V
0 1 V
0 1 V
0 1 V
stroke 2150 3704 M
0 1 V
0 1 V
0 1 V
0 1 V
0 1 V
0 2 V
0 1 V
0 1 V
0 1 V
0 1 V
0 1 V
0 1 V
0 1 V
0 1 V
0 1 V
0 1 V
0 1 V
0 1 V
0 1 V
0 1 V
0 1 V
0 1 V
0 1 V
0 1 V
0 1 V
0 2 V
0 1 V
0 1 V
0 1 V
0 1 V
0 1 V
0 1 V
0 1 V
5 1 V
0 1 V
0 1 V
0 -1 V
0 1 V
0 1 V
0 1 V
0 1 V
0 1 V
0 1 V
0 1 V
0 1 V
0 1 V
0 1 V
0 1 V
0 1 V
0 1 V
0 1 V
0 1 V
0 1 V
0 1 V
0 1 V
0 1 V
0 1 V
0 1 V
0 1 V
0 1 V
0 1 V
0 1 V
0 1 V
0 1 V
0 1 V
0 1 V
0 1 V
0 1 V
0 1 V
0 1 V
0 1 V
0 1 V
0 1 V
0 1 V
0 1 V
0 1 V
0 1 V
5 1 V
0 1 V
0 -728 V
0 7 V
0 7 V
5 7 V
0 7 V
5 6 V
5 7 V
6 6 V
10 6 V
5 6 V
5 6 V
10 6 V
5 6 V
5 6 V
6 5 V
10 6 V
5 5 V
5 6 V
0 5 V
5 5 V
0 5 V
5 5 V
0 5 V
0 5 V
5 5 V
stroke 2262 3195 M
0 5 V
0 4 V
1 5 V
4 5 V
0 4 V
1 5 V
0 4 V
0 4 V
4 5 V
1 4 V
0 4 V
0 4 V
0 4 V
0 4 V
5 4 V
0 4 V
0 4 V
0 4 V
0 4 V
0 4 V
0 3 V
0 4 V
0 4 V
5 3 V
0 4 V
0 4 V
0 3 V
0 4 V
0 3 V
0 3 V
0 4 V
0 3 V
0 3 V
0 4 V
5 3 V
0 3 V
0 3 V
0 3 V
0 4 V
0 3 V
0 3 V
0 3 V
0 3 V
0 3 V
0 3 V
0 3 V
1 3 V
0 3 V
4 2 V
0 3 V
0 3 V
0 3 V
0 3 V
0 2 V
0 3 V
0 3 V
0 3 V
0 2 V
1 3 V
0 3 V
0 2 V
4 3 V
0 2 V
0 3 V
0 2 V
0 3 V
0 2 V
0 3 V
0 2 V
1 3 V
0 2 V
0 3 V
0 2 V
0 2 V
4 3 V
0 2 V
0 2 V
0 3 V
0 2 V
0 2 V
0 3 V
1 2 V
0 2 V
0 2 V
0 2 V
0 3 V
0 2 V
0 2 V
1 2 V
3 2 V
0 2 V
0 3 V
1 2 V
0 2 V
0 2 V
0 2 V
0 2 V
0 2 V
0 2 V
1 2 V
0 2 V
0 2 V
3 2 V
0 2 V
stroke 2313 3504 M
0 2 V
0 2 V
11 -70 V
0 2 V
0 3 V
0 2 V
0 2 V
0 3 V
0 2 V
0 2 V
0 2 V
0 3 V
0 2 V
0 2 V
0 2 V
0 3 V
0 2 V
0 2 V
0 2 V
0 2 V
0 2 V
0 2 V
0 2 V
0 3 V
0 2 V
0 2 V
0 2 V
0 2 V
0 2 V
0 2 V
1 2 V
0 2 V
0 2 V
0 2 V
0 2 V
0 2 V
0 2 V
0 1 V
0 2 V
0 2 V
0 2 V
0 2 V
0 2 V
0 2 V
0 2 V
0 1 V
0 2 V
0 2 V
0 2 V
0 2 V
0 2 V
0 1 V
0 2 V
0 2 V
0 2 V
0 1 V
0 2 V
0 2 V
0 2 V
0 1 V
0 2 V
0 2 V
0 1 V
0 2 V
0 2 V
0 1 V
0 2 V
0 2 V
0 1 V
0 2 V
0 2 V
0 1 V
0 2 V
0 1 V
0 2 V
0 2 V
0 1 V
0 2 V
0 1 V
0 2 V
0 1 V
0 2 V
0 1 V
0 2 V
0 1 V
0 2 V
0 2 V
0 1 V
0 2 V
0 1 V
0 1 V
0 2 V
0 1 V
0 2 V
0 1 V
0 2 V
0 1 V
0 2 V
0 1 V
0 2 V
0 1 V
0 1 V
0 2 V
0 1 V
stroke 2325 3620 M
0 2 V
0 1 V
0 1 V
0 2 V
0 1 V
0 2 V
0 1 V
0 1 V
0 2 V
0 1 V
0 1 V
0 2 V
0 1 V
0 1 V
0 2 V
0 1 V
0 1 V
0 2 V
0 1 V
0 1 V
0 1 V
0 2 V
0 1 V
0 1 V
0 2 V
0 1 V
0 1 V
0 1 V
0 2 V
0 1 V
0 1 V
0 1 V
0 2 V
0 1 V
0 1 V
0 1 V
0 2 V
0 1 V
0 1 V
0 1 V
0 1 V
0 2 V
0 1 V
0 1 V
0 1 V
0 1 V
0 2 V
0 1 V
0 1 V
0 1 V
0 1 V
0 1 V
0 2 V
0 1 V
0 1 V
0 1 V
0 1 V
0 1 V
0 1 V
0 2 V
0 1 V
0 1 V
0 1 V
0 1 V
0 1 V
0 1 V
0 1 V
4 1 V
0 2 V
0 -2 V
0 2 V
0 1 V
0 1 V
0 1 V
0 1 V
0 1 V
0 1 V
0 1 V
0 1 V
0 1 V
0 1 V
0 1 V
0 1 V
0 2 V
0 1 V
0 1 V
0 1 V
0 1 V
0 1 V
0 1 V
0 1 V
0 1 V
0 1 V
0 1 V
0 1 V
0 1 V
0 1 V
0 1 V
0 1 V
0 1 V
0 1 V
1 1 V
0 1 V
0 1 V
stroke 2330 3740 M
0 1 V
0 1 V
0 1 V
0 1 V
0 1 V
0 1 V
0 1 V
0 1 V
0 1 V
0 1 V
0 1 V
0 1 V
0 1 V
0 1 V
0 1 V
0 1 V
0 1 V
0 1 V
0 1 V
0 1 V
0 1 V
0 1 V
0 1 V
0 1 V
0 1 V
0 1 V
0 1 V
0 1 V
0 1 V
0 1 V
0 1 V
0 1 V
0 1 V
0 1 V
0 1 V
0 1 V
0 1 V
0 1 V
0 1 V
0 1 V
0 1 V
0 1 V
0 1 V
0 1 V
0 1 V
0 1 V
0 1 V
0 1 V
0 1 V
0 1 V
0 1 V
0 1 V
0 1 V
0 1 V
0 1 V
0 1 V
0 1 V
0 1 V
0 1 V
0 1 V
0 1 V
0 1 V
0 1 V
0 1 V
1 1 V
0 1 V
0 1 V
0 1 V
0 1 V
0 1 V
0 1 V
0 1 V
0 1 V
0 1 V
0 1 V
0 1 V
0 1 V
0 1 V
0 1 V
0 1 V
0 1 V
0 1 V
0 1 V
0 1 V
0 1 V
0 1 V
0 1 V
4 1 V
0 1 V
0 -1 V
0 1 V
0 1 V
0 1 V
0 1 V
0 1 V
0 1 V
0 1 V
0 1 V
0 1 V
0 1 V
0 1 V
0 1 V
0 1 V
0 1 V
stroke 2335 3842 M
0 1 V
0 1 V
0 1 V
0 1 V
0 1 V
0 1 V
0 1 V
0 1 V
0 1 V
0 1 V
0 1 V
0 1 V
0 1 V
0 1 V
0 1 V
0 1 V
0 1 V
0 1 V
0 1 V
0 1 V
0 1 V
0 1 V
0 1 V
0 1 V
0 1 V
0 1 V
0 1 V
0 1 V
0 1 V
0 1 V
0 1 V
0 1 V
0 1 V
11 0 V
0 1 V
0 1 V
0 1 V
0 1 V
0 1 V
0 1 V
0 1 V
0 1 V
0 1 V
0 1 V
0 1 V
0 1 V
0 1 V
0 1 V
0 1 V
0 1 V
0 1 V
0 1 V
0 1 V
0 1 V
0 1 V
0 1 V
0 1 V
0 1 V
0 1 V
0 1 V
0 1 V
0 1 V
0 1 V
0 1 V
0 1 V
0 1 V
0 1 V
0 1 V
0 1 V
0 1 V
0 1 V
0 1 V
0 1 V
0 1 V
0 1 V
0 1 V
0 1 V
0 1 V
0 1 V
0 1 V
0 1 V
0 1 V
0 1 V
0 1 V
0 1 V
0 1 V
0 1 V
0 1 V
0 1 V
0 1 V
0 1 V
0 1 V
0 1 V
0 1 V
0 1 V
0 1 V
0 1 V
0 1 V
0 1 V
0 1 V
0 1 V
0 1 V
0 1 V
0 1 V
stroke 2346 3945 M
0 1 V
0 1 V
0 1 V
0 1 V
0 1 V
0 1 V
0 1 V
5 0 V
0 1 V
0 1 V
0 1 V
0 1 V
0 1 V
0 1 V
0 1 V
0 1 V
0 1 V
0 1 V
0 1 V
0 1 V
0 1 V
0 1 V
0 1 V
0 1 V
0 1 V
0 1 V
0 1 V
0 1 V
0 1 V
0 1 V
0 1 V
0 1 V
0 1 V
0 1 V
0 1 V
0 1 V
0 1 V
0 1 V
0 1 V
0 1 V
0 1 V
0 -1 V
0 1 V
0 1 V
0 1 V
0 1 V
0 1 V
0 1 V
0 1 V
0 1 V
0 1 V
0 1 V
0 1 V
0 1 V
0 1 V
0 1 V
0 1 V
0 1 V
0 1 V
0 1 V
1 0 V
0 1 V
0 1 V
0 1 V
0 1 V
0 1 V
0 1 V
0 1 V
0 1 V
0 1 V
0 1 V
0 1 V
0 1 V
0 1 V
0 1 V
4 0 V
0 1 V
0 1 V
0 1 V
0 1 V
0 1 V
0 1 V
0 1 V
0 1 V
0 1 V
0 1 V
0 1 V
0 1 V
0 1 V
0 1 V
0 1 V
0 1 V
0 1 V
0 1 V
0 1 V
0 1 V
0 1 V
0 1 V
0 1 V
0 1 V
0 1 V
0 1 V
0 1 V
0 1 V
stroke 2356 4044 M
0 1 V
0 1 V
1 0 V
0 1 V
0 1 V
0 1 V
0 1 V
0 1 V
0 1 V
0 1 V
0 1 V
0 1 V
0 1 V
0 1 V
0 1 V
0 1 V
0 1 V
0 1 V
0 1 V
0 1 V
0 1 V
0 1 V
0 1 V
0 1 V
0 1 V
0 1 V
0 1 V
4 0 V
0 1 V
0 1 V
0 1 V
0 1 V
0 1 V
0 1 V
0 1 V
0 1 V
0 1 V
0 1 V
0 1 V
0 1 V
0 1 V
0 1 V
0 1 V
11 0 V
0 1 V
0 1 V
0 1 V
0 1 V
0 1 V
0 1 V
0 1 V
0 1 V
0 1 V
0 1 V
0 1 V
0 1 V
0 1 V
0 1 V
0 1 V
0 1 V
0 1 V
0 1 V
0 1 V
0 1 V
0 1 V
0 1 V
0 1 V
0 1 V
0 1 V
0 1 V
0 1 V
0 1 V
0 1 V
0 1 V
0 1 V
0 1 V
0 1 V
0 1 V
0 1 V
0 1 V
0 1 V
0 1 V
0 1 V
0 1 V
0 1 V
0 1 V
5 1 V
0 1 V
0 1 V
0 1 V
0 1 V
0 -701 V
0 2 V
0 -69 V
0 3 V
0 3 V
0 3 V
0 3 V
0 2 V
0 3 V
0 3 V
0 3 V
0 3 V
0 2 V
stroke 2377 3392 M
0 3 V
0 3 V
0 2 V
0 3 V
0 3 V
0 2 V
0 3 V
0 2 V
0 3 V
0 2 V
0 3 V
0 2 V
0 3 V
0 2 V
0 3 V
0 2 V
0 3 V
0 2 V
0 2 V
0 3 V
0 2 V
0 2 V
0 3 V
0 2 V
0 2 V
0 2 V
0 3 V
0 2 V
0 2 V
0 2 V
0 3 V
0 2 V
0 2 V
0 2 V
0 2 V
0 2 V
0 2 V
0 2 V
0 3 V
0 2 V
0 2 V
0 2 V
0 2 V
0 2 V
0 2 V
0 2 V
0 2 V
0 2 V
0 2 V
0 2 V
0 2 V
0 2 V
0 1 V
0 2 V
0 2 V
0 2 V
0 2 V
0 2 V
0 2 V
0 2 V
0 1 V
0 2 V
0 2 V
0 2 V
1 2 V
0 2 V
0 1 V
0 2 V
0 2 V
0 2 V
0 1 V
0 2 V
0 2 V
0 2 V
0 1 V
0 2 V
0 2 V
0 1 V
0 2 V
0 2 V
0 1 V
0 2 V
0 2 V
0 1 V
0 2 V
0 2 V
0 1 V
0 2 V
0 1 V
0 2 V
0 2 V
0 1 V
0 2 V
0 1 V
0 2 V
0 1 V
4 2 V
0 1 V
0 2 V
0 1 V
0 2 V
0 2 V
0 1 V
0 2 V
stroke 2382 3599 M
0 1 V
0 1 V
0 2 V
0 1 V
0 2 V
0 1 V
0 2 V
0 1 V
0 2 V
0 1 V
0 -1 V
0 1 V
5 -1 V
0 1 V
5 -1 V
0 1 V
5 -1 V
0 1 V
5 -1 V
0 1 V
6 -1 V
0 1 V
5 -1 V
0 1 V
0 -2793 V
5 0 R
0 897 V
0 -897 V
5 0 R
0 897 V
46 1888 V
% End plot #7
% Begin plot #8
2.000 UP
stroke
LTb
LT3
0.00 0.38 0.82 C 1265 1957 TriU
1431 3543 TriU
1990 3332 TriU
2288 3351 TriU
2346 3913 TriU
2372 4127 TriU
% End plot #8
% Begin plot #9
2.000 UP
1.000 UL
LTb
LT3
0.00 0.38 0.82 C LCb setrgbcolor
5600 153 M
[ [(Arial) 180.0 0.0 true true 0 (per-flow)]
] -60.0 MRshow
2.000 UP
1.000 UL
LTb
LT3
0.00 0.38 0.82 C 1265 1957 TriU
5874 153 TriU
% End plot #9
2.000 UL
LTb
LCb setrgbcolor
1.000 UP
1.000 UL
LTb
0.00 0.00 0.00 C stroke
grestore
end
showpage
%%Trailer
%%DocumentFonts: Arial
