%!PS-Adobe-2.0 EPSF-2.0
%%Title: TcpBic-cwnd-1Mbps-UE7.eps
%%Creator: gnuplot 5.0 patchlevel 3
%%CreationDate: Tue May 24 14:35:43 2016
%%DocumentFonts: (atend)
%%BoundingBox: 50 50 410 302
%%EndComments
%%BeginProlog
/gnudict 256 dict def
gnudict begin
%
% The following true/false flags may be edited by hand if desired.
% The unit line width and grayscale image gamma correction may also be changed.
%
/Color true def
/Blacktext false def
/Solid false def
/Dashlength 3 def
/Landscape false def
/Level1 false def
/Level3 false def
/Rounded false def
/ClipToBoundingBox false def
/SuppressPDFMark false def
/TransparentPatterns false def
/gnulinewidth 15.000 def
/userlinewidth gnulinewidth def
/Gamma 1.0 def
/BackgroundColor {-1.000 -1.000 -1.000} def
%
/vshift -66 def
/dl1 {
  10.0 Dashlength userlinewidth gnulinewidth div mul mul mul
  Rounded { currentlinewidth 0.75 mul sub dup 0 le { pop 0.01 } if } if
} def
/dl2 {
  10.0 Dashlength userlinewidth gnulinewidth div mul mul mul
  Rounded { currentlinewidth 0.75 mul add } if
} def
/hpt_ 31.5 def
/vpt_ 31.5 def
/hpt hpt_ def
/vpt vpt_ def
/doclip {
  ClipToBoundingBox {
    newpath 50 50 moveto 410 50 lineto 410 302 lineto 50 302 lineto closepath
    clip
  } if
} def
%
% Gnuplot Prolog Version 5.1 (Oct 2015)
%
%/SuppressPDFMark true def
%
/M {moveto} bind def
/L {lineto} bind def
/R {rmoveto} bind def
/V {rlineto} bind def
/N {newpath moveto} bind def
/Z {closepath} bind def
/C {setrgbcolor} bind def
/f {rlineto fill} bind def
/g {setgray} bind def
/Gshow {show} def   % May be redefined later in the file to support UTF-8
/vpt2 vpt 2 mul def
/hpt2 hpt 2 mul def
/Lshow {currentpoint stroke M 0 vshift R 
	Blacktext {gsave 0 setgray textshow grestore} {textshow} ifelse} def
/Rshow {currentpoint stroke M dup stringwidth pop neg vshift R
	Blacktext {gsave 0 setgray textshow grestore} {textshow} ifelse} def
/Cshow {currentpoint stroke M dup stringwidth pop -2 div vshift R 
	Blacktext {gsave 0 setgray textshow grestore} {textshow} ifelse} def
/UP {dup vpt_ mul /vpt exch def hpt_ mul /hpt exch def
  /hpt2 hpt 2 mul def /vpt2 vpt 2 mul def} def
/DL {Color {setrgbcolor Solid {pop []} if 0 setdash}
 {pop pop pop 0 setgray Solid {pop []} if 0 setdash} ifelse} def
/BL {stroke userlinewidth 2 mul setlinewidth
	Rounded {1 setlinejoin 1 setlinecap} if} def
/AL {stroke userlinewidth 2 div setlinewidth
	Rounded {1 setlinejoin 1 setlinecap} if} def
/UL {dup gnulinewidth mul /userlinewidth exch def
	dup 1 lt {pop 1} if 10 mul /udl exch def} def
/PL {stroke userlinewidth setlinewidth
	Rounded {1 setlinejoin 1 setlinecap} if} def
3.8 setmiterlimit
% Classic Line colors (version 5.0)
/LCw {1 1 1} def
/LCb {0 0 0} def
/LCa {0 0 0} def
/LC0 {1 0 0} def
/LC1 {0 1 0} def
/LC2 {0 0 1} def
/LC3 {1 0 1} def
/LC4 {0 1 1} def
/LC5 {1 1 0} def
/LC6 {0 0 0} def
/LC7 {1 0.3 0} def
/LC8 {0.5 0.5 0.5} def
% Default dash patterns (version 5.0)
/LTB {BL [] LCb DL} def
/LTw {PL [] 1 setgray} def
/LTb {PL [] LCb DL} def
/LTa {AL [1 udl mul 2 udl mul] 0 setdash LCa setrgbcolor} def
/LT0 {PL [] LC0 DL} def
/LT1 {PL [2 dl1 3 dl2] LC1 DL} def
/LT2 {PL [1 dl1 1.5 dl2] LC2 DL} def
/LT3 {PL [6 dl1 2 dl2 1 dl1 2 dl2] LC3 DL} def
/LT4 {PL [1 dl1 2 dl2 6 dl1 2 dl2 1 dl1 2 dl2] LC4 DL} def
/LT5 {PL [4 dl1 2 dl2] LC5 DL} def
/LT6 {PL [1.5 dl1 1.5 dl2 1.5 dl1 1.5 dl2 1.5 dl1 6 dl2] LC6 DL} def
/LT7 {PL [3 dl1 3 dl2 1 dl1 3 dl2] LC7 DL} def
/LT8 {PL [2 dl1 2 dl2 2 dl1 6 dl2] LC8 DL} def
/SL {[] 0 setdash} def
/Pnt {stroke [] 0 setdash gsave 1 setlinecap M 0 0 V stroke grestore} def
/Dia {stroke [] 0 setdash 2 copy vpt add M
  hpt neg vpt neg V hpt vpt neg V
  hpt vpt V hpt neg vpt V closepath stroke
  Pnt} def
/Pls {stroke [] 0 setdash vpt sub M 0 vpt2 V
  currentpoint stroke M
  hpt neg vpt neg R hpt2 0 V stroke
 } def
/Box {stroke [] 0 setdash 2 copy exch hpt sub exch vpt add M
  0 vpt2 neg V hpt2 0 V 0 vpt2 V
  hpt2 neg 0 V closepath stroke
  Pnt} def
/Crs {stroke [] 0 setdash exch hpt sub exch vpt add M
  hpt2 vpt2 neg V currentpoint stroke M
  hpt2 neg 0 R hpt2 vpt2 V stroke} def
/TriU {stroke [] 0 setdash 2 copy vpt 1.12 mul add M
  hpt neg vpt -1.62 mul V
  hpt 2 mul 0 V
  hpt neg vpt 1.62 mul V closepath stroke
  Pnt} def
/Star {2 copy Pls Crs} def
/BoxF {stroke [] 0 setdash exch hpt sub exch vpt add M
  0 vpt2 neg V hpt2 0 V 0 vpt2 V
  hpt2 neg 0 V closepath fill} def
/TriUF {stroke [] 0 setdash vpt 1.12 mul add M
  hpt neg vpt -1.62 mul V
  hpt 2 mul 0 V
  hpt neg vpt 1.62 mul V closepath fill} def
/TriD {stroke [] 0 setdash 2 copy vpt 1.12 mul sub M
  hpt neg vpt 1.62 mul V
  hpt 2 mul 0 V
  hpt neg vpt -1.62 mul V closepath stroke
  Pnt} def
/TriDF {stroke [] 0 setdash vpt 1.12 mul sub M
  hpt neg vpt 1.62 mul V
  hpt 2 mul 0 V
  hpt neg vpt -1.62 mul V closepath fill} def
/DiaF {stroke [] 0 setdash vpt add M
  hpt neg vpt neg V hpt vpt neg V
  hpt vpt V hpt neg vpt V closepath fill} def
/Pent {stroke [] 0 setdash 2 copy gsave
  translate 0 hpt M 4 {72 rotate 0 hpt L} repeat
  closepath stroke grestore Pnt} def
/PentF {stroke [] 0 setdash gsave
  translate 0 hpt M 4 {72 rotate 0 hpt L} repeat
  closepath fill grestore} def
/Circle {stroke [] 0 setdash 2 copy
  hpt 0 360 arc stroke Pnt} def
/CircleF {stroke [] 0 setdash hpt 0 360 arc fill} def
/C0 {BL [] 0 setdash 2 copy moveto vpt 90 450 arc} bind def
/C1 {BL [] 0 setdash 2 copy moveto
	2 copy vpt 0 90 arc closepath fill
	vpt 0 360 arc closepath} bind def
/C2 {BL [] 0 setdash 2 copy moveto
	2 copy vpt 90 180 arc closepath fill
	vpt 0 360 arc closepath} bind def
/C3 {BL [] 0 setdash 2 copy moveto
	2 copy vpt 0 180 arc closepath fill
	vpt 0 360 arc closepath} bind def
/C4 {BL [] 0 setdash 2 copy moveto
	2 copy vpt 180 270 arc closepath fill
	vpt 0 360 arc closepath} bind def
/C5 {BL [] 0 setdash 2 copy moveto
	2 copy vpt 0 90 arc
	2 copy moveto
	2 copy vpt 180 270 arc closepath fill
	vpt 0 360 arc} bind def
/C6 {BL [] 0 setdash 2 copy moveto
	2 copy vpt 90 270 arc closepath fill
	vpt 0 360 arc closepath} bind def
/C7 {BL [] 0 setdash 2 copy moveto
	2 copy vpt 0 270 arc closepath fill
	vpt 0 360 arc closepath} bind def
/C8 {BL [] 0 setdash 2 copy moveto
	2 copy vpt 270 360 arc closepath fill
	vpt 0 360 arc closepath} bind def
/C9 {BL [] 0 setdash 2 copy moveto
	2 copy vpt 270 450 arc closepath fill
	vpt 0 360 arc closepath} bind def
/C10 {BL [] 0 setdash 2 copy 2 copy moveto vpt 270 360 arc closepath fill
	2 copy moveto
	2 copy vpt 90 180 arc closepath fill
	vpt 0 360 arc closepath} bind def
/C11 {BL [] 0 setdash 2 copy moveto
	2 copy vpt 0 180 arc closepath fill
	2 copy moveto
	2 copy vpt 270 360 arc closepath fill
	vpt 0 360 arc closepath} bind def
/C12 {BL [] 0 setdash 2 copy moveto
	2 copy vpt 180 360 arc closepath fill
	vpt 0 360 arc closepath} bind def
/C13 {BL [] 0 setdash 2 copy moveto
	2 copy vpt 0 90 arc closepath fill
	2 copy moveto
	2 copy vpt 180 360 arc closepath fill
	vpt 0 360 arc closepath} bind def
/C14 {BL [] 0 setdash 2 copy moveto
	2 copy vpt 90 360 arc closepath fill
	vpt 0 360 arc} bind def
/C15 {BL [] 0 setdash 2 copy vpt 0 360 arc closepath fill
	vpt 0 360 arc closepath} bind def
/Rec {newpath 4 2 roll moveto 1 index 0 rlineto 0 exch rlineto
	neg 0 rlineto closepath} bind def
/Square {dup Rec} bind def
/Bsquare {vpt sub exch vpt sub exch vpt2 Square} bind def
/S0 {BL [] 0 setdash 2 copy moveto 0 vpt rlineto BL Bsquare} bind def
/S1 {BL [] 0 setdash 2 copy vpt Square fill Bsquare} bind def
/S2 {BL [] 0 setdash 2 copy exch vpt sub exch vpt Square fill Bsquare} bind def
/S3 {BL [] 0 setdash 2 copy exch vpt sub exch vpt2 vpt Rec fill Bsquare} bind def
/S4 {BL [] 0 setdash 2 copy exch vpt sub exch vpt sub vpt Square fill Bsquare} bind def
/S5 {BL [] 0 setdash 2 copy 2 copy vpt Square fill
	exch vpt sub exch vpt sub vpt Square fill Bsquare} bind def
/S6 {BL [] 0 setdash 2 copy exch vpt sub exch vpt sub vpt vpt2 Rec fill Bsquare} bind def
/S7 {BL [] 0 setdash 2 copy exch vpt sub exch vpt sub vpt vpt2 Rec fill
	2 copy vpt Square fill Bsquare} bind def
/S8 {BL [] 0 setdash 2 copy vpt sub vpt Square fill Bsquare} bind def
/S9 {BL [] 0 setdash 2 copy vpt sub vpt vpt2 Rec fill Bsquare} bind def
/S10 {BL [] 0 setdash 2 copy vpt sub vpt Square fill 2 copy exch vpt sub exch vpt Square fill
	Bsquare} bind def
/S11 {BL [] 0 setdash 2 copy vpt sub vpt Square fill 2 copy exch vpt sub exch vpt2 vpt Rec fill
	Bsquare} bind def
/S12 {BL [] 0 setdash 2 copy exch vpt sub exch vpt sub vpt2 vpt Rec fill Bsquare} bind def
/S13 {BL [] 0 setdash 2 copy exch vpt sub exch vpt sub vpt2 vpt Rec fill
	2 copy vpt Square fill Bsquare} bind def
/S14 {BL [] 0 setdash 2 copy exch vpt sub exch vpt sub vpt2 vpt Rec fill
	2 copy exch vpt sub exch vpt Square fill Bsquare} bind def
/S15 {BL [] 0 setdash 2 copy Bsquare fill Bsquare} bind def
/D0 {gsave translate 45 rotate 0 0 S0 stroke grestore} bind def
/D1 {gsave translate 45 rotate 0 0 S1 stroke grestore} bind def
/D2 {gsave translate 45 rotate 0 0 S2 stroke grestore} bind def
/D3 {gsave translate 45 rotate 0 0 S3 stroke grestore} bind def
/D4 {gsave translate 45 rotate 0 0 S4 stroke grestore} bind def
/D5 {gsave translate 45 rotate 0 0 S5 stroke grestore} bind def
/D6 {gsave translate 45 rotate 0 0 S6 stroke grestore} bind def
/D7 {gsave translate 45 rotate 0 0 S7 stroke grestore} bind def
/D8 {gsave translate 45 rotate 0 0 S8 stroke grestore} bind def
/D9 {gsave translate 45 rotate 0 0 S9 stroke grestore} bind def
/D10 {gsave translate 45 rotate 0 0 S10 stroke grestore} bind def
/D11 {gsave translate 45 rotate 0 0 S11 stroke grestore} bind def
/D12 {gsave translate 45 rotate 0 0 S12 stroke grestore} bind def
/D13 {gsave translate 45 rotate 0 0 S13 stroke grestore} bind def
/D14 {gsave translate 45 rotate 0 0 S14 stroke grestore} bind def
/D15 {gsave translate 45 rotate 0 0 S15 stroke grestore} bind def
/DiaE {stroke [] 0 setdash vpt add M
  hpt neg vpt neg V hpt vpt neg V
  hpt vpt V hpt neg vpt V closepath stroke} def
/BoxE {stroke [] 0 setdash exch hpt sub exch vpt add M
  0 vpt2 neg V hpt2 0 V 0 vpt2 V
  hpt2 neg 0 V closepath stroke} def
/TriUE {stroke [] 0 setdash vpt 1.12 mul add M
  hpt neg vpt -1.62 mul V
  hpt 2 mul 0 V
  hpt neg vpt 1.62 mul V closepath stroke} def
/TriDE {stroke [] 0 setdash vpt 1.12 mul sub M
  hpt neg vpt 1.62 mul V
  hpt 2 mul 0 V
  hpt neg vpt -1.62 mul V closepath stroke} def
/PentE {stroke [] 0 setdash gsave
  translate 0 hpt M 4 {72 rotate 0 hpt L} repeat
  closepath stroke grestore} def
/CircE {stroke [] 0 setdash 
  hpt 0 360 arc stroke} def
/Opaque {gsave closepath 1 setgray fill grestore 0 setgray closepath} def
/DiaW {stroke [] 0 setdash vpt add M
  hpt neg vpt neg V hpt vpt neg V
  hpt vpt V hpt neg vpt V Opaque stroke} def
/BoxW {stroke [] 0 setdash exch hpt sub exch vpt add M
  0 vpt2 neg V hpt2 0 V 0 vpt2 V
  hpt2 neg 0 V Opaque stroke} def
/TriUW {stroke [] 0 setdash vpt 1.12 mul add M
  hpt neg vpt -1.62 mul V
  hpt 2 mul 0 V
  hpt neg vpt 1.62 mul V Opaque stroke} def
/TriDW {stroke [] 0 setdash vpt 1.12 mul sub M
  hpt neg vpt 1.62 mul V
  hpt 2 mul 0 V
  hpt neg vpt -1.62 mul V Opaque stroke} def
/PentW {stroke [] 0 setdash gsave
  translate 0 hpt M 4 {72 rotate 0 hpt L} repeat
  Opaque stroke grestore} def
/CircW {stroke [] 0 setdash 
  hpt 0 360 arc Opaque stroke} def
/BoxFill {gsave Rec 1 setgray fill grestore} def
/Density {
  /Fillden exch def
  currentrgbcolor
  /ColB exch def /ColG exch def /ColR exch def
  /ColR ColR Fillden mul Fillden sub 1 add def
  /ColG ColG Fillden mul Fillden sub 1 add def
  /ColB ColB Fillden mul Fillden sub 1 add def
  ColR ColG ColB setrgbcolor} def
/BoxColFill {gsave Rec PolyFill} def
/PolyFill {gsave Density fill grestore grestore} def
/h {rlineto rlineto rlineto gsave closepath fill grestore} bind def
%
% PostScript Level 1 Pattern Fill routine for rectangles
% Usage: x y w h s a XX PatternFill
%	x,y = lower left corner of box to be filled
%	w,h = width and height of box
%	  a = angle in degrees between lines and x-axis
%	 XX = 0/1 for no/yes cross-hatch
%
/PatternFill {gsave /PFa [ 9 2 roll ] def
  PFa 0 get PFa 2 get 2 div add PFa 1 get PFa 3 get 2 div add translate
  PFa 2 get -2 div PFa 3 get -2 div PFa 2 get PFa 3 get Rec
  TransparentPatterns {} {gsave 1 setgray fill grestore} ifelse
  clip
  currentlinewidth 0.5 mul setlinewidth
  /PFs PFa 2 get dup mul PFa 3 get dup mul add sqrt def
  0 0 M PFa 5 get rotate PFs -2 div dup translate
  0 1 PFs PFa 4 get div 1 add floor cvi
	{PFa 4 get mul 0 M 0 PFs V} for
  0 PFa 6 get ne {
	0 1 PFs PFa 4 get div 1 add floor cvi
	{PFa 4 get mul 0 2 1 roll M PFs 0 V} for
 } if
  stroke grestore} def
%
/languagelevel where
 {pop languagelevel} {1} ifelse
dup 2 lt
	{/InterpretLevel1 true def
	 /InterpretLevel3 false def}
	{/InterpretLevel1 Level1 def
	 2 gt
	    {/InterpretLevel3 Level3 def}
	    {/InterpretLevel3 false def}
	 ifelse }
 ifelse
%
% PostScript level 2 pattern fill definitions
%
/Level2PatternFill {
/Tile8x8 {/PaintType 2 /PatternType 1 /TilingType 1 /BBox [0 0 8 8] /XStep 8 /YStep 8}
	bind def
/KeepColor {currentrgbcolor [/Pattern /DeviceRGB] setcolorspace} bind def
<< Tile8x8
 /PaintProc {0.5 setlinewidth pop 0 0 M 8 8 L 0 8 M 8 0 L stroke} 
>> matrix makepattern
/Pat1 exch def
<< Tile8x8
 /PaintProc {0.5 setlinewidth pop 0 0 M 8 8 L 0 8 M 8 0 L stroke
	0 4 M 4 8 L 8 4 L 4 0 L 0 4 L stroke}
>> matrix makepattern
/Pat2 exch def
<< Tile8x8
 /PaintProc {0.5 setlinewidth pop 0 0 M 0 8 L
	8 8 L 8 0 L 0 0 L fill}
>> matrix makepattern
/Pat3 exch def
<< Tile8x8
 /PaintProc {0.5 setlinewidth pop -4 8 M 8 -4 L
	0 12 M 12 0 L stroke}
>> matrix makepattern
/Pat4 exch def
<< Tile8x8
 /PaintProc {0.5 setlinewidth pop -4 0 M 8 12 L
	0 -4 M 12 8 L stroke}
>> matrix makepattern
/Pat5 exch def
<< Tile8x8
 /PaintProc {0.5 setlinewidth pop -2 8 M 4 -4 L
	0 12 M 8 -4 L 4 12 M 10 0 L stroke}
>> matrix makepattern
/Pat6 exch def
<< Tile8x8
 /PaintProc {0.5 setlinewidth pop -2 0 M 4 12 L
	0 -4 M 8 12 L 4 -4 M 10 8 L stroke}
>> matrix makepattern
/Pat7 exch def
<< Tile8x8
 /PaintProc {0.5 setlinewidth pop 8 -2 M -4 4 L
	12 0 M -4 8 L 12 4 M 0 10 L stroke}
>> matrix makepattern
/Pat8 exch def
<< Tile8x8
 /PaintProc {0.5 setlinewidth pop 0 -2 M 12 4 L
	-4 0 M 12 8 L -4 4 M 8 10 L stroke}
>> matrix makepattern
/Pat9 exch def
/Pattern1 {PatternBgnd KeepColor Pat1 setpattern} bind def
/Pattern2 {PatternBgnd KeepColor Pat2 setpattern} bind def
/Pattern3 {PatternBgnd KeepColor Pat3 setpattern} bind def
/Pattern4 {PatternBgnd KeepColor Landscape {Pat5} {Pat4} ifelse setpattern} bind def
/Pattern5 {PatternBgnd KeepColor Landscape {Pat4} {Pat5} ifelse setpattern} bind def
/Pattern6 {PatternBgnd KeepColor Landscape {Pat9} {Pat6} ifelse setpattern} bind def
/Pattern7 {PatternBgnd KeepColor Landscape {Pat8} {Pat7} ifelse setpattern} bind def
} def
%
%
%End of PostScript Level 2 code
%
/PatternBgnd {
  TransparentPatterns {} {gsave 1 setgray fill grestore} ifelse
} def
%
% Substitute for Level 2 pattern fill codes with
% grayscale if Level 2 support is not selected.
%
/Level1PatternFill {
/Pattern1 {0.250 Density} bind def
/Pattern2 {0.500 Density} bind def
/Pattern3 {0.750 Density} bind def
/Pattern4 {0.125 Density} bind def
/Pattern5 {0.375 Density} bind def
/Pattern6 {0.625 Density} bind def
/Pattern7 {0.875 Density} bind def
} def
%
% Now test for support of Level 2 code
%
Level1 {Level1PatternFill} {Level2PatternFill} ifelse
%
/Symbol-Oblique /Symbol findfont [1 0 .167 1 0 0] makefont
dup length dict begin {1 index /FID eq {pop pop} {def} ifelse} forall
currentdict end definefont pop
%
/MFshow {
   { dup 5 get 3 ge
     { 5 get 3 eq {gsave} {grestore} ifelse }
     {dup dup 0 get findfont exch 1 get scalefont setfont
     [ currentpoint ] exch dup 2 get 0 exch R dup 5 get 2 ne {dup dup 6
     get exch 4 get {textshow} {stringwidth pop 0 R} ifelse }if dup 5 get 0 eq
     {dup 3 get {2 get neg 0 exch R pop} {pop aload pop M} ifelse} {dup 5
     get 1 eq {dup 2 get exch dup 3 get exch 6 get stringwidth pop -2 div
     dup 0 R} {dup 6 get stringwidth pop -2 div 0 R 6 get
     textshow 2 index {aload pop M neg 3 -1 roll neg R pop pop} {pop pop pop
     pop aload pop M} ifelse }ifelse }ifelse }
     ifelse }
   forall} def
/Gswidth {dup type /stringtype eq {stringwidth} {pop (n) stringwidth} ifelse} def
/MFwidth {0 exch { dup 5 get 3 ge { 5 get 3 eq { 0 } { pop } ifelse }
 {dup 3 get{dup dup 0 get findfont exch 1 get scalefont setfont
     6 get Gswidth pop add} {pop} ifelse} ifelse} forall} def
/MLshow { currentpoint stroke M
  0 exch R
  Blacktext {gsave 0 setgray MFshow grestore} {MFshow} ifelse } bind def
/MRshow { currentpoint stroke M
  exch dup MFwidth neg 3 -1 roll R
  Blacktext {gsave 0 setgray MFshow grestore} {MFshow} ifelse } bind def
/MCshow { currentpoint stroke M
  exch dup MFwidth -2 div 3 -1 roll R
  Blacktext {gsave 0 setgray MFshow grestore} {MFshow} ifelse } bind def
/XYsave    { [( ) 1 2 true false 3 ()] } bind def
/XYrestore { [( ) 1 2 true false 4 ()] } bind def
Level1 SuppressPDFMark or 
{} {
/SDict 10 dict def
systemdict /pdfmark known not {
  userdict /pdfmark systemdict /cleartomark get put
} if
SDict begin [
  /Title (TcpBic-cwnd-1Mbps-UE7.eps)
  /Subject (gnuplot plot)
  /Creator (gnuplot 5.0 patchlevel 3)
  /Author (nat)
%  /Producer (gnuplot)
%  /Keywords ()
  /CreationDate (Tue May 24 14:35:43 2016)
  /DOCINFO pdfmark
end
} ifelse
%
% Support for boxed text - Ethan A Merritt May 2005
%
/InitTextBox { userdict /TBy2 3 -1 roll put userdict /TBx2 3 -1 roll put
           userdict /TBy1 3 -1 roll put userdict /TBx1 3 -1 roll put
	   /Boxing true def } def
/ExtendTextBox { Boxing
    { gsave dup false charpath pathbbox
      dup TBy2 gt {userdict /TBy2 3 -1 roll put} {pop} ifelse
      dup TBx2 gt {userdict /TBx2 3 -1 roll put} {pop} ifelse
      dup TBy1 lt {userdict /TBy1 3 -1 roll put} {pop} ifelse
      dup TBx1 lt {userdict /TBx1 3 -1 roll put} {pop} ifelse
      grestore } if } def
/PopTextBox { newpath TBx1 TBxmargin sub TBy1 TBymargin sub M
               TBx1 TBxmargin sub TBy2 TBymargin add L
	       TBx2 TBxmargin add TBy2 TBymargin add L
	       TBx2 TBxmargin add TBy1 TBymargin sub L closepath } def
/DrawTextBox { PopTextBox stroke /Boxing false def} def
/FillTextBox { gsave PopTextBox 1 1 1 setrgbcolor fill grestore /Boxing false def} def
0 0 0 0 InitTextBox
/TBxmargin 20 def
/TBymargin 20 def
/Boxing false def
/textshow { ExtendTextBox Gshow } def
%
% redundant definitions for compatibility with prologue.ps older than 5.0.2
/LTB {BL [] LCb DL} def
/LTb {PL [] LCb DL} def
end
%%EndProlog
%%Page: 1 1
gnudict begin
gsave
doclip
50 50 translate
0.050 0.050 scale
0 setgray
newpath
(Arial) findfont 200 scalefont setfont
BackgroundColor 0 lt 3 1 roll 0 lt exch 0 lt or or not {BackgroundColor C 1.000 0 0 7200.00 5040.00 BoxColFill} if
1.000 UL
LTb
0.00 0.00 0.00 C 0.500 UL
LTa
0.50 0.50 0.50 C 1220 820 M
5619 0 V
stroke
1.000 UL
LTb
0.00 0.00 0.00 C 1220 820 M
63 0 V
5556 0 R
-63 0 V
stroke
1100 820 M
[ [(Arial) 200.0 0.0 true true 0 ( 0.1)]
] -66.7 MRshow
1.000 UL
LTb
0.00 0.00 0.00 C 1220 1060 M
31 0 V
5588 0 R
-31 0 V
1220 1376 M
31 0 V
5588 0 R
-31 0 V
1220 1539 M
31 0 V
5588 0 R
-31 0 V
stroke
0.500 UL
LTa
0.50 0.50 0.50 C 1220 1616 M
5619 0 V
stroke
1.000 UL
LTb
0.00 0.00 0.00 C 1220 1616 M
63 0 V
5556 0 R
-63 0 V
stroke
1100 1616 M
[ [(Arial) 200.0 0.0 true true 0 ( 1)]
] -66.7 MRshow
1.000 UL
LTb
0.00 0.00 0.00 C 1220 1855 M
31 0 V
5588 0 R
-31 0 V
1220 2172 M
31 0 V
5588 0 R
-31 0 V
1220 2334 M
31 0 V
5588 0 R
-31 0 V
stroke
0.500 UL
LTa
0.50 0.50 0.50 C 1220 2412 M
5619 0 V
stroke
1.000 UL
LTb
0.00 0.00 0.00 C 1220 2412 M
63 0 V
5556 0 R
-63 0 V
stroke
1100 2412 M
[ [(Arial) 200.0 0.0 true true 0 ( 10)]
] -66.7 MRshow
1.000 UL
LTb
0.00 0.00 0.00 C 1220 2651 M
31 0 V
5588 0 R
-31 0 V
1220 2968 M
31 0 V
5588 0 R
-31 0 V
1220 3130 M
31 0 V
5588 0 R
-31 0 V
stroke
0.500 UL
LTa
0.50 0.50 0.50 C 1220 3207 M
5619 0 V
stroke
1.000 UL
LTb
0.00 0.00 0.00 C 1220 3207 M
63 0 V
5556 0 R
-63 0 V
stroke
1100 3207 M
[ [(Arial) 200.0 0.0 true true 0 ( 100)]
] -66.7 MRshow
1.000 UL
LTb
0.00 0.00 0.00 C 1220 3447 M
31 0 V
5588 0 R
-31 0 V
1220 3764 M
31 0 V
5588 0 R
-31 0 V
1220 3926 M
31 0 V
5588 0 R
-31 0 V
stroke
0.500 UL
LTa
0.50 0.50 0.50 C 1220 4003 M
5619 0 V
stroke
1.000 UL
LTb
0.00 0.00 0.00 C 1220 4003 M
63 0 V
5556 0 R
-63 0 V
stroke
1100 4003 M
[ [(Arial) 200.0 0.0 true true 0 ( 1000)]
] -66.7 MRshow
1.000 UL
LTb
0.00 0.00 0.00 C 1220 4243 M
31 0 V
5588 0 R
-31 0 V
1220 4559 M
31 0 V
5588 0 R
-31 0 V
1220 4722 M
31 0 V
5588 0 R
-31 0 V
stroke
0.500 UL
LTa
0.50 0.50 0.50 C 1220 4799 M
5619 0 V
stroke
1.000 UL
LTb
0.00 0.00 0.00 C 1220 4799 M
63 0 V
5556 0 R
-63 0 V
stroke
1100 4799 M
[ [(Arial) 200.0 0.0 true true 0 ( 10000)]
] -66.7 MRshow
1.000 UL
LTb
0.00 0.00 0.00 C 0.500 UL
LTa
0.50 0.50 0.50 C 1822 820 M
0 3979 V
stroke
1.000 UL
LTb
0.00 0.00 0.00 C 1822 820 M
0 63 V
0 3916 R
0 -63 V
stroke
1822 620 M
[ [(Arial) 200.0 0.0 true true 0 ( 10)]
] -66.7 MCshow
1.000 UL
LTb
0.00 0.00 0.00 C 0.500 UL
LTa
0.50 0.50 0.50 C 2825 820 M
0 3979 V
stroke
1.000 UL
LTb
0.00 0.00 0.00 C 2825 820 M
0 63 V
0 3916 R
0 -63 V
stroke
2825 620 M
[ [(Arial) 200.0 0.0 true true 0 ( 20)]
] -66.7 MCshow
1.000 UL
LTb
0.00 0.00 0.00 C 0.500 UL
LTa
0.50 0.50 0.50 C 3829 820 M
0 3979 V
stroke
1.000 UL
LTb
0.00 0.00 0.00 C 3829 820 M
0 63 V
0 3916 R
0 -63 V
stroke
3829 620 M
[ [(Arial) 200.0 0.0 true true 0 ( 30)]
] -66.7 MCshow
1.000 UL
LTb
0.00 0.00 0.00 C 0.500 UL
LTa
0.50 0.50 0.50 C 4832 820 M
0 3979 V
stroke
1.000 UL
LTb
0.00 0.00 0.00 C 4832 820 M
0 63 V
0 3916 R
0 -63 V
stroke
4832 620 M
[ [(Arial) 200.0 0.0 true true 0 ( 40)]
] -66.7 MCshow
1.000 UL
LTb
0.00 0.00 0.00 C 0.500 UL
LTa
0.50 0.50 0.50 C 5836 820 M
0 3979 V
stroke
1.000 UL
LTb
0.00 0.00 0.00 C 5836 820 M
0 63 V
0 3916 R
0 -63 V
stroke
5836 620 M
[ [(Arial) 200.0 0.0 true true 0 ( 50)]
] -66.7 MCshow
1.000 UL
LTb
0.00 0.00 0.00 C 0.500 UL
LTa
0.50 0.50 0.50 C 6839 820 M
0 3979 V
stroke
1.000 UL
LTb
0.00 0.00 0.00 C 6839 820 M
0 63 V
0 3916 R
0 -63 V
stroke
6839 620 M
[ [(Arial) 200.0 0.0 true true 0 ( 60)]
] -66.7 MCshow
1.000 UL
LTb
0.00 0.00 0.00 C 1.000 UL
LTB
0.00 0.00 0.00 C 1220 4799 M
0 -3979 V
5619 0 V
0 3979 R
-5619 0 R
1.000 UP
stroke
LTb
0.00 0.00 0.00 C LCb setrgbcolor
160 2809 M
currentpoint gsave translate -270 rotate 0 0 moveto
[ [(Arial) 200.0 0.0 true true 0 (cWnd \(KB\))]
] -66.7 MCshow
grestore
LTb
LCb setrgbcolor
4029 320 M
[ [(Arial) 200.0 0.0 true true 0 (Time \(s\))]
] -66.7 MCshow
LTb
% Begin plot #1
1.000 UL
LTa
0.60 0.60 0.00 C 2164 1957 M
6 140 V
6 99 V
6 77 V
0 63 V
6 53 V
0 47 V
0 40 V
7 37 V
0 33 V
0 30 V
0 27 V
7 26 V
0 24 V
0 22 V
0 21 V
0 20 V
0 19 V
6 17 V
0 17 V
0 16 V
0 16 V
0 14 V
0 14 V
0 14 V
0 13 V
0 13 V
6 12 V
0 11 V
0 12 V
1 11 V
0 10 V
0 11 V
0 10 V
0 9 V
0 10 V
0 9 V
0 9 V
0 9 V
0 8 V
0 9 V
6 8 V
0 8 V
0 8 V
0 7 V
0 8 V
0 7 V
0 7 V
0 7 V
0 7 V
0 7 V
0 6 V
0 7 V
0 6 V
0 6 V
0 6 V
0 6 V
0 6 V
0 6 V
0 6 V
0 5 V
0 6 V
6 5 V
0 6 V
0 5 V
0 5 V
0 5 V
0 5 V
0 5 V
0 5 V
0 5 V
0 5 V
0 4 V
0 5 V
0 5 V
0 4 V
0 5 V
0 4 V
0 4 V
0 5 V
0 4 V
0 4 V
0 4 V
0 4 V
0 4 V
0 4 V
0 4 V
0 4 V
0 4 V
0 4 V
0 4 V
0 3 V
0 4 V
6 4 V
0 3 V
0 4 V
0 4 V
0 3 V
0 4 V
0 3 V
0 3 V
0 4 V
0 3 V
0 3 V
0 4 V
stroke 2233 3329 M
0 3 V
0 3 V
0 3 V
0 3 V
0 4 V
0 3 V
0 3 V
0 3 V
0 3 V
0 3 V
0 3 V
0 3 V
0 3 V
0 3 V
0 2 V
0 3 V
0 3 V
0 3 V
0 3 V
0 2 V
0 3 V
0 3 V
0 3 V
0 2 V
0 3 V
0 3 V
0 2 V
0 3 V
0 2 V
0 3 V
0 2 V
0 3 V
0 2 V
0 3 V
0 2 V
6 3 V
0 2 V
0 3 V
0 2 V
0 2 V
0 3 V
0 2 V
0 2 V
0 3 V
0 2 V
1 2 V
0 3 V
0 2 V
0 2 V
0 2 V
0 2 V
0 3 V
0 2 V
0 2 V
0 2 V
0 2 V
0 2 V
0 3 V
0 2 V
0 2 V
0 2 V
0 2 V
0 2 V
0 2 V
0 2 V
0 2 V
0 2 V
0 2 V
0 2 V
0 2 V
0 2 V
0 2 V
0 2 V
0 2 V
0 2 V
0 2 V
0 1 V
11 2 V
0 2 V
0 2 V
0 2 V
0 2 V
0 2 V
0 1 V
0 2 V
0 2 V
0 2 V
0 2 V
0 1 V
0 2 V
10 2 V
0 2 V
0 1 V
0 2 V
0 2 V
0 2 V
0 1 V
0 2 V
0 2 V
0 1 V
0 2 V
0 2 V
0 1 V
0 2 V
stroke 2261 3565 M
0 2 V
0 1 V
0 2 V
0 1 V
0 2 V
0 2 V
0 1 V
0 2 V
0 1 V
0 2 V
0 2 V
0 1 V
0 2 V
0 1 V
0 2 V
0 1 V
0 2 V
0 1 V
0 2 V
0 1 V
0 2 V
0 1 V
0 2 V
0 1 V
0 2 V
0 1 V
0 2 V
0 1 V
0 2 V
0 1 V
0 2 V
0 1 V
0 1 V
0 2 V
10 1 V
0 2 V
0 1 V
0 1 V
0 2 V
0 1 V
0 2 V
0 1 V
0 1 V
0 2 V
0 1 V
0 1 V
0 2 V
0 1 V
0 1 V
0 2 V
0 1 V
0 1 V
0 2 V
0 1 V
0 1 V
0 2 V
0 1 V
0 1 V
0 2 V
0 1 V
0 1 V
0 1 V
0 2 V
0 1 V
0 1 V
0 1 V
0 2 V
0 1 V
0 1 V
0 1 V
0 2 V
0 1 V
0 1 V
0 1 V
0 2 V
0 1 V
0 1 V
0 1 V
0 1 V
0 2 V
0 1 V
0 1 V
0 1 V
0 1 V
0 1 V
0 2 V
0 1 V
0 1 V
0 1 V
0 1 V
0 1 V
0 2 V
0 1 V
10 1 V
0 1 V
0 1 V
0 1 V
0 1 V
0 1 V
0 2 V
0 1 V
0 1 V
0 1 V
0 1 V
stroke 2281 3704 M
0 1 V
0 1 V
0 -73 V
10 2 V
0 1 V
0 1 V
0 2 V
0 1 V
0 1 V
0 1 V
0 2 V
0 1 V
0 1 V
0 2 V
0 1 V
0 1 V
0 2 V
0 1 V
0 1 V
0 1 V
0 2 V
0 1 V
0 1 V
0 1 V
0 2 V
0 1 V
0 1 V
0 1 V
0 2 V
0 1 V
0 1 V
0 1 V
0 1 V
0 2 V
0 1 V
0 1 V
0 1 V
0 1 V
0 2 V
0 1 V
0 1 V
0 1 V
0 1 V
0 2 V
0 1 V
0 1 V
0 1 V
0 1 V
0 1 V
0 1 V
0 2 V
0 1 V
0 1 V
0 1 V
0 1 V
0 1 V
0 1 V
0 1 V
0 2 V
0 1 V
0 1 V
0 1 V
0 1 V
0 1 V
0 1 V
0 1 V
0 1 V
0 1 V
0 1 V
0 2 V
0 1 V
0 1 V
0 1 V
0 1 V
0 1 V
0 1 V
0 1 V
0 1 V
0 1 V
0 1 V
0 1 V
0 1 V
0 1 V
0 1 V
0 1 V
0 1 V
0 1 V
0 1 V
0 1 V
0 1 V
0 1 V
0 1 V
0 1 V
0 1 V
0 1 V
0 1 V
0 1 V
0 1 V
0 1 V
0 1 V
0 1 V
0 1 V
0 1 V
0 1 V
stroke 2291 3748 M
0 1 V
0 1 V
0 1 V
0 1 V
0 1 V
0 1 V
0 1 V
0 1 V
0 1 V
0 1 V
0 1 V
0 1 V
0 1 V
0 1 V
0 1 V
0 1 V
0 1 V
0 1 V
0 1 V
0 1 V
0 1 V
0 1 V
0 1 V
0 1 V
0 1 V
0 1 V
0 1 V
0 1 V
0 1 V
0 1 V
0 1 V
0 1 V
0 1 V
0 1 V
0 1 V
0 1 V
0 1 V
0 1 V
0 1 V
7 1 V
0 1 V
0 1 V
0 1 V
0 1 V
0 1 V
0 1 V
0 1 V
0 1 V
0 1 V
0 1 V
0 1 V
0 1 V
0 1 V
0 1 V
0 1 V
0 1 V
0 1 V
0 1 V
0 1 V
0 1 V
0 1 V
0 1 V
0 1 V
0 1 V
0 1 V
0 1 V
0 1 V
0 1 V
0 1 V
0 1 V
0 1 V
0 1 V
0 1 V
0 1 V
0 1 V
0 1 V
0 1 V
0 1 V
0 1 V
0 1 V
0 1 V
0 1 V
0 1 V
0 1 V
0 1 V
0 1 V
0 1 V
0 1 V
0 1 V
0 1 V
0 1 V
0 1 V
0 1 V
0 1 V
0 1 V
0 1 V
0 1 V
0 1 V
0 1 V
0 1 V
0 1 V
0 1 V
0 1 V
0 1 V
stroke 2298 3852 M
17 1 V
0 1 V
0 1 V
0 1 V
0 1 V
0 1 V
0 1 V
0 1 V
0 1 V
0 1 V
0 1 V
0 1 V
0 1 V
0 1 V
0 1 V
0 1 V
0 1 V
0 1 V
0 1 V
0 1 V
0 1 V
0 1 V
0 1 V
0 1 V
0 1 V
0 1 V
0 1 V
0 1 V
0 1 V
0 1 V
0 1 V
0 1 V
0 1 V
0 1 V
0 1 V
0 1 V
0 1 V
0 1 V
0 1 V
0 1 V
0 1 V
0 1 V
0 1 V
0 1 V
0 1 V
0 1 V
0 -1 V
0 1 V
0 1 V
6 0 V
0 1 V
0 1 V
0 1 V
0 1 V
0 1 V
0 1 V
0 1 V
0 1 V
0 1 V
0 1 V
0 1 V
0 1 V
0 1 V
0 1 V
0 1 V
0 1 V
0 1 V
0 1 V
0 1 V
0 1 V
0 1 V
0 1 V
0 1 V
0 1 V
0 1 V
0 1 V
0 1 V
0 1 V
0 1 V
1 0 V
0 1 V
1 1 V
0 1 V
0 1 V
0 1 V
0 1 V
0 1 V
0 1 V
0 1 V
0 1 V
0 1 V
0 -1 V
0 1 V
0 1 V
0 1 V
4 0 V
0 1 V
0 1 V
0 1 V
0 1 V
0 1 V
0 1 V
0 1 V
0 1 V
stroke 2327 3949 M
0 1 V
0 1 V
0 1 V
0 1 V
0 1 V
0 1 V
0 1 V
0 1 V
0 1 V
0 1 V
0 1 V
0 1 V
0 1 V
0 1 V
0 1 V
0 1 V
0 1 V
1 0 V
0 1 V
0 1 V
1 0 V
0 1 V
0 1 V
0 1 V
0 1 V
0 1 V
0 1 V
0 1 V
0 1 V
0 1 V
0 -1 V
0 1 V
0 1 V
0 1 V
4 0 V
0 1 V
0 1 V
0 1 V
0 1 V
0 1 V
0 1 V
0 1 V
0 1 V
0 1 V
0 1 V
0 1 V
0 1 V
0 1 V
0 1 V
0 1 V
0 1 V
0 1 V
0 1 V
0 1 V
0 1 V
0 1 V
0 1 V
0 1 V
0 1 V
2 0 V
0 1 V
0 1 V
0 1 V
0 1 V
0 1 V
0 1 V
0 1 V
0 1 V
0 -1 V
0 1 V
0 1 V
0 1 V
4 0 V
0 1 V
0 1 V
0 1 V
0 1 V
0 1 V
0 1 V
0 1 V
0 1 V
0 1 V
0 1 V
0 1 V
0 1 V
0 1 V
0 1 V
0 1 V
0 1 V
0 1 V
0 1 V
0 1 V
0 1 V
0 1 V
0 1 V
2 1 V
0 1 V
0 1 V
0 1 V
0 1 V
0 1 V
0 1 V
0 1 V
0 1 V
stroke 2341 4044 M
0 1 V
4 0 V
0 1 V
0 1 V
0 1 V
0 1 V
0 1 V
0 1 V
0 1 V
0 1 V
1 0 V
0 1 V
0 1 V
0 1 V
0 1 V
0 1 V
0 1 V
0 1 V
0 1 V
0 1 V
0 1 V
0 1 V
0 1 V
1 1 V
1 1 V
0 1 V
0 1 V
0 1 V
0 1 V
0 1 V
0 -1 V
0 1 V
0 1 V
0 1 V
3 1 V
0 1 V
0 1 V
12 0 V
0 1 V
0 1 V
0 1 V
0 1 V
0 1 V
0 1 V
0 1 V
0 1 V
0 1 V
0 1 V
0 1 V
0 1 V
0 1 V
0 1 V
10 -1 V
0 1 V
0 1 V
0 1 V
0 1 V
0 1 V
0 1 V
0 1 V
0 1 V
0 1 V
0 1 V
0 1 V
0 1 V
0 1 V
0 1 V
0 1 V
6 0 V
0 1 V
0 1 V
0 1 V
0 1 V
1 1 V
0 1 V
0 1 V
0 1 V
0 1 V
0 1 V
0 1 V
0 1 V
0 1 V
0 1 V
0 1 V
5 0 V
0 1 V
0 1 V
0 1 V
0 1 V
1 1 V
0 1 V
0 1 V
0 1 V
0 1 V
0 1 V
0 1 V
0 1 V
0 1 V
0 1 V
0 1 V
6 -2418 V
0 240 V
6 140 V
0 99 V
stroke 2398 2196 M
0 77 V
0 63 V
0 53 V
0 47 V
0 40 V
0 37 V
0 33 V
0 30 V
0 27 V
0 26 V
0 24 V
0 22 V
1 21 V
0 20 V
0 19 V
0 17 V
1 17 V
0 16 V
0 16 V
0 14 V
0 14 V
0 14 V
0 13 V
0 13 V
0 12 V
0 11 V
0 12 V
0 11 V
0 10 V
0 11 V
0 10 V
0 9 V
0 10 V
0 9 V
0 9 V
0 9 V
0 8 V
0 9 V
0 8 V
0 8 V
0 8 V
4 7 V
0 8 V
1 7 V
1 7 V
0 7 V
0 7 V
0 7 V
0 6 V
0 7 V
0 6 V
0 6 V
0 6 V
0 6 V
0 6 V
0 6 V
0 6 V
0 5 V
0 6 V
0 5 V
0 6 V
0 5 V
0 5 V
0 5 V
0 5 V
0 5 V
0 5 V
0 5 V
0 5 V
7 4 V
0 5 V
0 5 V
0 4 V
0 5 V
1 4 V
0 4 V
0 5 V
0 4 V
0 4 V
0 4 V
0 4 V
0 4 V
0 4 V
0 4 V
0 4 V
0 4 V
0 4 V
0 4 V
0 3 V
0 4 V
0 4 V
0 3 V
0 4 V
0 4 V
0 3 V
0 4 V
0 3 V
0 3 V
0 4 V
0 3 V
2515 1717 L
5 240 V
7 140 V
0 99 V
6 77 V
0 63 V
0 53 V
6 47 V
0 40 V
0 37 V
0 33 V
0 30 V
0 27 V
7 26 V
0 24 V
0 22 V
0 21 V
0 20 V
0 19 V
0 17 V
0 17 V
0 16 V
0 16 V
6 14 V
0 14 V
0 14 V
0 13 V
0 13 V
0 12 V
0 11 V
0 12 V
0 11 V
0 10 V
0 11 V
0 10 V
0 9 V
0 10 V
0 9 V
0 9 V
0 9 V
0 8 V
0 9 V
0 8 V
7 8 V
0 -49 V
0 9 V
0 9 V
0 8 V
0 8 V
0 8 V
0 8 V
0 8 V
0 8 V
0 7 V
0 7 V
0 7 V
0 7 V
0 7 V
0 7 V
0 6 V
0 7 V
0 6 V
0 6 V
0 6 V
0 6 V
0 6 V
0 6 V
0 6 V
0 5 V
0 6 V
0 5 V
0 6 V
0 5 V
0 5 V
0 5 V
0 5 V
0 5 V
0 5 V
0 5 V
0 5 V
0 4 V
0 5 V
0 5 V
0 4 V
6 5 V
0 -9 V
0 4 V
0 -9 V
0 5 V
0 -10 V
0 5 V
0 -9 V
0 4 V
0 -9 V
0 5 V
0 -10 V
0 5 V
0 -10 V
0 5 V
0 -10 V
0 5 V
0 -10 V
0 5 V
0 -10 V
0 5 V
stroke 2565 3176 M
0 -10 V
0 5 V
0 -10 V
0 5 V
0 -11 V
0 6 V
0 -11 V
0 5 V
0 -11 V
0 6 V
0 -11 V
0 5 V
0 -11 V
0 6 V
0 -12 V
0 6 V
0 -12 V
0 6 V
1 -12 V
0 6 V
0 -12 V
0 6 V
0 -12 V
0 6 V
0 -161 V
5 9 V
6 10 V
12 9 V
7 9 V
6 9 V
0 8 V
7 8 V
0 8 V
6 8 V
1 8 V
6 8 V
0 7 V
0 7 V
0 7 V
5 7 V
1 7 V
0 7 V
0 6 V
6 7 V
0 6 V
0 6 V
0 6 V
0 6 V
0 6 V
7 6 V
0 6 V
0 5 V
0 6 V
0 5 V
0 6 V
0 5 V
6 5 V
0 5 V
0 5 V
0 5 V
0 5 V
0 5 V
0 5 V
0 4 V
0 5 V
1 5 V
6 4 V
0 5 V
0 4 V
0 4 V
0 5 V
0 4 V
0 4 V
0 4 V
0 4 V
0 4 V
2 4 V
0 4 V
0 4 V
5 4 V
0 4 V
0 3 V
0 4 V
0 4 V
0 4 V
0 3 V
0 4 V
0 3 V
0 4 V
0 3 V
0 4 V
6 3 V
0 3 V
0 4 V
0 3 V
0 3 V
0 4 V
1 3 V
0 3 V
0 3 V
0 3 V
1 3 V
0 3 V
0 3 V
stroke 2669 3354 M
4 3 V
0 3 V
0 3 V
0 3 V
0 3 V
0 3 V
0 3 V
0 3 V
0 3 V
1 2 V
1 3 V
0 3 V
0 3 V
0 2 V
5 3 V
0 3 V
0 2 V
0 3 V
0 3 V
0 2 V
0 3 V
0 2 V
0 3 V
0 2 V
16 3 V
0 2 V
0 3 V
0 2 V
0 3 V
0 2 V
0 2 V
0 3 V
0 2 V
0 3 V
0 2 V
6 2 V
0 2 V
0 3 V
0 2 V
0 2 V
0 2 V
0 3 V
0 2 V
0 2 V
0 2 V
0 -69 V
0 2 V
6 3 V
0 3 V
0 2 V
0 3 V
0 2 V
0 3 V
0 2 V
0 3 V
0 2 V
0 3 V
0 2 V
0 3 V
0 2 V
0 2 V
0 3 V
0 2 V
0 3 V
0 2 V
0 2 V
0 2 V
0 3 V
0 2 V
0 2 V
0 2 V
0 3 V
0 2 V
0 2 V
0 2 V
0 2 V
0 3 V
0 2 V
0 2 V
0 2 V
0 2 V
0 2 V
0 2 V
0 2 V
0 2 V
0 2 V
0 2 V
0 2 V
0 2 V
0 2 V
0 2 V
0 2 V
0 2 V
0 2 V
0 2 V
0 2 V
0 2 V
0 2 V
0 2 V
0 2 V
0 2 V
0 1 V
0 2 V
0 2 V
stroke 2708 3527 M
0 2 V
0 2 V
0 2 V
0 1 V
0 2 V
0 2 V
0 2 V
0 1 V
1 2 V
0 2 V
0 2 V
0 1 V
0 2 V
0 2 V
0 2 V
0 1 V
0 2 V
0 2 V
0 1 V
0 2 V
0 2 V
0 1 V
0 2 V
0 2 V
0 1 V
0 2 V
0 1 V
0 2 V
0 2 V
0 1 V
0 2 V
0 1 V
0 2 V
0 1 V
0 2 V
0 2 V
0 1 V
0 2 V
0 1 V
0 2 V
0 1 V
0 2 V
0 1 V
0 2 V
0 1 V
0 2 V
0 1 V
0 2 V
0 1 V
0 2 V
0 1 V
0 1 V
0 -1 V
0 1 V
5 2 V
0 1 V
0 2 V
0 1 V
0 2 V
0 1 V
0 1 V
0 2 V
0 1 V
0 2 V
0 1 V
0 1 V
0 2 V
0 1 V
0 1 V
0 2 V
0 1 V
0 1 V
0 2 V
0 1 V
0 1 V
0 2 V
0 1 V
0 1 V
0 2 V
0 1 V
0 1 V
1 2 V
0 1 V
0 1 V
0 1 V
0 2 V
0 1 V
0 1 V
0 1 V
0 2 V
0 1 V
0 1 V
0 1 V
0 2 V
0 1 V
0 1 V
0 1 V
0 2 V
0 1 V
0 1 V
0 1 V
0 1 V
0 2 V
0 1 V
stroke 2715 3677 M
0 1 V
0 1 V
0 1 V
0 1 V
0 2 V
0 1 V
0 1 V
0 1 V
0 1 V
0 1 V
0 2 V
0 1 V
0 1 V
0 1 V
0 1 V
0 1 V
0 1 V
0 2 V
0 1 V
0 1 V
0 1 V
0 1 V
0 1 V
0 1 V
0 1 V
0 1 V
0 2 V
0 1 V
0 1 V
0 -1 V
0 1 V
0 1 V
5 1 V
0 1 V
0 1 V
0 1 V
0 1 V
0 1 V
0 1 V
0 1 V
0 1 V
0 1 V
0 1 V
0 1 V
0 2 V
0 1 V
0 1 V
0 1 V
0 1 V
0 1 V
0 1 V
0 1 V
0 1 V
0 1 V
0 1 V
0 1 V
0 1 V
0 1 V
0 1 V
2 1 V
0 1 V
0 1 V
0 1 V
0 1 V
0 1 V
0 1 V
0 1 V
0 1 V
0 1 V
0 1 V
0 1 V
0 1 V
0 1 V
0 1 V
0 1 V
0 1 V
0 1 V
0 1 V
0 1 V
0 1 V
0 1 V
0 1 V
0 1 V
0 1 V
0 1 V
0 1 V
0 1 V
0 1 V
0 1 V
0 1 V
0 1 V
0 1 V
0 1 V
0 1 V
0 1 V
0 1 V
0 1 V
0 1 V
0 1 V
0 1 V
0 1 V
0 1 V
0 1 V
0 1 V
stroke 2722 3784 M
0 1 V
0 1 V
0 1 V
0 -1 V
0 1 V
0 1 V
0 1 V
5 1 V
0 1 V
0 1 V
0 1 V
0 1 V
0 1 V
0 1 V
0 1 V
0 1 V
0 1 V
0 1 V
0 1 V
0 1 V
0 1 V
0 1 V
0 1 V
0 1 V
0 1 V
0 1 V
0 1 V
0 1 V
0 1 V
0 1 V
0 1 V
0 1 V
0 1 V
0 1 V
0 1 V
0 1 V
1 0 V
0 1 V
0 1 V
0 1 V
0 1 V
0 1 V
0 1 V
0 1 V
0 1 V
0 1 V
0 1 V
0 1 V
0 1 V
0 1 V
0 1 V
0 1 V
0 1 V
0 1 V
0 1 V
0 1 V
0 1 V
0 1 V
0 1 V
0 1 V
0 1 V
0 1 V
0 1 V
0 1 V
0 1 V
0 1 V
0 1 V
0 1 V
0 1 V
0 1 V
0 -1 V
0 1 V
0 1 V
0 1 V
5 1 V
0 1 V
0 1 V
0 1 V
0 1 V
0 1 V
0 1 V
0 1 V
0 1 V
0 1 V
0 1 V
0 1 V
0 1 V
0 1 V
0 1 V
0 1 V
0 1 V
0 1 V
0 1 V
0 1 V
0 1 V
0 1 V
0 1 V
0 1 V
0 1 V
0 1 V
0 1 V
0 1 V
0 1 V
0 1 V
stroke 2733 3883 M
0 1 V
0 1 V
0 1 V
0 1 V
0 1 V
0 1 V
0 1 V
11 1 V
0 1 V
0 1 V
0 1 V
0 1 V
0 1 V
0 1 V
0 1 V
0 1 V
0 1 V
0 1 V
0 -1 V
0 1 V
0 1 V
0 1 V
0 1 V
0 1 V
0 1 V
0 1 V
0 1 V
0 1 V
0 1 V
0 1 V
0 1 V
0 1 V
0 1 V
0 1 V
0 1 V
0 1 V
0 1 V
0 1 V
0 1 V
0 1 V
0 1 V
0 1 V
0 1 V
0 1 V
0 1 V
0 1 V
0 1 V
0 1 V
0 1 V
0 1 V
0 1 V
0 1 V
0 1 V
0 1 V
0 1 V
6 0 V
0 1 V
0 1 V
0 1 V
0 1 V
0 1 V
0 1 V
0 1 V
0 1 V
0 1 V
1 0 V
0 -1 V
0 1 V
0 1 V
0 1 V
0 1 V
0 1 V
0 1 V
0 1 V
0 1 V
0 1 V
0 1 V
0 1 V
0 1 V
0 1 V
0 1 V
0 1 V
0 1 V
0 1 V
0 1 V
0 1 V
0 1 V
0 1 V
0 1 V
0 1 V
0 1 V
0 1 V
0 1 V
0 1 V
0 1 V
0 1 V
0 1 V
0 1 V
0 1 V
5 1 V
0 1 V
0 1 V
0 1 V
0 1 V
stroke 2756 3981 M
0 1 V
0 1 V
0 1 V
0 1 V
0 -1 V
0 1 V
0 1 V
0 1 V
0 1 V
0 1 V
0 1 V
0 1 V
1 1 V
0 1 V
0 1 V
0 1 V
0 1 V
0 1 V
0 1 V
0 1 V
0 1 V
0 1 V
0 1 V
0 1 V
0 1 V
0 1 V
0 1 V
0 1 V
0 1 V
0 1 V
0 1 V
0 1 V
0 1 V
0 1 V
6 1 V
0 1 V
0 1 V
0 1 V
0 1 V
0 1 V
0 1 V
0 1 V
0 -1 V
0 1 V
0 1 V
0 1 V
0 1 V
0 1 V
0 1 V
0 1 V
0 1 V
0 1 V
0 1 V
0 1 V
0 1 V
0 1 V
0 1 V
0 1 V
0 1 V
0 1 V
0 1 V
0 1 V
0 1 V
0 1 V
0 1 V
0 1 V
0 1 V
1 0 V
0 1 V
0 1 V
0 1 V
6 0 V
0 1 V
0 1 V
0 1 V
0 1 V
0 1 V
0 1 V
0 1 V
0 1 V
0 1 V
0 1 V
0 1 V
0 1 V
0 1 V
0 1 V
0 1 V
0 1 V
0 1 V
0 1 V
16 1 V
0 1 V
0 1 V
0 1 V
0 1 V
0 1 V
0 1 V
0 -1 V
0 1 V
0 1 V
0 1 V
0 1 V
0 1 V
0 1 V
stroke 2786 4077 M
0 1 V
0 1 V
0 1 V
0 1 V
0 1 V
0 1 V
5 0 V
0 1 V
0 1 V
0 1 V
0 1 V
0 1 V
0 1 V
1 0 V
0 1 V
0 1 V
0 1 V
0 1 V
0 1 V
0 1 V
0 1 V
0 1 V
0 1 V
0 1 V
0 1 V
6 1 V
0 1 V
0 1 V
0 1 V
0 1 V
0 1 V
0 1 V
0 1 V
0 1 V
0 1 V
0 1 V
0 1 V
11 -2395 V
16 240 V
7 140 V
0 99 V
6 77 V
0 63 V
0 53 V
6 47 V
0 40 V
0 37 V
0 33 V
0 30 V
0 27 V
0 26 V
7 24 V
0 22 V
0 21 V
0 20 V
0 19 V
0 17 V
0 17 V
0 16 V
0 16 V
0 14 V
0 14 V
0 14 V
0 13 V
6 13 V
0 12 V
0 11 V
0 12 V
0 11 V
0 10 V
0 11 V
0 10 V
0 9 V
0 -42 V
16 10 V
0 11 V
0 10 V
0 10 V
0 9 V
0 9 V
0 9 V
0 9 V
0 9 V
0 8 V
0 8 V
0 8 V
0 8 V
0 8 V
0 7 V
0 7 V
0 8 V
0 -15 V
0 7 V
0 -14 V
0 7 V
0 -15 V
0 8 V
0 -16 V
0 8 V
0 -16 V
0 8 V
0 -16 V
0 8 V
0 -16 V
stroke 2873 2999 M
0 8 V
0 -17 V
0 9 V
0 -18 V
0 9 V
0 -18 V
0 9 V
0 -18 V
0 9 V
0 -18 V
0 9 V
0 -19 V
0 10 V
0 -20 V
0 10 V
0 -21 V
0 11 V
0 -21 V
0 10 V
0 -21 V
0 11 V
0 -23 V
0 12 V
0 -24 V
13 12 V
7 12 V
6 11 V
12 10 V
0 11 V
7 10 V
6 10 V
0 9 V
0 9 V
6 9 V
0 9 V
5 9 V
0 8 V
0 8 V
1 8 V
5 8 V
0 8 V
0 7 V
0 7 V
1 8 V
5 7 V
0 6 V
0 7 V
0 7 V
0 6 V
0 7 V
6 6 V
0 6 V
0 6 V
0 6 V
0 6 V
0 6 V
0 5 V
0 6 V
6 5 V
0 6 V
0 5 V
0 5 V
0 5 V
0 5 V
0 5 V
0 5 V
0 5 V
0 5 V
6 5 V
0 4 V
0 5 V
0 4 V
0 5 V
0 4 V
0 5 V
0 4 V
0 4 V
0 4 V
0 4 V
0 5 V
6 4 V
0 4 V
0 4 V
0 3 V
0 4 V
0 4 V
1 4 V
0 4 V
0 3 V
0 4 V
0 4 V
0 3 V
0 4 V
0 3 V
5 4 V
0 3 V
0 4 V
0 3 V
0 3 V
0 4 V
1 3 V
0 3 V
0 4 V
0 3 V
stroke 2978 3338 M
0 3 V
0 3 V
5 3 V
0 3 V
0 3 V
0 3 V
0 3 V
0 3 V
0 3 V
0 3 V
2 3 V
0 3 V
0 3 V
0 3 V
0 2 V
0 3 V
4 3 V
0 3 V
0 2 V
0 3 V
0 3 V
0 2 V
0 3 V
2 3 V
0 2 V
0 3 V
0 2 V
0 3 V
0 2 V
4 3 V
0 2 V
0 3 V
0 2 V
0 3 V
0 2 V
0 2 V
2 3 V
0 2 V
0 3 V
0 2 V
0 2 V
0 3 V
4 2 V
0 2 V
0 2 V
1 3 V
0 2 V
0 2 V
0 2 V
0 2 V
0 3 V
1 2 V
0 2 V
1 2 V
0 2 V
0 2 V
2 2 V
0 2 V
0 2 V
1 2 V
1 3 V
0 2 V
0 2 V
0 2 V
0 2 V
2 2 V
1 2 V
0 1 V
0 2 V
0 2 V
1 2 V
0 2 V
0 2 V
0 2 V
1 2 V
1 2 V
0 2 V
0 2 V
0 1 V
2 2 V
1 2 V
0 2 V
0 2 V
0 1 V
0 2 V
1 2 V
0 2 V
0 2 V
0 1 V
2 2 V
1 2 V
0 1 V
0 2 V
2 2 V
0 2 V
0 1 V
0 2 V
0 2 V
0 1 V
1 2 V
0 2 V
0 1 V
1 2 V
1 2 V
stroke 3026 3570 M
3 1 V
0 2 V
0 1 V
0 2 V
0 2 V
0 1 V
0 2 V
0 1 V
2 2 V
0 1 V
0 2 V
0 2 V
0 1 V
0 2 V
0 1 V
3 2 V
0 1 V
0 2 V
1 1 V
0 2 V
0 1 V
0 2 V
1 1 V
0 1 V
0 2 V
0 1 V
1 2 V
0 1 V
13 2 V
0 1 V
0 2 V
0 1 V
0 1 V
0 2 V
0 1 V
0 2 V
0 1 V
0 1 V
0 2 V
0 1 V
0 1 V
10 2 V
0 1 V
0 2 V
0 1 V
0 1 V
0 2 V
0 1 V
0 -73 V
0 1 V
0 2 V
0 1 V
0 2 V
0 2 V
0 1 V
0 2 V
0 1 V
6 2 V
0 2 V
0 1 V
0 2 V
0 1 V
0 2 V
0 1 V
0 2 V
0 1 V
0 2 V
0 1 V
0 2 V
0 1 V
0 2 V
0 1 V
0 2 V
0 1 V
0 2 V
0 1 V
0 2 V
0 1 V
0 2 V
0 1 V
0 1 V
0 2 V
0 1 V
0 2 V
0 1 V
0 1 V
0 2 V
0 1 V
0 2 V
1 1 V
0 1 V
0 2 V
0 1 V
0 1 V
0 2 V
0 1 V
0 1 V
0 2 V
0 1 V
0 1 V
0 2 V
0 1 V
0 1 V
0 2 V
stroke 3067 3647 M
0 1 V
0 1 V
0 2 V
0 1 V
0 1 V
0 1 V
0 2 V
0 1 V
0 1 V
0 1 V
0 2 V
0 1 V
0 1 V
0 1 V
0 2 V
0 1 V
0 1 V
0 1 V
0 2 V
0 1 V
0 1 V
0 1 V
0 1 V
0 2 V
0 1 V
0 1 V
0 1 V
0 1 V
0 1 V
0 2 V
0 1 V
0 1 V
0 1 V
0 1 V
0 1 V
0 2 V
0 1 V
0 1 V
0 1 V
0 1 V
0 1 V
0 1 V
0 1 V
0 2 V
0 1 V
0 1 V
0 1 V
0 1 V
0 1 V
0 1 V
0 1 V
0 1 V
0 1 V
0 -1 V
0 1 V
6 2 V
0 1 V
0 1 V
0 1 V
0 1 V
0 1 V
0 1 V
0 1 V
0 1 V
0 1 V
0 1 V
0 1 V
0 1 V
0 1 V
0 1 V
0 1 V
0 1 V
0 1 V
0 1 V
0 1 V
0 2 V
0 1 V
0 1 V
0 1 V
0 1 V
0 1 V
0 1 V
0 1 V
0 1 V
0 1 V
0 1 V
0 1 V
0 1 V
0 1 V
0 1 V
0 1 V
0 1 V
0 1 V
0 1 V
0 1 V
0 1 V
0 1 V
0 1 V
0 1 V
0 1 V
0 1 V
0 1 V
0 1 V
0 1 V
stroke 3073 3760 M
0 1 V
0 1 V
0 1 V
0 1 V
0 1 V
0 1 V
0 -1 V
0 1 V
0 1 V
5 1 V
0 1 V
0 1 V
0 1 V
0 1 V
0 1 V
0 1 V
0 1 V
0 1 V
0 1 V
0 1 V
0 1 V
0 1 V
0 1 V
0 1 V
1 0 V
0 1 V
0 1 V
0 1 V
0 1 V
0 1 V
0 1 V
0 1 V
0 1 V
0 1 V
0 1 V
0 1 V
0 1 V
0 1 V
0 1 V
0 1 V
0 1 V
0 1 V
0 1 V
0 1 V
0 1 V
0 1 V
0 1 V
0 1 V
0 1 V
0 1 V
0 1 V
0 1 V
0 1 V
0 1 V
0 1 V
0 1 V
0 1 V
0 1 V
0 1 V
0 -1 V
0 1 V
0 1 V
5 1 V
0 1 V
0 1 V
0 1 V
0 1 V
0 1 V
0 1 V
0 1 V
0 1 V
0 1 V
0 1 V
0 1 V
0 1 V
0 1 V
0 1 V
0 1 V
0 1 V
0 1 V
0 1 V
0 1 V
0 1 V
0 1 V
0 1 V
0 1 V
0 1 V
0 1 V
0 1 V
0 1 V
0 1 V
0 1 V
0 1 V
0 1 V
0 1 V
0 1 V
0 1 V
0 1 V
0 1 V
0 1 V
0 1 V
0 1 V
0 1 V
0 1 V
stroke 3084 3859 M
0 1 V
0 -1 V
0 1 V
0 1 V
1 1 V
5 1 V
0 1 V
0 1 V
0 1 V
0 1 V
0 1 V
0 1 V
0 1 V
0 1 V
0 1 V
0 1 V
0 1 V
0 1 V
0 1 V
0 1 V
0 1 V
0 1 V
0 1 V
0 1 V
0 1 V
0 1 V
0 1 V
0 1 V
0 1 V
0 1 V
0 1 V
0 1 V
0 1 V
0 1 V
0 1 V
0 1 V
0 1 V
1 1 V
0 1 V
0 1 V
0 1 V
0 1 V
0 1 V
0 -1 V
0 1 V
0 1 V
0 1 V
5 1 V
0 1 V
0 1 V
0 1 V
0 1 V
0 1 V
0 1 V
0 1 V
0 1 V
0 1 V
0 1 V
0 1 V
0 1 V
0 1 V
0 1 V
0 1 V
0 1 V
0 1 V
0 1 V
0 1 V
0 1 V
0 1 V
0 1 V
0 1 V
0 1 V
0 1 V
0 1 V
0 1 V
0 1 V
0 1 V
0 1 V
0 1 V
0 1 V
0 1 V
0 -1 V
0 1 V
0 1 V
6 0 V
6 0 V
7 0 V
6 0 V
6 0 V
6 0 V
6 0 V
6 0 V
7 0 V
6 -1 V
0 1 V
6 -1 V
0 1 V
3 -2220 V
3 240 V
7 140 V
0 99 V
2 77 V
4 63 V
0 53 V
stroke 3183 2389 M
0 47 V
2 40 V
4 37 V
0 33 V
0 30 V
0 27 V
0 26 V
0 24 V
2 22 V
0 21 V
0 20 V
4 19 V
0 17 V
0 17 V
0 16 V
0 16 V
0 14 V
0 14 V
0 14 V
0 13 V
0 13 V
2 12 V
0 11 V
0 12 V
0 11 V
0 10 V
0 11 V
0 10 V
0 9 V
4 10 V
0 9 V
0 9 V
0 9 V
0 8 V
0 9 V
0 8 V
0 8 V
0 8 V
0 7 V
0 8 V
0 7 V
0 7 V
0 7 V
0 7 V
0 7 V
0 6 V
0 7 V
0 6 V
3 6 V
0 6 V
0 6 V
0 6 V
0 6 V
0 6 V
0 5 V
0 6 V
0 5 V
0 6 V
0 5 V
0 5 V
0 5 V
3 5 V
0 5 V
0 5 V
0 5 V
0 5 V
0 4 V
0 5 V
0 5 V
0 4 V
0 5 V
0 4 V
0 4 V
0 5 V
0 4 V
0 4 V
0 4 V
0 4 V
0 4 V
0 4 V
0 4 V
0 4 V
0 4 V
0 4 V
0 4 V
0 3 V
0 4 V
0 4 V
0 3 V
0 4 V
0 4 V
0 3 V
0 4 V
6 3 V
0 3 V
0 4 V
0 3 V
0 3 V
0 4 V
1 3 V
0 3 V
0 3 V
0 3 V
0 4 V
stroke 3214 3345 M
0 3 V
0 3 V
0 3 V
0 3 V
0 3 V
0 3 V
0 3 V
0 3 V
0 3 V
0 2 V
0 3 V
0 3 V
0 3 V
0 3 V
0 2 V
3315 1717 L
0 -897 V
% End plot #1
% Begin plot #2
2.000 UP
stroke
LTa
0.60 0.60 0.00 C 2164 1957 Box
2363 4077 Box
2744 3920 Box
3079 3816 Box
% End plot #2
% Begin plot #3
2.000 UP
1.000 UL
LTa
0.60 0.60 0.00 C LCb setrgbcolor
2774 153 M
[ [(Arial) 180.0 0.0 true true 0 (olsr)]
] -60.0 MRshow
2.000 UP
1.000 UL
LTa
0.60 0.60 0.00 C 2882 153 M
333 0 V
2164 1957 M
2164 1957 Box
3048 153 Box
% End plot #3
% Begin plot #4
1.000 UL
LTb
LT1
0.00 0.00 0.63 C 1261 1957 M
6 140 V
6 99 V
6 77 V
0 63 V
6 53 V
0 47 V
7 40 V
0 37 V
6 -100 V
0 44 V
0 38 V
0 -82 V
0 44 V
0 38 V
0 -345 V
0 87 V
0 -203 V
0 116 V
6 -193 V
0 140 V
0 99 V
7 77 V
8 63 V
6 53 V
14 47 V
7 40 V
13 37 V
7 33 V
7 30 V
6 27 V
7 26 V
7 24 V
7 22 V
6 21 V
7 -8 V
0 20 V
0 19 V
0 -194 V
0 31 V
0 29 V
0 -132 V
0 38 V
0 -81 V
0 43 V
7 38 V
0 -81 V
0 43 V
0 -92 V
0 49 V
0 58 V
0 37 V
7 33 V
0 30 V
0 27 V
0 26 V
6 24 V
7 -77 V
0 27 V
0 -57 V
0 30 V
100 -859 V
17 240 V
7 140 V
6 99 V
7 77 V
0 63 V
0 53 V
6 -53 V
0 53 V
0 -1569 V
0 897 V
7 240 V
0 140 V
0 99 V
7 77 V
0 -1453 V
0 897 V
7 240 V
12 140 V
14 99 V
13 77 V
12 63 V
6 53 V
12 47 V
6 40 V
12 37 V
6 33 V
6 30 V
11 27 V
7 26 V
0 24 V
6 22 V
0 21 V
6 20 V
0 19 V
0 17 V
5 17 V
0 16 V
0 16 V
6 14 V
0 14 V
6 14 V
0 13 V
0 13 V
stroke 1750 2869 M
1 12 V
0 11 V
5 12 V
0 11 V
0 -39 V
0 -38 V
0 13 V
0 13 V
0 12 V
1 12 V
0 -64 V
0 14 V
0 13 V
0 -124 V
0 18 V
0 -57 V
0 20 V
0 -42 V
0 22 V
5 -44 V
0 22 V
0 -47 V
0 25 V
0 -80 V
0 29 V
0 26 V
0 10 V
0 24 V
0 22 V
6 21 V
0 20 V
0 19 V
0 17 V
6 17 V
0 16 V
0 16 V
0 14 V
0 14 V
0 14 V
6 -31 V
0 -188 V
0 24 V
0 23 V
0 21 V
1 -21 V
0 21 V
0 -21 V
0 21 V
0 20 V
0 -285 V
0 42 V
5 -90 V
0 48 V
0 -168 V
0 65 V
0 65 V
0 47 V
0 40 V
6 37 V
0 33 V
0 30 V
0 27 V
6 26 V
0 24 V
0 22 V
0 21 V
0 20 V
0 19 V
6 17 V
0 -17 V
0 17 V
0 -176 V
0 27 V
0 -90 V
0 33 V
0 -70 V
0 37 V
1 33 V
1 -110 V
0 40 V
4 -87 V
0 47 V
0 -100 V
0 53 V
0 87 V
0 37 V
17 33 V
0 30 V
0 27 V
6 26 V
0 5 V
0 -515 V
0 94 V
6 -94 V
0 94 V
0 -433 V
0 209 V
0 130 V
0 94 V
6 -17 V
0 77 V
6 63 V
0 53 V
6 47 V
stroke 1857 2436 M
0 40 V
0 37 V
0 33 V
0 30 V
0 27 V
12 26 V
6 5 V
0 -114 V
0 32 V
1 29 V
0 -137 V
0 40 V
0 -85 V
0 45 V
0 -157 V
0 61 V
5 -135 V
0 74 V
0 102 V
0 47 V
1 40 V
0 37 V
5 33 V
0 30 V
0 27 V
6 26 V
6 24 V
11 22 V
0 21 V
0 20 V
0 19 V
0 -159 V
0 27 V
0 -267 V
0 53 V
6 -116 V
0 63 V
0 -140 V
0 77 V
0 63 V
0 53 V
0 47 V
6 -72 V
0 -127 V
0 69 V
0 -69 V
0 69 V
0 58 V
0 -330 V
0 116 V
2 -293 V
0 177 V
4 116 V
0 123 V
3 63 V
3 -379 V
6 140 V
12 99 V
13 77 V
6 63 V
12 53 V
6 47 V
6 40 V
11 37 V
6 33 V
6 -110 V
0 40 V
0 -87 V
0 47 V
0 -163 V
0 63 V
0 -239 V
0 99 V
0 -239 V
0 140 V
6 99 V
0 77 V
6 -176 V
0 99 V
0 77 V
0 -316 V
0 140 V
0 -140 V
6 316 V
1 -176 V
0 99 V
5 -239 V
1 140 V
14 99 V
12 77 V
6 63 V
12 53 V
6 47 V
12 40 V
5 37 V
6 33 V
6 -110 V
0 -47 V
0 47 V
0 40 V
0 37 V
0 -124 V
0 47 V
0 40 V
stroke 2122 2476 M
1 -280 V
0 77 V
5 -176 V
0 99 V
0 77 V
0 63 V
0 -140 V
0 77 V
6 63 V
9 53 V
9 47 V
6 40 V
8 37 V
10 33 V
5 30 V
6 27 V
9 26 V
9 24 V
6 22 V
6 21 V
0 20 V
6 19 V
2 17 V
4 17 V
0 16 V
2 16 V
4 14 V
0 14 V
0 14 V
2 13 V
4 -32 V
0 -14 V
0 14 V
0 14 V
0 -93 V
0 18 V
0 16 V
0 16 V
0 -50 V
0 18 V
0 -75 V
0 20 V
0 -42 V
0 22 V
0 -44 V
0 22 V
2 -22 V
0 22 V
0 -102 V
0 29 V
0 -29 V
0 29 V
0 26 V
0 -86 V
0 31 V
4 39 V
0 26 V
0 5 V
0 23 V
0 22 V
0 -22 V
0 22 V
0 21 V
0 20 V
0 -63 V
0 22 V
2 21 V
0 -21 V
0 21 V
0 20 V
0 -20 V
0 20 V
0 -63 V
0 22 V
0 21 V
4 -43 V
0 22 V
0 -22 V
0 22 V
0 21 V
0 -21 V
0 21 V
0 20 V
0 -168 V
5 -116 V
0 40 V
0 -140 V
0 53 V
0 -53 V
0 53 V
3 -116 V
0 63 V
0 -239 V
0 99 V
0 77 V
0 -176 V
0 99 V
3 77 V
3 63 V
0 53 V
0 -116 V
0 63 V
0 53 V
3 -53 V
stroke 2270 2336 M
0 53 V
0 -116 V
0 63 V
0 -379 V
3 140 V
10 99 V
12 77 V
6 63 V
12 53 V
6 47 V
12 40 V
6 -87 V
0 47 V
0 -479 V
0 140 V
5 -140 V
0 140 V
0 -380 V
0 240 V
0 140 V
0 99 V
6 77 V
6 63 V
12 53 V
6 47 V
12 40 V
0 -87 V
0 -292 V
0 99 V
0 77 V
0 -176 V
0 99 V
6 -99 V
0 99 V
0 -239 V
0 140 V
0 99 V
12 77 V
6 63 V
12 53 V
6 47 V
6 40 V
6 -87 V
2 -53 V
0 53 V
0 -193 V
0 77 V
0 63 V
0 -619 V
0 240 V
4 239 V
2 77 V
0 63 V
4 -140 V
0 77 V
0 -176 V
0 99 V
2 -239 V
4 316 V
0 63 V
0 -140 V
0 77 V
6 -316 V
0 140 V
6 99 V
11 77 V
6 63 V
12 53 V
6 47 V
12 40 V
6 37 V
12 33 V
6 30 V
6 -119 V
0 38 V
0 -258 V
0 69 V
0 -829 V
0 380 V
0 -1037 V
5 0 R
0 897 V
0 240 V
0 -240 V
0 240 V
0 140 V
6 99 V
0 77 V
1 63 V
5 53 V
6 47 V
12 40 V
6 37 V
6 33 V
6 -110 V
0 40 V
0 37 V
0 -177 V
0 53 V
0 -193 V
0 77 V
1 -176 V
0 99 V
5 -239 V
stroke 2604 1957 M
0 140 V
0 99 V
0 77 V
0 63 V
0 -140 V
0 77 V
6 63 V
0 -239 V
0 99 V
0 -479 V
0 240 V
7 140 V
11 99 V
11 77 V
6 63 V
12 53 V
0 -53 V
0 -379 V
0 140 V
7 -140 V
0 140 V
0 99 V
0 -239 V
0 140 V
6 176 V
0 -176 V
0 99 V
0 -239 V
0 140 V
6 -140 V
6 140 V
11 99 V
12 77 V
6 63 V
12 53 V
6 47 V
12 40 V
6 37 V
12 33 V
6 30 V
6 27 V
6 26 V
5 24 V
0 -24 V
0 24 V
0 -50 V
0 26 V
0 24 V
0 -264 V
0 47 V
6 -100 V
0 53 V
0 47 V
0 -47 V
0 47 V
0 40 V
0 37 V
0 -77 V
0 40 V
0 37 V
0 33 V
6 -110 V
0 40 V
0 37 V
0 -124 V
0 47 V
0 -100 V
0 53 V
0 47 V
0 -479 V
0 140 V
6 99 V
0 77 V
6 63 V
12 53 V
6 47 V
6 40 V
6 37 V
12 33 V
5 30 V
6 27 V
6 -127 V
0 37 V
0 33 V
0 -449 V
0 99 V
0 -239 V
0 140 V
6 99 V
0 77 V
0 63 V
6 53 V
6 47 V
6 40 V
12 37 V
6 33 V
8 30 V
6 27 V
9 26 V
7 24 V
7 22 V
10 21 V
6 20 V
3 19 V
stroke 2963 2735 M
3 17 V
2 17 V
4 16 V
2 16 V
4 14 V
2 14 V
4 14 V
0 13 V
2 13 V
4 -34 V
0 -14 V
0 14 V
0 13 V
0 -89 V
0 17 V
0 -114 V
0 22 V
0 -45 V
0 23 V
0 -48 V
0 25 V
3 -25 V
0 25 V
0 -52 V
0 27 V
0 -27 V
0 27 V
0 25 V
0 23 V
0 -48 V
0 25 V
0 -52 V
0 27 V
0 -56 V
0 29 V
3 -29 V
0 29 V
0 42 V
0 24 V
0 22 V
2 -22 V
0 22 V
0 -46 V
0 24 V
0 22 V
0 21 V
0 20 V
0 19 V
0 -82 V
0 22 V
0 21 V
0 20 V
4 -20 V
0 20 V
0 -113 V
0 26 V
0 -83 V
0 30 V
3 -119 V
0 -93 V
0 49 V
0 44 V
0 -44 V
0 44 V
0 38 V
0 -131 V
0 49 V
0 -107 V
0 58 V
2 49 V
0 44 V
0 -93 V
0 49 V
0 -107 V
0 58 V
4 -58 V
0 -33 V
0 63 V
0 53 V
2 -116 V
0 63 V
0 53 V
0 -116 V
0 63 V
0 53 V
4 -53 V
0 53 V
0 -432 V
2 140 V
4 99 V
8 77 V
10 63 V
8 53 V
9 47 V
9 40 V
6 37 V
9 33 V
9 30 V
6 27 V
6 26 V
4 24 V
2 22 V
4 21 V
2 -8 V
stroke 3115 2688 M
0 -124 V
0 29 V
0 -94 V
0 34 V
4 -72 V
0 38 V
0 -38 V
0 38 V
0 -130 V
0 49 V
0 43 V
0 -92 V
0 49 V
2 -106 V
0 57 V
0 67 V
0 40 V
4 -87 V
0 -116 V
0 63 V
0 53 V
0 47 V
0 40 V
0 37 V
1 -77 V
0 40 V
1 37 V
0 33 V
0 30 V
0 -100 V
0 37 V
0 -317 V
6 77 V
5 63 V
12 53 V
6 47 V
12 40 V
6 37 V
12 33 V
7 30 V
5 27 V
6 26 V
6 5 V
0 -82 V
0 29 V
0 -97 V
0 36 V
0 32 V
0 -339 V
0 74 V
6 -168 V
0 94 V
0 123 V
0 53 V
0 47 V
6 -72 V
0 -127 V
0 69 V
0 58 V
0 -127 V
0 69 V
0 58 V
0 49 V
0 -263 V
12 87 V
12 69 V
6 58 V
12 49 V
6 44 V
12 38 V
8 35 V
10 31 V
0 -125 V
0 40 V
0 -280 V
0 77 V
2 -176 V
0 99 V
4 -99 V
0 99 V
0 77 V
0 63 V
0 53 V
0 47 V
0 -240 V
0 77 V
2 -176 V
0 99 V
4 77 V
6 63 V
12 53 V
6 47 V
12 40 V
6 37 V
6 33 V
6 -110 V
0 -339 V
0 99 V
0 -479 V
0 240 V
6 -240 V
0 240 V
0 -1137 V
0 897 V
stroke 3372 1717 M
0 240 V
0 140 V
0 99 V
6 77 V
0 63 V
0 -239 V
0 99 V
0 77 V
0 -316 V
5 140 V
13 99 V
12 77 V
6 63 V
12 53 V
13 47 V
6 40 V
6 37 V
12 33 V
5 30 V
6 27 V
6 26 V
6 24 V
0 22 V
6 21 V
0 20 V
6 19 V
0 17 V
0 17 V
6 16 V
0 16 V
0 -25 V
0 -17 V
0 17 V
0 -92 V
0 20 V
0 19 V
0 -61 V
0 22 V
0 -70 V
0 25 V
6 -25 V
0 25 V
0 23 V
0 -210 V
0 39 V
0 -39 V
0 39 V
0 -39 V
0 39 V
0 55 V
0 30 V
0 27 V
6 26 V
0 24 V
0 22 V
0 21 V
0 20 V
6 19 V
0 -15 V
0 18 V
0 18 V
0 16 V
0 -72 V
0 20 V
0 -41 V
0 21 V
0 20 V
0 -111 V
0 25 V
0 -150 V
0 36 V
6 -76 V
0 40 V
0 36 V
0 32 V
0 -68 V
0 36 V
0 -44 V
0 37 V
6 33 V
0 30 V
0 27 V
0 26 V
0 24 V
5 22 V
6 -4 V
0 21 V
0 20 V
0 -206 V
0 33 V
0 -70 V
0 37 V
0 33 V
0 31 V
0 -143 V
0 42 V
6 -90 V
0 48 V
0 42 V
0 -42 V
0 42 V
0 37 V
0 -30 V
0 37 V
stroke 3551 2513 M
0 33 V
6 -110 V
0 -240 V
0 77 V
0 63 V
0 53 V
0 -292 V
0 99 V
0 -239 V
0 140 V
6 -380 V
0 240 V
0 140 V
0 99 V
6 77 V
0 -77 V
0 77 V
0 63 V
0 53 V
0 -292 V
0 99 V
6 -239 V
0 140 V
8 99 V
12 77 V
6 63 V
11 53 V
6 47 V
6 40 V
12 37 V
6 33 V
7 30 V
6 27 V
11 26 V
1 24 V
0 22 V
6 21 V
0 20 V
5 19 V
1 17 V
0 -17 V
0 -39 V
0 20 V
0 -63 V
0 22 V
0 -162 V
0 33 V
4 -70 V
0 37 V
0 -124 V
0 47 V
1 -47 V
0 47 V
0 -240 V
0 77 V
0 63 V
0 53 V
0 47 V
5 -72 V
0 -127 V
0 69 V
1 58 V
0 -58 V
0 58 V
0 -58 V
0 58 V
0 -58 V
0 58 V
0 -127 V
0 69 V
0 -69 V
0 69 V
0 -156 V
6 123 V
0 63 V
0 -239 V
0 99 V
0 77 V
0 63 V
5 -379 V
1 140 V
12 99 V
12 77 V
6 63 V
12 53 V
6 47 V
6 40 V
11 37 V
6 33 V
6 30 V
6 -119 V
0 38 V
0 -258 V
0 69 V
0 58 V
0 49 V
0 -263 V
0 87 V
6 -203 V
0 116 V
0 -193 V
0 140 V
6 99 V
6 77 V
stroke 3803 2273 M
0 63 V
0 53 V
12 47 V
0 -72 V
0 -330 V
0 116 V
6 -293 V
0 177 V
0 -557 V
0 380 V
0 177 V
0 63 V
0 99 V
0 77 V
12 63 V
6 53 V
12 47 V
6 40 V
6 -87 V
0 47 V
0 -479 V
0 140 V
0 -380 V
0 240 V
6 -240 V
0 240 V
0 239 V
6 77 V
0 -176 V
0 99 V
0 -239 V
6 140 V
11 99 V
12 77 V
8 63 V
11 53 V
6 47 V
6 40 V
12 37 V
6 33 V
6 30 V
12 27 V
0 -127 V
0 -87 V
0 47 V
0 -339 V
0 99 V
6 -239 V
0 140 V
0 -1277 V
0 897 V
0 240 V
0 140 V
0 99 V
6 77 V
0 63 V
0 -140 V
0 77 V
0 -176 V
0 99 V
6 -239 V
0 140 V
6 99 V
11 77 V
6 63 V
12 53 V
6 47 V
6 40 V
12 37 V
7 33 V
6 -110 V
0 -163 V
0 63 V
0 -140 V
0 77 V
0 -556 V
0 240 V
6 140 V
0 -1277 V
0 897 V
0 240 V
0 140 V
0 99 V
6 77 V
0 63 V
12 53 V
6 47 V
6 40 V
12 37 V
5 33 V
7 30 V
6 27 V
6 26 V
11 24 V
1 -107 V
0 30 V
5 -63 V
0 33 V
0 -70 V
0 37 V
0 -77 V
0 40 V
1 -140 V
0 53 V
stroke 4151 2389 M
0 -116 V
0 63 V
0 53 V
0 47 V
0 40 V
5 37 V
1 -100 V
0 -107 V
0 58 V
0 49 V
0 -107 V
0 58 V
0 -214 V
0 87 V
5 -203 V
0 116 V
0 -293 V
0 177 V
1 162 V
0 77 V
5 63 V
0 -63 V
0 63 V
1 -140 V
0 77 V
0 -316 V
6 316 V
0 -176 V
0 99 V
5 -239 V
0 140 V
13 99 V
12 77 V
6 63 V
12 53 V
6 47 V
12 40 V
6 37 V
6 33 V
12 30 V
0 -119 V
0 -980 V
0 380 V
0 -1037 V
0 897 V
0 -897 V
6 0 R
0 897 V
0 240 V
0 140 V
0 99 V
6 77 V
0 -176 V
0 99 V
0 -239 V
0 140 V
0 -140 V
6 316 V
0 -176 V
0 99 V
6 -99 V
0 99 V
0 -239 V
6 140 V
12 99 V
12 77 V
6 63 V
12 53 V
6 47 V
12 40 V
6 37 V
7 33 V
6 30 V
11 27 V
5 26 V
1 24 V
5 22 V
0 21 V
6 20 V
0 19 V
6 17 V
0 17 V
0 16 V
6 16 V
0 14 V
0 -27 V
0 -154 V
0 23 V
0 -213 V
0 40 V
6 -40 V
0 40 V
0 -40 V
0 40 V
0 62 V
0 30 V
6 -119 V
0 -44 V
0 44 V
0 38 V
0 35 V
0 -1710 V
0 897 V
0 479 V
stroke 4426 2196 M
0 77 V
6 63 V
6 53 V
6 47 V
12 40 V
6 37 V
5 33 V
6 -110 V
0 -240 V
0 77 V
0 -77 V
0 77 V
0 -316 V
0 140 V
6 -380 V
0 240 V
0 316 V
6 63 V
0 -63 V
0 63 V
0 -239 V
0 99 V
2 -239 V
0 140 V
0 -140 V
4 140 V
8 99 V
11 77 V
6 63 V
12 53 V
12 47 V
6 40 V
12 37 V
6 -100 V
0 -556 V
0 177 V
6 -557 V
0 380 V
0 -380 V
0 380 V
0 177 V
0 162 V
0 77 V
0 63 V
6 -30 V
0 -69 V
0 69 V
0 58 V
0 -887 V
0 380 V
6 177 V
5 116 V
12 87 V
12 69 V
8 58 V
11 49 V
6 44 V
6 38 V
12 35 V
6 31 V
6 29 V
12 26 V
6 25 V
0 23 V
7 22 V
0 20 V
6 19 V
0 19 V
6 17 V
0 16 V
0 16 V
6 15 V
0 14 V
0 14 V
0 14 V
0 12 V
6 13 V
0 -40 V
0 -76 V
0 17 V
0 -53 V
0 19 V
0 17 V
0 -145 V
0 25 V
0 -25 V
0 25 V
0 -52 V
0 27 V
0 -27 V
0 27 V
0 25 V
0 -52 V
0 27 V
0 -56 V
0 29 V
6 -61 V
0 32 V
0 -67 V
0 35 V
0 32 V
0 18 V
0 27 V
2 -127 V
stroke 4723 2476 M
0 -40 V
0 40 V
0 -87 V
0 47 V
0 40 V
0 -40 V
0 40 V
3 -87 V
0 47 V
0 40 V
0 37 V
0 33 V
0 30 V
0 27 V
0 26 V
0 -83 V
0 30 V
0 -100 V
0 37 V
0 -77 V
0 40 V
3 -140 V
0 28 V
3 49 V
0 44 V
0 -93 V
0 49 V
0 44 V
0 -44 V
0 44 V
0 -220 V
0 69 V
0 58 V
0 49 V
3 -107 V
0 58 V
0 49 V
3 -263 V
3 87 V
6 69 V
12 58 V
6 49 V
11 44 V
7 38 V
12 35 V
17 31 V
6 29 V
12 26 V
6 25 V
0 23 V
6 22 V
0 20 V
0 19 V
6 19 V
0 17 V
0 16 V
0 16 V
6 15 V
0 14 V
0 -34 V
0 -304 V
0 36 V
6 -36 V
0 36 V
0 -121 V
0 45 V
0 -157 V
0 61 V
0 -229 V
0 94 V
0 123 V
0 53 V
6 -53 V
0 53 V
0 47 V
0 40 V
0 37 V
0 -77 V
0 40 V
0 -140 V
0 53 V
0 47 V
0 -339 V
5 99 V
12 77 V
6 63 V
12 53 V
7 47 V
12 40 V
5 37 V
12 33 V
6 -110 V
1 -47 V
0 47 V
0 -47 V
0 47 V
0 -100 V
0 53 V
0 47 V
0 -479 V
0 140 V
5 -380 V
0 240 V
0 239 V
stroke 4949 2196 M
0 77 V
0 63 V
1 -30 V
0 58 V
5 49 V
0 44 V
0 38 V
0 35 V
0 -166 V
0 49 V
0 44 V
0 -93 V
0 49 V
1 -456 V
0 140 V
0 99 V
9 77 V
6 63 V
12 53 V
6 47 V
6 40 V
12 37 V
6 33 V
6 30 V
6 27 V
7 -127 V
0 -140 V
0 53 V
0 -53 V
0 53 V
0 47 V
0 -163 V
0 63 V
0 53 V
0 -116 V
0 63 V
0 -140 V
0 77 V
6 -77 V
0 77 V
0 -176 V
0 99 V
0 77 V
0 63 V
0 -30 V
0 -69 V
0 69 V
5 58 V
0 -127 V
0 69 V
0 -69 V
0 69 V
0 -272 V
0 116 V
0 87 V
6 -203 V
0 116 V
6 87 V
13 69 V
6 58 V
12 49 V
6 44 V
5 38 V
12 35 V
6 31 V
12 29 V
6 26 V
6 25 V
6 23 V
0 22 V
6 20 V
0 19 V
0 19 V
6 17 V
0 16 V
0 16 V
6 15 V
0 -32 V
0 15 V
0 16 V
0 14 V
0 -159 V
0 22 V
0 -22 V
0 22 V
0 -97 V
0 27 V
0 -123 V
0 35 V
0 -74 V
0 39 V
6 -39 V
0 39 V
0 -39 V
0 39 V
0 35 V
0 -74 V
0 39 V
0 55 V
0 30 V
0 27 V
6 -127 V
0 37 V
0 33 V
stroke 5175 2546 M
0 30 V
0 -240 V
0 53 V
0 -193 V
0 77 V
0 -77 V
0 77 V
0 -176 V
0 99 V
6 -239 V
0 140 V
0 99 V
0 77 V
6 63 V
6 53 V
6 47 V
12 40 V
6 37 V
6 -100 V
0 44 V
0 -151 V
0 58 V
0 -507 V
0 177 V
6 -557 V
0 380 V
0 339 V
0 77 V
6 63 V
12 53 V
6 47 V
6 40 V
12 37 V
5 33 V
6 30 V
7 27 V
11 26 V
1 24 V
5 22 V
6 21 V
1 20 V
5 19 V
1 17 V
5 17 V
0 16 V
1 16 V
5 14 V
1 14 V
1 14 V
4 13 V
0 13 V
0 12 V
2 11 V
4 12 V
0 11 V
0 10 V
2 11 V
3 10 V
0 9 V
0 10 V
0 9 V
1 9 V
2 9 V
3 8 V
0 9 V
0 8 V
3 8 V
3 8 V
0 7 V
0 8 V
0 7 V
0 7 V
0 7 V
0 7 V
3 7 V
3 6 V
0 -53 V
0 7 V
2 8 V
0 -31 V
0 8 V
0 8 V
0 -8 V
0 8 V
0 -16 V
0 8 V
0 8 V
0 -24 V
0 8 V
0 -8 V
0 8 V
0 -51 V
0 9 V
0 9 V
0 8 V
0 -121 V
0 11 V
0 -143 V
0 17 V
1 -17 V
0 17 V
0 -36 V
0 19 V
0 -19 V
stroke 5368 2723 M
0 19 V
0 -38 V
0 19 V
0 19 V
0 -103 V
0 23 V
15 34 V
0 20 V
0 19 V
0 17 V
0 17 V
6 16 V
0 16 V
0 -25 V
0 15 V
0 -68 V
0 19 V
0 17 V
0 -17 V
0 17 V
0 -55 V
0 19 V
0 -271 V
0 39 V
6 -82 V
0 43 V
0 -43 V
0 43 V
0 39 V
0 -39 V
0 39 V
0 55 V
0 30 V
0 27 V
5 26 V
0 24 V
0 22 V
0 21 V
6 20 V
0 19 V
0 -15 V
0 -86 V
0 23 V
0 -137 V
0 32 V
0 -265 V
0 61 V
6 -135 V
0 74 V
0 -74 V
0 74 V
0 102 V
0 47 V
6 40 V
0 37 V
0 33 V
6 30 V
0 27 V
0 26 V
6 24 V
0 -264 V
0 47 V
0 -100 V
0 53 V
0 -116 V
0 63 V
6 -140 V
0 77 V
0 -77 V
0 77 V
0 63 V
0 53 V
0 -53 V
0 53 V
0 47 V
0 40 V
6 37 V
0 33 V
0 30 V
6 27 V
12 26 V
0 5 V
0 -53 V
0 28 V
0 25 V
0 -114 V
0 32 V
0 -32 V
0 32 V
0 -108 V
0 40 V
6 -40 V
0 40 V
0 62 V
0 30 V
2 -119 V
0 -44 V
0 44 V
0 38 V
0 -82 V
0 44 V
4 38 V
0 -82 V
0 44 V
stroke 5472 2457 M
0 38 V
0 -38 V
0 38 V
0 -38 V
0 38 V
0 35 V
0 -117 V
0 44 V
0 -151 V
1 -33 V
5 63 V
0 53 V
0 47 V
0 40 V
0 -40 V
0 40 V
0 -203 V
0 63 V
1 -63 V
0 63 V
5 -379 V
0 140 V
12 99 V
12 77 V
6 63 V
12 53 V
6 47 V
12 40 V
5 37 V
6 33 V
6 30 V
12 27 V
6 26 V
0 24 V
6 22 V
0 21 V
0 20 V
6 -12 V
0 -20 V
0 20 V
0 -42 V
0 22 V
0 20 V
0 -20 V
0 20 V
0 -90 V
0 25 V
2 23 V
0 -210 V
0 39 V
4 -82 V
0 43 V
0 39 V
0 35 V
0 -74 V
0 39 V
11 22 V
0 33 V
0 30 V
0 27 V
7 26 V
0 24 V
6 22 V
6 21 V
12 -8 V
0 -95 V
0 26 V
0 -26 V
0 26 V
0 -375 V
0 68 V
0 -152 V
0 84 V
6 -197 V
0 113 V
0 113 V
0 63 V
0 -30 V
0 -69 V
0 69 V
6 58 V
0 -127 V
0 69 V
0 -449 V
0 177 V
6 239 V
0 -176 V
0 99 V
5 -239 V
0 140 V
12 99 V
12 77 V
8 63 V
10 53 V
8 47 V
6 40 V
10 37 V
6 33 V
7 30 V
6 27 V
10 26 V
0 24 V
2 22 V
4 21 V
stroke 5763 2696 M
2 20 V
5 19 V
0 17 V
1 17 V
5 16 V
0 16 V
0 14 V
1 14 V
0 14 V
6 13 V
0 13 V
0 12 V
1 11 V
4 12 V
0 11 V
0 10 V
2 11 V
4 10 V
0 9 V
0 10 V
0 9 V
2 9 V
4 -45 V
0 -43 V
0 11 V
0 11 V
0 10 V
0 11 V
0 10 V
0 9 V
0 -19 V
0 10 V
0 9 V
0 -30 V
0 11 V
0 10 V
0 9 V
0 10 V
0 9 V
0 -28 V
0 9 V
0 -153 V
0 14 V
0 -46 V
0 16 V
0 -32 V
0 16 V
2 -34 V
0 18 V
0 -36 V
0 18 V
0 -81 V
0 22 V
4 -45 V
0 23 V
0 22 V
0 17 V
0 20 V
0 19 V
0 17 V
0 17 V
2 16 V
4 16 V
0 14 V
0 14 V
0 14 V
2 13 V
0 13 V
5 12 V
0 11 V
0 -36 V
0 -140 V
0 19 V
0 -60 V
0 21 V
0 20 V
0 -41 V
0 21 V
0 20 V
0 -41 V
0 21 V
0 -43 V
0 22 V
0 -46 V
0 24 V
1 -50 V
0 26 V
0 -53 V
0 27 V
5 -57 V
0 30 V
0 27 V
0 -57 V
0 30 V
0 27 V
0 26 V
0 24 V
0 -24 V
0 24 V
0 22 V
0 21 V
0 20 V
0 19 V
0 -60 V
stroke 5825 2675 M
0 21 V
0 20 V
0 -41 V
0 21 V
0 20 V
6 19 V
0 -39 V
0 20 V
0 -20 V
0 20 V
0 19 V
0 -60 V
0 21 V
0 -120 V
6 -119 V
0 -93 V
0 49 V
0 -107 V
0 58 V
0 49 V
0 -176 V
0 69 V
0 -156 V
0 87 V
5 -203 V
0 116 V
0 -116 V
0 116 V
0 123 V
0 63 V
0 53 V
0 -53 V
6 53 V
0 47 V
0 40 V
0 37 V
0 33 V
0 30 V
0 -100 V
0 37 V
0 -416 V
6 176 V
0 63 V
0 53 V
0 47 V
0 -339 V
0 99 V
6 -479 V
0 240 V
0 316 V
0 -176 V
0 99 V
6 -239 V
6 140 V
12 99 V
7 77 V
12 63 V
6 53 V
12 47 V
5 40 V
6 37 V
12 33 V
6 30 V
6 27 V
7 -108 V
0 -638 V
0 177 V
2 -557 V
0 380 V
4 -380 V
0 380 V
0 -380 V
0 380 V
0 479 V
0 53 V
6 -53 V
0 -63 V
0 63 V
0 53 V
0 47 V
0 40 V
0 37 V
0 33 V
0 -350 V
0 77 V
7 -556 V
0 240 V
0 140 V
0 99 V
6 77 V
12 63 V
6 53 V
12 47 V
5 40 V
6 37 V
12 33 V
6 30 V
6 27 V
6 26 V
6 24 V
0 22 V
6 21 V
6 20 V
0 19 V
stroke 6077 2735 M
0 17 V
6 17 V
0 -20 V
0 -18 V
0 18 V
1 17 V
0 -95 V
0 21 V
0 20 V
0 -20 V
0 20 V
0 19 V
0 -133 V
0 26 V
5 -54 V
0 28 V
0 -59 V
0 31 V
0 28 V
0 -28 V
0 28 V
0 26 V
0 5 V
0 24 V
1 22 V
5 21 V
5 20 V
6 19 V
12 17 V
6 17 V
0 -20 V
0 -37 V
0 19 V
0 18 V
0 -101 V
0 23 V
6 -47 V
0 24 V
0 -78 V
0 28 V
0 -28 V
0 28 V
0 26 V
0 24 V
0 -50 V
0 26 V
0 24 V
0 -50 V
0 26 V
0 -26 V
0 26 V
0 -118 V
0 33 V
6 37 V
0 27 V
0 26 V
0 24 V
0 22 V
6 21 V
0 -8 V
0 20 V
0 -115 V
0 26 V
0 25 V
0 22 V
0 -354 V
0 57 V
6 -57 V
0 57 V
0 -125 V
0 68 V
0 77 V
0 47 V
1 40 V
5 37 V
0 33 V
1 30 V
5 27 V
0 26 V
6 24 V
11 22 V
6 -4 V
0 21 V
0 -21 V
0 21 V
0 20 V
0 -173 V
0 31 V
0 -101 V
0 37 V
2 -79 V
0 42 V
4 -90 V
0 48 V
0 42 V
0 37 V
0 -30 V
0 37 V
0 33 V
6 30 V
0 27 V
0 26 V
6 24 V
13 22 V
stroke 6214 2675 M
0 -4 V
2 -23 V
0 23 V
0 -23 V
0 23 V
0 -23 V
0 23 V
0 21 V
0 20 V
0 -114 V
0 26 V
0 -85 V
0 31 V
0 -64 V
0 33 V
4 -70 V
0 37 V
0 -79 V
0 42 V
1 44 V
0 33 V
15 30 V
0 27 V
6 26 V
12 24 V
6 -24 V
0 24 V
0 22 V
0 -402 V
0 63 V
6 -63 V
0 63 V
0 53 V
0 -116 V
0 63 V
0 53 V
0 47 V
0 40 V
6 37 V
0 33 V
0 30 V
6 27 V
0 -127 V
0 -87 V
0 47 V
0 -100 V
0 53 V
0 -193 V
0 77 V
6 -77 V
0 77 V
0 63 V
0 53 V
0 -292 V
0 99 V
0 77 V
0 63 V
0 -30 V
5 58 V
0 49 V
0 -49 V
0 49 V
0 -49 V
0 49 V
0 -176 V
0 69 V
0 -156 V
0 87 V
0 -203 V
6 116 V
0 123 V
6 -176 V
0 99 V
0 -99 V
0 99 V
0 -239 V
6 140 V
12 99 V
12 77 V
6 63 V
12 53 V
6 47 V
6 40 V
6 -87 V
0 -1569 V
0 897 V
0 -897 V
6 0 R
0 897 V
0 479 V
6 77 V
0 -316 V
0 140 V
0 -380 V
0 240 V
12 140 V
6 99 V
12 77 V
6 63 V
11 53 V
6 47 V
6 40 V
12 37 V
6 33 V
stroke 6456 2546 M
6 -110 V
0 40 V
0 37 V
0 -317 V
0 77 V
6 -176 V
0 99 V
0 -239 V
0 140 V
0 -380 V
0 240 V
0 140 V
6 99 V
0 77 V
0 63 V
12 53 V
5 47 V
6 40 V
12 37 V
6 33 V
6 -110 V
0 40 V
0 -379 V
0 99 V
3 -99 V
0 99 V
0 -99 V
0 99 V
0 -239 V
0 140 V
3 -380 V
0 240 V
0 140 V
0 99 V
0 77 V
0 63 V
3 -30 V
3 58 V
0 -127 V
0 69 V
0 58 V
0 -330 V
0 116 V
3 -193 V
0 140 V
0 99 V
3 77 V
3 -176 V
0 99 V
0 -239 V
0 140 V
3 -140 V
6 140 V
12 99 V
11 77 V
6 63 V
12 53 V
6 47 V
6 40 V
0 -1656 V
% End plot #4
% Begin plot #5
2.000 UP
stroke
LTb
LT1
0.00 0.00 0.63 C 1261 1957 Circle
1744 2815 Circle
1839 1780 Circle
2087 2389 Circle
2258 2389 Circle
2550 1957 Circle
2859 2603 Circle
3011 2273 Circle
3300 2436 Circle
3522 2634 Circle
3690 2306 Circle
3989 1957 Circle
4283 2273 Circle
4611 2306 Circle
4836 2664 Circle
5038 2237 Circle
5318 2735 Circle
5400 2696 Circle
5579 2653 Circle
5800 2957 Circle
5842 2150 Circle
6089 2624 Circle
6220 2427 Circle
6474 2336 Circle
% End plot #5
% Begin plot #6
2.000 UP
1.000 UL
LTb
LT1
0.00 0.00 0.63 C LCb setrgbcolor
4187 153 M
[ [(Arial) 180.0 0.0 true true 0 (per-packet)]
] -60.0 MRshow
2.000 UP
1.000 UL
LTb
LT1
0.00 0.00 0.63 C 1261 1957 Circle
4461 153 Circle
% End plot #6
% Begin plot #7
1.000 UL
LTb
LT3
0.00 0.38 0.82 C 1261 1957 M
6 140 V
6 99 V
6 77 V
0 63 V
6 53 V
0 47 V
0 40 V
6 37 V
0 33 V
0 30 V
0 27 V
7 26 V
0 24 V
0 22 V
0 21 V
0 20 V
0 19 V
6 17 V
0 17 V
0 16 V
0 16 V
0 14 V
0 14 V
0 14 V
0 13 V
0 13 V
6 12 V
0 11 V
0 12 V
0 11 V
0 10 V
0 11 V
0 10 V
0 9 V
0 10 V
0 9 V
0 9 V
0 9 V
0 8 V
0 9 V
7 8 V
0 8 V
0 8 V
0 7 V
0 8 V
0 7 V
0 7 V
0 7 V
0 7 V
0 7 V
0 6 V
0 7 V
0 6 V
0 6 V
0 6 V
0 6 V
0 6 V
0 6 V
0 6 V
0 5 V
0 6 V
7 5 V
1 -57 V
0 6 V
0 6 V
6 6 V
0 6 V
0 6 V
0 6 V
0 -6 V
0 6 V
7 -6 V
0 6 V
6 -6 V
0 6 V
7 -6 V
0 6 V
7 -6 V
0 6 V
7 -6 V
0 6 V
6 -6 V
0 6 V
7 -6 V
0 6 V
0 6 V
7 -6 V
0 6 V
0 5 V
0 6 V
7 -6 V
0 6 V
0 5 V
0 6 V
0 5 V
6 -5 V
0 5 V
0 5 V
0 5 V
0 5 V
0 5 V
7 -5 V
0 5 V
0 5 V
stroke 1405 3191 M
0 5 V
0 5 V
0 4 V
0 5 V
7 -9 V
0 4 V
0 5 V
0 5 V
0 4 V
0 5 V
0 4 V
0 4 V
7 -4 V
0 4 V
0 5 V
0 4 V
0 4 V
0 4 V
0 4 V
0 4 V
0 4 V
7 -4 V
0 4 V
0 4 V
0 4 V
0 4 V
0 4 V
0 3 V
0 4 V
0 4 V
0 4 V
5 -1575 V
2 240 V
6 140 V
0 99 V
0 77 V
0 63 V
0 53 V
0 47 V
1 40 V
0 37 V
0 33 V
0 30 V
5 27 V
1 26 V
0 24 V
0 22 V
0 21 V
0 20 V
0 19 V
0 17 V
0 17 V
0 16 V
0 16 V
6 14 V
0 14 V
2 14 V
0 13 V
0 13 V
0 12 V
0 11 V
0 12 V
0 11 V
0 10 V
0 11 V
0 10 V
0 9 V
0 10 V
0 9 V
0 9 V
0 9 V
0 8 V
0 9 V
4 -48 V
0 9 V
0 10 V
0 8 V
2 9 V
0 8 V
0 9 V
0 8 V
0 7 V
0 8 V
0 8 V
0 7 V
0 7 V
0 7 V
0 7 V
0 7 V
0 7 V
0 6 V
0 6 V
0 7 V
0 6 V
0 6 V
0 6 V
0 6 V
0 5 V
0 6 V
0 6 V
0 5 V
0 6 V
0 5 V
0 5 V
stroke 1460 3168 M
0 5 V
0 5 V
0 5 V
0 5 V
0 5 V
0 5 V
0 5 V
0 -10 V
0 5 V
0 -10 V
0 5 V
0 -10 V
0 5 V
0 -10 V
0 5 V
0 -10 V
0 5 V
0 -10 V
0 5 V
0 -10 V
0 5 V
0 -10 V
0 5 V
0 -11 V
0 6 V
0 -11 V
0 5 V
1 -11 V
0 6 V
0 -12 V
0 6 V
0 -11 V
0 5 V
0 -11 V
0 6 V
0 -12 V
0 6 V
0 -12 V
0 6 V
0 -12 V
0 6 V
0 -13 V
0 7 V
0 -13 V
0 6 V
1 -12 V
0 6 V
0 -13 V
0 7 V
0 -155 V
5 10 V
12 10 V
24 9 V
7 9 V
6 10 V
7 8 V
0 9 V
7 8 V
0 9 V
0 8 V
7 7 V
0 8 V
0 8 V
6 7 V
0 7 V
0 7 V
0 7 V
0 7 V
7 7 V
0 6 V
0 6 V
0 7 V
0 6 V
6 6 V
0 6 V
0 6 V
0 5 V
0 6 V
0 6 V
0 5 V
6 6 V
0 5 V
0 5 V
0 5 V
0 5 V
0 5 V
1 5 V
1 5 V
0 5 V
0 5 V
5 4 V
0 5 V
0 4 V
0 5 V
0 4 V
0 5 V
0 4 V
1 4 V
0 4 V
0 5 V
0 4 V
0 4 V
6 4 V
0 4 V
stroke 1576 3263 M
0 4 V
0 4 V
0 3 V
0 4 V
0 4 V
0 4 V
0 3 V
0 4 V
0 4 V
0 3 V
1 4 V
5 3 V
0 4 V
0 3 V
0 3 V
0 4 V
0 3 V
12 3 V
0 4 V
0 3 V
0 3 V
0 3 V
0 3 V
0 3 V
0 4 V
7 3 V
0 3 V
0 3 V
0 3 V
0 3 V
0 3 V
0 2 V
0 3 V
0 3 V
0 3 V
1 3 V
0 3 V
1 2 V
0 3 V
4 3 V
0 2 V
1 3 V
0 3 V
0 2 V
0 3 V
0 3 V
0 2 V
0 3 V
0 2 V
1 3 V
0 2 V
0 3 V
5 2 V
0 3 V
0 2 V
0 3 V
0 2 V
0 2 V
0 3 V
1 2 V
15 2 V
0 3 V
0 2 V
0 2 V
0 3 V
0 2 V
0 2 V
0 2 V
0 3 V
7 2 V
0 2 V
0 2 V
0 2 V
0 2 V
0 3 V
0 2 V
1 2 V
1 2 V
0 2 V
0 2 V
0 2 V
0 2 V
5 2 V
0 2 V
0 2 V
0 2 V
0 2 V
0 2 V
1 2 V
0 2 V
0 2 V
2 2 V
0 2 V
0 2 V
0 2 V
0 2 V
3 1 V
0 2 V
0 2 V
1 2 V
0 2 V
0 2 V
0 1 V
0 2 V
stroke 1651 3533 M
0 2 V
1 2 V
0 2 V
1 1 V
1 2 V
0 2 V
0 2 V
3 1 V
0 2 V
0 2 V
0 2 V
1 1 V
0 2 V
1 2 V
0 1 V
0 2 V
1 2 V
0 1 V
0 2 V
1 2 V
0 1 V
3 2 V
0 1 V
0 2 V
0 2 V
0 1 V
1 2 V
0 1 V
0 2 V
0 2 V
1 1 V
0 2 V
0 1 V
1 2 V
0 1 V
4 2 V
0 1 V
0 2 V
0 1 V
0 2 V
0 1 V
1 2 V
1 1 V
1 2 V
0 1 V
0 2 V
0 1 V
0 2 V
0 1 V
1 1 V
2 2 V
0 1 V
0 2 V
0 1 V
0 1 V
0 2 V
1 1 V
0 2 V
1 1 V
1 1 V
0 2 V
0 1 V
0 2 V
0 1 V
0 1 V
3 2 V
2 1 V
0 1 V
0 2 V
0 1 V
0 1 V
0 2 V
1 1 V
0 1 V
0 1 V
0 2 V
0 1 V
0 1 V
1 2 V
2 1 V
2 1 V
0 1 V
0 2 V
0 1 V
1 1 V
0 1 V
0 2 V
0 1 V
1 1 V
0 1 V
0 2 V
0 1 V
1 1 V
0 1 V
1 1 V
2 2 V
0 1 V
0 1 V
0 1 V
1 1 V
0 2 V
0 1 V
1 1 V
12 1 V
stroke 1711 3683 M
0 1 V
0 1 V
0 2 V
0 1 V
0 1 V
0 1 V
0 1 V
0 1 V
0 2 V
0 1 V
6 1 V
0 1 V
1 1 V
0 1 V
0 1 V
0 1 V
10 1 V
0 2 V
0 1 V
0 1 V
0 1 V
0 1 V
0 1 V
10 1 V
0 1 V
0 1 V
0 1 V
10 1 V
0 1 V
0 2 V
0 1 V
0 1 V
10 1 V
0 1 V
0 1 V
0 1 V
0 1 V
0 1 V
0 1 V
0 1 V
0 1 V
0 1 V
0 1 V
0 1 V
0 1 V
6 1 V
1 1 V
0 1 V
0 1 V
0 1 V
0 1 V
1 1 V
0 1 V
0 1 V
1 1 V
1 1 V
0 1 V
0 1 V
2 1 V
0 -74 V
0 1 V
0 1 V
0 2 V
0 1 V
0 1 V
0 1 V
0 1 V
0 1 V
0 2 V
0 1 V
0 1 V
0 1 V
0 1 V
0 1 V
0 2 V
0 1 V
0 1 V
0 1 V
0 1 V
0 1 V
0 1 V
0 2 V
0 1 V
0 1 V
0 1 V
0 1 V
0 1 V
0 1 V
0 1 V
0 1 V
0 2 V
0 1 V
0 1 V
0 1 V
0 1 V
0 1 V
0 1 V
0 1 V
1 1 V
0 1 V
0 1 V
0 1 V
0 1 V
0 1 V
stroke 1771 3721 M
0 1 V
0 1 V
0 2 V
0 1 V
0 1 V
0 1 V
0 1 V
0 1 V
0 1 V
0 1 V
0 1 V
0 1 V
0 1 V
0 1 V
0 1 V
0 1 V
0 1 V
0 1 V
0 1 V
0 1 V
0 1 V
13 1 V
0 1 V
0 1 V
0 1 V
0 1 V
0 1 V
0 1 V
0 1 V
0 1 V
0 1 V
0 1 V
0 1 V
0 1 V
0 1 V
0 1 V
0 1 V
0 1 V
0 1 V
0 1 V
0 1 V
0 1 V
0 1 V
0 1 V
0 1 V
0 1 V
0 1 V
0 1 V
0 1 V
0 1 V
0 1 V
0 1 V
0 1 V
0 1 V
0 1 V
0 1 V
0 1 V
0 1 V
0 1 V
0 1 V
0 1 V
0 1 V
0 1 V
0 1 V
0 1 V
0 1 V
0 1 V
0 1 V
0 1 V
0 1 V
0 1 V
0 1 V
0 1 V
0 1 V
0 1 V
0 1 V
0 1 V
0 1 V
0 1 V
0 1 V
0 1 V
0 1 V
0 1 V
0 1 V
0 1 V
0 1 V
0 1 V
0 1 V
0 1 V
0 1 V
0 1 V
0 1 V
0 1 V
0 1 V
0 1 V
0 1 V
0 1 V
0 1 V
0 1 V
0 1 V
0 1 V
0 1 V
0 1 V
0 1 V
stroke 1784 3826 M
0 1 V
0 1 V
0 1 V
0 1 V
0 1 V
0 1 V
0 1 V
0 1 V
0 1 V
0 1 V
0 1 V
0 1 V
0 1 V
0 1 V
0 1 V
0 1 V
0 1 V
0 1 V
0 1 V
0 1 V
0 1 V
0 1 V
0 1 V
0 1 V
0 1 V
0 1 V
0 1 V
0 1 V
0 1 V
0 1 V
0 1 V
0 1 V
0 1 V
0 1 V
0 1 V
0 1 V
0 1 V
0 1 V
0 1 V
0 1 V
0 1 V
0 1 V
0 1 V
0 1 V
0 1 V
0 1 V
0 1 V
0 1 V
0 1 V
0 1 V
0 1 V
0 1 V
0 1 V
0 1 V
0 1 V
0 1 V
0 1 V
0 1 V
0 1 V
0 1 V
0 1 V
0 1 V
0 1 V
0 1 V
0 1 V
0 1 V
0 1 V
0 1 V
0 1 V
0 1 V
0 1 V
0 1 V
6 1 V
0 1 V
0 1 V
0 1 V
0 1 V
0 1 V
0 1 V
0 1 V
0 1 V
0 1 V
0 1 V
0 1 V
0 1 V
0 1 V
0 1 V
0 1 V
0 1 V
0 1 V
0 1 V
0 1 V
0 1 V
0 1 V
0 1 V
0 1 V
0 1 V
0 1 V
0 1 V
0 1 V
0 1 V
0 1 V
0 1 V
0 1 V
stroke 1790 3930 M
0 1 V
0 1 V
0 1 V
0 1 V
0 1 V
0 1 V
0 1 V
0 1 V
0 1 V
0 1 V
0 1 V
0 1 V
0 1 V
0 1 V
0 1 V
0 1 V
0 1 V
0 1 V
0 1 V
0 1 V
0 1 V
0 1 V
0 1 V
0 1 V
0 1 V
1 0 V
0 1 V
0 1 V
0 1 V
0 1 V
0 1 V
0 1 V
0 1 V
0 1 V
0 1 V
0 1 V
0 1 V
0 1 V
0 1 V
0 1 V
0 1 V
0 1 V
0 1 V
0 1 V
0 1 V
0 1 V
0 1 V
0 1 V
0 1 V
0 1 V
0 1 V
0 1 V
0 1 V
0 1 V
0 1 V
0 1 V
0 1 V
0 1 V
0 1 V
0 1 V
0 1 V
1 1 V
0 1 V
0 1 V
0 1 V
0 1 V
0 1 V
0 1 V
0 1 V
0 1 V
0 1 V
0 1 V
0 1 V
0 1 V
0 1 V
4 0 V
0 1 V
0 1 V
0 1 V
0 1 V
0 1 V
0 1 V
1 0 V
0 1 V
0 1 V
0 1 V
0 1 V
0 1 V
0 1 V
0 1 V
0 1 V
0 1 V
0 1 V
0 1 V
0 1 V
0 1 V
0 1 V
0 1 V
0 1 V
0 1 V
0 1 V
0 1 V
0 1 V
0 1 V
stroke 1797 4031 M
0 1 V
0 1 V
0 1 V
0 1 V
0 1 V
0 1 V
0 1 V
0 1 V
0 1 V
0 1 V
0 1 V
0 1 V
0 1 V
0 1 V
0 1 V
0 1 V
0 1 V
0 1 V
0 1 V
0 1 V
0 1 V
0 1 V
0 1 V
0 1 V
1 0 V
0 1 V
0 1 V
0 1 V
0 1 V
0 1 V
0 1 V
0 1 V
0 1 V
0 1 V
0 1 V
0 1 V
0 1 V
0 1 V
0 1 V
0 1 V
0 1 V
0 1 V
0 1 V
0 1 V
0 1 V
0 1 V
0 1 V
0 1 V
0 1 V
1 1 V
0 1 V
0 1 V
0 1 V
0 1 V
0 -1 V
0 1 V
0 1 V
3 0 V
0 1 V
0 1 V
0 1 V
0 1 V
0 1 V
0 1 V
0 1 V
0 1 V
0 1 V
1 0 V
0 1 V
0 1 V
0 1 V
0 1 V
0 1 V
0 1 V
0 1 V
0 1 V
0 1 V
0 1 V
0 1 V
0 1 V
0 1 V
0 1 V
0 1 V
0 1 V
0 1 V
0 1 V
0 1 V
0 1 V
0 1 V
0 1 V
0 1 V
0 1 V
0 1 V
0 1 V
0 1 V
0 1 V
0 1 V
0 1 V
0 1 V
0 1 V
0 1 V
1 1 V
0 1 V
0 1 V
stroke 1804 4130 M
1 0 V
0 1 V
0 1 V
0 1 V
0 1 V
0 1 V
0 1 V
0 1 V
0 1 V
0 1 V
0 1 V
0 1 V
0 1 V
0 1 V
0 1 V
0 1 V
1 0 V
0 1 V
0 1 V
0 1 V
0 1 V
0 1 V
2 1 V
0 1 V
0 1 V
0 1 V
0 1 V
0 1 V
0 1 V
0 1 V
0 1 V
0 1 V
0 1 V
0 1 V
0 1 V
0 1 V
0 1 V
0 1 V
0 1 V
0 1 V
0 1 V
1 0 V
0 1 V
0 1 V
0 1 V
0 1 V
0 1 V
0 1 V
0 1 V
0 1 V
0 1 V
0 1 V
0 1 V
0 1 V
0 1 V
0 1 V
0 1 V
0 1 V
0 1 V
0 1 V
1 1 V
1 0 V
0 1 V
0 1 V
0 1 V
0 1 V
13 -1 V
0 1 V
0 1 V
0 1 V
0 1 V
0 1 V
0 1 V
0 1 V
0 1 V
0 1 V
0 1 V
0 1 V
0 1 V
0 1 V
0 1 V
0 1 V
0 1 V
0 1 V
0 1 V
0 1 V
0 1 V
0 1 V
0 1 V
0 1 V
0 1 V
0 1 V
0 1 V
0 1 V
0 1 V
0 1 V
0 1 V
0 1 V
0 1 V
0 1 V
0 1 V
0 1 V
0 1 V
0 1 V
stroke 1824 4228 M
6 0 V
0 1 V
0 1 V
0 1 V
0 1 V
0 1 V
0 1 V
0 1 V
0 1 V
0 1 V
0 1 V
0 1 V
0 1 V
0 1 V
0 1 V
0 1 V
1 0 V
0 1 V
0 1 V
0 1 V
0 1 V
0 1 V
0 1 V
0 1 V
1 0 V
0 1 V
0 1 V
0 1 V
0 1 V
0 1 V
0 1 V
0 1 V
0 1 V
0 1 V
0 1 V
0 1 V
0 1 V
4 -1 V
0 1 V
0 1 V
0 1 V
0 1 V
0 1 V
0 1 V
0 1 V
0 1 V
0 1 V
0 1 V
0 1 V
0 1 V
0 1 V
0 1 V
0 1 V
0 1 V
0 1 V
0 1 V
1 0 V
0 1 V
0 1 V
0 1 V
0 1 V
0 1 V
0 1 V
0 1 V
0 1 V
0 1 V
0 1 V
0 1 V
0 1 V
3 0 V
0 1 V
2 0 V
0 1 V
0 1 V
0 1 V
0 1 V
0 1 V
0 1 V
0 1 V
0 1 V
0 1 V
0 1 V
0 1 V
0 1 V
0 1 V
0 1 V
0 1 V
0 1 V
0 1 V
1 0 V
0 1 V
0 1 V
0 1 V
0 1 V
0 1 V
0 1 V
0 1 V
0 1 V
0 1 V
0 1 V
2 1 V
0 1 V
3 -1 V
0 1 V
stroke 1848 4321 M
0 1 V
0 1 V
0 1 V
0 1 V
0 1 V
0 1 V
0 1 V
0 1 V
0 1 V
0 1 V
0 1 V
0 1 V
0 1 V
0 1 V
0 1 V
1 0 V
0 1 V
0 1 V
0 1 V
0 1 V
0 1 V
0 1 V
0 1 V
0 1 V
0 1 V
0 1 V
2 0 V
0 1 V
3 0 V
0 1 V
0 1 V
0 1 V
0 1 V
0 1 V
0 1 V
0 1 V
0 1 V
0 1 V
0 1 V
2 0 V
0 1 V
0 1 V
0 1 V
0 1 V
0 1 V
0 1 V
0 1 V
0 1 V
0 1 V
0 1 V
0 1 V
0 1 V
0 1 V
0 1 V
1 0 V
3 0 V
0 1 V
0 1 V
0 1 V
0 1 V
0 1 V
0 1 V
0 1 V
0 1 V
0 1 V
0 1 V
2 0 V
0 1 V
0 1 V
0 1 V
0 1 V
0 1 V
0 1 V
0 1 V
0 1 V
0 1 V
0 1 V
1 0 V
0 1 V
0 1 V
0 1 V
0 1 V
3 -1 V
0 1 V
0 1 V
0 1 V
0 1 V
0 1 V
0 1 V
0 1 V
0 1 V
2 1 V
0 1 V
0 1 V
0 1 V
0 1 V
0 1 V
0 1 V
0 1 V
0 1 V
0 1 V
4 0 V
6 0 V
6 0 V
stroke 1884 4412 M
0 -2695 V
6 240 V
6 140 V
0 99 V
0 77 V
6 63 V
0 53 V
0 47 V
0 40 V
0 -1656 V
% End plot #7
% Begin plot #8
2.000 UP
stroke
LTb
LT3
0.00 0.38 0.82 C 1261 1957 TriU
1691 3659 TriU
1791 3983 TriU
1808 4167 TriU
1837 4286 TriU
1860 4374 TriU
% End plot #8
% Begin plot #9
2.000 UP
1.000 UL
LTb
LT3
0.00 0.38 0.82 C LCb setrgbcolor
5600 153 M
[ [(Arial) 180.0 0.0 true true 0 (per-flow)]
] -60.0 MRshow
2.000 UP
1.000 UL
LTb
LT3
0.00 0.38 0.82 C 1261 1957 TriU
5874 153 TriU
% End plot #9
2.000 UL
LTb
LCb setrgbcolor
1.000 UP
1.000 UL
LTb
0.00 0.00 0.00 C stroke
grestore
end
showpage
%%Trailer
%%DocumentFonts: Arial
