%!PS-Adobe-2.0 EPSF-2.0
%%Title: TcpHighSpeed-cwnd-1Mbps-UE4.eps
%%Creator: gnuplot 5.0 patchlevel 3
%%CreationDate: Tue May 24 14:35:46 2016
%%DocumentFonts: (atend)
%%BoundingBox: 50 50 410 302
%%EndComments
%%BeginProlog
/gnudict 256 dict def
gnudict begin
%
% The following true/false flags may be edited by hand if desired.
% The unit line width and grayscale image gamma correction may also be changed.
%
/Color true def
/Blacktext false def
/Solid false def
/Dashlength 3 def
/Landscape false def
/Level1 false def
/Level3 false def
/Rounded false def
/ClipToBoundingBox false def
/SuppressPDFMark false def
/TransparentPatterns false def
/gnulinewidth 15.000 def
/userlinewidth gnulinewidth def
/Gamma 1.0 def
/BackgroundColor {-1.000 -1.000 -1.000} def
%
/vshift -66 def
/dl1 {
  10.0 Dashlength userlinewidth gnulinewidth div mul mul mul
  Rounded { currentlinewidth 0.75 mul sub dup 0 le { pop 0.01 } if } if
} def
/dl2 {
  10.0 Dashlength userlinewidth gnulinewidth div mul mul mul
  Rounded { currentlinewidth 0.75 mul add } if
} def
/hpt_ 31.5 def
/vpt_ 31.5 def
/hpt hpt_ def
/vpt vpt_ def
/doclip {
  ClipToBoundingBox {
    newpath 50 50 moveto 410 50 lineto 410 302 lineto 50 302 lineto closepath
    clip
  } if
} def
%
% Gnuplot Prolog Version 5.1 (Oct 2015)
%
%/SuppressPDFMark true def
%
/M {moveto} bind def
/L {lineto} bind def
/R {rmoveto} bind def
/V {rlineto} bind def
/N {newpath moveto} bind def
/Z {closepath} bind def
/C {setrgbcolor} bind def
/f {rlineto fill} bind def
/g {setgray} bind def
/Gshow {show} def   % May be redefined later in the file to support UTF-8
/vpt2 vpt 2 mul def
/hpt2 hpt 2 mul def
/Lshow {currentpoint stroke M 0 vshift R 
	Blacktext {gsave 0 setgray textshow grestore} {textshow} ifelse} def
/Rshow {currentpoint stroke M dup stringwidth pop neg vshift R
	Blacktext {gsave 0 setgray textshow grestore} {textshow} ifelse} def
/Cshow {currentpoint stroke M dup stringwidth pop -2 div vshift R 
	Blacktext {gsave 0 setgray textshow grestore} {textshow} ifelse} def
/UP {dup vpt_ mul /vpt exch def hpt_ mul /hpt exch def
  /hpt2 hpt 2 mul def /vpt2 vpt 2 mul def} def
/DL {Color {setrgbcolor Solid {pop []} if 0 setdash}
 {pop pop pop 0 setgray Solid {pop []} if 0 setdash} ifelse} def
/BL {stroke userlinewidth 2 mul setlinewidth
	Rounded {1 setlinejoin 1 setlinecap} if} def
/AL {stroke userlinewidth 2 div setlinewidth
	Rounded {1 setlinejoin 1 setlinecap} if} def
/UL {dup gnulinewidth mul /userlinewidth exch def
	dup 1 lt {pop 1} if 10 mul /udl exch def} def
/PL {stroke userlinewidth setlinewidth
	Rounded {1 setlinejoin 1 setlinecap} if} def
3.8 setmiterlimit
% Classic Line colors (version 5.0)
/LCw {1 1 1} def
/LCb {0 0 0} def
/LCa {0 0 0} def
/LC0 {1 0 0} def
/LC1 {0 1 0} def
/LC2 {0 0 1} def
/LC3 {1 0 1} def
/LC4 {0 1 1} def
/LC5 {1 1 0} def
/LC6 {0 0 0} def
/LC7 {1 0.3 0} def
/LC8 {0.5 0.5 0.5} def
% Default dash patterns (version 5.0)
/LTB {BL [] LCb DL} def
/LTw {PL [] 1 setgray} def
/LTb {PL [] LCb DL} def
/LTa {AL [1 udl mul 2 udl mul] 0 setdash LCa setrgbcolor} def
/LT0 {PL [] LC0 DL} def
/LT1 {PL [2 dl1 3 dl2] LC1 DL} def
/LT2 {PL [1 dl1 1.5 dl2] LC2 DL} def
/LT3 {PL [6 dl1 2 dl2 1 dl1 2 dl2] LC3 DL} def
/LT4 {PL [1 dl1 2 dl2 6 dl1 2 dl2 1 dl1 2 dl2] LC4 DL} def
/LT5 {PL [4 dl1 2 dl2] LC5 DL} def
/LT6 {PL [1.5 dl1 1.5 dl2 1.5 dl1 1.5 dl2 1.5 dl1 6 dl2] LC6 DL} def
/LT7 {PL [3 dl1 3 dl2 1 dl1 3 dl2] LC7 DL} def
/LT8 {PL [2 dl1 2 dl2 2 dl1 6 dl2] LC8 DL} def
/SL {[] 0 setdash} def
/Pnt {stroke [] 0 setdash gsave 1 setlinecap M 0 0 V stroke grestore} def
/Dia {stroke [] 0 setdash 2 copy vpt add M
  hpt neg vpt neg V hpt vpt neg V
  hpt vpt V hpt neg vpt V closepath stroke
  Pnt} def
/Pls {stroke [] 0 setdash vpt sub M 0 vpt2 V
  currentpoint stroke M
  hpt neg vpt neg R hpt2 0 V stroke
 } def
/Box {stroke [] 0 setdash 2 copy exch hpt sub exch vpt add M
  0 vpt2 neg V hpt2 0 V 0 vpt2 V
  hpt2 neg 0 V closepath stroke
  Pnt} def
/Crs {stroke [] 0 setdash exch hpt sub exch vpt add M
  hpt2 vpt2 neg V currentpoint stroke M
  hpt2 neg 0 R hpt2 vpt2 V stroke} def
/TriU {stroke [] 0 setdash 2 copy vpt 1.12 mul add M
  hpt neg vpt -1.62 mul V
  hpt 2 mul 0 V
  hpt neg vpt 1.62 mul V closepath stroke
  Pnt} def
/Star {2 copy Pls Crs} def
/BoxF {stroke [] 0 setdash exch hpt sub exch vpt add M
  0 vpt2 neg V hpt2 0 V 0 vpt2 V
  hpt2 neg 0 V closepath fill} def
/TriUF {stroke [] 0 setdash vpt 1.12 mul add M
  hpt neg vpt -1.62 mul V
  hpt 2 mul 0 V
  hpt neg vpt 1.62 mul V closepath fill} def
/TriD {stroke [] 0 setdash 2 copy vpt 1.12 mul sub M
  hpt neg vpt 1.62 mul V
  hpt 2 mul 0 V
  hpt neg vpt -1.62 mul V closepath stroke
  Pnt} def
/TriDF {stroke [] 0 setdash vpt 1.12 mul sub M
  hpt neg vpt 1.62 mul V
  hpt 2 mul 0 V
  hpt neg vpt -1.62 mul V closepath fill} def
/DiaF {stroke [] 0 setdash vpt add M
  hpt neg vpt neg V hpt vpt neg V
  hpt vpt V hpt neg vpt V closepath fill} def
/Pent {stroke [] 0 setdash 2 copy gsave
  translate 0 hpt M 4 {72 rotate 0 hpt L} repeat
  closepath stroke grestore Pnt} def
/PentF {stroke [] 0 setdash gsave
  translate 0 hpt M 4 {72 rotate 0 hpt L} repeat
  closepath fill grestore} def
/Circle {stroke [] 0 setdash 2 copy
  hpt 0 360 arc stroke Pnt} def
/CircleF {stroke [] 0 setdash hpt 0 360 arc fill} def
/C0 {BL [] 0 setdash 2 copy moveto vpt 90 450 arc} bind def
/C1 {BL [] 0 setdash 2 copy moveto
	2 copy vpt 0 90 arc closepath fill
	vpt 0 360 arc closepath} bind def
/C2 {BL [] 0 setdash 2 copy moveto
	2 copy vpt 90 180 arc closepath fill
	vpt 0 360 arc closepath} bind def
/C3 {BL [] 0 setdash 2 copy moveto
	2 copy vpt 0 180 arc closepath fill
	vpt 0 360 arc closepath} bind def
/C4 {BL [] 0 setdash 2 copy moveto
	2 copy vpt 180 270 arc closepath fill
	vpt 0 360 arc closepath} bind def
/C5 {BL [] 0 setdash 2 copy moveto
	2 copy vpt 0 90 arc
	2 copy moveto
	2 copy vpt 180 270 arc closepath fill
	vpt 0 360 arc} bind def
/C6 {BL [] 0 setdash 2 copy moveto
	2 copy vpt 90 270 arc closepath fill
	vpt 0 360 arc closepath} bind def
/C7 {BL [] 0 setdash 2 copy moveto
	2 copy vpt 0 270 arc closepath fill
	vpt 0 360 arc closepath} bind def
/C8 {BL [] 0 setdash 2 copy moveto
	2 copy vpt 270 360 arc closepath fill
	vpt 0 360 arc closepath} bind def
/C9 {BL [] 0 setdash 2 copy moveto
	2 copy vpt 270 450 arc closepath fill
	vpt 0 360 arc closepath} bind def
/C10 {BL [] 0 setdash 2 copy 2 copy moveto vpt 270 360 arc closepath fill
	2 copy moveto
	2 copy vpt 90 180 arc closepath fill
	vpt 0 360 arc closepath} bind def
/C11 {BL [] 0 setdash 2 copy moveto
	2 copy vpt 0 180 arc closepath fill
	2 copy moveto
	2 copy vpt 270 360 arc closepath fill
	vpt 0 360 arc closepath} bind def
/C12 {BL [] 0 setdash 2 copy moveto
	2 copy vpt 180 360 arc closepath fill
	vpt 0 360 arc closepath} bind def
/C13 {BL [] 0 setdash 2 copy moveto
	2 copy vpt 0 90 arc closepath fill
	2 copy moveto
	2 copy vpt 180 360 arc closepath fill
	vpt 0 360 arc closepath} bind def
/C14 {BL [] 0 setdash 2 copy moveto
	2 copy vpt 90 360 arc closepath fill
	vpt 0 360 arc} bind def
/C15 {BL [] 0 setdash 2 copy vpt 0 360 arc closepath fill
	vpt 0 360 arc closepath} bind def
/Rec {newpath 4 2 roll moveto 1 index 0 rlineto 0 exch rlineto
	neg 0 rlineto closepath} bind def
/Square {dup Rec} bind def
/Bsquare {vpt sub exch vpt sub exch vpt2 Square} bind def
/S0 {BL [] 0 setdash 2 copy moveto 0 vpt rlineto BL Bsquare} bind def
/S1 {BL [] 0 setdash 2 copy vpt Square fill Bsquare} bind def
/S2 {BL [] 0 setdash 2 copy exch vpt sub exch vpt Square fill Bsquare} bind def
/S3 {BL [] 0 setdash 2 copy exch vpt sub exch vpt2 vpt Rec fill Bsquare} bind def
/S4 {BL [] 0 setdash 2 copy exch vpt sub exch vpt sub vpt Square fill Bsquare} bind def
/S5 {BL [] 0 setdash 2 copy 2 copy vpt Square fill
	exch vpt sub exch vpt sub vpt Square fill Bsquare} bind def
/S6 {BL [] 0 setdash 2 copy exch vpt sub exch vpt sub vpt vpt2 Rec fill Bsquare} bind def
/S7 {BL [] 0 setdash 2 copy exch vpt sub exch vpt sub vpt vpt2 Rec fill
	2 copy vpt Square fill Bsquare} bind def
/S8 {BL [] 0 setdash 2 copy vpt sub vpt Square fill Bsquare} bind def
/S9 {BL [] 0 setdash 2 copy vpt sub vpt vpt2 Rec fill Bsquare} bind def
/S10 {BL [] 0 setdash 2 copy vpt sub vpt Square fill 2 copy exch vpt sub exch vpt Square fill
	Bsquare} bind def
/S11 {BL [] 0 setdash 2 copy vpt sub vpt Square fill 2 copy exch vpt sub exch vpt2 vpt Rec fill
	Bsquare} bind def
/S12 {BL [] 0 setdash 2 copy exch vpt sub exch vpt sub vpt2 vpt Rec fill Bsquare} bind def
/S13 {BL [] 0 setdash 2 copy exch vpt sub exch vpt sub vpt2 vpt Rec fill
	2 copy vpt Square fill Bsquare} bind def
/S14 {BL [] 0 setdash 2 copy exch vpt sub exch vpt sub vpt2 vpt Rec fill
	2 copy exch vpt sub exch vpt Square fill Bsquare} bind def
/S15 {BL [] 0 setdash 2 copy Bsquare fill Bsquare} bind def
/D0 {gsave translate 45 rotate 0 0 S0 stroke grestore} bind def
/D1 {gsave translate 45 rotate 0 0 S1 stroke grestore} bind def
/D2 {gsave translate 45 rotate 0 0 S2 stroke grestore} bind def
/D3 {gsave translate 45 rotate 0 0 S3 stroke grestore} bind def
/D4 {gsave translate 45 rotate 0 0 S4 stroke grestore} bind def
/D5 {gsave translate 45 rotate 0 0 S5 stroke grestore} bind def
/D6 {gsave translate 45 rotate 0 0 S6 stroke grestore} bind def
/D7 {gsave translate 45 rotate 0 0 S7 stroke grestore} bind def
/D8 {gsave translate 45 rotate 0 0 S8 stroke grestore} bind def
/D9 {gsave translate 45 rotate 0 0 S9 stroke grestore} bind def
/D10 {gsave translate 45 rotate 0 0 S10 stroke grestore} bind def
/D11 {gsave translate 45 rotate 0 0 S11 stroke grestore} bind def
/D12 {gsave translate 45 rotate 0 0 S12 stroke grestore} bind def
/D13 {gsave translate 45 rotate 0 0 S13 stroke grestore} bind def
/D14 {gsave translate 45 rotate 0 0 S14 stroke grestore} bind def
/D15 {gsave translate 45 rotate 0 0 S15 stroke grestore} bind def
/DiaE {stroke [] 0 setdash vpt add M
  hpt neg vpt neg V hpt vpt neg V
  hpt vpt V hpt neg vpt V closepath stroke} def
/BoxE {stroke [] 0 setdash exch hpt sub exch vpt add M
  0 vpt2 neg V hpt2 0 V 0 vpt2 V
  hpt2 neg 0 V closepath stroke} def
/TriUE {stroke [] 0 setdash vpt 1.12 mul add M
  hpt neg vpt -1.62 mul V
  hpt 2 mul 0 V
  hpt neg vpt 1.62 mul V closepath stroke} def
/TriDE {stroke [] 0 setdash vpt 1.12 mul sub M
  hpt neg vpt 1.62 mul V
  hpt 2 mul 0 V
  hpt neg vpt -1.62 mul V closepath stroke} def
/PentE {stroke [] 0 setdash gsave
  translate 0 hpt M 4 {72 rotate 0 hpt L} repeat
  closepath stroke grestore} def
/CircE {stroke [] 0 setdash 
  hpt 0 360 arc stroke} def
/Opaque {gsave closepath 1 setgray fill grestore 0 setgray closepath} def
/DiaW {stroke [] 0 setdash vpt add M
  hpt neg vpt neg V hpt vpt neg V
  hpt vpt V hpt neg vpt V Opaque stroke} def
/BoxW {stroke [] 0 setdash exch hpt sub exch vpt add M
  0 vpt2 neg V hpt2 0 V 0 vpt2 V
  hpt2 neg 0 V Opaque stroke} def
/TriUW {stroke [] 0 setdash vpt 1.12 mul add M
  hpt neg vpt -1.62 mul V
  hpt 2 mul 0 V
  hpt neg vpt 1.62 mul V Opaque stroke} def
/TriDW {stroke [] 0 setdash vpt 1.12 mul sub M
  hpt neg vpt 1.62 mul V
  hpt 2 mul 0 V
  hpt neg vpt -1.62 mul V Opaque stroke} def
/PentW {stroke [] 0 setdash gsave
  translate 0 hpt M 4 {72 rotate 0 hpt L} repeat
  Opaque stroke grestore} def
/CircW {stroke [] 0 setdash 
  hpt 0 360 arc Opaque stroke} def
/BoxFill {gsave Rec 1 setgray fill grestore} def
/Density {
  /Fillden exch def
  currentrgbcolor
  /ColB exch def /ColG exch def /ColR exch def
  /ColR ColR Fillden mul Fillden sub 1 add def
  /ColG ColG Fillden mul Fillden sub 1 add def
  /ColB ColB Fillden mul Fillden sub 1 add def
  ColR ColG ColB setrgbcolor} def
/BoxColFill {gsave Rec PolyFill} def
/PolyFill {gsave Density fill grestore grestore} def
/h {rlineto rlineto rlineto gsave closepath fill grestore} bind def
%
% PostScript Level 1 Pattern Fill routine for rectangles
% Usage: x y w h s a XX PatternFill
%	x,y = lower left corner of box to be filled
%	w,h = width and height of box
%	  a = angle in degrees between lines and x-axis
%	 XX = 0/1 for no/yes cross-hatch
%
/PatternFill {gsave /PFa [ 9 2 roll ] def
  PFa 0 get PFa 2 get 2 div add PFa 1 get PFa 3 get 2 div add translate
  PFa 2 get -2 div PFa 3 get -2 div PFa 2 get PFa 3 get Rec
  TransparentPatterns {} {gsave 1 setgray fill grestore} ifelse
  clip
  currentlinewidth 0.5 mul setlinewidth
  /PFs PFa 2 get dup mul PFa 3 get dup mul add sqrt def
  0 0 M PFa 5 get rotate PFs -2 div dup translate
  0 1 PFs PFa 4 get div 1 add floor cvi
	{PFa 4 get mul 0 M 0 PFs V} for
  0 PFa 6 get ne {
	0 1 PFs PFa 4 get div 1 add floor cvi
	{PFa 4 get mul 0 2 1 roll M PFs 0 V} for
 } if
  stroke grestore} def
%
/languagelevel where
 {pop languagelevel} {1} ifelse
dup 2 lt
	{/InterpretLevel1 true def
	 /InterpretLevel3 false def}
	{/InterpretLevel1 Level1 def
	 2 gt
	    {/InterpretLevel3 Level3 def}
	    {/InterpretLevel3 false def}
	 ifelse }
 ifelse
%
% PostScript level 2 pattern fill definitions
%
/Level2PatternFill {
/Tile8x8 {/PaintType 2 /PatternType 1 /TilingType 1 /BBox [0 0 8 8] /XStep 8 /YStep 8}
	bind def
/KeepColor {currentrgbcolor [/Pattern /DeviceRGB] setcolorspace} bind def
<< Tile8x8
 /PaintProc {0.5 setlinewidth pop 0 0 M 8 8 L 0 8 M 8 0 L stroke} 
>> matrix makepattern
/Pat1 exch def
<< Tile8x8
 /PaintProc {0.5 setlinewidth pop 0 0 M 8 8 L 0 8 M 8 0 L stroke
	0 4 M 4 8 L 8 4 L 4 0 L 0 4 L stroke}
>> matrix makepattern
/Pat2 exch def
<< Tile8x8
 /PaintProc {0.5 setlinewidth pop 0 0 M 0 8 L
	8 8 L 8 0 L 0 0 L fill}
>> matrix makepattern
/Pat3 exch def
<< Tile8x8
 /PaintProc {0.5 setlinewidth pop -4 8 M 8 -4 L
	0 12 M 12 0 L stroke}
>> matrix makepattern
/Pat4 exch def
<< Tile8x8
 /PaintProc {0.5 setlinewidth pop -4 0 M 8 12 L
	0 -4 M 12 8 L stroke}
>> matrix makepattern
/Pat5 exch def
<< Tile8x8
 /PaintProc {0.5 setlinewidth pop -2 8 M 4 -4 L
	0 12 M 8 -4 L 4 12 M 10 0 L stroke}
>> matrix makepattern
/Pat6 exch def
<< Tile8x8
 /PaintProc {0.5 setlinewidth pop -2 0 M 4 12 L
	0 -4 M 8 12 L 4 -4 M 10 8 L stroke}
>> matrix makepattern
/Pat7 exch def
<< Tile8x8
 /PaintProc {0.5 setlinewidth pop 8 -2 M -4 4 L
	12 0 M -4 8 L 12 4 M 0 10 L stroke}
>> matrix makepattern
/Pat8 exch def
<< Tile8x8
 /PaintProc {0.5 setlinewidth pop 0 -2 M 12 4 L
	-4 0 M 12 8 L -4 4 M 8 10 L stroke}
>> matrix makepattern
/Pat9 exch def
/Pattern1 {PatternBgnd KeepColor Pat1 setpattern} bind def
/Pattern2 {PatternBgnd KeepColor Pat2 setpattern} bind def
/Pattern3 {PatternBgnd KeepColor Pat3 setpattern} bind def
/Pattern4 {PatternBgnd KeepColor Landscape {Pat5} {Pat4} ifelse setpattern} bind def
/Pattern5 {PatternBgnd KeepColor Landscape {Pat4} {Pat5} ifelse setpattern} bind def
/Pattern6 {PatternBgnd KeepColor Landscape {Pat9} {Pat6} ifelse setpattern} bind def
/Pattern7 {PatternBgnd KeepColor Landscape {Pat8} {Pat7} ifelse setpattern} bind def
} def
%
%
%End of PostScript Level 2 code
%
/PatternBgnd {
  TransparentPatterns {} {gsave 1 setgray fill grestore} ifelse
} def
%
% Substitute for Level 2 pattern fill codes with
% grayscale if Level 2 support is not selected.
%
/Level1PatternFill {
/Pattern1 {0.250 Density} bind def
/Pattern2 {0.500 Density} bind def
/Pattern3 {0.750 Density} bind def
/Pattern4 {0.125 Density} bind def
/Pattern5 {0.375 Density} bind def
/Pattern6 {0.625 Density} bind def
/Pattern7 {0.875 Density} bind def
} def
%
% Now test for support of Level 2 code
%
Level1 {Level1PatternFill} {Level2PatternFill} ifelse
%
/Symbol-Oblique /Symbol findfont [1 0 .167 1 0 0] makefont
dup length dict begin {1 index /FID eq {pop pop} {def} ifelse} forall
currentdict end definefont pop
%
/MFshow {
   { dup 5 get 3 ge
     { 5 get 3 eq {gsave} {grestore} ifelse }
     {dup dup 0 get findfont exch 1 get scalefont setfont
     [ currentpoint ] exch dup 2 get 0 exch R dup 5 get 2 ne {dup dup 6
     get exch 4 get {textshow} {stringwidth pop 0 R} ifelse }if dup 5 get 0 eq
     {dup 3 get {2 get neg 0 exch R pop} {pop aload pop M} ifelse} {dup 5
     get 1 eq {dup 2 get exch dup 3 get exch 6 get stringwidth pop -2 div
     dup 0 R} {dup 6 get stringwidth pop -2 div 0 R 6 get
     textshow 2 index {aload pop M neg 3 -1 roll neg R pop pop} {pop pop pop
     pop aload pop M} ifelse }ifelse }ifelse }
     ifelse }
   forall} def
/Gswidth {dup type /stringtype eq {stringwidth} {pop (n) stringwidth} ifelse} def
/MFwidth {0 exch { dup 5 get 3 ge { 5 get 3 eq { 0 } { pop } ifelse }
 {dup 3 get{dup dup 0 get findfont exch 1 get scalefont setfont
     6 get Gswidth pop add} {pop} ifelse} ifelse} forall} def
/MLshow { currentpoint stroke M
  0 exch R
  Blacktext {gsave 0 setgray MFshow grestore} {MFshow} ifelse } bind def
/MRshow { currentpoint stroke M
  exch dup MFwidth neg 3 -1 roll R
  Blacktext {gsave 0 setgray MFshow grestore} {MFshow} ifelse } bind def
/MCshow { currentpoint stroke M
  exch dup MFwidth -2 div 3 -1 roll R
  Blacktext {gsave 0 setgray MFshow grestore} {MFshow} ifelse } bind def
/XYsave    { [( ) 1 2 true false 3 ()] } bind def
/XYrestore { [( ) 1 2 true false 4 ()] } bind def
Level1 SuppressPDFMark or 
{} {
/SDict 10 dict def
systemdict /pdfmark known not {
  userdict /pdfmark systemdict /cleartomark get put
} if
SDict begin [
  /Title (TcpHighSpeed-cwnd-1Mbps-UE4.eps)
  /Subject (gnuplot plot)
  /Creator (gnuplot 5.0 patchlevel 3)
  /Author (nat)
%  /Producer (gnuplot)
%  /Keywords ()
  /CreationDate (Tue May 24 14:35:46 2016)
  /DOCINFO pdfmark
end
} ifelse
%
% Support for boxed text - Ethan A Merritt May 2005
%
/InitTextBox { userdict /TBy2 3 -1 roll put userdict /TBx2 3 -1 roll put
           userdict /TBy1 3 -1 roll put userdict /TBx1 3 -1 roll put
	   /Boxing true def } def
/ExtendTextBox { Boxing
    { gsave dup false charpath pathbbox
      dup TBy2 gt {userdict /TBy2 3 -1 roll put} {pop} ifelse
      dup TBx2 gt {userdict /TBx2 3 -1 roll put} {pop} ifelse
      dup TBy1 lt {userdict /TBy1 3 -1 roll put} {pop} ifelse
      dup TBx1 lt {userdict /TBx1 3 -1 roll put} {pop} ifelse
      grestore } if } def
/PopTextBox { newpath TBx1 TBxmargin sub TBy1 TBymargin sub M
               TBx1 TBxmargin sub TBy2 TBymargin add L
	       TBx2 TBxmargin add TBy2 TBymargin add L
	       TBx2 TBxmargin add TBy1 TBymargin sub L closepath } def
/DrawTextBox { PopTextBox stroke /Boxing false def} def
/FillTextBox { gsave PopTextBox 1 1 1 setrgbcolor fill grestore /Boxing false def} def
0 0 0 0 InitTextBox
/TBxmargin 20 def
/TBymargin 20 def
/Boxing false def
/textshow { ExtendTextBox Gshow } def
%
% redundant definitions for compatibility with prologue.ps older than 5.0.2
/LTB {BL [] LCb DL} def
/LTb {PL [] LCb DL} def
end
%%EndProlog
%%Page: 1 1
gnudict begin
gsave
doclip
50 50 translate
0.050 0.050 scale
0 setgray
newpath
(Arial) findfont 200 scalefont setfont
BackgroundColor 0 lt 3 1 roll 0 lt exch 0 lt or or not {BackgroundColor C 1.000 0 0 7200.00 5040.00 BoxColFill} if
1.000 UL
LTb
0.00 0.00 0.00 C 0.500 UL
LTa
0.50 0.50 0.50 C 1220 820 M
5619 0 V
stroke
1.000 UL
LTb
0.00 0.00 0.00 C 1220 820 M
63 0 V
5556 0 R
-63 0 V
stroke
1100 820 M
[ [(Arial) 200.0 0.0 true true 0 ( 1)]
] -66.7 MRshow
1.000 UL
LTb
0.00 0.00 0.00 C 1220 1119 M
31 0 V
5588 0 R
-31 0 V
1220 1295 M
31 0 V
5588 0 R
-31 0 V
1220 1419 M
31 0 V
5588 0 R
-31 0 V
-5588 96 R
31 0 V
5588 0 R
-31 0 V
-5588 79 R
31 0 V
5588 0 R
-31 0 V
-5588 67 R
31 0 V
5588 0 R
-31 0 V
-5588 57 R
31 0 V
5588 0 R
-31 0 V
-5588 51 R
31 0 V
5588 0 R
-31 0 V
stroke
0.500 UL
LTa
0.50 0.50 0.50 C 1220 1815 M
5619 0 V
stroke
1.000 UL
LTb
0.00 0.00 0.00 C 1220 1815 M
63 0 V
5556 0 R
-63 0 V
stroke
1100 1815 M
[ [(Arial) 200.0 0.0 true true 0 ( 10)]
] -66.7 MRshow
1.000 UL
LTb
0.00 0.00 0.00 C 1220 2114 M
31 0 V
5588 0 R
-31 0 V
1220 2289 M
31 0 V
5588 0 R
-31 0 V
1220 2414 M
31 0 V
5588 0 R
-31 0 V
-5588 96 R
31 0 V
5588 0 R
-31 0 V
-5588 79 R
31 0 V
5588 0 R
-31 0 V
-5588 66 R
31 0 V
5588 0 R
-31 0 V
-5588 58 R
31 0 V
5588 0 R
-31 0 V
-5588 51 R
31 0 V
5588 0 R
-31 0 V
stroke
0.500 UL
LTa
0.50 0.50 0.50 C 1220 2810 M
5619 0 V
stroke
1.000 UL
LTb
0.00 0.00 0.00 C 1220 2810 M
63 0 V
5556 0 R
-63 0 V
stroke
1100 2810 M
[ [(Arial) 200.0 0.0 true true 0 ( 100)]
] -66.7 MRshow
1.000 UL
LTb
0.00 0.00 0.00 C 1220 3109 M
31 0 V
5588 0 R
-31 0 V
1220 3284 M
31 0 V
5588 0 R
-31 0 V
1220 3408 M
31 0 V
5588 0 R
-31 0 V
-5588 97 R
31 0 V
5588 0 R
-31 0 V
-5588 79 R
31 0 V
5588 0 R
-31 0 V
-5588 66 R
31 0 V
5588 0 R
-31 0 V
-5588 58 R
31 0 V
5588 0 R
-31 0 V
-5588 51 R
31 0 V
5588 0 R
-31 0 V
stroke
0.500 UL
LTa
0.50 0.50 0.50 C 1220 3804 M
5619 0 V
stroke
1.000 UL
LTb
0.00 0.00 0.00 C 1220 3804 M
63 0 V
5556 0 R
-63 0 V
stroke
1100 3804 M
[ [(Arial) 200.0 0.0 true true 0 ( 1000)]
] -66.7 MRshow
1.000 UL
LTb
0.00 0.00 0.00 C 1220 4104 M
31 0 V
5588 0 R
-31 0 V
1220 4279 M
31 0 V
5588 0 R
-31 0 V
1220 4403 M
31 0 V
5588 0 R
-31 0 V
-5588 97 R
31 0 V
5588 0 R
-31 0 V
-5588 78 R
31 0 V
5588 0 R
-31 0 V
-5588 67 R
31 0 V
5588 0 R
-31 0 V
-5588 58 R
31 0 V
5588 0 R
-31 0 V
-5588 50 R
31 0 V
5588 0 R
-31 0 V
stroke
0.500 UL
LTa
0.50 0.50 0.50 C 1220 4799 M
5619 0 V
stroke
1.000 UL
LTb
0.00 0.00 0.00 C 1220 4799 M
63 0 V
5556 0 R
-63 0 V
stroke
1100 4799 M
[ [(Arial) 200.0 0.0 true true 0 ( 10000)]
] -66.7 MRshow
1.000 UL
LTb
0.00 0.00 0.00 C 0.500 UL
LTa
0.50 0.50 0.50 C 1220 820 M
0 3979 V
stroke
1.000 UL
LTb
0.00 0.00 0.00 C 1220 820 M
0 63 V
0 3916 R
0 -63 V
stroke
1220 620 M
[ [(Arial) 200.0 0.0 true true 0 ( 4)]
] -66.7 MCshow
1.000 UL
LTb
0.00 0.00 0.00 C 0.500 UL
LTa
0.50 0.50 0.50 C 2023 820 M
0 3979 V
stroke
1.000 UL
LTb
0.00 0.00 0.00 C 2023 820 M
0 63 V
0 3916 R
0 -63 V
stroke
2023 620 M
[ [(Arial) 200.0 0.0 true true 0 ( 6)]
] -66.7 MCshow
1.000 UL
LTb
0.00 0.00 0.00 C 0.500 UL
LTa
0.50 0.50 0.50 C 2825 820 M
0 3979 V
stroke
1.000 UL
LTb
0.00 0.00 0.00 C 2825 820 M
0 63 V
0 3916 R
0 -63 V
stroke
2825 620 M
[ [(Arial) 200.0 0.0 true true 0 ( 8)]
] -66.7 MCshow
1.000 UL
LTb
0.00 0.00 0.00 C 0.500 UL
LTa
0.50 0.50 0.50 C 3628 820 M
0 3979 V
stroke
1.000 UL
LTb
0.00 0.00 0.00 C 3628 820 M
0 63 V
0 3916 R
0 -63 V
stroke
3628 620 M
[ [(Arial) 200.0 0.0 true true 0 ( 10)]
] -66.7 MCshow
1.000 UL
LTb
0.00 0.00 0.00 C 0.500 UL
LTa
0.50 0.50 0.50 C 4431 820 M
0 3979 V
stroke
1.000 UL
LTb
0.00 0.00 0.00 C 4431 820 M
0 63 V
0 3916 R
0 -63 V
stroke
4431 620 M
[ [(Arial) 200.0 0.0 true true 0 ( 12)]
] -66.7 MCshow
1.000 UL
LTb
0.00 0.00 0.00 C 0.500 UL
LTa
0.50 0.50 0.50 C 5234 820 M
0 3979 V
stroke
1.000 UL
LTb
0.00 0.00 0.00 C 5234 820 M
0 63 V
0 3916 R
0 -63 V
stroke
5234 620 M
[ [(Arial) 200.0 0.0 true true 0 ( 14)]
] -66.7 MCshow
1.000 UL
LTb
0.00 0.00 0.00 C 0.500 UL
LTa
0.50 0.50 0.50 C 6036 820 M
0 3979 V
stroke
1.000 UL
LTb
0.00 0.00 0.00 C 6036 820 M
0 63 V
0 3916 R
0 -63 V
stroke
6036 620 M
[ [(Arial) 200.0 0.0 true true 0 ( 16)]
] -66.7 MCshow
1.000 UL
LTb
0.00 0.00 0.00 C 0.500 UL
LTa
0.50 0.50 0.50 C 6839 820 M
0 3979 V
stroke
1.000 UL
LTb
0.00 0.00 0.00 C 6839 820 M
0 63 V
0 3916 R
0 -63 V
stroke
6839 620 M
[ [(Arial) 200.0 0.0 true true 0 ( 18)]
] -66.7 MCshow
1.000 UL
LTb
0.00 0.00 0.00 C 1.000 UL
LTB
0.00 0.00 0.00 C 1220 4799 M
0 -3979 V
5619 0 V
0 3979 R
-5619 0 R
1.000 UP
stroke
LTb
0.00 0.00 0.00 C LCb setrgbcolor
160 2809 M
currentpoint gsave translate -270 rotate 0 0 moveto
[ [(Arial) 200.0 0.0 true true 0 (cWnd \(KB\))]
] -66.7 MCshow
grestore
LTb
LCb setrgbcolor
4029 320 M
[ [(Arial) 200.0 0.0 true true 0 (Time \(s\))]
] -66.7 MCshow
LTb
% Begin plot #1
1.000 UL
LTa
0.60 0.60 0.00 C 4929 1246 M
14 175 V
13 124 V
14 97 V
0 79 V
14 66 V
0 58 V
0 51 V
13 45 V
0 41 V
0 38 V
0 35 V
17 32 V
0 29 V
0 28 V
0 26 V
0 25 V
0 23 V
16 23 V
0 21 V
0 20 V
0 19 V
0 18 V
0 18 V
0 17 V
0 16 V
0 16 V
17 15 V
0 15 V
0 14 V
0 14 V
0 13 V
0 13 V
0 12 V
0 13 V
0 11 V
0 12 V
0 11 V
0 11 V
0 11 V
0 10 V
13 10 V
4 10 V
0 10 V
0 9 V
0 10 V
0 9 V
0 9 V
0 8 V
0 9 V
0 8 V
0 9 V
0 8 V
0 8 V
0 7 V
0 8 V
0 8 V
0 7 V
0 7 V
0 7 V
0 7 V
0 7 V
10 7 V
3 7 V
0 6 V
0 7 V
0 6 V
4 7 V
0 6 V
0 6 V
0 6 V
0 6 V
0 6 V
0 6 V
0 5 V
0 6 V
0 6 V
0 5 V
0 6 V
0 5 V
0 5 V
0 5 V
0 6 V
0 5 V
0 5 V
0 5 V
0 5 V
0 5 V
0 4 V
0 5 V
0 5 V
0 5 V
0 4 V
7 5 V
0 4 V
3 5 V
0 4 V
0 5 V
3 4 V
0 4 V
0 4 V
0 5 V
0 4 V
0 4 V
0 4 V
stroke 5094 2961 M
4 4 V
0 4 V
0 4 V
0 4 V
0 4 V
0 4 V
0 4 V
0 4 V
0 3 V
0 4 V
0 4 V
0 3 V
0 4 V
1 4 V
0 3 V
0 4 V
0 3 V
0 4 V
0 3 V
0 4 V
0 3 V
0 4 V
0 3 V
0 3 V
0 4 V
0 3 V
3 3 V
0 3 V
0 4 V
0 3 V
0 3 V
0 3 V
0 3 V
0 3 V
0 3 V
0 3 V
0 3 V
1 3 V
0 3 V
0 3 V
0 3 V
0 3 V
2 3 V
1 3 V
0 3 V
0 3 V
0 3 V
0 2 V
0 3 V
0 3 V
2 3 V
0 3 V
0 2 V
7 3 V
0 3 V
0 2 V
0 3 V
0 3 V
0 2 V
0 3 V
0 2 V
0 3 V
0 3 V
0 2 V
0 3 V
0 2 V
0 3 V
0 2 V
0 3 V
0 2 V
0 3 V
0 2 V
0 2 V
0 3 V
0 2 V
0 3 V
0 2 V
1 2 V
0 3 V
0 2 V
0 2 V
1 3 V
0 2 V
0 2 V
0 2 V
0 3 V
0 2 V
0 2 V
0 2 V
1 3 V
0 2 V
0 2 V
0 2 V
1 2 V
0 3 V
0 2 V
0 2 V
0 2 V
0 2 V
0 2 V
0 2 V
1 2 V
0 2 V
0 2 V
stroke 5120 3256 M
0 3 V
0 2 V
1 2 V
0 2 V
0 2 V
0 2 V
0 2 V
0 2 V
0 2 V
0 2 V
0 2 V
1 1 V
0 2 V
0 2 V
0 2 V
0 2 V
0 2 V
0 2 V
1 2 V
0 2 V
0 2 V
0 2 V
0 1 V
0 2 V
0 2 V
0 2 V
0 2 V
0 2 V
3 1 V
0 2 V
0 2 V
0 2 V
3 2 V
0 1 V
0 2 V
0 2 V
0 2 V
0 1 V
0 2 V
0 2 V
0 2 V
0 1 V
0 2 V
0 2 V
0 1 V
0 2 V
0 2 V
0 1 V
0 2 V
5 2 V
0 1 V
0 2 V
0 2 V
0 1 V
0 2 V
0 2 V
0 1 V
0 2 V
0 1 V
0 2 V
0 2 V
0 1 V
0 2 V
0 1 V
0 2 V
0 2 V
0 1 V
0 2 V
0 1 V
0 2 V
0 1 V
0 2 V
0 1 V
0 2 V
0 1 V
5 2 V
0 1 V
0 2 V
0 1 V
0 2 V
0 1 V
0 2 V
0 1 V
0 2 V
0 1 V
0 2 V
0 1 V
0 2 V
0 1 V
0 2 V
0 1 V
0 1 V
0 2 V
0 1 V
0 2 V
0 1 V
0 2 V
0 1 V
0 1 V
0 2 V
0 1 V
0 1 V
0 2 V
0 1 V
stroke 5139 3430 M
0 2 V
0 1 V
0 1 V
0 2 V
0 1 V
0 1 V
2 2 V
0 1 V
0 1 V
0 2 V
0 1 V
0 1 V
0 2 V
0 1 V
0 1 V
0 2 V
0 1 V
0 1 V
0 2 V
0 1 V
0 1 V
0 2 V
0 1 V
0 1 V
0 1 V
0 2 V
0 1 V
0 1 V
2 1 V
0 2 V
0 1 V
0 1 V
0 1 V
0 2 V
0 1 V
0 1 V
0 1 V
0 2 V
0 1 V
0 1 V
0 1 V
0 1 V
0 2 V
0 1 V
0 1 V
0 1 V
0 2 V
0 1 V
1 1 V
0 1 V
0 1 V
0 1 V
0 2 V
0 1 V
0 1 V
1 1 V
0 1 V
0 1 V
0 2 V
0 1 V
0 1 V
0 1 V
6 1 V
0 1 V
0 2 V
0 1 V
0 1 V
0 1 V
0 1 V
0 1 V
0 1 V
0 1 V
0 2 V
0 1 V
0 1 V
0 1 V
0 1 V
0 1 V
0 1 V
0 1 V
0 1 V
0 1 V
0 2 V
0 1 V
0 1 V
0 1 V
0 1 V
0 1 V
0 1 V
0 1 V
0 1 V
0 1 V
0 1 V
0 1 V
0 1 V
0 2 V
0 1 V
1 1 V
0 1 V
0 1 V
0 1 V
0 1 V
0 1 V
0 1 V
stroke 5152 3554 M
1 1 V
0 1 V
0 1 V
0 1 V
0 1 V
0 1 V
0 1 V
0 1 V
0 1 V
0 1 V
1 1 V
0 1 V
0 1 V
0 1 V
0 1 V
0 1 V
0 1 V
1 1 V
0 1 V
0 1 V
0 1 V
0 1 V
0 1 V
0 1 V
0 1 V
0 1 V
0 1 V
1 1 V
0 1 V
0 1 V
6 1 V
0 1 V
0 1 V
0 1 V
0 1 V
0 1 V
0 1 V
0 1 V
0 1 V
0 1 V
0 1 V
0 1 V
0 1 V
0 1 V
0 1 V
0 1 V
0 1 V
0 1 V
0 1 V
0 1 V
0 1 V
0 1 V
0 1 V
0 1 V
0 1 V
0 1 V
0 -197 V
0 2 V
0 1 V
0 2 V
0 1 V
0 2 V
0 1 V
0 1 V
0 2 V
0 1 V
0 1 V
0 2 V
0 1 V
0 2 V
0 1 V
0 1 V
0 2 V
0 1 V
0 1 V
0 2 V
6 1 V
0 1 V
0 2 V
0 1 V
0 1 V
0 2 V
0 1 V
0 1 V
0 2 V
0 1 V
0 1 V
0 2 V
0 1 V
0 1 V
0 2 V
0 1 V
0 1 V
0 1 V
0 2 V
0 1 V
0 1 V
0 1 V
0 2 V
0 1 V
0 1 V
0 1 V
0 2 V
0 1 V
stroke 5168 3476 M
0 1 V
0 1 V
0 2 V
0 1 V
0 1 V
0 1 V
0 1 V
0 2 V
0 1 V
0 1 V
0 1 V
0 2 V
0 1 V
0 1 V
0 1 V
0 1 V
0 1 V
0 2 V
5 1 V
0 1 V
0 1 V
0 1 V
0 1 V
0 2 V
0 1 V
0 1 V
0 1 V
0 1 V
0 1 V
0 2 V
0 1 V
0 1 V
0 1 V
0 1 V
0 1 V
0 1 V
0 1 V
0 2 V
0 1 V
0 1 V
0 1 V
0 1 V
0 1 V
0 1 V
0 1 V
0 1 V
0 1 V
0 2 V
0 1 V
0 1 V
0 1 V
0 1 V
0 1 V
0 1 V
0 1 V
0 1 V
0 1 V
0 1 V
0 1 V
0 1 V
0 2 V
0 1 V
0 1 V
0 1 V
0 1 V
0 1 V
0 1 V
0 1 V
0 1 V
0 1 V
1 1 V
0 1 V
0 1 V
0 1 V
0 1 V
0 1 V
0 1 V
0 1 V
0 1 V
0 1 V
0 1 V
0 1 V
0 1 V
0 1 V
0 1 V
1 1 V
0 1 V
0 1 V
0 1 V
0 1 V
0 1 V
0 1 V
0 1 V
0 1 V
1 1 V
0 1 V
0 1 V
0 1 V
0 1 V
0 1 V
0 1 V
0 1 V
0 1 V
0 1 V
stroke 5176 3589 M
0 1 V
0 1 V
0 1 V
0 1 V
0 1 V
0 1 V
1 1 V
0 1 V
0 1 V
0 1 V
0 1 V
0 1 V
0 1 V
0 1 V
0 1 V
0 1 V
0 1 V
0 1 V
0 1 V
1 1 V
0 1 V
0 1 V
0 1 V
0 1 V
0 1 V
0 1 V
0 1 V
0 1 V
0 1 V
0 1 V
0 1 V
0 1 V
0 1 V
0 1 V
0 1 V
0 1 V
0 1 V
1 1 V
0 1 V
0 1 V
0 1 V
0 1 V
0 1 V
6 1 V
0 1 V
0 1 V
0 1 V
0 1 V
0 1 V
0 1 V
0 1 V
0 1 V
0 1 V
0 1 V
0 1 V
0 1 V
0 1 V
0 1 V
0 1 V
0 1 V
0 1 V
0 1 V
0 1 V
0 1 V
0 1 V
0 1 V
0 1 V
0 1 V
0 1 V
0 1 V
0 1 V
0 1 V
0 1 V
0 1 V
0 1 V
0 1 V
0 1 V
0 1 V
0 1 V
0 1 V
0 1 V
0 1 V
0 1 V
0 1 V
1 1 V
0 1 V
0 1 V
0 1 V
0 1 V
0 1 V
0 1 V
0 1 V
0 1 V
0 1 V
1 0 V
0 1 V
0 1 V
0 1 V
0 1 V
0 1 V
0 1 V
0 1 V
1 1 V
0 1 V
stroke 5188 3692 M
0 1 V
0 1 V
0 1 V
0 1 V
0 1 V
0 1 V
0 1 V
0 1 V
0 1 V
0 1 V
0 1 V
0 1 V
0 1 V
1 1 V
0 1 V
0 1 V
0 1 V
0 1 V
0 1 V
0 1 V
0 1 V
0 1 V
0 1 V
1 1 V
0 1 V
0 1 V
0 1 V
0 1 V
0 1 V
0 1 V
0 1 V
0 1 V
0 1 V
0 1 V
0 1 V
0 1 V
0 1 V
1 1 V
0 1 V
0 1 V
0 1 V
0 1 V
0 1 V
0 1 V
0 1 V
0 1 V
1 1 V
0 1 V
0 1 V
0 1 V
0 1 V
0 1 V
0 1 V
0 1 V
0 1 V
6 1 V
0 1 V
0 1 V
0 1 V
0 1 V
0 1 V
0 1 V
0 1 V
0 1 V
0 1 V
0 1 V
0 1 V
0 1 V
0 1 V
0 1 V
0 1 V
0 1 V
0 1 V
0 1 V
0 1 V
0 1 V
0 1 V
0 1 V
0 1 V
0 1 V
0 1 V
0 1 V
0 1 V
0 1 V
0 1 V
4 1 V
0 1 V
0 1 V
0 1 V
0 1 V
0 1 V
0 1 V
0 1 V
0 1 V
0 1 V
0 1 V
0 1 V
0 1 V
0 1 V
0 1 V
0 1 V
0 1 V
0 1 V
0 1 V
stroke 5202 3796 M
0 1 V
0 1 V
0 1 V
0 1 V
0 1 V
0 1 V
0 1 V
0 1 V
0 1 V
0 1 V
1 0 V
0 1 V
0 1 V
1 1 V
0 1 V
6 1 V
0 1 V
0 1 V
0 1 V
0 1 V
0 1 V
0 1 V
0 1 V
0 1 V
0 1 V
0 1 V
0 1 V
0 1 V
0 1 V
0 1 V
0 1 V
0 1 V
0 1 V
0 1 V
0 1 V
0 1 V
0 1 V
0 1 V
0 1 V
0 1 V
0 1 V
0 1 V
0 1 V
0 1 V
0 1 V
0 1 V
0 1 V
0 1 V
0 1 V
0 1 V
1 0 V
0 1 V
0 1 V
0 1 V
0 1 V
0 1 V
1 1 V
0 1 V
0 1 V
0 1 V
0 1 V
0 1 V
0 1 V
0 1 V
0 1 V
0 1 V
1 1 V
0 1 V
0 1 V
0 1 V
0 1 V
0 1 V
0 1 V
0 1 V
6 0 V
0 1 V
0 1 V
0 1 V
0 1 V
0 1 V
0 1 V
0 1 V
0 1 V
0 1 V
0 1 V
0 1 V
0 1 V
0 1 V
0 1 V
0 1 V
0 1 V
0 1 V
0 1 V
0 1 V
0 1 V
0 1 V
0 1 V
0 1 V
1 1 V
0 1 V
0 1 V
1 0 V
0 1 V
0 1 V
stroke 5221 3896 M
1 0 V
0 1 V
0 1 V
1 0 V
0 1 V
0 1 V
0 1 V
0 1 V
0 1 V
0 1 V
1 0 V
0 1 V
0 1 V
0 1 V
0 1 V
0 1 V
0 1 V
6 1 V
0 1 V
0 1 V
0 1 V
0 1 V
0 1 V
0 1 V
0 1 V
0 1 V
0 1 V
0 1 V
0 1 V
0 1 V
0 1 V
0 1 V
0 1 V
0 1 V
0 1 V
0 1 V
0 1 V
0 1 V
0 1 V
0 1 V
6 0 V
0 1 V
0 1 V
0 1 V
0 1 V
0 1 V
0 1 V
0 1 V
0 1 V
0 1 V
0 1 V
0 1 V
0 1 V
0 1 V
0 1 V
1 0 V
0 1 V
0 1 V
1 0 V
0 1 V
1 1 V
0 1 V
0 1 V
1 0 V
0 1 V
1 0 V
0 1 V
0 1 V
1 0 V
0 1 V
0 1 V
0 1 V
0 1 V
1 0 V
0 1 V
0 1 V
0 1 V
0 1 V
0 1 V
0 1 V
0 1 V
0 1 V
1 0 V
0 1 V
0 1 V
0 1 V
0 1 V
0 1 V
1 0 V
0 1 V
0 1 V
0 1 V
0 1 V
0 1 V
0 1 V
0 1 V
0 1 V
1 0 V
0 1 V
0 1 V
0 1 V
0 1 V
0 1 V
1 0 V
stroke 5247 3986 M
0 1 V
0 1 V
0 1 V
0 1 V
0 1 V
6 0 V
0 1 V
0 1 V
0 1 V
0 1 V
0 1 V
0 1 V
0 1 V
0 1 V
0 1 V
0 1 V
0 1 V
0 1 V
0 1 V
0 1 V
0 1 V
0 1 V
0 1 V
0 1 V
0 1 V
0 1 V
0 1 V
1 0 V
0 1 V
0 1 V
0 1 V
0 1 V
1 0 V
0 1 V
0 1 V
0 1 V
0 1 V
0 1 V
1 0 V
0 1 V
0 1 V
0 1 V
1 1 V
0 1 V
0 1 V
0 1 V
0 1 V
1 1 V
0 1 V
0 1 V
0 1 V
1 0 V
0 1 V
0 1 V
0 1 V
0 1 V
0 1 V
1 0 V
0 1 V
0 1 V
0 1 V
1 0 V
0 1 V
0 1 V
0 1 V
0 1 V
0 1 V
1 0 V
0 1 V
0 1 V
6 0 V
0 1 V
0 1 V
0 1 V
0 1 V
0 1 V
0 1 V
0 1 V
0 1 V
0 1 V
0 1 V
0 1 V
0 1 V
0 1 V
0 1 V
0 1 V
0 1 V
0 1 V
0 1 V
0 1 V
0 1 V
1 1 V
0 1 V
0 1 V
0 1 V
0 1 V
0 1 V
0 1 V
0 1 V
1 0 V
0 1 V
0 1 V
0 1 V
0 1 V
stroke 5270 4080 M
1 1 V
0 1 V
0 1 V
0 1 V
0 1 V
0 1 V
1 1 V
0 1 V
0 1 V
0 1 V
1 1 V
0 1 V
0 1 V
0 1 V
0 1 V
0 1 V
0 1 V
1 0 V
0 1 V
0 1 V
0 1 V
6 1 V
0 1 V
0 1 V
0 1 V
0 1 V
0 1 V
0 1 V
0 1 V
0 1 V
0 1 V
0 1 V
0 1 V
0 1 V
0 1 V
0 1 V
0 1 V
0 1 V
0 1 V
0 1 V
1 0 V
0 1 V
0 1 V
0 1 V
0 1 V
0 1 V
1 0 V
0 1 V
0 1 V
0 1 V
0 1 V
1 0 V
0 1 V
0 1 V
0 1 V
0 1 V
1 0 V
0 1 V
0 1 V
0 1 V
0 1 V
0 1 V
1 0 V
0 1 V
0 1 V
0 1 V
0 1 V
1 0 V
0 1 V
0 1 V
0 1 V
0 1 V
0 1 V
1 0 V
0 1 V
0 1 V
0 1 V
0 1 V
1 0 V
0 1 V
0 1 V
0 1 V
6 0 V
0 1 V
0 1 V
0 1 V
0 1 V
0 1 V
4 0 V
0 1 V
0 1 V
0 1 V
0 1 V
0 1 V
0 1 V
0 1 V
0 1 V
0 1 V
0 1 V
0 1 V
1 0 V
0 1 V
0 1 V
0 1 V
stroke 5299 4172 M
1 0 V
0 1 V
0 1 V
0 1 V
0 1 V
1 1 V
0 1 V
0 1 V
0 1 V
6 0 V
0 1 V
0 1 V
0 1 V
0 1 V
0 1 V
0 1 V
0 1 V
0 1 V
0 1 V
0 1 V
1 0 V
0 1 V
0 1 V
0 1 V
0 1 V
0 1 V
0 1 V
0 1 V
1 0 V
0 1 V
0 1 V
0 1 V
1 0 V
0 1 V
0 1 V
0 1 V
0 1 V
0 1 V
1 0 V
0 1 V
0 1 V
0 1 V
1 0 V
0 1 V
0 1 V
0 1 V
0 1 V
6 0 V
0 1 V
0 1 V
0 1 V
0 1 V
0 1 V
0 1 V
0 1 V
0 1 V
0 1 V
0 1 V
0 1 V
0 1 V
1 0 V
0 1 V
1 1 V
0 1 V
0 1 V
1 0 V
0 1 V
0 1 V
1 0 V
0 1 V
0 1 V
0 1 V
1 0 V
0 1 V
1 1 V
0 1 V
0 1 V
1 0 V
0 1 V
0 1 V
1 0 V
0 1 V
0 1 V
0 1 V
1 0 V
0 1 V
1 1 V
0 1 V
0 1 V
1 0 V
0 1 V
0 1 V
1 0 V
0 1 V
0 1 V
1 1 V
0 1 V
1 0 V
0 1 V
0 1 V
0 1 V
1 0 V
0 1 V
1 1 V
stroke 5334 4257 M
0 1 V
0 1 V
1 0 V
0 1 V
0 1 V
1 0 V
0 1 V
0 1 V
1 0 V
0 1 V
0 1 V
1 0 V
0 1 V
0 1 V
1 1 V
0 1 V
1 0 V
0 1 V
0 1 V
0 1 V
1 0 V
0 1 V
1 0 V
0 1 V
0 1 V
0 1 V
1 0 V
0 1 V
1 0 V
0 1 V
0 1 V
1 0 V
0 1 V
0 1 V
6 0 V
0 1 V
0 1 V
0 1 V
0 1 V
0 1 V
0 1 V
1 0 V
0 1 V
1 0 V
1 1 V
1 0 V
0 1 V
1 1 V
0 1 V
1 0 V
0 1 V
0 1 V
1 0 V
0 1 V
0 1 V
1 0 V
0 1 V
0 1 V
1 1 V
0 1 V
1 0 V
0 1 V
0 1 V
1 0 V
0 1 V
0 1 V
1 0 V
0 1 V
0 1 V
1 0 V
0 1 V
0 1 V
1 0 V
0 1 V
0 1 V
1 1 V
0 1 V
1 0 V
0 1 V
0 1 V
1 0 V
0 1 V
0 1 V
1 0 V
0 1 V
3 0 V
0 1 V
0 1 V
0 1 V
0 1 V
0 1 V
1 0 V
0 1 V
0 1 V
0 1 V
0 1 V
1 0 V
0 1 V
0 1 V
1 1 V
0 1 V
0 1 V
1 0 V
0 1 V
stroke 5376 4332 M
0 1 V
1 0 V
0 1 V
0 1 V
0 1 V
0 1 V
1 0 V
0 1 V
0 1 V
1 0 V
0 1 V
0 1 V
0 1 V
1 0 V
0 1 V
0 1 V
0 1 V
1 0 V
0 1 V
0 1 V
0 1 V
1 0 V
0 1 V
0 1 V
1 0 V
6 0 V
0 1 V
0 1 V
0 1 V
0 1 V
0 1 V
0 1 V
0 1 V
0 1 V
1 1 V
1 0 V
0 1 V
0 1 V
1 0 V
0 1 V
1 0 V
0 1 V
0 1 V
1 0 V
0 1 V
0 1 V
1 0 V
0 1 V
0 1 V
1 1 V
6 0 V
0 1 V
0 1 V
0 1 V
0 1 V
0 1 V
0 1 V
0 1 V
0 1 V
0 1 V
0 1 V
0 1 V
0 1 V
1 0 V
0 1 V
1 1 V
0 1 V
0 1 V
1 1 V
0 1 V
0 1 V
1 0 V
0 1 V
0 1 V
0 1 V
1 0 V
0 1 V
1 1 V
0 1 V
0 1 V
0 1 V
1 0 V
0 1 V
6 1 V
0 1 V
4 0 V
0 1 V
0 1 V
0 1 V
0 1 V
0 1 V
0 1 V
0 1 V
0 1 V
0 1 V
2 1 V
0 1 V
0 1 V
0 1 V
0 1 V
0 1 V
0 1 V
43 0 V
0 1 V
stroke 5464 4416 M
0 1 V
0 1 V
0 1 V
0 1 V
0 1 V
0 1 V
0 1 V
0 1 V
0 1 V
0 1 V
0 1 V
0 1 V
0 1 V
0 1 V
0 1 V
0 1 V
0 1 V
0 1 V
0 1 V
0 1 V
14 0 V
0 1 V
0 1 V
0 1 V
0 1 V
5 0 V
0 1 V
0 1 V
0 1 V
0 1 V
0 1 V
0 1 V
0 1 V
0 1 V
9 0 V
0 1 V
0 1 V
0 1 V
1 0 V
6 0 V
0 1 V
0 1 V
0 1 V
0 1 V
0 1 V
0 1 V
1 0 V
0 1 V
2 0 V
3 0 V
0 1 V
0 1 V
0 1 V
0 1 V
8 1 V
3 0 V
0 1 V
0 1 V
0 1 V
0 1 V
0 1 V
0 1 V
0 1 V
1 1 V
0 1 V
0 1 V
1 0 V
12 0 V
0 1 V
3 0 V
0 1 V
0 1 V
0 1 V
0 1 V
0 1 V
6 1 V
0 1 V
0 1 V
0 1 V
0 1 V
1 0 V
3 0 V
4 0 V
0 1 V
3 0 V
0 1 V
0 1 V
0 1 V
0 1 V
0 1 V
5563 946 L
35 300 V
17 175 V
0 124 V
16 97 V
0 79 V
0 66 V
17 58 V
14 51 V
0 45 V
6063 946 L
57 300 V
16 175 V
0 124 V
14 97 V
0 79 V
16 66 V
17 58 V
16 51 V
16 45 V
0 146 V
17 29 V
16 28 V
17 509 V
17 9 V
0 238 V
16 5 V
3 4 V
0 35 V
1 -236 V
0 7 V
0 7 V
0 7 V
0 7 V
0 7 V
0 7 V
0 6 V
0 7 V
0 6 V
0 7 V
0 6 V
1 6 V
0 6 V
0 6 V
0 6 V
0 6 V
0 5 V
0 6 V
0 6 V
0 5 V
0 6 V
0 5 V
0 5 V
0 5 V
0 6 V
0 5 V
0 5 V
0 5 V
0 5 V
0 5 V
0 4 V
1 5 V
0 5 V
0 5 V
0 4 V
8 5 V
0 4 V
3 5 V
0 4 V
0 5 V
0 4 V
0 4 V
0 4 V
0 5 V
0 4 V
0 4 V
0 4 V
0 4 V
0 4 V
0 4 V
0 4 V
0 4 V
0 4 V
0 4 V
0 4 V
0 3 V
0 4 V
0 4 V
0 3 V
0 4 V
0 4 V
0 3 V
0 4 V
0 3 V
0 4 V
0 3 V
0 4 V
0 3 V
0 4 V
0 3 V
0 -7 V
0 4 V
0 -7 V
0 3 V
0 -7 V
0 4 V
1 -7 V
0 3 V
0 -7 V
0 4 V
0 -7 V
0 3 V
0 -7 V
0 4 V
0 -7 V
stroke 6316 3015 M
0 3 V
1 -7 V
0 4 V
0 -8 V
0 4 V
0 -7 V
0 3 V
0 -7 V
0 4 V
0 -8 V
0 4 V
0 -7 V
0 3 V
0 -7 V
0 4 V
0 -8 V
0 4 V
1 -8 V
0 4 V
0 -8 V
0 4 V
0 -8 V
0 4 V
0 -8 V
0 4 V
0 -8 V
0 4 V
1 -8 V
0 4 V
0 -8 V
0 4 V
0 -8 V
0 4 V
0 -8 V
0 4 V
0 -9 V
0 5 V
0 -9 V
0 4 V
6 -8 V
0 4 V
0 -8 V
0 4 V
0 -9 V
0 5 V
0 -9 V
0 4 V
0 -9 V
0 5 V
0 -9 V
0 4 V
0 -9 V
0 5 V
0 -9 V
0 4 V
0 -9 V
0 5 V
0 -10 V
0 5 V
0 -10 V
0 5 V
0 -9 V
0 4 V
0 -9 V
0 5 V
0 -10 V
0 5 V
0 -10 V
0 5 V
0 -10 V
0 5 V
0 -10 V
0 5 V
0 -11 V
0 6 V
0 -11 V
0 5 V
0 -5 V
0 5 V
0 6 V
0 5 V
0 5 V
1 5 V
0 5 V
1 5 V
0 4 V
0 5 V
0 5 V
0 5 V
0 4 V
2 5 V
5 4 V
0 5 V
0 4 V
0 5 V
0 4 V
0 4 V
0 4 V
0 5 V
0 4 V
0 4 V
0 4 V
0 4 V
0 4 V
stroke 6334 2969 M
0 4 V
0 4 V
0 4 V
0 4 V
0 4 V
0 4 V
0 3 V
0 4 V
0 4 V
0 3 V
0 4 V
0 4 V
0 3 V
0 4 V
0 3 V
0 4 V
0 3 V
0 4 V
0 3 V
0 4 V
0 3 V
0 3 V
0 4 V
0 3 V
0 3 V
0 3 V
0 4 V
0 3 V
0 3 V
0 3 V
0 3 V
0 3 V
0 3 V
0 3 V
0 3 V
0 3 V
0 3 V
0 3 V
0 3 V
0 3 V
0 3 V
0 3 V
0 3 V
0 3 V
0 3 V
0 2 V
0 3 V
0 3 V
0 3 V
0 3 V
0 2 V
0 3 V
0 3 V
0 2 V
0 3 V
0 3 V
0 2 V
2 3 V
0 2 V
0 3 V
0 3 V
0 2 V
0 3 V
0 2 V
0 3 V
6 2 V
0 3 V
0 2 V
0 3 V
0 2 V
0 2 V
0 3 V
0 2 V
0 3 V
0 2 V
0 2 V
0 3 V
0 2 V
0 2 V
0 3 V
0 2 V
0 2 V
0 2 V
0 3 V
0 2 V
0 2 V
0 2 V
0 3 V
0 2 V
0 2 V
0 2 V
0 2 V
0 3 V
0 2 V
0 2 V
0 -2 V
0 2 V
0 2 V
0 2 V
0 2 V
0 2 V
0 2 V
0 2 V
0 2 V
stroke 6342 3256 M
0 3 V
0 2 V
0 2 V
0 2 V
0 2 V
0 2 V
3 2 V
0 2 V
0 2 V
2 2 V
0 2 V
0 1 V
0 2 V
0 2 V
0 2 V
0 2 V
0 2 V
0 2 V
0 2 V
0 2 V
0 2 V
0 2 V
1 1 V
0 2 V
0 2 V
0 2 V
0 2 V
0 2 V
0 1 V
0 2 V
0 2 V
5 2 V
0 2 V
0 1 V
0 2 V
0 2 V
0 2 V
0 1 V
0 2 V
0 2 V
0 2 V
0 1 V
0 2 V
0 2 V
0 1 V
0 2 V
0 2 V
0 1 V
0 2 V
0 2 V
0 1 V
0 2 V
0 2 V
0 1 V
0 2 V
0 2 V
0 1 V
0 2 V
0 1 V
0 2 V
0 2 V
0 1 V
0 2 V
0 1 V
0 2 V
0 2 V
0 1 V
0 2 V
0 1 V
0 2 V
0 1 V
0 2 V
0 1 V
0 2 V
0 1 V
0 2 V
0 1 V
0 2 V
0 1 V
0 2 V
0 1 V
0 2 V
0 1 V
0 2 V
0 1 V
1 2 V
0 1 V
0 2 V
0 1 V
0 2 V
0 1 V
6 1 V
0 2 V
0 1 V
0 2 V
0 1 V
0 2 V
0 1 V
0 1 V
0 2 V
0 1 V
0 1 V
0 2 V
0 1 V
stroke 6360 3430 M
0 2 V
0 1 V
0 1 V
0 2 V
0 1 V
0 1 V
0 2 V
0 1 V
0 1 V
0 2 V
0 -2 V
0 2 V
0 1 V
0 1 V
0 2 V
0 1 V
0 1 V
0 2 V
0 1 V
0 1 V
0 2 V
0 1 V
0 1 V
0 2 V
0 1 V
0 1 V
0 1 V
0 2 V
0 1 V
0 1 V
5 1 V
0 2 V
0 1 V
0 1 V
0 1 V
0 2 V
0 1 V
0 1 V
0 1 V
0 2 V
0 1 V
0 1 V
0 1 V
0 1 V
0 2 V
0 1 V
0 1 V
0 1 V
0 2 V
0 1 V
0 1 V
0 1 V
0 1 V
0 1 V
0 2 V
0 1 V
0 1 V
0 1 V
0 1 V
0 1 V
0 2 V
0 1 V
0 1 V
0 1 V
0 1 V
0 1 V
0 2 V
0 1 V
0 1 V
0 1 V
0 1 V
0 1 V
0 1 V
0 1 V
1 2 V
0 1 V
0 1 V
0 1 V
0 1 V
0 1 V
0 1 V
0 1 V
0 1 V
0 1 V
0 2 V
0 1 V
0 1 V
0 1 V
0 1 V
0 1 V
0 1 V
0 1 V
0 1 V
0 1 V
0 1 V
0 1 V
0 1 V
6 2 V
0 1 V
0 1 V
0 1 V
0 1 V
0 1 V
0 1 V
stroke 6372 3552 M
0 1 V
0 1 V
0 1 V
0 1 V
0 1 V
0 1 V
0 1 V
4 1 V
0 1 V
0 1 V
0 1 V
0 1 V
0 1 V
0 1 V
0 1 V
0 1 V
0 1 V
0 1 V
0 1 V
0 1 V
0 1 V
0 1 V
0 1 V
0 1 V
0 1 V
0 1 V
0 1 V
0 1 V
0 1 V
0 1 V
0 -1 V
0 1 V
0 1 V
0 1 V
0 1 V
0 1 V
0 1 V
0 1 V
0 1 V
0 1 V
0 1 V
0 1 V
0 1 V
0 1 V
0 1 V
0 1 V
0 1 V
0 1 V
0 1 V
0 1 V
0 1 V
1 1 V
0 1 V
0 1 V
0 1 V
1 0 V
0 1 V
0 1 V
0 1 V
0 1 V
1 1 V
0 1 V
0 1 V
0 1 V
1 1 V
0 1 V
0 1 V
0 1 V
0 1 V
0 1 V
0 1 V
0 1 V
1 1 V
0 1 V
0 1 V
0 1 V
0 1 V
0 1 V
0 1 V
0 1 V
0 1 V
0 1 V
1 1 V
0 1 V
0 1 V
0 1 V
0 1 V
0 1 V
0 1 V
0 1 V
0 1 V
0 1 V
0 1 V
0 1 V
0 1 V
0 1 V
0 1 V
0 1 V
0 1 V
1 1 V
0 1 V
0 1 V
0 1 V
0 1 V
stroke 6383 3653 M
0 1 V
0 1 V
0 1 V
0 1 V
0 1 V
0 1 V
0 1 V
1 0 V
0 1 V
0 1 V
0 1 V
0 1 V
0 1 V
0 1 V
0 1 V
0 1 V
0 1 V
8 1 V
0 1 V
0 1 V
0 1 V
0 1 V
0 1 V
0 1 V
0 1 V
0 1 V
0 1 V
0 1 V
0 1 V
0 1 V
0 1 V
0 1 V
0 1 V
0 1 V
0 1 V
0 -1 V
0 1 V
0 1 V
0 1 V
0 1 V
0 1 V
0 1 V
0 1 V
0 1 V
0 1 V
0 1 V
0 1 V
0 1 V
0 1 V
0 1 V
0 1 V
0 1 V
0 1 V
1 1 V
0 1 V
0 1 V
0 1 V
0 1 V
0 1 V
0 1 V
1 1 V
0 1 V
0 1 V
0 1 V
0 1 V
0 1 V
0 1 V
0 1 V
0 1 V
0 1 V
0 1 V
1 0 V
0 1 V
0 1 V
0 1 V
0 1 V
0 1 V
0 1 V
0 1 V
1 1 V
0 1 V
0 1 V
0 1 V
0 1 V
0 1 V
0 1 V
0 1 V
0 1 V
0 1 V
0 1 V
1 1 V
0 1 V
0 1 V
0 1 V
0 1 V
0 1 V
0 1 V
1 1 V
0 1 V
0 1 V
0 1 V
0 1 V
0 1 V
0 1 V
stroke 6398 3753 M
0 1 V
0 1 V
0 1 V
0 1 V
0 1 V
11 0 V
0 1 V
0 1 V
0 1 V
0 1 V
0 1 V
0 1 V
0 1 V
0 1 V
0 1 V
0 1 V
0 1 V
0 1 V
0 1 V
0 1 V
0 -1 V
0 1 V
0 1 V
0 1 V
0 1 V
0 1 V
0 1 V
0 1 V
0 1 V
0 1 V
0 1 V
0 1 V
0 1 V
0 1 V
0 1 V
0 1 V
0 1 V
0 1 V
1 0 V
0 1 V
0 1 V
0 1 V
0 1 V
0 1 V
0 1 V
1 0 V
0 1 V
0 1 V
0 1 V
0 1 V
0 1 V
0 1 V
0 1 V
0 1 V
0 1 V
0 1 V
1 0 V
0 1 V
0 1 V
0 1 V
0 1 V
0 1 V
0 1 V
0 1 V
1 1 V
0 1 V
0 1 V
0 1 V
0 1 V
0 1 V
0 1 V
0 1 V
6 0 V
0 1 V
0 1 V
0 1 V
0 1 V
0 1 V
0 1 V
0 1 V
0 1 V
0 1 V
0 1 V
0 1 V
0 1 V
1 1 V
3 1 V
0 1 V
4 0 V
0 1 V
0 1 V
0 1 V
0 1 V
0 1 V
0 1 V
0 1 V
0 1 V
0 1 V
0 1 V
0 1 V
0 1 V
0 1 V
0 1 V
0 1 V
stroke 6427 3849 M
0 1 V
0 1 V
0 1 V
0 1 V
0 1 V
0 1 V
0 1 V
0 1 V
0 1 V
0 1 V
0 1 V
0 1 V
0 1 V
0 1 V
0 1 V
0 1 V
0 1 V
1 0 V
0 1 V
0 1 V
0 1 V
0 1 V
0 1 V
0 1 V
0 1 V
1 0 V
0 1 V
0 1 V
0 1 V
0 1 V
0 1 V
0 1 V
6 0 V
0 1 V
0 1 V
0 1 V
0 1 V
0 1 V
0 1 V
0 1 V
0 1 V
0 1 V
0 1 V
0 1 V
0 1 V
0 1 V
0 1 V
0 1 V
0 1 V
0 1 V
2 0 V
0 1 V
2 0 V
5 1 V
0 1 V
0 1 V
0 1 V
0 1 V
0 1 V
0 1 V
0 1 V
0 1 V
0 1 V
0 1 V
0 1 V
0 1 V
0 1 V
0 1 V
0 1 V
0 1 V
0 1 V
0 1 V
0 1 V
0 1 V
0 1 V
0 1 V
0 1 V
0 1 V
1 0 V
0 1 V
0 1 V
0 1 V
0 1 V
0 1 V
0 1 V
0 1 V
0 1 V
0 1 V
1 0 V
0 1 V
0 1 V
0 1 V
0 1 V
0 1 V
1 0 V
0 1 V
0 1 V
0 1 V
0 1 V
0 1 V
0 1 V
0 1 V
0 1 V
1 0 V
stroke 6448 3944 M
0 1 V
0 1 V
0 1 V
0 1 V
0 1 V
0 1 V
1 0 V
0 1 V
0 1 V
0 1 V
1 0 V
10 0 V
0 1 V
0 1 V
0 1 V
0 1 V
0 1 V
0 1 V
0 1 V
0 -1275 V
0 176 V
1 5 V
6 5 V
10 5 V
4 5 V
13 5 V
1 4 V
16 5 V
0 5 V
13 5 V
4 4 V
10 5 V
7 4 V
6 5 V
12 4 V
5 5 V
12 4 V
5 4 V
11 4 V
6 5 V
11 4 V
6 4 V
11 4 V
6 4 V
11 4 V
6 4 V
11 4 V
5 4 V
12 4 V
5 4 V
11 4 V
6 3 V
11 4 V
7 4 V
56 3 V
0 4 V
14 4 V
0 -2195 V
% End plot #1
% Begin plot #2
2.000 UP
stroke
LTa
0.60 0.60 0.00 C 4929 1246 Box
5211 3849 Box
5308 4191 Box
5402 4380 Box
6325 2890 Box
6449 3953 Box
% End plot #2
% Begin plot #3
2.000 UP
1.000 UL
LTa
0.60 0.60 0.00 C LCb setrgbcolor
2774 153 M
[ [(Arial) 180.0 0.0 true true 0 (olsr)]
] -60.0 MRshow
2.000 UP
1.000 UL
LTa
0.60 0.60 0.00 C 2882 153 M
333 0 V
4929 1246 M
4929 1246 Box
3048 153 Box
% End plot #3
% Begin plot #4
1.000 UL
LTb
LT1
0.00 0.00 0.63 C 1314 1246 M
14 175 V
13 124 V
14 97 V
0 79 V
14 66 V
0 58 V
0 51 V
13 45 V
0 41 V
0 38 V
0 35 V
14 32 V
0 29 V
0 28 V
0 26 V
0 25 V
0 23 V
14 23 V
0 21 V
0 20 V
0 19 V
0 18 V
0 18 V
0 17 V
0 16 V
0 16 V
13 15 V
0 15 V
0 14 V
0 14 V
0 13 V
0 13 V
0 12 V
0 13 V
0 11 V
0 12 V
0 11 V
0 11 V
0 11 V
0 10 V
17 10 V
0 10 V
0 10 V
0 9 V
0 10 V
0 9 V
0 9 V
0 8 V
0 9 V
0 8 V
0 9 V
0 8 V
0 8 V
0 7 V
0 8 V
0 8 V
0 7 V
0 7 V
0 7 V
0 7 V
0 7 V
16 7 V
0 7 V
0 6 V
0 7 V
0 6 V
0 7 V
0 6 V
0 6 V
0 6 V
0 6 V
0 6 V
0 6 V
0 5 V
0 6 V
0 6 V
0 5 V
0 6 V
0 5 V
0 5 V
0 5 V
0 6 V
0 5 V
0 5 V
5 5 V
0 5 V
0 5 V
0 4 V
0 5 V
0 5 V
0 5 V
0 4 V
12 5 V
0 4 V
0 5 V
0 4 V
0 5 V
0 4 V
0 4 V
0 4 V
0 5 V
0 4 V
0 4 V
0 4 V
stroke 1473 2961 M
0 4 V
0 4 V
0 4 V
0 4 V
0 4 V
0 4 V
0 4 V
0 4 V
0 3 V
0 4 V
0 4 V
0 3 V
0 4 V
0 4 V
0 3 V
0 4 V
0 3 V
0 4 V
0 3 V
0 4 V
0 3 V
0 4 V
0 3 V
0 3 V
0 4 V
0 3 V
0 3 V
0 3 V
0 4 V
0 3 V
0 3 V
1 3 V
0 3 V
0 3 V
0 3 V
16 3 V
0 3 V
0 3 V
0 3 V
0 3 V
0 3 V
0 3 V
0 3 V
0 3 V
0 3 V
0 3 V
0 3 V
0 2 V
0 3 V
0 3 V
0 3 V
0 3 V
0 2 V
0 3 V
0 3 V
0 2 V
1 3 V
0 3 V
0 2 V
0 3 V
0 2 V
0 3 V
0 3 V
0 2 V
0 3 V
0 2 V
0 3 V
0 2 V
0 3 V
0 2 V
0 3 V
0 2 V
0 2 V
0 3 V
0 2 V
0 3 V
0 2 V
0 2 V
1 3 V
0 2 V
0 2 V
0 3 V
0 2 V
0 2 V
0 2 V
1 3 V
0 2 V
0 2 V
0 2 V
0 3 V
0 2 V
0 2 V
0 2 V
0 2 V
1 3 V
0 2 V
0 2 V
0 2 V
0 2 V
0 2 V
0 2 V
0 2 V
1 2 V
0 2 V
stroke 1495 3256 M
0 3 V
12 2 V
0 2 V
0 2 V
0 2 V
0 2 V
0 2 V
0 2 V
0 2 V
0 2 V
0 2 V
0 1 V
0 2 V
0 2 V
0 2 V
0 2 V
0 2 V
0 2 V
0 2 V
0 2 V
0 2 V
0 2 V
6 1 V
0 2 V
0 2 V
0 2 V
0 2 V
0 2 V
0 1 V
0 2 V
0 2 V
0 2 V
0 2 V
0 1 V
0 2 V
0 2 V
0 2 V
0 1 V
0 2 V
0 2 V
0 2 V
1 1 V
0 2 V
1 2 V
0 1 V
1 2 V
8 2 V
0 1 V
0 2 V
0 2 V
0 1 V
0 2 V
0 2 V
0 1 V
0 2 V
0 2 V
0 1 V
0 2 V
0 1 V
0 2 V
0 2 V
0 1 V
0 2 V
0 1 V
0 2 V
0 2 V
0 1 V
0 2 V
1 1 V
42 2 V
0 1 V
0 2 V
0 1 V
0 2 V
0 1 V
0 2 V
0 1 V
0 2 V
0 1 V
0 2 V
0 1 V
0 2 V
0 1 V
0 2 V
0 1 V
0 2 V
0 1 V
41 2 V
0 1 V
0 2 V
0 1 V
0 1 V
0 2 V
0 1 V
0 2 V
0 1 V
0 2 V
0 1 V
0 1 V
0 2 V
0 1 V
0 1 V
0 2 V
0 1 V
stroke 1608 3430 M
0 2 V
0 1 V
0 1 V
0 2 V
0 1 V
0 1 V
0 2 V
0 1 V
0 1 V
0 2 V
0 1 V
0 1 V
0 2 V
0 1 V
0 1 V
0 2 V
0 1 V
0 1 V
0 2 V
0 1 V
0 1 V
0 2 V
0 1 V
0 1 V
0 1 V
0 2 V
0 1 V
0 1 V
0 1 V
0 2 V
0 1 V
0 1 V
0 1 V
0 2 V
0 1 V
0 1 V
0 1 V
0 2 V
0 1 V
0 1 V
0 1 V
0 1 V
0 2 V
0 1 V
0 1 V
0 1 V
0 2 V
0 1 V
0 1 V
0 1 V
0 1 V
0 1 V
0 2 V
0 1 V
0 1 V
0 1 V
0 1 V
0 1 V
0 2 V
0 1 V
0 1 V
0 1 V
0 1 V
0 1 V
0 2 V
0 1 V
0 1 V
0 1 V
0 1 V
0 1 V
0 1 V
0 1 V
0 2 V
0 1 V
0 1 V
0 1 V
0 1 V
0 1 V
0 1 V
0 1 V
0 1 V
0 1 V
0 2 V
0 1 V
0 1 V
0 1 V
0 1 V
0 1 V
0 1 V
0 1 V
0 1 V
0 1 V
0 1 V
0 1 V
0 1 V
0 2 V
0 1 V
0 1 V
0 1 V
0 1 V
16 1 V
1 1 V
0 1 V
0 1 V
stroke 1625 3554 M
0 1 V
0 1 V
0 1 V
0 1 V
0 1 V
0 1 V
0 1 V
0 1 V
0 1 V
0 1 V
0 1 V
0 1 V
0 1 V
0 1 V
0 1 V
0 1 V
0 1 V
0 1 V
0 1 V
0 1 V
0 1 V
0 1 V
6 1 V
0 1 V
0 1 V
0 1 V
0 1 V
0 1 V
0 1 V
0 1 V
0 1 V
0 1 V
0 1 V
0 1 V
0 1 V
0 1 V
0 1 V
0 1 V
0 1 V
0 1 V
0 1 V
0 1 V
0 1 V
0 1 V
0 1 V
0 1 V
0 1 V
0 1 V
0 1 V
0 1 V
0 1 V
0 1 V
1 1 V
0 1 V
0 1 V
0 1 V
0 1 V
0 1 V
1 1 V
0 1 V
0 1 V
46 0 V
40 1 V
0 1 V
0 1 V
0 1 V
0 1 V
0 1 V
0 1 V
0 1 V
0 1 V
1 1 V
0 1 V
0 1 V
0 1 V
0 1 V
0 1 V
0 1 V
0 1 V
0 1 V
0 1 V
0 1 V
0 1 V
0 1 V
0 1 V
0 1 V
0 1 V
0 1 V
0 1 V
0 1 V
0 1 V
0 1 V
0 1 V
0 1 V
0 1 V
0 1 V
0 1 V
0 1 V
0 1 V
0 1 V
0 1 V
0 1 V
0 1 V
0 1 V
stroke 1720 3657 M
0 1 V
0 1 V
0 1 V
0 1 V
0 1 V
0 1 V
0 1 V
0 1 V
0 1 V
0 1 V
0 1 V
0 1 V
0 1 V
0 1 V
0 1 V
0 -184 V
0 1 V
0 2 V
0 1 V
0 1 V
0 1 V
0 1 V
0 1 V
0 2 V
0 1 V
0 1 V
0 1 V
0 1 V
0 1 V
0 2 V
0 1 V
0 1 V
0 1 V
0 1 V
0 1 V
0 2 V
0 1 V
0 1 V
0 1 V
0 1 V
0 1 V
0 1 V
0 1 V
0 2 V
0 1 V
0 1 V
0 1 V
0 1 V
0 1 V
0 1 V
0 1 V
0 1 V
0 1 V
0 2 V
0 1 V
0 1 V
0 1 V
0 1 V
0 1 V
0 1 V
0 1 V
0 1 V
0 1 V
0 1 V
0 1 V
0 1 V
0 2 V
0 1 V
0 1 V
0 1 V
0 1 V
0 1 V
0 1 V
0 1 V
0 1 V
0 1 V
0 1 V
0 1 V
0 1 V
0 1 V
0 1 V
0 1 V
0 1 V
0 1 V
0 1 V
0 1 V
0 1 V
0 1 V
0 1 V
0 1 V
0 1 V
0 1 V
0 1 V
0 1 V
0 1 V
0 1 V
0 1 V
0 1 V
0 1 V
0 1 V
0 1 V
0 1 V
0 1 V
0 1 V
stroke 1720 3583 M
0 1 V
0 1 V
0 1 V
0 1 V
0 1 V
0 1 V
0 1 V
0 1 V
0 1 V
0 1 V
0 1 V
0 1 V
0 1 V
0 1 V
0 1 V
0 1 V
0 1 V
0 1 V
0 1 V
0 1 V
0 1 V
0 1 V
0 1 V
0 1 V
0 1 V
0 1 V
0 1 V
0 1 V
0 1 V
0 1 V
0 1 V
0 1 V
0 1 V
0 1 V
0 1 V
0 1 V
0 1 V
0 1 V
0 1 V
0 1 V
0 1 V
0 1 V
0 1 V
0 1 V
0 1 V
0 1 V
0 1 V
0 1 V
0 1 V
0 1 V
0 1 V
0 1 V
0 1 V
0 1 V
0 1 V
0 1 V
0 1 V
0 1 V
0 1 V
0 1 V
0 1 V
0 1 V
0 1 V
0 1 V
0 1 V
0 1 V
0 1 V
0 1 V
0 1 V
0 1 V
0 1 V
0 1 V
0 1 V
0 1 V
0 1 V
0 1 V
0 1 V
0 1 V
0 1 V
0 1 V
0 1 V
0 1 V
0 1 V
0 1 V
0 1 V
0 1 V
0 1 V
0 1 V
0 1 V
16 1 V
0 1 V
0 1 V
0 1 V
0 1 V
0 1 V
0 1 V
0 1 V
0 1 V
0 1 V
1 1 V
0 1 V
0 1 V
0 1 V
0 1 V
stroke 1737 3687 M
0 1 V
0 1 V
0 1 V
0 1 V
0 1 V
0 1 V
0 1 V
0 1 V
0 1 V
0 1 V
0 1 V
0 1 V
0 1 V
0 1 V
0 1 V
0 1 V
0 1 V
0 1 V
0 1 V
0 1 V
0 1 V
0 1 V
0 1 V
6 1 V
0 1 V
0 1 V
0 1 V
0 1 V
0 1 V
0 1 V
0 1 V
0 1 V
0 1 V
0 1 V
0 1 V
0 1 V
0 1 V
0 1 V
0 1 V
0 1 V
0 1 V
0 1 V
0 1 V
0 1 V
0 1 V
0 1 V
0 1 V
0 1 V
0 1 V
0 1 V
0 1 V
0 1 V
0 1 V
0 1 V
0 1 V
0 1 V
0 1 V
0 1 V
0 1 V
0 1 V
0 1 V
0 1 V
1 0 V
0 1 V
0 1 V
1 0 V
0 1 V
0 1 V
0 1 V
0 1 V
0 1 V
0 1 V
0 1 V
1 0 V
0 1 V
0 1 V
0 1 V
0 1 V
0 1 V
0 1 V
0 1 V
0 1 V
0 1 V
1 0 V
0 1 V
0 1 V
0 1 V
0 1 V
1 1 V
0 1 V
0 1 V
0 1 V
1 1 V
0 1 V
0 1 V
0 1 V
0 1 V
1 0 V
0 1 V
0 1 V
0 1 V
0 1 V
0 1 V
0 1 V
stroke 1750 3786 M
1 0 V
0 1 V
0 1 V
0 1 V
0 1 V
0 1 V
1 0 V
0 1 V
0 1 V
0 1 V
0 1 V
0 1 V
0 1 V
0 1 V
0 1 V
1 0 V
0 1 V
0 1 V
1 1 V
0 1 V
0 1 V
0 1 V
0 1 V
0 1 V
6 1 V
0 1 V
0 1 V
0 1 V
0 1 V
0 -1 V
0 1 V
0 1 V
0 1 V
0 1 V
0 1 V
0 1 V
0 1 V
0 1 V
0 1 V
0 1 V
0 1 V
0 1 V
0 1 V
1 0 V
0 1 V
0 1 V
1 0 V
0 1 V
0 1 V
1 1 V
0 1 V
1 1 V
0 1 V
0 1 V
1 1 V
0 1 V
1 1 V
0 1 V
0 1 V
1 1 V
1 1 V
0 1 V
0 1 V
1 0 V
0 1 V
0 1 V
1 0 V
0 1 V
0 1 V
0 1 V
0 1 V
1 0 V
0 1 V
0 1 V
1 0 V
0 1 V
0 1 V
1 1 V
0 1 V
1 0 V
0 1 V
0 1 V
1 0 V
0 1 V
1 0 V
0 1 V
0 1 V
1 1 V
0 1 V
1 1 V
0 1 V
0 1 V
0 1 V
0 1 V
1 1 V
0 1 V
1 0 V
0 1 V
0 1 V
1 0 V
0 1 V
1 1 V
0 1 V
0 1 V
stroke 1782 3874 M
1 1 V
0 1 V
1 1 V
0 1 V
0 1 V
1 0 V
0 1 V
0 1 V
1 0 V
0 1 V
0 1 V
1 1 V
0 1 V
1 1 V
0 1 V
1 0 V
0 1 V
0 1 V
1 0 V
0 1 V
0 1 V
1 0 V
0 1 V
0 1 V
1 0 V
0 1 V
0 1 V
1 1 V
0 1 V
1 0 V
0 1 V
1 1 V
0 1 V
0 1 V
0 1 V
1 0 V
0 1 V
1 1 V
0 1 V
0 1 V
1 0 V
0 1 V
0 1 V
1 0 V
0 1 V
0 1 V
1 0 V
0 1 V
1 0 V
0 1 V
0 1 V
1 1 V
0 1 V
1 0 V
0 1 V
0 -1 V
0 1 V
0 1 V
1 0 V
0 1 V
0 1 V
1 0 V
0 1 V
0 1 V
1 0 V
0 1 V
1 0 V
0 1 V
0 1 V
0 1 V
1 0 V
0 1 V
0 1 V
2 0 V
0 1 V
0 1 V
1 0 V
0 1 V
0 1 V
1 0 V
0 1 V
0 1 V
0 1 V
0 1 V
1 0 V
0 1 V
0 1 V
1 0 V
0 1 V
2 1 V
0 1 V
0 1 V
0 1 V
1 1 V
1 1 V
0 1 V
0 1 V
1 0 V
0 1 V
0 1 V
1 0 V
0 1 V
1 1 V
0 1 V
stroke 1821 3951 M
0 1 V
1 0 V
1 1 V
0 1 V
0 1 V
1 0 V
0 1 V
1 0 V
0 1 V
0 1 V
1 1 V
0 1 V
1 1 V
0 1 V
1 0 V
0 1 V
0 1 V
1 0 V
0 1 V
0 1 V
1 0 V
0 1 V
0 1 V
1 0 V
0 1 V
1 1 V
1 1 V
0 1 V
0 1 V
1 0 V
0 1 V
1 1 V
0 1 V
1 0 V
0 1 V
1 0 V
0 1 V
1 1 V
0 1 V
1 0 V
0 1 V
0 1 V
0 1 V
1 0 V
0 1 V
0 1 V
1 0 V
0 1 V
1 1 V
1 1 V
0 1 V
0 1 V
1 0 V
0 1 V
1 0 V
0 1 V
0 1 V
1 0 V
0 1 V
0 1 V
1 0 V
0 1 V
1 0 V
0 1 V
0 1 V
2 1 V
0 1 V
0 1 V
1 0 V
0 1 V
1 1 V
0 1 V
1 0 V
0 1 V
1 0 V
0 1 V
0 1 V
1 0 V
0 1 V
0 1 V
1 0 V
0 1 V
0 1 V
1 0 V
0 1 V
1 0 V
0 1 V
0 1 V
1 0 V
0 1 V
1 1 V
0 1 V
1 0 V
0 1 V
1 0 V
0 1 V
0 1 V
1 0 V
0 1 V
1 1 V
0 1 V
1 0 V
0 1 V
1 1 V
stroke 1866 4025 M
0 1 V
1 1 V
1 0 V
0 1 V
0 1 V
1 0 V
0 1 V
0 1 V
2 0 V
0 1 V
1 1 V
0 1 V
0 1 V
1 0 V
0 1 V
0 1 V
1 0 V
0 1 V
1 1 V
0 1 V
1 0 V
0 1 V
1 1 V
1 0 V
0 1 V
0 1 V
1 1 V
1 0 V
0 1 V
0 1 V
1 1 V
1 1 V
0 1 V
1 0 V
1 1 V
0 1 V
0 1 V
1 0 V
0 1 V
1 1 V
0 1 V
1 0 V
0 1 V
1 0 V
0 1 V
0 1 V
1 0 V
0 1 V
1 0 V
0 1 V
1 0 V
0 1 V
0 1 V
1 0 V
0 1 V
1 1 V
0 1 V
1 0 V
0 1 V
1 1 V
1 1 V
0 1 V
1 0 V
0 1 V
0 -1 V
0 1 V
1 0 V
0 1 V
1 0 V
0 1 V
0 1 V
1 0 V
0 1 V
1 1 V
1 0 V
0 1 V
0 1 V
1 0 V
0 1 V
1 0 V
0 1 V
1 0 V
0 1 V
0 1 V
1 0 V
0 1 V
1 1 V
0 1 V
1 0 V
1 1 V
0 1 V
2 0 V
0 1 V
0 1 V
1 1 V
0 1 V
1 0 V
0 1 V
1 1 V
0 1 V
1 0 V
0 1 V
1 0 V
0 1 V
stroke 1916 4096 M
1 0 V
0 1 V
1 0 V
0 1 V
0 1 V
1 0 V
0 1 V
1 1 V
0 1 V
1 0 V
0 1 V
1 0 V
0 1 V
1 0 V
0 1 V
0 1 V
1 0 V
1 1 V
0 1 V
1 0 V
0 1 V
1 0 V
0 1 V
1 0 V
0 1 V
1 0 V
0 1 V
0 1 V
1 0 V
0 1 V
1 0 V
0 1 V
0 1 V
1 0 V
0 1 V
1 0 V
0 1 V
1 0 V
0 1 V
1 0 V
0 1 V
1 0 V
0 1 V
0 1 V
1 0 V
0 1 V
1 0 V
0 1 V
1 0 V
0 1 V
0 1 V
1 0 V
1 0 V
0 1 V
0 1 V
1 0 V
0 1 V
1 0 V
0 1 V
1 1 V
0 1 V
1 1 V
0 1 V
1 1 V
0 1 V
1 0 V
0 1 V
0 1 V
0 1 V
0 1 V
1 0 V
0 1 V
0 1 V
1 0 V
0 1 V
0 1 V
2 0 V
0 1 V
0 1 V
0 1 V
0 1 V
0 1 V
1 0 V
0 1 V
1 1 V
0 1 V
0 1 V
0 1 V
6 1 V
0 1 V
0 1 V
0 1 V
0 1 V
0 1 V
0 1 V
1 0 V
0 1 V
0 1 V
0 1 V
0 1 V
0 1 V
1 0 V
0 1 V
0 1 V
stroke 1961 4168 M
0 1 V
0 1 V
1 0 V
0 1 V
1 0 V
0 1 V
0 1 V
0 1 V
1 0 V
0 1 V
0 1 V
1 0 V
0 1 V
0 1 V
0 1 V
1 1 V
0 1 V
0 1 V
1 0 V
0 1 V
0 1 V
1 0 V
0 1 V
0 1 V
0 -1 V
0 1 V
1 0 V
0 1 V
5 0 V
0 1 V
0 1 V
0 1 V
0 1 V
0 1 V
0 1 V
0 1 V
0 1 V
0 1 V
2 0 V
0 1 V
0 1 V
0 1 V
0 1 V
1 0 V
0 1 V
0 1 V
0 1 V
1 0 V
0 1 V
0 1 V
1 0 V
0 1 V
0 1 V
0 1 V
0 1 V
1 0 V
0 1 V
0 1 V
0 1 V
2 1 V
0 1 V
0 1 V
0 1 V
0 1 V
6 0 V
0 1 V
0 1 V
0 1 V
0 1 V
0 1 V
0 1 V
0 1 V
0 1 V
0 1 V
0 1 V
0 1 V
1 0 V
0 1 V
1 0 V
0 1 V
0 1 V
0 1 V
0 1 V
1 0 V
0 1 V
0 -1 V
0 1 V
0 1 V
1 0 V
0 1 V
0 1 V
0 1 V
1 0 V
0 1 V
0 1 V
1 1 V
0 1 V
0 1 V
1 1 V
0 1 V
1 1 V
0 1 V
0 1 V
0 1 V
stroke 1996 4249 M
1 0 V
0 1 V
0 1 V
1 0 V
0 1 V
0 1 V
0 1 V
1 0 V
0 1 V
0 1 V
1 0 V
0 1 V
0 1 V
0 1 V
6 0 V
0 1 V
0 1 V
0 1 V
0 1 V
0 1 V
0 1 V
0 1 V
0 1 V
0 1 V
1 0 V
0 1 V
8 0 V
0 1 V
0 1 V
0 1 V
0 1 V
0 1 V
0 1 V
0 1 V
0 1 V
0 1 V
0 1 V
0 1 V
0 1 V
0 1 V
0 1 V
0 1 V
0 1 V
0 1 V
0 1 V
0 1 V
1 0 V
0 1 V
0 1 V
0 1 V
1 0 V
8 1 V
0 1 V
1 1 V
0 1 V
0 1 V
0 1 V
0 1 V
0 1 V
0 1 V
42 0 V
0 1 V
0 1 V
0 1 V
0 1 V
0 1 V
0 1 V
0 1 V
0 1 V
0 1 V
0 1 V
0 1 V
0 1 V
0 1 V
0 1 V
0 1 V
0 1 V
0 1 V
0 1 V
0 1 V
0 1 V
0 1 V
0 1 V
0 1 V
0 1 V
0 1 V
0 1 V
0 1 V
0 1 V
0 1 V
0 1 V
0 1 V
0 1 V
0 1 V
0 1 V
0 1 V
15 0 V
0 1 V
0 1 V
0 1 V
0 1 V
0 1 V
0 1 V
0 1 V
stroke 2083 4342 M
2 0 V
0 1 V
46 0 V
0 1 V
0 1 V
0 1 V
0 1 V
0 1 V
0 1 V
0 1 V
0 1 V
0 1 V
0 1 V
0 1 V
0 1 V
0 1 V
0 1 V
0 1 V
0 1 V
0 1 V
0 1 V
0 1 V
0 1 V
14 0 V
0 1 V
0 1 V
0 1 V
0 1 V
0 1 V
0 1 V
0 1 V
0 1 V
3 0 V
0 1 V
3 0 V
0 1 V
0 1 V
0 1 V
0 1 V
0 1 V
0 1 V
2 0 V
0 1 V
0 1 V
0 1 V
1 1 V
1 1 V
1 0 V
1 0 V
0 1 V
0 1 V
4 -3439 V
8 300 V
17 175 V
0 124 V
0 97 V
0 79 V
0 66 V
0 58 V
0 51 V
0 45 V
6 41 V
0 38 V
0 35 V
0 32 V
0 29 V
0 28 V
0 26 V
0 25 V
0 23 V
0 23 V
15 21 V
0 20 V
0 19 V
0 18 V
0 18 V
0 17 V
0 16 V
0 16 V
0 15 V
0 15 V
0 14 V
0 14 V
0 13 V
0 13 V
0 12 V
0 13 V
0 11 V
0 12 V
0 11 V
0 11 V
13 11 V
0 10 V
0 10 V
0 10 V
0 10 V
0 9 V
0 10 V
0 9 V
4 9 V
0 8 V
0 9 V
0 8 V
0 9 V
stroke 2224 2662 M
0 8 V
0 8 V
0 7 V
0 8 V
0 8 V
0 7 V
0 7 V
0 7 V
0 7 V
0 7 V
0 7 V
0 7 V
0 6 V
0 7 V
0 6 V
0 7 V
0 6 V
0 6 V
0 6 V
0 6 V
0 6 V
0 6 V
0 5 V
0 6 V
0 6 V
0 5 V
0 6 V
13 5 V
0 5 V
0 5 V
0 6 V
0 5 V
0 5 V
0 5 V
0 5 V
0 5 V
0 4 V
0 5 V
0 5 V
57 5 V
0 4 V
0 5 V
0 4 V
0 5 V
0 4 V
0 5 V
0 4 V
0 4 V
0 4 V
0 5 V
0 4 V
0 4 V
0 4 V
0 4 V
0 4 V
0 4 V
0 4 V
0 4 V
0 4 V
0 4 V
0 4 V
0 3 V
0 4 V
0 4 V
0 3 V
0 4 V
0 4 V
0 3 V
0 4 V
0 3 V
0 4 V
0 3 V
0 4 V
0 3 V
0 4 V
0 3 V
0 3 V
0 4 V
0 3 V
0 3 V
0 3 V
0 4 V
0 3 V
0 3 V
0 -217 V
0 6 V
0 5 V
0 5 V
0 5 V
0 5 V
0 5 V
0 4 V
0 5 V
0 5 V
0 5 V
0 4 V
0 5 V
0 4 V
0 5 V
0 4 V
0 5 V
0 4 V
0 4 V
0 4 V
stroke 2294 2944 M
0 5 V
0 4 V
0 4 V
0 4 V
0 4 V
0 4 V
0 4 V
0 4 V
0 4 V
0 4 V
0 4 V
56 4 V
0 3 V
0 4 V
0 4 V
0 3 V
0 4 V
0 4 V
0 3 V
0 4 V
0 3 V
0 4 V
0 3 V
0 4 V
0 3 V
0 4 V
0 3 V
0 3 V
0 4 V
0 3 V
0 3 V
0 3 V
0 4 V
0 3 V
0 3 V
0 3 V
0 3 V
0 3 V
0 3 V
0 3 V
0 3 V
0 3 V
0 3 V
0 3 V
0 3 V
0 3 V
0 3 V
0 3 V
0 3 V
0 3 V
0 3 V
0 2 V
0 3 V
0 3 V
0 3 V
0 3 V
0 2 V
0 3 V
0 3 V
0 2 V
0 3 V
0 3 V
0 2 V
0 3 V
0 2 V
0 3 V
0 3 V
0 2 V
0 3 V
0 2 V
0 3 V
0 2 V
0 3 V
0 2 V
0 3 V
0 2 V
0 2 V
0 3 V
0 2 V
0 3 V
0 2 V
0 2 V
0 3 V
0 2 V
0 2 V
0 3 V
0 2 V
0 2 V
0 2 V
0 3 V
0 2 V
0 2 V
0 2 V
0 -4 V
0 2 V
0 -4 V
0 2 V
0 -5 V
0 3 V
0 -5 V
0 2 V
0 -4 V
0 2 V
0 -4 V
stroke 2350 3209 M
0 2 V
0 -5 V
0 3 V
0 -5 V
0 2 V
0 -4 V
0 2 V
0 -5 V
0 3 V
0 -5 V
0 2 V
0 -4 V
0 2 V
0 -5 V
0 3 V
0 -5 V
0 2 V
0 -5 V
0 3 V
0 -5 V
0 2 V
0 -4 V
0 2 V
0 -5 V
0 3 V
0 -5 V
0 2 V
0 -5 V
0 3 V
0 -5 V
0 2 V
0 -5 V
0 3 V
0 -5 V
0 2 V
0 -5 V
0 3 V
0 -5 V
0 2 V
0 -5 V
0 3 V
0 -6 V
0 3 V
0 -5 V
0 2 V
0 -5 V
0 3 V
0 -5 V
0 2 V
0 -5 V
0 3 V
0 -6 V
0 3 V
0 -5 V
0 2 V
0 -5 V
0 3 V
0 -6 V
0 3 V
0 -5 V
0 2 V
0 -5 V
0 3 V
0 -6 V
0 3 V
0 -6 V
0 3 V
0 -6 V
0 3 V
0 -5 V
0 2 V
0 -5 V
0 3 V
0 -6 V
0 3 V
0 -6 V
0 3 V
0 -6 V
0 3 V
0 -6 V
0 3 V
0 -6 V
0 3 V
0 -6 V
0 3 V
0 -6 V
0 3 V
0 -6 V
0 3 V
0 -6 V
0 3 V
0 -6 V
0 3 V
0 -6 V
0 3 V
0 -6 V
0 3 V
0 -6 V
0 3 V
0 -6 V
0 3 V
57 -238 V
0 5 V
0 5 V
stroke 2407 2850 M
17 5 V
2 6 V
50 5 V
0 5 V
58 5 V
0 5 V
17 5 V
2 4 V
15 5 V
2 5 V
13 5 V
5 4 V
9 5 V
7 4 V
5 5 V
52 4 V
1 5 V
16 4 V
3 4 V
14 4 V
10 5 V
11 4 V
79 4 V
0 4 V
17 4 V
46 4 V
40 4 V
0 4 V
17 4 V
0 4 V
14 4 V
4 4 V
13 3 V
6 4 V
48 4 V
0 3 V
17 4 V
0 4 V
2 3 V
12 4 V
0 3 V
3 4 V
51 3 V
0 4 V
0 3 V
17 4 V
5 3 V
0 3 V
13 4 V
0 3 V
41 3 V
0 3 V
0 4 V
17 3 V
0 3 V
2 3 V
15 3 V
1 3 V
42 3 V
40 3 V
0 3 V
0 3 V
19 3 V
0 3 V
51 3 V
0 3 V
0 -2285 V
% End plot #4
% Begin plot #5
2.000 UP
stroke
LTb
LT1
0.00 0.00 0.63 C 1314 1246 Circle
1473 2944 Circle
1494 3240 Circle
1608 3413 Circle
1608 3537 Circle
1720 3633 Circle
1720 3546 Circle
1720 3640 Circle
1743 3717 Circle
1750 3783 Circle
1767 3839 Circle
1789 3889 Circle
1812 3933 Circle
1834 3974 Circle
1857 4011 Circle
1880 4045 Circle
1902 4077 Circle
1924 4106 Circle
1945 4134 Circle
1959 4160 Circle
1968 4185 Circle
1979 4208 Circle
1990 4230 Circle
1997 4250 Circle
2015 4271 Circle
2016 4289 Circle
2068 4308 Circle
2068 4325 Circle
2085 4342 Circle
2131 4358 Circle
2151 4374 Circle
2207 2301 Circle
2294 3025 Circle
2350 3160 Circle
2350 3131 Circle
3196 3081 Circle
% End plot #5
% Begin plot #6
2.000 UP
1.000 UL
LTb
LT1
0.00 0.00 0.63 C LCb setrgbcolor
4187 153 M
[ [(Arial) 180.0 0.0 true true 0 (per-packet)]
] -60.0 MRshow
2.000 UP
1.000 UL
LTb
LT1
0.00 0.00 0.63 C 1314 1246 Circle
4461 153 Circle
% End plot #6
% Begin plot #7
1.000 UL
LTb
LT3
0.00 0.38 0.82 C 1314 1246 M
14 175 V
13 124 V
14 97 V
0 79 V
14 66 V
0 58 V
0 51 V
13 45 V
0 41 V
0 38 V
0 35 V
14 32 V
0 29 V
0 28 V
0 26 V
0 25 V
0 23 V
14 23 V
0 21 V
0 20 V
0 19 V
0 18 V
0 18 V
0 17 V
0 16 V
0 16 V
13 15 V
0 15 V
0 14 V
0 14 V
0 13 V
0 13 V
0 12 V
0 13 V
0 11 V
0 12 V
0 11 V
0 11 V
0 11 V
0 10 V
17 10 V
0 10 V
0 10 V
0 9 V
0 10 V
0 9 V
0 9 V
0 8 V
0 9 V
0 8 V
0 9 V
0 8 V
0 8 V
0 7 V
0 8 V
0 8 V
0 7 V
0 7 V
0 7 V
0 7 V
0 7 V
16 7 V
0 7 V
0 6 V
0 7 V
0 6 V
0 7 V
0 6 V
0 6 V
0 6 V
0 6 V
0 6 V
0 6 V
0 5 V
0 6 V
0 6 V
0 5 V
0 6 V
0 5 V
0 5 V
0 5 V
0 6 V
0 5 V
0 5 V
0 5 V
0 5 V
0 5 V
0 4 V
0 5 V
0 5 V
0 5 V
0 4 V
17 5 V
0 4 V
0 5 V
0 4 V
0 5 V
0 4 V
0 4 V
0 4 V
0 5 V
0 4 V
0 4 V
0 4 V
stroke 1473 2961 M
0 4 V
0 4 V
0 4 V
0 4 V
0 4 V
0 4 V
0 4 V
0 4 V
0 3 V
0 4 V
0 4 V
0 3 V
0 4 V
0 4 V
0 3 V
0 4 V
0 3 V
0 4 V
0 3 V
0 4 V
0 3 V
0 4 V
0 3 V
0 3 V
0 4 V
0 3 V
0 3 V
0 3 V
0 4 V
0 3 V
0 3 V
1 3 V
0 3 V
0 3 V
0 3 V
16 3 V
0 3 V
0 3 V
0 3 V
0 3 V
0 3 V
0 3 V
0 3 V
0 3 V
0 3 V
0 3 V
0 3 V
0 2 V
0 3 V
0 3 V
0 3 V
0 3 V
0 2 V
0 3 V
0 3 V
0 2 V
1 3 V
0 3 V
0 2 V
0 3 V
0 2 V
0 3 V
0 3 V
0 2 V
0 3 V
0 2 V
0 3 V
0 2 V
0 3 V
0 2 V
0 3 V
0 2 V
0 2 V
0 3 V
0 2 V
0 3 V
0 2 V
0 2 V
0 3 V
0 2 V
0 2 V
1 3 V
0 2 V
0 2 V
0 2 V
0 3 V
0 2 V
0 2 V
1 2 V
0 3 V
0 2 V
0 2 V
0 2 V
0 2 V
0 3 V
0 2 V
0 2 V
1 2 V
0 2 V
0 2 V
0 2 V
0 2 V
0 2 V
0 2 V
stroke 1494 3256 M
1 3 V
12 2 V
0 2 V
0 2 V
0 2 V
0 2 V
0 2 V
0 2 V
0 2 V
0 2 V
0 2 V
0 1 V
0 2 V
0 2 V
0 2 V
0 2 V
0 2 V
0 2 V
0 2 V
0 2 V
0 2 V
0 2 V
6 1 V
0 2 V
0 2 V
0 2 V
0 2 V
0 2 V
0 1 V
0 2 V
0 2 V
0 2 V
0 2 V
0 1 V
0 2 V
0 2 V
0 2 V
0 1 V
0 2 V
0 2 V
1 2 V
0 1 V
0 2 V
1 2 V
0 1 V
1 2 V
8 2 V
0 1 V
0 2 V
0 2 V
0 1 V
0 2 V
0 2 V
0 1 V
0 2 V
0 2 V
0 1 V
0 2 V
0 1 V
0 2 V
0 2 V
0 1 V
0 2 V
0 1 V
1 2 V
42 2 V
0 1 V
0 2 V
0 1 V
0 2 V
0 1 V
0 2 V
0 1 V
0 2 V
0 1 V
0 2 V
0 1 V
0 2 V
0 1 V
0 2 V
0 1 V
0 2 V
0 1 V
0 2 V
0 1 V
0 2 V
0 1 V
0 2 V
0 1 V
0 2 V
0 1 V
41 1 V
0 2 V
0 1 V
0 2 V
0 1 V
0 2 V
0 1 V
0 1 V
0 2 V
0 1 V
0 1 V
0 2 V
0 1 V
stroke 1608 3430 M
0 2 V
0 1 V
0 1 V
0 2 V
0 1 V
0 1 V
0 2 V
0 1 V
0 1 V
0 2 V
0 1 V
0 1 V
0 2 V
0 1 V
0 1 V
0 2 V
0 1 V
0 1 V
0 2 V
0 1 V
0 1 V
0 2 V
0 1 V
0 1 V
0 1 V
0 2 V
0 1 V
0 1 V
0 1 V
0 2 V
0 1 V
0 1 V
0 1 V
0 2 V
0 1 V
0 1 V
0 1 V
0 2 V
0 1 V
0 1 V
0 1 V
0 1 V
0 2 V
0 1 V
0 1 V
0 1 V
0 2 V
0 1 V
0 1 V
0 1 V
0 1 V
0 1 V
0 2 V
0 1 V
0 1 V
0 1 V
0 1 V
0 1 V
0 2 V
0 1 V
0 1 V
0 1 V
0 1 V
0 1 V
0 2 V
40 1 V
0 1 V
0 1 V
0 1 V
0 1 V
0 1 V
0 1 V
0 2 V
0 1 V
0 1 V
0 1 V
0 1 V
0 1 V
0 1 V
0 1 V
0 1 V
0 1 V
0 2 V
0 1 V
0 1 V
0 1 V
0 1 V
0 1 V
0 1 V
0 1 V
0 1 V
0 1 V
0 1 V
0 1 V
0 1 V
0 2 V
0 1 V
0 1 V
0 1 V
0 1 V
0 1 V
0 1 V
0 1 V
0 1 V
stroke 1648 3554 M
0 1 V
0 1 V
0 1 V
0 1 V
0 1 V
0 1 V
0 1 V
0 1 V
0 1 V
0 1 V
0 1 V
0 1 V
0 1 V
0 1 V
0 1 V
0 1 V
0 1 V
0 1 V
0 1 V
0 1 V
0 1 V
0 1 V
0 1 V
0 1 V
0 1 V
0 1 V
0 1 V
0 1 V
0 1 V
0 1 V
0 1 V
0 1 V
0 1 V
0 1 V
0 1 V
0 1 V
0 1 V
0 1 V
0 1 V
0 1 V
0 1 V
0 1 V
0 1 V
0 1 V
0 1 V
0 1 V
0 1 V
0 1 V
0 1 V
0 1 V
0 1 V
0 1 V
0 1 V
0 1 V
0 1 V
0 1 V
0 1 V
0 1 V
0 1 V
0 1 V
0 1 V
0 1 V
0 1 V
0 1 V
0 1 V
0 1 V
0 -197 V
0 2 V
0 1 V
0 1 V
0 2 V
0 1 V
0 2 V
0 1 V
0 1 V
0 2 V
17 1 V
0 1 V
0 2 V
0 1 V
0 1 V
0 2 V
0 1 V
0 1 V
0 2 V
0 1 V
0 1 V
0 2 V
0 1 V
0 1 V
0 2 V
0 1 V
0 1 V
0 2 V
0 1 V
0 1 V
0 1 V
0 2 V
0 1 V
0 1 V
0 1 V
0 2 V
0 1 V
0 1 V
stroke 1665 3472 M
0 1 V
0 2 V
0 1 V
0 1 V
0 1 V
0 2 V
0 1 V
0 1 V
0 1 V
0 1 V
0 2 V
0 1 V
0 1 V
0 1 V
0 2 V
0 1 V
0 1 V
0 1 V
0 1 V
0 1 V
0 2 V
0 1 V
0 1 V
0 1 V
0 1 V
0 1 V
0 2 V
0 1 V
0 1 V
0 1 V
1 1 V
0 1 V
0 2 V
0 1 V
0 1 V
0 1 V
0 1 V
0 1 V
0 1 V
0 1 V
0 2 V
0 1 V
0 1 V
1 1 V
0 1 V
0 1 V
0 1 V
0 1 V
0 1 V
0 1 V
0 2 V
1 1 V
0 1 V
0 1 V
0 1 V
0 1 V
0 1 V
0 1 V
0 1 V
0 1 V
0 1 V
0 1 V
0 1 V
0 2 V
1 1 V
0 1 V
0 1 V
0 1 V
6 1 V
0 1 V
0 1 V
0 1 V
0 1 V
0 1 V
0 1 V
0 1 V
0 1 V
0 1 V
0 1 V
0 1 V
0 1 V
0 1 V
0 1 V
0 1 V
0 1 V
0 1 V
0 1 V
0 1 V
0 1 V
0 1 V
0 1 V
0 1 V
0 1 V
0 1 V
0 1 V
0 1 V
0 1 V
0 1 V
0 1 V
0 1 V
0 1 V
0 1 V
0 1 V
0 1 V
stroke 1675 3586 M
0 1 V
0 1 V
0 1 V
0 1 V
0 1 V
0 1 V
0 1 V
1 1 V
0 1 V
0 1 V
0 1 V
1 1 V
0 1 V
0 1 V
0 1 V
0 1 V
0 1 V
0 1 V
0 1 V
0 1 V
1 1 V
0 1 V
0 1 V
0 1 V
0 1 V
0 1 V
0 1 V
0 1 V
0 1 V
0 1 V
1 1 V
0 1 V
0 1 V
0 1 V
0 1 V
0 1 V
0 1 V
0 1 V
0 1 V
0 1 V
0 1 V
0 1 V
1 1 V
0 1 V
0 1 V
0 1 V
0 1 V
0 1 V
0 1 V
1 1 V
0 1 V
0 1 V
0 1 V
0 1 V
0 1 V
0 1 V
2 1 V
0 1 V
0 1 V
0 1 V
0 1 V
0 1 V
0 1 V
0 1 V
0 1 V
0 1 V
0 1 V
0 1 V
0 1 V
0 1 V
2 1 V
0 1 V
0 1 V
0 1 V
0 1 V
0 1 V
0 1 V
0 1 V
0 1 V
0 1 V
0 1 V
0 1 V
5 0 V
0 1 V
0 1 V
0 1 V
0 1 V
0 1 V
0 1 V
0 1 V
0 1 V
0 1 V
0 1 V
0 1 V
0 1 V
0 1 V
0 1 V
0 1 V
0 1 V
0 1 V
0 1 V
0 1 V
0 1 V
0 1 V
stroke 1690 3689 M
1 1 V
0 1 V
0 1 V
1 1 V
0 1 V
1 1 V
0 1 V
0 1 V
0 1 V
1 1 V
0 1 V
0 1 V
1 0 V
0 1 V
0 1 V
1 1 V
0 1 V
0 1 V
1 0 V
0 1 V
6 1 V
0 1 V
0 1 V
0 1 V
0 1 V
0 1 V
0 1 V
0 1 V
0 1 V
1 1 V
0 1 V
0 1 V
1 1 V
0 1 V
1 1 V
0 1 V
1 1 V
0 1 V
0 1 V
1 0 V
0 1 V
0 1 V
1 1 V
0 1 V
1 1 V
0 1 V
0 1 V
1 1 V
0 1 V
0 1 V
1 1 V
0 1 V
1 1 V
0 1 V
0 1 V
1 0 V
0 1 V
0 1 V
1 0 V
0 1 V
0 1 V
1 1 V
0 1 V
0 1 V
1 1 V
0 1 V
0 1 V
1 1 V
1 1 V
2 1 V
1 0 V
0 1 V
0 1 V
0 1 V
0 1 V
0 1 V
0 1 V
0 1 V
0 1 V
1 1 V
0 1 V
0 1 V
1 1 V
0 1 V
1 0 V
0 1 V
0 1 V
0 1 V
1 0 V
0 1 V
0 1 V
1 0 V
0 1 V
0 1 V
1 1 V
0 1 V
1 1 V
0 1 V
1 1 V
0 1 V
1 1 V
0 1 V
1 1 V
0 1 V
stroke 1732 3784 M
0 1 V
1 0 V
1 1 V
0 1 V
0 1 V
0 1 V
1 0 V
0 1 V
0 1 V
1 1 V
0 1 V
1 1 V
0 1 V
7 1 V
0 1 V
0 1 V
0 1 V
0 1 V
0 1 V
0 1 V
0 1 V
0 1 V
1 1 V
1 0 V
0 1 V
0 1 V
0 1 V
1 1 V
1 1 V
0 1 V
0 1 V
1 0 V
0 1 V
1 1 V
0 1 V
0 1 V
1 0 V
0 1 V
1 1 V
0 1 V
0 1 V
1 1 V
1 0 V
0 1 V
0 1 V
0 1 V
1 0 V
3 1 V
0 1 V
0 1 V
0 1 V
0 1 V
0 1 V
0 1 V
0 1 V
1 0 V
1 1 V
0 1 V
0 1 V
1 1 V
0 1 V
1 1 V
0 1 V
1 1 V
0 1 V
1 0 V
0 1 V
1 1 V
0 1 V
1 1 V
0 1 V
1 1 V
0 1 V
1 1 V
0 1 V
1 1 V
0 1 V
1 0 V
0 1 V
0 1 V
1 0 V
0 1 V
1 1 V
0 1 V
1 0 V
0 1 V
1 1 V
0 1 V
0 1 V
1 1 V
0 1 V
1 0 V
0 1 V
1 1 V
0 1 V
0 1 V
1 0 V
6 1 V
0 1 V
0 1 V
0 1 V
0 1 V
0 1 V
0 1 V
stroke 1784 3874 M
0 1 V
0 1 V
0 1 V
0 1 V
2 1 V
2 0 V
0 1 V
1 1 V
0 1 V
0 1 V
0 1 V
0 1 V
0 1 V
0 1 V
1 0 V
0 1 V
1 0 V
0 1 V
0 1 V
1 0 V
0 1 V
1 0 V
0 1 V
1 0 V
0 1 V
0 1 V
1 1 V
0 1 V
1 1 V
0 1 V
1 0 V
0 1 V
0 1 V
1 0 V
0 1 V
1 1 V
0 1 V
1 0 V
0 1 V
1 1 V
0 1 V
1 1 V
1 0 V
0 1 V
0 1 V
6 0 V
0 1 V
0 1 V
0 1 V
0 1 V
0 1 V
0 1 V
0 1 V
0 1 V
0 1 V
0 1 V
0 1 V
1 1 V
0 1 V
1 0 V
0 1 V
1 1 V
0 1 V
1 0 V
1 0 V
0 1 V
0 1 V
0 1 V
1 0 V
0 1 V
1 1 V
0 1 V
1 0 V
0 1 V
9 1 V
0 1 V
0 1 V
0 1 V
0 1 V
0 1 V
0 1 V
0 1 V
0 1 V
0 1 V
0 1 V
1 0 V
0 1 V
0 1 V
1 1 V
6 0 V
0 1 V
0 1 V
0 1 V
0 1 V
0 1 V
0 1 V
0 1 V
0 1 V
0 1 V
0 1 V
0 1 V
0 1 V
0 1 V
0 1 V
stroke 1834 3960 M
1 0 V
0 1 V
1 1 V
1 1 V
0 1 V
1 0 V
0 1 V
1 0 V
0 1 V
0 1 V
1 0 V
1 1 V
0 1 V
1 1 V
0 1 V
1 0 V
0 1 V
1 1 V
0 1 V
1 1 V
0 1 V
0 1 V
0 1 V
0 1 V
1 0 V
0 1 V
1 1 V
0 1 V
0 1 V
0 1 V
0 1 V
0 1 V
0 1 V
1 0 V
0 1 V
1 0 V
0 1 V
0 1 V
0 1 V
6 0 V
0 1 V
0 1 V
0 1 V
0 1 V
0 1 V
0 1 V
0 1 V
0 1 V
0 1 V
0 1 V
0 1 V
0 1 V
0 1 V
0 1 V
0 1 V
0 1 V
0 1 V
1 0 V
0 1 V
0 1 V
0 1 V
0 1 V
2 1 V
0 1 V
0 1 V
0 1 V
0 1 V
0 1 V
1 1 V
0 1 V
5 0 V
0 1 V
0 1 V
0 1 V
0 1 V
0 1 V
0 1 V
0 1 V
0 1 V
0 1 V
0 1 V
0 1 V
1 0 V
1 1 V
0 1 V
1 0 V
0 1 V
1 1 V
0 1 V
0 1 V
0 1 V
1 0 V
0 1 V
0 1 V
0 1 V
1 0 V
0 1 V
0 1 V
1 0 V
0 1 V
0 1 V
0 1 V
0 1 V
0 1 V
stroke 1871 4048 M
1 1 V
0 1 V
0 1 V
0 1 V
0 1 V
0 1 V
1 0 V
0 1 V
0 1 V
0 1 V
1 0 V
0 1 V
0 1 V
0 1 V
0 1 V
0 1 V
1 0 V
0 1 V
0 1 V
0 1 V
1 0 V
0 1 V
0 1 V
0 1 V
1 1 V
0 1 V
5 0 V
0 1 V
0 1 V
0 1 V
0 1 V
0 1 V
0 1 V
0 1 V
0 1 V
0 1 V
0 1 V
0 1 V
2 1 V
0 1 V
0 1 V
0 1 V
0 1 V
0 1 V
1 0 V
2 1 V
0 1 V
0 1 V
1 0 V
0 1 V
1 0 V
0 1 V
2 0 V
0 1 V
0 1 V
1 0 V
0 1 V
0 1 V
1 1 V
2 0 V
0 1 V
1 0 V
0 1 V
1 1 V
0 1 V
6 0 V
0 1 V
0 1 V
0 1 V
0 1 V
0 1 V
0 1 V
0 1 V
0 1 V
0 1 V
1 0 V
0 1 V
1 0 V
0 1 V
6 0 V
0 1 V
0 1 V
0 1 V
0 1 V
0 1 V
4 0 V
0 1 V
0 1 V
0 1 V
1 0 V
1 1 V
0 1 V
1 0 V
1 0 V
0 1 V
1 0 V
0 1 V
1 0 V
0 1 V
0 1 V
1 0 V
6 0 V
0 1 V
0 1 V
stroke 1928 4128 M
0 1 V
0 1 V
0 1 V
0 1 V
0 1 V
0 1 V
1 0 V
0 1 V
1 0 V
0 1 V
1 0 V
0 1 V
1 0 V
0 1 V
1 0 V
0 1 V
1 0 V
0 1 V
1 0 V
0 1 V
1 0 V
0 1 V
1 0 V
0 1 V
1 0 V
1 1 V
5 1 V
0 1 V
0 1 V
0 1 V
0 1 V
0 1 V
0 1 V
0 1 V
0 1 V
0 1 V
0 1 V
0 1 V
1 0 V
0 1 V
0 1 V
0 1 V
1 0 V
0 1 V
0 1 V
1 0 V
0 1 V
1 1 V
0 1 V
0 1 V
1 0 V
0 1 V
0 1 V
1 0 V
0 1 V
0 1 V
1 1 V
0 1 V
0 1 V
1 0 V
0 1 V
0 1 V
1 0 V
0 1 V
0 1 V
1 1 V
6 0 V
0 1 V
0 1 V
0 1 V
0 1 V
0 1 V
0 1 V
0 1 V
0 1 V
0 1 V
0 1 V
0 1 V
0 1 V
0 1 V
6 0 V
0 1 V
0 1 V
0 1 V
0 1 V
0 1 V
0 1 V
0 1 V
0 1 V
1 0 V
0 1 V
2 0 V
0 1 V
1 1 V
0 1 V
0 1 V
1 0 V
0 1 V
40 0 V
1 0 V
0 1 V
0 1 V
0 1 V
0 1 V
stroke 2012 4208 M
0 1 V
0 1 V
0 1 V
0 1 V
0 1 V
0 1 V
0 1 V
0 1 V
0 1 V
0 1 V
0 1 V
0 1 V
0 1 V
2049 946 L
43 300 V
17 175 V
0 124 V
17 97 V
0 79 V
0 66 V
0 58 V
16 51 V
0 45 V
0 41 V
0 38 V
0 35 V
0 32 V
0 29 V
17 28 V
0 26 V
0 25 V
0 23 V
0 23 V
0 21 V
0 20 V
0 19 V
0 18 V
0 18 V
0 17 V
0 16 V
0 16 V
18 15 V
0 15 V
0 14 V
0 14 V
0 13 V
0 13 V
0 12 V
0 13 V
0 11 V
0 12 V
0 11 V
0 11 V
0 11 V
0 10 V
0 10 V
0 10 V
0 10 V
0 9 V
0 10 V
0 9 V
0 9 V
0 8 V
0 9 V
0 8 V
0 9 V
0 8 V
0 8 V
16 7 V
1 8 V
0 8 V
0 7 V
0 7 V
0 7 V
0 7 V
0 7 V
0 7 V
0 7 V
0 6 V
0 7 V
0 6 V
0 7 V
0 6 V
0 6 V
0 6 V
0 6 V
0 6 V
0 6 V
0 5 V
0 6 V
0 6 V
0 5 V
0 6 V
0 5 V
0 5 V
0 5 V
0 6 V
0 5 V
0 5 V
0 5 V
0 5 V
0 5 V
0 4 V
0 5 V
0 5 V
0 5 V
2 4 V
0 5 V
0 4 V
0 5 V
0 4 V
0 5 V
0 4 V
0 4 V
0 4 V
0 5 V
0 4 V
15 4 V
stroke 2211 2957 M
0 4 V
0 4 V
0 4 V
0 4 V
0 4 V
0 4 V
0 4 V
0 4 V
0 4 V
0 3 V
0 4 V
0 4 V
0 3 V
60 4 V
0 4 V
0 3 V
0 4 V
0 3 V
0 4 V
0 3 V
0 4 V
0 3 V
0 4 V
0 3 V
0 3 V
0 4 V
0 3 V
0 3 V
0 3 V
0 4 V
0 3 V
0 3 V
0 3 V
0 3 V
0 3 V
0 3 V
0 3 V
0 -216 V
0 5 V
0 5 V
0 5 V
0 4 V
0 5 V
0 5 V
0 5 V
0 4 V
0 5 V
0 4 V
0 5 V
0 4 V
0 5 V
0 4 V
0 4 V
0 4 V
0 5 V
0 4 V
0 4 V
0 4 V
0 4 V
0 4 V
0 4 V
0 4 V
0 4 V
0 4 V
0 4 V
0 4 V
0 3 V
0 4 V
0 4 V
0 3 V
0 4 V
0 4 V
0 3 V
0 4 V
0 3 V
0 4 V
0 3 V
0 4 V
0 3 V
0 4 V
0 3 V
0 3 V
0 4 V
0 3 V
0 3 V
0 3 V
0 4 V
0 3 V
0 3 V
0 3 V
0 3 V
0 3 V
0 3 V
0 3 V
0 3 V
0 3 V
0 3 V
0 3 V
0 3 V
0 3 V
0 3 V
0 3 V
0 3 V
0 3 V
stroke 2271 3117 M
0 3 V
0 2 V
0 3 V
0 3 V
0 3 V
0 3 V
0 2 V
0 3 V
0 3 V
0 2 V
0 3 V
0 3 V
0 2 V
0 3 V
0 2 V
0 3 V
0 3 V
0 2 V
0 3 V
0 2 V
0 3 V
0 2 V
0 3 V
0 2 V
0 3 V
0 2 V
0 2 V
0 3 V
0 2 V
0 3 V
0 2 V
0 2 V
0 3 V
0 2 V
0 2 V
0 3 V
0 2 V
0 2 V
0 2 V
0 3 V
0 2 V
0 2 V
0 2 V
0 3 V
0 2 V
0 2 V
0 2 V
0 2 V
0 3 V
0 2 V
0 2 V
0 2 V
0 2 V
0 2 V
0 2 V
0 2 V
0 2 V
0 2 V
0 3 V
0 2 V
0 2 V
0 2 V
0 2 V
0 2 V
0 2 V
0 2 V
0 2 V
0 2 V
0 2 V
0 1 V
0 2 V
0 2 V
0 2 V
0 2 V
0 2 V
0 2 V
0 2 V
0 2 V
0 2 V
0 2 V
0 1 V
0 2 V
0 2 V
0 2 V
0 2 V
0 2 V
0 1 V
0 2 V
0 2 V
0 2 V
0 2 V
0 1 V
0 2 V
0 2 V
18 -4 V
0 2 V
0 -3 V
0 1 V
0 -3 V
0 2 V
0 -4 V
0 2 V
0 -4 V
0 2 V
stroke 2289 3316 M
0 -4 V
0 2 V
0 -3 V
0 1 V
0 -3 V
0 2 V
0 -4 V
0 2 V
0 -4 V
0 2 V
0 -4 V
0 2 V
0 -4 V
0 2 V
0 -3 V
0 1 V
0 -3 V
0 2 V
0 -4 V
0 2 V
0 -4 V
0 2 V
0 -4 V
0 2 V
0 -4 V
0 2 V
0 -4 V
0 2 V
0 -4 V
0 2 V
0 -4 V
0 2 V
0 -4 V
0 2 V
0 -4 V
0 2 V
0 -3 V
0 1 V
0 -3 V
0 2 V
0 -4 V
0 2 V
0 -4 V
0 2 V
0 -4 V
0 2 V
1 -4 V
0 2 V
0 -4 V
0 2 V
0 -4 V
0 2 V
0 -4 V
0 2 V
0 -4 V
0 2 V
0 -4 V
0 2 V
1 -5 V
0 3 V
0 -5 V
0 2 V
0 -4 V
0 2 V
0 -4 V
0 2 V
0 -4 V
0 2 V
0 -4 V
0 2 V
1 -4 V
0 2 V
0 -4 V
0 2 V
6 -4 V
0 2 V
0 -4 V
0 2 V
0 -5 V
0 3 V
0 -5 V
0 2 V
0 -4 V
0 2 V
0 -4 V
0 2 V
0 -4 V
0 2 V
0 -5 V
0 3 V
0 -5 V
0 2 V
0 -4 V
0 2 V
0 -4 V
0 2 V
0 -5 V
0 3 V
0 -5 V
0 2 V
0 -4 V
0 2 V
0 -4 V
0 2 V
stroke 2298 3211 M
1 -5 V
0 3 V
0 -5 V
0 2 V
0 -4 V
0 2 V
1 -5 V
0 3 V
1 -5 V
0 2 V
6 -4 V
0 2 V
0 -5 V
0 3 V
0 -5 V
0 2 V
0 -5 V
0 3 V
0 -5 V
0 2 V
0 -4 V
0 2 V
0 -5 V
0 3 V
0 -5 V
0 2 V
0 -5 V
0 3 V
0 -323 V
2 6 V
9 5 V
9 5 V
20 5 V
44 5 V
0 5 V
17 4 V
2 5 V
14 5 V
52 5 V
0 4 V
16 5 V
4 4 V
13 5 V
42 4 V
0 5 V
18 4 V
15 4 V
2 4 V
15 5 V
1 4 V
15 4 V
2 4 V
15 4 V
6 4 V
8 4 V
8 4 V
8 4 V
7 4 V
11 4 V
42 4 V
0 3 V
17 4 V
0 4 V
13 3 V
6 4 V
7 4 V
6 3 V
4 4 V
6 3 V
7 4 V
5 3 V
6 4 V
3 3 V
7 4 V
6 3 V
0 3 V
8 4 V
9 3 V
5 3 V
3 3 V
10 4 V
5 3 V
0 3 V
11 3 V
6 3 V
5 3 V
6 3 V
1 3 V
10 3 V
2 3 V
7 3 V
4 3 V
41 3 V
0 3 V
53 3 V
1 3 V
0 3 V
17 3 V
0 3 V
3 2 V
11 3 V
2 3 V
3 3 V
9 3 V
stroke 3049 3134 M
2 2 V
8 3 V
4 3 V
3 2 V
7 3 V
3 3 V
6 2 V
13 3 V
0 2 V
8 3 V
4 3 V
3 2 V
9 3 V
0 -2348 V
% End plot #7
% Begin plot #8
2.000 UP
stroke
LTb
LT3
0.00 0.38 0.82 C 1314 1246 TriU
1665 3442 TriU
1767 3847 TriU
1872 4052 TriU
1966 4190 TriU
2290 3265 TriU
% End plot #8
% Begin plot #9
2.000 UP
1.000 UL
LTb
LT3
0.00 0.38 0.82 C LCb setrgbcolor
5600 153 M
[ [(Arial) 180.0 0.0 true true 0 (per-flow)]
] -60.0 MRshow
2.000 UP
1.000 UL
LTb
LT3
0.00 0.38 0.82 C 1314 1246 TriU
5874 153 TriU
% End plot #9
2.000 UL
LTb
LCb setrgbcolor
1.000 UP
1.000 UL
LTb
0.00 0.00 0.00 C stroke
grestore
end
showpage
%%Trailer
%%DocumentFonts: Arial
