%!PS-Adobe-2.0 EPSF-2.0
%%Title: TcpNewReno-cwnd-1Mbps-UE8.eps
%%Creator: gnuplot 5.0 patchlevel 3
%%CreationDate: Tue May 24 14:35:49 2016
%%DocumentFonts: (atend)
%%BoundingBox: 50 50 410 302
%%EndComments
%%BeginProlog
/gnudict 256 dict def
gnudict begin
%
% The following true/false flags may be edited by hand if desired.
% The unit line width and grayscale image gamma correction may also be changed.
%
/Color true def
/Blacktext false def
/Solid false def
/Dashlength 3 def
/Landscape false def
/Level1 false def
/Level3 false def
/Rounded false def
/ClipToBoundingBox false def
/SuppressPDFMark false def
/TransparentPatterns false def
/gnulinewidth 15.000 def
/userlinewidth gnulinewidth def
/Gamma 1.0 def
/BackgroundColor {-1.000 -1.000 -1.000} def
%
/vshift -66 def
/dl1 {
  10.0 Dashlength userlinewidth gnulinewidth div mul mul mul
  Rounded { currentlinewidth 0.75 mul sub dup 0 le { pop 0.01 } if } if
} def
/dl2 {
  10.0 Dashlength userlinewidth gnulinewidth div mul mul mul
  Rounded { currentlinewidth 0.75 mul add } if
} def
/hpt_ 31.5 def
/vpt_ 31.5 def
/hpt hpt_ def
/vpt vpt_ def
/doclip {
  ClipToBoundingBox {
    newpath 50 50 moveto 410 50 lineto 410 302 lineto 50 302 lineto closepath
    clip
  } if
} def
%
% Gnuplot Prolog Version 5.1 (Oct 2015)
%
%/SuppressPDFMark true def
%
/M {moveto} bind def
/L {lineto} bind def
/R {rmoveto} bind def
/V {rlineto} bind def
/N {newpath moveto} bind def
/Z {closepath} bind def
/C {setrgbcolor} bind def
/f {rlineto fill} bind def
/g {setgray} bind def
/Gshow {show} def   % May be redefined later in the file to support UTF-8
/vpt2 vpt 2 mul def
/hpt2 hpt 2 mul def
/Lshow {currentpoint stroke M 0 vshift R 
	Blacktext {gsave 0 setgray textshow grestore} {textshow} ifelse} def
/Rshow {currentpoint stroke M dup stringwidth pop neg vshift R
	Blacktext {gsave 0 setgray textshow grestore} {textshow} ifelse} def
/Cshow {currentpoint stroke M dup stringwidth pop -2 div vshift R 
	Blacktext {gsave 0 setgray textshow grestore} {textshow} ifelse} def
/UP {dup vpt_ mul /vpt exch def hpt_ mul /hpt exch def
  /hpt2 hpt 2 mul def /vpt2 vpt 2 mul def} def
/DL {Color {setrgbcolor Solid {pop []} if 0 setdash}
 {pop pop pop 0 setgray Solid {pop []} if 0 setdash} ifelse} def
/BL {stroke userlinewidth 2 mul setlinewidth
	Rounded {1 setlinejoin 1 setlinecap} if} def
/AL {stroke userlinewidth 2 div setlinewidth
	Rounded {1 setlinejoin 1 setlinecap} if} def
/UL {dup gnulinewidth mul /userlinewidth exch def
	dup 1 lt {pop 1} if 10 mul /udl exch def} def
/PL {stroke userlinewidth setlinewidth
	Rounded {1 setlinejoin 1 setlinecap} if} def
3.8 setmiterlimit
% Classic Line colors (version 5.0)
/LCw {1 1 1} def
/LCb {0 0 0} def
/LCa {0 0 0} def
/LC0 {1 0 0} def
/LC1 {0 1 0} def
/LC2 {0 0 1} def
/LC3 {1 0 1} def
/LC4 {0 1 1} def
/LC5 {1 1 0} def
/LC6 {0 0 0} def
/LC7 {1 0.3 0} def
/LC8 {0.5 0.5 0.5} def
% Default dash patterns (version 5.0)
/LTB {BL [] LCb DL} def
/LTw {PL [] 1 setgray} def
/LTb {PL [] LCb DL} def
/LTa {AL [1 udl mul 2 udl mul] 0 setdash LCa setrgbcolor} def
/LT0 {PL [] LC0 DL} def
/LT1 {PL [2 dl1 3 dl2] LC1 DL} def
/LT2 {PL [1 dl1 1.5 dl2] LC2 DL} def
/LT3 {PL [6 dl1 2 dl2 1 dl1 2 dl2] LC3 DL} def
/LT4 {PL [1 dl1 2 dl2 6 dl1 2 dl2 1 dl1 2 dl2] LC4 DL} def
/LT5 {PL [4 dl1 2 dl2] LC5 DL} def
/LT6 {PL [1.5 dl1 1.5 dl2 1.5 dl1 1.5 dl2 1.5 dl1 6 dl2] LC6 DL} def
/LT7 {PL [3 dl1 3 dl2 1 dl1 3 dl2] LC7 DL} def
/LT8 {PL [2 dl1 2 dl2 2 dl1 6 dl2] LC8 DL} def
/SL {[] 0 setdash} def
/Pnt {stroke [] 0 setdash gsave 1 setlinecap M 0 0 V stroke grestore} def
/Dia {stroke [] 0 setdash 2 copy vpt add M
  hpt neg vpt neg V hpt vpt neg V
  hpt vpt V hpt neg vpt V closepath stroke
  Pnt} def
/Pls {stroke [] 0 setdash vpt sub M 0 vpt2 V
  currentpoint stroke M
  hpt neg vpt neg R hpt2 0 V stroke
 } def
/Box {stroke [] 0 setdash 2 copy exch hpt sub exch vpt add M
  0 vpt2 neg V hpt2 0 V 0 vpt2 V
  hpt2 neg 0 V closepath stroke
  Pnt} def
/Crs {stroke [] 0 setdash exch hpt sub exch vpt add M
  hpt2 vpt2 neg V currentpoint stroke M
  hpt2 neg 0 R hpt2 vpt2 V stroke} def
/TriU {stroke [] 0 setdash 2 copy vpt 1.12 mul add M
  hpt neg vpt -1.62 mul V
  hpt 2 mul 0 V
  hpt neg vpt 1.62 mul V closepath stroke
  Pnt} def
/Star {2 copy Pls Crs} def
/BoxF {stroke [] 0 setdash exch hpt sub exch vpt add M
  0 vpt2 neg V hpt2 0 V 0 vpt2 V
  hpt2 neg 0 V closepath fill} def
/TriUF {stroke [] 0 setdash vpt 1.12 mul add M
  hpt neg vpt -1.62 mul V
  hpt 2 mul 0 V
  hpt neg vpt 1.62 mul V closepath fill} def
/TriD {stroke [] 0 setdash 2 copy vpt 1.12 mul sub M
  hpt neg vpt 1.62 mul V
  hpt 2 mul 0 V
  hpt neg vpt -1.62 mul V closepath stroke
  Pnt} def
/TriDF {stroke [] 0 setdash vpt 1.12 mul sub M
  hpt neg vpt 1.62 mul V
  hpt 2 mul 0 V
  hpt neg vpt -1.62 mul V closepath fill} def
/DiaF {stroke [] 0 setdash vpt add M
  hpt neg vpt neg V hpt vpt neg V
  hpt vpt V hpt neg vpt V closepath fill} def
/Pent {stroke [] 0 setdash 2 copy gsave
  translate 0 hpt M 4 {72 rotate 0 hpt L} repeat
  closepath stroke grestore Pnt} def
/PentF {stroke [] 0 setdash gsave
  translate 0 hpt M 4 {72 rotate 0 hpt L} repeat
  closepath fill grestore} def
/Circle {stroke [] 0 setdash 2 copy
  hpt 0 360 arc stroke Pnt} def
/CircleF {stroke [] 0 setdash hpt 0 360 arc fill} def
/C0 {BL [] 0 setdash 2 copy moveto vpt 90 450 arc} bind def
/C1 {BL [] 0 setdash 2 copy moveto
	2 copy vpt 0 90 arc closepath fill
	vpt 0 360 arc closepath} bind def
/C2 {BL [] 0 setdash 2 copy moveto
	2 copy vpt 90 180 arc closepath fill
	vpt 0 360 arc closepath} bind def
/C3 {BL [] 0 setdash 2 copy moveto
	2 copy vpt 0 180 arc closepath fill
	vpt 0 360 arc closepath} bind def
/C4 {BL [] 0 setdash 2 copy moveto
	2 copy vpt 180 270 arc closepath fill
	vpt 0 360 arc closepath} bind def
/C5 {BL [] 0 setdash 2 copy moveto
	2 copy vpt 0 90 arc
	2 copy moveto
	2 copy vpt 180 270 arc closepath fill
	vpt 0 360 arc} bind def
/C6 {BL [] 0 setdash 2 copy moveto
	2 copy vpt 90 270 arc closepath fill
	vpt 0 360 arc closepath} bind def
/C7 {BL [] 0 setdash 2 copy moveto
	2 copy vpt 0 270 arc closepath fill
	vpt 0 360 arc closepath} bind def
/C8 {BL [] 0 setdash 2 copy moveto
	2 copy vpt 270 360 arc closepath fill
	vpt 0 360 arc closepath} bind def
/C9 {BL [] 0 setdash 2 copy moveto
	2 copy vpt 270 450 arc closepath fill
	vpt 0 360 arc closepath} bind def
/C10 {BL [] 0 setdash 2 copy 2 copy moveto vpt 270 360 arc closepath fill
	2 copy moveto
	2 copy vpt 90 180 arc closepath fill
	vpt 0 360 arc closepath} bind def
/C11 {BL [] 0 setdash 2 copy moveto
	2 copy vpt 0 180 arc closepath fill
	2 copy moveto
	2 copy vpt 270 360 arc closepath fill
	vpt 0 360 arc closepath} bind def
/C12 {BL [] 0 setdash 2 copy moveto
	2 copy vpt 180 360 arc closepath fill
	vpt 0 360 arc closepath} bind def
/C13 {BL [] 0 setdash 2 copy moveto
	2 copy vpt 0 90 arc closepath fill
	2 copy moveto
	2 copy vpt 180 360 arc closepath fill
	vpt 0 360 arc closepath} bind def
/C14 {BL [] 0 setdash 2 copy moveto
	2 copy vpt 90 360 arc closepath fill
	vpt 0 360 arc} bind def
/C15 {BL [] 0 setdash 2 copy vpt 0 360 arc closepath fill
	vpt 0 360 arc closepath} bind def
/Rec {newpath 4 2 roll moveto 1 index 0 rlineto 0 exch rlineto
	neg 0 rlineto closepath} bind def
/Square {dup Rec} bind def
/Bsquare {vpt sub exch vpt sub exch vpt2 Square} bind def
/S0 {BL [] 0 setdash 2 copy moveto 0 vpt rlineto BL Bsquare} bind def
/S1 {BL [] 0 setdash 2 copy vpt Square fill Bsquare} bind def
/S2 {BL [] 0 setdash 2 copy exch vpt sub exch vpt Square fill Bsquare} bind def
/S3 {BL [] 0 setdash 2 copy exch vpt sub exch vpt2 vpt Rec fill Bsquare} bind def
/S4 {BL [] 0 setdash 2 copy exch vpt sub exch vpt sub vpt Square fill Bsquare} bind def
/S5 {BL [] 0 setdash 2 copy 2 copy vpt Square fill
	exch vpt sub exch vpt sub vpt Square fill Bsquare} bind def
/S6 {BL [] 0 setdash 2 copy exch vpt sub exch vpt sub vpt vpt2 Rec fill Bsquare} bind def
/S7 {BL [] 0 setdash 2 copy exch vpt sub exch vpt sub vpt vpt2 Rec fill
	2 copy vpt Square fill Bsquare} bind def
/S8 {BL [] 0 setdash 2 copy vpt sub vpt Square fill Bsquare} bind def
/S9 {BL [] 0 setdash 2 copy vpt sub vpt vpt2 Rec fill Bsquare} bind def
/S10 {BL [] 0 setdash 2 copy vpt sub vpt Square fill 2 copy exch vpt sub exch vpt Square fill
	Bsquare} bind def
/S11 {BL [] 0 setdash 2 copy vpt sub vpt Square fill 2 copy exch vpt sub exch vpt2 vpt Rec fill
	Bsquare} bind def
/S12 {BL [] 0 setdash 2 copy exch vpt sub exch vpt sub vpt2 vpt Rec fill Bsquare} bind def
/S13 {BL [] 0 setdash 2 copy exch vpt sub exch vpt sub vpt2 vpt Rec fill
	2 copy vpt Square fill Bsquare} bind def
/S14 {BL [] 0 setdash 2 copy exch vpt sub exch vpt sub vpt2 vpt Rec fill
	2 copy exch vpt sub exch vpt Square fill Bsquare} bind def
/S15 {BL [] 0 setdash 2 copy Bsquare fill Bsquare} bind def
/D0 {gsave translate 45 rotate 0 0 S0 stroke grestore} bind def
/D1 {gsave translate 45 rotate 0 0 S1 stroke grestore} bind def
/D2 {gsave translate 45 rotate 0 0 S2 stroke grestore} bind def
/D3 {gsave translate 45 rotate 0 0 S3 stroke grestore} bind def
/D4 {gsave translate 45 rotate 0 0 S4 stroke grestore} bind def
/D5 {gsave translate 45 rotate 0 0 S5 stroke grestore} bind def
/D6 {gsave translate 45 rotate 0 0 S6 stroke grestore} bind def
/D7 {gsave translate 45 rotate 0 0 S7 stroke grestore} bind def
/D8 {gsave translate 45 rotate 0 0 S8 stroke grestore} bind def
/D9 {gsave translate 45 rotate 0 0 S9 stroke grestore} bind def
/D10 {gsave translate 45 rotate 0 0 S10 stroke grestore} bind def
/D11 {gsave translate 45 rotate 0 0 S11 stroke grestore} bind def
/D12 {gsave translate 45 rotate 0 0 S12 stroke grestore} bind def
/D13 {gsave translate 45 rotate 0 0 S13 stroke grestore} bind def
/D14 {gsave translate 45 rotate 0 0 S14 stroke grestore} bind def
/D15 {gsave translate 45 rotate 0 0 S15 stroke grestore} bind def
/DiaE {stroke [] 0 setdash vpt add M
  hpt neg vpt neg V hpt vpt neg V
  hpt vpt V hpt neg vpt V closepath stroke} def
/BoxE {stroke [] 0 setdash exch hpt sub exch vpt add M
  0 vpt2 neg V hpt2 0 V 0 vpt2 V
  hpt2 neg 0 V closepath stroke} def
/TriUE {stroke [] 0 setdash vpt 1.12 mul add M
  hpt neg vpt -1.62 mul V
  hpt 2 mul 0 V
  hpt neg vpt 1.62 mul V closepath stroke} def
/TriDE {stroke [] 0 setdash vpt 1.12 mul sub M
  hpt neg vpt 1.62 mul V
  hpt 2 mul 0 V
  hpt neg vpt -1.62 mul V closepath stroke} def
/PentE {stroke [] 0 setdash gsave
  translate 0 hpt M 4 {72 rotate 0 hpt L} repeat
  closepath stroke grestore} def
/CircE {stroke [] 0 setdash 
  hpt 0 360 arc stroke} def
/Opaque {gsave closepath 1 setgray fill grestore 0 setgray closepath} def
/DiaW {stroke [] 0 setdash vpt add M
  hpt neg vpt neg V hpt vpt neg V
  hpt vpt V hpt neg vpt V Opaque stroke} def
/BoxW {stroke [] 0 setdash exch hpt sub exch vpt add M
  0 vpt2 neg V hpt2 0 V 0 vpt2 V
  hpt2 neg 0 V Opaque stroke} def
/TriUW {stroke [] 0 setdash vpt 1.12 mul add M
  hpt neg vpt -1.62 mul V
  hpt 2 mul 0 V
  hpt neg vpt 1.62 mul V Opaque stroke} def
/TriDW {stroke [] 0 setdash vpt 1.12 mul sub M
  hpt neg vpt 1.62 mul V
  hpt 2 mul 0 V
  hpt neg vpt -1.62 mul V Opaque stroke} def
/PentW {stroke [] 0 setdash gsave
  translate 0 hpt M 4 {72 rotate 0 hpt L} repeat
  Opaque stroke grestore} def
/CircW {stroke [] 0 setdash 
  hpt 0 360 arc Opaque stroke} def
/BoxFill {gsave Rec 1 setgray fill grestore} def
/Density {
  /Fillden exch def
  currentrgbcolor
  /ColB exch def /ColG exch def /ColR exch def
  /ColR ColR Fillden mul Fillden sub 1 add def
  /ColG ColG Fillden mul Fillden sub 1 add def
  /ColB ColB Fillden mul Fillden sub 1 add def
  ColR ColG ColB setrgbcolor} def
/BoxColFill {gsave Rec PolyFill} def
/PolyFill {gsave Density fill grestore grestore} def
/h {rlineto rlineto rlineto gsave closepath fill grestore} bind def
%
% PostScript Level 1 Pattern Fill routine for rectangles
% Usage: x y w h s a XX PatternFill
%	x,y = lower left corner of box to be filled
%	w,h = width and height of box
%	  a = angle in degrees between lines and x-axis
%	 XX = 0/1 for no/yes cross-hatch
%
/PatternFill {gsave /PFa [ 9 2 roll ] def
  PFa 0 get PFa 2 get 2 div add PFa 1 get PFa 3 get 2 div add translate
  PFa 2 get -2 div PFa 3 get -2 div PFa 2 get PFa 3 get Rec
  TransparentPatterns {} {gsave 1 setgray fill grestore} ifelse
  clip
  currentlinewidth 0.5 mul setlinewidth
  /PFs PFa 2 get dup mul PFa 3 get dup mul add sqrt def
  0 0 M PFa 5 get rotate PFs -2 div dup translate
  0 1 PFs PFa 4 get div 1 add floor cvi
	{PFa 4 get mul 0 M 0 PFs V} for
  0 PFa 6 get ne {
	0 1 PFs PFa 4 get div 1 add floor cvi
	{PFa 4 get mul 0 2 1 roll M PFs 0 V} for
 } if
  stroke grestore} def
%
/languagelevel where
 {pop languagelevel} {1} ifelse
dup 2 lt
	{/InterpretLevel1 true def
	 /InterpretLevel3 false def}
	{/InterpretLevel1 Level1 def
	 2 gt
	    {/InterpretLevel3 Level3 def}
	    {/InterpretLevel3 false def}
	 ifelse }
 ifelse
%
% PostScript level 2 pattern fill definitions
%
/Level2PatternFill {
/Tile8x8 {/PaintType 2 /PatternType 1 /TilingType 1 /BBox [0 0 8 8] /XStep 8 /YStep 8}
	bind def
/KeepColor {currentrgbcolor [/Pattern /DeviceRGB] setcolorspace} bind def
<< Tile8x8
 /PaintProc {0.5 setlinewidth pop 0 0 M 8 8 L 0 8 M 8 0 L stroke} 
>> matrix makepattern
/Pat1 exch def
<< Tile8x8
 /PaintProc {0.5 setlinewidth pop 0 0 M 8 8 L 0 8 M 8 0 L stroke
	0 4 M 4 8 L 8 4 L 4 0 L 0 4 L stroke}
>> matrix makepattern
/Pat2 exch def
<< Tile8x8
 /PaintProc {0.5 setlinewidth pop 0 0 M 0 8 L
	8 8 L 8 0 L 0 0 L fill}
>> matrix makepattern
/Pat3 exch def
<< Tile8x8
 /PaintProc {0.5 setlinewidth pop -4 8 M 8 -4 L
	0 12 M 12 0 L stroke}
>> matrix makepattern
/Pat4 exch def
<< Tile8x8
 /PaintProc {0.5 setlinewidth pop -4 0 M 8 12 L
	0 -4 M 12 8 L stroke}
>> matrix makepattern
/Pat5 exch def
<< Tile8x8
 /PaintProc {0.5 setlinewidth pop -2 8 M 4 -4 L
	0 12 M 8 -4 L 4 12 M 10 0 L stroke}
>> matrix makepattern
/Pat6 exch def
<< Tile8x8
 /PaintProc {0.5 setlinewidth pop -2 0 M 4 12 L
	0 -4 M 8 12 L 4 -4 M 10 8 L stroke}
>> matrix makepattern
/Pat7 exch def
<< Tile8x8
 /PaintProc {0.5 setlinewidth pop 8 -2 M -4 4 L
	12 0 M -4 8 L 12 4 M 0 10 L stroke}
>> matrix makepattern
/Pat8 exch def
<< Tile8x8
 /PaintProc {0.5 setlinewidth pop 0 -2 M 12 4 L
	-4 0 M 12 8 L -4 4 M 8 10 L stroke}
>> matrix makepattern
/Pat9 exch def
/Pattern1 {PatternBgnd KeepColor Pat1 setpattern} bind def
/Pattern2 {PatternBgnd KeepColor Pat2 setpattern} bind def
/Pattern3 {PatternBgnd KeepColor Pat3 setpattern} bind def
/Pattern4 {PatternBgnd KeepColor Landscape {Pat5} {Pat4} ifelse setpattern} bind def
/Pattern5 {PatternBgnd KeepColor Landscape {Pat4} {Pat5} ifelse setpattern} bind def
/Pattern6 {PatternBgnd KeepColor Landscape {Pat9} {Pat6} ifelse setpattern} bind def
/Pattern7 {PatternBgnd KeepColor Landscape {Pat8} {Pat7} ifelse setpattern} bind def
} def
%
%
%End of PostScript Level 2 code
%
/PatternBgnd {
  TransparentPatterns {} {gsave 1 setgray fill grestore} ifelse
} def
%
% Substitute for Level 2 pattern fill codes with
% grayscale if Level 2 support is not selected.
%
/Level1PatternFill {
/Pattern1 {0.250 Density} bind def
/Pattern2 {0.500 Density} bind def
/Pattern3 {0.750 Density} bind def
/Pattern4 {0.125 Density} bind def
/Pattern5 {0.375 Density} bind def
/Pattern6 {0.625 Density} bind def
/Pattern7 {0.875 Density} bind def
} def
%
% Now test for support of Level 2 code
%
Level1 {Level1PatternFill} {Level2PatternFill} ifelse
%
/Symbol-Oblique /Symbol findfont [1 0 .167 1 0 0] makefont
dup length dict begin {1 index /FID eq {pop pop} {def} ifelse} forall
currentdict end definefont pop
%
/MFshow {
   { dup 5 get 3 ge
     { 5 get 3 eq {gsave} {grestore} ifelse }
     {dup dup 0 get findfont exch 1 get scalefont setfont
     [ currentpoint ] exch dup 2 get 0 exch R dup 5 get 2 ne {dup dup 6
     get exch 4 get {textshow} {stringwidth pop 0 R} ifelse }if dup 5 get 0 eq
     {dup 3 get {2 get neg 0 exch R pop} {pop aload pop M} ifelse} {dup 5
     get 1 eq {dup 2 get exch dup 3 get exch 6 get stringwidth pop -2 div
     dup 0 R} {dup 6 get stringwidth pop -2 div 0 R 6 get
     textshow 2 index {aload pop M neg 3 -1 roll neg R pop pop} {pop pop pop
     pop aload pop M} ifelse }ifelse }ifelse }
     ifelse }
   forall} def
/Gswidth {dup type /stringtype eq {stringwidth} {pop (n) stringwidth} ifelse} def
/MFwidth {0 exch { dup 5 get 3 ge { 5 get 3 eq { 0 } { pop } ifelse }
 {dup 3 get{dup dup 0 get findfont exch 1 get scalefont setfont
     6 get Gswidth pop add} {pop} ifelse} ifelse} forall} def
/MLshow { currentpoint stroke M
  0 exch R
  Blacktext {gsave 0 setgray MFshow grestore} {MFshow} ifelse } bind def
/MRshow { currentpoint stroke M
  exch dup MFwidth neg 3 -1 roll R
  Blacktext {gsave 0 setgray MFshow grestore} {MFshow} ifelse } bind def
/MCshow { currentpoint stroke M
  exch dup MFwidth -2 div 3 -1 roll R
  Blacktext {gsave 0 setgray MFshow grestore} {MFshow} ifelse } bind def
/XYsave    { [( ) 1 2 true false 3 ()] } bind def
/XYrestore { [( ) 1 2 true false 4 ()] } bind def
Level1 SuppressPDFMark or 
{} {
/SDict 10 dict def
systemdict /pdfmark known not {
  userdict /pdfmark systemdict /cleartomark get put
} if
SDict begin [
  /Title (TcpNewReno-cwnd-1Mbps-UE8.eps)
  /Subject (gnuplot plot)
  /Creator (gnuplot 5.0 patchlevel 3)
  /Author (nat)
%  /Producer (gnuplot)
%  /Keywords ()
  /CreationDate (Tue May 24 14:35:49 2016)
  /DOCINFO pdfmark
end
} ifelse
%
% Support for boxed text - Ethan A Merritt May 2005
%
/InitTextBox { userdict /TBy2 3 -1 roll put userdict /TBx2 3 -1 roll put
           userdict /TBy1 3 -1 roll put userdict /TBx1 3 -1 roll put
	   /Boxing true def } def
/ExtendTextBox { Boxing
    { gsave dup false charpath pathbbox
      dup TBy2 gt {userdict /TBy2 3 -1 roll put} {pop} ifelse
      dup TBx2 gt {userdict /TBx2 3 -1 roll put} {pop} ifelse
      dup TBy1 lt {userdict /TBy1 3 -1 roll put} {pop} ifelse
      dup TBx1 lt {userdict /TBx1 3 -1 roll put} {pop} ifelse
      grestore } if } def
/PopTextBox { newpath TBx1 TBxmargin sub TBy1 TBymargin sub M
               TBx1 TBxmargin sub TBy2 TBymargin add L
	       TBx2 TBxmargin add TBy2 TBymargin add L
	       TBx2 TBxmargin add TBy1 TBymargin sub L closepath } def
/DrawTextBox { PopTextBox stroke /Boxing false def} def
/FillTextBox { gsave PopTextBox 1 1 1 setrgbcolor fill grestore /Boxing false def} def
0 0 0 0 InitTextBox
/TBxmargin 20 def
/TBymargin 20 def
/Boxing false def
/textshow { ExtendTextBox Gshow } def
%
% redundant definitions for compatibility with prologue.ps older than 5.0.2
/LTB {BL [] LCb DL} def
/LTb {PL [] LCb DL} def
end
%%EndProlog
%%Page: 1 1
gnudict begin
gsave
doclip
50 50 translate
0.050 0.050 scale
0 setgray
newpath
(Arial) findfont 200 scalefont setfont
BackgroundColor 0 lt 3 1 roll 0 lt exch 0 lt or or not {BackgroundColor C 1.000 0 0 7200.00 5040.00 BoxColFill} if
1.000 UL
LTb
0.00 0.00 0.00 C 0.500 UL
LTa
0.50 0.50 0.50 C 1340 820 M
5499 0 V
stroke
1.000 UL
LTb
0.00 0.00 0.00 C 1340 820 M
63 0 V
5436 0 R
-63 0 V
stroke
1220 820 M
[ [(Arial) 200.0 0.0 true true 0 ( 0.1)]
] -66.7 MRshow
1.000 UL
LTb
0.00 0.00 0.00 C 1340 1020 M
31 0 V
5468 0 R
-31 0 V
1340 1284 M
31 0 V
5468 0 R
-31 0 V
1340 1419 M
31 0 V
5468 0 R
-31 0 V
stroke
0.500 UL
LTa
0.50 0.50 0.50 C 1340 1483 M
5499 0 V
stroke
1.000 UL
LTb
0.00 0.00 0.00 C 1340 1483 M
63 0 V
5436 0 R
-63 0 V
stroke
1220 1483 M
[ [(Arial) 200.0 0.0 true true 0 ( 1)]
] -66.7 MRshow
1.000 UL
LTb
0.00 0.00 0.00 C 1340 1683 M
31 0 V
5468 0 R
-31 0 V
1340 1947 M
31 0 V
5468 0 R
-31 0 V
1340 2082 M
31 0 V
5468 0 R
-31 0 V
stroke
0.500 UL
LTa
0.50 0.50 0.50 C 1340 2146 M
5499 0 V
stroke
1.000 UL
LTb
0.00 0.00 0.00 C 1340 2146 M
63 0 V
5436 0 R
-63 0 V
stroke
1220 2146 M
[ [(Arial) 200.0 0.0 true true 0 ( 10)]
] -66.7 MRshow
1.000 UL
LTb
0.00 0.00 0.00 C 1340 2346 M
31 0 V
5468 0 R
-31 0 V
1340 2610 M
31 0 V
5468 0 R
-31 0 V
1340 2745 M
31 0 V
5468 0 R
-31 0 V
stroke
0.500 UL
LTa
0.50 0.50 0.50 C 1340 2810 M
5499 0 V
stroke
1.000 UL
LTb
0.00 0.00 0.00 C 1340 2810 M
63 0 V
5436 0 R
-63 0 V
stroke
1220 2810 M
[ [(Arial) 200.0 0.0 true true 0 ( 100)]
] -66.7 MRshow
1.000 UL
LTb
0.00 0.00 0.00 C 1340 3009 M
31 0 V
5468 0 R
-31 0 V
1340 3273 M
31 0 V
5468 0 R
-31 0 V
1340 3408 M
31 0 V
5468 0 R
-31 0 V
stroke
0.500 UL
LTa
0.50 0.50 0.50 C 1340 3473 M
5499 0 V
stroke
1.000 UL
LTb
0.00 0.00 0.00 C 1340 3473 M
63 0 V
5436 0 R
-63 0 V
stroke
1220 3473 M
[ [(Arial) 200.0 0.0 true true 0 ( 1000)]
] -66.7 MRshow
1.000 UL
LTb
0.00 0.00 0.00 C 1340 3672 M
31 0 V
5468 0 R
-31 0 V
1340 3936 M
31 0 V
5468 0 R
-31 0 V
1340 4072 M
31 0 V
5468 0 R
-31 0 V
stroke
0.500 UL
LTa
0.50 0.50 0.50 C 1340 4136 M
5499 0 V
stroke
1.000 UL
LTb
0.00 0.00 0.00 C 1340 4136 M
63 0 V
5436 0 R
-63 0 V
stroke
1220 4136 M
[ [(Arial) 200.0 0.0 true true 0 ( 10000)]
] -66.7 MRshow
1.000 UL
LTb
0.00 0.00 0.00 C 1340 4335 M
31 0 V
5468 0 R
-31 0 V
1340 4599 M
31 0 V
5468 0 R
-31 0 V
1340 4735 M
31 0 V
5468 0 R
-31 0 V
stroke
0.500 UL
LTa
0.50 0.50 0.50 C 1340 4799 M
5499 0 V
stroke
1.000 UL
LTb
0.00 0.00 0.00 C 1340 4799 M
63 0 V
5436 0 R
-63 0 V
stroke
1220 4799 M
[ [(Arial) 200.0 0.0 true true 0 ( 100000)]
] -66.7 MRshow
1.000 UL
LTb
0.00 0.00 0.00 C 0.500 UL
LTa
0.50 0.50 0.50 C 1724 820 M
0 3979 V
stroke
1.000 UL
LTb
0.00 0.00 0.00 C 1724 820 M
0 63 V
0 3916 R
0 -63 V
stroke
1724 620 M
[ [(Arial) 200.0 0.0 true true 0 ( 10)]
] -66.7 MCshow
1.000 UL
LTb
0.00 0.00 0.00 C 0.500 UL
LTa
0.50 0.50 0.50 C 2363 820 M
0 3979 V
stroke
1.000 UL
LTb
0.00 0.00 0.00 C 2363 820 M
0 63 V
0 3916 R
0 -63 V
stroke
2363 620 M
[ [(Arial) 200.0 0.0 true true 0 ( 20)]
] -66.7 MCshow
1.000 UL
LTb
0.00 0.00 0.00 C 0.500 UL
LTa
0.50 0.50 0.50 C 3002 820 M
0 3979 V
stroke
1.000 UL
LTb
0.00 0.00 0.00 C 3002 820 M
0 63 V
0 3916 R
0 -63 V
stroke
3002 620 M
[ [(Arial) 200.0 0.0 true true 0 ( 30)]
] -66.7 MCshow
1.000 UL
LTb
0.00 0.00 0.00 C 0.500 UL
LTa
0.50 0.50 0.50 C 3642 820 M
0 3979 V
stroke
1.000 UL
LTb
0.00 0.00 0.00 C 3642 820 M
0 63 V
0 3916 R
0 -63 V
stroke
3642 620 M
[ [(Arial) 200.0 0.0 true true 0 ( 40)]
] -66.7 MCshow
1.000 UL
LTb
0.00 0.00 0.00 C 0.500 UL
LTa
0.50 0.50 0.50 C 4281 820 M
0 3979 V
stroke
1.000 UL
LTb
0.00 0.00 0.00 C 4281 820 M
0 63 V
0 3916 R
0 -63 V
stroke
4281 620 M
[ [(Arial) 200.0 0.0 true true 0 ( 50)]
] -66.7 MCshow
1.000 UL
LTb
0.00 0.00 0.00 C 0.500 UL
LTa
0.50 0.50 0.50 C 4921 820 M
0 3979 V
stroke
1.000 UL
LTb
0.00 0.00 0.00 C 4921 820 M
0 63 V
0 3916 R
0 -63 V
stroke
4921 620 M
[ [(Arial) 200.0 0.0 true true 0 ( 60)]
] -66.7 MCshow
1.000 UL
LTb
0.00 0.00 0.00 C 0.500 UL
LTa
0.50 0.50 0.50 C 5560 820 M
0 3979 V
stroke
1.000 UL
LTb
0.00 0.00 0.00 C 5560 820 M
0 63 V
0 3916 R
0 -63 V
stroke
5560 620 M
[ [(Arial) 200.0 0.0 true true 0 ( 70)]
] -66.7 MCshow
1.000 UL
LTb
0.00 0.00 0.00 C 0.500 UL
LTa
0.50 0.50 0.50 C 6200 820 M
0 3979 V
stroke
1.000 UL
LTb
0.00 0.00 0.00 C 6200 820 M
0 63 V
0 3916 R
0 -63 V
stroke
6200 620 M
[ [(Arial) 200.0 0.0 true true 0 ( 80)]
] -66.7 MCshow
1.000 UL
LTb
0.00 0.00 0.00 C 0.500 UL
LTa
0.50 0.50 0.50 C 6839 820 M
0 3979 V
stroke
1.000 UL
LTb
0.00 0.00 0.00 C 6839 820 M
0 63 V
0 3916 R
0 -63 V
stroke
6839 620 M
[ [(Arial) 200.0 0.0 true true 0 ( 90)]
] -66.7 MCshow
1.000 UL
LTb
0.00 0.00 0.00 C 1.000 UL
LTB
0.00 0.00 0.00 C 1340 4799 M
0 -3979 V
5499 0 V
0 3979 R
-5499 0 R
1.000 UP
stroke
LTb
0.00 0.00 0.00 C LCb setrgbcolor
160 2809 M
currentpoint gsave translate -270 rotate 0 0 moveto
[ [(Arial) 200.0 0.0 true true 0 (cWnd \(KB\))]
] -66.7 MCshow
grestore
LTb
LCb setrgbcolor
4089 320 M
[ [(Arial) 200.0 0.0 true true 0 (Time \(s\))]
] -66.7 MCshow
LTb
% Begin plot #1
1.000 UL
LTa
0.60 0.60 0.00 C 1944 1767 M
4 117 V
3 83 V
3 64 V
0 53 V
3 44 V
0 38 V
0 34 V
4 31 V
0 27 V
0 25 V
0 23 V
4 22 V
0 19 V
0 19 V
0 17 V
0 17 V
0 15 V
3 15 V
0 14 V
0 14 V
0 13 V
0 12 V
0 12 V
0 11 V
0 11 V
0 10 V
4 10 V
0 10 V
0 9 V
0 10 V
0 8 V
0 9 V
0 8 V
0 9 V
0 7 V
0 8 V
0 8 V
0 7 V
0 7 V
0 7 V
4 7 V
0 6 V
0 7 V
0 6 V
0 6 V
0 6 V
0 6 V
0 6 V
0 6 V
0 5 V
0 6 V
0 5 V
0 6 V
0 5 V
0 5 V
0 5 V
0 5 V
0 5 V
0 4 V
0 5 V
0 5 V
10 4 V
0 5 V
0 4 V
0 4 V
0 5 V
6 4 V
0 4 V
0 4 V
0 4 V
0 4 V
0 4 V
0 4 V
0 4 V
0 4 V
0 3 V
0 4 V
0 4 V
0 3 V
0 4 V
0 3 V
0 4 V
0 3 V
0 3 V
0 4 V
0 3 V
0 3 V
0 3 V
0 4 V
0 3 V
0 3 V
0 3 V
0 3 V
7 3 V
0 3 V
0 3 V
0 3 V
0 3 V
0 3 V
0 2 V
0 3 V
0 3 V
0 3 V
0 3 V
stroke 1999 2911 M
0 2 V
0 3 V
0 3 V
0 2 V
0 3 V
0 2 V
0 3 V
0 3 V
0 2 V
0 3 V
0 2 V
0 2 V
0 3 V
0 2 V
0 3 V
0 2 V
0 2 V
0 3 V
0 2 V
0 2 V
0 3 V
0 2 V
0 2 V
0 2 V
0 3 V
0 2 V
0 2 V
0 2 V
0 2 V
0 2 V
0 2 V
0 3 V
0 2 V
4 -190 V
0 4 V
0 4 V
0 4 V
0 4 V
0 4 V
0 3 V
0 4 V
0 4 V
0 3 V
0 4 V
0 3 V
0 4 V
0 3 V
0 3 V
0 4 V
0 3 V
0 3 V
0 3 V
0 4 V
0 3 V
0 3 V
0 3 V
0 3 V
0 3 V
0 3 V
0 3 V
0 3 V
0 3 V
0 3 V
0 2 V
0 3 V
0 3 V
0 3 V
0 3 V
0 2 V
0 3 V
0 3 V
0 2 V
0 3 V
0 2 V
0 3 V
0 3 V
0 2 V
0 3 V
0 2 V
0 2 V
0 3 V
0 2 V
0 3 V
0 2 V
0 2 V
0 3 V
0 2 V
0 2 V
0 3 V
0 2 V
0 2 V
0 2 V
0 3 V
0 2 V
0 2 V
0 2 V
0 2 V
0 2 V
0 2 V
0 3 V
0 2 V
0 2 V
0 2 V
0 2 V
stroke 2003 2995 M
0 2 V
0 2 V
0 2 V
0 2 V
0 2 V
0 2 V
0 2 V
0 2 V
0 1 V
0 2 V
0 2 V
0 2 V
0 2 V
0 2 V
0 2 V
0 2 V
0 1 V
0 2 V
0 2 V
0 2 V
0 2 V
0 1 V
0 2 V
0 2 V
0 1 V
0 2 V
0 2 V
0 2 V
3 1 V
0 2 V
0 -3 V
0 1 V
0 2 V
0 2 V
0 1 V
0 2 V
1 2 V
0 1 V
0 2 V
0 1 V
0 2 V
0 2 V
0 1 V
0 2 V
0 1 V
0 2 V
0 2 V
0 1 V
0 2 V
0 1 V
0 2 V
0 1 V
0 2 V
0 1 V
0 2 V
0 1 V
0 2 V
0 1 V
0 2 V
0 1 V
0 1 V
10 -1 V
0 1 V
0 2 V
0 1 V
0 2 V
0 1 V
0 2 V
0 1 V
0 1 V
0 2 V
0 1 V
0 1 V
0 2 V
0 1 V
0 2 V
0 1 V
0 1 V
0 2 V
0 1 V
0 1 V
0 2 V
0 1 V
0 1 V
0 1 V
0 2 V
0 1 V
4 -1 V
0 1 V
0 1 V
0 2 V
0 1 V
0 1 V
0 1 V
0 2 V
0 1 V
0 1 V
0 1 V
0 2 V
0 1 V
0 1 V
0 1 V
0 2 V
0 1 V
stroke 2021 3145 M
0 1 V
0 1 V
0 1 V
0 2 V
0 1 V
0 1 V
0 1 V
0 1 V
0 1 V
0 2 V
3 -2 V
0 2 V
0 1 V
0 1 V
0 1 V
0 1 V
0 1 V
0 1 V
0 2 V
0 1 V
0 1 V
0 1 V
0 1 V
0 1 V
0 1 V
0 1 V
0 1 V
0 1 V
0 2 V
0 1 V
0 1 V
1 1 V
0 1 V
0 1 V
0 1 V
0 1 V
0 1 V
0 1 V
3 -128 V
0 1 V
0 2 V
0 1 V
0 2 V
0 2 V
0 1 V
0 2 V
0 1 V
0 2 V
0 2 V
0 1 V
0 2 V
0 1 V
0 2 V
0 1 V
0 2 V
0 1 V
0 2 V
0 1 V
0 2 V
0 1 V
0 2 V
0 1 V
0 1 V
0 2 V
0 1 V
0 2 V
0 1 V
4 -1 V
0 1 V
0 2 V
0 1 V
0 1 V
0 2 V
0 1 V
0 1 V
0 2 V
0 1 V
0 2 V
0 1 V
0 1 V
0 2 V
0 1 V
0 1 V
0 2 V
0 1 V
0 1 V
0 1 V
0 2 V
0 1 V
0 1 V
0 2 V
0 1 V
0 1 V
0 1 V
0 2 V
0 1 V
0 1 V
4 -1 V
0 1 V
0 1 V
0 2 V
0 1 V
0 1 V
0 1 V
stroke 2036 3142 M
0 2 V
0 1 V
0 1 V
0 1 V
0 1 V
0 2 V
0 1 V
0 1 V
0 1 V
0 1 V
0 1 V
0 2 V
0 1 V
0 1 V
0 1 V
0 1 V
0 1 V
0 1 V
0 2 V
0 1 V
0 1 V
0 1 V
0 1 V
0 1 V
3 -1 V
0 1 V
0 1 V
0 1 V
0 1 V
0 1 V
0 2 V
0 1 V
0 1 V
0 1 V
0 1 V
0 1 V
0 1 V
0 1 V
0 1 V
0 1 V
0 1 V
0 1 V
0 1 V
0 1 V
0 1 V
0 1 V
0 1 V
0 1 V
0 1 V
0 1 V
0 1 V
0 1 V
0 1 V
0 1 V
0 1 V
0 1 V
4 -1 V
0 1 V
0 1 V
0 1 V
0 1 V
0 1 V
0 1 V
0 1 V
0 1 V
0 1 V
0 1 V
0 1 V
0 1 V
0 1 V
0 1 V
0 1 V
0 1 V
0 1 V
0 1 V
0 1 V
0 1 V
0 1 V
0 1 V
0 1 V
0 1 V
0 1 V
0 1 V
0 1 V
0 1 V
0 1 V
0 1 V
0 1 V
4 -1 V
0 1 V
0 1 V
0 1 V
0 1 V
0 1 V
0 1 V
0 1 V
0 1 V
0 1 V
0 1 V
0 1 V
0 1 V
0 1 V
0 1 V
0 1 V
stroke 2047 3245 M
0 1 V
0 1 V
0 1 V
0 1 V
0 1 V
0 1 V
0 1 V
0 1 V
0 1 V
0 1 V
0 1 V
0 1 V
0 1 V
3 -1 V
0 1 V
0 1 V
0 1 V
0 1 V
0 1 V
0 1 V
0 1 V
0 1 V
0 1 V
0 1 V
0 1 V
0 1 V
0 1 V
0 1 V
0 1 V
0 1 V
0 1 V
0 1 V
0 1 V
0 1 V
0 1 V
0 1 V
0 1 V
0 1 V
1 0 V
0 1 V
0 1 V
0 1 V
3 -1 V
0 1 V
0 1 V
0 1 V
0 1 V
0 1 V
0 1 V
0 1 V
0 1 V
0 1 V
0 1 V
0 1 V
0 1 V
0 1 V
0 1 V
0 1 V
0 1 V
0 1 V
0 1 V
0 1 V
0 1 V
0 1 V
0 1 V
0 1 V
0 1 V
0 1 V
4 -1 V
0 1 V
0 1 V
0 1 V
0 1 V
0 1 V
0 1 V
0 1 V
0 1 V
0 1 V
0 1 V
0 1 V
0 1 V
0 1 V
0 1 V
0 1 V
0 1 V
0 1 V
0 1 V
0 1 V
0 1 V
0 1 V
0 1 V
0 1 V
0 1 V
3 -1 V
0 1 V
0 1 V
0 1 V
0 1 V
1 1 V
0 1 V
0 1 V
0 1 V
0 1 V
0 1 V
stroke 2062 3340 M
0 1 V
0 1 V
0 1 V
0 1 V
0 1 V
0 1 V
0 1 V
0 1 V
0 1 V
0 1 V
0 1 V
0 1 V
0 1 V
8 -1786 V
4 200 V
0 64 V
4 43 V
0 32 V
3 27 V
0 21 V
0 19 V
4 17 V
0 15 V
0 13 V
0 13 V
4 11 V
0 10 V
0 10 V
0 9 V
3 9 V
0 8 V
0 8 V
0 7 V
0 7 V
4 6 V
0 7 V
0 6 V
0 5 V
4 6 V
0 5 V
0 5 V
0 5 V
0 5 V
0 5 V
0 -81 V
3 44 V
0 38 V
0 34 V
0 31 V
0 -65 V
0 34 V
1 -72 V
0 38 V
0 -82 V
0 44 V
0 -97 V
0 53 V
0 -200 V
3 30 V
0 25 V
0 21 V
0 18 V
4 16 V
0 15 V
3 13 V
0 12 V
4 11 V
0 10 V
4 10 V
0 9 V
4 8 V
0 8 V
4 8 V
0 7 V
0 7 V
3 6 V
0 6 V
0 6 V
4 6 V
0 5 V
0 6 V
13 5 V
17 -68 V
4 -53 V
0 53 V
3 -53 V
0 53 V
4 -53 V
0 53 V
4 -53 V
0 53 V
3 -53 V
0 53 V
0 44 V
4 -244 V
0 30 V
0 25 V
3 21 V
4 18 V
4 16 V
0 15 V
4 13 V
0 12 V
4 11 V
stroke 2208 2045 M
0 10 V
3 10 V
0 9 V
3 8 V
0 8 V
4 8 V
0 7 V
0 7 V
3 6 V
0 6 V
0 6 V
4 6 V
0 5 V
0 6 V
4 5 V
0 5 V
0 5 V
3 4 V
0 5 V
0 4 V
4 4 V
0 4 V
0 4 V
0 4 V
4 4 V
0 3 V
0 4 V
0 3 V
4 4 V
0 3 V
0 3 V
0 4 V
3 3 V
0 3 V
0 3 V
0 3 V
3 2 V
0 3 V
0 3 V
2 3 V
0 2 V
2 3 V
0 3 V
0 2 V
1 2 V
0 3 V
3 2 V
0 3 V
0 2 V
0 2 V
0 2 V
3 3 V
0 2 V
0 2 V
1 2 V
0 2 V
10 2 V
0 -115 V
4 34 V
0 31 V
0 27 V
0 -27 V
0 27 V
3 -27 V
0 27 V
4 -27 V
0 27 V
4 -27 V
0 27 V
0 25 V
3 -25 V
0 25 V
0 23 V
0 22 V
3 -297 V
0 11 V
0 11 V
3 9 V
0 10 V
13 8 V
17 -49 V
4 -64 V
0 64 V
4 -64 V
0 64 V
3 -64 V
0 64 V
3 -264 V
4 64 V
4 43 V
3 32 V
4 27 V
4 21 V
4 19 V
3 17 V
0 15 V
4 13 V
0 13 V
3 11 V
0 10 V
4 10 V
0 9 V
4 9 V
0 8 V
stroke 2381 2088 M
4 8 V
0 7 V
0 7 V
3 6 V
0 7 V
0 6 V
4 5 V
0 6 V
0 5 V
3 5 V
0 5 V
0 5 V
3 5 V
0 4 V
0 5 V
4 4 V
0 4 V
0 4 V
0 4 V
3 4 V
0 3 V
0 4 V
1 3 V
10 4 V
3 3 V
0 4 V
0 3 V
0 3 V
4 3 V
0 3 V
0 3 V
0 3 V
3 3 V
0 2 V
0 3 V
0 3 V
0 2 V
3 3 V
0 2 V
0 3 V
0 2 V
0 3 V
4 2 V
0 2 V
0 3 V
0 2 V
0 2 V
3 2 V
0 2 V
0 2 V
0 2 V
0 3 V
4 2 V
0 2 V
0 2 V
0 1 V
0 2 V
3 2 V
0 2 V
0 2 V
0 2 V
0 2 V
0 1 V
4 2 V
0 2 V
0 2 V
0 1 V
0 2 V
0 2 V
3 1 V
0 2 V
0 1 V
0 2 V
0 1 V
0 2 V
4 2 V
0 1 V
0 2 V
0 1 V
0 1 V
0 2 V
3 1 V
0 2 V
0 1 V
0 2 V
0 1 V
0 1 V
0 2 V
4 1 V
0 1 V
0 2 V
0 1 V
0 1 V
0 2 V
0 1 V
4 1 V
0 1 V
0 2 V
0 1 V
0 1 V
0 1 V
0 1 V
3 2 V
0 1 V
stroke 2468 2360 M
0 1 V
0 1 V
0 1 V
0 1 V
0 1 V
4 2 V
0 1 V
0 1 V
0 1 V
0 1 V
0 1 V
0 1 V
4 1 V
0 1 V
0 1 V
0 1 V
0 1 V
0 1 V
0 1 V
0 1 V
3 1 V
0 1 V
0 1 V
0 1 V
0 1 V
0 1 V
0 1 V
0 1 V
4 1 V
0 1 V
0 1 V
0 1 V
0 1 V
0 1 V
0 1 V
0 1 V
4 1 V
0 1 V
0 1 V
0 1 V
0 1 V
0 1 V
0 1 V
4 1 V
0 1 V
0 1 V
0 1 V
0 1 V
0 1 V
0 1 V
3 1 V
0 1 V
0 1 V
0 1 V
0 1 V
0 1 V
0 1 V
4 1 V
0 1 V
0 1 V
0 1 V
0 1 V
0 1 V
0 1 V
3 1 V
0 1 V
10 1 V
0 1 V
0 1 V
4 0 V
0 1 V
0 1 V
0 1 V
0 1 V
0 1 V
0 1 V
3 1 V
0 1 V
0 1 V
0 1 V
0 1 V
0 1 V
0 1 V
4 0 V
0 1 V
0 1 V
0 1 V
0 1 V
0 1 V
0 1 V
4 1 V
0 1 V
0 1 V
0 1 V
0 1 V
0 1 V
3 1 V
0 1 V
0 1 V
0 1 V
0 1 V
0 1 V
4 1 V
0 1 V
stroke 2533 2463 M
0 1 V
0 1 V
0 1 V
0 1 V
4 1 V
0 1 V
0 1 V
0 1 V
0 1 V
0 1 V
4 1 V
0 1 V
0 1 V
0 1 V
0 1 V
0 1 V
3 1 V
0 1 V
0 1 V
0 1 V
0 1 V
0 1 V
4 0 V
0 1 V
0 1 V
0 1 V
0 1 V
0 1 V
4 1 V
0 1 V
0 1 V
0 1 V
0 1 V
0 1 V
3 0 V
0 1 V
0 1 V
0 1 V
0 1 V
0 1 V
4 1 V
0 1 V
0 1 V
0 1 V
0 1 V
3 1 V
0 1 V
0 1 V
0 1 V
0 1 V
0 1 V
4 0 V
0 1 V
0 1 V
0 1 V
0 1 V
0 1 V
4 0 V
0 1 V
0 1 V
0 1 V
0 1 V
0 1 V
4 0 V
0 1 V
0 1 V
0 1 V
0 1 V
0 1 V
3 0 V
0 1 V
0 1 V
0 1 V
0 1 V
4 1 V
0 1 V
0 1 V
0 1 V
0 1 V
3 1 V
0 1 V
0 1 V
0 1 V
0 1 V
3 0 V
0 1 V
0 1 V
0 1 V
1 0 V
0 1 V
3 1 V
0 1 V
0 1 V
0 1 V
0 1 V
3 0 V
0 1 V
0 1 V
0 1 V
0 1 V
1 0 V
3 1 V
0 1 V
0 1 V
stroke 2598 2557 M
0 1 V
0 1 V
4 0 V
0 1 V
0 1 V
0 1 V
0 1 V
4 0 V
0 1 V
0 1 V
0 1 V
0 1 V
3 1 V
0 1 V
0 1 V
0 1 V
0 1 V
3 0 V
0 1 V
10 1 V
0 1 V
3 0 V
0 1 V
0 1 V
1 1 V
0 1 V
3 0 V
0 1 V
0 1 V
0 1 V
0 1 V
3 0 V
0 1 V
0 1 V
0 1 V
0 1 V
4 0 V
0 1 V
0 1 V
0 1 V
0 1 V
3 0 V
0 1 V
0 1 V
0 1 V
0 1 V
4 0 V
0 1 V
0 1 V
0 1 V
0 1 V
3 0 V
0 1 V
0 1 V
0 1 V
64 -1035 V
10 200 V
4 117 V
3 83 V
3 64 V
0 53 V
4 44 V
0 38 V
0 34 V
4 31 V
0 27 V
0 25 V
0 23 V
3 22 V
0 19 V
0 19 V
0 17 V
0 17 V
0 1 V
0 1 V
4 1 V
0 1 V
0 1 V
0 1 V
0 1 V
0 1 V
0 1 V
4 1 V
0 1 V
0 1 V
0 1 V
0 1 V
0 1 V
0 1 V
0 1 V
3 0 V
0 1 V
0 1 V
0 1 V
0 1 V
0 1 V
0 1 V
0 1 V
3 0 V
0 1 V
0 1 V
1 0 V
0 1 V
0 1 V
stroke 2756 2428 M
0 1 V
0 1 V
3 1 V
0 1 V
1 1 V
0 1 V
0 1 V
0 1 V
3 1 V
0 1 V
0 1 V
0 1 V
0 1 V
0 1 V
0 1 V
3 1 V
0 1 V
0 1 V
0 1 V
1 1 V
0 1 V
0 1 V
3 0 V
0 1 V
0 1 V
0 1 V
10 1 V
0 1 V
0 1 V
0 1 V
4 0 V
0 1 V
0 1 V
0 1 V
0 1 V
0 1 V
0 1 V
4 0 V
0 1 V
0 1 V
0 1 V
0 1 V
0 1 V
0 1 V
3 0 V
0 1 V
0 1 V
0 1 V
0 1 V
0 1 V
0 1 V
4 0 V
0 1 V
0 1 V
0 1 V
0 1 V
0 1 V
23 1 V
4 0 V
0 1 V
0 1 V
0 1 V
0 1 V
0 1 V
4 1 V
0 1 V
0 1 V
0 1 V
0 1 V
0 1 V
64 -925 V
9 200 V
4 117 V
3 83 V
3 64 V
0 53 V
3 44 V
0 38 V
0 34 V
4 31 V
0 27 V
0 25 V
0 2 V
0 2 V
3 2 V
0 2 V
0 2 V
0 2 V
0 1 V
0 2 V
3 2 V
0 2 V
0 2 V
0 1 V
0 2 V
0 2 V
3 1 V
0 2 V
0 2 V
0 1 V
0 2 V
0 1 V
4 2 V
0 1 V
stroke 2929 2321 M
0 2 V
0 1 V
0 2 V
0 1 V
3 2 V
0 1 V
0 2 V
0 1 V
0 2 V
0 1 V
3 1 V
0 2 V
0 1 V
0 1 V
0 2 V
0 1 V
0 1 V
3 2 V
0 1 V
0 1 V
0 1 V
0 2 V
0 1 V
0 1 V
4 1 V
0 2 V
0 1 V
0 1 V
0 1 V
0 1 V
0 1 V
3 2 V
0 1 V
0 1 V
0 1 V
0 1 V
0 1 V
0 1 V
3 1 V
0 1 V
0 1 V
0 2 V
0 1 V
0 1 V
0 1 V
0 1 V
3 1 V
0 1 V
0 1 V
0 1 V
0 1 V
0 1 V
0 1 V
0 1 V
4 1 V
0 1 V
0 1 V
0 1 V
0 1 V
0 1 V
0 1 V
3 1 V
0 1 V
0 1 V
0 1 V
0 1 V
0 1 V
0 1 V
3 1 V
0 1 V
0 1 V
0 1 V
0 1 V
0 1 V
0 1 V
0 1 V
3 1 V
0 1 V
0 1 V
0 1 V
0 1 V
0 1 V
0 1 V
4 1 V
0 1 V
0 1 V
0 1 V
0 1 V
0 1 V
0 1 V
3 1 V
0 1 V
0 1 V
0 1 V
0 1 V
0 1 V
0 1 V
3 1 V
0 1 V
0 1 V
0 1 V
0 1 V
0 1 V
4 1 V
stroke 2978 2437 M
0 1 V
0 1 V
0 1 V
0 1 V
0 1 V
0 1 V
3 1 V
0 1 V
0 1 V
0 1 V
0 1 V
0 1 V
3 1 V
0 1 V
0 1 V
0 1 V
0 1 V
0 1 V
3 1 V
0 1 V
0 1 V
0 1 V
0 1 V
0 1 V
4 1 V
0 1 V
0 1 V
0 1 V
0 1 V
0 1 V
0 1 V
3 0 V
0 1 V
0 1 V
0 1 V
0 1 V
0 1 V
3 1 V
0 1 V
0 1 V
0 1 V
0 1 V
0 1 V
3 1 V
0 1 V
0 1 V
0 1 V
0 1 V
0 1 V
4 0 V
0 1 V
0 1 V
0 1 V
0 1 V
0 1 V
3 1 V
0 1 V
0 1 V
0 1 V
0 1 V
0 1 V
3 0 V
0 1 V
0 1 V
0 1 V
0 1 V
0 1 V
3 1 V
0 1 V
0 1 V
0 1 V
0 1 V
4 1 V
0 1 V
0 1 V
0 1 V
0 1 V
0 1 V
3 0 V
0 1 V
0 1 V
0 1 V
0 1 V
0 1 V
3 0 V
0 1 V
0 1 V
0 1 V
0 1 V
0 1 V
3 0 V
0 1 V
0 1 V
0 1 V
0 1 V
0 1 V
4 0 V
0 1 V
0 1 V
0 1 V
0 1 V
3 1 V
0 1 V
0 1 V
stroke 3033 2534 M
0 1 V
0 1 V
3 1 V
0 1 V
0 1 V
0 1 V
0 1 V
3 0 V
0 1 V
0 1 V
0 1 V
0 1 V
0 1 V
4 0 V
0 1 V
0 1 V
0 1 V
0 1 V
3 0 V
0 1 V
0 1 V
0 1 V
0 1 V
0 1 V
3 0 V
0 1 V
0 1 V
0 1 V
0 1 V
4 0 V
0 1 V
0 1 V
0 1 V
0 1 V
9 1 V
0 -164 V
0 15 V
0 15 V
0 14 V
0 14 V
0 13 V
0 12 V
0 12 V
0 11 V
0 11 V
0 10 V
0 10 V
0 10 V
0 9 V
0 10 V
0 8 V
0 9 V
0 8 V
0 9 V
0 7 V
3 8 V
0 8 V
0 7 V
0 -7 V
0 7 V
0 7 V
0 7 V
0 7 V
0 6 V
4 7 V
0 6 V
0 6 V
0 -6 V
0 6 V
0 6 V
0 6 V
0 6 V
0 6 V
0 5 V
3 6 V
0 5 V
0 6 V
0 -6 V
0 6 V
0 5 V
0 5 V
0 5 V
0 5 V
0 5 V
0 4 V
3 5 V
0 5 V
0 4 V
0 -4 V
0 4 V
0 5 V
0 4 V
0 4 V
0 5 V
0 4 V
0 4 V
0 4 V
4 4 V
0 4 V
0 4 V
0 -4 V
0 4 V
0 4 V
0 4 V
stroke 3079 2815 M
0 4 V
0 3 V
0 4 V
0 4 V
0 3 V
0 4 V
3 3 V
0 4 V
0 3 V
0 -3 V
0 3 V
0 3 V
0 4 V
0 3 V
0 3 V
0 3 V
0 4 V
0 3 V
0 3 V
0 3 V
3 3 V
0 3 V
0 3 V
0 -538 V
0 2 V
0 1 V
0 1 V
0 1 V
0 2 V
0 1 V
3 1 V
0 1 V
0 1 V
0 2 V
0 1 V
0 1 V
0 1 V
4 1 V
0 1 V
0 1 V
0 2 V
0 1 V
0 1 V
0 1 V
3 1 V
0 1 V
0 1 V
0 1 V
0 1 V
0 1 V
0 1 V
0 1 V
3 1 V
0 1 V
0 1 V
0 1 V
0 1 V
0 1 V
0 1 V
0 1 V
3 1 V
0 1 V
0 1 V
7 -132 V
0 25 V
0 23 V
0 22 V
0 19 V
0 19 V
0 17 V
3 17 V
0 15 V
0 -15 V
0 15 V
3 -15 V
0 15 V
0 15 V
4 -15 V
0 15 V
0 14 V
0 14 V
3 -14 V
0 14 V
0 13 V
0 12 V
0 12 V
3 -12 V
0 12 V
0 11 V
0 11 V
0 10 V
0 10 V
3 -10 V
0 10 V
0 10 V
0 9 V
0 10 V
0 8 V
0 9 V
4 -9 V
0 9 V
0 8 V
0 9 V
0 7 V
stroke 3131 2607 M
0 8 V
0 8 V
0 7 V
3 -464 V
0 5 V
0 4 V
0 4 V
0 4 V
3 4 V
0 4 V
0 4 V
0 4 V
4 3 V
0 4 V
0 3 V
0 3 V
3 4 V
0 3 V
0 3 V
0 3 V
3 3 V
0 3 V
0 3 V
0 2 V
3 3 V
0 3 V
0 2 V
0 3 V
0 3 V
4 2 V
0 3 V
0 2 V
0 2 V
0 3 V
3 2 V
0 2 V
0 3 V
0 2 V
0 2 V
3 2 V
0 2 V
0 2 V
0 2 V
0 2 V
3 2 V
0 2 V
0 2 V
0 2 V
0 2 V
0 2 V
4 2 V
0 1 V
0 2 V
0 2 V
0 2 V
0 1 V
3 2 V
0 2 V
0 1 V
0 2 V
0 2 V
0 1 V
3 2 V
0 1 V
0 2 V
0 2 V
0 1 V
0 2 V
3 1 V
0 2 V
0 1 V
0 1 V
0 2 V
0 1 V
4 2 V
0 1 V
0 1 V
0 2 V
0 1 V
0 1 V
0 2 V
3 1 V
0 1 V
0 2 V
0 1 V
0 1 V
0 1 V
0 2 V
3 1 V
0 1 V
0 1 V
0 2 V
0 1 V
0 1 V
0 1 V
3 1 V
0 1 V
0 2 V
0 1 V
0 1 V
0 1 V
0 1 V
4 1 V
0 1 V
stroke 3193 2370 M
0 1 V
0 1 V
0 2 V
0 1 V
0 1 V
0 1 V
3 1 V
0 1 V
0 1 V
0 1 V
0 1 V
0 1 V
0 1 V
0 1 V
3 1 V
0 1 V
0 1 V
0 1 V
0 1 V
0 1 V
0 1 V
3 1 V
0 1 V
0 1 V
0 1 V
0 1 V
0 1 V
0 1 V
0 1 V
4 1 V
0 1 V
0 1 V
0 1 V
0 1 V
0 1 V
0 1 V
3 0 V
0 1 V
0 1 V
0 1 V
0 1 V
0 1 V
0 1 V
0 1 V
3 1 V
0 1 V
0 1 V
0 1 V
0 1 V
0 1 V
0 1 V
4 1 V
0 1 V
0 1 V
0 1 V
0 1 V
0 1 V
0 1 V
3 0 V
0 1 V
0 1 V
0 1 V
0 1 V
0 1 V
0 1 V
3 1 V
0 1 V
0 1 V
0 1 V
0 1 V
0 1 V
0 1 V
3 1 V
0 1 V
0 1 V
0 1 V
0 1 V
0 1 V
4 1 V
0 1 V
0 1 V
0 1 V
0 1 V
0 1 V
0 1 V
3 0 V
0 1 V
0 1 V
0 1 V
0 1 V
0 1 V
0 1 V
3 0 V
0 1 V
0 1 V
0 1 V
0 1 V
0 1 V
0 1 V
3 0 V
0 1 V
0 1 V
0 1 V
0 1 V
stroke 3238 2470 M
0 1 V
0 1 V
4 0 V
0 1 V
0 1 V
0 1 V
0 1 V
0 1 V
0 1 V
3 0 V
0 1 V
0 1 V
0 1 V
0 1 V
0 1 V
3 1 V
0 1 V
0 1 V
0 1 V
0 1 V
0 1 V
3 0 V
0 1 V
0 1 V
0 1 V
0 1 V
0 1 V
0 1 V
4 0 V
0 1 V
0 1 V
0 1 V
0 1 V
0 1 V
3 0 V
0 1 V
0 1 V
0 1 V
0 1 V
0 1 V
3 1 V
0 1 V
0 1 V
0 1 V
0 1 V
3 1 V
0 1 V
0 1 V
0 1 V
0 1 V
4 1 V
0 1 V
0 1 V
0 1 V
0 1 V
3 1 V
0 1 V
0 1 V
0 1 V
0 1 V
3 1 V
0 1 V
0 1 V
0 1 V
0 1 V
3 0 V
0 1 V
0 1 V
0 1 V
0 1 V
1 0 V
0 1 V
3 0 V
0 1 V
0 1 V
0 1 V
0 1 V
0 1 V
3 0 V
0 1 V
0 1 V
0 1 V
0 1 V
3 1 V
0 1 V
0 1 V
0 1 V
0 1 V
4 0 V
0 1 V
0 1 V
0 1 V
0 1 V
3 1 V
0 1 V
0 1 V
0 1 V
0 1 V
3 0 V
0 1 V
0 1 V
0 1 V
0 1 V
3 0 V
stroke 3300 2562 M
0 1 V
0 1 V
0 1 V
0 1 V
4 1 V
0 1 V
0 1 V
0 1 V
0 1 V
3 0 V
0 1 V
0 1 V
0 1 V
0 1 V
3 0 V
0 1 V
0 1 V
0 1 V
0 1 V
3 0 V
0 1 V
0 1 V
0 1 V
0 1 V
4 0 V
0 1 V
0 1 V
0 1 V
0 1 V
3 0 V
0 1 V
0 1 V
0 1 V
0 1 V
3 0 V
0 1 V
0 1 V
0 1 V
0 1 V
3 0 V
0 1 V
0 1 V
0 1 V
0 1 V
4 0 V
0 1 V
0 1 V
0 1 V
3 1 V
0 1 V
0 1 V
0 1 V
3 0 V
0 1 V
0 1 V
0 1 V
0 1 V
3 0 V
0 1 V
0 1 V
0 1 V
0 1 V
4 0 V
0 1 V
0 1 V
0 1 V
3 0 V
0 1 V
0 1 V
0 1 V
0 1 V
3 0 V
0 1 V
0 1 V
0 1 V
3 0 V
0 1 V
0 1 V
1 0 V
0 1 V
0 1 V
3 0 V
0 1 V
0 1 V
0 1 V
3 0 V
0 1 V
0 1 V
0 1 V
0 1 V
3 0 V
0 1 V
0 1 V
0 1 V
4 0 V
0 1 V
0 1 V
0 1 V
3 0 V
0 1 V
0 1 V
0 1 V
0 1 V
3 0 V
stroke 3372 2645 M
0 1 V
0 1 V
0 1 V
3 0 V
0 1 V
0 1 V
0 1 V
4 0 V
0 1 V
0 1 V
0 1 V
3 0 V
0 1 V
0 1 V
0 1 V
3 0 V
0 1 V
0 1 V
0 1 V
0 1 V
3 0 V
0 1 V
7 -173 V
0 11 V
0 11 V
0 11 V
0 10 V
0 10 V
0 10 V
0 9 V
0 9 V
0 9 V
0 8 V
0 9 V
0 8 V
0 7 V
0 8 V
0 7 V
0 7 V
0 7 V
0 7 V
0 7 V
0 7 V
0 6 V
0 6 V
0 6 V
0 6 V
0 6 V
0 6 V
0 6 V
0 5 V
0 6 V
0 5 V
0 5 V
0 5 V
0 5 V
0 5 V
3 5 V
0 5 V
0 -5 V
0 5 V
0 5 V
0 4 V
0 5 V
0 4 V
0 5 V
0 4 V
0 5 V
0 4 V
0 4 V
0 4 V
0 4 V
0 4 V
4 4 V
0 4 V
0 -4 V
0 4 V
0 4 V
0 4 V
0 3 V
0 4 V
0 4 V
0 3 V
0 4 V
0 3 V
0 4 V
0 3 V
0 4 V
0 3 V
0 3 V
3 4 V
0 3 V
0 -3 V
0 3 V
0 3 V
0 3 V
0 3 V
0 3 V
0 3 V
0 4 V
0 3 V
0 2 V
0 3 V
0 3 V
stroke 3405 2892 M
0 3 V
0 3 V
0 3 V
0 3 V
3 2 V
0 3 V
0 -3 V
0 3 V
0 3 V
0 3 V
0 2 V
0 3 V
0 3 V
0 2 V
0 3 V
0 2 V
0 3 V
0 2 V
0 3 V
0 2 V
0 3 V
0 2 V
0 2 V
3 3 V
0 2 V
0 -2 V
0 2 V
0 3 V
0 2 V
0 2 V
0 2 V
0 3 V
0 2 V
0 2 V
0 2 V
0 3 V
0 2 V
0 2 V
0 2 V
0 2 V
0 2 V
0 3 V
0 2 V
4 2 V
0 2 V
0 -2 V
0 2 V
0 2 V
0 2 V
0 2 V
0 2 V
0 2 V
0 2 V
0 2 V
0 2 V
0 2 V
0 2 V
0 1 V
0 2 V
0 2 V
0 2 V
0 2 V
0 2 V
0 2 V
3 1 V
0 2 V
0 -577 V
0 1 V
0 1 V
0 1 V
0 1 V
0 1 V
0 1 V
3 1 V
0 1 V
0 1 V
0 1 V
0 1 V
0 1 V
3 1 V
0 1 V
0 1 V
0 1 V
0 1 V
0 1 V
4 1 V
0 1 V
0 1 V
0 1 V
0 1 V
0 1 V
3 0 V
0 1 V
0 1 V
0 1 V
0 1 V
0 1 V
0 1 V
3 0 V
0 1 V
0 1 V
0 1 V
0 1 V
0 1 V
stroke 3434 2486 M
3 1 V
0 1 V
0 1 V
0 1 V
0 1 V
0 1 V
4 0 V
0 1 V
0 1 V
0 1 V
0 1 V
0 1 V
3 1 V
0 1 V
0 1 V
0 1 V
0 1 V
0 1 V
3 0 V
0 1 V
0 1 V
0 1 V
0 1 V
0 1 V
3 0 V
0 1 V
0 1 V
0 1 V
0 1 V
0 1 V
4 0 V
0 1 V
0 1 V
0 1 V
0 1 V
0 1 V
3 0 V
0 1 V
0 1 V
0 1 V
0 1 V
0 1 V
3 0 V
0 1 V
0 1 V
0 1 V
0 1 V
0 1 V
3 0 V
0 1 V
0 1 V
0 1 V
0 1 V
0 1 V
4 0 V
0 1 V
0 1 V
0 1 V
0 1 V
0 1 V
3 0 V
0 1 V
0 1 V
0 1 V
0 1 V
3 1 V
0 1 V
0 1 V
0 1 V
0 1 V
4 0 V
0 1 V
0 1 V
0 1 V
0 1 V
3 0 V
0 1 V
0 1 V
0 1 V
0 1 V
0 1 V
3 0 V
0 1 V
0 1 V
0 1 V
0 1 V
3 0 V
0 1 V
0 1 V
0 1 V
0 1 V
4 1 V
0 1 V
0 1 V
0 1 V
3 1 V
0 1 V
0 1 V
0 1 V
0 1 V
3 0 V
0 1 V
7 1 V
0 -160 V
stroke 3503 2415 M
0 15 V
0 14 V
0 14 V
0 13 V
0 12 V
0 12 V
0 11 V
0 11 V
0 10 V
0 10 V
0 10 V
0 9 V
0 10 V
0 8 V
0 9 V
0 8 V
0 9 V
0 7 V
0 8 V
3 8 V
0 7 V
0 7 V
0 7 V
0 -7 V
0 7 V
0 7 V
0 6 V
0 7 V
3 6 V
0 6 V
0 6 V
0 6 V
0 -6 V
0 6 V
0 6 V
0 6 V
0 5 V
0 6 V
3 5 V
0 6 V
0 5 V
0 5 V
0 -5 V
0 5 V
0 5 V
0 5 V
0 5 V
0 4 V
0 5 V
4 5 V
0 4 V
0 5 V
0 4 V
0 -4 V
0 4 V
0 4 V
0 5 V
0 4 V
0 4 V
0 4 V
0 4 V
3 4 V
0 4 V
0 4 V
0 4 V
0 -4 V
0 4 V
0 4 V
0 3 V
0 4 V
0 4 V
0 3 V
0 4 V
0 3 V
3 4 V
0 3 V
0 3 V
0 4 V
0 -4 V
0 4 V
0 3 V
0 3 V
0 3 V
0 4 V
0 3 V
0 3 V
0 3 V
0 3 V
3 3 V
0 3 V
0 3 V
0 3 V
0 -3 V
0 3 V
0 3 V
0 3 V
0 2 V
0 3 V
0 3 V
0 3 V
1 3 V
0 2 V
0 3 V
3 3 V
stroke 3529 2919 M
0 2 V
0 3 V
0 2 V
0 -560 V
0 1 V
0 1 V
0 1 V
0 1 V
0 1 V
0 2 V
3 1 V
0 1 V
0 1 V
0 1 V
0 1 V
0 1 V
0 1 V
0 1 V
3 1 V
0 1 V
0 1 V
0 1 V
0 1 V
0 1 V
0 1 V
0 1 V
4 1 V
0 1 V
0 1 V
0 1 V
0 1 V
0 1 V
0 1 V
3 1 V
0 1 V
0 1 V
0 1 V
0 1 V
0 1 V
0 1 V
3 1 V
0 1 V
0 1 V
0 1 V
0 1 V
0 1 V
0 1 V
0 1 V
3 1 V
0 1 V
0 1 V
0 1 V
0 1 V
0 1 V
0 1 V
4 1 V
0 1 V
0 1 V
0 1 V
0 1 V
0 1 V
0 1 V
3 1 V
0 1 V
0 1 V
0 1 V
0 1 V
0 1 V
3 1 V
0 1 V
0 1 V
0 1 V
0 1 V
0 1 V
0 1 V
3 1 V
0 1 V
0 1 V
0 1 V
0 1 V
0 1 V
0 1 V
4 1 V
0 1 V
0 1 V
0 1 V
0 1 V
0 1 V
3 1 V
0 1 V
0 1 V
0 1 V
0 1 V
0 1 V
3 1 V
0 1 V
0 1 V
0 1 V
0 1 V
0 1 V
3 1 V
0 1 V
0 1 V
0 1 V
stroke 3574 2467 M
0 1 V
0 1 V
4 1 V
0 1 V
0 1 V
0 1 V
0 1 V
0 1 V
39 1478 V
% End plot #1
% Begin plot #2
2.000 UP
stroke
LTa
0.60 0.60 0.00 C 1944 1767 Box
2476 2377 Box
3023 2518 Box
3339 2613 Box
3574 2467 Box
% End plot #2
% Begin plot #3
2.000 UP
1.000 UL
LTa
0.60 0.60 0.00 C LCb setrgbcolor
2834 153 M
[ [(Arial) 180.0 0.0 true true 0 (olsr)]
] -60.0 MRshow
2.000 UP
1.000 UL
LTa
0.60 0.60 0.00 C 2942 153 M
333 0 V
1944 1767 M
1944 1767 Box
3108 153 Box
% End plot #3
% Begin plot #4
1.000 UL
LTb
LT1
0.00 0.00 0.63 C 1369 1767 M
3 117 V
3 83 V
4 64 V
0 53 V
3 44 V
0 38 V
4 34 V
0 31 V
0 27 V
3 25 V
0 23 V
0 22 V
4 19 V
0 19 V
0 17 V
0 17 V
0 15 V
0 15 V
0 14 V
0 14 V
4 13 V
0 12 V
0 12 V
0 11 V
0 11 V
3 10 V
0 10 V
0 10 V
0 9 V
0 10 V
0 8 V
0 -159 V
0 -15 V
0 15 V
0 15 V
0 -102 V
0 19 V
0 -219 V
0 38 V
4 -38 V
0 38 V
0 34 V
0 31 V
0 27 V
0 -174 V
0 44 V
0 -244 V
0 83 V
0 -400 V
0 200 V
0 -200 V
0 200 V
0 399 V
0 -59 V
0 41 V
64 -581 V
10 200 V
4 117 V
3 83 V
0 17 V
4 16 V
4 14 V
0 12 V
3 12 V
0 11 V
4 10 V
4 9 V
0 9 V
0 8 V
4 8 V
0 7 V
0 7 V
3 7 V
0 6 V
0 6 V
4 6 V
0 6 V
0 5 V
4 6 V
0 5 V
0 4 V
4 5 V
0 5 V
0 4 V
3 4 V
0 5 V
0 4 V
0 4 V
4 3 V
0 4 V
0 4 V
4 3 V
0 4 V
4 3 V
0 3 V
0 4 V
4 3 V
0 3 V
0 -95 V
0 -244 V
0 83 V
3 -83 V
0 83 V
0 -1147 V
stroke 1545 820 M
0 747 V
0 317 V
4 83 V
0 17 V
4 16 V
0 14 V
4 12 V
0 12 V
3 11 V
0 10 V
4 9 V
0 9 V
0 8 V
64 -518 V
3 200 V
0 117 V
0 30 V
0 25 V
4 92 V
0 53 V
0 44 V
0 -97 V
0 53 V
0 -117 V
0 64 V
4 -264 V
0 64 V
0 43 V
3 32 V
4 27 V
3 21 V
4 19 V
4 17 V
4 41 V
0 -464 V
0 200 V
6 64 V
0 43 V
3 32 V
4 27 V
4 21 V
4 19 V
3 17 V
0 15 V
64 -438 V
10 200 V
0 64 V
3 43 V
4 32 V
3 27 V
0 21 V
3 19 V
3 17 V
0 15 V
4 13 V
0 13 V
0 11 V
3 10 V
0 10 V
3 9 V
0 9 V
4 8 V
0 8 V
0 7 V
3 7 V
0 6 V
0 7 V
0 6 V
3 5 V
0 6 V
0 5 V
0 5 V
4 5 V
0 5 V
0 5 V
0 4 V
4 5 V
0 4 V
0 4 V
3 4 V
0 4 V
0 4 V
0 3 V
3 4 V
0 3 V
0 4 V
0 3 V
4 4 V
0 3 V
0 3 V
0 3 V
3 3 V
0 3 V
0 3 V
0 3 V
0 2 V
4 3 V
0 3 V
0 2 V
0 3 V
0 2 V
3 3 V
0 2 V
0 3 V
stroke 1823 2259 M
0 2 V
0 2 V
3 3 V
0 2 V
0 2 V
4 2 V
0 2 V
0 2 V
0 2 V
3 3 V
0 2 V
0 2 V
0 2 V
0 1 V
3 2 V
0 2 V
0 2 V
0 -110 V
0 -500 V
0 147 V
4 -463 V
0 316 V
0 -316 V
0 316 V
0 147 V
0 97 V
0 39 V
4 64 V
0 53 V
0 44 V
0 -44 V
0 44 V
0 38 V
0 -399 V
3 64 V
3 43 V
4 32 V
3 27 V
3 21 V
4 19 V
3 17 V
0 15 V
3 13 V
0 13 V
4 11 V
0 10 V
3 10 V
0 9 V
3 -40 V
0 -1211 V
0 747 V
0 -747 V
4 0 R
0 747 V
0 200 V
3 64 V
4 43 V
3 32 V
3 27 V
4 21 V
4 19 V
3 17 V
1 15 V
3 13 V
0 13 V
3 11 V
0 10 V
3 10 V
0 9 V
4 9 V
0 8 V
3 8 V
0 7 V
0 7 V
3 6 V
0 7 V
0 6 V
4 5 V
0 6 V
0 5 V
3 5 V
0 5 V
0 5 V
4 5 V
0 4 V
0 5 V
3 4 V
0 4 V
0 4 V
4 4 V
0 4 V
0 3 V
0 4 V
3 3 V
0 4 V
0 3 V
0 4 V
0 3 V
3 3 V
0 3 V
2 3 V
0 3 V
1 3 V
0 3 V
stroke 1955 2236 M
2 2 V
0 3 V
2 3 V
0 2 V
1 3 V
0 2 V
2 3 V
0 2 V
0 3 V
1 2 V
0 2 V
3 3 V
0 2 V
1 2 V
2 2 V
0 2 V
0 2 V
2 2 V
2 3 V
0 2 V
1 2 V
2 2 V
0 -103 V
0 32 V
0 29 V
0 -61 V
0 32 V
0 -288 V
0 73 V
1 -170 V
0 97 V
2 -244 V
0 147 V
0 136 V
3 64 V
0 53 V
0 -200 V
0 83 V
2 -200 V
0 117 V
2 -117 V
1 64 V
2 43 V
3 32 V
3 27 V
0 21 V
4 19 V
0 17 V
3 15 V
0 13 V
3 13 V
0 11 V
3 10 V
0 10 V
4 9 V
0 9 V
0 8 V
3 8 V
0 7 V
4 7 V
0 -52 V
0 -690 V
0 316 V
3 -316 V
0 316 V
0 147 V
4 200 V
0 -264 V
0 117 V
3 -117 V
0 64 V
64 -264 V
22 200 V
4 64 V
3 43 V
5 32 V
3 27 V
4 21 V
3 19 V
3 17 V
0 15 V
4 13 V
0 13 V
3 11 V
0 10 V
3 10 V
0 9 V
4 9 V
0 8 V
3 8 V
0 7 V
0 7 V
4 6 V
0 7 V
0 6 V
3 5 V
0 6 V
3 5 V
0 5 V
0 5 V
0 5 V
4 5 V
0 4 V
0 5 V
stroke 2171 2174 M
3 4 V
0 4 V
4 4 V
0 4 V
0 -83 V
0 -276 V
0 97 V
4 -97 V
0 97 V
0 -97 V
0 97 V
0 73 V
0 57 V
0 -130 V
3 103 V
0 -147 V
0 83 V
0 -200 V
0 117 V
3 -117 V
0 264 V
1 -147 V
0 83 V
3 -200 V
0 264 V
0 -147 V
0 83 V
3 -83 V
0 83 V
0 -200 V
0 64 V
3 43 V
3 32 V
4 27 V
0 21 V
3 19 V
3 17 V
0 15 V
4 13 V
0 13 V
3 11 V
0 10 V
3 10 V
0 9 V
3 9 V
0 8 V
4 8 V
0 7 V
0 7 V
3 6 V
0 7 V
0 6 V
3 5 V
0 6 V
0 5 V
0 5 V
3 5 V
0 5 V
4 5 V
0 4 V
0 5 V
3 4 V
0 4 V
0 4 V
0 4 V
3 4 V
0 3 V
0 4 V
3 3 V
0 4 V
0 3 V
4 4 V
0 3 V
1 3 V
0 3 V
2 3 V
0 3 V
0 3 V
1 3 V
2 2 V
0 3 V
1 3 V
0 2 V
0 3 V
3 2 V
0 3 V
0 2 V
0 3 V
1 2 V
2 2 V
0 3 V
0 2 V
0 2 V
1 2 V
2 2 V
0 -108 V
0 -82 V
0 44 V
0 38 V
1 -38 V
0 38 V
0 -199 V
0 64 V
1 -147 V
stroke 2272 1884 M
0 83 V
1 -200 V
0 117 V
0 147 V
4 53 V
0 -200 V
0 83 V
0 -200 V
3 64 V
3 43 V
3 32 V
4 27 V
3 21 V
3 19 V
4 17 V
0 15 V
3 13 V
0 13 V
4 11 V
0 10 V
3 10 V
0 9 V
3 9 V
0 8 V
3 8 V
0 7 V
4 7 V
0 6 V
0 7 V
3 6 V
0 5 V
0 6 V
3 5 V
0 5 V
0 5 V
3 5 V
0 5 V
0 4 V
0 5 V
4 4 V
0 4 V
0 4 V
0 4 V
0 4 V
3 3 V
0 4 V
4 3 V
0 4 V
0 3 V
0 4 V
4 3 V
0 3 V
0 3 V
3 3 V
0 3 V
0 3 V
0 3 V
4 2 V
0 3 V
0 3 V
3 2 V
0 -98 V
0 -317 V
0 97 V
0 -97 V
0 97 V
0 -244 V
0 147 V
3 -463 V
0 316 V
0 283 V
1 64 V
0 53 V
2 44 V
0 -44 V
0 44 V
0 -97 V
0 53 V
0 44 V
0 -97 V
0 53 V
1 -317 V
3 64 V
0 43 V
3 32 V
3 27 V
4 21 V
3 19 V
0 17 V
3 15 V
1 13 V
3 13 V
3 11 V
0 10 V
3 10 V
0 9 V
4 9 V
0 8 V
3 8 V
0 7 V
3 7 V
1 6 V
0 7 V
2 6 V
stroke 2403 2129 M
0 5 V
0 6 V
1 5 V
3 5 V
0 5 V
0 5 V
1 5 V
2 4 V
0 5 V
1 4 V
2 4 V
0 4 V
1 4 V
2 4 V
0 3 V
0 4 V
2 3 V
2 4 V
0 3 V
0 4 V
1 3 V
2 3 V
0 3 V
0 3 V
1 3 V
3 3 V
0 3 V
0 2 V
1 3 V
10 3 V
3 2 V
0 -98 V
0 -780 V
0 316 V
0 -864 V
3 0 R
0 747 V
0 434 V
3 30 V
0 -147 V
0 83 V
0 -200 V
0 117 V
0 83 V
1 -200 V
3 64 V
0 43 V
3 32 V
3 27 V
4 21 V
3 19 V
4 17 V
0 15 V
3 13 V
0 13 V
0 11 V
3 10 V
0 10 V
4 9 V
0 9 V
3 8 V
0 8 V
3 7 V
0 7 V
4 6 V
0 7 V
0 6 V
0 5 V
3 6 V
0 5 V
0 5 V
4 5 V
0 5 V
0 5 V
0 4 V
3 5 V
0 4 V
0 4 V
0 4 V
3 4 V
0 4 V
0 3 V
0 4 V
4 3 V
0 4 V
0 3 V
3 4 V
0 3 V
0 3 V
3 3 V
0 3 V
0 3 V
4 3 V
0 3 V
0 2 V
0 3 V
3 3 V
0 2 V
0 3 V
1 -101 V
0 -41 V
0 41 V
0 -220 V
0 73 V
stroke 2519 2001 M
3 -170 V
0 97 V
0 -97 V
0 97 V
0 73 V
0 -317 V
0 147 V
0 136 V
3 64 V
0 53 V
0 44 V
1 -44 V
0 44 V
0 -361 V
3 64 V
2 43 V
4 32 V
3 27 V
3 21 V
4 19 V
3 17 V
0 15 V
3 13 V
0 13 V
3 11 V
0 10 V
0 10 V
4 9 V
0 9 V
64 -513 V
3 200 V
0 117 V
0 30 V
3 117 V
0 53 V
0 44 V
0 -44 V
0 44 V
0 -161 V
0 64 V
3 -264 V
0 64 V
0 43 V
64 -307 V
4 200 V
0 64 V
3 43 V
3 32 V
4 27 V
3 21 V
3 19 V
3 17 V
0 15 V
4 13 V
0 13 V
3 11 V
0 10 V
3 10 V
0 9 V
4 9 V
0 8 V
3 8 V
0 7 V
0 7 V
3 6 V
0 7 V
3 6 V
0 5 V
4 6 V
0 5 V
0 5 V
0 5 V
3 5 V
0 5 V
0 4 V
3 5 V
0 4 V
0 4 V
1 4 V
2 4 V
0 4 V
1 3 V
1 4 V
2 3 V
0 4 V
1 3 V
0 4 V
2 3 V
0 3 V
1 3 V
0 3 V
0 3 V
2 3 V
0 3 V
1 2 V
1 3 V
0 3 V
2 2 V
0 3 V
0 2 V
0 3 V
1 2 V
0 3 V
2 2 V
stroke 2771 2261 M
0 2 V
1 3 V
0 2 V
0 2 V
2 2 V
0 2 V
11 2 V
0 2 V
3 3 V
0 2 V
0 2 V
0 2 V
4 1 V
0 2 V
0 2 V
0 2 V
0 2 V
0 2 V
3 2 V
0 -116 V
0 32 V
0 -158 V
0 49 V
0 41 V
0 36 V
0 -353 V
0 97 V
3 -560 V
0 316 V
0 147 V
0 -264 V
7 200 V
3 117 V
3 83 V
3 64 V
0 53 V
0 7 V
4 8 V
0 7 V
3 7 V
0 6 V
0 6 V
4 6 V
0 6 V
0 5 V
3 6 V
0 5 V
0 5 V
0 4 V
64 -595 V
16 200 V
3 117 V
3 83 V
0 17 V
4 16 V
0 14 V
4 12 V
0 12 V
3 11 V
0 10 V
3 9 V
0 9 V
3 8 V
0 8 V
4 7 V
0 7 V
3 7 V
0 6 V
0 6 V
4 6 V
0 6 V
3 5 V
0 6 V
0 5 V
4 4 V
0 5 V
0 5 V
0 4 V
3 4 V
0 5 V
0 4 V
4 4 V
0 3 V
0 4 V
3 4 V
0 3 V
0 4 V
3 3 V
0 3 V
1 4 V
0 3 V
2 3 V
0 3 V
1 3 V
0 3 V
3 3 V
0 2 V
0 3 V
0 3 V
0 2 V
3 3 V
0 2 V
0 3 V
0 2 V
stroke 2972 2255 M
0 3 V
3 2 V
0 2 V
1 3 V
0 2 V
2 2 V
0 2 V
1 3 V
0 2 V
0 2 V
3 2 V
1 2 V
0 2 V
0 2 V
2 2 V
0 2 V
0 2 V
1 1 V
0 2 V
0 2 V
3 2 V
0 2 V
0 1 V
0 2 V
1 2 V
0 2 V
2 1 V
0 2 V
1 2 V
0 1 V
0 2 V
2 1 V
0 2 V
0 2 V
1 1 V
0 2 V
0 1 V
2 2 V
0 1 V
1 1 V
0 2 V
0 1 V
3 2 V
0 1 V
1 2 V
0 1 V
0 1 V
0 2 V
2 1 V
0 1 V
0 2 V
0 1 V
0 1 V
0 1 V
4 2 V
0 1 V
0 1 V
0 -121 V
0 -147 V
0 44 V
3 -97 V
0 53 V
0 -53 V
0 53 V
0 -200 V
0 83 V
0 64 V
0 53 V
0 -517 V
0 200 V
0 200 V
3 64 V
0 53 V
0 -117 V
0 64 V
0 -147 V
0 83 V
64 -400 V
10 200 V
0 64 V
3 43 V
4 32 V
3 27 V
0 21 V
3 19 V
4 17 V
0 15 V
3 13 V
0 13 V
3 11 V
0 10 V
3 10 V
0 9 V
4 9 V
0 8 V
3 8 V
0 7 V
3 7 V
0 -52 V
0 -374 V
0 147 V
4 -147 V
0 147 V
0 -147 V
stroke 3129 1684 M
0 147 V
3 200 V
0 -147 V
0 83 V
3 -200 V
0 64 V
3 43 V
4 32 V
3 27 V
0 21 V
3 19 V
0 17 V
3 15 V
0 13 V
0 13 V
4 11 V
0 10 V
3 10 V
0 9 V
3 9 V
0 8 V
4 8 V
0 7 V
0 7 V
3 6 V
0 7 V
0 6 V
0 5 V
3 6 V
0 5 V
0 5 V
4 5 V
0 5 V
0 5 V
0 4 V
3 5 V
0 4 V
0 4 V
3 4 V
0 4 V
0 4 V
3 3 V
0 4 V
0 3 V
0 4 V
4 3 V
0 4 V
0 3 V
3 3 V
0 3 V
0 3 V
0 3 V
4 3 V
0 3 V
3 2 V
0 -90 V
0 36 V
0 32 V
0 29 V
0 -61 V
0 32 V
0 -288 V
0 73 V
3 -170 V
0 97 V
0 73 V
0 -234 V
0 264 V
3 53 V
0 44 V
0 -97 V
0 53 V
0 -53 V
0 53 V
4 -317 V
0 64 V
0 43 V
0 32 V
3 27 V
3 21 V
3 19 V
4 17 V
0 15 V
3 13 V
0 13 V
3 11 V
3 10 V
5 10 V
0 9 V
3 9 V
0 8 V
3 8 V
0 7 V
3 7 V
0 6 V
0 7 V
4 6 V
0 5 V
0 6 V
3 5 V
0 5 V
0 5 V
3 5 V
0 5 V
stroke 3254 2165 M
3 4 V
0 5 V
0 4 V
4 4 V
0 4 V
0 4 V
0 4 V
3 3 V
0 4 V
0 3 V
3 4 V
0 3 V
0 4 V
0 3 V
3 3 V
0 3 V
0 3 V
4 3 V
0 3 V
0 3 V
0 2 V
0 3 V
3 3 V
0 2 V
0 3 V
1 2 V
3 3 V
0 2 V
0 3 V
0 2 V
3 2 V
0 3 V
0 2 V
1 2 V
0 2 V
0 2 V
2 2 V
0 2 V
1 3 V
0 2 V
0 2 V
3 2 V
0 1 V
0 2 V
0 2 V
0 -108 V
0 32 V
0 -109 V
0 41 V
0 -220 V
0 73 V
3 57 V
0 -130 V
0 73 V
0 -170 V
0 97 V
0 -244 V
0 147 V
0 136 V
3 64 V
0 53 V
1 -53 V
0 53 V
0 44 V
0 38 V
0 -82 V
0 44 V
0 -97 V
0 53 V
3 -317 V
0 64 V
0 43 V
4 32 V
3 27 V
0 21 V
3 19 V
3 17 V
0 15 V
4 13 V
0 13 V
3 11 V
0 10 V
4 10 V
0 9 V
0 9 V
3 8 V
0 8 V
4 7 V
0 7 V
0 6 V
3 7 V
0 6 V
0 5 V
3 6 V
0 5 V
0 5 V
3 5 V
0 5 V
0 5 V
4 4 V
0 5 V
0 4 V
4 4 V
0 4 V
stroke 3349 2186 M
3 4 V
0 4 V
0 3 V
4 4 V
0 3 V
0 4 V
0 3 V
3 4 V
0 3 V
0 3 V
0 3 V
0 3 V
3 3 V
4 3 V
0 3 V
3 2 V
0 3 V
0 3 V
0 2 V
0 3 V
0 2 V
3 3 V
0 2 V
0 3 V
0 2 V
0 2 V
4 3 V
0 2 V
0 2 V
0 2 V
0 2 V
3 2 V
0 2 V
0 3 V
0 2 V
3 2 V
0 2 V
0 1 V
4 2 V
0 2 V
0 2 V
3 2 V
0 -112 V
0 -256 V
0 73 V
0 -1181 V
0 747 V
0 -747 V
3 0 R
0 747 V
0 400 V
0 64 V
3 53 V
0 -117 V
0 64 V
0 53 V
0 44 V
0 -97 V
0 53 V
0 -317 V
4 64 V
0 43 V
3 32 V
0 27 V
3 21 V
3 19 V
4 17 V
0 15 V
3 13 V
0 13 V
0 11 V
3 10 V
0 10 V
0 9 V
3 9 V
0 8 V
4 8 V
0 7 V
3 7 V
0 6 V
4 7 V
0 6 V
3 5 V
0 6 V
0 5 V
0 5 V
3 5 V
0 5 V
1 5 V
2 4 V
0 5 V
0 4 V
1 4 V
3 4 V
0 4 V
0 4 V
0 3 V
3 4 V
0 3 V
0 4 V
0 3 V
3 4 V
0 3 V
0 3 V
stroke 3451 2221 M
0 3 V
4 3 V
0 3 V
0 3 V
3 3 V
0 2 V
0 3 V
0 3 V
3 2 V
0 3 V
0 -101 V
1 -90 V
0 49 V
0 -49 V
0 49 V
0 -276 V
0 97 V
3 -244 V
0 147 V
0 -147 V
0 147 V
0 136 V
0 64 V
3 53 V
0 -53 V
0 53 V
0 -200 V
0 83 V
1 -83 V
0 83 V
2 -200 V
0 64 V
0 43 V
4 32 V
3 27 V
3 21 V
4 19 V
4 17 V
0 15 V
3 13 V
0 13 V
3 11 V
0 10 V
3 10 V
4 9 V
0 9 V
3 8 V
0 8 V
3 7 V
0 7 V
3 6 V
0 7 V
0 6 V
4 5 V
0 6 V
0 5 V
3 5 V
0 5 V
0 5 V
0 5 V
4 4 V
0 5 V
0 4 V
64 -611 V
9 200 V
3 117 V
4 83 V
0 17 V
3 16 V
0 14 V
4 12 V
0 12 V
0 11 V
3 10 V
4 9 V
0 9 V
0 8 V
3 8 V
0 7 V
0 7 V
3 7 V
0 6 V
0 6 V
3 6 V
0 6 V
4 5 V
0 6 V
0 5 V
3 4 V
0 -74 V
0 -317 V
0 117 V
0 -317 V
0 200 V
0 -947 V
4 0 R
0 747 V
0 200 V
0 117 V
3 30 V
0 25 V
3 21 V
0 18 V
3 16 V
stroke 3645 1994 M
0 15 V
4 13 V
0 12 V
3 11 V
0 10 V
3 10 V
0 9 V
3 8 V
0 8 V
4 8 V
0 7 V
0 7 V
3 6 V
0 6 V
3 6 V
0 6 V
0 5 V
3 6 V
0 5 V
4 5 V
0 5 V
0 4 V
3 5 V
0 4 V
0 4 V
0 4 V
4 4 V
0 4 V
0 4 V
3 3 V
0 4 V
3 3 V
0 -77 V
0 38 V
1 34 V
0 -316 V
0 83 V
2 -200 V
0 117 V
0 -317 V
0 200 V
0 117 V
2 -117 V
2 117 V
3 83 V
0 17 V
4 16 V
0 14 V
3 12 V
0 12 V
4 11 V
0 10 V
4 9 V
0 9 V
3 8 V
0 8 V
0 7 V
4 7 V
0 -49 V
0 -374 V
0 147 V
3 -147 V
0 147 V
0 -463 V
0 316 V
0 147 V
3 200 V
0 53 V
0 -200 V
0 83 V
0 64 V
4 -264 V
0 64 V
0 43 V
3 32 V
4 27 V
3 21 V
3 19 V
4 17 V
0 15 V
3 13 V
0 13 V
3 11 V
0 10 V
3 10 V
0 9 V
0 9 V
4 8 V
0 8 V
0 7 V
3 7 V
0 6 V
0 7 V
3 6 V
0 -45 V
0 -317 V
0 117 V
3 -317 V
0 200 V
0 117 V
64 -317 V
23 200 V
3 64 V
3 43 V
stroke 3862 1874 M
4 32 V
3 27 V
3 21 V
3 19 V
4 17 V
3 15 V
0 13 V
3 13 V
0 11 V
4 10 V
0 10 V
3 9 V
1 9 V
2 8 V
0 8 V
1 7 V
3 7 V
0 6 V
0 7 V
3 6 V
0 5 V
1 6 V
2 5 V
0 5 V
1 5 V
2 5 V
2 5 V
2 4 V
0 5 V
1 4 V
2 4 V
0 4 V
0 4 V
1 4 V
2 3 V
0 4 V
0 3 V
2 4 V
1 3 V
0 4 V
0 3 V
0 3 V
2 3 V
2 3 V
0 3 V
0 3 V
2 3 V
1 -88 V
0 -41 V
0 41 V
0 36 V
0 -500 V
0 147 V
2 -463 V
0 316 V
1 283 V
0 64 V
2 53 V
2 -117 V
0 64 V
0 53 V
0 44 V
0 38 V
0 -82 V
0 44 V
0 -361 V
3 64 V
0 43 V
3 32 V
0 27 V
3 21 V
4 19 V
3 17 V
0 15 V
3 13 V
0 13 V
3 11 V
0 10 V
4 10 V
0 9 V
3 9 V
0 8 V
3 8 V
0 7 V
0 7 V
0 6 V
3 7 V
0 6 V
0 5 V
4 6 V
0 5 V
0 5 V
3 5 V
0 5 V
0 -76 V
1 -317 V
0 117 V
2 -317 V
0 200 V
0 117 V
3 147 V
0 -464 V
0 200 V
8 64 V
stroke 3991 1831 M
3 43 V
3 32 V
64 -339 V
23 200 V
3 64 V
3 43 V
4 32 V
3 27 V
0 21 V
3 19 V
0 17 V
3 15 V
0 13 V
4 13 V
3 11 V
0 10 V
3 10 V
0 9 V
0 9 V
3 8 V
0 8 V
4 7 V
0 7 V
0 6 V
3 7 V
0 6 V
0 5 V
4 6 V
0 5 V
0 5 V
3 5 V
0 5 V
0 5 V
0 4 V
3 5 V
0 4 V
0 4 V
0 4 V
3 4 V
0 4 V
0 3 V
4 4 V
0 3 V
0 4 V
3 3 V
0 4 V
1 -87 V
1 -361 V
0 117 V
2 -117 V
0 117 V
0 -317 V
0 200 V
0 -947 V
0 747 V
0 317 V
4 147 V
0 53 V
0 -117 V
0 64 V
0 -147 V
0 83 V
3 -200 V
0 64 V
0 43 V
4 32 V
4 27 V
3 21 V
3 19 V
4 17 V
0 15 V
3 13 V
0 13 V
3 11 V
0 10 V
3 10 V
0 9 V
0 9 V
4 8 V
0 8 V
0 7 V
3 7 V
0 6 V
3 7 V
0 6 V
0 5 V
4 6 V
0 -56 V
0 -317 V
0 117 V
3 -317 V
0 200 V
0 117 V
3 30 V
0 25 V
3 21 V
4 18 V
3 16 V
0 15 V
4 13 V
0 12 V
3 11 V
0 10 V
0 10 V
stroke 4218 2065 M
4 9 V
0 8 V
0 8 V
3 8 V
0 7 V
0 7 V
3 6 V
0 6 V
3 6 V
0 6 V
4 5 V
0 6 V
0 5 V
0 5 V
3 5 V
1 4 V
0 5 V
3 4 V
0 4 V
0 4 V
0 4 V
1 4 V
2 4 V
0 3 V
0 4 V
0 3 V
1 4 V
2 3 V
0 3 V
1 4 V
3 3 V
0 3 V
0 3 V
1 3 V
2 2 V
0 3 V
1 3 V
3 3 V
0 2 V
0 3 V
0 3 V
0 2 V
3 2 V
0 3 V
0 2 V
0 3 V
1 2 V
2 2 V
0 2 V
0 3 V
0 2 V
2 2 V
1 2 V
0 2 V
0 2 V
0 2 V
2 2 V
2 2 V
0 2 V
0 2 V
0 2 V
0 2 V
1 1 V
2 2 V
0 2 V
0 2 V
0 2 V
0 1 V
0 2 V
2 2 V
1 1 V
0 2 V
0 2 V
0 1 V
0 2 V
2 1 V
1 2 V
0 1 V
0 2 V
0 2 V
0 1 V
0 1 V
3 2 V
1 1 V
0 2 V
0 1 V
0 2 V
0 1 V
2 1 V
1 2 V
0 1 V
0 -124 V
0 -158 V
0 49 V
0 -179 V
0 73 V
0 -170 V
0 97 V
2 -244 V
0 147 V
1 -463 V
0 316 V
0 347 V
3 53 V
stroke 4294 2084 M
0 -117 V
0 64 V
0 53 V
0 44 V
0 -97 V
0 53 V
0 -317 V
4 264 V
0 -147 V
0 83 V
0 -83 V
0 83 V
3 -83 V
0 83 V
0 -200 V
0 64 V
3 200 V
0 -264 V
0 117 V
4 -117 V
3 64 V
0 43 V
3 32 V
3 27 V
0 21 V
4 19 V
0 17 V
3 15 V
0 13 V
3 13 V
1 -464 V
0 200 V
6 64 V
0 43 V
3 32 V
3 27 V
0 21 V
4 19 V
0 17 V
3 15 V
0 13 V
3 13 V
0 11 V
3 10 V
0 10 V
4 9 V
0 9 V
0 8 V
3 8 V
0 7 V
0 7 V
4 6 V
0 7 V
0 6 V
3 5 V
0 6 V
0 5 V
3 5 V
0 5 V
0 5 V
3 5 V
0 4 V
0 5 V
4 -67 V
0 -49 V
0 49 V
0 -49 V
0 49 V
0 41 V
0 -147 V
0 57 V
1 -227 V
0 97 V
2 103 V
0 53 V
1 44 V
2 -97 V
0 53 V
0 44 V
0 -97 V
0 53 V
0 -317 V
0 64 V
3 43 V
0 32 V
0 27 V
4 21 V
3 19 V
3 17 V
0 15 V
3 13 V
0 13 V
4 11 V
0 10 V
3 10 V
0 9 V
4 9 V
0 8 V
4 -30 V
0 -57 V
0 57 V
0 -690 V
0 316 V
3 147 V
stroke 4417 1831 M
0 200 V
4 -147 V
0 83 V
0 -200 V
3 264 V
0 -147 V
0 83 V
4 -200 V
0 264 V
0 -147 V
0 83 V
3 -200 V
0 264 V
0 -147 V
0 83 V
3 -200 V
0 64 V
3 43 V
5 32 V
3 27 V
0 21 V
4 19 V
3 17 V
0 15 V
4 13 V
0 13 V
4 11 V
0 10 V
3 10 V
0 9 V
0 9 V
3 8 V
0 8 V
4 7 V
0 7 V
0 6 V
3 7 V
0 6 V
0 5 V
0 6 V
3 5 V
0 5 V
3 5 V
0 5 V
4 5 V
0 4 V
0 5 V
3 4 V
0 4 V
0 4 V
3 4 V
0 4 V
0 3 V
0 4 V
3 3 V
0 4 V
0 3 V
0 4 V
4 3 V
0 3 V
0 3 V
0 3 V
3 3 V
0 3 V
0 3 V
0 2 V
0 3 V
3 3 V
0 2 V
0 3 V
0 2 V
3 3 V
0 2 V
0 3 V
0 2 V
4 2 V
0 3 V
0 2 V
0 2 V
0 2 V
3 2 V
0 2 V
0 2 V
0 3 V
0 2 V
3 2 V
0 2 V
0 1 V
0 2 V
3 2 V
0 -108 V
0 -353 V
0 97 V
0 -244 V
0 147 V
0 -463 V
0 316 V
4 -316 V
0 316 V
0 -864 V
0 747 V
0 200 V
0 117 V
3 83 V
stroke 4525 1967 M
0 64 V
3 53 V
0 7 V
0 8 V
3 7 V
0 7 V
0 6 V
4 6 V
0 6 V
0 6 V
3 5 V
0 6 V
0 5 V
4 5 V
0 4 V
0 5 V
0 4 V
3 5 V
0 4 V
0 4 V
0 4 V
0 4 V
3 3 V
0 4 V
0 4 V
4 3 V
0 3 V
3 4 V
0 3 V
0 3 V
3 3 V
0 3 V
0 -97 V
0 38 V
0 34 V
0 -433 V
0 117 V
4 -317 V
0 200 V
0 117 V
0 -117 V
3 264 V
0 -147 V
0 83 V
3 -200 V
0 64 V
4 43 V
3 32 V
3 27 V
0 21 V
3 19 V
4 17 V
0 15 V
3 13 V
0 13 V
4 11 V
0 10 V
3 10 V
0 9 V
3 9 V
0 8 V
0 8 V
3 7 V
0 7 V
4 6 V
0 -58 V
0 -374 V
0 147 V
3 -147 V
0 147 V
3 43 V
0 32 V
4 27 V
0 21 V
3 19 V
3 17 V
0 15 V
3 13 V
0 13 V
4 11 V
0 10 V
3 10 V
0 9 V
0 9 V
3 8 V
0 8 V
4 7 V
0 7 V
3 6 V
0 7 V
0 6 V
3 5 V
0 6 V
0 5 V
4 5 V
0 5 V
0 5 V
3 5 V
0 4 V
0 5 V
3 4 V
0 4 V
0 4 V
4 4 V
stroke 4658 2190 M
0 4 V
0 3 V
0 4 V
0 3 V
3 4 V
0 3 V
1 4 V
0 3 V
0 3 V
2 3 V
1 3 V
0 3 V
2 3 V
1 3 V
0 2 V
0 3 V
3 3 V
0 2 V
1 3 V
0 2 V
0 3 V
2 2 V
0 3 V
1 2 V
0 2 V
0 3 V
2 2 V
0 2 V
0 2 V
1 2 V
0 2 V
1 2 V
1 3 V
0 2 V
0 2 V
1 2 V
1 1 V
2 2 V
0 2 V
0 2 V
1 2 V
0 2 V
0 2 V
2 1 V
0 2 V
0 2 V
0 2 V
1 1 V
0 2 V
1 2 V
1 1 V
0 2 V
0 1 V
1 2 V
0 1 V
1 2 V
1 2 V
0 1 V
0 2 V
1 1 V
0 1 V
1 2 V
2 1 V
0 2 V
0 1 V
0 2 V
1 1 V
0 1 V
0 2 V
2 1 V
0 1 V
0 2 V
1 1 V
0 1 V
0 2 V
1 1 V
1 1 V
0 1 V
0 2 V
1 1 V
0 1 V
0 1 V
0 1 V
0 2 V
1 1 V
1 1 V
0 1 V
0 1 V
1 1 V
0 1 V
0 2 V
1 1 V
2 1 V
0 1 V
0 1 V
0 1 V
1 1 V
0 1 V
0 1 V
0 1 V
1 1 V
1 1 V
0 1 V
9 1 V
stroke 4722 2380 M
0 1 V
0 1 V
3 1 V
0 1 V
0 -126 V
0 25 V
0 -25 V
0 25 V
0 23 V
0 -178 V
0 38 V
0 -199 V
0 64 V
0 -147 V
0 83 V
3 64 V
0 -147 V
0 83 V
0 117 V
0 -26 V
4 49 V
0 -49 V
0 49 V
0 -276 V
3 43 V
3 32 V
3 27 V
0 21 V
4 19 V
3 17 V
0 15 V
3 13 V
0 13 V
3 11 V
0 10 V
4 10 V
0 9 V
0 9 V
3 8 V
0 8 V
4 7 V
0 7 V
0 6 V
3 7 V
0 6 V
0 5 V
3 6 V
0 5 V
0 5 V
0 5 V
3 5 V
0 5 V
0 4 V
0 5 V
4 4 V
0 4 V
0 4 V
3 4 V
0 4 V
0 3 V
0 4 V
3 3 V
0 4 V
0 3 V
3 4 V
0 3 V
4 3 V
0 3 V
0 3 V
3 3 V
0 3 V
0 3 V
0 2 V
0 3 V
3 3 V
0 2 V
0 3 V
0 2 V
3 3 V
0 2 V
0 3 V
4 2 V
0 2 V
0 3 V
3 2 V
0 2 V
0 2 V
0 2 V
3 2 V
0 2 V
0 3 V
0 2 V
4 2 V
0 2 V
0 1 V
0 2 V
3 2 V
0 2 V
0 2 V
0 2 V
0 2 V
0 1 V
3 2 V
0 2 V
stroke 4820 2305 M
0 2 V
0 1 V
0 2 V
0 2 V
3 1 V
0 -113 V
0 -433 V
0 117 V
0 -317 V
0 200 V
0 117 V
0 -317 V
0 200 V
4 -200 V
0 200 V
0 -200 V
0 200 V
0 200 V
0 64 V
0 53 V
3 44 V
0 -361 V
0 117 V
0 -317 V
3 200 V
3 64 V
4 43 V
3 32 V
3 27 V
0 21 V
3 19 V
4 17 V
0 15 V
3 13 V
0 13 V
3 11 V
0 10 V
3 10 V
0 9 V
4 9 V
0 8 V
3 8 V
0 7 V
3 7 V
0 6 V
3 7 V
0 6 V
4 5 V
0 6 V
0 5 V
3 5 V
0 5 V
0 5 V
3 5 V
0 4 V
0 5 V
4 4 V
0 4 V
3 4 V
0 4 V
0 4 V
0 3 V
4 4 V
0 3 V
0 4 V
0 3 V
3 4 V
0 3 V
0 3 V
3 3 V
0 -96 V
0 -1308 V
0 747 V
0 -747 V
3 0 R
0 747 V
0 200 V
0 -200 V
0 200 V
4 200 V
0 17 V
3 16 V
0 14 V
3 12 V
0 12 V
3 11 V
0 10 V
0 9 V
4 9 V
0 8 V
3 8 V
0 7 V
0 7 V
3 7 V
0 6 V
3 6 V
0 -68 V
0 -374 V
0 147 V
4 -463 V
0 316 V
0 147 V
3 200 V
0 53 V
stroke 4938 2084 M
0 -317 V
3 64 V
4 43 V
3 32 V
4 27 V
3 21 V
4 19 V
3 17 V
0 15 V
3 13 V
0 13 V
4 11 V
0 10 V
3 10 V
0 9 V
0 9 V
3 8 V
0 8 V
0 7 V
3 7 V
0 6 V
0 7 V
4 6 V
0 5 V
0 6 V
3 5 V
0 5 V
4 5 V
0 5 V
0 5 V
4 4 V
0 5 V
0 4 V
3 4 V
0 4 V
0 4 V
0 4 V
3 3 V
0 4 V
0 3 V
0 4 V
4 3 V
0 4 V
0 3 V
3 3 V
0 3 V
0 3 V
0 3 V
4 3 V
0 3 V
0 2 V
0 3 V
3 3 V
0 2 V
0 3 V
0 2 V
3 3 V
0 2 V
0 3 V
3 2 V
0 2 V
0 3 V
0 2 V
4 2 V
0 2 V
0 2 V
0 2 V
0 2 V
3 3 V
0 2 V
0 2 V
0 2 V
0 1 V
3 2 V
0 2 V
0 2 V
0 2 V
0 2 V
4 2 V
0 1 V
0 2 V
0 2 V
3 2 V
0 1 V
0 2 V
0 2 V
3 1 V
0 2 V
0 1 V
4 2 V
0 1 V
0 2 V
0 2 V
0 1 V
3 2 V
0 1 V
0 1 V
0 2 V
3 1 V
0 2 V
0 1 V
0 2 V
3 1 V
0 1 V
stroke 5052 2338 M
0 2 V
0 1 V
0 1 V
0 2 V
4 1 V
0 1 V
0 2 V
0 1 V
0 1 V
3 1 V
0 2 V
0 1 V
0 1 V
0 1 V
3 1 V
0 -126 V
0 27 V
0 -174 V
0 44 V
0 38 V
0 34 V
0 31 V
0 27 V
0 -58 V
0 31 V
0 -103 V
0 38 V
0 -38 V
0 38 V
0 -82 V
0 44 V
3 -44 V
0 44 V
0 6 V
4 5 V
3 6 V
0 5 V
4 5 V
0 5 V
0 4 V
0 5 V
3 4 V
0 4 V
0 5 V
3 4 V
0 3 V
0 4 V
0 4 V
3 4 V
0 3 V
0 3 V
4 4 V
0 3 V
0 3 V
0 3 V
3 4 V
0 3 V
0 2 V
0 3 V
3 3 V
0 3 V
0 3 V
3 2 V
0 3 V
0 2 V
0 3 V
4 2 V
0 3 V
0 2 V
0 3 V
0 2 V
4 2 V
0 -99 V
0 34 V
0 -316 V
0 83 V
0 -200 V
0 117 V
0 83 V
0 -200 V
0 117 V
3 -317 V
0 200 V
0 117 V
0 83 V
3 64 V
0 -147 V
0 83 V
0 -83 V
0 83 V
1 -83 V
0 83 V
0 -200 V
3 64 V
3 43 V
1 32 V
3 27 V
0 21 V
3 19 V
4 17 V
0 15 V
3 13 V
0 13 V
4 11 V
stroke 5137 2042 M
0 10 V
3 10 V
0 9 V
3 9 V
0 8 V
4 8 V
0 7 V
0 7 V
4 6 V
0 7 V
3 6 V
0 5 V
0 6 V
3 5 V
0 5 V
0 5 V
3 5 V
0 5 V
0 4 V
0 5 V
4 4 V
0 4 V
0 4 V
0 4 V
3 4 V
0 3 V
0 4 V
4 3 V
0 4 V
0 3 V
3 4 V
0 3 V
0 3 V
4 3 V
0 3 V
3 3 V
0 -102 V
0 -97 V
0 53 V
0 -53 V
0 53 V
0 -317 V
0 117 V
4 -117 V
0 117 V
0 83 V
3 64 V
0 -147 V
0 83 V
0 -200 V
3 64 V
3 43 V
4 32 V
3 27 V
0 21 V
3 19 V
3 17 V
0 15 V
4 13 V
0 13 V
3 11 V
0 10 V
3 10 V
0 9 V
3 9 V
0 8 V
0 8 V
4 7 V
0 7 V
0 6 V
4 7 V
0 6 V
3 5 V
0 6 V
0 5 V
3 5 V
0 5 V
0 5 V
4 5 V
0 4 V
0 5 V
3 4 V
0 4 V
0 4 V
1 4 V
0 4 V
2 3 V
0 4 V
0 3 V
2 4 V
1 3 V
0 4 V
0 3 V
3 3 V
1 3 V
0 3 V
0 3 V
0 3 V
3 3 V
0 2 V
0 3 V
0 3 V
3 2 V
0 3 V
stroke 5257 2249 M
0 2 V
0 3 V
0 2 V
3 3 V
0 -93 V
0 34 V
0 -116 V
0 44 V
0 -361 V
0 117 V
4 -317 V
0 200 V
0 117 V
0 -317 V
0 200 V
0 200 V
3 64 V
0 -464 V
0 200 V
0 117 V
0 -117 V
3 264 V
0 -147 V
0 83 V
3 -83 V
0 83 V
0 -200 V
0 64 V
4 43 V
3 32 V
3 27 V
0 21 V
3 19 V
0 17 V
4 15 V
0 13 V
3 13 V
0 11 V
4 10 V
0 10 V
3 9 V
0 9 V
0 8 V
3 8 V
0 7 V
3 7 V
0 6 V
0 7 V
4 6 V
0 5 V
3 6 V
0 5 V
0 5 V
0 5 V
0 5 V
3 5 V
0 4 V
0 5 V
3 4 V
0 4 V
0 4 V
4 4 V
0 4 V
0 3 V
3 4 V
0 3 V
0 4 V
3 3 V
0 4 V
0 3 V
0 3 V
3 3 V
0 3 V
1 3 V
3 3 V
0 3 V
1 2 V
0 3 V
0 3 V
2 2 V
0 3 V
1 2 V
0 3 V
0 2 V
3 3 V
0 2 V
0 2 V
0 3 V
3 2 V
0 2 V
0 2 V
0 2 V
0 2 V
4 2 V
0 3 V
0 2 V
0 2 V
0 2 V
3 1 V
0 2 V
0 -106 V
0 32 V
0 -109 V
0 41 V
stroke 5353 2148 M
0 -147 V
0 57 V
0 -57 V
0 57 V
0 -130 V
0 73 V
3 -73 V
0 73 V
0 57 V
0 -227 V
0 97 V
0 103 V
0 -1211 V
4 0 R
0 747 V
3 200 V
3 64 V
3 43 V
4 32 V
3 27 V
3 21 V
3 19 V
4 17 V
0 15 V
3 13 V
0 13 V
0 11 V
3 10 V
0 10 V
0 9 V
3 9 V
0 8 V
4 8 V
0 7 V
0 7 V
3 6 V
0 7 V
0 6 V
3 5 V
0 6 V
0 5 V
3 5 V
0 -66 V
0 -317 V
0 117 V
0 -317 V
0 200 V
4 -200 V
0 200 V
0 117 V
3 147 V
0 -64 V
0 64 V
0 53 V
0 -200 V
0 83 V
3 -200 V
0 64 V
3 43 V
0 32 V
4 27 V
3 21 V
4 19 V
3 17 V
0 15 V
3 13 V
0 13 V
64 -464 V
23 200 V
3 64 V
3 43 V
4 32 V
3 27 V
4 21 V
3 19 V
4 17 V
0 15 V
3 13 V
0 13 V
3 11 V
0 10 V
4 10 V
0 9 V
0 9 V
3 8 V
0 8 V
0 7 V
3 7 V
0 6 V
0 7 V
3 6 V
0 5 V
0 6 V
4 5 V
0 5 V
0 5 V
0 5 V
3 5 V
0 4 V
0 5 V
3 4 V
0 4 V
0 4 V
0 4 V
stroke 5578 2190 M
3 4 V
0 3 V
0 4 V
4 3 V
0 4 V
0 -80 V
0 -244 V
0 83 V
3 -200 V
0 117 V
0 83 V
0 64 V
0 -64 V
0 64 V
0 -147 V
0 83 V
4 64 V
0 -147 V
0 83 V
0 -200 V
0 117 V
1 -117 V
2 264 V
1 -147 V
0 83 V
2 -83 V
0 83 V
1 -200 V
0 64 V
3 43 V
4 32 V
3 27 V
0 21 V
3 19 V
3 17 V
0 15 V
4 13 V
0 13 V
0 11 V
3 10 V
0 10 V
3 9 V
0 9 V
4 8 V
0 8 V
3 7 V
0 7 V
0 6 V
3 7 V
0 6 V
3 5 V
0 6 V
0 5 V
0 5 V
4 -66 V
0 -53 V
0 53 V
0 -1264 V
0 747 V
0 -747 V
3 0 R
0 747 V
1 317 V
3 30 V
3 25 V
4 21 V
3 18 V
3 16 V
0 15 V
4 13 V
0 12 V
3 11 V
0 10 V
3 10 V
0 9 V
4 8 V
0 8 V
3 8 V
0 7 V
0 7 V
3 6 V
0 6 V
0 6 V
4 6 V
0 5 V
0 6 V
3 5 V
0 5 V
0 5 V
1 4 V
2 5 V
0 4 V
1 4 V
3 4 V
0 4 V
0 4 V
3 4 V
0 3 V
0 4 V
1 3 V
2 4 V
0 3 V
0 3 V
1 4 V
stroke 5703 2219 M
3 3 V
0 3 V
0 3 V
0 3 V
0 2 V
3 3 V
0 3 V
0 3 V
0 2 V
3 3 V
0 3 V
3 2 V
0 2 V
0 3 V
0 2 V
0 3 V
4 2 V
0 2 V
0 2 V
0 3 V
3 2 V
0 2 V
0 2 V
0 2 V
3 2 V
0 2 V
0 2 V
0 2 V
3 2 V
0 2 V
0 2 V
0 2 V
0 1 V
4 2 V
0 -114 V
0 -126 V
0 49 V
0 41 V
1 36 V
0 -36 V
0 36 V
0 32 V
0 -215 V
0 57 V
2 -130 V
0 73 V
0 57 V
0 49 V
0 41 V
0 36 V
0 -217 V
3 64 V
0 53 V
0 -317 V
0 117 V
1 -317 V
0 200 V
6 64 V
1 43 V
3 32 V
3 27 V
0 21 V
3 19 V
4 17 V
0 15 V
3 13 V
0 13 V
4 11 V
0 10 V
3 10 V
0 9 V
3 9 V
0 8 V
3 8 V
0 7 V
0 7 V
4 6 V
0 7 V
0 6 V
3 5 V
0 6 V
0 5 V
0 5 V
3 5 V
0 5 V
0 5 V
3 4 V
0 5 V
0 4 V
4 4 V
0 4 V
0 4 V
3 4 V
0 3 V
0 4 V
0 3 V
0 4 V
4 3 V
0 4 V
0 3 V
3 3 V
0 3 V
2 3 V
0 3 V
stroke 5804 2230 M
2 3 V
0 3 V
0 2 V
1 3 V
0 3 V
2 2 V
0 3 V
0 2 V
1 3 V
0 2 V
2 3 V
0 2 V
0 2 V
2 3 V
0 2 V
1 2 V
0 2 V
3 2 V
0 2 V
1 2 V
0 3 V
0 2 V
2 2 V
0 2 V
1 1 V
0 2 V
0 2 V
2 2 V
0 2 V
1 2 V
0 2 V
0 1 V
3 2 V
0 2 V
0 2 V
0 1 V
0 2 V
3 2 V
0 1 V
0 2 V
1 1 V
0 2 V
0 1 V
0 2 V
2 2 V
0 1 V
1 2 V
0 1 V
0 1 V
10 2 V
0 1 V
0 2 V
0 1 V
0 2 V
3 1 V
0 1 V
0 2 V
1 1 V
0 1 V
0 2 V
2 1 V
0 1 V
1 2 V
0 1 V
1 1 V
0 1 V
1 2 V
0 1 V
1 1 V
0 1 V
0 1 V
1 2 V
0 1 V
2 1 V
0 1 V
1 1 V
0 1 V
0 1 V
1 2 V
0 1 V
0 1 V
1 1 V
0 1 V
1 1 V
0 1 V
0 1 V
1 1 V
0 1 V
0 1 V
2 1 V
0 1 V
0 1 V
0 1 V
0 1 V
1 1 V
0 1 V
0 1 V
2 1 V
0 1 V
0 1 V
0 1 V
0 1 V
1 1 V
0 1 V
stroke 5869 2392 M
0 1 V
2 1 V
0 1 V
1 1 V
0 1 V
0 1 V
1 0 V
0 1 V
0 1 V
0 1 V
2 1 V
0 1 V
0 1 V
0 1 V
1 1 V
0 1 V
0 1 V
0 1 V
2 1 V
0 -139 V
0 24 V
0 -111 V
0 32 V
0 -32 V
0 32 V
0 -68 V
0 36 V
1 -77 V
0 41 V
0 -147 V
0 57 V
0 -57 V
0 57 V
0 -130 V
0 73 V
2 -170 V
0 97 V
0 103 V
1 53 V
0 44 V
0 38 V
0 34 V
2 31 V
0 -31 V
0 31 V
0 27 V
0 25 V
0 -155 V
0 38 V
0 -399 V
2 64 V
2 43 V
0 32 V
0 27 V
4 21 V
4 19 V
3 17 V
0 15 V
3 13 V
0 13 V
64 -464 V
4 200 V
0 64 V
0 43 V
3 157 V
0 -147 V
0 83 V
3 -200 V
0 264 V
0 -147 V
0 83 V
3 -200 V
0 64 V
4 43 V
3 32 V
3 27 V
3 21 V
4 19 V
3 17 V
0 15 V
3 13 V
0 13 V
3 11 V
0 10 V
4 10 V
0 9 V
0 9 V
3 8 V
0 8 V
3 7 V
0 7 V
3 6 V
0 7 V
0 6 V
4 5 V
0 6 V
3 5 V
0 5 V
0 5 V
0 5 V
3 5 V
0 4 V
0 5 V
0 4 V
stroke 6028 2178 M
4 4 V
0 4 V
0 4 V
0 4 V
3 3 V
0 4 V
0 3 V
0 4 V
3 3 V
0 4 V
4 3 V
0 3 V
0 3 V
0 3 V
0 3 V
3 3 V
0 3 V
0 2 V
0 3 V
3 3 V
0 2 V
0 3 V
4 2 V
0 3 V
0 2 V
0 3 V
3 2 V
0 2 V
0 3 V
0 2 V
3 2 V
0 -104 V
0 -135 V
0 53 V
3 -200 V
0 83 V
0 -200 V
0 117 V
0 -317 V
0 200 V
0 -200 V
0 200 V
0 117 V
0 83 V
3 64 V
0 53 V
0 -200 V
0 83 V
2 -200 V
0 117 V
1 -117 V
0 64 V
4 43 V
3 32 V
3 27 V
3 21 V
4 19 V
3 17 V
0 15 V
3 13 V
0 13 V
4 11 V
0 10 V
3 10 V
0 9 V
3 9 V
0 8 V
0 8 V
3 7 V
0 7 V
0 6 V
4 7 V
0 6 V
0 5 V
0 6 V
3 5 V
0 5 V
3 5 V
0 5 V
0 5 V
0 4 V
3 5 V
0 4 V
1 4 V
0 4 V
3 4 V
0 4 V
0 3 V
0 4 V
3 3 V
0 4 V
1 3 V
0 4 V
0 3 V
2 3 V
0 3 V
1 3 V
0 3 V
0 3 V
2 3 V
1 2 V
0 3 V
0 3 V
3 2 V
stroke 6133 2246 M
1 3 V
0 2 V
0 3 V
0 2 V
2 3 V
1 2 V
0 2 V
3 3 V
0 2 V
0 2 V
0 2 V
3 2 V
0 2 V
0 2 V
4 3 V
0 2 V
0 2 V
0 2 V
3 1 V
0 2 V
0 2 V
3 2 V
0 2 V
0 2 V
0 2 V
3 1 V
0 2 V
0 2 V
0 2 V
0 1 V
4 2 V
0 2 V
0 1 V
0 2 V
0 1 V
3 2 V
0 1 V
0 2 V
0 2 V
0 1 V
0 2 V
3 1 V
0 1 V
0 2 V
0 1 V
0 2 V
0 1 V
0 2 V
3 1 V
0 1 V
0 2 V
0 1 V
4 1 V
0 2 V
0 1 V
0 1 V
0 2 V
0 1 V
3 1 V
0 1 V
0 2 V
0 1 V
0 1 V
3 1 V
0 1 V
0 2 V
0 1 V
4 1 V
0 1 V
0 -131 V
0 27 V
0 25 V
0 -252 V
0 53 V
0 -200 V
0 83 V
3 -83 V
0 83 V
0 -200 V
0 117 V
0 -317 V
0 200 V
0 117 V
0 83 V
3 64 V
0 53 V
0 44 V
0 -161 V
0 64 V
0 -264 V
4 64 V
3 43 V
3 32 V
5 27 V
4 21 V
3 19 V
3 17 V
0 15 V
3 13 V
0 13 V
4 11 V
0 10 V
3 10 V
0 9 V
stroke 6224 2071 M
3 9 V
0 8 V
0 8 V
3 7 V
0 7 V
0 6 V
4 7 V
0 6 V
0 5 V
3 6 V
0 -56 V
0 -317 V
0 117 V
3 -317 V
0 200 V
0 -947 V
0 747 V
0 317 V
3 147 V
0 53 V
0 44 V
0 -161 V
0 64 V
4 -264 V
0 64 V
0 43 V
3 32 V
3 27 V
4 21 V
3 19 V
3 17 V
0 15 V
3 13 V
0 13 V
0 11 V
4 10 V
0 10 V
3 9 V
0 9 V
0 8 V
3 8 V
0 7 V
3 7 V
0 6 V
0 7 V
4 6 V
0 5 V
0 6 V
0 5 V
3 5 V
0 5 V
0 5 V
3 5 V
0 4 V
0 5 V
0 4 V
0 4 V
3 4 V
0 -79 V
0 41 V
0 36 V
0 -500 V
0 147 V
4 -147 V
0 147 V
0 -64 V
3 264 V
0 -64 V
0 64 V
0 -147 V
0 83 V
3 -200 V
0 64 V
0 43 V
3 32 V
4 27 V
3 21 V
4 19 V
3 17 V
0 15 V
3 13 V
0 13 V
3 11 V
0 10 V
4 10 V
0 9 V
3 9 V
0 8 V
3 8 V
0 7 V
0 7 V
3 6 V
0 7 V
1 6 V
3 5 V
0 6 V
0 5 V
1 5 V
2 5 V
0 5 V
1 5 V
2 4 V
0 5 V
2 4 V
stroke 6350 2178 M
2 4 V
0 4 V
0 4 V
2 4 V
1 3 V
0 4 V
3 3 V
1 4 V
0 3 V
2 4 V
1 3 V
0 3 V
0 3 V
0 3 V
3 3 V
0 3 V
0 3 V
0 2 V
3 3 V
0 3 V
0 2 V
1 3 V
2 2 V
1 3 V
0 2 V
0 3 V
0 2 V
2 2 V
1 3 V
0 2 V
0 2 V
0 2 V
3 2 V
0 2 V
0 2 V
1 3 V
0 2 V
2 2 V
0 2 V
0 1 V
1 2 V
0 2 V
2 2 V
0 2 V
1 2 V
0 2 V
0 1 V
0 2 V
0 2 V
2 2 V
0 1 V
1 2 V
0 2 V
0 1 V
0 2 V
3 1 V
0 2 V
0 1 V
0 2 V
0 2 V
1 1 V
0 2 V
2 1 V
0 1 V
0 2 V
0 1 V
0 2 V
1 1 V
0 2 V
2 1 V
0 1 V
1 2 V
0 1 V
0 1 V
0 2 V
2 1 V
0 1 V
0 2 V
1 1 V
0 1 V
0 1 V
0 2 V
3 1 V
0 1 V
0 1 V
1 1 V
0 2 V
0 1 V
0 1 V
2 1 V
0 1 V
0 1 V
0 1 V
1 2 V
0 1 V
0 1 V
0 1 V
3 1 V
0 1 V
0 1 V
0 1 V
0 1 V
0 1 V
1 1 V
stroke 6412 2377 M
2 1 V
0 1 V
0 1 V
0 1 V
0 1 V
0 1 V
1 1 V
2 1 V
0 1 V
0 1 V
0 1 V
0 1 V
1 1 V
0 1 V
2 1 V
0 1 V
0 1 V
0 1 V
0 1 V
3 1 V
1 1 V
0 1 V
0 1 V
0 1 V
0 1 V
0 1 V
0 1 V
2 1 V
1 0 V
0 1 V
0 1 V
0 1 V
0 1 V
0 1 V
2 0 V
1 1 V
0 1 V
0 1 V
0 1 V
0 1 V
3 1 V
0 1 V
0 1 V
0 -135 V
0 -25 V
0 25 V
0 23 V
0 22 V
0 -128 V
0 31 V
0 -65 V
0 34 V
0 -116 V
0 44 V
3 -97 V
0 53 V
0 -117 V
0 64 V
0 53 V
0 44 V
0 -161 V
0 64 V
0 53 V
0 -26 V
0 49 V
4 41 V
0 36 V
0 -36 V
0 36 V
0 32 V
0 -32 V
0 32 V
0 29 V
0 -61 V
0 32 V
0 -68 V
0 36 V
0 -353 V
3 227 V
0 -130 V
0 73 V
0 57 V
0 49 V
0 -423 V
0 147 V
0 97 V
4 -361 V
0 200 V
3 117 V
0 30 V
4 25 V
0 21 V
3 18 V
3 16 V
0 15 V
3 13 V
0 12 V
4 11 V
0 10 V
0 10 V
3 9 V
0 8 V
3 8 V
0 8 V
stroke 6473 2098 M
3 7 V
0 7 V
0 6 V
4 6 V
0 6 V
1 6 V
2 5 V
0 6 V
1 5 V
2 5 V
0 5 V
2 4 V
1 5 V
0 4 V
2 4 V
2 4 V
0 4 V
0 4 V
2 4 V
1 3 V
0 4 V
0 3 V
2 4 V
1 3 V
0 3 V
0 4 V
0 3 V
2 3 V
1 3 V
0 3 V
0 2 V
2 3 V
2 3 V
0 -91 V
0 -147 V
0 57 V
0 -227 V
0 97 V
2 -244 V
0 147 V
1 -463 V
0 316 V
0 147 V
0 97 V
0 -44 V
2 147 V
1 53 V
0 -53 V
0 53 V
0 -317 V
4 64 V
1 43 V
4 32 V
3 27 V
3 21 V
4 19 V
3 17 V
0 15 V
3 13 V
0 13 V
4 11 V
0 10 V
3 10 V
0 9 V
3 9 V
0 8 V
4 8 V
0 7 V
3 7 V
0 6 V
3 7 V
0 -1303 V
% End plot #4
% Begin plot #5
2.000 UP
stroke
LTb
LT1
0.00 0.00 0.63 C 1369 1767 Circle
1542 1884 Circle
1816 2238 Circle
1946 2201 Circle
2154 2088 Circle
2264 2251 Circle
2360 2084 Circle
2498 2182 Circle
2748 2165 Circle
2942 2132 Circle
3012 1967 Circle
3198 1928 Circle
3294 1831 Circle
3395 2031 Circle
3511 2116 Circle
3702 2014 Circle
3925 2227 Circle
4136 2194 Circle
4255 2236 Circle
4328 1767 Circle
4460 2052 Circle
4548 2199 Circle
4672 2251 Circle
4728 2031 Circle
4823 1567 Circle
4962 2005 Circle
5056 2345 Circle
5137 2052 Circle
5254 2241 Circle
5350 2285 Circle
5572 2145 Circle
5692 2171 Circle
5788 2169 Circle
5861 2371 Circle
5996 1973 Circle
6107 2134 Circle
6183 2231 Circle
6296 1767 Circle
6392 2326 Circle
6436 2084 Circle
6517 1874 Circle
% End plot #5
% Begin plot #6
2.000 UP
1.000 UL
LTb
LT1
0.00 0.00 0.63 C LCb setrgbcolor
4247 153 M
[ [(Arial) 180.0 0.0 true true 0 (per-packet)]
] -60.0 MRshow
2.000 UP
1.000 UL
LTb
LT1
0.00 0.00 0.63 C 1369 1767 Circle
4521 153 Circle
% End plot #6
% Begin plot #7
1.000 UL
LTb
LT3
0.00 0.38 0.82 C 1369 1767 M
3 117 V
3 83 V
4 64 V
0 53 V
3 44 V
0 38 V
0 34 V
4 31 V
0 27 V
0 25 V
0 23 V
3 22 V
0 19 V
0 19 V
0 17 V
0 17 V
0 15 V
4 15 V
0 14 V
0 14 V
0 13 V
0 12 V
0 12 V
0 11 V
0 11 V
0 10 V
4 10 V
0 10 V
0 9 V
0 10 V
0 8 V
0 9 V
0 8 V
0 9 V
0 7 V
0 8 V
0 8 V
0 7 V
0 7 V
0 7 V
4 7 V
0 6 V
0 7 V
0 6 V
0 6 V
0 6 V
0 6 V
0 6 V
0 6 V
0 5 V
6 -173 V
0 10 V
0 10 V
0 9 V
0 9 V
0 9 V
0 8 V
0 9 V
0 8 V
0 7 V
0 8 V
0 7 V
0 7 V
0 7 V
0 7 V
0 7 V
0 7 V
0 6 V
0 6 V
0 6 V
0 6 V
0 6 V
0 6 V
0 6 V
0 5 V
0 6 V
0 5 V
0 5 V
0 5 V
0 5 V
0 5 V
0 5 V
0 5 V
0 5 V
0 4 V
0 5 V
0 4 V
0 5 V
0 4 V
0 5 V
0 4 V
0 4 V
0 4 V
4 4 V
0 4 V
0 -4 V
0 4 V
0 4 V
0 4 V
0 4 V
0 4 V
0 3 V
0 4 V
0 4 V
stroke 1411 2828 M
0 3 V
0 4 V
0 3 V
0 4 V
0 3 V
0 4 V
0 3 V
0 3 V
0 4 V
4 3 V
0 3 V
0 -3 V
0 3 V
0 3 V
0 3 V
0 3 V
0 3 V
0 4 V
0 3 V
0 2 V
0 3 V
0 3 V
0 3 V
0 3 V
0 3 V
0 3 V
0 2 V
0 3 V
0 3 V
0 3 V
3 2 V
0 3 V
0 -3 V
0 3 V
0 3 V
0 2 V
0 3 V
0 2 V
0 3 V
0 2 V
0 3 V
0 2 V
0 3 V
0 2 V
0 2 V
0 3 V
0 2 V
0 3 V
0 2 V
0 2 V
0 2 V
1 3 V
3 2 V
0 2 V
0 -2 V
0 2 V
0 2 V
0 3 V
0 2 V
0 2 V
0 2 V
0 2 V
0 2 V
0 3 V
0 2 V
0 2 V
0 2 V
0 2 V
0 2 V
0 2 V
0 2 V
0 2 V
0 2 V
0 2 V
0 2 V
4 2 V
0 2 V
0 -2 V
0 2 V
0 1 V
0 2 V
0 2 V
0 2 V
0 2 V
0 2 V
0 2 V
0 1 V
0 2 V
0 2 V
0 2 V
0 2 V
0 1 V
0 2 V
0 2 V
0 2 V
0 1 V
0 2 V
0 2 V
0 1 V
4 2 V
0 2 V
0 -2 V
0 2 V
0 1 V
stroke 1430 3052 M
0 2 V
0 2 V
0 1 V
0 2 V
0 2 V
0 1 V
0 2 V
0 1 V
0 2 V
0 2 V
0 1 V
0 2 V
0 1 V
0 2 V
0 1 V
0 2 V
0 1 V
0 2 V
0 1 V
0 2 V
45 -1517 V
10 200 V
4 117 V
4 83 V
3 64 V
0 53 V
4 44 V
0 38 V
0 34 V
4 31 V
0 27 V
0 25 V
0 23 V
4 22 V
0 19 V
0 19 V
0 1 V
0 1 V
0 1 V
0 1 V
4 1 V
0 2 V
0 1 V
0 1 V
0 1 V
0 1 V
0 1 V
0 1 V
3 1 V
0 1 V
0 1 V
0 1 V
0 1 V
0 1 V
0 1 V
0 1 V
4 1 V
0 1 V
0 1 V
0 1 V
0 1 V
0 1 V
0 1 V
4 1 V
0 1 V
0 1 V
0 1 V
0 1 V
0 1 V
0 1 V
0 1 V
3 0 V
1 1 V
0 1 V
0 1 V
0 1 V
0 1 V
0 1 V
0 1 V
63 -842 V
11 200 V
3 117 V
4 83 V
4 64 V
0 53 V
4 44 V
0 38 V
0 34 V
0 4 V
3 3 V
0 4 V
0 3 V
0 3 V
4 3 V
0 3 V
0 3 V
0 3 V
3 3 V
0 3 V
0 3 V
0 2 V
3 3 V
0 3 V
0 2 V
stroke 1629 2248 M
1 3 V
0 2 V
2 3 V
0 2 V
0 3 V
1 2 V
0 2 V
11 2 V
3 3 V
0 2 V
0 2 V
0 2 V
0 2 V
4 2 V
0 2 V
0 2 V
0 2 V
0 2 V
4 2 V
0 2 V
0 2 V
0 2 V
0 1 V
0 2 V
64 -732 V
10 200 V
4 117 V
3 83 V
4 64 V
0 53 V
0 7 V
4 8 V
0 7 V
0 7 V
3 6 V
0 6 V
0 6 V
4 6 V
0 5 V
0 6 V
4 5 V
0 5 V
0 4 V
3 5 V
0 4 V
0 5 V
4 4 V
0 4 V
0 4 V
0 4 V
64 -625 V
9 200 V
4 117 V
3 83 V
0 17 V
3 16 V
0 14 V
4 12 V
0 12 V
4 11 V
0 10 V
3 9 V
0 9 V
4 8 V
0 8 V
4 7 V
0 7 V
0 7 V
3 6 V
0 6 V
0 6 V
4 6 V
0 5 V
0 6 V
3 5 V
0 4 V
0 5 V
3 5 V
0 4 V
0 4 V
4 5 V
0 4 V
0 4 V
0 3 V
4 4 V
0 4 V
0 3 V
0 4 V
3 3 V
0 3 V
0 4 V
0 3 V
3 3 V
0 3 V
0 3 V
0 3 V
4 3 V
0 2 V
0 3 V
0 3 V
0 2 V
4 3 V
0 2 V
0 3 V
stroke 1899 2253 M
0 2 V
0 3 V
3 2 V
0 2 V
0 3 V
0 2 V
0 2 V
3 2 V
0 3 V
0 2 V
0 2 V
0 2 V
23 2 V
4 2 V
0 2 V
0 2 V
0 2 V
0 2 V
3 1 V
0 2 V
0 2 V
0 2 V
0 2 V
0 1 V
4 2 V
0 2 V
0 2 V
0 1 V
0 2 V
0 2 V
4 1 V
0 2 V
0 1 V
0 2 V
0 2 V
0 1 V
3 2 V
0 1 V
0 2 V
1 1 V
0 1 V
0 2 V
3 1 V
0 2 V
0 1 V
0 2 V
0 1 V
0 1 V
0 2 V
3 1 V
0 1 V
0 2 V
0 1 V
0 1 V
0 1 V
1 2 V
2 1 V
0 1 V
0 1 V
0 2 V
0 1 V
0 1 V
2 1 V
10 1 V
4 2 V
0 1 V
0 1 V
0 1 V
0 1 V
0 1 V
0 1 V
3 1 V
0 2 V
0 1 V
0 1 V
0 1 V
0 1 V
0 1 V
0 1 V
3 1 V
0 1 V
0 1 V
0 1 V
0 1 V
0 1 V
0 1 V
0 1 V
4 1 V
0 1 V
0 1 V
0 1 V
0 1 V
0 1 V
0 1 V
0 1 V
3 1 V
0 1 V
0 1 V
0 1 V
0 1 V
0 1 V
0 1 V
4 1 V
0 1 V
stroke 1989 2401 M
0 1 V
0 1 V
0 1 V
0 1 V
0 1 V
4 1 V
0 1 V
0 1 V
0 1 V
0 1 V
0 1 V
0 1 V
3 1 V
0 1 V
0 1 V
0 1 V
0 1 V
0 1 V
0 1 V
0 1 V
4 0 V
0 1 V
0 1 V
0 1 V
0 1 V
0 1 V
0 1 V
3 1 V
0 1 V
0 1 V
0 1 V
0 1 V
0 1 V
0 1 V
4 0 V
0 1 V
0 1 V
0 1 V
0 1 V
0 1 V
0 1 V
0 1 V
3 0 V
0 1 V
0 1 V
0 1 V
0 1 V
0 1 V
0 1 V
4 1 V
0 1 V
0 1 V
0 1 V
0 1 V
0 1 V
3 1 V
0 1 V
0 1 V
0 1 V
0 1 V
0 1 V
3 1 V
0 1 V
0 1 V
0 1 V
0 1 V
0 1 V
0 1 V
3 0 V
0 1 V
0 1 V
0 1 V
0 1 V
0 1 V
0 1 V
4 0 V
0 1 V
0 1 V
0 1 V
0 1 V
0 1 V
3 1 V
0 1 V
0 1 V
0 1 V
0 1 V
0 1 V
4 0 V
0 1 V
0 1 V
0 1 V
0 1 V
0 1 V
0 1 V
3 0 V
0 1 V
0 1 V
0 1 V
0 1 V
0 1 V
3 1 V
0 1 V
0 1 V
0 1 V
stroke 2040 2498 M
0 1 V
0 1 V
4 0 V
0 1 V
0 1 V
0 1 V
0 1 V
0 1 V
4 0 V
0 1 V
0 1 V
0 1 V
0 1 V
0 1 V
3 0 V
0 1 V
0 1 V
0 1 V
0 1 V
0 1 V
3 1 V
0 1 V
0 1 V
0 1 V
1 0 V
0 1 V
3 1 V
0 1 V
0 1 V
0 1 V
0 1 V
23 0 V
3 1 V
0 1 V
0 1 V
0 1 V
0 1 V
4 1 V
9 1 V
4 1 V
0 1 V
0 1 V
0 1 V
0 1 V
4 0 V
0 1 V
0 1 V
0 1 V
0 1 V
0 1 V
3 0 V
0 1 V
0 1 V
0 1 V
0 1 V
10 1 V
0 -164 V
0 17 V
0 15 V
0 15 V
0 14 V
0 14 V
0 13 V
0 12 V
0 12 V
0 11 V
0 11 V
0 10 V
0 10 V
0 10 V
0 9 V
0 10 V
0 8 V
0 9 V
3 8 V
0 9 V
0 7 V
0 -7 V
0 7 V
10 8 V
0 8 V
0 7 V
0 -7 V
0 7 V
0 7 V
3 7 V
0 7 V
0 6 V
0 -6 V
0 6 V
0 7 V
0 6 V
3 6 V
0 6 V
0 6 V
0 -6 V
0 6 V
0 6 V
0 6 V
0 5 V
4 6 V
0 5 V
0 6 V
0 -6 V
stroke 2141 2716 M
0 6 V
0 5 V
0 5 V
0 5 V
0 5 V
4 5 V
0 4 V
0 5 V
0 -5 V
0 5 V
0 5 V
0 4 V
0 5 V
0 4 V
0 4 V
4 5 V
0 4 V
0 4 V
0 -463 V
0 1 V
0 1 V
0 2 V
0 1 V
3 2 V
0 1 V
0 1 V
0 2 V
0 1 V
0 1 V
0 2 V
4 1 V
0 1 V
0 2 V
0 1 V
0 1 V
0 1 V
0 2 V
3 1 V
0 1 V
0 1 V
0 2 V
0 1 V
0 1 V
0 1 V
4 1 V
0 1 V
0 2 V
0 1 V
0 1 V
0 1 V
0 1 V
3 1 V
0 1 V
0 1 V
0 1 V
0 2 V
0 1 V
0 1 V
0 1 V
4 1 V
0 1 V
0 1 V
0 1 V
0 1 V
0 1 V
0 1 V
0 1 V
3 1 V
0 1 V
0 1 V
0 1 V
0 1 V
0 1 V
0 1 V
3 1 V
0 1 V
0 1 V
0 1 V
0 1 V
0 1 V
0 1 V
0 1 V
4 1 V
0 1 V
0 1 V
0 1 V
0 1 V
0 1 V
0 1 V
3 0 V
0 1 V
0 1 V
0 1 V
0 1 V
0 1 V
0 1 V
0 1 V
4 1 V
0 1 V
0 1 V
0 1 V
0 1 V
0 1 V
0 1 V
stroke 2187 2421 M
3 1 V
0 1 V
1 1 V
0 1 V
0 1 V
0 1 V
0 1 V
3 0 V
0 1 V
0 1 V
0 1 V
0 1 V
0 1 V
0 1 V
3 1 V
0 1 V
0 1 V
0 1 V
1 1 V
0 1 V
0 1 V
10 1 V
0 1 V
0 1 V
3 0 V
0 1 V
0 1 V
0 1 V
0 1 V
0 1 V
0 1 V
23 1 V
4 0 V
0 1 V
0 1 V
0 1 V
0 1 V
0 1 V
0 1 V
4 0 V
0 1 V
0 1 V
0 1 V
0 1 V
0 1 V
3 1 V
0 1 V
0 1 V
0 1 V
0 1 V
0 1 V
0 1 V
3 0 V
0 1 V
0 1 V
0 1 V
0 1 V
0 1 V
0 1 V
4 0 V
0 1 V
0 1 V
0 1 V
0 1 V
0 1 V
3 1 V
0 1 V
0 1 V
0 1 V
0 1 V
0 1 V
4 0 V
0 1 V
0 1 V
0 1 V
0 1 V
0 1 V
64 -924 V
9 200 V
4 117 V
3 83 V
3 64 V
0 53 V
3 44 V
0 38 V
0 34 V
4 31 V
0 27 V
0 25 V
0 2 V
0 2 V
3 2 V
0 2 V
0 2 V
0 2 V
0 1 V
0 2 V
3 2 V
0 2 V
0 2 V
0 1 V
0 2 V
0 2 V
3 1 V
stroke 2358 2310 M
0 2 V
0 2 V
0 1 V
0 2 V
0 1 V
4 2 V
0 1 V
0 2 V
0 1 V
0 2 V
0 1 V
3 2 V
0 1 V
0 2 V
0 1 V
0 2 V
0 1 V
3 1 V
0 2 V
0 1 V
0 1 V
0 2 V
0 1 V
0 1 V
3 2 V
0 1 V
0 1 V
0 1 V
0 2 V
0 1 V
0 1 V
4 1 V
0 2 V
0 1 V
0 1 V
0 1 V
0 1 V
0 1 V
3 2 V
0 1 V
0 1 V
0 1 V
0 1 V
0 1 V
0 1 V
3 1 V
0 1 V
0 1 V
0 2 V
0 1 V
0 1 V
0 1 V
0 1 V
3 1 V
0 1 V
0 1 V
0 1 V
0 1 V
0 1 V
0 1 V
0 1 V
4 1 V
0 1 V
0 1 V
0 1 V
0 1 V
0 1 V
0 1 V
3 1 V
0 1 V
0 1 V
0 1 V
0 1 V
0 1 V
0 1 V
3 1 V
0 1 V
0 1 V
0 1 V
0 1 V
0 1 V
0 1 V
0 1 V
3 1 V
0 1 V
0 1 V
0 1 V
0 1 V
0 1 V
0 1 V
4 1 V
0 1 V
0 1 V
0 1 V
0 1 V
0 1 V
0 1 V
3 1 V
0 1 V
0 1 V
0 1 V
0 1 V
0 1 V
0 1 V
stroke 2404 2430 M
3 1 V
0 1 V
0 1 V
0 1 V
0 1 V
0 1 V
4 1 V
0 1 V
0 1 V
0 1 V
0 1 V
0 1 V
0 1 V
3 1 V
0 1 V
0 1 V
0 1 V
0 1 V
0 1 V
3 1 V
0 1 V
0 1 V
0 1 V
1 1 V
0 1 V
2 1 V
0 1 V
10 1 V
0 1 V
3 1 V
0 1 V
0 1 V
0 1 V
0 1 V
0 1 V
4 1 V
0 1 V
0 1 V
0 1 V
0 1 V
0 1 V
3 1 V
0 1 V
0 1 V
0 1 V
0 1 V
0 1 V
3 1 V
0 1 V
1 0 V
0 1 V
0 1 V
0 1 V
0 1 V
3 0 V
0 1 V
0 1 V
0 1 V
0 1 V
0 1 V
3 1 V
0 1 V
0 1 V
0 1 V
0 1 V
1 1 V
2 0 V
0 1 V
0 1 V
0 1 V
0 1 V
0 1 V
4 1 V
0 1 V
0 1 V
0 1 V
0 1 V
3 1 V
0 1 V
0 1 V
0 1 V
0 1 V
1 0 V
2 1 V
0 1 V
0 1 V
0 1 V
0 1 V
1 1 V
2 0 V
0 1 V
0 1 V
0 1 V
0 1 V
2 1 V
9 0 V
4 0 V
0 1 V
0 1 V
0 1 V
0 1 V
0 1 V
3 0 V
0 1 V
stroke 2484 2526 M
0 1 V
0 1 V
0 1 V
0 1 V
4 0 V
0 1 V
0 1 V
0 1 V
0 1 V
0 1 V
3 0 V
0 1 V
0 1 V
0 1 V
0 1 V
1 0 V
2 1 V
0 1 V
0 1 V
0 1 V
0 1 V
1 0 V
2 0 V
0 1 V
0 1 V
0 1 V
0 1 V
2 0 V
2 1 V
0 1 V
0 1 V
0 1 V
0 1 V
1 0 V
2 0 V
0 1 V
0 1 V
0 1 V
0 1 V
1 0 V
2 1 V
0 1 V
0 1 V
0 1 V
0 1 V
2 0 V
1 0 V
0 1 V
0 1 V
0 1 V
0 1 V
2 0 V
2 0 V
0 1 V
0 1 V
0 1 V
0 1 V
1 0 V
2 1 V
0 1 V
0 1 V
0 1 V
1 1 V
3 0 V
0 1 V
0 1 V
0 1 V
0 1 V
1 0 V
2 0 V
0 1 V
0 1 V
0 1 V
0 1 V
1 0 V
2 0 V
0 1 V
0 1 V
0 1 V
1 1 V
3 0 V
0 1 V
0 1 V
0 1 V
0 1 V
3 0 V
0 1 V
0 1 V
0 1 V
0 1 V
3 0 V
0 1 V
0 1 V
0 1 V
4 1 V
0 1 V
0 1 V
0 1 V
3 0 V
0 1 V
0 1 V
0 1 V
0 1 V
3 0 V
stroke 2547 2606 M
0 1 V
0 1 V
0 1 V
0 1 V
3 0 V
0 1 V
0 1 V
1 0 V
0 1 V
3 0 V
0 1 V
0 1 V
0 1 V
0 1 V
3 0 V
0 1 V
0 1 V
0 1 V
3 1 V
0 1 V
0 1 V
0 1 V
3 0 V
0 1 V
0 1 V
0 1 V
0 1 V
4 0 V
0 1 V
0 1 V
0 1 V
3 0 V
0 1 V
0 1 V
0 1 V
3 1 V
0 1 V
0 1 V
0 1 V
4 0 V
0 1 V
0 1 V
0 1 V
3 0 V
0 1 V
0 1 V
0 1 V
3 1 V
0 1 V
0 1 V
0 1 V
3 0 V
0 1 V
0 1 V
0 1 V
4 0 V
0 1 V
0 1 V
0 1 V
3 0 V
0 1 V
0 1 V
0 1 V
3 0 V
0 1 V
0 1 V
0 1 V
3 0 V
0 1 V
0 1 V
0 1 V
4 1 V
0 1 V
0 1 V
3 1 V
0 1 V
0 1 V
3 1 V
0 1 V
0 1 V
3 0 V
0 1 V
0 1 V
0 1 V
1 0 V
3 0 V
0 1 V
0 1 V
0 1 V
3 0 V
0 1 V
0 1 V
0 1 V
3 0 V
0 1 V
0 1 V
0 1 V
3 0 V
0 1 V
0 1 V
0 1 V
4 0 V
0 1 V
0 1 V
stroke 2629 2689 M
0 1 V
3 0 V
0 1 V
0 1 V
3 1 V
0 1 V
0 1 V
3 0 V
0 1 V
1 0 V
0 1 V
0 1 V
3 0 V
0 1 V
0 1 V
0 1 V
3 0 V
0 1 V
0 1 V
3 0 V
0 1 V
0 1 V
0 1 V
4 0 V
0 1 V
0 1 V
0 1 V
3 0 V
0 1 V
0 1 V
3 0 V
0 1 V
0 1 V
0 1 V
3 0 V
0 1 V
0 1 V
4 1 V
0 1 V
0 1 V
3 0 V
0 1 V
0 1 V
0 1 V
3 0 V
0 1 V
0 1 V
3 0 V
0 1 V
0 1 V
0 1 V
4 0 V
0 1 V
0 1 V
3 0 V
0 1 V
0 1 V
3 0 V
0 1 V
0 1 V
0 1 V
3 0 V
0 1 V
1 1 V
3 0 V
0 1 V
0 1 V
0 1 V
3 0 V
0 1 V
0 1 V
3 0 V
0 1 V
0 1 V
3 0 V
0 1 V
0 1 V
1 0 V
0 1 V
3 0 V
0 1 V
0 1 V
3 0 V
0 1 V
0 1 V
3 0 V
0 1 V
0 1 V
3 0 V
0 1 V
1 0 V
0 1 V
0 1 V
3 0 V
0 1 V
0 1 V
3 0 V
0 1 V
0 1 V
3 0 V
0 1 V
0 1 V
4 0 V
0 1 V
stroke 2727 2762 M
0 1 V
3 1 V
0 1 V
0 1 V
3 0 V
0 1 V
0 1 V
3 0 V
0 1 V
0 1 V
4 0 V
0 1 V
0 1 V
3 0 V
0 1 V
0 1 V
3 0 V
0 1 V
0 1 V
46 1793 V
% End plot #7
% Begin plot #8
2.000 UP
stroke
LTb
LT3
0.00 0.38 0.82 C 1369 1767 TriU
1978 2379 TriU
2208 2444 TriU
2504 2553 TriU
2593 2657 TriU
2661 2716 TriU
2720 2758 TriU
% End plot #8
% Begin plot #9
2.000 UP
1.000 UL
LTb
LT3
0.00 0.38 0.82 C LCb setrgbcolor
5660 153 M
[ [(Arial) 180.0 0.0 true true 0 (per-flow)]
] -60.0 MRshow
2.000 UP
1.000 UL
LTb
LT3
0.00 0.38 0.82 C 1369 1767 TriU
5934 153 TriU
% End plot #9
2.000 UL
LTb
LCb setrgbcolor
1.000 UP
1.000 UL
LTb
0.00 0.00 0.00 C stroke
grestore
end
showpage
%%Trailer
%%DocumentFonts: Arial
