%!PS-Adobe-2.0 EPSF-2.0
%%Title: TcpScalable-cwnd-1Mbps-UE7.eps
%%Creator: gnuplot 5.0 patchlevel 3
%%CreationDate: Tue May 24 14:35:33 2016
%%DocumentFonts: (atend)
%%BoundingBox: 50 50 410 302
%%EndComments
%%BeginProlog
/gnudict 256 dict def
gnudict begin
%
% The following true/false flags may be edited by hand if desired.
% The unit line width and grayscale image gamma correction may also be changed.
%
/Color true def
/Blacktext false def
/Solid false def
/Dashlength 3 def
/Landscape false def
/Level1 false def
/Level3 false def
/Rounded false def
/ClipToBoundingBox false def
/SuppressPDFMark false def
/TransparentPatterns false def
/gnulinewidth 15.000 def
/userlinewidth gnulinewidth def
/Gamma 1.0 def
/BackgroundColor {-1.000 -1.000 -1.000} def
%
/vshift -66 def
/dl1 {
  10.0 Dashlength userlinewidth gnulinewidth div mul mul mul
  Rounded { currentlinewidth 0.75 mul sub dup 0 le { pop 0.01 } if } if
} def
/dl2 {
  10.0 Dashlength userlinewidth gnulinewidth div mul mul mul
  Rounded { currentlinewidth 0.75 mul add } if
} def
/hpt_ 31.5 def
/vpt_ 31.5 def
/hpt hpt_ def
/vpt vpt_ def
/doclip {
  ClipToBoundingBox {
    newpath 50 50 moveto 410 50 lineto 410 302 lineto 50 302 lineto closepath
    clip
  } if
} def
%
% Gnuplot Prolog Version 5.1 (Oct 2015)
%
%/SuppressPDFMark true def
%
/M {moveto} bind def
/L {lineto} bind def
/R {rmoveto} bind def
/V {rlineto} bind def
/N {newpath moveto} bind def
/Z {closepath} bind def
/C {setrgbcolor} bind def
/f {rlineto fill} bind def
/g {setgray} bind def
/Gshow {show} def   % May be redefined later in the file to support UTF-8
/vpt2 vpt 2 mul def
/hpt2 hpt 2 mul def
/Lshow {currentpoint stroke M 0 vshift R 
	Blacktext {gsave 0 setgray textshow grestore} {textshow} ifelse} def
/Rshow {currentpoint stroke M dup stringwidth pop neg vshift R
	Blacktext {gsave 0 setgray textshow grestore} {textshow} ifelse} def
/Cshow {currentpoint stroke M dup stringwidth pop -2 div vshift R 
	Blacktext {gsave 0 setgray textshow grestore} {textshow} ifelse} def
/UP {dup vpt_ mul /vpt exch def hpt_ mul /hpt exch def
  /hpt2 hpt 2 mul def /vpt2 vpt 2 mul def} def
/DL {Color {setrgbcolor Solid {pop []} if 0 setdash}
 {pop pop pop 0 setgray Solid {pop []} if 0 setdash} ifelse} def
/BL {stroke userlinewidth 2 mul setlinewidth
	Rounded {1 setlinejoin 1 setlinecap} if} def
/AL {stroke userlinewidth 2 div setlinewidth
	Rounded {1 setlinejoin 1 setlinecap} if} def
/UL {dup gnulinewidth mul /userlinewidth exch def
	dup 1 lt {pop 1} if 10 mul /udl exch def} def
/PL {stroke userlinewidth setlinewidth
	Rounded {1 setlinejoin 1 setlinecap} if} def
3.8 setmiterlimit
% Classic Line colors (version 5.0)
/LCw {1 1 1} def
/LCb {0 0 0} def
/LCa {0 0 0} def
/LC0 {1 0 0} def
/LC1 {0 1 0} def
/LC2 {0 0 1} def
/LC3 {1 0 1} def
/LC4 {0 1 1} def
/LC5 {1 1 0} def
/LC6 {0 0 0} def
/LC7 {1 0.3 0} def
/LC8 {0.5 0.5 0.5} def
% Default dash patterns (version 5.0)
/LTB {BL [] LCb DL} def
/LTw {PL [] 1 setgray} def
/LTb {PL [] LCb DL} def
/LTa {AL [1 udl mul 2 udl mul] 0 setdash LCa setrgbcolor} def
/LT0 {PL [] LC0 DL} def
/LT1 {PL [2 dl1 3 dl2] LC1 DL} def
/LT2 {PL [1 dl1 1.5 dl2] LC2 DL} def
/LT3 {PL [6 dl1 2 dl2 1 dl1 2 dl2] LC3 DL} def
/LT4 {PL [1 dl1 2 dl2 6 dl1 2 dl2 1 dl1 2 dl2] LC4 DL} def
/LT5 {PL [4 dl1 2 dl2] LC5 DL} def
/LT6 {PL [1.5 dl1 1.5 dl2 1.5 dl1 1.5 dl2 1.5 dl1 6 dl2] LC6 DL} def
/LT7 {PL [3 dl1 3 dl2 1 dl1 3 dl2] LC7 DL} def
/LT8 {PL [2 dl1 2 dl2 2 dl1 6 dl2] LC8 DL} def
/SL {[] 0 setdash} def
/Pnt {stroke [] 0 setdash gsave 1 setlinecap M 0 0 V stroke grestore} def
/Dia {stroke [] 0 setdash 2 copy vpt add M
  hpt neg vpt neg V hpt vpt neg V
  hpt vpt V hpt neg vpt V closepath stroke
  Pnt} def
/Pls {stroke [] 0 setdash vpt sub M 0 vpt2 V
  currentpoint stroke M
  hpt neg vpt neg R hpt2 0 V stroke
 } def
/Box {stroke [] 0 setdash 2 copy exch hpt sub exch vpt add M
  0 vpt2 neg V hpt2 0 V 0 vpt2 V
  hpt2 neg 0 V closepath stroke
  Pnt} def
/Crs {stroke [] 0 setdash exch hpt sub exch vpt add M
  hpt2 vpt2 neg V currentpoint stroke M
  hpt2 neg 0 R hpt2 vpt2 V stroke} def
/TriU {stroke [] 0 setdash 2 copy vpt 1.12 mul add M
  hpt neg vpt -1.62 mul V
  hpt 2 mul 0 V
  hpt neg vpt 1.62 mul V closepath stroke
  Pnt} def
/Star {2 copy Pls Crs} def
/BoxF {stroke [] 0 setdash exch hpt sub exch vpt add M
  0 vpt2 neg V hpt2 0 V 0 vpt2 V
  hpt2 neg 0 V closepath fill} def
/TriUF {stroke [] 0 setdash vpt 1.12 mul add M
  hpt neg vpt -1.62 mul V
  hpt 2 mul 0 V
  hpt neg vpt 1.62 mul V closepath fill} def
/TriD {stroke [] 0 setdash 2 copy vpt 1.12 mul sub M
  hpt neg vpt 1.62 mul V
  hpt 2 mul 0 V
  hpt neg vpt -1.62 mul V closepath stroke
  Pnt} def
/TriDF {stroke [] 0 setdash vpt 1.12 mul sub M
  hpt neg vpt 1.62 mul V
  hpt 2 mul 0 V
  hpt neg vpt -1.62 mul V closepath fill} def
/DiaF {stroke [] 0 setdash vpt add M
  hpt neg vpt neg V hpt vpt neg V
  hpt vpt V hpt neg vpt V closepath fill} def
/Pent {stroke [] 0 setdash 2 copy gsave
  translate 0 hpt M 4 {72 rotate 0 hpt L} repeat
  closepath stroke grestore Pnt} def
/PentF {stroke [] 0 setdash gsave
  translate 0 hpt M 4 {72 rotate 0 hpt L} repeat
  closepath fill grestore} def
/Circle {stroke [] 0 setdash 2 copy
  hpt 0 360 arc stroke Pnt} def
/CircleF {stroke [] 0 setdash hpt 0 360 arc fill} def
/C0 {BL [] 0 setdash 2 copy moveto vpt 90 450 arc} bind def
/C1 {BL [] 0 setdash 2 copy moveto
	2 copy vpt 0 90 arc closepath fill
	vpt 0 360 arc closepath} bind def
/C2 {BL [] 0 setdash 2 copy moveto
	2 copy vpt 90 180 arc closepath fill
	vpt 0 360 arc closepath} bind def
/C3 {BL [] 0 setdash 2 copy moveto
	2 copy vpt 0 180 arc closepath fill
	vpt 0 360 arc closepath} bind def
/C4 {BL [] 0 setdash 2 copy moveto
	2 copy vpt 180 270 arc closepath fill
	vpt 0 360 arc closepath} bind def
/C5 {BL [] 0 setdash 2 copy moveto
	2 copy vpt 0 90 arc
	2 copy moveto
	2 copy vpt 180 270 arc closepath fill
	vpt 0 360 arc} bind def
/C6 {BL [] 0 setdash 2 copy moveto
	2 copy vpt 90 270 arc closepath fill
	vpt 0 360 arc closepath} bind def
/C7 {BL [] 0 setdash 2 copy moveto
	2 copy vpt 0 270 arc closepath fill
	vpt 0 360 arc closepath} bind def
/C8 {BL [] 0 setdash 2 copy moveto
	2 copy vpt 270 360 arc closepath fill
	vpt 0 360 arc closepath} bind def
/C9 {BL [] 0 setdash 2 copy moveto
	2 copy vpt 270 450 arc closepath fill
	vpt 0 360 arc closepath} bind def
/C10 {BL [] 0 setdash 2 copy 2 copy moveto vpt 270 360 arc closepath fill
	2 copy moveto
	2 copy vpt 90 180 arc closepath fill
	vpt 0 360 arc closepath} bind def
/C11 {BL [] 0 setdash 2 copy moveto
	2 copy vpt 0 180 arc closepath fill
	2 copy moveto
	2 copy vpt 270 360 arc closepath fill
	vpt 0 360 arc closepath} bind def
/C12 {BL [] 0 setdash 2 copy moveto
	2 copy vpt 180 360 arc closepath fill
	vpt 0 360 arc closepath} bind def
/C13 {BL [] 0 setdash 2 copy moveto
	2 copy vpt 0 90 arc closepath fill
	2 copy moveto
	2 copy vpt 180 360 arc closepath fill
	vpt 0 360 arc closepath} bind def
/C14 {BL [] 0 setdash 2 copy moveto
	2 copy vpt 90 360 arc closepath fill
	vpt 0 360 arc} bind def
/C15 {BL [] 0 setdash 2 copy vpt 0 360 arc closepath fill
	vpt 0 360 arc closepath} bind def
/Rec {newpath 4 2 roll moveto 1 index 0 rlineto 0 exch rlineto
	neg 0 rlineto closepath} bind def
/Square {dup Rec} bind def
/Bsquare {vpt sub exch vpt sub exch vpt2 Square} bind def
/S0 {BL [] 0 setdash 2 copy moveto 0 vpt rlineto BL Bsquare} bind def
/S1 {BL [] 0 setdash 2 copy vpt Square fill Bsquare} bind def
/S2 {BL [] 0 setdash 2 copy exch vpt sub exch vpt Square fill Bsquare} bind def
/S3 {BL [] 0 setdash 2 copy exch vpt sub exch vpt2 vpt Rec fill Bsquare} bind def
/S4 {BL [] 0 setdash 2 copy exch vpt sub exch vpt sub vpt Square fill Bsquare} bind def
/S5 {BL [] 0 setdash 2 copy 2 copy vpt Square fill
	exch vpt sub exch vpt sub vpt Square fill Bsquare} bind def
/S6 {BL [] 0 setdash 2 copy exch vpt sub exch vpt sub vpt vpt2 Rec fill Bsquare} bind def
/S7 {BL [] 0 setdash 2 copy exch vpt sub exch vpt sub vpt vpt2 Rec fill
	2 copy vpt Square fill Bsquare} bind def
/S8 {BL [] 0 setdash 2 copy vpt sub vpt Square fill Bsquare} bind def
/S9 {BL [] 0 setdash 2 copy vpt sub vpt vpt2 Rec fill Bsquare} bind def
/S10 {BL [] 0 setdash 2 copy vpt sub vpt Square fill 2 copy exch vpt sub exch vpt Square fill
	Bsquare} bind def
/S11 {BL [] 0 setdash 2 copy vpt sub vpt Square fill 2 copy exch vpt sub exch vpt2 vpt Rec fill
	Bsquare} bind def
/S12 {BL [] 0 setdash 2 copy exch vpt sub exch vpt sub vpt2 vpt Rec fill Bsquare} bind def
/S13 {BL [] 0 setdash 2 copy exch vpt sub exch vpt sub vpt2 vpt Rec fill
	2 copy vpt Square fill Bsquare} bind def
/S14 {BL [] 0 setdash 2 copy exch vpt sub exch vpt sub vpt2 vpt Rec fill
	2 copy exch vpt sub exch vpt Square fill Bsquare} bind def
/S15 {BL [] 0 setdash 2 copy Bsquare fill Bsquare} bind def
/D0 {gsave translate 45 rotate 0 0 S0 stroke grestore} bind def
/D1 {gsave translate 45 rotate 0 0 S1 stroke grestore} bind def
/D2 {gsave translate 45 rotate 0 0 S2 stroke grestore} bind def
/D3 {gsave translate 45 rotate 0 0 S3 stroke grestore} bind def
/D4 {gsave translate 45 rotate 0 0 S4 stroke grestore} bind def
/D5 {gsave translate 45 rotate 0 0 S5 stroke grestore} bind def
/D6 {gsave translate 45 rotate 0 0 S6 stroke grestore} bind def
/D7 {gsave translate 45 rotate 0 0 S7 stroke grestore} bind def
/D8 {gsave translate 45 rotate 0 0 S8 stroke grestore} bind def
/D9 {gsave translate 45 rotate 0 0 S9 stroke grestore} bind def
/D10 {gsave translate 45 rotate 0 0 S10 stroke grestore} bind def
/D11 {gsave translate 45 rotate 0 0 S11 stroke grestore} bind def
/D12 {gsave translate 45 rotate 0 0 S12 stroke grestore} bind def
/D13 {gsave translate 45 rotate 0 0 S13 stroke grestore} bind def
/D14 {gsave translate 45 rotate 0 0 S14 stroke grestore} bind def
/D15 {gsave translate 45 rotate 0 0 S15 stroke grestore} bind def
/DiaE {stroke [] 0 setdash vpt add M
  hpt neg vpt neg V hpt vpt neg V
  hpt vpt V hpt neg vpt V closepath stroke} def
/BoxE {stroke [] 0 setdash exch hpt sub exch vpt add M
  0 vpt2 neg V hpt2 0 V 0 vpt2 V
  hpt2 neg 0 V closepath stroke} def
/TriUE {stroke [] 0 setdash vpt 1.12 mul add M
  hpt neg vpt -1.62 mul V
  hpt 2 mul 0 V
  hpt neg vpt 1.62 mul V closepath stroke} def
/TriDE {stroke [] 0 setdash vpt 1.12 mul sub M
  hpt neg vpt 1.62 mul V
  hpt 2 mul 0 V
  hpt neg vpt -1.62 mul V closepath stroke} def
/PentE {stroke [] 0 setdash gsave
  translate 0 hpt M 4 {72 rotate 0 hpt L} repeat
  closepath stroke grestore} def
/CircE {stroke [] 0 setdash 
  hpt 0 360 arc stroke} def
/Opaque {gsave closepath 1 setgray fill grestore 0 setgray closepath} def
/DiaW {stroke [] 0 setdash vpt add M
  hpt neg vpt neg V hpt vpt neg V
  hpt vpt V hpt neg vpt V Opaque stroke} def
/BoxW {stroke [] 0 setdash exch hpt sub exch vpt add M
  0 vpt2 neg V hpt2 0 V 0 vpt2 V
  hpt2 neg 0 V Opaque stroke} def
/TriUW {stroke [] 0 setdash vpt 1.12 mul add M
  hpt neg vpt -1.62 mul V
  hpt 2 mul 0 V
  hpt neg vpt 1.62 mul V Opaque stroke} def
/TriDW {stroke [] 0 setdash vpt 1.12 mul sub M
  hpt neg vpt 1.62 mul V
  hpt 2 mul 0 V
  hpt neg vpt -1.62 mul V Opaque stroke} def
/PentW {stroke [] 0 setdash gsave
  translate 0 hpt M 4 {72 rotate 0 hpt L} repeat
  Opaque stroke grestore} def
/CircW {stroke [] 0 setdash 
  hpt 0 360 arc Opaque stroke} def
/BoxFill {gsave Rec 1 setgray fill grestore} def
/Density {
  /Fillden exch def
  currentrgbcolor
  /ColB exch def /ColG exch def /ColR exch def
  /ColR ColR Fillden mul Fillden sub 1 add def
  /ColG ColG Fillden mul Fillden sub 1 add def
  /ColB ColB Fillden mul Fillden sub 1 add def
  ColR ColG ColB setrgbcolor} def
/BoxColFill {gsave Rec PolyFill} def
/PolyFill {gsave Density fill grestore grestore} def
/h {rlineto rlineto rlineto gsave closepath fill grestore} bind def
%
% PostScript Level 1 Pattern Fill routine for rectangles
% Usage: x y w h s a XX PatternFill
%	x,y = lower left corner of box to be filled
%	w,h = width and height of box
%	  a = angle in degrees between lines and x-axis
%	 XX = 0/1 for no/yes cross-hatch
%
/PatternFill {gsave /PFa [ 9 2 roll ] def
  PFa 0 get PFa 2 get 2 div add PFa 1 get PFa 3 get 2 div add translate
  PFa 2 get -2 div PFa 3 get -2 div PFa 2 get PFa 3 get Rec
  TransparentPatterns {} {gsave 1 setgray fill grestore} ifelse
  clip
  currentlinewidth 0.5 mul setlinewidth
  /PFs PFa 2 get dup mul PFa 3 get dup mul add sqrt def
  0 0 M PFa 5 get rotate PFs -2 div dup translate
  0 1 PFs PFa 4 get div 1 add floor cvi
	{PFa 4 get mul 0 M 0 PFs V} for
  0 PFa 6 get ne {
	0 1 PFs PFa 4 get div 1 add floor cvi
	{PFa 4 get mul 0 2 1 roll M PFs 0 V} for
 } if
  stroke grestore} def
%
/languagelevel where
 {pop languagelevel} {1} ifelse
dup 2 lt
	{/InterpretLevel1 true def
	 /InterpretLevel3 false def}
	{/InterpretLevel1 Level1 def
	 2 gt
	    {/InterpretLevel3 Level3 def}
	    {/InterpretLevel3 false def}
	 ifelse }
 ifelse
%
% PostScript level 2 pattern fill definitions
%
/Level2PatternFill {
/Tile8x8 {/PaintType 2 /PatternType 1 /TilingType 1 /BBox [0 0 8 8] /XStep 8 /YStep 8}
	bind def
/KeepColor {currentrgbcolor [/Pattern /DeviceRGB] setcolorspace} bind def
<< Tile8x8
 /PaintProc {0.5 setlinewidth pop 0 0 M 8 8 L 0 8 M 8 0 L stroke} 
>> matrix makepattern
/Pat1 exch def
<< Tile8x8
 /PaintProc {0.5 setlinewidth pop 0 0 M 8 8 L 0 8 M 8 0 L stroke
	0 4 M 4 8 L 8 4 L 4 0 L 0 4 L stroke}
>> matrix makepattern
/Pat2 exch def
<< Tile8x8
 /PaintProc {0.5 setlinewidth pop 0 0 M 0 8 L
	8 8 L 8 0 L 0 0 L fill}
>> matrix makepattern
/Pat3 exch def
<< Tile8x8
 /PaintProc {0.5 setlinewidth pop -4 8 M 8 -4 L
	0 12 M 12 0 L stroke}
>> matrix makepattern
/Pat4 exch def
<< Tile8x8
 /PaintProc {0.5 setlinewidth pop -4 0 M 8 12 L
	0 -4 M 12 8 L stroke}
>> matrix makepattern
/Pat5 exch def
<< Tile8x8
 /PaintProc {0.5 setlinewidth pop -2 8 M 4 -4 L
	0 12 M 8 -4 L 4 12 M 10 0 L stroke}
>> matrix makepattern
/Pat6 exch def
<< Tile8x8
 /PaintProc {0.5 setlinewidth pop -2 0 M 4 12 L
	0 -4 M 8 12 L 4 -4 M 10 8 L stroke}
>> matrix makepattern
/Pat7 exch def
<< Tile8x8
 /PaintProc {0.5 setlinewidth pop 8 -2 M -4 4 L
	12 0 M -4 8 L 12 4 M 0 10 L stroke}
>> matrix makepattern
/Pat8 exch def
<< Tile8x8
 /PaintProc {0.5 setlinewidth pop 0 -2 M 12 4 L
	-4 0 M 12 8 L -4 4 M 8 10 L stroke}
>> matrix makepattern
/Pat9 exch def
/Pattern1 {PatternBgnd KeepColor Pat1 setpattern} bind def
/Pattern2 {PatternBgnd KeepColor Pat2 setpattern} bind def
/Pattern3 {PatternBgnd KeepColor Pat3 setpattern} bind def
/Pattern4 {PatternBgnd KeepColor Landscape {Pat5} {Pat4} ifelse setpattern} bind def
/Pattern5 {PatternBgnd KeepColor Landscape {Pat4} {Pat5} ifelse setpattern} bind def
/Pattern6 {PatternBgnd KeepColor Landscape {Pat9} {Pat6} ifelse setpattern} bind def
/Pattern7 {PatternBgnd KeepColor Landscape {Pat8} {Pat7} ifelse setpattern} bind def
} def
%
%
%End of PostScript Level 2 code
%
/PatternBgnd {
  TransparentPatterns {} {gsave 1 setgray fill grestore} ifelse
} def
%
% Substitute for Level 2 pattern fill codes with
% grayscale if Level 2 support is not selected.
%
/Level1PatternFill {
/Pattern1 {0.250 Density} bind def
/Pattern2 {0.500 Density} bind def
/Pattern3 {0.750 Density} bind def
/Pattern4 {0.125 Density} bind def
/Pattern5 {0.375 Density} bind def
/Pattern6 {0.625 Density} bind def
/Pattern7 {0.875 Density} bind def
} def
%
% Now test for support of Level 2 code
%
Level1 {Level1PatternFill} {Level2PatternFill} ifelse
%
/Symbol-Oblique /Symbol findfont [1 0 .167 1 0 0] makefont
dup length dict begin {1 index /FID eq {pop pop} {def} ifelse} forall
currentdict end definefont pop
%
/MFshow {
   { dup 5 get 3 ge
     { 5 get 3 eq {gsave} {grestore} ifelse }
     {dup dup 0 get findfont exch 1 get scalefont setfont
     [ currentpoint ] exch dup 2 get 0 exch R dup 5 get 2 ne {dup dup 6
     get exch 4 get {textshow} {stringwidth pop 0 R} ifelse }if dup 5 get 0 eq
     {dup 3 get {2 get neg 0 exch R pop} {pop aload pop M} ifelse} {dup 5
     get 1 eq {dup 2 get exch dup 3 get exch 6 get stringwidth pop -2 div
     dup 0 R} {dup 6 get stringwidth pop -2 div 0 R 6 get
     textshow 2 index {aload pop M neg 3 -1 roll neg R pop pop} {pop pop pop
     pop aload pop M} ifelse }ifelse }ifelse }
     ifelse }
   forall} def
/Gswidth {dup type /stringtype eq {stringwidth} {pop (n) stringwidth} ifelse} def
/MFwidth {0 exch { dup 5 get 3 ge { 5 get 3 eq { 0 } { pop } ifelse }
 {dup 3 get{dup dup 0 get findfont exch 1 get scalefont setfont
     6 get Gswidth pop add} {pop} ifelse} ifelse} forall} def
/MLshow { currentpoint stroke M
  0 exch R
  Blacktext {gsave 0 setgray MFshow grestore} {MFshow} ifelse } bind def
/MRshow { currentpoint stroke M
  exch dup MFwidth neg 3 -1 roll R
  Blacktext {gsave 0 setgray MFshow grestore} {MFshow} ifelse } bind def
/MCshow { currentpoint stroke M
  exch dup MFwidth -2 div 3 -1 roll R
  Blacktext {gsave 0 setgray MFshow grestore} {MFshow} ifelse } bind def
/XYsave    { [( ) 1 2 true false 3 ()] } bind def
/XYrestore { [( ) 1 2 true false 4 ()] } bind def
Level1 SuppressPDFMark or 
{} {
/SDict 10 dict def
systemdict /pdfmark known not {
  userdict /pdfmark systemdict /cleartomark get put
} if
SDict begin [
  /Title (TcpScalable-cwnd-1Mbps-UE7.eps)
  /Subject (gnuplot plot)
  /Creator (gnuplot 5.0 patchlevel 3)
  /Author (nat)
%  /Producer (gnuplot)
%  /Keywords ()
  /CreationDate (Tue May 24 14:35:33 2016)
  /DOCINFO pdfmark
end
} ifelse
%
% Support for boxed text - Ethan A Merritt May 2005
%
/InitTextBox { userdict /TBy2 3 -1 roll put userdict /TBx2 3 -1 roll put
           userdict /TBy1 3 -1 roll put userdict /TBx1 3 -1 roll put
	   /Boxing true def } def
/ExtendTextBox { Boxing
    { gsave dup false charpath pathbbox
      dup TBy2 gt {userdict /TBy2 3 -1 roll put} {pop} ifelse
      dup TBx2 gt {userdict /TBx2 3 -1 roll put} {pop} ifelse
      dup TBy1 lt {userdict /TBy1 3 -1 roll put} {pop} ifelse
      dup TBx1 lt {userdict /TBx1 3 -1 roll put} {pop} ifelse
      grestore } if } def
/PopTextBox { newpath TBx1 TBxmargin sub TBy1 TBymargin sub M
               TBx1 TBxmargin sub TBy2 TBymargin add L
	       TBx2 TBxmargin add TBy2 TBymargin add L
	       TBx2 TBxmargin add TBy1 TBymargin sub L closepath } def
/DrawTextBox { PopTextBox stroke /Boxing false def} def
/FillTextBox { gsave PopTextBox 1 1 1 setrgbcolor fill grestore /Boxing false def} def
0 0 0 0 InitTextBox
/TBxmargin 20 def
/TBymargin 20 def
/Boxing false def
/textshow { ExtendTextBox Gshow } def
%
% redundant definitions for compatibility with prologue.ps older than 5.0.2
/LTB {BL [] LCb DL} def
/LTb {PL [] LCb DL} def
end
%%EndProlog
%%Page: 1 1
gnudict begin
gsave
doclip
50 50 translate
0.050 0.050 scale
0 setgray
newpath
(Arial) findfont 200 scalefont setfont
BackgroundColor 0 lt 3 1 roll 0 lt exch 0 lt or or not {BackgroundColor C 1.000 0 0 7200.00 5040.00 BoxColFill} if
1.000 UL
LTb
0.00 0.00 0.00 C 0.500 UL
LTa
0.50 0.50 0.50 C 1220 820 M
5619 0 V
stroke
1.000 UL
LTb
0.00 0.00 0.00 C 1220 820 M
63 0 V
5556 0 R
-63 0 V
stroke
1100 820 M
[ [(Arial) 200.0 0.0 true true 0 ( 1)]
] -66.7 MRshow
1.000 UL
LTb
0.00 0.00 0.00 C 1220 1119 M
31 0 V
5588 0 R
-31 0 V
1220 1295 M
31 0 V
5588 0 R
-31 0 V
1220 1419 M
31 0 V
5588 0 R
-31 0 V
-5588 96 R
31 0 V
5588 0 R
-31 0 V
-5588 79 R
31 0 V
5588 0 R
-31 0 V
-5588 67 R
31 0 V
5588 0 R
-31 0 V
-5588 57 R
31 0 V
5588 0 R
-31 0 V
-5588 51 R
31 0 V
5588 0 R
-31 0 V
stroke
0.500 UL
LTa
0.50 0.50 0.50 C 1220 1815 M
5619 0 V
stroke
1.000 UL
LTb
0.00 0.00 0.00 C 1220 1815 M
63 0 V
5556 0 R
-63 0 V
stroke
1100 1815 M
[ [(Arial) 200.0 0.0 true true 0 ( 10)]
] -66.7 MRshow
1.000 UL
LTb
0.00 0.00 0.00 C 1220 2114 M
31 0 V
5588 0 R
-31 0 V
1220 2289 M
31 0 V
5588 0 R
-31 0 V
1220 2414 M
31 0 V
5588 0 R
-31 0 V
-5588 96 R
31 0 V
5588 0 R
-31 0 V
-5588 79 R
31 0 V
5588 0 R
-31 0 V
-5588 66 R
31 0 V
5588 0 R
-31 0 V
-5588 58 R
31 0 V
5588 0 R
-31 0 V
-5588 51 R
31 0 V
5588 0 R
-31 0 V
stroke
0.500 UL
LTa
0.50 0.50 0.50 C 1220 2810 M
5619 0 V
stroke
1.000 UL
LTb
0.00 0.00 0.00 C 1220 2810 M
63 0 V
5556 0 R
-63 0 V
stroke
1100 2810 M
[ [(Arial) 200.0 0.0 true true 0 ( 100)]
] -66.7 MRshow
1.000 UL
LTb
0.00 0.00 0.00 C 1220 3109 M
31 0 V
5588 0 R
-31 0 V
1220 3284 M
31 0 V
5588 0 R
-31 0 V
1220 3408 M
31 0 V
5588 0 R
-31 0 V
-5588 97 R
31 0 V
5588 0 R
-31 0 V
-5588 79 R
31 0 V
5588 0 R
-31 0 V
-5588 66 R
31 0 V
5588 0 R
-31 0 V
-5588 58 R
31 0 V
5588 0 R
-31 0 V
-5588 51 R
31 0 V
5588 0 R
-31 0 V
stroke
0.500 UL
LTa
0.50 0.50 0.50 C 1220 3804 M
5619 0 V
stroke
1.000 UL
LTb
0.00 0.00 0.00 C 1220 3804 M
63 0 V
5556 0 R
-63 0 V
stroke
1100 3804 M
[ [(Arial) 200.0 0.0 true true 0 ( 1000)]
] -66.7 MRshow
1.000 UL
LTb
0.00 0.00 0.00 C 1220 4104 M
31 0 V
5588 0 R
-31 0 V
1220 4279 M
31 0 V
5588 0 R
-31 0 V
1220 4403 M
31 0 V
5588 0 R
-31 0 V
-5588 97 R
31 0 V
5588 0 R
-31 0 V
-5588 78 R
31 0 V
5588 0 R
-31 0 V
-5588 67 R
31 0 V
5588 0 R
-31 0 V
-5588 58 R
31 0 V
5588 0 R
-31 0 V
-5588 50 R
31 0 V
5588 0 R
-31 0 V
stroke
0.500 UL
LTa
0.50 0.50 0.50 C 1220 4799 M
5619 0 V
stroke
1.000 UL
LTb
0.00 0.00 0.00 C 1220 4799 M
63 0 V
5556 0 R
-63 0 V
stroke
1100 4799 M
[ [(Arial) 200.0 0.0 true true 0 ( 10000)]
] -66.7 MRshow
1.000 UL
LTb
0.00 0.00 0.00 C 0.500 UL
LTa
0.50 0.50 0.50 C 1342 820 M
0 3979 V
stroke
1.000 UL
LTb
0.00 0.00 0.00 C 1342 820 M
0 63 V
0 3916 R
0 -63 V
stroke
1342 620 M
[ [(Arial) 200.0 0.0 true true 0 ( 5)]
] -66.7 MCshow
1.000 UL
LTb
0.00 0.00 0.00 C 0.500 UL
LTa
0.50 0.50 0.50 C 1953 820 M
0 3979 V
stroke
1.000 UL
LTb
0.00 0.00 0.00 C 1953 820 M
0 63 V
0 3916 R
0 -63 V
stroke
1953 620 M
[ [(Arial) 200.0 0.0 true true 0 ( 10)]
] -66.7 MCshow
1.000 UL
LTb
0.00 0.00 0.00 C 0.500 UL
LTa
0.50 0.50 0.50 C 2564 820 M
0 3979 V
stroke
1.000 UL
LTb
0.00 0.00 0.00 C 2564 820 M
0 63 V
0 3916 R
0 -63 V
stroke
2564 620 M
[ [(Arial) 200.0 0.0 true true 0 ( 15)]
] -66.7 MCshow
1.000 UL
LTb
0.00 0.00 0.00 C 0.500 UL
LTa
0.50 0.50 0.50 C 3174 820 M
0 3979 V
stroke
1.000 UL
LTb
0.00 0.00 0.00 C 3174 820 M
0 63 V
0 3916 R
0 -63 V
stroke
3174 620 M
[ [(Arial) 200.0 0.0 true true 0 ( 20)]
] -66.7 MCshow
1.000 UL
LTb
0.00 0.00 0.00 C 0.500 UL
LTa
0.50 0.50 0.50 C 3785 820 M
0 3979 V
stroke
1.000 UL
LTb
0.00 0.00 0.00 C 3785 820 M
0 63 V
0 3916 R
0 -63 V
stroke
3785 620 M
[ [(Arial) 200.0 0.0 true true 0 ( 25)]
] -66.7 MCshow
1.000 UL
LTb
0.00 0.00 0.00 C 0.500 UL
LTa
0.50 0.50 0.50 C 4396 820 M
0 3979 V
stroke
1.000 UL
LTb
0.00 0.00 0.00 C 4396 820 M
0 63 V
0 3916 R
0 -63 V
stroke
4396 620 M
[ [(Arial) 200.0 0.0 true true 0 ( 30)]
] -66.7 MCshow
1.000 UL
LTb
0.00 0.00 0.00 C 0.500 UL
LTa
0.50 0.50 0.50 C 5007 820 M
0 3979 V
stroke
1.000 UL
LTb
0.00 0.00 0.00 C 5007 820 M
0 63 V
0 3916 R
0 -63 V
stroke
5007 620 M
[ [(Arial) 200.0 0.0 true true 0 ( 35)]
] -66.7 MCshow
1.000 UL
LTb
0.00 0.00 0.00 C 0.500 UL
LTa
0.50 0.50 0.50 C 5617 820 M
0 3979 V
stroke
1.000 UL
LTb
0.00 0.00 0.00 C 5617 820 M
0 63 V
0 3916 R
0 -63 V
stroke
5617 620 M
[ [(Arial) 200.0 0.0 true true 0 ( 40)]
] -66.7 MCshow
1.000 UL
LTb
0.00 0.00 0.00 C 0.500 UL
LTa
0.50 0.50 0.50 C 6228 820 M
0 3979 V
stroke
1.000 UL
LTb
0.00 0.00 0.00 C 6228 820 M
0 63 V
0 3916 R
0 -63 V
stroke
6228 620 M
[ [(Arial) 200.0 0.0 true true 0 ( 45)]
] -66.7 MCshow
1.000 UL
LTb
0.00 0.00 0.00 C 0.500 UL
LTa
0.50 0.50 0.50 C 6839 820 M
0 3979 V
stroke
1.000 UL
LTb
0.00 0.00 0.00 C 6839 820 M
0 63 V
0 3916 R
0 -63 V
stroke
6839 620 M
[ [(Arial) 200.0 0.0 true true 0 ( 50)]
] -66.7 MCshow
1.000 UL
LTb
0.00 0.00 0.00 C 1.000 UL
LTB
0.00 0.00 0.00 C 1220 4799 M
0 -3979 V
5619 0 V
0 3979 R
-5619 0 R
1.000 UP
stroke
LTb
0.00 0.00 0.00 C LCb setrgbcolor
160 2809 M
currentpoint gsave translate -270 rotate 0 0 moveto
[ [(Arial) 200.0 0.0 true true 0 (cWnd \(KB\))]
] -66.7 MCshow
grestore
LTb
LCb setrgbcolor
4029 320 M
[ [(Arial) 200.0 0.0 true true 0 (Time \(s\))]
] -66.7 MCshow
LTb
% Begin plot #1
1.000 UL
LTa
0.60 0.60 0.00 C 2369 1246 M
7 175 V
8 124 V
8 97 V
0 79 V
7 66 V
0 58 V
0 51 V
8 45 V
0 41 V
0 38 V
0 35 V
8 32 V
0 29 V
0 28 V
0 26 V
0 25 V
0 23 V
8 23 V
0 21 V
0 20 V
0 19 V
0 18 V
0 18 V
0 17 V
0 16 V
0 16 V
8 15 V
0 15 V
0 14 V
0 14 V
0 13 V
0 13 V
0 12 V
0 13 V
0 11 V
0 12 V
0 11 V
0 11 V
0 11 V
0 10 V
8 10 V
0 10 V
0 10 V
0 9 V
0 10 V
0 9 V
0 9 V
0 8 V
0 9 V
0 8 V
0 9 V
0 8 V
0 8 V
0 7 V
0 8 V
0 8 V
0 7 V
0 7 V
0 7 V
0 7 V
0 7 V
7 7 V
0 7 V
0 6 V
0 7 V
0 6 V
0 7 V
0 6 V
0 6 V
0 6 V
0 6 V
0 6 V
0 6 V
0 5 V
0 6 V
0 6 V
0 5 V
1 6 V
0 5 V
0 5 V
0 5 V
0 6 V
0 5 V
0 5 V
0 5 V
0 5 V
0 5 V
0 4 V
0 5 V
0 5 V
0 5 V
0 4 V
7 5 V
0 4 V
0 5 V
0 4 V
0 5 V
0 4 V
0 4 V
0 4 V
0 5 V
0 4 V
0 4 V
0 4 V
stroke 2454 2961 M
0 4 V
0 4 V
0 4 V
0 4 V
0 4 V
0 4 V
0 4 V
0 4 V
0 3 V
0 4 V
0 4 V
0 3 V
0 4 V
0 4 V
0 3 V
0 4 V
0 3 V
0 4 V
0 3 V
0 4 V
0 3 V
0 4 V
0 3 V
0 3 V
0 4 V
0 3 V
0 3 V
0 3 V
0 4 V
0 3 V
0 3 V
0 3 V
0 3 V
0 3 V
0 3 V
7 3 V
0 3 V
0 3 V
0 3 V
0 3 V
0 3 V
1 3 V
0 3 V
0 3 V
0 3 V
0 3 V
0 3 V
0 2 V
0 3 V
0 3 V
0 3 V
0 3 V
0 2 V
0 3 V
0 3 V
0 2 V
0 3 V
0 3 V
0 2 V
0 3 V
0 2 V
0 3 V
0 3 V
0 2 V
0 3 V
13 2 V
0 3 V
0 2 V
0 3 V
0 2 V
0 3 V
0 2 V
12 2 V
0 3 V
0 2 V
0 3 V
0 2 V
0 2 V
0 -52 V
0 3 V
0 2 V
0 3 V
0 2 V
0 3 V
0 3 V
0 2 V
0 3 V
0 2 V
0 3 V
0 2 V
0 3 V
0 2 V
0 3 V
0 2 V
0 2 V
0 3 V
0 2 V
0 3 V
0 2 V
0 2 V
0 3 V
0 2 V
0 2 V
0 3 V
stroke 2487 3209 M
0 2 V
0 2 V
0 2 V
0 3 V
0 2 V
0 2 V
0 2 V
0 3 V
0 2 V
0 2 V
0 2 V
0 2 V
0 3 V
0 2 V
0 2 V
0 2 V
0 2 V
0 2 V
0 2 V
0 2 V
0 2 V
0 2 V
0 3 V
0 2 V
0 2 V
0 2 V
0 2 V
0 2 V
0 2 V
0 2 V
0 2 V
0 2 V
0 2 V
0 1 V
0 2 V
0 2 V
0 2 V
0 2 V
0 2 V
0 2 V
0 2 V
0 2 V
0 2 V
0 2 V
0 1 V
0 2 V
0 2 V
0 2 V
0 2 V
0 2 V
0 1 V
0 2 V
0 2 V
0 2 V
0 2 V
0 1 V
0 2 V
0 2 V
0 2 V
0 1 V
0 2 V
0 2 V
0 2 V
0 1 V
0 2 V
0 2 V
0 1 V
0 2 V
0 2 V
0 1 V
0 2 V
0 2 V
0 1 V
0 2 V
0 2 V
0 1 V
0 2 V
0 2 V
0 1 V
0 2 V
0 1 V
0 2 V
0 2 V
0 1 V
0 2 V
0 1 V
0 2 V
0 2 V
0 1 V
0 2 V
0 1 V
0 2 V
0 1 V
0 2 V
0 1 V
0 2 V
0 1 V
0 2 V
0 1 V
0 2 V
7 1 V
0 2 V
0 1 V
0 2 V
stroke 2494 3399 M
0 1 V
0 2 V
0 1 V
0 2 V
0 1 V
0 2 V
0 1 V
0 2 V
0 1 V
1 1 V
0 2 V
0 1 V
0 2 V
0 1 V
0 2 V
0 1 V
0 1 V
0 2 V
0 -2 V
0 2 V
0 1 V
0 1 V
0 2 V
0 1 V
0 2 V
0 1 V
0 1 V
0 2 V
0 1 V
0 1 V
0 2 V
0 1 V
0 1 V
0 2 V
0 1 V
0 1 V
0 2 V
0 1 V
0 1 V
0 2 V
0 1 V
0 1 V
0 2 V
0 1 V
0 1 V
0 2 V
0 1 V
0 1 V
0 1 V
0 2 V
0 1 V
0 1 V
0 1 V
0 2 V
0 1 V
0 1 V
0 1 V
0 2 V
0 1 V
1 1 V
0 1 V
1 2 V
0 1 V
0 1 V
0 1 V
0 1 V
0 2 V
0 1 V
0 1 V
0 1 V
0 2 V
0 1 V
0 1 V
0 1 V
0 1 V
0 1 V
0 2 V
0 1 V
0 1 V
0 1 V
0 1 V
0 1 V
0 2 V
0 1 V
0 1 V
0 1 V
0 1 V
1 1 V
0 2 V
0 1 V
0 1 V
0 1 V
0 1 V
0 1 V
0 1 V
0 1 V
0 2 V
0 1 V
0 1 V
0 1 V
0 1 V
0 1 V
4 1 V
0 1 V
stroke 2502 3528 M
0 1 V
0 1 V
0 2 V
0 1 V
0 1 V
0 1 V
0 1 V
0 1 V
0 1 V
0 1 V
0 1 V
0 1 V
0 1 V
0 1 V
0 1 V
2 2 V
0 1 V
0 1 V
0 1 V
0 1 V
0 -1 V
0 1 V
0 1 V
0 1 V
0 1 V
0 1 V
0 1 V
0 1 V
0 1 V
0 1 V
0 1 V
0 1 V
0 1 V
0 1 V
0 1 V
0 1 V
0 1 V
0 1 V
0 1 V
0 1 V
0 1 V
0 1 V
0 1 V
0 1 V
0 1 V
0 1 V
0 1 V
0 1 V
0 1 V
0 1 V
0 1 V
0 1 V
0 1 V
0 1 V
0 1 V
0 1 V
0 1 V
0 1 V
0 1 V
0 1 V
0 1 V
0 1 V
0 1 V
0 1 V
0 1 V
0 1 V
0 1 V
0 1 V
0 1 V
0 1 V
0 1 V
0 1 V
0 1 V
0 1 V
0 1 V
0 1 V
0 1 V
0 1 V
0 1 V
0 1 V
0 1 V
0 1 V
0 1 V
0 1 V
0 1 V
0 1 V
0 1 V
0 1 V
0 1 V
0 1 V
0 1 V
0 1 V
0 1 V
0 1 V
2 1 V
0 1 V
0 1 V
0 1 V
0 1 V
0 1 V
4 1 V
0 1 V
0 1 V
0 1 V
stroke 2510 3632 M
0 1 V
0 1 V
0 1 V
0 1 V
0 1 V
0 1 V
0 1 V
0 1 V
0 1 V
0 1 V
2 1 V
0 1 V
0 1 V
0 1 V
0 1 V
0 -1 V
0 1 V
0 1 V
0 1 V
0 1 V
0 1 V
0 1 V
0 1 V
0 1 V
0 1 V
0 1 V
0 1 V
0 1 V
0 1 V
0 1 V
0 1 V
0 1 V
0 1 V
0 1 V
0 1 V
0 1 V
0 1 V
0 1 V
0 1 V
0 1 V
0 1 V
0 1 V
0 1 V
0 1 V
0 1 V
0 1 V
0 1 V
0 1 V
0 1 V
0 1 V
0 1 V
1 1 V
0 1 V
0 1 V
13 1 V
0 1 V
0 1 V
0 1 V
0 1 V
0 1 V
0 1 V
0 1 V
0 1 V
0 1 V
0 1 V
0 1 V
0 1 V
0 1 V
0 1 V
0 1 V
0 1 V
0 1 V
0 1 V
0 1 V
0 1 V
0 1 V
0 1 V
0 1 V
0 1 V
12 0 V
0 1 V
0 1 V
0 1 V
0 1 V
0 1 V
0 1 V
0 1 V
0 1 V
0 1 V
0 1 V
0 1 V
0 1 V
0 1 V
0 1 V
0 1 V
0 1 V
0 1 V
0 1 V
0 1 V
0 1 V
0 1 V
0 1 V
0 1 V
0 1 V
stroke 2538 3733 M
0 1 V
0 1 V
0 1 V
0 1 V
0 1 V
0 1 V
0 1 V
8 -1 V
0 1 V
0 1 V
0 1 V
0 1 V
0 1 V
0 1 V
0 1 V
0 1 V
0 1 V
0 1 V
0 1 V
0 1 V
0 1 V
0 1 V
0 1 V
0 1 V
0 1 V
0 1 V
0 1 V
0 1 V
0 1 V
0 1 V
0 1 V
0 1 V
0 1 V
0 1 V
0 1 V
0 1 V
1 0 V
0 1 V
0 1 V
7 -1 V
0 1 V
0 1 V
0 1 V
0 1 V
0 1 V
0 1 V
0 1 V
0 1 V
0 1 V
0 1 V
0 1 V
0 1 V
0 1 V
0 1 V
0 1 V
0 1 V
0 1 V
0 1 V
0 1 V
0 1 V
1 0 V
0 1 V
0 1 V
0 1 V
0 1 V
0 1 V
0 1 V
0 1 V
0 1 V
7 0 V
0 1 V
0 1 V
0 1 V
0 1 V
0 1 V
0 1 V
0 1 V
0 1 V
0 1 V
1 1 V
0 1 V
0 1 V
0 1 V
0 1 V
0 1 V
0 1 V
0 1 V
0 1 V
0 1 V
0 1 V
0 1 V
0 1 V
0 1 V
0 1 V
0 1 V
0 1 V
0 1 V
2618 946 L
19 300 V
7 175 V
0 124 V
7 97 V
0 79 V
8 66 V
0 58 V
0 51 V
0 45 V
0 41 V
0 38 V
0 35 V
7 32 V
0 29 V
0 28 V
0 26 V
0 25 V
0 23 V
0 23 V
0 21 V
0 20 V
0 19 V
0 18 V
8 18 V
0 17 V
7 16 V
0 -33 V
0 17 V
0 16 V
0 16 V
0 15 V
0 15 V
0 14 V
0 14 V
0 13 V
0 13 V
0 12 V
0 13 V
0 11 V
0 12 V
0 11 V
1 11 V
0 11 V
0 10 V
0 10 V
0 10 V
0 10 V
0 9 V
0 10 V
0 9 V
0 9 V
0 8 V
0 9 V
0 8 V
0 9 V
0 8 V
0 8 V
0 7 V
0 8 V
0 8 V
0 7 V
0 7 V
0 7 V
0 7 V
0 7 V
0 7 V
0 7 V
0 6 V
0 7 V
0 6 V
0 7 V
7 6 V
0 6 V
0 -12 V
0 6 V
0 -13 V
0 7 V
0 -13 V
0 6 V
0 -13 V
0 7 V
0 -13 V
0 6 V
0 -13 V
0 7 V
0 -14 V
0 7 V
0 -14 V
0 7 V
0 -14 V
0 7 V
0 -14 V
0 7 V
0 -14 V
0 7 V
0 -14 V
0 7 V
0 -15 V
0 8 V
0 -16 V
0 8 V
0 -411 V
14 19 V
0 18 V
stroke 2703 2319 M
8 18 V
15 17 V
8 16 V
8 16 V
7 15 V
8 15 V
8 14 V
8 14 V
25 13 V
8 13 V
9 12 V
8 13 V
26 11 V
7 12 V
7 11 V
23 11 V
8 11 V
8 10 V
8 10 V
8 10 V
8 10 V
8 9 V
3056 946 L
20 300 V
8 175 V
8 124 V
8 97 V
0 79 V
7 66 V
0 58 V
0 51 V
8 45 V
0 41 V
0 38 V
0 35 V
7 32 V
0 29 V
0 28 V
0 26 V
0 25 V
0 23 V
8 23 V
0 21 V
0 20 V
0 19 V
0 18 V
0 18 V
0 17 V
0 16 V
0 16 V
8 15 V
0 15 V
0 14 V
0 14 V
0 13 V
0 13 V
0 12 V
0 13 V
0 11 V
0 12 V
0 11 V
0 11 V
8 11 V
7 10 V
7 10 V
8 10 V
8 10 V
27 9 V
27 10 V
9 9 V
8 9 V
7 8 V
8 9 V
8 8 V
8 9 V
45 8 V
8 8 V
7 7 V
8 8 V
7 8 V
8 7 V
8 7 V
8 7 V
4 7 V
5 7 V
19 7 V
9 7 V
0 6 V
7 7 V
7 6 V
7 7 V
0 6 V
7 6 V
8 6 V
1 6 V
7 6 V
7 6 V
7 5 V
0 6 V
7 6 V
7 5 V
1 6 V
7 5 V
19 5 V
20 5 V
19 6 V
19 5 V
0 5 V
8 5 V
19 5 V
0 5 V
7 4 V
7 5 V
1 5 V
7 5 V
0 4 V
7 5 V
0 4 V
7 5 V
1 4 V
6 5 V
1 4 V
7 4 V
19 4 V
0 5 V
7 4 V
1 4 V
stroke 3676 2957 M
6 -48 V
0 5 V
0 4 V
0 5 V
0 4 V
0 5 V
0 4 V
0 4 V
0 4 V
0 5 V
0 4 V
0 4 V
0 4 V
0 4 V
0 4 V
0 4 V
0 4 V
0 4 V
0 4 V
0 4 V
0 4 V
0 3 V
0 4 V
0 4 V
0 3 V
0 4 V
0 4 V
0 3 V
0 4 V
0 3 V
0 4 V
0 3 V
0 4 V
0 3 V
0 4 V
0 3 V
0 3 V
0 4 V
0 3 V
0 3 V
0 3 V
0 4 V
0 3 V
0 3 V
0 3 V
0 3 V
0 3 V
0 3 V
0 3 V
0 3 V
0 3 V
0 3 V
20 3 V
0 3 V
0 -3 V
0 3 V
0 3 V
0 3 V
0 3 V
0 3 V
0 3 V
0 3 V
0 2 V
0 3 V
0 3 V
0 3 V
0 3 V
0 2 V
0 3 V
0 3 V
0 2 V
0 3 V
0 3 V
0 2 V
0 3 V
0 2 V
0 3 V
0 3 V
0 2 V
0 3 V
0 2 V
0 3 V
0 2 V
0 3 V
0 2 V
0 3 V
0 2 V
0 2 V
0 3 V
0 2 V
0 3 V
0 2 V
0 2 V
0 3 V
7 2 V
0 2 V
0 -2 V
0 2 V
0 3 V
0 2 V
0 2 V
20 2 V
0 3 V
0 -3 V
stroke 3729 3215 M
0 3 V
0 2 V
0 2 V
0 2 V
0 3 V
7 2 V
0 2 V
0 -2 V
0 2 V
0 2 V
0 2 V
0 3 V
0 2 V
0 2 V
8 2 V
0 2 V
0 -351 V
0 10 V
7 4 V
7 5 V
0 4 V
7 5 V
0 4 V
7 5 V
1 4 V
7 4 V
19 4 V
7 5 V
0 4 V
7 -48 V
0 4 V
0 5 V
0 4 V
0 5 V
0 4 V
0 5 V
0 4 V
0 4 V
0 4 V
0 5 V
0 4 V
0 4 V
0 4 V
1 4 V
0 4 V
0 4 V
0 4 V
0 4 V
0 4 V
0 4 V
0 4 V
0 3 V
0 4 V
0 4 V
0 3 V
0 4 V
0 4 V
0 3 V
0 4 V
0 3 V
0 4 V
0 3 V
0 4 V
0 3 V
0 4 V
0 3 V
0 3 V
0 4 V
0 3 V
0 3 V
0 3 V
0 4 V
0 3 V
0 3 V
0 3 V
0 3 V
0 3 V
0 3 V
0 3 V
0 3 V
0 3 V
0 3 V
0 3 V
0 3 V
0 3 V
0 3 V
0 3 V
0 3 V
0 3 V
0 3 V
0 2 V
0 3 V
0 3 V
0 3 V
0 3 V
0 2 V
0 3 V
0 3 V
0 2 V
0 3 V
0 3 V
0 2 V
0 3 V
0 2 V
stroke 3814 3157 M
0 3 V
0 3 V
0 2 V
0 3 V
0 2 V
0 3 V
0 2 V
0 3 V
0 2 V
0 3 V
0 2 V
0 2 V
0 3 V
0 2 V
0 3 V
0 2 V
0 2 V
0 3 V
0 2 V
0 2 V
0 3 V
0 2 V
0 2 V
7 2 V
0 3 V
0 -3 V
0 3 V
0 2 V
0 2 V
0 2 V
0 3 V
0 2 V
0 2 V
0 2 V
0 2 V
0 3 V
0 2 V
0 2 V
0 2 V
0 2 V
0 2 V
0 2 V
0 2 V
0 2 V
0 2 V
0 3 V
0 2 V
0 2 V
0 2 V
0 2 V
0 2 V
0 2 V
0 2 V
0 2 V
0 2 V
0 2 V
0 1 V
0 2 V
0 2 V
0 2 V
0 2 V
0 2 V
0 2 V
0 2 V
0 2 V
0 2 V
0 2 V
0 1 V
0 2 V
0 2 V
0 2 V
0 2 V
0 2 V
0 1 V
0 2 V
0 2 V
0 2 V
0 2 V
0 1 V
0 2 V
0 2 V
0 2 V
0 1 V
0 2 V
0 2 V
0 2 V
0 1 V
0 2 V
0 2 V
0 1 V
0 2 V
0 2 V
0 1 V
0 2 V
0 2 V
0 1 V
0 2 V
0 2 V
0 1 V
0 2 V
0 2 V
0 1 V
0 2 V
0 1 V
stroke 3821 3363 M
0 2 V
0 2 V
0 1 V
0 2 V
0 1 V
0 2 V
0 2 V
7 1 V
0 2 V
0 -2 V
0 2 V
0 1 V
0 2 V
0 1 V
0 2 V
0 1 V
0 2 V
0 1 V
0 2 V
0 1 V
0 2 V
0 1 V
0 2 V
0 1 V
0 2 V
0 1 V
0 2 V
0 1 V
0 2 V
0 1 V
0 2 V
0 1 V
0 2 V
0 1 V
0 1 V
0 2 V
0 1 V
0 2 V
0 1 V
0 2 V
0 1 V
0 1 V
0 2 V
0 1 V
0 1 V
0 2 V
0 1 V
0 2 V
0 1 V
0 1 V
0 2 V
0 1 V
0 1 V
0 2 V
0 1 V
0 1 V
0 2 V
0 1 V
0 1 V
0 2 V
0 1 V
0 1 V
0 2 V
0 1 V
0 1 V
0 2 V
0 1 V
0 1 V
0 2 V
0 1 V
0 1 V
0 1 V
0 2 V
0 1 V
0 1 V
0 1 V
0 2 V
0 1 V
0 1 V
0 1 V
0 2 V
0 1 V
0 1 V
0 1 V
0 2 V
0 1 V
0 1 V
0 1 V
0 1 V
0 2 V
0 1 V
0 1 V
0 1 V
0 2 V
0 1 V
1 1 V
6 1 V
0 1 V
0 -1 V
0 1 V
0 1 V
0 2 V
0 1 V
0 1 V
stroke 3835 3500 M
0 1 V
0 1 V
0 1 V
0 2 V
0 1 V
0 1 V
0 1 V
0 1 V
0 1 V
0 2 V
0 1 V
0 1 V
0 1 V
0 1 V
0 1 V
0 1 V
0 1 V
0 2 V
0 1 V
0 1 V
0 1 V
0 1 V
0 1 V
0 1 V
0 1 V
0 1 V
0 1 V
0 2 V
0 1 V
0 1 V
0 1 V
0 1 V
0 1 V
0 1 V
0 1 V
0 1 V
0 1 V
0 1 V
0 1 V
0 1 V
0 2 V
0 1 V
0 1 V
0 1 V
0 1 V
0 1 V
0 1 V
0 1 V
0 1 V
0 1 V
0 1 V
0 1 V
0 1 V
0 1 V
0 1 V
0 1 V
0 1 V
1 1 V
0 1 V
0 1 V
0 1 V
0 1 V
0 1 V
0 1 V
0 1 V
0 1 V
0 1 V
0 1 V
0 1 V
0 1 V
0 1 V
0 1 V
0 1 V
0 1 V
0 1 V
0 1 V
0 1 V
0 1 V
0 1 V
0 1 V
0 1 V
0 1 V
6 1 V
0 1 V
0 -699 V
0 28 V
0 5 V
7 4 V
1 5 V
7 4 V
0 4 V
7 4 V
0 5 V
7 4 V
0 4 V
7 4 V
1 4 V
7 4 V
0 4 V
13 4 V
0 4 V
7 4 V
0 -2165 V
% End plot #1
% Begin plot #2
2.000 UP
stroke
LTa
0.60 0.60 0.00 C 2369 1246 Box
3353 2701 Box
% End plot #2
% Begin plot #3
2.000 UP
1.000 UL
LTa
0.60 0.60 0.00 C LCb setrgbcolor
2774 153 M
[ [(Arial) 180.0 0.0 true true 0 (olsr)]
] -60.0 MRshow
2.000 UP
1.000 UL
LTa
0.60 0.60 0.00 C 2882 153 M
333 0 V
2369 1246 M
2369 1246 Box
3048 153 Box
% End plot #3
% Begin plot #4
1.000 UL
LTb
LT1
0.00 0.00 0.63 C 1270 1246 M
7 175 V
7 124 V
8 97 V
0 79 V
8 66 V
0 58 V
8 51 V
0 45 V
7 41 V
0 38 V
0 35 V
0 32 V
0 29 V
8 28 V
0 26 V
0 25 V
0 23 V
0 23 V
0 21 V
8 20 V
0 19 V
0 18 V
0 18 V
0 17 V
8 16 V
0 -33 V
0 17 V
0 16 V
0 16 V
0 15 V
0 15 V
0 14 V
0 14 V
0 13 V
0 13 V
0 -54 V
0 14 V
0 14 V
0 -125 V
0 18 V
0 -96 V
0 21 V
0 -67 V
0 23 V
0 -102 V
0 28 V
8 -28 V
0 28 V
0 26 V
0 25 V
0 23 V
0 23 V
0 21 V
0 20 V
0 19 V
0 18 V
0 -337 V
0 38 V
0 35 V
1 32 V
7 -32 V
0 32 V
0 29 V
0 -61 V
0 32 V
0 -32 V
0 32 V
1 -300 V
0 58 V
0 -124 V
0 66 V
7 109 V
0 45 V
9 41 V
8 38 V
8 35 V
8 32 V
17 29 V
8 28 V
8 26 V
8 25 V
8 23 V
9 23 V
8 21 V
16 20 V
8 -20 V
0 -92 V
0 25 V
0 23 V
0 23 V
0 -46 V
0 23 V
0 -322 V
0 45 V
0 -220 V
0 66 V
8 -66 V
0 66 V
0 -145 V
0 79 V
0 124 V
0 51 V
0 45 V
8 41 V
stroke 1502 1982 M
0 38 V
0 35 V
0 32 V
9 29 V
0 28 V
8 26 V
0 25 V
0 23 V
8 23 V
9 -23 V
0 -131 V
0 29 V
0 -61 V
0 32 V
0 -146 V
0 41 V
0 -561 V
0 124 V
8 97 V
0 -221 V
0 124 V
0 176 V
0 66 V
8 -145 V
0 79 V
0 -79 V
0 79 V
0 -475 V
0 175 V
0 124 V
0 97 V
8 79 V
8 66 V
16 58 V
8 51 V
7 45 V
8 41 V
8 38 V
8 35 V
16 32 V
7 29 V
7 28 V
7 26 V
8 25 V
9 -25 V
0 25 V
0 -140 V
0 32 V
0 -366 V
0 66 V
8 -66 V
0 66 V
0 58 V
0 51 V
0 -175 V
0 66 V
0 -66 V
0 66 V
0 109 V
8 45 V
0 41 V
0 38 V
0 35 V
0 32 V
0 29 V
7 28 V
8 -89 V
0 32 V
0 -32 V
0 32 V
0 -191 V
0 45 V
0 -299 V
0 79 V
7 -176 V
0 97 V
0 145 V
0 58 V
8 51 V
0 45 V
0 41 V
45 38 V
8 35 V
0 -510 V
0 97 V
8 -221 V
0 124 V
0 176 V
8 66 V
0 58 V
0 -203 V
0 79 V
4 -79 V
0 79 V
0 -176 V
0 97 V
3 -97 V
5 97 V
3 79 V
7 66 V
8 58 V
7 51 V
7 45 V
9 41 V
stroke 1845 1982 M
8 38 V
10 35 V
7 32 V
12 29 V
7 28 V
9 26 V
8 25 V
7 23 V
8 23 V
19 21 V
7 -21 V
0 21 V
0 -92 V
0 25 V
0 -25 V
0 25 V
0 -213 V
0 38 V
2 -79 V
0 41 V
0 -86 V
0 45 V
5 41 V
0 38 V
0 -38 V
0 38 V
3 -38 V
0 38 V
0 35 V
4 -35 V
0 35 V
0 32 V
0 29 V
0 -96 V
0 35 V
0 -159 V
8 45 V
7 41 V
7 38 V
7 35 V
8 -35 V
0 35 V
0 32 V
0 29 V
0 -220 V
0 45 V
3 -96 V
0 51 V
4 -109 V
0 58 V
0 -203 V
0 79 V
0 66 V
0 58 V
0 51 V
7 45 V
0 41 V
8 38 V
14 35 V
7 32 V
7 29 V
8 28 V
7 26 V
14 25 V
7 23 V
8 23 V
7 -23 V
0 -102 V
0 28 V
0 -57 V
0 29 V
0 28 V
0 -89 V
0 32 V
3 -67 V
0 35 V
0 -73 V
0 38 V
1 -79 V
0 41 V
3 -86 V
0 45 V
0 79 V
0 35 V
3 -35 V
0 35 V
1 -35 V
0 35 V
3 -35 V
0 35 V
0 -35 V
0 35 V
0 -35 V
0 35 V
0 -210 V
0 51 V
0 45 V
0 -45 V
0 45 V
0 -96 V
0 51 V
0 45 V
0 41 V
7 38 V
stroke 2120 2020 M
0 -38 V
0 38 V
0 -38 V
0 38 V
0 -38 V
0 38 V
0 -38 V
0 38 V
0 35 V
0 32 V
0 29 V
0 -96 V
0 35 V
0 32 V
0 -146 V
0 41 V
4 -137 V
4 51 V
8 45 V
9 41 V
14 38 V
7 -233 V
0 58 V
0 -124 V
0 66 V
0 -66 V
0 66 V
0 -242 V
0 97 V
7 -97 V
0 97 V
0 79 V
0 66 V
0 58 V
0 -58 V
0 58 V
7 51 V
0 45 V
7 41 V
10 38 V
7 35 V
12 32 V
7 29 V
8 28 V
7 -124 V
0 35 V
0 32 V
0 -242 V
0 51 V
3 45 V
0 -96 V
0 51 V
4 -109 V
0 58 V
0 -124 V
0 66 V
0 109 V
3 45 V
0 41 V
5 38 V
0 35 V
2 32 V
7 29 V
7 -134 V
0 38 V
6 -79 V
0 41 V
0 -261 V
0 66 V
0 -145 V
0 79 V
0 66 V
0 -145 V
0 79 V
2 124 V
5 51 V
0 45 V
2 41 V
0 38 V
0 35 V
7 32 V
8 29 V
7 28 V
7 -124 V
0 35 V
1 -73 V
0 38 V
0 -175 V
0 51 V
0 -109 V
0 58 V
5 -124 V
0 66 V
1 -145 V
0 79 V
0 124 V
0 51 V
6 45 V
0 41 V
0 38 V
1 35 V
6 32 V
8 29 V
7 28 V
stroke 2348 2144 M
0 -162 V
0 38 V
0 35 V
0 -210 V
0 51 V
7 -109 V
0 58 V
0 -203 V
0 79 V
0 66 V
0 58 V
0 51 V
7 45 V
0 41 V
0 38 V
8 35 V
7 32 V
14 29 V
0 -329 V
0 58 V
7 -203 V
0 79 V
0 -79 V
0 79 V
0 124 V
8 51 V
0 45 V
0 41 V
0 38 V
0 35 V
0 -268 V
0 58 V
0 -124 V
0 66 V
7 -66 V
0 66 V
0 58 V
0 51 V
0 -175 V
0 66 V
7 58 V
7 51 V
8 45 V
7 41 V
8 38 V
8 35 V
0 -73 V
0 38 V
0 35 V
0 32 V
0 -366 V
0 66 V
7 -145 V
0 79 V
0 66 V
0 58 V
0 51 V
0 45 V
0 41 V
0 -195 V
0 58 V
7 51 V
7 45 V
7 41 V
8 38 V
14 35 V
7 32 V
8 29 V
7 28 V
8 26 V
0 -54 V
0 28 V
0 26 V
0 -188 V
0 38 V
0 35 V
0 32 V
0 -105 V
0 38 V
0 -124 V
0 45 V
7 -45 V
0 45 V
0 -45 V
0 45 V
0 41 V
0 38 V
0 35 V
0 32 V
0 -67 V
0 35 V
7 32 V
0 -105 V
0 38 V
0 -38 V
0 38 V
0 -124 V
0 45 V
0 41 V
0 -41 V
7 41 V
8 38 V
7 35 V
7 32 V
stroke 2581 2087 M
0 29 V
0 -870 V
0 175 V
8 -175 V
0 175 V
0 221 V
7 79 V
0 66 V
7 58 V
0 51 V
7 45 V
7 41 V
8 38 V
7 35 V
7 32 V
7 29 V
15 28 V
0 -357 V
0 58 V
7 -124 V
0 66 V
0 -242 V
0 97 V
0 79 V
0 66 V
7 58 V
0 51 V
0 45 V
0 -299 V
0 79 V
0 -300 V
0 124 V
7 -124 V
0 124 V
0 97 V
7 79 V
8 66 V
7 58 V
8 51 V
15 45 V
7 41 V
7 38 V
9 35 V
27 32 V
7 29 V
7 28 V
7 26 V
8 25 V
7 23 V
7 23 V
7 -23 V
0 -23 V
0 23 V
0 -74 V
0 26 V
0 25 V
0 -350 V
0 51 V
0 45 V
0 -96 V
0 51 V
0 -109 V
0 58 V
0 51 V
0 -109 V
0 58 V
7 96 V
0 41 V
0 38 V
0 35 V
0 -114 V
0 41 V
0 38 V
0 -79 V
0 41 V
8 -86 V
0 45 V
0 41 V
0 38 V
0 35 V
0 32 V
0 29 V
0 -134 V
0 38 V
0 -299 V
0 66 V
7 58 V
7 51 V
7 45 V
8 41 V
15 38 V
7 35 V
7 32 V
7 29 V
8 28 V
7 -28 V
0 28 V
0 -248 V
0 45 V
7 -96 V
0 51 V
0 -51 V
0 51 V
0 -51 V
stroke 2929 1845 M
0 51 V
0 86 V
8 38 V
0 35 V
0 32 V
7 -146 V
0 41 V
0 -137 V
0 51 V
0 45 V
0 -96 V
0 51 V
7 -51 V
0 51 V
0 45 V
0 -154 V
0 58 V
0 96 V
0 41 V
8 38 V
7 35 V
8 -73 V
0 38 V
0 -175 V
0 51 V
0 -175 V
0 66 V
7 -66 V
0 66 V
0 58 V
0 51 V
0 45 V
0 -45 V
0 45 V
7 -96 V
0 51 V
0 45 V
0 -154 V
0 58 V
0 51 V
0 -254 V
0 79 V
7 66 V
0 58 V
7 51 V
0 45 V
0 -299 V
0 79 V
0 -176 V
0 97 V
8 -97 V
0 97 V
0 79 V
0 66 V
7 58 V
0 51 V
0 45 V
0 41 V
0 -261 V
0 66 V
0 -145 V
0 79 V
7 -79 V
0 79 V
0 66 V
0 58 V
0 51 V
0 45 V
0 -299 V
7 79 V
0 -79 V
0 79 V
0 -79 V
0 79 V
0 -475 V
0 175 V
8 124 V
7 97 V
15 79 V
7 66 V
7 58 V
9 51 V
14 45 V
7 41 V
7 38 V
12 35 V
7 32 V
7 29 V
3 -134 V
0 38 V
3 -79 V
0 41 V
2 -86 V
0 45 V
0 -45 V
0 45 V
0 -96 V
0 51 V
2 -109 V
0 58 V
0 -58 V
0 58 V
0 -124 V
0 66 V
stroke 3148 1787 M
0 109 V
5 45 V
0 41 V
0 -86 V
0 45 V
0 41 V
3 -41 V
0 41 V
0 -86 V
0 45 V
0 -220 V
0 66 V
7 58 V
7 51 V
7 45 V
11 41 V
12 38 V
7 35 V
7 32 V
7 29 V
10 -29 V
0 29 V
0 -29 V
0 29 V
0 -175 V
0 41 V
0 -261 V
0 66 V
2 58 V
0 -124 V
0 66 V
3 -145 V
0 79 V
0 66 V
2 58 V
0 51 V
2 45 V
3 41 V
2 38 V
3 35 V
9 32 V
8 29 V
9 28 V
7 26 V
7 25 V
9 23 V
8 23 V
7 -23 V
0 -74 V
0 26 V
0 -115 V
0 32 V
2 -67 V
0 35 V
0 32 V
0 29 V
0 28 V
0 -124 V
0 35 V
1 -73 V
0 38 V
3 -79 V
0 41 V
0 -86 V
0 45 V
1 -45 V
0 45 V
0 79 V
2 35 V
0 -73 V
0 38 V
1 -79 V
0 41 V
0 38 V
1 35 V
2 -35 V
0 35 V
0 32 V
0 -67 V
0 35 V
16 -159 V
0 45 V
7 41 V
14 38 V
8 35 V
0 32 V
0 -242 V
0 51 V
0 -254 V
0 79 V
7 -79 V
0 79 V
0 -176 V
0 97 V
0 79 V
0 66 V
7 58 V
0 51 V
0 45 V
7 41 V
8 38 V
7 -124 V
0 45 V
0 41 V
stroke 3406 1982 M
0 38 V
0 -175 V
0 51 V
0 45 V
0 -220 V
0 66 V
7 -145 V
0 79 V
0 66 V
0 58 V
7 51 V
7 45 V
0 -220 V
0 66 V
0 58 V
0 -203 V
0 79 V
8 -176 V
0 97 V
0 -97 V
0 97 V
0 79 V
0 66 V
0 58 V
7 51 V
0 -109 V
0 58 V
0 -58 V
0 58 V
0 -203 V
0 79 V
7 -176 V
0 97 V
0 -97 V
0 97 V
0 79 V
0 66 V
7 58 V
15 51 V
3593 946 L
19 300 V
7 175 V
8 124 V
0 97 V
7 79 V
0 66 V
0 58 V
7 51 V
7 45 V
7 -695 V
0 175 V
8 -475 V
0 300 V
0 299 V
7 97 V
0 -97 V
0 97 V
0 -97 V
0 97 V
0 79 V
0 -176 V
0 97 V
0 -396 V
7 175 V
7 124 V
7 97 V
9 79 V
7 66 V
13 58 V
9 51 V
7 45 V
13 41 V
9 38 V
7 35 V
7 32 V
9 29 V
5 -134 V
0 38 V
0 35 V
0 -114 V
0 41 V
2 -86 V
0 45 V
0 41 V
0 -86 V
0 45 V
5 -96 V
0 51 V
0 -175 V
0 66 V
0 58 V
0 51 V
2 45 V
0 41 V
5 38 V
15 35 V
7 32 V
7 29 V
7 28 V
8 26 V
7 -83 V
0 29 V
0 -175 V
0 41 V
0 38 V
0 -124 V
0 45 V
0 -299 V
0 79 V
8 -176 V
0 97 V
0 145 V
0 58 V
0 51 V
7 45 V
0 -154 V
0 58 V
0 51 V
0 45 V
0 41 V
0 -137 V
0 51 V
0 -175 V
0 66 V
7 -66 V
0 66 V
0 58 V
0 51 V
0 -51 V
0 51 V
0 -109 V
0 58 V
0 51 V
0 -109 V
0 58 V
8 -124 V
0 66 V
0 -242 V
0 97 V
7 79 V
14 66 V
7 58 V
8 51 V
8 45 V
stroke 3925 1941 M
7 41 V
7 38 V
15 35 V
7 32 V
7 29 V
7 -220 V
0 45 V
0 41 V
2 38 V
0 -175 V
0 51 V
6 -109 V
0 58 V
0 -124 V
0 66 V
0 -145 V
0 79 V
0 66 V
0 58 V
2 51 V
6 45 V
0 41 V
0 -41 V
0 41 V
0 -195 V
0 58 V
1 -124 V
0 66 V
6 -145 V
0 79 V
0 -176 V
0 97 V
0 79 V
0 66 V
7 58 V
7 51 V
9 45 V
13 41 V
7 38 V
8 35 V
7 32 V
8 29 V
7 28 V
14 26 V
7 25 V
8 23 V
0 -23 V
0 23 V
0 -131 V
0 29 V
0 28 V
0 -203 V
0 41 V
7 -86 V
0 45 V
0 -45 V
0 45 V
0 -45 V
0 45 V
0 41 V
0 38 V
0 35 V
7 32 V
0 29 V
7 28 V
7 26 V
8 25 V
7 -25 V
0 -54 V
0 28 V
0 26 V
0 -115 V
0 32 V
0 29 V
0 -175 V
0 41 V
7 -137 V
0 51 V
0 45 V
0 41 V
0 38 V
0 35 V
0 32 V
0 29 V
0 -61 V
0 32 V
0 -105 V
0 38 V
7 35 V
0 32 V
0 29 V
8 -29 V
0 29 V
0 -61 V
0 32 V
0 -191 V
0 45 V
0 -299 V
0 79 V
7 124 V
0 51 V
1 45 V
6 -96 V
0 51 V
stroke 4179 1896 M
0 -51 V
0 51 V
0 -650 V
0 175 V
1 124 V
6 97 V
0 79 V
1 66 V
7 58 V
7 51 V
7 45 V
7 41 V
7 38 V
8 35 V
7 32 V
7 -300 V
0 58 V
7 -58 V
0 58 V
0 51 V
0 45 V
0 41 V
0 -41 V
0 41 V
7 38 V
0 -124 V
0 45 V
0 41 V
0 -41 V
0 41 V
0 -437 V
0 97 V
8 79 V
0 66 V
0 58 V
0 51 V
0 45 V
7 -96 V
0 51 V
0 -51 V
0 51 V
0 -109 V
0 58 V
0 -300 V
0 97 V
0 145 V
7 58 V
7 51 V
9 45 V
7 41 V
7 -261 V
0 66 V
6 -145 V
0 79 V
0 66 V
0 -242 V
0 97 V
1 -97 V
0 97 V
0 145 V
7 58 V
0 -124 V
0 66 V
0 -242 V
0 97 V
0 -221 V
0 124 V
1 97 V
0 79 V
6 66 V
8 58 V
7 51 V
7 45 V
8 41 V
7 38 V
15 35 V
7 32 V
7 29 V
7 28 V
8 26 V
14 25 V
7 23 V
7 -23 V
0 23 V
0 -48 V
0 25 V
0 23 V
0 -23 V
0 23 V
0 -48 V
0 25 V
0 -254 V
0 41 V
0 -41 V
0 41 V
0 -195 V
0 58 V
8 51 V
0 45 V
0 -45 V
0 45 V
0 -45 V
0 45 V
0 79 V
stroke 4448 2020 M
0 35 V
0 32 V
7 29 V
0 28 V
0 -203 V
0 41 V
0 -86 V
0 45 V
0 -45 V
0 45 V
0 -154 V
0 58 V
7 -124 V
0 66 V
0 58 V
0 51 V
0 45 V
7 41 V
0 38 V
0 35 V
45 32 V
7 29 V
8 28 V
7 26 V
7 25 V
7 23 V
7 23 V
15 21 V
7 20 V
7 -20 V
0 20 V
0 19 V
0 -19 V
0 19 V
0 -83 V
0 23 V
0 -71 V
0 25 V
0 23 V
0 -74 V
0 26 V
7 25 V
0 23 V
0 23 V
0 21 V
0 -67 V
0 23 V
0 -163 V
0 32 V
0 -67 V
0 35 V
0 32 V
7 29 V
0 28 V
0 26 V
0 25 V
0 23 V
8 23 V
7 21 V
14 20 V
8 19 V
7 -19 V
0 19 V
0 18 V
0 18 V
1 -96 V
0 21 V
0 -175 V
0 29 V
0 -96 V
0 35 V
0 -73 V
0 38 V
6 -38 V
0 38 V
0 35 V
0 32 V
1 29 V
6 28 V
0 26 V
0 25 V
1 23 V
0 23 V
7 21 V
8 20 V
7 19 V
7 18 V
8 -18 V
0 18 V
0 -78 V
0 21 V
0 -118 V
0 26 V
0 -54 V
0 28 V
0 -89 V
0 32 V
5 -32 V
0 32 V
0 -67 V
0 35 V
0 -114 V
0 41 V
2 -86 V
stroke 4703 1896 M
0 45 V
0 41 V
0 38 V
1 35 V
0 32 V
0 -67 V
0 35 V
5 32 V
0 -32 V
0 32 V
0 -32 V
0 32 V
1 -32 V
0 32 V
0 29 V
0 -134 V
0 38 V
0 -124 V
0 45 V
0 -45 V
0 45 V
0 -45 V
0 45 V
7 -220 V
0 66 V
0 58 V
0 -58 V
0 58 V
0 -124 V
0 66 V
6 -145 V
0 79 V
1 -176 V
0 97 V
0 145 V
7 58 V
7 51 V
7 45 V
8 41 V
22 38 V
7 35 V
15 32 V
7 29 V
7 28 V
0 26 V
0 -83 V
0 29 V
0 -96 V
0 35 V
0 -73 V
0 38 V
7 -38 V
0 38 V
0 35 V
0 32 V
0 -67 V
0 35 V
0 -35 V
0 35 V
0 -35 V
0 35 V
0 32 V
0 29 V
0 -134 V
0 38 V
0 35 V
7 32 V
0 29 V
0 -29 V
0 29 V
0 28 V
0 26 V
0 25 V
0 -140 V
0 32 V
0 29 V
0 28 V
0 26 V
0 25 V
0 23 V
0 -198 V
0 35 V
3 32 V
0 -445 V
5 79 V
0 66 V
0 58 V
0 51 V
0 45 V
7 41 V
7 38 V
10 35 V
7 32 V
12 29 V
7 28 V
7 26 V
7 25 V
0 23 V
0 -322 V
0 45 V
2 -96 V
0 51 V
2 -109 V
0 58 V
stroke 4901 1845 M
4 -58 V
0 58 V
0 51 V
0 45 V
0 -154 V
0 58 V
0 51 V
0 45 V
3 41 V
4 38 V
0 35 V
0 32 V
3 29 V
12 28 V
7 26 V
8 25 V
7 -25 V
0 25 V
0 -25 V
0 25 V
0 -254 V
0 41 V
0 -41 V
0 41 V
0 -340 V
0 79 V
4 -176 V
0 97 V
3 -97 V
0 97 V
0 145 V
0 58 V
7 51 V
0 45 V
0 41 V
0 38 V
7 35 V
0 32 V
8 29 V
7 28 V
21 26 V
7 25 V
8 -25 V
0 -528 V
0 79 V
0 -79 V
0 79 V
0 -176 V
0 97 V
7 -221 V
0 124 V
0 -299 V
0 175 V
0 221 V
7 79 V
0 66 V
7 58 V
0 51 V
0 45 V
7 41 V
0 38 V
0 35 V
0 32 V
8 -67 V
0 35 V
0 32 V
0 -542 V
0 97 V
7 -97 V
0 97 V
0 -97 V
0 97 V
0 145 V
7 58 V
0 51 V
0 45 V
8 41 V
0 38 V
7 -124 V
0 45 V
0 -45 V
0 45 V
0 -154 V
0 58 V
0 -124 V
0 66 V
7 -66 V
0 66 V
0 -145 V
0 79 V
0 124 V
0 51 V
7 45 V
7 41 V
9 38 V
8 35 V
7 32 V
7 29 V
7 28 V
7 26 V
8 25 V
7 -25 V
0 -150 V
0 35 V
stroke 5167 2055 M
0 -35 V
0 35 V
1 -159 V
0 45 V
4 -96 V
0 51 V
0 45 V
0 41 V
0 -137 V
0 51 V
2 -51 V
0 51 V
0 45 V
0 41 V
0 38 V
0 35 V
0 -73 V
5 38 V
0 -124 V
0 45 V
0 41 V
2 -41 V
0 41 V
0 38 V
0 -175 V
0 51 V
0 -51 V
0 51 V
8 45 V
14 41 V
0 38 V
0 35 V
0 -268 V
0 58 V
0 -124 V
0 66 V
7 -145 V
0 79 V
0 66 V
0 58 V
0 51 V
0 -175 V
0 66 V
7 58 V
8 51 V
7 45 V
21 41 V
8 38 V
6 35 V
14 32 V
8 29 V
7 28 V
7 26 V
7 25 V
9 23 V
7 -23 V
0 23 V
0 -74 V
0 26 V
0 -83 V
0 29 V
0 -29 V
0 29 V
0 -29 V
0 29 V
0 -61 V
0 32 V
7 -67 V
0 35 V
0 61 V
7 28 V
8 26 V
44 25 V
8 -25 V
0 -449 V
0 66 V
0 58 V
0 51 V
0 -175 V
0 66 V
7 -66 V
0 66 V
0 -145 V
0 79 V
0 -79 V
0 79 V
0 124 V
7 51 V
0 45 V
0 -299 V
0 79 V
7 -176 V
0 97 V
0 -221 V
0 124 V
0 97 V
0 -221 V
0 124 V
0 176 V
7 66 V
0 58 V
10 51 V
7 45 V
8 41 V
stroke 5453 1982 M
12 38 V
7 35 V
7 32 V
7 29 V
7 28 V
8 26 V
7 25 V
7 -25 V
0 25 V
0 23 V
0 -102 V
0 28 V
0 -89 V
0 32 V
0 -146 V
0 41 V
2 -86 V
0 45 V
0 -96 V
0 51 V
5 -109 V
0 58 V
0 51 V
0 45 V
0 -96 V
0 51 V
3 45 V
0 41 V
0 -86 V
0 45 V
4 41 V
0 38 V
0 -38 V
0 38 V
0 35 V
0 -268 V
0 58 V
8 51 V
15 45 V
7 -396 V
0 97 V
0 -221 V
0 124 V
7 -299 V
0 175 V
0 221 V
0 79 V
8 66 V
0 58 V
0 -124 V
0 66 V
0 58 V
0 51 V
0 -475 V
0 124 V
14 97 V
7 79 V
7 66 V
8 58 V
14 51 V
7 45 V
7 41 V
8 38 V
7 35 V
0 32 V
0 -146 V
0 41 V
0 38 V
0 -299 V
0 66 V
7 -66 V
0 66 V
0 58 V
0 -58 V
0 58 V
0 51 V
0 45 V
0 -154 V
0 58 V
0 51 V
7 45 V
8 41 V
8 38 V
7 -233 V
0 58 V
0 -124 V
0 66 V
7 -145 V
0 79 V
0 -79 V
0 79 V
0 66 V
0 -145 V
0 79 V
0 66 V
0 58 V
7 51 V
0 -109 V
0 58 V
0 51 V
0 45 V
0 -220 V
0 66 V
0 -66 V
stroke 5704 1721 M
7 66 V
8 58 V
5841 946 L
20 300 V
8 175 V
7 124 V
7 97 V
0 79 V
7 66 V
0 58 V
7 51 V
15 45 V
7 41 V
7 38 V
7 35 V
8 32 V
7 29 V
8 28 V
7 26 V
8 25 V
26 23 V
7 23 V
15 21 V
7 20 V
7 19 V
7 18 V
8 18 V
7 -18 V
0 -78 V
0 21 V
0 20 V
0 -112 V
0 25 V
7 23 V
0 -131 V
0 29 V
0 28 V
0 26 V
0 25 V
0 -108 V
0 29 V
0 -96 V
0 35 V
0 32 V
7 29 V
0 28 V
0 -124 V
0 35 V
0 32 V
0 -366 V
0 66 V
0 -145 V
0 79 V
7 -176 V
0 97 V
0 145 V
0 58 V
0 51 V
0 -175 V
0 66 V
8 -145 V
0 79 V
0 66 V
0 58 V
0 51 V
0 -254 V
0 79 V
8 66 V
7 58 V
7 51 V
7 45 V
7 41 V
15 38 V
7 35 V
7 32 V
9 -67 V
0 35 V
0 -210 V
0 51 V
0 -51 V
0 51 V
0 -109 V
0 58 V
6 -124 V
0 66 V
0 58 V
0 51 V
2 45 V
0 41 V
5 38 V
7 -38 V
0 38 V
0 -233 V
0 58 V
1 -124 V
0 66 V
1 -145 V
0 79 V
5 -176 V
0 97 V
0 -97 V
0 97 V
0 145 V
2 58 V
5 51 V
2 45 V
0 -220 V
stroke 6194 1721 M
0 66 V
6 -145 V
0 79 V
0 -79 V
0 79 V
0 66 V
7 58 V
0 51 V
0 45 V
0 -154 V
0 58 V
0 51 V
0 -254 V
0 79 V
2 -176 V
5 97 V
0 79 V
7 66 V
8 58 V
7 51 V
7 45 V
0 -220 V
0 66 V
0 -366 V
0 124 V
8 -124 V
0 124 V
0 176 V
0 66 V
7 58 V
0 -124 V
0 66 V
0 58 V
0 51 V
0 -254 V
0 79 V
0 -79 V
7 79 V
7 66 V
15 58 V
7 51 V
8 45 V
7 41 V
9 38 V
12 35 V
7 32 V
7 29 V
8 28 V
7 26 V
7 25 V
0 -79 V
0 28 V
0 -89 V
0 32 V
0 -32 V
0 32 V
0 -67 V
0 35 V
0 -35 V
0 35 V
0 32 V
0 -105 V
0 38 V
5 -79 V
0 41 V
2 -41 V
0 41 V
0 -41 V
0 41 V
0 73 V
0 32 V
5 29 V
10 28 V
7 26 V
7 25 V
7 23 V
7 -23 V
0 23 V
0 -102 V
0 28 V
0 -248 V
0 45 V
5 -96 V
0 51 V
3 -109 V
0 58 V
0 -124 V
0 66 V
0 58 V
0 -124 V
0 66 V
0 -66 V
0 66 V
4 109 V
3 45 V
0 41 V
0 38 V
0 35 V
4 32 V
0 29 V
0 28 V
3 -203 V
0 41 V
0 -137 V
stroke 6438 1845 M
0 51 V
5 -109 V
0 58 V
0 51 V
0 -109 V
0 58 V
0 -124 V
0 66 V
2 -66 V
0 66 V
0 58 V
0 51 V
5 45 V
1 41 V
0 -137 V
0 51 V
1 45 V
0 41 V
0 38 V
1 35 V
0 -268 V
0 58 V
4 -124 V
0 66 V
1 -242 V
2 97 V
0 79 V
1 66 V
6 58 V
7 51 V
8 45 V
8 41 V
7 38 V
7 35 V
8 32 V
9 29 V
7 28 V
7 26 V
7 25 V
8 23 V
7 23 V
7 21 V
11 20 V
7 19 V
0 -1481 V
% End plot #4
% Begin plot #5
2.000 UP
stroke
LTb
LT1
0.00 0.00 0.63 C 1270 1246 Circle
1494 1721 Circle
1796 1642 Circle
2113 2055 Circle
2314 1845 Circle
2545 1896 Circle
2842 2055 Circle
3031 1421 Circle
3322 1941 Circle
3707 1787 Circle
3991 1982 Circle
4251 1896 Circle
4462 1896 Circle
4709 2087 Circle
4905 1941 Circle
5168 1941 Circle
5453 1982 Circle
5704 1896 Circle
6179 1787 Circle
6424 1845 Circle
% End plot #5
% Begin plot #6
2.000 UP
1.000 UL
LTb
LT1
0.00 0.00 0.63 C LCb setrgbcolor
4187 153 M
[ [(Arial) 180.0 0.0 true true 0 (per-packet)]
] -60.0 MRshow
2.000 UP
1.000 UL
LTb
LT1
0.00 0.00 0.63 C 1270 1246 Circle
4461 153 Circle
% End plot #6
% Begin plot #7
1.000 UL
LTb
LT3
0.00 0.38 0.82 C 1270 1246 M
7 175 V
7 124 V
8 97 V
0 79 V
7 66 V
0 58 V
0 51 V
8 45 V
0 41 V
0 38 V
0 35 V
7 32 V
0 29 V
0 28 V
0 26 V
0 25 V
0 23 V
9 23 V
0 21 V
0 20 V
0 19 V
0 18 V
0 18 V
0 17 V
0 16 V
0 16 V
7 15 V
0 15 V
0 14 V
0 14 V
0 13 V
0 13 V
0 12 V
0 13 V
0 11 V
0 12 V
0 11 V
0 11 V
0 11 V
0 10 V
8 10 V
0 10 V
0 10 V
0 9 V
0 10 V
0 9 V
0 9 V
0 8 V
0 9 V
0 8 V
0 9 V
0 8 V
0 8 V
0 7 V
0 8 V
0 8 V
0 7 V
0 7 V
0 7 V
0 7 V
0 7 V
9 7 V
0 -42 V
0 7 V
0 7 V
8 7 V
0 7 V
0 7 V
0 7 V
0 -7 V
0 7 V
8 -7 V
0 7 V
9 -7 V
0 7 V
8 -7 V
0 7 V
0 7 V
8 -7 V
0 7 V
0 6 V
0 7 V
8 -7 V
0 7 V
0 6 V
0 7 V
0 6 V
8 -6 V
0 6 V
0 6 V
0 6 V
0 6 V
0 6 V
8 -6 V
0 6 V
0 6 V
0 5 V
0 6 V
0 6 V
0 5 V
9 -5 V
0 5 V
0 6 V
0 5 V
stroke 1421 2845 M
0 5 V
0 5 V
0 6 V
0 5 V
8 -5 V
0 5 V
0 5 V
0 5 V
0 5 V
0 5 V
0 4 V
0 5 V
0 5 V
1477 946 L
21 300 V
8 175 V
0 124 V
8 97 V
0 79 V
0 66 V
0 58 V
9 51 V
0 45 V
0 41 V
0 38 V
0 35 V
0 32 V
0 29 V
8 28 V
0 26 V
0 25 V
0 23 V
0 23 V
0 21 V
0 20 V
0 19 V
0 18 V
0 18 V
0 17 V
0 16 V
0 16 V
0 15 V
8 15 V
0 14 V
0 14 V
0 13 V
0 13 V
0 12 V
0 13 V
0 11 V
0 12 V
0 11 V
0 11 V
0 11 V
0 10 V
0 10 V
0 10 V
0 10 V
0 9 V
0 10 V
0 -39 V
0 10 V
0 10 V
0 9 V
0 10 V
0 9 V
0 9 V
8 8 V
0 9 V
0 8 V
0 9 V
0 8 V
0 8 V
0 7 V
0 8 V
0 8 V
0 7 V
0 7 V
0 7 V
0 7 V
0 7 V
0 7 V
0 7 V
0 6 V
0 7 V
1 6 V
0 7 V
0 6 V
0 6 V
0 6 V
0 6 V
0 6 V
0 6 V
0 5 V
0 6 V
0 6 V
0 5 V
0 6 V
0 5 V
0 -11 V
0 6 V
0 -11 V
0 5 V
0 -11 V
0 6 V
0 -12 V
0 6 V
0 -11 V
0 5 V
0 -11 V
0 6 V
0 -12 V
0 6 V
0 -12 V
0 6 V
0 -12 V
0 6 V
0 -12 V
stroke 1548 2782 M
0 6 V
0 -12 V
0 6 V
0 -13 V
0 7 V
0 -13 V
0 6 V
0 -13 V
0 7 V
0 -13 V
0 6 V
0 -13 V
0 7 V
0 -14 V
0 7 V
0 -14 V
0 7 V
0 -14 V
0 7 V
0 -14 V
0 7 V
0 -14 V
0 7 V
0 -14 V
0 7 V
0 -15 V
0 8 V
0 -16 V
0 8 V
0 -153 V
9 11 V
21 10 V
7 10 V
46 10 V
8 10 V
16 9 V
9 10 V
8 9 V
8 9 V
8 8 V
8 9 V
9 8 V
8 9 V
8 8 V
8 8 V
8 7 V
0 8 V
8 8 V
8 7 V
8 7 V
28 7 V
20 7 V
8 7 V
7 7 V
7 7 V
7 6 V
1 7 V
8 6 V
8 7 V
7 6 V
0 6 V
7 6 V
7 6 V
1 6 V
7 6 V
7 5 V
0 6 V
7 6 V
7 5 V
1 6 V
7 5 V
7 5 V
0 5 V
7 6 V
7 5 V
13 5 V
13 5 V
7 5 V
0 5 V
7 4 V
1 5 V
6 5 V
1 5 V
7 4 V
7 5 V
0 4 V
7 5 V
0 4 V
7 5 V
0 4 V
20 4 V
0 4 V
19 5 V
0 4 V
8 4 V
1 4 V
6 4 V
1 4 V
7 4 V
0 4 V
8 4 V
25 4 V
0 4 V
0 4 V
stroke 2105 2993 M
8 3 V
0 4 V
7 4 V
0 3 V
7 4 V
0 4 V
1 3 V
6 4 V
20 3 V
0 4 V
7 3 V
14 4 V
12 3 V
0 4 V
7 3 V
1 3 V
19 4 V
0 3 V
7 3 V
0 3 V
20 4 V
0 3 V
20 3 V
0 3 V
12 3 V
0 3 V
12 3 V
0 3 V
0 3 V
7 3 V
1 3 V
1 3 V
6 3 V
1 3 V
6 3 V
0 3 V
1 3 V
6 3 V
0 3 V
1 2 V
6 3 V
0 3 V
1 3 V
6 3 V
0 2 V
1 3 V
1 3 V
6 2 V
0 3 V
1 3 V
6 2 V
0 3 V
1 2 V
6 3 V
0 3 V
1 2 V
6 3 V
0 2 V
1 3 V
1 2 V
5 3 V
1 2 V
1 3 V
6 2 V
0 2 V
1 3 V
1 2 V
5 3 V
0 -2375 V
% End plot #7
% Begin plot #8
2.000 UP
stroke
LTb
LT3
0.00 0.38 0.82 C 1270 1246 TriU
% End plot #8
% Begin plot #9
2.000 UP
1.000 UL
LTb
LT3
0.00 0.38 0.82 C LCb setrgbcolor
5600 153 M
[ [(Arial) 180.0 0.0 true true 0 (per-flow)]
] -60.0 MRshow
2.000 UP
1.000 UL
LTb
LT3
0.00 0.38 0.82 C 1270 1246 TriU
5874 153 TriU
% End plot #9
2.000 UL
LTb
LCb setrgbcolor
1.000 UP
1.000 UL
LTb
0.00 0.00 0.00 C stroke
grestore
end
showpage
%%Trailer
%%DocumentFonts: Arial
