%!PS-Adobe-2.0 EPSF-2.0
%%Title: TcpVeno-cwnd-1Mbps-UE8.eps
%%Creator: gnuplot 5.0 patchlevel 3
%%CreationDate: Tue May 24 14:35:37 2016
%%DocumentFonts: (atend)
%%BoundingBox: 50 50 410 302
%%EndComments
%%BeginProlog
/gnudict 256 dict def
gnudict begin
%
% The following true/false flags may be edited by hand if desired.
% The unit line width and grayscale image gamma correction may also be changed.
%
/Color true def
/Blacktext false def
/Solid false def
/Dashlength 3 def
/Landscape false def
/Level1 false def
/Level3 false def
/Rounded false def
/ClipToBoundingBox false def
/SuppressPDFMark false def
/TransparentPatterns false def
/gnulinewidth 15.000 def
/userlinewidth gnulinewidth def
/Gamma 1.0 def
/BackgroundColor {-1.000 -1.000 -1.000} def
%
/vshift -66 def
/dl1 {
  10.0 Dashlength userlinewidth gnulinewidth div mul mul mul
  Rounded { currentlinewidth 0.75 mul sub dup 0 le { pop 0.01 } if } if
} def
/dl2 {
  10.0 Dashlength userlinewidth gnulinewidth div mul mul mul
  Rounded { currentlinewidth 0.75 mul add } if
} def
/hpt_ 31.5 def
/vpt_ 31.5 def
/hpt hpt_ def
/vpt vpt_ def
/doclip {
  ClipToBoundingBox {
    newpath 50 50 moveto 410 50 lineto 410 302 lineto 50 302 lineto closepath
    clip
  } if
} def
%
% Gnuplot Prolog Version 5.1 (Oct 2015)
%
%/SuppressPDFMark true def
%
/M {moveto} bind def
/L {lineto} bind def
/R {rmoveto} bind def
/V {rlineto} bind def
/N {newpath moveto} bind def
/Z {closepath} bind def
/C {setrgbcolor} bind def
/f {rlineto fill} bind def
/g {setgray} bind def
/Gshow {show} def   % May be redefined later in the file to support UTF-8
/vpt2 vpt 2 mul def
/hpt2 hpt 2 mul def
/Lshow {currentpoint stroke M 0 vshift R 
	Blacktext {gsave 0 setgray textshow grestore} {textshow} ifelse} def
/Rshow {currentpoint stroke M dup stringwidth pop neg vshift R
	Blacktext {gsave 0 setgray textshow grestore} {textshow} ifelse} def
/Cshow {currentpoint stroke M dup stringwidth pop -2 div vshift R 
	Blacktext {gsave 0 setgray textshow grestore} {textshow} ifelse} def
/UP {dup vpt_ mul /vpt exch def hpt_ mul /hpt exch def
  /hpt2 hpt 2 mul def /vpt2 vpt 2 mul def} def
/DL {Color {setrgbcolor Solid {pop []} if 0 setdash}
 {pop pop pop 0 setgray Solid {pop []} if 0 setdash} ifelse} def
/BL {stroke userlinewidth 2 mul setlinewidth
	Rounded {1 setlinejoin 1 setlinecap} if} def
/AL {stroke userlinewidth 2 div setlinewidth
	Rounded {1 setlinejoin 1 setlinecap} if} def
/UL {dup gnulinewidth mul /userlinewidth exch def
	dup 1 lt {pop 1} if 10 mul /udl exch def} def
/PL {stroke userlinewidth setlinewidth
	Rounded {1 setlinejoin 1 setlinecap} if} def
3.8 setmiterlimit
% Classic Line colors (version 5.0)
/LCw {1 1 1} def
/LCb {0 0 0} def
/LCa {0 0 0} def
/LC0 {1 0 0} def
/LC1 {0 1 0} def
/LC2 {0 0 1} def
/LC3 {1 0 1} def
/LC4 {0 1 1} def
/LC5 {1 1 0} def
/LC6 {0 0 0} def
/LC7 {1 0.3 0} def
/LC8 {0.5 0.5 0.5} def
% Default dash patterns (version 5.0)
/LTB {BL [] LCb DL} def
/LTw {PL [] 1 setgray} def
/LTb {PL [] LCb DL} def
/LTa {AL [1 udl mul 2 udl mul] 0 setdash LCa setrgbcolor} def
/LT0 {PL [] LC0 DL} def
/LT1 {PL [2 dl1 3 dl2] LC1 DL} def
/LT2 {PL [1 dl1 1.5 dl2] LC2 DL} def
/LT3 {PL [6 dl1 2 dl2 1 dl1 2 dl2] LC3 DL} def
/LT4 {PL [1 dl1 2 dl2 6 dl1 2 dl2 1 dl1 2 dl2] LC4 DL} def
/LT5 {PL [4 dl1 2 dl2] LC5 DL} def
/LT6 {PL [1.5 dl1 1.5 dl2 1.5 dl1 1.5 dl2 1.5 dl1 6 dl2] LC6 DL} def
/LT7 {PL [3 dl1 3 dl2 1 dl1 3 dl2] LC7 DL} def
/LT8 {PL [2 dl1 2 dl2 2 dl1 6 dl2] LC8 DL} def
/SL {[] 0 setdash} def
/Pnt {stroke [] 0 setdash gsave 1 setlinecap M 0 0 V stroke grestore} def
/Dia {stroke [] 0 setdash 2 copy vpt add M
  hpt neg vpt neg V hpt vpt neg V
  hpt vpt V hpt neg vpt V closepath stroke
  Pnt} def
/Pls {stroke [] 0 setdash vpt sub M 0 vpt2 V
  currentpoint stroke M
  hpt neg vpt neg R hpt2 0 V stroke
 } def
/Box {stroke [] 0 setdash 2 copy exch hpt sub exch vpt add M
  0 vpt2 neg V hpt2 0 V 0 vpt2 V
  hpt2 neg 0 V closepath stroke
  Pnt} def
/Crs {stroke [] 0 setdash exch hpt sub exch vpt add M
  hpt2 vpt2 neg V currentpoint stroke M
  hpt2 neg 0 R hpt2 vpt2 V stroke} def
/TriU {stroke [] 0 setdash 2 copy vpt 1.12 mul add M
  hpt neg vpt -1.62 mul V
  hpt 2 mul 0 V
  hpt neg vpt 1.62 mul V closepath stroke
  Pnt} def
/Star {2 copy Pls Crs} def
/BoxF {stroke [] 0 setdash exch hpt sub exch vpt add M
  0 vpt2 neg V hpt2 0 V 0 vpt2 V
  hpt2 neg 0 V closepath fill} def
/TriUF {stroke [] 0 setdash vpt 1.12 mul add M
  hpt neg vpt -1.62 mul V
  hpt 2 mul 0 V
  hpt neg vpt 1.62 mul V closepath fill} def
/TriD {stroke [] 0 setdash 2 copy vpt 1.12 mul sub M
  hpt neg vpt 1.62 mul V
  hpt 2 mul 0 V
  hpt neg vpt -1.62 mul V closepath stroke
  Pnt} def
/TriDF {stroke [] 0 setdash vpt 1.12 mul sub M
  hpt neg vpt 1.62 mul V
  hpt 2 mul 0 V
  hpt neg vpt -1.62 mul V closepath fill} def
/DiaF {stroke [] 0 setdash vpt add M
  hpt neg vpt neg V hpt vpt neg V
  hpt vpt V hpt neg vpt V closepath fill} def
/Pent {stroke [] 0 setdash 2 copy gsave
  translate 0 hpt M 4 {72 rotate 0 hpt L} repeat
  closepath stroke grestore Pnt} def
/PentF {stroke [] 0 setdash gsave
  translate 0 hpt M 4 {72 rotate 0 hpt L} repeat
  closepath fill grestore} def
/Circle {stroke [] 0 setdash 2 copy
  hpt 0 360 arc stroke Pnt} def
/CircleF {stroke [] 0 setdash hpt 0 360 arc fill} def
/C0 {BL [] 0 setdash 2 copy moveto vpt 90 450 arc} bind def
/C1 {BL [] 0 setdash 2 copy moveto
	2 copy vpt 0 90 arc closepath fill
	vpt 0 360 arc closepath} bind def
/C2 {BL [] 0 setdash 2 copy moveto
	2 copy vpt 90 180 arc closepath fill
	vpt 0 360 arc closepath} bind def
/C3 {BL [] 0 setdash 2 copy moveto
	2 copy vpt 0 180 arc closepath fill
	vpt 0 360 arc closepath} bind def
/C4 {BL [] 0 setdash 2 copy moveto
	2 copy vpt 180 270 arc closepath fill
	vpt 0 360 arc closepath} bind def
/C5 {BL [] 0 setdash 2 copy moveto
	2 copy vpt 0 90 arc
	2 copy moveto
	2 copy vpt 180 270 arc closepath fill
	vpt 0 360 arc} bind def
/C6 {BL [] 0 setdash 2 copy moveto
	2 copy vpt 90 270 arc closepath fill
	vpt 0 360 arc closepath} bind def
/C7 {BL [] 0 setdash 2 copy moveto
	2 copy vpt 0 270 arc closepath fill
	vpt 0 360 arc closepath} bind def
/C8 {BL [] 0 setdash 2 copy moveto
	2 copy vpt 270 360 arc closepath fill
	vpt 0 360 arc closepath} bind def
/C9 {BL [] 0 setdash 2 copy moveto
	2 copy vpt 270 450 arc closepath fill
	vpt 0 360 arc closepath} bind def
/C10 {BL [] 0 setdash 2 copy 2 copy moveto vpt 270 360 arc closepath fill
	2 copy moveto
	2 copy vpt 90 180 arc closepath fill
	vpt 0 360 arc closepath} bind def
/C11 {BL [] 0 setdash 2 copy moveto
	2 copy vpt 0 180 arc closepath fill
	2 copy moveto
	2 copy vpt 270 360 arc closepath fill
	vpt 0 360 arc closepath} bind def
/C12 {BL [] 0 setdash 2 copy moveto
	2 copy vpt 180 360 arc closepath fill
	vpt 0 360 arc closepath} bind def
/C13 {BL [] 0 setdash 2 copy moveto
	2 copy vpt 0 90 arc closepath fill
	2 copy moveto
	2 copy vpt 180 360 arc closepath fill
	vpt 0 360 arc closepath} bind def
/C14 {BL [] 0 setdash 2 copy moveto
	2 copy vpt 90 360 arc closepath fill
	vpt 0 360 arc} bind def
/C15 {BL [] 0 setdash 2 copy vpt 0 360 arc closepath fill
	vpt 0 360 arc closepath} bind def
/Rec {newpath 4 2 roll moveto 1 index 0 rlineto 0 exch rlineto
	neg 0 rlineto closepath} bind def
/Square {dup Rec} bind def
/Bsquare {vpt sub exch vpt sub exch vpt2 Square} bind def
/S0 {BL [] 0 setdash 2 copy moveto 0 vpt rlineto BL Bsquare} bind def
/S1 {BL [] 0 setdash 2 copy vpt Square fill Bsquare} bind def
/S2 {BL [] 0 setdash 2 copy exch vpt sub exch vpt Square fill Bsquare} bind def
/S3 {BL [] 0 setdash 2 copy exch vpt sub exch vpt2 vpt Rec fill Bsquare} bind def
/S4 {BL [] 0 setdash 2 copy exch vpt sub exch vpt sub vpt Square fill Bsquare} bind def
/S5 {BL [] 0 setdash 2 copy 2 copy vpt Square fill
	exch vpt sub exch vpt sub vpt Square fill Bsquare} bind def
/S6 {BL [] 0 setdash 2 copy exch vpt sub exch vpt sub vpt vpt2 Rec fill Bsquare} bind def
/S7 {BL [] 0 setdash 2 copy exch vpt sub exch vpt sub vpt vpt2 Rec fill
	2 copy vpt Square fill Bsquare} bind def
/S8 {BL [] 0 setdash 2 copy vpt sub vpt Square fill Bsquare} bind def
/S9 {BL [] 0 setdash 2 copy vpt sub vpt vpt2 Rec fill Bsquare} bind def
/S10 {BL [] 0 setdash 2 copy vpt sub vpt Square fill 2 copy exch vpt sub exch vpt Square fill
	Bsquare} bind def
/S11 {BL [] 0 setdash 2 copy vpt sub vpt Square fill 2 copy exch vpt sub exch vpt2 vpt Rec fill
	Bsquare} bind def
/S12 {BL [] 0 setdash 2 copy exch vpt sub exch vpt sub vpt2 vpt Rec fill Bsquare} bind def
/S13 {BL [] 0 setdash 2 copy exch vpt sub exch vpt sub vpt2 vpt Rec fill
	2 copy vpt Square fill Bsquare} bind def
/S14 {BL [] 0 setdash 2 copy exch vpt sub exch vpt sub vpt2 vpt Rec fill
	2 copy exch vpt sub exch vpt Square fill Bsquare} bind def
/S15 {BL [] 0 setdash 2 copy Bsquare fill Bsquare} bind def
/D0 {gsave translate 45 rotate 0 0 S0 stroke grestore} bind def
/D1 {gsave translate 45 rotate 0 0 S1 stroke grestore} bind def
/D2 {gsave translate 45 rotate 0 0 S2 stroke grestore} bind def
/D3 {gsave translate 45 rotate 0 0 S3 stroke grestore} bind def
/D4 {gsave translate 45 rotate 0 0 S4 stroke grestore} bind def
/D5 {gsave translate 45 rotate 0 0 S5 stroke grestore} bind def
/D6 {gsave translate 45 rotate 0 0 S6 stroke grestore} bind def
/D7 {gsave translate 45 rotate 0 0 S7 stroke grestore} bind def
/D8 {gsave translate 45 rotate 0 0 S8 stroke grestore} bind def
/D9 {gsave translate 45 rotate 0 0 S9 stroke grestore} bind def
/D10 {gsave translate 45 rotate 0 0 S10 stroke grestore} bind def
/D11 {gsave translate 45 rotate 0 0 S11 stroke grestore} bind def
/D12 {gsave translate 45 rotate 0 0 S12 stroke grestore} bind def
/D13 {gsave translate 45 rotate 0 0 S13 stroke grestore} bind def
/D14 {gsave translate 45 rotate 0 0 S14 stroke grestore} bind def
/D15 {gsave translate 45 rotate 0 0 S15 stroke grestore} bind def
/DiaE {stroke [] 0 setdash vpt add M
  hpt neg vpt neg V hpt vpt neg V
  hpt vpt V hpt neg vpt V closepath stroke} def
/BoxE {stroke [] 0 setdash exch hpt sub exch vpt add M
  0 vpt2 neg V hpt2 0 V 0 vpt2 V
  hpt2 neg 0 V closepath stroke} def
/TriUE {stroke [] 0 setdash vpt 1.12 mul add M
  hpt neg vpt -1.62 mul V
  hpt 2 mul 0 V
  hpt neg vpt 1.62 mul V closepath stroke} def
/TriDE {stroke [] 0 setdash vpt 1.12 mul sub M
  hpt neg vpt 1.62 mul V
  hpt 2 mul 0 V
  hpt neg vpt -1.62 mul V closepath stroke} def
/PentE {stroke [] 0 setdash gsave
  translate 0 hpt M 4 {72 rotate 0 hpt L} repeat
  closepath stroke grestore} def
/CircE {stroke [] 0 setdash 
  hpt 0 360 arc stroke} def
/Opaque {gsave closepath 1 setgray fill grestore 0 setgray closepath} def
/DiaW {stroke [] 0 setdash vpt add M
  hpt neg vpt neg V hpt vpt neg V
  hpt vpt V hpt neg vpt V Opaque stroke} def
/BoxW {stroke [] 0 setdash exch hpt sub exch vpt add M
  0 vpt2 neg V hpt2 0 V 0 vpt2 V
  hpt2 neg 0 V Opaque stroke} def
/TriUW {stroke [] 0 setdash vpt 1.12 mul add M
  hpt neg vpt -1.62 mul V
  hpt 2 mul 0 V
  hpt neg vpt 1.62 mul V Opaque stroke} def
/TriDW {stroke [] 0 setdash vpt 1.12 mul sub M
  hpt neg vpt 1.62 mul V
  hpt 2 mul 0 V
  hpt neg vpt -1.62 mul V Opaque stroke} def
/PentW {stroke [] 0 setdash gsave
  translate 0 hpt M 4 {72 rotate 0 hpt L} repeat
  Opaque stroke grestore} def
/CircW {stroke [] 0 setdash 
  hpt 0 360 arc Opaque stroke} def
/BoxFill {gsave Rec 1 setgray fill grestore} def
/Density {
  /Fillden exch def
  currentrgbcolor
  /ColB exch def /ColG exch def /ColR exch def
  /ColR ColR Fillden mul Fillden sub 1 add def
  /ColG ColG Fillden mul Fillden sub 1 add def
  /ColB ColB Fillden mul Fillden sub 1 add def
  ColR ColG ColB setrgbcolor} def
/BoxColFill {gsave Rec PolyFill} def
/PolyFill {gsave Density fill grestore grestore} def
/h {rlineto rlineto rlineto gsave closepath fill grestore} bind def
%
% PostScript Level 1 Pattern Fill routine for rectangles
% Usage: x y w h s a XX PatternFill
%	x,y = lower left corner of box to be filled
%	w,h = width and height of box
%	  a = angle in degrees between lines and x-axis
%	 XX = 0/1 for no/yes cross-hatch
%
/PatternFill {gsave /PFa [ 9 2 roll ] def
  PFa 0 get PFa 2 get 2 div add PFa 1 get PFa 3 get 2 div add translate
  PFa 2 get -2 div PFa 3 get -2 div PFa 2 get PFa 3 get Rec
  TransparentPatterns {} {gsave 1 setgray fill grestore} ifelse
  clip
  currentlinewidth 0.5 mul setlinewidth
  /PFs PFa 2 get dup mul PFa 3 get dup mul add sqrt def
  0 0 M PFa 5 get rotate PFs -2 div dup translate
  0 1 PFs PFa 4 get div 1 add floor cvi
	{PFa 4 get mul 0 M 0 PFs V} for
  0 PFa 6 get ne {
	0 1 PFs PFa 4 get div 1 add floor cvi
	{PFa 4 get mul 0 2 1 roll M PFs 0 V} for
 } if
  stroke grestore} def
%
/languagelevel where
 {pop languagelevel} {1} ifelse
dup 2 lt
	{/InterpretLevel1 true def
	 /InterpretLevel3 false def}
	{/InterpretLevel1 Level1 def
	 2 gt
	    {/InterpretLevel3 Level3 def}
	    {/InterpretLevel3 false def}
	 ifelse }
 ifelse
%
% PostScript level 2 pattern fill definitions
%
/Level2PatternFill {
/Tile8x8 {/PaintType 2 /PatternType 1 /TilingType 1 /BBox [0 0 8 8] /XStep 8 /YStep 8}
	bind def
/KeepColor {currentrgbcolor [/Pattern /DeviceRGB] setcolorspace} bind def
<< Tile8x8
 /PaintProc {0.5 setlinewidth pop 0 0 M 8 8 L 0 8 M 8 0 L stroke} 
>> matrix makepattern
/Pat1 exch def
<< Tile8x8
 /PaintProc {0.5 setlinewidth pop 0 0 M 8 8 L 0 8 M 8 0 L stroke
	0 4 M 4 8 L 8 4 L 4 0 L 0 4 L stroke}
>> matrix makepattern
/Pat2 exch def
<< Tile8x8
 /PaintProc {0.5 setlinewidth pop 0 0 M 0 8 L
	8 8 L 8 0 L 0 0 L fill}
>> matrix makepattern
/Pat3 exch def
<< Tile8x8
 /PaintProc {0.5 setlinewidth pop -4 8 M 8 -4 L
	0 12 M 12 0 L stroke}
>> matrix makepattern
/Pat4 exch def
<< Tile8x8
 /PaintProc {0.5 setlinewidth pop -4 0 M 8 12 L
	0 -4 M 12 8 L stroke}
>> matrix makepattern
/Pat5 exch def
<< Tile8x8
 /PaintProc {0.5 setlinewidth pop -2 8 M 4 -4 L
	0 12 M 8 -4 L 4 12 M 10 0 L stroke}
>> matrix makepattern
/Pat6 exch def
<< Tile8x8
 /PaintProc {0.5 setlinewidth pop -2 0 M 4 12 L
	0 -4 M 8 12 L 4 -4 M 10 8 L stroke}
>> matrix makepattern
/Pat7 exch def
<< Tile8x8
 /PaintProc {0.5 setlinewidth pop 8 -2 M -4 4 L
	12 0 M -4 8 L 12 4 M 0 10 L stroke}
>> matrix makepattern
/Pat8 exch def
<< Tile8x8
 /PaintProc {0.5 setlinewidth pop 0 -2 M 12 4 L
	-4 0 M 12 8 L -4 4 M 8 10 L stroke}
>> matrix makepattern
/Pat9 exch def
/Pattern1 {PatternBgnd KeepColor Pat1 setpattern} bind def
/Pattern2 {PatternBgnd KeepColor Pat2 setpattern} bind def
/Pattern3 {PatternBgnd KeepColor Pat3 setpattern} bind def
/Pattern4 {PatternBgnd KeepColor Landscape {Pat5} {Pat4} ifelse setpattern} bind def
/Pattern5 {PatternBgnd KeepColor Landscape {Pat4} {Pat5} ifelse setpattern} bind def
/Pattern6 {PatternBgnd KeepColor Landscape {Pat9} {Pat6} ifelse setpattern} bind def
/Pattern7 {PatternBgnd KeepColor Landscape {Pat8} {Pat7} ifelse setpattern} bind def
} def
%
%
%End of PostScript Level 2 code
%
/PatternBgnd {
  TransparentPatterns {} {gsave 1 setgray fill grestore} ifelse
} def
%
% Substitute for Level 2 pattern fill codes with
% grayscale if Level 2 support is not selected.
%
/Level1PatternFill {
/Pattern1 {0.250 Density} bind def
/Pattern2 {0.500 Density} bind def
/Pattern3 {0.750 Density} bind def
/Pattern4 {0.125 Density} bind def
/Pattern5 {0.375 Density} bind def
/Pattern6 {0.625 Density} bind def
/Pattern7 {0.875 Density} bind def
} def
%
% Now test for support of Level 2 code
%
Level1 {Level1PatternFill} {Level2PatternFill} ifelse
%
/Symbol-Oblique /Symbol findfont [1 0 .167 1 0 0] makefont
dup length dict begin {1 index /FID eq {pop pop} {def} ifelse} forall
currentdict end definefont pop
%
/MFshow {
   { dup 5 get 3 ge
     { 5 get 3 eq {gsave} {grestore} ifelse }
     {dup dup 0 get findfont exch 1 get scalefont setfont
     [ currentpoint ] exch dup 2 get 0 exch R dup 5 get 2 ne {dup dup 6
     get exch 4 get {textshow} {stringwidth pop 0 R} ifelse }if dup 5 get 0 eq
     {dup 3 get {2 get neg 0 exch R pop} {pop aload pop M} ifelse} {dup 5
     get 1 eq {dup 2 get exch dup 3 get exch 6 get stringwidth pop -2 div
     dup 0 R} {dup 6 get stringwidth pop -2 div 0 R 6 get
     textshow 2 index {aload pop M neg 3 -1 roll neg R pop pop} {pop pop pop
     pop aload pop M} ifelse }ifelse }ifelse }
     ifelse }
   forall} def
/Gswidth {dup type /stringtype eq {stringwidth} {pop (n) stringwidth} ifelse} def
/MFwidth {0 exch { dup 5 get 3 ge { 5 get 3 eq { 0 } { pop } ifelse }
 {dup 3 get{dup dup 0 get findfont exch 1 get scalefont setfont
     6 get Gswidth pop add} {pop} ifelse} ifelse} forall} def
/MLshow { currentpoint stroke M
  0 exch R
  Blacktext {gsave 0 setgray MFshow grestore} {MFshow} ifelse } bind def
/MRshow { currentpoint stroke M
  exch dup MFwidth neg 3 -1 roll R
  Blacktext {gsave 0 setgray MFshow grestore} {MFshow} ifelse } bind def
/MCshow { currentpoint stroke M
  exch dup MFwidth -2 div 3 -1 roll R
  Blacktext {gsave 0 setgray MFshow grestore} {MFshow} ifelse } bind def
/XYsave    { [( ) 1 2 true false 3 ()] } bind def
/XYrestore { [( ) 1 2 true false 4 ()] } bind def
Level1 SuppressPDFMark or 
{} {
/SDict 10 dict def
systemdict /pdfmark known not {
  userdict /pdfmark systemdict /cleartomark get put
} if
SDict begin [
  /Title (TcpVeno-cwnd-1Mbps-UE8.eps)
  /Subject (gnuplot plot)
  /Creator (gnuplot 5.0 patchlevel 3)
  /Author (nat)
%  /Producer (gnuplot)
%  /Keywords ()
  /CreationDate (Tue May 24 14:35:37 2016)
  /DOCINFO pdfmark
end
} ifelse
%
% Support for boxed text - Ethan A Merritt May 2005
%
/InitTextBox { userdict /TBy2 3 -1 roll put userdict /TBx2 3 -1 roll put
           userdict /TBy1 3 -1 roll put userdict /TBx1 3 -1 roll put
	   /Boxing true def } def
/ExtendTextBox { Boxing
    { gsave dup false charpath pathbbox
      dup TBy2 gt {userdict /TBy2 3 -1 roll put} {pop} ifelse
      dup TBx2 gt {userdict /TBx2 3 -1 roll put} {pop} ifelse
      dup TBy1 lt {userdict /TBy1 3 -1 roll put} {pop} ifelse
      dup TBx1 lt {userdict /TBx1 3 -1 roll put} {pop} ifelse
      grestore } if } def
/PopTextBox { newpath TBx1 TBxmargin sub TBy1 TBymargin sub M
               TBx1 TBxmargin sub TBy2 TBymargin add L
	       TBx2 TBxmargin add TBy2 TBymargin add L
	       TBx2 TBxmargin add TBy1 TBymargin sub L closepath } def
/DrawTextBox { PopTextBox stroke /Boxing false def} def
/FillTextBox { gsave PopTextBox 1 1 1 setrgbcolor fill grestore /Boxing false def} def
0 0 0 0 InitTextBox
/TBxmargin 20 def
/TBymargin 20 def
/Boxing false def
/textshow { ExtendTextBox Gshow } def
%
% redundant definitions for compatibility with prologue.ps older than 5.0.2
/LTB {BL [] LCb DL} def
/LTb {PL [] LCb DL} def
end
%%EndProlog
%%Page: 1 1
gnudict begin
gsave
doclip
50 50 translate
0.050 0.050 scale
0 setgray
newpath
(Arial) findfont 200 scalefont setfont
BackgroundColor 0 lt 3 1 roll 0 lt exch 0 lt or or not {BackgroundColor C 1.000 0 0 7200.00 5040.00 BoxColFill} if
1.000 UL
LTb
0.00 0.00 0.00 C 0.500 UL
LTa
0.50 0.50 0.50 C 1340 820 M
5499 0 V
stroke
1.000 UL
LTb
0.00 0.00 0.00 C 1340 820 M
63 0 V
5436 0 R
-63 0 V
stroke
1220 820 M
[ [(Arial) 200.0 0.0 true true 0 ( 0.1)]
] -66.7 MRshow
1.000 UL
LTb
0.00 0.00 0.00 C 1340 1020 M
31 0 V
5468 0 R
-31 0 V
1340 1284 M
31 0 V
5468 0 R
-31 0 V
1340 1419 M
31 0 V
5468 0 R
-31 0 V
stroke
0.500 UL
LTa
0.50 0.50 0.50 C 1340 1483 M
5499 0 V
stroke
1.000 UL
LTb
0.00 0.00 0.00 C 1340 1483 M
63 0 V
5436 0 R
-63 0 V
stroke
1220 1483 M
[ [(Arial) 200.0 0.0 true true 0 ( 1)]
] -66.7 MRshow
1.000 UL
LTb
0.00 0.00 0.00 C 1340 1683 M
31 0 V
5468 0 R
-31 0 V
1340 1947 M
31 0 V
5468 0 R
-31 0 V
1340 2082 M
31 0 V
5468 0 R
-31 0 V
stroke
0.500 UL
LTa
0.50 0.50 0.50 C 1340 2146 M
5499 0 V
stroke
1.000 UL
LTb
0.00 0.00 0.00 C 1340 2146 M
63 0 V
5436 0 R
-63 0 V
stroke
1220 2146 M
[ [(Arial) 200.0 0.0 true true 0 ( 10)]
] -66.7 MRshow
1.000 UL
LTb
0.00 0.00 0.00 C 1340 2346 M
31 0 V
5468 0 R
-31 0 V
1340 2610 M
31 0 V
5468 0 R
-31 0 V
1340 2745 M
31 0 V
5468 0 R
-31 0 V
stroke
0.500 UL
LTa
0.50 0.50 0.50 C 1340 2810 M
5499 0 V
stroke
1.000 UL
LTb
0.00 0.00 0.00 C 1340 2810 M
63 0 V
5436 0 R
-63 0 V
stroke
1220 2810 M
[ [(Arial) 200.0 0.0 true true 0 ( 100)]
] -66.7 MRshow
1.000 UL
LTb
0.00 0.00 0.00 C 1340 3009 M
31 0 V
5468 0 R
-31 0 V
1340 3273 M
31 0 V
5468 0 R
-31 0 V
1340 3408 M
31 0 V
5468 0 R
-31 0 V
stroke
0.500 UL
LTa
0.50 0.50 0.50 C 1340 3473 M
5499 0 V
stroke
1.000 UL
LTb
0.00 0.00 0.00 C 1340 3473 M
63 0 V
5436 0 R
-63 0 V
stroke
1220 3473 M
[ [(Arial) 200.0 0.0 true true 0 ( 1000)]
] -66.7 MRshow
1.000 UL
LTb
0.00 0.00 0.00 C 1340 3672 M
31 0 V
5468 0 R
-31 0 V
1340 3936 M
31 0 V
5468 0 R
-31 0 V
1340 4072 M
31 0 V
5468 0 R
-31 0 V
stroke
0.500 UL
LTa
0.50 0.50 0.50 C 1340 4136 M
5499 0 V
stroke
1.000 UL
LTb
0.00 0.00 0.00 C 1340 4136 M
63 0 V
5436 0 R
-63 0 V
stroke
1220 4136 M
[ [(Arial) 200.0 0.0 true true 0 ( 10000)]
] -66.7 MRshow
1.000 UL
LTb
0.00 0.00 0.00 C 1340 4335 M
31 0 V
5468 0 R
-31 0 V
1340 4599 M
31 0 V
5468 0 R
-31 0 V
1340 4735 M
31 0 V
5468 0 R
-31 0 V
stroke
0.500 UL
LTa
0.50 0.50 0.50 C 1340 4799 M
5499 0 V
stroke
1.000 UL
LTb
0.00 0.00 0.00 C 1340 4799 M
63 0 V
5436 0 R
-63 0 V
stroke
1220 4799 M
[ [(Arial) 200.0 0.0 true true 0 ( 100000)]
] -66.7 MRshow
1.000 UL
LTb
0.00 0.00 0.00 C 0.500 UL
LTa
0.50 0.50 0.50 C 1840 820 M
0 3979 V
stroke
1.000 UL
LTb
0.00 0.00 0.00 C 1840 820 M
0 63 V
0 3916 R
0 -63 V
stroke
1840 620 M
[ [(Arial) 200.0 0.0 true true 0 ( 10)]
] -66.7 MCshow
1.000 UL
LTb
0.00 0.00 0.00 C 0.500 UL
LTa
0.50 0.50 0.50 C 2673 820 M
0 3979 V
stroke
1.000 UL
LTb
0.00 0.00 0.00 C 2673 820 M
0 63 V
0 3916 R
0 -63 V
stroke
2673 620 M
[ [(Arial) 200.0 0.0 true true 0 ( 20)]
] -66.7 MCshow
1.000 UL
LTb
0.00 0.00 0.00 C 0.500 UL
LTa
0.50 0.50 0.50 C 3506 820 M
0 3979 V
stroke
1.000 UL
LTb
0.00 0.00 0.00 C 3506 820 M
0 63 V
0 3916 R
0 -63 V
stroke
3506 620 M
[ [(Arial) 200.0 0.0 true true 0 ( 30)]
] -66.7 MCshow
1.000 UL
LTb
0.00 0.00 0.00 C 0.500 UL
LTa
0.50 0.50 0.50 C 4339 820 M
0 3979 V
stroke
1.000 UL
LTb
0.00 0.00 0.00 C 4339 820 M
0 63 V
0 3916 R
0 -63 V
stroke
4339 620 M
[ [(Arial) 200.0 0.0 true true 0 ( 40)]
] -66.7 MCshow
1.000 UL
LTb
0.00 0.00 0.00 C 0.500 UL
LTa
0.50 0.50 0.50 C 5173 820 M
0 3979 V
stroke
1.000 UL
LTb
0.00 0.00 0.00 C 5173 820 M
0 63 V
0 3916 R
0 -63 V
stroke
5173 620 M
[ [(Arial) 200.0 0.0 true true 0 ( 50)]
] -66.7 MCshow
1.000 UL
LTb
0.00 0.00 0.00 C 0.500 UL
LTa
0.50 0.50 0.50 C 6006 820 M
0 3979 V
stroke
1.000 UL
LTb
0.00 0.00 0.00 C 6006 820 M
0 63 V
0 3916 R
0 -63 V
stroke
6006 620 M
[ [(Arial) 200.0 0.0 true true 0 ( 60)]
] -66.7 MCshow
1.000 UL
LTb
0.00 0.00 0.00 C 0.500 UL
LTa
0.50 0.50 0.50 C 6839 820 M
0 3979 V
stroke
1.000 UL
LTb
0.00 0.00 0.00 C 6839 820 M
0 63 V
0 3916 R
0 -63 V
stroke
6839 620 M
[ [(Arial) 200.0 0.0 true true 0 ( 70)]
] -66.7 MCshow
1.000 UL
LTb
0.00 0.00 0.00 C 1.000 UL
LTB
0.00 0.00 0.00 C 1340 4799 M
0 -3979 V
5499 0 V
0 3979 R
-5499 0 R
1.000 UP
stroke
LTb
0.00 0.00 0.00 C LCb setrgbcolor
160 2809 M
currentpoint gsave translate -270 rotate 0 0 moveto
[ [(Arial) 200.0 0.0 true true 0 (cWnd \(KB\))]
] -66.7 MCshow
grestore
LTb
LCb setrgbcolor
4089 320 M
[ [(Arial) 200.0 0.0 true true 0 (Time \(s\))]
] -66.7 MCshow
LTb
% Begin plot #1
1.000 UL
LTa
0.60 0.60 0.00 C 2128 1767 M
5 117 V
5 83 V
4 64 V
0 53 V
5 44 V
0 38 V
0 34 V
5 31 V
0 27 V
0 25 V
0 23 V
4 22 V
0 19 V
0 19 V
0 17 V
0 17 V
0 15 V
30 15 V
5 14 V
0 14 V
0 13 V
0 12 V
0 12 V
0 11 V
0 11 V
0 10 V
0 10 V
0 10 V
5 9 V
0 10 V
0 8 V
0 9 V
0 8 V
0 9 V
0 7 V
0 8 V
0 8 V
0 7 V
0 7 V
0 7 V
0 7 V
0 6 V
0 7 V
5 6 V
0 6 V
0 6 V
0 6 V
0 6 V
0 6 V
0 5 V
0 6 V
0 5 V
0 6 V
0 5 V
0 5 V
0 5 V
0 5 V
0 5 V
0 4 V
0 5 V
0 5 V
0 4 V
0 5 V
0 4 V
0 4 V
5 5 V
0 4 V
0 4 V
0 4 V
0 4 V
0 4 V
0 4 V
0 4 V
0 4 V
0 4 V
0 3 V
0 4 V
0 4 V
0 3 V
0 4 V
0 3 V
0 4 V
0 3 V
0 3 V
0 4 V
0 3 V
0 3 V
0 3 V
0 4 V
0 3 V
0 3 V
0 3 V
0 3 V
1 3 V
0 3 V
0 3 V
0 3 V
0 3 V
4 3 V
0 2 V
0 3 V
0 3 V
0 3 V
0 3 V
stroke 2211 2911 M
0 2 V
0 3 V
0 3 V
0 2 V
0 3 V
0 2 V
0 3 V
0 3 V
0 2 V
0 3 V
0 2 V
0 2 V
0 3 V
0 2 V
0 3 V
0 2 V
0 2 V
0 3 V
0 2 V
0 2 V
0 3 V
1 2 V
9 2 V
0 2 V
0 3 V
0 2 V
0 2 V
0 2 V
0 2 V
0 2 V
0 2 V
0 3 V
0 2 V
0 2 V
0 2 V
0 2 V
0 2 V
0 2 V
0 2 V
0 2 V
0 2 V
0 2 V
0 2 V
0 2 V
0 1 V
0 2 V
0 2 V
0 2 V
0 2 V
0 2 V
0 2 V
0 2 V
0 1 V
0 2 V
0 2 V
0 2 V
0 2 V
0 1 V
0 2 V
0 2 V
0 1 V
0 2 V
0 2 V
0 2 V
0 1 V
0 2 V
0 2 V
0 1 V
0 2 V
0 2 V
0 1 V
0 2 V
0 1 V
0 2 V
0 2 V
0 1 V
0 2 V
0 1 V
0 2 V
0 2 V
0 1 V
0 2 V
0 1 V
0 2 V
5 1 V
0 2 V
0 1 V
0 2 V
0 1 V
0 2 V
0 1 V
0 2 V
0 1 V
0 1 V
0 2 V
0 1 V
0 2 V
0 1 V
0 2 V
0 1 V
0 1 V
0 2 V
0 1 V
0 1 V
stroke 2226 3107 M
0 2 V
0 1 V
0 2 V
0 1 V
0 1 V
0 2 V
0 1 V
0 1 V
0 2 V
0 1 V
1 1 V
0 1 V
0 2 V
0 1 V
0 1 V
0 2 V
0 1 V
0 1 V
0 1 V
0 2 V
0 1 V
0 1 V
0 1 V
0 2 V
0 1 V
0 1 V
0 1 V
0 2 V
0 1 V
0 -194 V
0 2 V
1 3 V
0 2 V
0 2 V
0 3 V
3 2 V
0 2 V
0 2 V
0 3 V
0 2 V
0 2 V
0 2 V
0 2 V
0 2 V
0 2 V
0 3 V
0 2 V
0 2 V
0 2 V
0 2 V
0 2 V
0 2 V
0 2 V
0 2 V
0 2 V
0 2 V
0 2 V
0 2 V
0 1 V
0 2 V
0 2 V
0 2 V
0 2 V
0 2 V
0 2 V
0 2 V
0 1 V
0 2 V
0 2 V
0 2 V
0 2 V
0 1 V
0 2 V
0 2 V
0 1 V
0 2 V
0 2 V
0 2 V
0 1 V
0 2 V
0 2 V
0 1 V
0 2 V
0 2 V
0 1 V
0 2 V
0 1 V
0 2 V
0 2 V
0 1 V
0 2 V
0 1 V
0 2 V
0 2 V
0 1 V
0 2 V
0 1 V
0 2 V
0 1 V
0 2 V
0 1 V
0 2 V
0 1 V
10 2 V
stroke 2241 3088 M
0 1 V
0 2 V
0 1 V
0 1 V
0 2 V
0 1 V
0 2 V
0 1 V
0 2 V
0 1 V
0 1 V
0 2 V
0 1 V
0 1 V
0 2 V
0 1 V
0 2 V
0 1 V
0 1 V
0 2 V
0 1 V
0 1 V
0 2 V
0 1 V
0 1 V
0 1 V
0 2 V
0 1 V
0 1 V
0 2 V
0 1 V
0 1 V
0 1 V
0 2 V
0 1 V
0 1 V
0 1 V
0 2 V
0 1 V
0 1 V
0 1 V
0 2 V
0 1 V
0 -1 V
0 1 V
4 -1 V
0 1 V
5 -1 V
0 1 V
5 -1 V
0 1 V
0 1 V
5 -1 V
0 1 V
0 1 V
0 1 V
4 -2 V
0 1 V
0 1 V
0 2 V
0 1 V
5 -1 V
0 1 V
0 1 V
0 1 V
0 1 V
0 1 V
5 -1 V
0 1 V
0 2 V
0 1 V
0 1 V
0 1 V
0 1 V
5 -1 V
0 1 V
0 1 V
0 1 V
0 2 V
0 1 V
0 1 V
0 1 V
5 -1 V
0 1 V
0 1 V
0 1 V
0 1 V
0 1 V
0 1 V
0 1 V
0 2 V
4 -2 V
0 2 V
0 1 V
0 1 V
0 1 V
0 1 V
0 1 V
1 1 V
0 1 V
0 1 V
35 -1617 V
13 200 V
5 117 V
stroke 2342 1884 M
0 83 V
5 64 V
0 53 V
0 44 V
5 38 V
0 34 V
0 31 V
0 27 V
0 25 V
0 23 V
0 22 V
5 19 V
0 19 V
0 17 V
0 17 V
0 15 V
0 15 V
0 14 V
0 14 V
0 13 V
0 12 V
0 12 V
0 11 V
83 -939 V
13 200 V
4 117 V
0 83 V
5 64 V
0 53 V
0 44 V
0 38 V
5 34 V
0 31 V
0 27 V
0 25 V
0 23 V
0 2 V
5 2 V
0 1 V
0 2 V
0 1 V
0 2 V
0 2 V
5 -118 V
0 31 V
0 27 V
0 25 V
0 23 V
0 22 V
0 19 V
0 19 V
0 17 V
0 17 V
0 -34 V
0 17 V
0 -36 V
0 19 V
0 -38 V
0 19 V
0 -41 V
0 22 V
0 -45 V
0 23 V
0 -48 V
0 25 V
0 -52 V
0 27 V
5 -174 V
0 7 V
0 8 V
0 7 V
0 7 V
0 6 V
0 6 V
0 6 V
0 6 V
5 5 V
0 6 V
0 5 V
5 5 V
0 4 V
0 5 V
4 4 V
0 5 V
0 4 V
0 4 V
5 4 V
0 4 V
0 3 V
0 4 V
5 4 V
0 3 V
0 3 V
0 4 V
5 3 V
0 3 V
0 3 V
0 3 V
4 3 V
0 3 V
0 3 V
0 3 V
84 -670 V
13 200 V
stroke 2612 1767 M
5 117 V
4 83 V
5 64 V
0 53 V
4 44 V
0 38 V
0 5 V
84 -604 V
13 200 V
4 117 V
5 83 V
5 64 V
0 53 V
5 44 V
0 6 V
0 5 V
5 6 V
0 5 V
0 5 V
5 5 V
0 4 V
0 5 V
5 4 V
0 4 V
0 5 V
0 4 V
4 3 V
0 4 V
0 4 V
0 4 V
5 3 V
0 3 V
0 4 V
0 3 V
4 3 V
0 3 V
0 4 V
0 3 V
5 2 V
0 3 V
0 3 V
0 3 V
5 3 V
0 2 V
0 3 V
0 2 V
0 3 V
5 2 V
0 3 V
0 2 V
0 3 V
0 2 V
4 2 V
0 2 V
0 3 V
0 2 V
0 2 V
5 2 V
0 2 V
0 2 V
0 2 V
0 2 V
5 2 V
0 2 V
0 2 V
0 2 V
0 2 V
0 2 V
83 -729 V
13 200 V
5 117 V
4 83 V
5 64 V
0 53 V
4 44 V
0 38 V
0 34 V
5 31 V
0 2 V
0 3 V
0 3 V
5 3 V
0 2 V
0 3 V
0 3 V
0 2 V
5 2 V
0 3 V
0 2 V
0 3 V
0 2 V
4 2 V
0 2 V
0 3 V
0 2 V
0 2 V
4 2 V
0 2 V
0 2 V
2 2 V
0 2 V
3 2 V
0 2 V
0 2 V
stroke 2945 2291 M
2 2 V
0 2 V
0 1 V
3 2 V
0 2 V
0 2 V
2 2 V
0 1 V
0 2 V
2 2 V
0 1 V
0 2 V
2 2 V
0 1 V
0 2 V
3 1 V
0 2 V
0 1 V
1 2 V
0 2 V
0 1 V
3 1 V
0 2 V
0 1 V
2 2 V
0 1 V
0 2 V
13 1 V
0 1 V
4 2 V
0 1 V
0 1 V
4 2 V
0 1 V
0 1 V
0 2 V
0 1 V
0 1 V
3 1 V
2 2 V
0 1 V
0 1 V
0 1 V
0 2 V
0 1 V
3 1 V
1 1 V
0 1 V
0 1 V
0 2 V
0 1 V
0 1 V
4 1 V
13 1 V
4 1 V
0 1 V
0 1 V
0 1 V
0 1 V
5 2 V
0 1 V
0 1 V
0 1 V
0 1 V
0 1 V
0 1 V
0 1 V
5 1 V
0 1 V
0 1 V
0 1 V
0 1 V
0 1 V
0 1 V
0 1 V
4 1 V
0 1 V
0 1 V
0 1 V
0 1 V
0 1 V
0 1 V
4 1 V
0 1 V
0 1 V
0 1 V
0 1 V
0 1 V
0 1 V
4 1 V
0 1 V
0 1 V
0 1 V
0 1 V
0 1 V
0 1 V
0 1 V
5 0 V
0 1 V
0 1 V
0 1 V
0 1 V
0 1 V
0 1 V
stroke 3043 2418 M
0 1 V
34 0 V
0 1 V
0 1 V
0 1 V
0 1 V
5 0 V
0 1 V
0 1 V
0 1 V
4 1 V
0 1 V
0 1 V
0 1 V
0 1 V
4 1 V
0 1 V
0 1 V
0 1 V
0 1 V
0 1 V
0 1 V
4 0 V
0 1 V
0 1 V
0 1 V
0 1 V
0 1 V
0 1 V
5 1 V
0 1 V
0 1 V
0 1 V
1 1 V
0 1 V
0 1 V
4 0 V
0 1 V
0 1 V
0 1 V
13 1 V
0 1 V
5 1 V
0 1 V
0 1 V
83 -892 V
12 200 V
5 117 V
5 83 V
4 64 V
0 53 V
4 44 V
0 38 V
0 34 V
5 31 V
0 27 V
0 2 V
0 3 V
5 2 V
0 2 V
0 2 V
0 3 V
5 2 V
0 2 V
0 2 V
4 2 V
0 2 V
0 2 V
0 2 V
5 2 V
0 2 V
0 2 V
0 2 V
4 2 V
0 1 V
0 2 V
0 2 V
0 2 V
0 1 V
4 2 V
0 2 V
0 1 V
0 2 V
0 2 V
0 1 V
4 2 V
0 2 V
0 1 V
0 2 V
0 1 V
0 2 V
5 1 V
0 2 V
0 1 V
0 2 V
0 1 V
0 1 V
5 2 V
0 1 V
0 2 V
0 1 V
0 1 V
4 2 V
0 1 V
stroke 3285 2342 M
0 1 V
0 2 V
0 1 V
0 1 V
0 2 V
5 1 V
0 1 V
0 1 V
0 2 V
0 1 V
0 1 V
0 1 V
4 1 V
0 2 V
0 1 V
0 1 V
0 1 V
0 1 V
0 1 V
4 1 V
0 1 V
1 2 V
0 1 V
0 1 V
0 1 V
3 1 V
0 1 V
2 1 V
0 1 V
0 1 V
0 1 V
12 1 V
4 1 V
0 1 V
0 1 V
0 1 V
0 1 V
0 1 V
5 1 V
0 1 V
0 1 V
0 1 V
0 1 V
0 1 V
0 1 V
0 1 V
4 1 V
0 1 V
0 1 V
0 1 V
0 1 V
0 1 V
0 1 V
5 1 V
0 1 V
0 1 V
0 1 V
0 1 V
0 1 V
4 1 V
0 1 V
0 1 V
0 1 V
0 1 V
0 1 V
0 1 V
0 1 V
4 0 V
0 1 V
0 1 V
0 1 V
0 1 V
0 1 V
0 1 V
0 1 V
34 0 V
0 1 V
0 1 V
0 1 V
5 1 V
0 1 V
0 1 V
0 1 V
0 1 V
4 1 V
0 1 V
0 1 V
0 1 V
0 1 V
5 0 V
0 1 V
0 1 V
0 1 V
5 1 V
0 1 V
0 1 V
0 1 V
0 1 V
0 1 V
0 1 V
4 1 V
0 1 V
0 1 V
0 1 V
stroke 3399 2448 M
0 1 V
0 1 V
4 1 V
0 1 V
0 1 V
0 1 V
0 1 V
0 1 V
4 1 V
0 1 V
0 1 V
0 1 V
0 1 V
0 1 V
5 1 V
0 1 V
0 1 V
0 1 V
0 1 V
0 1 V
4 0 V
0 1 V
0 1 V
0 1 V
0 1 V
0 1 V
0 1 V
4 0 V
0 1 V
0 1 V
0 1 V
0 1 V
0 1 V
4 1 V
0 1 V
0 1 V
0 1 V
0 1 V
0 1 V
5 0 V
0 1 V
0 1 V
0 1 V
0 1 V
0 1 V
83 -923 V
13 200 V
4 117 V
4 83 V
4 64 V
0 53 V
5 44 V
0 38 V
0 34 V
4 31 V
0 27 V
0 25 V
0 23 V
4 22 V
0 19 V
0 19 V
0 17 V
0 17 V
0 15 V
4 15 V
0 1 V
0 1 V
0 1 V
0 1 V
0 1 V
5 1 V
0 1 V
0 1 V
0 1 V
0 1 V
0 1 V
4 1 V
0 1 V
0 1 V
0 1 V
0 1 V
0 1 V
0 1 V
4 0 V
0 1 V
0 1 V
0 1 V
0 1 V
0 1 V
0 1 V
4 1 V
0 1 V
0 1 V
0 1 V
0 1 V
0 1 V
5 0 V
0 1 V
0 1 V
0 1 V
0 1 V
0 1 V
0 1 V
4 0 V
stroke 3580 2466 M
0 1 V
0 1 V
0 1 V
0 1 V
0 1 V
0 1 V
4 0 V
0 1 V
0 1 V
0 1 V
0 1 V
0 1 V
4 1 V
0 1 V
0 1 V
0 1 V
0 1 V
0 1 V
5 0 V
0 1 V
0 1 V
0 1 V
0 1 V
0 1 V
4 1 V
0 1 V
0 1 V
0 1 V
0 1 V
0 1 V
4 0 V
0 1 V
0 1 V
0 1 V
0 1 V
0 1 V
4 1 V
0 1 V
0 1 V
9 -155 V
0 19 V
0 17 V
0 17 V
0 15 V
0 15 V
0 14 V
0 14 V
0 13 V
0 12 V
0 12 V
0 11 V
0 11 V
4 10 V
0 10 V
0 10 V
0 -10 V
0 10 V
4 9 V
0 10 V
0 8 V
0 -8 V
0 8 V
0 9 V
5 8 V
0 9 V
0 7 V
0 -7 V
0 7 V
0 8 V
0 8 V
4 7 V
0 7 V
0 7 V
0 -7 V
0 7 V
0 7 V
0 6 V
0 7 V
4 6 V
0 6 V
0 6 V
0 -6 V
0 6 V
0 6 V
0 6 V
0 6 V
0 5 V
4 6 V
0 5 V
0 6 V
0 -6 V
0 6 V
0 5 V
0 5 V
0 5 V
0 5 V
0 5 V
5 4 V
0 5 V
0 5 V
0 -5 V
0 5 V
0 4 V
0 5 V
stroke 3644 2770 M
0 4 V
0 4 V
0 5 V
0 4 V
4 4 V
0 4 V
0 4 V
0 -516 V
0 2 V
0 2 V
0 2 V
0 2 V
4 2 V
0 2 V
0 1 V
0 2 V
0 2 V
4 2 V
0 2 V
0 1 V
0 2 V
0 2 V
0 1 V
5 2 V
0 2 V
0 1 V
0 2 V
0 1 V
0 2 V
4 1 V
0 2 V
0 1 V
0 2 V
0 1 V
0 2 V
4 1 V
0 2 V
0 1 V
0 2 V
0 1 V
0 1 V
0 2 V
4 1 V
0 1 V
0 2 V
0 1 V
0 1 V
0 2 V
0 1 V
5 1 V
0 1 V
0 2 V
0 1 V
0 1 V
0 1 V
0 2 V
4 1 V
0 1 V
0 1 V
0 1 V
0 1 V
0 2 V
0 1 V
4 1 V
0 1 V
0 1 V
0 1 V
0 1 V
0 1 V
0 1 V
4 1 V
0 2 V
0 1 V
0 1 V
0 1 V
0 1 V
0 1 V
0 1 V
5 1 V
0 1 V
0 1 V
0 1 V
0 1 V
0 1 V
0 1 V
0 1 V
4 1 V
0 1 V
0 1 V
0 1 V
0 1 V
0 1 V
0 1 V
4 1 V
0 1 V
0 1 V
0 1 V
0 1 V
0 1 V
0 1 V
4 1 V
0 1 V
0 1 V
0 1 V
stroke 3707 2407 M
0 1 V
0 1 V
0 1 V
5 1 V
0 1 V
0 1 V
0 1 V
0 1 V
0 1 V
0 1 V
4 1 V
0 1 V
0 1 V
0 1 V
0 1 V
0 1 V
0 1 V
4 1 V
0 1 V
0 1 V
0 1 V
0 1 V
0 1 V
0 1 V
4 0 V
0 1 V
0 1 V
0 1 V
0 1 V
0 1 V
0 1 V
5 1 V
0 1 V
0 1 V
0 1 V
0 1 V
0 1 V
0 1 V
4 0 V
0 1 V
0 1 V
0 1 V
0 1 V
0 1 V
0 1 V
4 1 V
0 1 V
0 1 V
0 1 V
0 1 V
0 1 V
4 1 V
0 1 V
0 1 V
0 1 V
0 1 V
0 1 V
5 0 V
0 1 V
0 1 V
0 1 V
0 1 V
12 1 V
0 -150 V
0 21 V
0 19 V
0 18 V
0 17 V
0 16 V
0 15 V
0 14 V
0 14 V
0 13 V
0 13 V
0 12 V
0 11 V
0 11 V
0 11 V
0 10 V
0 10 V
5 10 V
0 9 V
0 9 V
0 -325 V
0 2 V
0 3 V
4 2 V
0 3 V
0 2 V
0 3 V
4 2 V
0 2 V
0 2 V
0 3 V
0 2 V
4 2 V
0 2 V
0 2 V
0 2 V
0 2 V
5 2 V
0 2 V
0 2 V
0 2 V
stroke 3780 2289 M
0 2 V
4 2 V
0 2 V
0 2 V
0 2 V
0 1 V
0 2 V
4 2 V
0 2 V
0 1 V
0 2 V
0 2 V
0 1 V
4 2 V
0 1 V
0 2 V
0 2 V
0 1 V
0 2 V
5 1 V
0 2 V
0 1 V
0 2 V
0 1 V
0 2 V
4 1 V
0 1 V
0 2 V
0 1 V
0 2 V
0 1 V
0 1 V
4 2 V
0 1 V
0 1 V
0 2 V
0 1 V
0 1 V
0 1 V
4 2 V
0 1 V
0 1 V
0 1 V
0 2 V
0 1 V
0 1 V
5 1 V
0 1 V
0 1 V
0 2 V
0 1 V
0 1 V
0 1 V
4 1 V
0 1 V
0 1 V
0 1 V
0 1 V
0 2 V
0 1 V
4 1 V
0 1 V
0 1 V
0 1 V
0 1 V
0 1 V
0 1 V
4 1 V
0 1 V
0 1 V
0 1 V
0 1 V
0 1 V
0 1 V
0 1 V
4 1 V
0 1 V
0 1 V
0 1 V
0 1 V
0 1 V
0 1 V
5 1 V
0 1 V
0 1 V
0 1 V
0 1 V
0 1 V
0 1 V
4 1 V
0 1 V
0 1 V
0 1 V
0 1 V
0 1 V
0 1 V
0 1 V
4 1 V
0 1 V
0 1 V
0 1 V
0 1 V
0 1 V
0 1 V
stroke 3843 2418 M
4 1 V
0 1 V
0 1 V
0 1 V
0 1 V
0 1 V
0 1 V
5 1 V
0 1 V
0 1 V
0 1 V
0 1 V
0 1 V
4 1 V
0 1 V
0 1 V
0 1 V
0 1 V
0 1 V
0 1 V
4 0 V
0 1 V
0 1 V
0 1 V
0 1 V
0 1 V
0 1 V
4 1 V
0 1 V
0 1 V
0 1 V
0 1 V
0 1 V
0 1 V
5 0 V
0 1 V
0 1 V
0 1 V
0 1 V
0 1 V
0 1 V
4 0 V
0 1 V
0 1 V
0 1 V
0 1 V
0 1 V
4 1 V
0 1 V
0 1 V
0 1 V
0 1 V
0 1 V
4 0 V
0 1 V
0 1 V
0 1 V
0 1 V
0 1 V
0 1 V
5 0 V
0 1 V
0 1 V
0 1 V
0 1 V
0 1 V
4 1 V
0 1 V
0 1 V
0 1 V
0 1 V
4 1 V
0 1 V
0 1 V
0 1 V
0 1 V
4 1 V
0 1 V
0 1 V
0 1 V
0 1 V
1 0 V
0 1 V
4 0 V
0 1 V
0 1 V
0 1 V
0 1 V
0 1 V
4 0 V
0 1 V
0 1 V
0 1 V
0 1 V
0 1 V
4 0 V
0 1 V
0 1 V
0 1 V
0 1 V
4 1 V
0 1 V
0 1 V
0 1 V
stroke 3915 2513 M
1 0 V
0 1 V
4 0 V
0 1 V
0 1 V
0 1 V
0 1 V
0 1 V
4 0 V
0 1 V
0 1 V
0 1 V
0 1 V
0 1 V
4 0 V
0 1 V
0 1 V
0 1 V
0 1 V
4 0 V
0 1 V
0 1 V
0 1 V
0 1 V
5 1 V
0 1 V
0 1 V
0 1 V
0 1 V
4 0 V
0 1 V
0 1 V
0 1 V
0 1 V
0 1 V
4 0 V
0 1 V
0 1 V
0 1 V
0 1 V
4 1 V
0 1 V
0 1 V
1 0 V
0 1 V
4 0 V
0 1 V
0 1 V
0 1 V
0 1 V
4 0 V
0 1 V
0 1 V
0 1 V
0 1 V
4 0 V
0 1 V
0 1 V
0 1 V
0 1 V
4 1 V
0 1 V
0 1 V
0 1 V
5 0 V
0 1 V
0 1 V
0 1 V
0 1 V
4 0 V
0 1 V
0 1 V
0 1 V
0 1 V
4 0 V
0 1 V
0 1 V
0 1 V
0 1 V
4 1 V
0 1 V
0 1 V
1 0 V
0 1 V
4 1 V
0 1 V
0 1 V
0 1 V
4 0 V
0 1 V
0 1 V
0 1 V
4 0 V
0 1 V
0 1 V
0 1 V
0 1 V
4 0 V
0 1 V
0 1 V
0 1 V
0 1 V
5 0 V
0 1 V
stroke 4005 2598 M
0 1 V
0 1 V
4 0 V
0 1 V
0 1 V
0 1 V
4 0 V
0 1 V
0 1 V
0 1 V
0 1 V
4 0 V
0 1 V
0 1 V
1 0 V
0 1 V
0 1 V
4 0 V
0 1 V
0 1 V
0 1 V
4 1 V
0 1 V
0 1 V
4 0 V
0 1 V
0 1 V
0 1 V
4 1 V
0 1 V
0 1 V
0 1 V
5 0 V
8 -46 V
0 8 V
0 9 V
0 8 V
0 8 V
0 7 V
0 8 V
0 7 V
0 7 V
0 7 V
0 6 V
0 7 V
0 6 V
0 7 V
0 6 V
0 6 V
0 6 V
0 5 V
0 6 V
0 6 V
0 5 V
0 5 V
0 6 V
0 5 V
0 5 V
0 5 V
0 5 V
0 5 V
0 4 V
4 5 V
0 5 V
0 -5 V
0 5 V
0 4 V
0 4 V
0 5 V
0 4 V
0 4 V
0 5 V
0 4 V
1 4 V
0 4 V
0 4 V
0 4 V
0 3 V
0 4 V
0 4 V
0 4 V
0 3 V
0 4 V
0 4 V
0 3 V
0 4 V
4 3 V
0 3 V
0 -3 V
0 3 V
0 4 V
0 3 V
0 3 V
0 4 V
0 3 V
0 3 V
0 3 V
0 3 V
0 3 V
0 3 V
0 3 V
0 3 V
0 3 V
0 3 V
stroke 4056 2892 M
0 3 V
0 3 V
0 3 V
0 2 V
0 3 V
0 3 V
0 3 V
4 2 V
0 3 V
0 -3 V
0 3 V
0 3 V
0 2 V
0 3 V
0 2 V
0 3 V
0 3 V
0 2 V
0 3 V
0 2 V
0 2 V
0 3 V
0 2 V
0 3 V
0 2 V
0 2 V
0 3 V
0 2 V
0 2 V
0 3 V
0 2 V
0 2 V
0 2 V
4 2 V
0 3 V
0 -3 V
0 3 V
0 2 V
0 2 V
0 2 V
0 2 V
0 2 V
0 2 V
0 2 V
0 3 V
0 2 V
0 2 V
0 2 V
0 2 V
0 2 V
0 2 V
0 2 V
0 1 V
0 2 V
0 2 V
0 2 V
0 2 V
0 2 V
0 2 V
0 2 V
4 2 V
0 1 V
0 -1 V
0 1 V
0 2 V
0 2 V
0 2 V
0 2 V
0 1 V
0 2 V
0 2 V
1 2 V
0 1 V
0 2 V
0 2 V
0 2 V
0 1 V
0 2 V
0 2 V
0 1 V
0 2 V
0 2 V
0 1 V
0 2 V
0 2 V
0 1 V
0 2 V
0 1 V
4 2 V
0 1 V
0 -1 V
0 1 V
0 2 V
0 2 V
0 1 V
0 2 V
0 1 V
0 2 V
0 1 V
0 2 V
0 1 V
0 2 V
0 1 V
0 2 V
stroke 4073 3087 M
0 1 V
0 2 V
0 1 V
0 2 V
0 1 V
0 1 V
0 2 V
0 1 V
0 2 V
0 1 V
0 1 V
0 2 V
0 1 V
12 2 V
0 1 V
0 1 V
0 2 V
0 1 V
0 1 V
0 2 V
0 1 V
0 1 V
0 2 V
0 1 V
0 1 V
0 2 V
0 1 V
0 1 V
0 2 V
0 1 V
0 1 V
0 1 V
0 2 V
1 1 V
0 1 V
4 1 V
0 2 V
0 1 V
0 1 V
0 1 V
0 2 V
0 1 V
0 1 V
0 1 V
0 1 V
0 2 V
0 1 V
0 1 V
0 1 V
0 1 V
0 2 V
0 1 V
0 1 V
0 1 V
0 1 V
0 1 V
0 1 V
4 2 V
0 1 V
0 1 V
0 1 V
0 1 V
0 1 V
0 1 V
0 1 V
0 2 V
0 1 V
0 1 V
0 1 V
0 1 V
0 1 V
0 1 V
0 1 V
0 1 V
0 1 V
0 1 V
0 1 V
0 1 V
0 2 V
4 1 V
0 1 V
0 1 V
0 1 V
0 1 V
0 1 V
0 1 V
0 1 V
0 1 V
0 1 V
0 1 V
0 1 V
0 1 V
0 1 V
0 1 V
0 1 V
0 1 V
0 1 V
0 1 V
0 1 V
0 1 V
0 1 V
4 1 V
0 1 V
0 1 V
stroke 4102 3210 M
0 1 V
0 1 V
0 1 V
0 1 V
0 1 V
0 1 V
0 1 V
0 1 V
0 1 V
0 1 V
0 1 V
0 1 V
0 1 V
0 1 V
0 1 V
0 1 V
1 0 V
0 1 V
4 1 V
0 1 V
0 1 V
0 1 V
0 1 V
0 1 V
0 1 V
0 1 V
0 1 V
0 1 V
0 1 V
0 1 V
0 1 V
0 1 V
0 1 V
0 1 V
0 1 V
0 1 V
0 1 V
0 1 V
4 0 V
0 1 V
0 1 V
0 1 V
0 1 V
0 1 V
0 1 V
0 1 V
0 1 V
0 1 V
0 1 V
0 1 V
0 1 V
0 1 V
0 1 V
0 1 V
0 1 V
0 1 V
0 1 V
4 0 V
0 1 V
0 1 V
0 1 V
0 1 V
0 1 V
0 1 V
0 1 V
0 1 V
0 1 V
0 1 V
0 1 V
0 1 V
0 1 V
0 1 V
0 1 V
0 1 V
0 1 V
4 0 V
0 1 V
0 1 V
0 1 V
0 1 V
0 1 V
0 1 V
0 1 V
0 1 V
0 1 V
0 1 V
0 1 V
0 1 V
0 1 V
0 1 V
0 1 V
0 1 V
5 0 V
0 1 V
0 1 V
0 1 V
0 1 V
0 1 V
0 1 V
0 1 V
0 1 V
0 1 V
0 1 V
0 1 V
stroke 4124 3309 M
0 1 V
0 1 V
0 1 V
0 1 V
4 0 V
0 1 V
0 1 V
0 1 V
0 1 V
0 1 V
0 1 V
0 1 V
0 1 V
0 1 V
0 1 V
0 1 V
0 1 V
0 1 V
0 1 V
4 1 V
0 1 V
0 1 V
0 1 V
0 1 V
0 1 V
0 1 V
0 1 V
0 1 V
0 1 V
0 1 V
0 1 V
0 1 V
0 1 V
3 -1774 V
4 200 V
4 117 V
5 83 V
0 64 V
0 53 V
0 44 V
4 38 V
0 34 V
0 13 V
0 29 V
0 26 V
4 25 V
0 22 V
0 -47 V
0 25 V
0 -51 V
0 26 V
0 -55 V
0 29 V
0 -62 V
0 33 V
0 -69 V
0 36 V
0 -78 V
4 7 V
0 7 V
0 6 V
0 6 V
0 6 V
5 5 V
0 6 V
0 5 V
4 5 V
0 5 V
0 4 V
4 5 V
0 4 V
0 5 V
4 4 V
0 4 V
0 4 V
0 3 V
5 4 V
0 4 V
0 3 V
0 4 V
4 3 V
0 3 V
0 3 V
0 3 V
4 4 V
0 3 V
0 2 V
0 3 V
4 3 V
0 3 V
0 3 V
0 2 V
0 3 V
5 3 V
0 2 V
0 3 V
0 2 V
0 2 V
4 3 V
0 2 V
0 2 V
0 3 V
0 2 V
4 2 V
stroke 4207 2272 M
0 2 V
0 2 V
0 2 V
0 2 V
4 2 V
0 2 V
0 2 V
0 2 V
0 2 V
5 2 V
0 2 V
0 2 V
0 2 V
0 1 V
0 2 V
4 2 V
0 2 V
0 1 V
0 2 V
0 2 V
0 1 V
4 2 V
0 2 V
0 1 V
0 2 V
0 1 V
0 2 V
4 1 V
0 2 V
0 1 V
0 2 V
0 1 V
0 2 V
5 1 V
0 2 V
0 1 V
0 1 V
0 2 V
0 1 V
0 2 V
4 1 V
0 1 V
0 1 V
0 2 V
0 1 V
0 1 V
0 2 V
4 1 V
0 1 V
0 1 V
0 2 V
0 1 V
0 1 V
0 1 V
4 1 V
0 2 V
0 1 V
0 1 V
0 1 V
0 1 V
0 1 V
5 1 V
0 2 V
0 1 V
0 1 V
0 1 V
0 1 V
0 1 V
4 1 V
0 1 V
0 1 V
0 1 V
0 1 V
0 1 V
0 1 V
0 1 V
4 1 V
0 1 V
0 1 V
0 1 V
0 1 V
0 1 V
0 1 V
0 1 V
4 1 V
0 1 V
0 1 V
0 1 V
0 1 V
0 1 V
0 1 V
0 1 V
5 0 V
0 1 V
0 1 V
0 1 V
0 1 V
0 1 V
0 1 V
0 1 V
4 0 V
0 1 V
0 1 V
0 1 V
stroke 4271 2407 M
0 1 V
0 1 V
0 1 V
4 1 V
0 1 V
0 1 V
0 1 V
0 1 V
0 1 V
0 1 V
0 1 V
4 0 V
0 1 V
0 1 V
0 1 V
0 1 V
0 1 V
0 1 V
4 1 V
0 1 V
0 1 V
0 1 V
0 1 V
0 1 V
0 1 V
5 1 V
0 1 V
0 1 V
0 1 V
0 1 V
0 1 V
4 1 V
0 1 V
0 1 V
0 1 V
0 1 V
0 1 V
0 1 V
4 1 V
0 1 V
0 1 V
0 1 V
0 1 V
0 1 V
4 1 V
0 1 V
0 1 V
0 1 V
0 1 V
0 1 V
5 1 V
0 1 V
0 1 V
0 1 V
0 1 V
0 1 V
4 1 V
0 1 V
0 1 V
0 1 V
0 1 V
4 1 V
0 1 V
0 1 V
0 1 V
0 1 V
0 1 V
4 1 V
0 1 V
0 1 V
0 1 V
0 1 V
1 1 V
4 0 V
0 1 V
0 1 V
0 1 V
0 1 V
0 1 V
4 1 V
0 1 V
0 1 V
0 1 V
0 1 V
4 1 V
0 1 V
0 1 V
0 1 V
0 1 V
0 1 V
4 0 V
0 1 V
0 1 V
0 1 V
0 1 V
0 1 V
5 1 V
0 1 V
0 1 V
0 1 V
0 1 V
4 0 V
0 1 V
0 1 V
stroke 4343 2507 M
0 1 V
0 1 V
4 1 V
0 1 V
0 1 V
0 1 V
0 1 V
4 0 V
0 1 V
0 1 V
0 1 V
0 1 V
1 0 V
0 1 V
4 0 V
0 1 V
0 1 V
0 1 V
0 1 V
0 1 V
4 0 V
0 1 V
0 1 V
0 1 V
0 1 V
4 0 V
0 1 V
0 1 V
0 1 V
0 1 V
4 0 V
0 1 V
0 1 V
0 1 V
1 1 V
0 1 V
4 0 V
0 1 V
0 1 V
0 1 V
0 1 V
0 1 V
4 0 V
0 1 V
0 1 V
0 1 V
0 1 V
4 0 V
0 1 V
0 1 V
0 1 V
0 1 V
4 0 V
0 1 V
0 1 V
0 1 V
0 1 V
5 0 V
0 1 V
0 1 V
0 1 V
0 1 V
4 1 V
0 1 V
0 1 V
0 1 V
0 1 V
4 0 V
0 1 V
0 1 V
0 1 V
4 1 V
0 1 V
1 1 V
0 1 V
4 0 V
0 1 V
0 1 V
0 1 V
0 1 V
4 1 V
0 1 V
0 1 V
0 1 V
4 1 V
0 1 V
0 1 V
0 1 V
4 1 V
0 1 V
0 1 V
0 1 V
5 0 V
0 1 V
0 1 V
0 1 V
4 0 V
0 1 V
0 1 V
0 1 V
0 1 V
4 0 V
0 1 V
0 1 V
stroke 4432 2595 M
0 1 V
0 1 V
4 0 V
0 1 V
1 1 V
0 1 V
4 0 V
0 1 V
0 1 V
0 1 V
4 0 V
0 1 V
0 1 V
0 1 V
0 1 V
4 0 V
0 1 V
0 1 V
0 1 V
0 1 V
4 0 V
0 1 V
0 1 V
0 1 V
5 0 V
0 1 V
0 1 V
0 1 V
4 0 V
0 1 V
0 1 V
0 1 V
4 0 V
0 1 V
0 1 V
0 1 V
0 1 V
4 0 V
0 1 V
0 1 V
1 0 V
0 1 V
4 0 V
0 1 V
0 1 V
0 1 V
4 0 V
0 1 V
0 1 V
0 1 V
4 0 V
0 1 V
0 1 V
0 1 V
4 1 V
0 1 V
0 1 V
0 1 V
5 0 V
0 1 V
0 1 V
0 1 V
4 0 V
0 1 V
0 1 V
0 1 V
4 0 V
0 1 V
0 1 V
4 1 V
0 1 V
1 0 V
0 1 V
0 1 V
4 0 V
0 1 V
0 1 V
8 0 V
0 -171 V
0 12 V
0 11 V
0 11 V
0 10 V
0 10 V
0 10 V
1 9 V
0 10 V
0 8 V
0 9 V
0 8 V
0 9 V
0 7 V
0 8 V
0 8 V
0 7 V
0 7 V
0 7 V
0 7 V
0 6 V
0 7 V
0 6 V
0 6 V
0 6 V
0 6 V
stroke 4518 2688 M
0 6 V
0 6 V
0 5 V
0 6 V
0 5 V
0 6 V
4 5 V
0 5 V
0 5 V
0 -5 V
0 5 V
0 5 V
0 5 V
0 4 V
0 5 V
0 5 V
0 4 V
0 5 V
0 4 V
0 4 V
0 5 V
4 4 V
0 4 V
0 4 V
0 -4 V
0 4 V
0 4 V
0 4 V
0 4 V
0 4 V
0 4 V
0 4 V
0 3 V
0 4 V
0 4 V
0 3 V
0 4 V
4 3 V
0 4 V
0 3 V
0 -3 V
0 3 V
0 3 V
0 4 V
0 3 V
0 3 V
0 3 V
0 4 V
0 3 V
0 3 V
0 3 V
0 3 V
0 3 V
0 3 V
4 3 V
0 3 V
0 3 V
0 -3 V
0 3 V
0 3 V
0 2 V
0 3 V
0 3 V
0 3 V
0 3 V
0 2 V
0 3 V
0 3 V
0 2 V
0 3 V
0 2 V
0 3 V
5 3 V
0 2 V
0 3 V
0 -3 V
0 3 V
0 2 V
0 2 V
0 3 V
0 2 V
0 3 V
0 2 V
0 2 V
0 3 V
0 2 V
0 2 V
0 3 V
0 2 V
0 2 V
0 2 V
4 3 V
0 2 V
0 2 V
0 -2 V
0 2 V
0 2 V
0 2 V
0 2 V
0 2 V
0 3 V
0 2 V
0 2 V
0 2 V
stroke 4543 2993 M
0 2 V
0 2 V
0 2 V
0 2 V
0 2 V
0 2 V
0 2 V
4 2 V
0 2 V
0 1 V
0 -568 V
0 1 V
0 1 V
0 1 V
0 1 V
4 1 V
0 1 V
0 1 V
0 1 V
0 1 V
0 1 V
5 1 V
0 1 V
0 1 V
0 1 V
0 1 V
0 1 V
4 0 V
0 1 V
0 1 V
0 1 V
0 1 V
0 1 V
4 0 V
0 1 V
0 1 V
0 1 V
0 1 V
0 1 V
0 1 V
4 0 V
0 1 V
0 1 V
0 1 V
0 1 V
0 1 V
1 1 V
4 0 V
0 1 V
0 1 V
0 1 V
0 1 V
0 1 V
4 1 V
0 1 V
0 1 V
0 1 V
0 1 V
4 0 V
0 1 V
0 1 V
0 1 V
0 1 V
4 1 V
0 1 V
0 1 V
0 1 V
0 1 V
0 1 V
26 1247 V
% End plot #1
% Begin plot #2
2.000 UP
stroke
LTa
0.60 0.60 0.00 C 2128 1767 Box
3412 2466 Box
3984 2582 Box
4343 2507 Box
% End plot #2
% Begin plot #3
2.000 UP
1.000 UL
LTa
0.60 0.60 0.00 C LCb setrgbcolor
2834 153 M
[ [(Arial) 180.0 0.0 true true 0 (olsr)]
] -60.0 MRshow
2.000 UP
1.000 UL
LTa
0.60 0.60 0.00 C 2942 153 M
333 0 V
2128 1767 M
2128 1767 Box
3108 153 Box
% End plot #3
% Begin plot #4
1.000 UL
LTb
LT1
0.00 0.00 0.63 C 1378 1767 M
4 117 V
4 83 V
4 64 V
0 53 V
5 44 V
0 38 V
4 34 V
0 31 V
0 27 V
5 25 V
0 23 V
0 22 V
0 19 V
5 19 V
0 17 V
0 17 V
0 15 V
0 15 V
83 -863 V
14 200 V
5 117 V
5 83 V
0 64 V
5 53 V
0 44 V
0 38 V
5 34 V
0 31 V
0 2 V
4 3 V
0 3 V
0 3 V
0 2 V
5 3 V
0 3 V
0 2 V
0 2 V
5 3 V
0 2 V
0 3 V
0 2 V
0 2 V
5 2 V
0 3 V
0 2 V
0 2 V
5 2 V
0 -111 V
0 -135 V
0 53 V
0 -117 V
0 64 V
1 -64 V
0 64 V
0 -147 V
0 83 V
4 -200 V
0 117 V
0 83 V
0 64 V
0 53 V
0 -117 V
0 64 V
5 11 V
0 11 V
0 9 V
0 10 V
5 8 V
0 8 V
0 8 V
5 7 V
5 7 V
0 6 V
0 7 V
0 6 V
4 6 V
0 5 V
5 5 V
0 6 V
5 5 V
0 4 V
0 5 V
5 4 V
0 5 V
5 4 V
0 4 V
0 4 V
4 4 V
0 4 V
0 3 V
5 4 V
0 4 V
0 3 V
5 3 V
0 4 V
0 3 V
0 3 V
5 3 V
0 3 V
5 -14 V
0 29 V
0 -62 V
0 33 V
0 29 V
stroke 1623 2242 M
0 26 V
0 -55 V
0 29 V
0 -189 V
0 49 V
5 -49 V
0 49 V
0 -18 V
0 44 V
0 -44 V
0 -117 V
0 64 V
5 -64 V
0 64 V
0 -264 V
0 117 V
0 -317 V
0 200 V
0 117 V
5 147 V
0 53 V
0 44 V
0 38 V
0 -135 V
0 53 V
5 -317 V
0 64 V
0 43 V
5 32 V
5 27 V
4 21 V
5 19 V
5 17 V
0 15 V
5 13 V
0 13 V
5 22 V
0 -389 V
0 156 V
4 -53 V
5 117 V
0 30 V
5 25 V
5 21 V
5 18 V
5 16 V
0 15 V
5 13 V
0 12 V
4 11 V
0 10 V
0 10 V
5 9 V
0 8 V
5 8 V
0 8 V
5 7 V
0 7 V
0 6 V
4 6 V
0 6 V
0 6 V
5 5 V
0 6 V
0 5 V
5 5 V
0 5 V
0 4 V
4 5 V
0 4 V
0 4 V
4 4 V
0 4 V
0 4 V
0 4 V
5 3 V
0 4 V
0 3 V
5 4 V
0 3 V
0 3 V
5 4 V
0 3 V
0 3 V
5 3 V
0 3 V
0 2 V
0 3 V
5 3 V
0 3 V
0 2 V
5 3 V
0 3 V
0 2 V
83 -685 V
13 200 V
4 117 V
5 83 V
4 64 V
0 53 V
5 44 V
0 38 V
0 5 V
5 4 V
stroke 1901 2175 M
0 4 V
0 4 V
0 4 V
4 4 V
0 4 V
0 4 V
1 3 V
4 4 V
0 3 V
0 3 V
1 4 V
0 3 V
4 3 V
0 3 V
0 3 V
4 3 V
0 3 V
0 2 V
0 3 V
5 3 V
0 2 V
0 3 V
0 3 V
5 2 V
0 3 V
0 2 V
5 2 V
0 3 V
0 2 V
0 2 V
0 3 V
4 2 V
0 2 V
0 2 V
0 2 V
5 2 V
0 2 V
0 2 V
0 2 V
5 2 V
0 2 V
5 2 V
0 2 V
0 2 V
0 2 V
4 1 V
0 2 V
0 2 V
1 2 V
0 1 V
3 2 V
0 2 V
0 1 V
0 2 V
2 2 V
0 1 V
3 2 V
0 1 V
0 2 V
1 2 V
0 1 V
3 2 V
0 1 V
0 2 V
0 1 V
1 1 V
0 2 V
0 1 V
4 2 V
0 1 V
0 1 V
0 2 V
0 1 V
0 1 V
4 2 V
0 1 V
0 1 V
0 2 V
4 1 V
0 1 V
0 1 V
0 -18 V
0 -96 V
0 27 V
0 -56 V
0 29 V
5 -29 V
0 29 V
0 -100 V
0 37 V
0 -131 V
0 51 V
0 73 V
4 -59 V
0 -49 V
0 49 V
0 -49 V
0 49 V
0 41 V
0 36 V
0 32 V
0 29 V
0 26 V
0 24 V
stroke 1992 2295 M
0 -50 V
0 26 V
0 -343 V
5 23 V
0 19 V
0 17 V
5 15 V
4 14 V
0 13 V
4 11 V
0 11 V
5 10 V
0 9 V
0 8 V
4 9 V
0 7 V
4 8 V
0 6 V
0 7 V
4 6 V
0 7 V
0 5 V
5 6 V
0 5 V
0 5 V
4 5 V
0 5 V
1 5 V
4 4 V
0 5 V
1 4 V
3 4 V
0 4 V
1 4 V
3 4 V
0 4 V
2 3 V
3 4 V
0 3 V
1 4 V
3 3 V
0 3 V
1 3 V
0 3 V
3 3 V
0 3 V
0 3 V
1 3 V
0 3 V
4 2 V
0 3 V
0 3 V
0 2 V
4 3 V
0 2 V
0 3 V
0 2 V
1 3 V
4 2 V
0 2 V
0 2 V
5 3 V
0 2 V
0 2 V
0 2 V
4 2 V
0 2 V
4 2 V
0 2 V
0 2 V
0 2 V
0 2 V
4 2 V
0 2 V
0 2 V
0 -18 V
0 -53 V
0 28 V
0 -59 V
0 31 V
0 28 V
0 -133 V
0 39 V
5 -39 V
0 39 V
0 -39 V
0 39 V
0 35 V
0 -120 V
0 46 V
0 39 V
0 7 V
4 34 V
0 4 V
0 3 V
0 4 V
1 3 V
3 3 V
0 -4 V
0 -111 V
0 42 V
0 -91 V
0 49 V
1 -108 V
stroke 2107 1994 M
0 59 V
3 -133 V
0 74 V
0 59 V
0 31 V
1 -26 V
4 -57 V
0 57 V
0 49 V
0 41 V
0 -41 V
0 41 V
0 -41 V
0 41 V
0 -90 V
0 49 V
0 -276 V
5 200 V
0 -64 V
0 64 V
0 53 V
0 -117 V
0 64 V
0 53 V
3 -317 V
1 64 V
4 43 V
0 32 V
5 27 V
5 21 V
0 19 V
5 17 V
0 15 V
4 13 V
0 13 V
4 11 V
0 10 V
5 10 V
0 9 V
0 9 V
5 8 V
0 8 V
0 7 V
4 7 V
0 6 V
5 7 V
0 6 V
0 5 V
4 6 V
0 5 V
1 5 V
4 5 V
0 5 V
2 5 V
3 4 V
0 5 V
1 4 V
3 4 V
0 4 V
2 4 V
2 4 V
0 3 V
0 4 V
3 3 V
1 4 V
0 3 V
0 4 V
3 3 V
2 3 V
0 -8 V
0 29 V
0 -248 V
0 59 V
2 -133 V
0 74 V
3 59 V
0 -59 V
0 59 V
0 31 V
2 44 V
2 6 V
0 5 V
2 6 V
0 5 V
3 5 V
0 5 V
1 4 V
0 5 V
3 4 V
0 4 V
2 5 V
0 4 V
2 3 V
0 4 V
2 4 V
0 4 V
2 3 V
0 3 V
3 4 V
0 3 V
0 3 V
2 3 V
0 4 V
0 3 V
stroke 2232 2227 M
3 2 V
0 3 V
0 3 V
1 3 V
0 3 V
3 2 V
0 3 V
0 2 V
2 3 V
2 2 V
0 3 V
0 2 V
0 3 V
2 2 V
3 2 V
0 2 V
0 3 V
0 2 V
1 2 V
3 2 V
0 2 V
0 2 V
0 2 V
0 2 V
1 2 V
3 2 V
0 2 V
1 2 V
0 2 V
1 2 V
17 2 V
0 1 V
0 2 V
0 2 V
4 2 V
0 1 V
1 2 V
0 2 V
4 1 V
0 2 V
0 2 V
4 1 V
0 2 V
0 1 V
0 2 V
4 1 V
0 2 V
0 1 V
5 2 V
0 -127 V
0 -72 V
0 38 V
0 34 V
0 -72 V
0 38 V
0 -135 V
0 53 V
0 44 V
0 -97 V
0 53 V
0 -117 V
0 64 V
4 -64 V
0 64 V
0 53 V
0 -26 V
0 49 V
4 -49 V
0 49 V
0 -739 V
0 316 V
0 147 V
5 43 V
4 32 V
4 27 V
0 21 V
5 19 V
0 17 V
4 15 V
0 13 V
4 13 V
0 11 V
5 10 V
0 10 V
0 9 V
5 9 V
0 8 V
4 8 V
0 7 V
5 7 V
0 6 V
0 7 V
4 6 V
0 5 V
0 6 V
4 5 V
0 5 V
0 5 V
2 5 V
3 5 V
0 4 V
1 5 V
0 4 V
3 4 V
stroke 2367 2182 M
0 4 V
0 4 V
1 4 V
3 3 V
0 4 V
0 3 V
5 4 V
0 3 V
0 4 V
0 3 V
4 3 V
0 3 V
0 3 V
0 3 V
5 3 V
0 3 V
0 2 V
0 3 V
0 3 V
4 2 V
0 3 V
0 2 V
0 3 V
0 2 V
0 3 V
4 2 V
0 2 V
0 3 V
0 2 V
4 2 V
0 2 V
0 2 V
0 -16 V
0 -174 V
0 44 V
0 -97 V
0 53 V
5 -117 V
0 64 V
0 53 V
0 44 V
4 38 V
0 5 V
5 4 V
0 4 V
0 4 V
0 4 V
4 4 V
0 4 V
1 4 V
3 3 V
0 4 V
0 3 V
1 3 V
3 4 V
0 3 V
0 3 V
1 3 V
4 3 V
0 -15 V
0 -33 V
0 33 V
0 -160 V
0 49 V
0 -108 V
0 59 V
4 -59 V
0 59 V
0 -59 V
0 59 V
0 49 V
4 7 V
0 7 V
0 12 V
0 -561 V
0 200 V
4 200 V
5 17 V
0 16 V
4 14 V
0 12 V
5 12 V
0 11 V
4 10 V
0 9 V
4 9 V
0 8 V
4 8 V
0 35 V
0 -361 V
0 117 V
5 -117 V
0 117 V
0 83 V
4 17 V
0 16 V
0 14 V
4 12 V
0 12 V
5 11 V
4 10 V
0 9 V
4 9 V
0 8 V
stroke 2492 2085 M
5 8 V
0 7 V
0 7 V
4 7 V
0 14 V
0 -361 V
0 117 V
4 -317 V
0 200 V
0 117 V
0 83 V
4 17 V
6 16 V
0 14 V
4 12 V
0 12 V
0 11 V
5 10 V
0 9 V
4 9 V
0 8 V
0 8 V
4 7 V
0 7 V
5 7 V
0 6 V
4 6 V
0 6 V
0 6 V
4 5 V
0 6 V
0 5 V
5 4 V
0 1 V
0 35 V
0 -330 V
0 88 V
4 -215 V
0 127 V
0 20 V
5 83 V
0 64 V
4 11 V
0 11 V
4 9 V
0 10 V
4 8 V
0 8 V
5 8 V
0 7 V
0 7 V
4 6 V
0 7 V
0 6 V
4 6 V
0 5 V
0 5 V
4 6 V
0 5 V
5 4 V
0 5 V
0 4 V
0 5 V
0 4 V
5 4 V
0 4 V
0 4 V
4 4 V
0 3 V
0 4 V
4 4 V
0 3 V
0 3 V
5 4 V
0 3 V
0 3 V
0 3 V
0 3 V
5 3 V
0 3 V
0 3 V
4 2 V
0 3 V
0 3 V
0 2 V
4 3 V
0 2 V
0 3 V
0 2 V
4 3 V
0 2 V
1 2 V
0 3 V
0 2 V
4 2 V
0 2 V
0 2 V
0 2 V
0 3 V
4 2 V
0 2 V
0 2 V
0 2 V
0 2 V
stroke 2637 2289 M
0 1 V
12 2 V
0 -108 V
0 32 V
5 29 V
0 26 V
0 24 V
0 -24 V
0 24 V
4 -50 V
0 26 V
4 -55 V
0 29 V
4 -29 V
0 29 V
0 26 V
5 -26 V
0 26 V
0 24 V
0 22 V
5 21 V
0 -280 V
4 10 V
0 9 V
4 8 V
0 8 V
0 7 V
5 7 V
0 7 V
4 6 V
0 6 V
0 6 V
4 6 V
0 5 V
0 5 V
0 5 V
0 5 V
5 5 V
0 5 V
4 4 V
0 4 V
0 4 V
4 4 V
0 4 V
0 4 V
4 4 V
0 4 V
0 3 V
0 4 V
5 3 V
0 3 V
0 3 V
4 4 V
0 3 V
0 3 V
4 3 V
0 3 V
0 2 V
4 3 V
0 3 V
13 -4 V
0 27 V
0 25 V
0 23 V
0 21 V
4 19 V
0 -19 V
0 19 V
0 19 V
0 17 V
5 16 V
0 16 V
0 14 V
0 -14 V
0 14 V
0 14 V
4 13 V
0 13 V
0 12 V
0 -25 V
0 13 V
0 12 V
0 12 V
4 11 V
0 11 V
0 10 V
1 -393 V
0 6 V
0 5 V
3 5 V
0 5 V
1 5 V
4 4 V
0 5 V
0 4 V
4 4 V
0 4 V
0 4 V
5 4 V
0 4 V
0 3 V
4 4 V
0 3 V
0 4 V
stroke 2783 2209 M
5 3 V
0 3 V
0 4 V
0 3 V
4 3 V
0 3 V
0 3 V
5 2 V
0 3 V
0 3 V
0 3 V
4 2 V
0 3 V
0 3 V
1 2 V
0 2 V
3 -18 V
0 -143 V
0 43 V
2 -94 V
0 51 V
0 -51 V
0 51 V
0 -191 V
0 79 V
3 103 V
1 -26 V
0 49 V
0 -49 V
0 49 V
3 -49 V
0 49 V
0 41 V
0 36 V
0 -256 V
0 73 V
1 -170 V
4 43 V
4 32 V
4 27 V
4 21 V
5 19 V
4 17 V
0 15 V
4 13 V
0 13 V
4 11 V
0 10 V
5 10 V
0 9 V
4 9 V
0 8 V
4 8 V
0 7 V
0 7 V
4 6 V
0 7 V
5 6 V
0 5 V
4 6 V
0 5 V
0 5 V
5 5 V
0 5 V
0 5 V
4 4 V
0 5 V
0 4 V
4 4 V
0 4 V
0 4 V
5 4 V
0 3 V
0 4 V
4 3 V
0 4 V
0 3 V
0 4 V
4 3 V
0 -5 V
0 29 V
0 -98 V
0 36 V
0 33 V
0 -219 V
0 59 V
4 -133 V
0 74 V
0 -27 V
0 64 V
5 62 V
0 43 V
0 37 V
0 34 V
0 -226 V
0 61 V
1 -275 V
3 117 V
4 83 V
4 17 V
0 16 V
5 14 V
0 12 V
4 12 V
stroke 2930 2038 M
0 11 V
4 10 V
0 9 V
0 9 V
5 8 V
0 8 V
4 7 V
0 7 V
5 7 V
0 6 V
0 6 V
4 6 V
0 6 V
1 5 V
3 6 V
0 5 V
0 4 V
2 5 V
3 5 V
0 4 V
1 4 V
3 5 V
0 4 V
0 4 V
1 3 V
3 4 V
0 4 V
0 3 V
0 4 V
1 3 V
3 3 V
0 4 V
0 3 V
2 3 V
3 3 V
0 3 V
0 3 V
1 3 V
3 2 V
0 3 V
0 3 V
0 2 V
0 3 V
1 2 V
3 3 V
0 2 V
0 3 V
1 2 V
4 2 V
0 -4 V
0 25 V
0 -83 V
0 31 V
0 -147 V
0 44 V
1 -97 V
0 53 V
3 -117 V
0 64 V
0 97 V
13 38 V
0 5 V
0 4 V
5 4 V
0 4 V
4 4 V
4 4 V
0 4 V
4 4 V
0 3 V
5 4 V
0 3 V
0 3 V
4 4 V
0 3 V
5 3 V
0 3 V
0 3 V
4 3 V
0 3 V
0 2 V
0 27 V
0 -127 V
0 37 V
0 -80 V
0 43 V
5 -94 V
0 51 V
0 43 V
0 37 V
0 34 V
0 29 V
0 -108 V
4 38 V
0 5 V
0 16 V
1 -180 V
0 57 V
0 -128 V
0 71 V
3 -71 V
0 71 V
0 -164 V
0 93 V
stroke 3056 1936 M
0 95 V
5 -464 V
0 200 V
0 -947 V
0 747 V
4 200 V
4 64 V
0 43 V
4 32 V
5 27 V
4 21 V
5 19 V
5 17 V
0 15 V
4 13 V
0 13 V
5 11 V
0 10 V
4 10 V
0 9 V
5 9 V
0 8 V
4 8 V
0 7 V
0 7 V
5 6 V
0 7 V
0 6 V
4 5 V
0 6 V
0 5 V
0 5 V
0 5 V
4 5 V
0 5 V
0 4 V
0 5 V
4 4 V
0 4 V
0 4 V
0 4 V
0 4 V
5 3 V
0 4 V
0 3 V
4 4 V
0 3 V
0 4 V
0 3 V
4 3 V
0 -8 V
0 -69 V
0 36 V
0 33 V
0 -33 V
0 33 V
0 -219 V
0 59 V
4 49 V
0 -49 V
0 49 V
0 42 V
0 36 V
0 -78 V
2 7 V
3 7 V
0 6 V
1 6 V
3 6 V
0 5 V
1 6 V
4 5 V
0 5 V
0 5 V
84 -593 V
12 200 V
5 117 V
4 83 V
5 64 V
0 53 V
4 7 V
0 8 V
0 7 V
4 7 V
1 6 V
0 6 V
4 6 V
1 6 V
0 5 V
4 6 V
0 5 V
0 5 V
4 4 V
0 5 V
0 4 V
0 5 V
4 4 V
0 7 V
0 -76 V
0 41 V
1 -145 V
0 57 V
3 -128 V
0 71 V
stroke 3302 2007 M
0 -164 V
0 93 V
0 95 V
5 53 V
0 44 V
0 38 V
0 -199 V
0 64 V
0 53 V
0 -117 V
0 64 V
5 -264 V
0 64 V
0 43 V
4 32 V
0 27 V
4 21 V
0 19 V
4 17 V
0 15 V
5 13 V
0 13 V
4 11 V
0 10 V
4 10 V
0 9 V
4 9 V
0 8 V
5 8 V
0 7 V
4 7 V
0 6 V
0 7 V
4 6 V
0 5 V
0 6 V
4 5 V
0 5 V
0 5 V
5 5 V
0 -1 V
0 -207 V
0 67 V
0 -155 V
0 88 V
5 -215 V
0 127 V
0 88 V
0 15 V
5 64 V
0 11 V
4 11 V
0 9 V
0 10 V
4 8 V
0 8 V
0 8 V
4 7 V
0 7 V
0 6 V
5 7 V
0 6 V
0 6 V
5 5 V
0 5 V
0 6 V
4 5 V
0 4 V
4 5 V
0 4 V
4 5 V
0 4 V
0 4 V
5 4 V
0 4 V
0 4 V
4 3 V
0 4 V
0 4 V
0 3 V
5 3 V
0 4 V
0 3 V
4 3 V
0 3 V
0 3 V
0 3 V
0 3 V
5 3 V
0 2 V
0 3 V
0 3 V
4 2 V
0 3 V
0 2 V
0 3 V
4 2 V
0 3 V
0 2 V
4 2 V
0 3 V
0 2 V
0 2 V
5 2 V
stroke 3447 2272 M
0 2 V
0 2 V
0 3 V
0 2 V
4 2 V
0 -25 V
0 -92 V
0 34 V
0 -316 V
0 83 V
4 -200 V
0 117 V
0 -117 V
0 117 V
0 83 V
0 64 V
4 53 V
5 44 V
0 38 V
0 5 V
4 4 V
0 4 V
0 4 V
0 4 V
4 4 V
0 4 V
0 4 V
4 3 V
0 4 V
0 3 V
0 3 V
5 4 V
0 3 V
0 3 V
0 3 V
4 3 V
0 3 V
0 3 V
0 2 V
4 3 V
0 3 V
4 2 V
0 3 V
0 3 V
0 2 V
0 3 V
0 2 V
5 2 V
0 3 V
0 2 V
0 2 V
0 3 V
4 2 V
0 2 V
1 5 V
0 -259 V
0 55 V
4 -122 V
0 67 V
0 109 V
4 38 V
0 34 V
4 4 V
0 9 V
0 -69 V
0 36 V
0 -186 V
0 59 V
5 -133 V
0 74 V
0 -174 V
0 100 V
0 111 V
4 53 V
1 44 V
0 6 V
3 5 V
1 6 V
0 5 V
3 5 V
2 5 V
0 4 V
3 5 V
2 4 V
0 4 V
2 5 V
1 4 V
1 3 V
0 4 V
2 4 V
1 4 V
1 3 V
0 3 V
2 4 V
2 3 V
1 3 V
0 3 V
11 4 V
4 3 V
0 -99 V
0 38 V
0 -599 V
0 200 V
0 -947 V
stroke 3567 820 M
5 0 R
0 747 V
0 200 V
0 117 V
4 147 V
0 -147 V
0 83 V
0 -200 V
0 117 V
5 -117 V
0 64 V
4 43 V
4 32 V
5 27 V
4 21 V
4 19 V
4 17 V
0 15 V
5 13 V
0 13 V
5 11 V
0 10 V
3 10 V
1 9 V
4 9 V
0 8 V
4 8 V
0 7 V
4 7 V
0 6 V
5 7 V
0 6 V
5 5 V
0 6 V
4 5 V
0 5 V
0 5 V
5 5 V
0 5 V
0 4 V
4 5 V
0 4 V
0 4 V
4 4 V
0 4 V
0 4 V
4 3 V
0 4 V
0 3 V
0 4 V
5 3 V
0 4 V
0 3 V
0 3 V
0 3 V
0 3 V
4 3 V
0 3 V
0 3 V
4 2 V
0 3 V
0 3 V
1 2 V
4 3 V
0 2 V
0 3 V
0 2 V
0 3 V
4 2 V
0 2 V
0 3 V
0 2 V
0 2 V
0 2 V
5 2 V
0 2 V
0 2 V
0 3 V
4 2 V
0 2 V
0 2 V
0 1 V
0 2 V
4 2 V
0 2 V
0 2 V
0 2 V
0 2 V
0 1 V
0 2 V
4 2 V
0 2 V
0 1 V
0 2 V
0 2 V
0 1 V
5 2 V
0 1 V
0 2 V
0 1 V
0 2 V
0 2 V
0 1 V
0 2 V
stroke 3707 2326 M
4 1 V
0 1 V
0 2 V
0 1 V
0 2 V
5 1 V
0 2 V
0 1 V
0 1 V
4 2 V
0 1 V
0 1 V
0 2 V
0 1 V
0 1 V
4 2 V
0 -117 V
0 -200 V
0 53 V
0 -53 V
0 53 V
0 -200 V
0 83 V
0 64 V
0 -147 V
0 83 V
4 -200 V
0 117 V
0 -117 V
0 117 V
0 83 V
0 64 V
5 53 V
0 -117 V
0 64 V
0 -64 V
0 64 V
0 53 V
0 44 V
0 -361 V
4 264 V
1 -147 V
0 83 V
0 -200 V
0 117 V
3 -117 V
1 64 V
4 43 V
5 32 V
5 27 V
4 21 V
5 19 V
4 17 V
0 15 V
5 13 V
0 13 V
4 11 V
0 10 V
4 10 V
1 9 V
0 9 V
0 8 V
5 8 V
0 7 V
4 7 V
0 6 V
0 7 V
5 6 V
0 5 V
5 6 V
0 5 V
0 5 V
5 5 V
0 5 V
0 5 V
5 4 V
0 5 V
4 4 V
0 4 V
0 4 V
1 4 V
4 4 V
0 3 V
0 4 V
0 3 V
5 4 V
0 3 V
0 4 V
0 3 V
0 3 V
0 3 V
4 3 V
0 3 V
0 3 V
0 3 V
5 2 V
0 3 V
0 3 V
5 2 V
0 3 V
0 2 V
0 3 V
0 2 V
4 3 V
stroke 3844 2259 M
0 -1 V
0 -130 V
0 38 V
0 34 V
0 -116 V
0 44 V
4 -97 V
0 53 V
0 -53 V
0 53 V
0 44 V
0 38 V
0 -38 V
0 38 V
0 5 V
4 16 V
0 32 V
0 28 V
0 26 V
0 -26 V
0 26 V
0 24 V
0 -233 V
0 47 V
5 -47 V
0 47 V
0 -144 V
0 64 V
0 53 V
4 7 V
0 8 V
5 7 V
0 7 V
4 6 V
0 6 V
0 6 V
4 6 V
0 5 V
0 6 V
0 5 V
4 5 V
0 4 V
3 5 V
2 4 V
0 5 V
0 4 V
2 4 V
2 4 V
0 4 V
3 3 V
2 4 V
0 4 V
0 3 V
2 3 V
2 4 V
0 3 V
0 3 V
2 3 V
2 3 V
0 3 V
0 3 V
2 3 V
2 3 V
0 2 V
0 3 V
3 3 V
2 2 V
0 3 V
0 2 V
2 3 V
3 2 V
0 3 V
0 2 V
1 2 V
3 3 V
0 2 V
0 2 V
0 2 V
0 2 V
0 2 V
2 2 V
2 2 V
0 2 V
0 2 V
0 2 V
2 2 V
4 2 V
0 2 V
0 2 V
0 2 V
0 2 V
0 1 V
4 2 V
0 2 V
0 2 V
1 1 V
3 2 V
0 2 V
0 1 V
0 2 V
1 1 V
3 2 V
0 2 V
0 1 V
stroke 3940 2320 M
0 2 V
0 1 V
2 2 V
3 1 V
0 2 V
0 1 V
0 2 V
0 1 V
0 1 V
1 2 V
3 1 V
0 2 V
0 1 V
0 1 V
1 2 V
4 1 V
0 1 V
0 2 V
0 1 V
0 1 V
4 1 V
0 2 V
0 1 V
0 1 V
0 1 V
4 2 V
0 1 V
1 1 V
0 1 V
0 1 V
0 1 V
3 2 V
0 1 V
1 1 V
0 1 V
0 1 V
0 1 V
0 1 V
0 1 V
4 2 V
1 1 V
0 1 V
0 1 V
0 1 V
0 1 V
4 1 V
0 1 V
0 1 V
0 -33 V
0 -41 V
0 22 V
0 -97 V
0 27 V
0 25 V
0 -25 V
0 25 V
0 -117 V
0 34 V
4 -72 V
0 38 V
0 65 V
0 27 V
5 25 V
0 2 V
0 2 V
0 2 V
4 2 V
0 2 V
0 -15 V
0 -84 V
0 31 V
0 -66 V
0 35 V
0 -120 V
0 46 V
5 -46 V
0 46 V
0 -168 V
0 67 V
0 65 V
4 44 V
0 38 V
4 34 V
0 4 V
4 3 V
0 4 V
0 3 V
0 3 V
0 3 V
5 3 V
0 3 V
0 3 V
4 3 V
0 3 V
0 3 V
0 2 V
4 3 V
0 3 V
0 2 V
0 3 V
4 2 V
0 3 V
0 2 V
0 3 V
stroke 4023 2261 M
5 2 V
0 -5 V
0 -58 V
0 31 V
0 -103 V
0 38 V
0 -82 V
0 44 V
0 -97 V
0 53 V
4 -117 V
0 64 V
0 53 V
0 44 V
1 38 V
0 21 V
3 32 V
0 28 V
0 -95 V
0 35 V
0 -76 V
0 41 V
1 -88 V
0 47 V
0 -47 V
0 47 V
0 41 V
0 -88 V
4 9 V
0 8 V
5 8 V
0 8 V
0 7 V
4 7 V
0 6 V
4 7 V
0 6 V
0 5 V
5 6 V
0 5 V
0 5 V
4 5 V
0 5 V
0 5 V
4 4 V
0 4 V
0 5 V
5 4 V
0 4 V
0 4 V
4 3 V
0 4 V
1 4 V
0 3 V
3 3 V
0 4 V
2 3 V
0 3 V
3 3 V
1 3 V
0 3 V
0 3 V
3 3 V
1 3 V
0 -194 V
0 51 V
4 -112 V
0 61 V
0 -140 V
0 79 V
0 103 V
4 -26 V
1 49 V
0 41 V
0 -464 V
0 147 V
0 97 V
0 -361 V
8 200 V
4 117 V
5 30 V
5 25 V
5 21 V
4 18 V
4 16 V
0 15 V
5 13 V
0 12 V
4 11 V
0 10 V
0 10 V
4 9 V
0 8 V
4 8 V
0 8 V
5 7 V
0 7 V
0 6 V
4 6 V
0 6 V
0 6 V
4 5 V
0 6 V
0 5 V
stroke 4164 2152 M
4 5 V
0 5 V
0 4 V
5 5 V
0 4 V
0 4 V
4 4 V
0 4 V
0 4 V
5 4 V
0 3 V
0 4 V
83 -635 V
13 200 V
4 117 V
5 83 V
5 64 V
0 53 V
4 44 V
0 38 V
0 5 V
4 4 V
0 4 V
0 4 V
1 4 V
4 4 V
0 4 V
0 4 V
4 3 V
0 4 V
0 3 V
4 3 V
0 4 V
0 3 V
0 3 V
5 3 V
0 3 V
0 3 V
0 3 V
4 2 V
0 3 V
0 3 V
0 2 V
5 3 V
0 3 V
0 2 V
0 3 V
0 2 V
4 2 V
0 -1 V
0 -291 V
0 64 V
4 -147 V
0 83 V
0 -200 V
0 117 V
0 83 V
0 64 V
5 -147 V
0 83 V
0 -1147 V
0 747 V
4 200 V
5 64 V
0 43 V
4 32 V
5 27 V
4 21 V
4 19 V
4 17 V
0 15 V
5 13 V
0 13 V
4 11 V
0 10 V
4 10 V
0 9 V
4 9 V
0 8 V
5 8 V
0 7 V
4 7 V
0 18 V
0 -244 V
0 83 V
4 -83 V
0 83 V
4 64 V
0 53 V
0 44 V
0 38 V
0 34 V
0 -116 V
0 44 V
0 -361 V
5 64 V
0 43 V
4 32 V
4 27 V
5 21 V
4 19 V
4 17 V
0 15 V
5 13 V
stroke 4435 2018 M
0 13 V
5 11 V
0 10 V
4 10 V
0 9 V
0 9 V
4 8 V
0 8 V
5 7 V
0 7 V
4 6 V
0 7 V
4 6 V
0 5 V
0 6 V
0 5 V
5 5 V
0 5 V
4 5 V
0 5 V
0 4 V
0 5 V
5 4 V
0 4 V
4 4 V
0 4 V
0 4 V
0 3 V
4 4 V
0 3 V
0 4 V
4 3 V
0 4 V
0 3 V
0 3 V
0 3 V
5 3 V
0 3 V
0 3 V
0 3 V
0 2 V
4 3 V
0 3 V
1 2 V
0 3 V
0 2 V
3 3 V
0 2 V
0 3 V
2 2 V
0 2 V
0 3 V
2 2 V
0 2 V
0 2 V
2 2 V
0 2 V
3 2 V
0 3 V
0 2 V
2 2 V
0 2 V
0 1 V
2 2 V
0 2 V
0 2 V
2 2 V
0 2 V
0 2 V
2 1 V
0 2 V
0 2 V
3 2 V
2 1 V
0 2 V
2 2 V
0 1 V
0 -16 V
0 -145 V
0 35 V
2 -76 V
0 41 V
0 -88 V
0 47 V
0 -104 V
0 57 V
2 -57 V
0 57 V
0 64 V
3 -44 V
0 44 V
1 -44 V
0 44 V
0 38 V
0 -599 V
0 200 V
3 117 V
4 30 V
2 25 V
5 21 V
4 18 V
4 16 V
0 15 V
5 13 V
stroke 4559 2022 M
0 12 V
4 11 V
0 10 V
0 10 V
4 9 V
0 8 V
0 8 V
4 8 V
0 7 V
0 7 V
5 6 V
0 6 V
0 6 V
4 6 V
0 5 V
4 6 V
0 5 V
0 5 V
4 5 V
0 4 V
0 5 V
5 4 V
0 4 V
0 4 V
4 4 V
0 4 V
1 4 V
0 3 V
3 4 V
0 3 V
0 4 V
1 3 V
3 3 V
0 4 V
0 3 V
0 3 V
1 3 V
4 3 V
0 2 V
0 3 V
0 3 V
0 3 V
34 2 V
0 3 V
4 3 V
0 -102 V
0 36 V
0 32 V
0 -109 V
0 41 V
0 -317 V
0 97 V
4 -244 V
0 147 V
0 97 V
0 73 V
0 -234 V
5 117 V
4 83 V
4 64 V
0 11 V
4 11 V
0 9 V
5 10 V
0 8 V
0 8 V
4 8 V
0 7 V
5 7 V
0 6 V
0 7 V
4 6 V
0 6 V
4 5 V
0 5 V
0 6 V
4 5 V
0 4 V
0 5 V
5 4 V
0 5 V
0 4 V
0 4 V
4 4 V
0 4 V
0 4 V
4 3 V
0 -10 V
0 -180 V
0 57 V
0 -128 V
0 71 V
4 57 V
0 -128 V
0 71 V
0 57 V
1 -33 V
4 53 V
0 7 V
1 8 V
0 7 V
3 7 V
1 6 V
0 6 V
stroke 4722 2125 M
3 6 V
1 6 V
0 5 V
3 6 V
1 5 V
1 5 V
3 4 V
1 5 V
0 4 V
3 5 V
1 4 V
0 4 V
0 4 V
3 4 V
2 3 V
0 4 V
0 4 V
3 3 V
1 3 V
0 4 V
0 3 V
4 3 V
1 3 V
0 3 V
0 3 V
0 3 V
4 3 V
0 3 V
0 2 V
0 3 V
4 3 V
0 2 V
4 3 V
0 2 V
0 3 V
0 2 V
0 3 V
4 2 V
0 2 V
5 3 V
0 2 V
0 2 V
0 2 V
4 2 V
0 2 V
0 2 V
4 2 V
0 -23 V
0 -92 V
0 34 V
0 31 V
0 27 V
0 -291 V
0 64 V
4 -64 V
0 64 V
0 53 V
0 44 V
0 38 V
5 21 V
0 -123 V
0 47 V
0 -104 V
0 57 V
0 47 V
0 -175 V
0 71 V
4 24 V
0 53 V
5 7 V
0 8 V
0 7 V
4 7 V
0 6 V
0 6 V
4 6 V
0 28 V
0 -295 V
0 88 V
5 -88 V
0 88 V
0 67 V
4 12 V
0 12 V
4 10 V
0 10 V
0 9 V
5 8 V
0 8 V
4 8 V
0 7 V
5 7 V
0 7 V
0 6 V
4 6 V
0 6 V
4 5 V
0 6 V
5 5 V
0 5 V
0 4 V
4 5 V
0 5 V
5 4 V
stroke 4857 2174 M
0 4 V
0 4 V
4 4 V
0 4 V
4 4 V
0 4 V
0 3 V
0 4 V
5 3 V
0 3 V
0 4 V
4 3 V
0 3 V
0 3 V
0 3 V
4 3 V
0 3 V
0 3 V
5 2 V
0 3 V
0 3 V
5 2 V
0 -10 V
0 27 V
0 -127 V
0 37 V
0 -192 V
0 61 V
4 -140 V
0 79 V
0 -79 V
0 79 V
0 61 V
0 42 V
0 44 V
4 -44 V
0 -53 V
0 53 V
0 -117 V
0 64 V
0 53 V
0 44 V
0 -161 V
0 64 V
0 -147 V
0 83 V
4 -83 V
0 30 V
5 25 V
0 21 V
4 18 V
5 16 V
0 15 V
4 13 V
0 12 V
5 11 V
0 10 V
4 10 V
0 9 V
4 8 V
0 8 V
4 8 V
0 7 V
5 7 V
0 6 V
0 6 V
5 6 V
0 6 V
0 5 V
4 6 V
0 5 V
0 5 V
0 5 V
4 4 V
0 5 V
0 4 V
0 4 V
0 4 V
5 4 V
0 4 V
0 4 V
0 3 V
4 4 V
0 3 V
0 4 V
5 3 V
0 3 V
0 4 V
0 3 V
0 3 V
0 3 V
4 3 V
0 2 V
5 3 V
0 3 V
0 3 V
0 2 V
4 3 V
0 3 V
0 2 V
0 2 V
1 3 V
4 2 V
0 3 V
stroke 4985 2262 M
0 2 V
0 2 V
4 2 V
0 3 V
0 2 V
1 2 V
3 2 V
0 2 V
0 2 V
0 2 V
0 2 V
1 2 V
3 2 V
0 2 V
0 2 V
0 2 V
2 1 V
3 2 V
0 2 V
0 2 V
0 2 V
2 1 V
2 2 V
0 2 V
0 1 V
0 2 V
0 2 V
2 1 V
2 2 V
0 1 V
0 2 V
0 1 V
0 2 V
2 2 V
3 1 V
0 1 V
0 2 V
1 1 V
3 2 V
0 1 V
0 2 V
2 1 V
2 1 V
0 2 V
1 1 V
1 1 V
2 2 V
0 1 V
2 1 V
3 2 V
0 1 V
0 1 V
0 1 V
0 2 V
1 1 V
3 1 V
0 1 V
0 2 V
0 1 V
0 1 V
2 1 V
2 1 V
0 1 V
0 2 V
0 1 V
0 1 V
0 1 V
0 1 V
2 1 V
3 1 V
0 1 V
0 -24 V
0 -89 V
0 25 V
0 23 V
0 -178 V
0 38 V
2 -82 V
0 44 V
2 -97 V
0 53 V
0 -200 V
0 83 V
0 64 V
0 53 V
5 44 V
0 38 V
0 34 V
1 31 V
3 27 V
0 25 V
0 2 V
0 2 V
1 2 V
0 2 V
3 2 V
0 2 V
0 1 V
0 2 V
2 2 V
0 2 V
3 2 V
0 -26 V
0 -53 V
stroke 5067 2225 M
0 28 V
0 -59 V
0 31 V
0 -66 V
0 35 V
2 -35 V
0 35 V
0 31 V
0 -105 V
0 39 V
3 -85 V
0 46 V
0 46 V
0 -59 V
0 41 V
2 36 V
0 32 V
0 -68 V
0 36 V
2 -36 V
0 36 V
0 -36 V
0 36 V
0 32 V
0 29 V
0 26 V
0 24 V
0 22 V
0 -389 V
4 156 V
0 -53 V
0 53 V
0 44 V
0 -44 V
0 44 V
0 38 V
0 -282 V
0 83 V
4 -83 V
0 30 V
5 25 V
0 21 V
4 18 V
0 16 V
5 15 V
0 13 V
5 12 V
0 11 V
4 10 V
0 10 V
0 9 V
4 8 V
0 8 V
4 8 V
0 7 V
5 7 V
0 6 V
4 6 V
0 6 V
4 6 V
0 5 V
4 6 V
0 5 V
0 5 V
5 5 V
0 4 V
0 5 V
0 4 V
4 4 V
0 4 V
0 4 V
0 4 V
5 4 V
0 3 V
4 4 V
0 3 V
0 4 V
0 3 V
4 3 V
0 4 V
0 3 V
0 3 V
4 3 V
0 3 V
0 2 V
0 3 V
0 3 V
5 3 V
0 2 V
0 3 V
0 3 V
4 2 V
0 2 V
1 3 V
0 2 V
3 3 V
0 2 V
1 2 V
0 2 V
3 3 V
0 2 V
1 2 V
0 2 V
4 2 V
stroke 5180 2279 M
0 2 V
0 2 V
0 2 V
0 2 V
4 2 V
0 2 V
0 2 V
0 2 V
0 1 V
4 2 V
0 2 V
0 2 V
0 2 V
4 1 V
0 2 V
0 2 V
0 1 V
0 2 V
5 2 V
0 1 V
0 2 V
0 -20 V
0 22 V
0 21 V
0 -188 V
0 35 V
0 -76 V
0 41 V
4 -88 V
0 47 V
0 -104 V
0 57 V
0 47 V
0 17 V
5 38 V
0 34 V
0 31 V
0 2 V
4 3 V
0 3 V
0 3 V
4 2 V
0 3 V
0 3 V
0 2 V
4 2 V
0 3 V
0 2 V
0 3 V
5 2 V
0 2 V
0 2 V
0 3 V
4 2 V
0 2 V
0 2 V
0 2 V
0 2 V
4 2 V
0 -5 V
0 24 V
0 -182 V
0 39 V
1 -39 V
0 39 V
0 -85 V
0 46 V
3 -101 V
0 55 V
0 46 V
0 39 V
0 -31 V
0 -44 V
1 44 V
4 -44 V
0 44 V
0 -44 V
0 44 V
0 38 V
0 -135 V
0 53 V
0 -53 V
0 53 V
0 -117 V
0 64 V
0 -147 V
4 147 V
0 53 V
0 -117 V
0 64 V
1 53 V
0 -117 V
0 64 V
0 53 V
3 -317 V
1 64 V
0 43 V
3 32 V
5 27 V
0 21 V
4 19 V
5 17 V
0 15 V
4 13 V
stroke 5270 2018 M
0 13 V
4 11 V
0 10 V
5 10 V
0 9 V
4 9 V
0 8 V
4 8 V
0 7 V
4 7 V
0 6 V
0 7 V
5 6 V
0 5 V
0 6 V
5 5 V
0 5 V
0 5 V
4 5 V
0 5 V
0 4 V
0 5 V
4 4 V
0 4 V
1 4 V
4 4 V
0 4 V
0 3 V
0 4 V
4 3 V
0 4 V
1 3 V
0 4 V
3 3 V
0 3 V
1 3 V
0 3 V
3 3 V
0 3 V
1 3 V
0 2 V
4 3 V
0 3 V
0 2 V
0 3 V
0 2 V
4 3 V
0 2 V
0 3 V
13 2 V
0 2 V
4 3 V
0 2 V
4 2 V
0 2 V
0 2 V
4 2 V
0 2 V
0 3 V
5 2 V
0 2 V
0 2 V
0 1 V
4 2 V
0 2 V
0 2 V
0 2 V
4 2 V
0 2 V
0 1 V
0 2 V
0 2 V
5 2 V
0 1 V
0 2 V
0 2 V
0 1 V
5 2 V
0 1 V
0 2 V
0 1 V
0 2 V
5 2 V
0 1 V
0 2 V
0 1 V
0 1 V
4 2 V
0 1 V
0 2 V
1 1 V
0 2 V
4 1 V
0 1 V
1 2 V
4 1 V
1 1 V
4 2 V
0 1 V
5 1 V
0 2 V
0 1 V
5 1 V
0 1 V
stroke 5417 2351 M
4 2 V
0 1 V
5 1 V
0 -124 V
1 -31 V
0 31 V
0 -65 V
0 34 V
0 31 V
0 -200 V
0 53 V
3 -117 V
0 64 V
0 53 V
0 44 V
0 -97 V
0 53 V
0 44 V
0 38 V
1 -82 V
0 44 V
3 -44 V
0 44 V
0 -97 V
0 53 V
0 44 V
1 -44 V
0 44 V
0 38 V
0 -82 V
0 44 V
0 38 V
0 -135 V
0 53 V
3 -200 V
1 30 V
1 25 V
3 21 V
1 18 V
4 16 V
0 15 V
4 13 V
0 12 V
5 11 V
0 10 V
4 10 V
0 9 V
4 8 V
0 8 V
4 8 V
0 7 V
1 7 V
4 6 V
0 6 V
1 6 V
3 6 V
0 5 V
0 6 V
1 5 V
3 5 V
0 5 V
1 4 V
4 5 V
0 4 V
0 4 V
4 4 V
0 4 V
0 4 V
1 4 V
0 3 V
4 4 V
0 3 V
0 4 V
4 3 V
0 3 V
0 4 V
0 3 V
0 3 V
5 3 V
0 3 V
0 2 V
4 3 V
0 3 V
0 -3 V
0 27 V
0 -127 V
0 37 V
0 -131 V
0 51 V
4 -51 V
0 51 V
0 -112 V
0 61 V
0 86 V
0 -44 V
5 -53 V
0 53 V
0 44 V
0 38 V
0 -82 V
0 44 V
0 38 V
0 -135 V
0 53 V
stroke 5518 2084 M
0 -53 V
0 53 V
0 -200 V
4 147 V
0 -64 V
0 64 V
0 53 V
0 -200 V
0 83 V
0 64 V
5 -264 V
0 64 V
4 43 V
5 32 V
5 27 V
4 21 V
5 19 V
4 17 V
0 15 V
5 48 V
0 -389 V
0 156 V
4 -53 V
4 117 V
1 30 V
4 25 V
4 21 V
4 18 V
5 16 V
0 15 V
4 13 V
0 12 V
4 11 V
0 10 V
4 10 V
0 9 V
0 8 V
5 8 V
0 8 V
0 7 V
4 7 V
0 6 V
0 6 V
4 6 V
0 6 V
0 5 V
0 6 V
4 5 V
0 7 V
0 -85 V
0 46 V
0 -168 V
0 67 V
5 -155 V
0 88 V
0 67 V
0 55 V
0 46 V
0 -101 V
4 12 V
0 12 V
0 10 V
4 10 V
0 9 V
0 8 V
4 8 V
0 8 V
0 7 V
5 7 V
0 7 V
0 6 V
4 6 V
0 6 V
0 5 V
5 6 V
0 5 V
0 5 V
4 4 V
0 5 V
0 5 V
5 4 V
0 4 V
0 4 V
4 4 V
0 4 V
0 4 V
0 4 V
5 3 V
0 4 V
0 3 V
0 3 V
5 4 V
0 3 V
0 3 V
4 3 V
0 3 V
0 3 V
0 3 V
5 3 V
0 2 V
0 3 V
4 3 V
0 2 V
0 3 V
stroke 5681 2249 M
0 2 V
4 3 V
0 2 V
0 3 V
4 2 V
0 2 V
0 3 V
0 2 V
5 2 V
0 2 V
0 2 V
0 3 V
0 2 V
4 2 V
0 2 V
1 2 V
0 2 V
3 2 V
0 1 V
1 2 V
0 2 V
0 2 V
3 2 V
0 2 V
1 1 V
0 2 V
0 2 V
4 2 V
0 1 V
0 2 V
0 2 V
0 1 V
4 2 V
0 1 V
1 2 V
0 2 V
3 1 V
0 2 V
0 1 V
1 2 V
0 1 V
0 2 V
0 1 V
3 1 V
0 2 V
1 1 V
0 2 V
0 1 V
1 1 V
0 2 V
3 1 V
0 1 V
0 2 V
0 1 V
0 1 V
1 2 V
0 1 V
5 1 V
0 1 V
0 2 V
0 1 V
0 1 V
0 1 V
4 1 V
0 2 V
0 1 V
0 1 V
0 1 V
0 1 V
4 1 V
0 2 V
0 1 V
0 1 V
0 1 V
0 1 V
4 1 V
1 1 V
0 1 V
0 1 V
0 1 V
0 1 V
4 1 V
0 1 V
0 1 V
0 1 V
0 1 V
4 1 V
0 1 V
1 1 V
0 1 V
0 1 V
0 1 V
3 1 V
0 1 V
1 1 V
0 1 V
0 1 V
1 1 V
0 1 V
0 1 V
2 1 V
0 1 V
1 1 V
0 1 V
stroke 5764 2399 M
0 1 V
0 1 V
0 1 V
4 1 V
0 1 V
1 1 V
0 1 V
0 -29 V
0 16 V
0 -53 V
0 19 V
0 -86 V
0 24 V
3 22 V
0 -22 V
0 22 V
0 -46 V
0 24 V
0 -50 V
0 26 V
1 -26 V
0 26 V
0 -121 V
0 35 V
0 32 V
0 28 V
0 -60 V
0 32 V
0 28 V
3 -16 V
0 27 V
0 25 V
1 23 V
0 22 V
0 1 V
3 1 V
0 2 V
0 1 V
10 -117 V
0 29 V
0 26 V
0 24 V
0 22 V
0 21 V
0 19 V
0 18 V
0 17 V
4 16 V
0 15 V
0 -316 V
0 6 V
4 7 V
0 6 V
5 6 V
0 5 V
4 6 V
0 5 V
0 5 V
0 5 V
5 5 V
0 4 V
0 5 V
0 4 V
4 4 V
0 7 V
0 -76 V
0 41 V
1 -145 V
0 57 V
3 -128 V
0 71 V
0 57 V
5 -33 V
0 -64 V
0 64 V
0 -147 V
0 83 V
0 -200 V
0 117 V
0 -117 V
4 264 V
0 53 V
0 -117 V
0 64 V
4 -64 V
0 64 V
0 -264 V
0 64 V
4 43 V
1 32 V
4 27 V
0 21 V
4 19 V
0 17 V
5 15 V
0 13 V
0 13 V
5 11 V
0 10 V
4 10 V
0 9 V
0 9 V
4 8 V
0 8 V
stroke 5864 2096 M
0 7 V
4 7 V
0 6 V
5 7 V
0 6 V
0 5 V
4 6 V
0 5 V
0 5 V
0 5 V
4 5 V
0 5 V
0 4 V
0 5 V
4 4 V
0 4 V
0 4 V
5 4 V
0 4 V
1 3 V
3 4 V
0 3 V
0 4 V
1 3 V
3 4 V
0 3 V
0 3 V
1 3 V
3 3 V
0 3 V
2 3 V
3 3 V
0 2 V
0 3 V
1 3 V
3 2 V
0 3 V
0 2 V
1 3 V
3 2 V
0 3 V
0 2 V
0 2 V
1 3 V
3 2 V
0 2 V
0 2 V
2 2 V
3 2 V
0 2 V
0 3 V
0 2 V
1 2 V
3 2 V
0 1 V
2 2 V
0 2 V
3 2 V
0 2 V
0 2 V
1 2 V
0 1 V
3 2 V
0 2 V
0 2 V
1 1 V
0 2 V
3 2 V
0 1 V
1 2 V
0 1 V
3 2 V
0 1 V
0 2 V
2 2 V
0 1 V
3 2 V
0 1 V
0 1 V
0 2 V
0 1 V
0 2 V
1 1 V
0 2 V
3 1 V
0 1 V
1 2 V
0 1 V
0 1 V
3 2 V
0 1 V
1 1 V
0 2 V
1 1 V
0 1 V
2 1 V
0 2 V
1 1 V
0 1 V
1 1 V
0 1 V
3 2 V
0 1 V
0 1 V
stroke 5967 2361 M
2 1 V
0 1 V
0 1 V
2 1 V
1 2 V
0 1 V
0 1 V
1 1 V
0 1 V
0 1 V
3 1 V
0 1 V
0 1 V
0 1 V
0 1 V
1 1 V
0 1 V
0 1 V
13 1 V
0 1 V
4 1 V
0 -138 V
0 26 V
0 -26 V
0 26 V
0 24 V
0 22 V
0 21 V
0 -410 V
0 73 V
4 -73 V
0 73 V
0 57 V
0 49 V
0 -179 V
0 73 V
0 30 V
4 53 V
0 44 V
0 -97 V
0 53 V
0 44 V
0 -161 V
0 64 V
2 -264 V
3 64 V
1 43 V
3 32 V
5 27 V
0 21 V
4 19 V
4 17 V
0 15 V
4 13 V
0 13 V
5 11 V
0 10 V
5 10 V
0 9 V
0 9 V
4 8 V
0 8 V
4 7 V
0 7 V
0 6 V
0 7 V
4 6 V
0 5 V
5 6 V
0 5 V
4 5 V
0 5 V
4 5 V
0 5 V
0 4 V
4 5 V
0 13 V
0 32 V
0 -155 V
0 47 V
0 -104 V
0 57 V
5 -128 V
0 71 V
0 24 V
4 -64 V
0 64 V
0 53 V
0 -117 V
0 64 V
0 53 V
0 44 V
0 -161 V
0 64 V
4 -264 V
0 64 V
0 43 V
4 32 V
5 27 V
4 21 V
4 19 V
4 17 V
0 15 V
5 13 V
stroke 6106 2018 M
0 13 V
0 11 V
4 10 V
0 10 V
0 9 V
4 9 V
0 8 V
5 8 V
0 7 V
4 7 V
0 6 V
0 7 V
4 6 V
0 5 V
0 6 V
4 5 V
0 5 V
0 5 V
5 5 V
0 5 V
0 -6 V
0 -295 V
0 88 V
4 -215 V
0 127 V
0 88 V
0 67 V
0 -52 V
4 64 V
4 11 V
0 11 V
0 9 V
5 10 V
0 8 V
4 8 V
0 8 V
4 7 V
0 7 V
0 6 V
4 7 V
0 6 V
0 6 V
0 5 V
5 5 V
0 6 V
0 5 V
0 4 V
4 5 V
0 4 V
0 5 V
1 4 V
0 4 V
3 4 V
0 4 V
1 4 V
0 3 V
3 4 V
0 4 V
1 3 V
0 3 V
13 4 V
4 3 V
0 3 V
0 3 V
5 3 V
0 3 V
12 3 V
9 -85 V
0 36 V
4 -36 V
0 36 V
4 -36 V
0 36 V
5 -36 V
0 36 V
4 -36 V
0 36 V
4 -36 V
0 36 V
4 -36 V
0 36 V
0 32 V
5 -215 V
0 13 V
4 13 V
0 12 V
4 10 V
0 10 V
0 10 V
4 8 V
0 9 V
5 7 V
0 8 V
0 7 V
4 6 V
0 7 V
4 6 V
0 6 V
4 5 V
0 6 V
0 5 V
0 5 V
5 5 V
0 4 V
stroke 6290 2163 M
0 5 V
0 4 V
5 5 V
0 4 V
0 4 V
4 4 V
0 4 V
0 3 V
0 4 V
0 3 V
5 4 V
0 3 V
0 4 V
0 3 V
4 3 V
0 3 V
0 3 V
0 3 V
0 3 V
4 3 V
0 2 V
1 3 V
0 3 V
0 2 V
3 3 V
0 3 V
1 2 V
0 2 V
0 3 V
4 2 V
0 3 V
0 2 V
0 2 V
0 2 V
4 2 V
0 3 V
0 2 V
0 2 V
0 2 V
4 2 V
0 2 V
1 2 V
0 2 V
0 2 V
3 2 V
0 2 V
1 1 V
0 2 V
0 2 V
0 2 V
4 2 V
0 1 V
0 2 V
0 2 V
0 1 V
0 2 V
4 2 V
0 1 V
0 2 V
0 1 V
0 2 V
0 2 V
4 1 V
0 2 V
1 1 V
0 2 V
0 1 V
0 2 V
4 1 V
0 1 V
0 2 V
0 1 V
0 2 V
0 1 V
4 1 V
0 2 V
0 1 V
0 1 V
4 2 V
0 1 V
0 1 V
0 -32 V
0 21 V
0 -234 V
0 42 V
5 -91 V
0 49 V
0 -108 V
0 59 V
0 49 V
0 26 V
4 38 V
0 34 V
0 31 V
4 27 V
0 2 V
0 3 V
4 2 V
0 2 V
0 -9 V
0 -58 V
0 31 V
0 27 V
1 -174 V
stroke 6377 2084 M
0 44 V
4 -97 V
0 53 V
0 -53 V
0 53 V
0 44 V
0 38 V
0 -59 V
4 -49 V
0 49 V
0 -49 V
0 49 V
0 -276 V
0 97 V
0 -560 V
0 316 V
4 200 V
0 147 V
4 -147 V
0 83 V
0 -200 V
0 117 V
0 83 V
5 -200 V
0 64 V
4 43 V
5 32 V
5 27 V
4 21 V
4 19 V
4 17 V
0 15 V
5 13 V
0 13 V
4 11 V
0 10 V
4 10 V
0 9 V
4 9 V
0 8 V
6 8 V
0 7 V
4 7 V
0 6 V
0 7 V
4 6 V
0 5 V
5 6 V
0 5 V
0 5 V
4 5 V
0 5 V
5 5 V
0 -6 V
0 -85 V
0 46 V
0 -168 V
0 67 V
4 -67 V
0 67 V
0 55 V
0 46 V
0 -101 V
4 12 V
0 -147 V
0 83 V
0 -200 V
0 117 V
0 -117 V
4 64 V
5 43 V
4 32 V
4 27 V
4 21 V
5 19 V
4 17 V
0 15 V
4 13 V
0 13 V
4 11 V
0 10 V
5 10 V
0 9 V
4 9 V
0 8 V
4 8 V
0 7 V
0 7 V
4 6 V
0 7 V
0 6 V
5 5 V
0 6 V
0 5 V
4 5 V
0 5 V
0 5 V
4 5 V
0 4 V
0 5 V
0 4 V
4 4 V
0 4 V
0 4 V
stroke 6549 2190 M
5 4 V
0 3 V
0 4 V
4 3 V
0 4 V
0 3 V
4 4 V
0 3 V
0 3 V
0 3 V
0 3 V
4 3 V
0 3 V
5 3 V
0 2 V
0 3 V
4 3 V
0 2 V
0 3 V
0 2 V
5 3 V
0 2 V
0 3 V
0 2 V
4 2 V
0 3 V
0 2 V
0 2 V
0 2 V
0 2 V
4 2 V
0 2 V
0 -20 V
0 -174 V
0 44 V
0 -97 V
0 53 V
4 -117 V
0 64 V
0 53 V
0 -117 V
0 64 V
0 97 V
0 -44 V
5 44 V
0 -44 V
0 44 V
0 -244 V
0 83 V
0 -83 V
4 30 V
4 25 V
0 -1119 V
% End plot #4
% Begin plot #5
2.000 UP
stroke
LTb
LT1
0.00 0.00 0.63 C 1378 1767 Circle
1623 2213 Circle
1878 1767 Circle
1988 2093 Circle
2098 2194 Circle
2212 2150 Circle
2327 2018 Circle
2436 1767 Circle
2606 2208 Circle
2748 2351 Circle
2879 2160 Circle
2995 2128 Circle
3144 2213 Circle
3377 2053 Circle
3498 2259 Circle
3659 2190 Circle
3737 2031 Circle
3874 2137 Circle
3966 2364 Circle
4041 2073 Circle
4300 2183 Circle
4470 2165 Circle
4584 2147 Circle
4739 2184 Circle
4865 2205 Circle
4989 2271 Circle
5067 2225 Circle
5175 2271 Circle
5249 1831 Circle
5393 2336 Circle
5509 2042 Circle
5658 2186 Circle
5747 2375 Circle
5825 1967 Circle
5942 2315 Circle
6046 2123 Circle
6200 2218 Circle
6342 2314 Circle
6469 2159 Circle
6597 1884 Circle
% End plot #5
% Begin plot #6
2.000 UP
1.000 UL
LTb
LT1
0.00 0.00 0.63 C LCb setrgbcolor
4247 153 M
[ [(Arial) 180.0 0.0 true true 0 (per-packet)]
] -60.0 MRshow
2.000 UP
1.000 UL
LTb
LT1
0.00 0.00 0.63 C 1378 1767 Circle
4521 153 Circle
% End plot #6
% Begin plot #7
1.000 UL
LTb
LT3
0.00 0.38 0.82 C 1378 1767 M
4 117 V
4 83 V
4 64 V
0 53 V
5 44 V
0 38 V
0 34 V
4 31 V
0 27 V
0 25 V
0 23 V
5 22 V
0 19 V
0 19 V
0 17 V
0 17 V
0 15 V
5 15 V
0 14 V
0 14 V
0 13 V
0 12 V
0 12 V
0 11 V
0 11 V
0 10 V
5 10 V
0 10 V
0 9 V
0 10 V
0 8 V
0 9 V
0 8 V
0 9 V
0 7 V
0 8 V
0 8 V
0 7 V
0 7 V
0 7 V
5 7 V
0 6 V
0 7 V
0 6 V
0 6 V
0 6 V
0 6 V
0 6 V
0 6 V
0 5 V
9 -173 V
0 10 V
0 10 V
0 9 V
0 9 V
0 9 V
0 8 V
0 9 V
0 8 V
0 7 V
0 8 V
0 7 V
0 7 V
0 7 V
0 7 V
0 7 V
0 7 V
0 6 V
0 6 V
0 6 V
0 6 V
0 6 V
0 6 V
0 6 V
0 5 V
0 6 V
0 5 V
0 5 V
0 5 V
0 5 V
0 5 V
0 5 V
0 5 V
0 5 V
0 4 V
0 5 V
0 4 V
0 5 V
0 4 V
0 5 V
0 4 V
0 4 V
0 4 V
4 4 V
0 4 V
0 -4 V
0 4 V
0 4 V
0 4 V
0 4 V
0 4 V
0 3 V
0 4 V
0 4 V
stroke 1432 2828 M
1 3 V
0 4 V
0 3 V
0 4 V
0 3 V
0 4 V
0 3 V
0 3 V
0 4 V
4 3 V
0 3 V
0 -3 V
0 3 V
0 3 V
0 3 V
0 3 V
0 3 V
0 4 V
0 3 V
0 2 V
0 3 V
0 3 V
0 3 V
0 3 V
0 3 V
0 3 V
0 2 V
0 3 V
0 3 V
0 3 V
5 2 V
0 3 V
0 -3 V
0 3 V
0 3 V
0 2 V
0 3 V
0 2 V
0 3 V
0 2 V
0 3 V
0 2 V
0 3 V
0 2 V
0 2 V
0 3 V
0 2 V
0 3 V
0 2 V
0 2 V
0 2 V
0 3 V
5 2 V
0 2 V
0 -2 V
0 2 V
0 2 V
0 3 V
0 2 V
0 2 V
0 2 V
0 2 V
0 2 V
0 3 V
0 2 V
0 2 V
0 2 V
0 2 V
0 2 V
0 2 V
0 2 V
0 2 V
0 2 V
0 2 V
0 2 V
5 2 V
0 2 V
0 -2 V
0 2 V
0 1 V
0 2 V
0 2 V
0 2 V
0 2 V
0 2 V
0 2 V
0 1 V
0 2 V
0 2 V
0 2 V
0 2 V
0 1 V
0 2 V
0 2 V
0 2 V
0 1 V
0 2 V
0 2 V
0 1 V
5 2 V
0 2 V
0 -2 V
0 2 V
0 1 V
stroke 1457 3052 M
0 2 V
0 2 V
0 1 V
0 2 V
0 2 V
0 1 V
0 2 V
0 1 V
0 2 V
0 2 V
0 1 V
0 2 V
0 1 V
0 2 V
0 1 V
0 2 V
0 1 V
0 2 V
0 1 V
0 2 V
59 -1517 V
13 200 V
5 117 V
5 83 V
5 64 V
0 53 V
5 44 V
0 38 V
0 34 V
5 31 V
0 27 V
0 25 V
0 23 V
5 22 V
0 19 V
0 19 V
0 1 V
0 1 V
5 1 V
0 1 V
0 1 V
0 2 V
5 1 V
0 1 V
0 1 V
0 1 V
4 1 V
0 1 V
0 1 V
0 1 V
0 1 V
0 1 V
0 1 V
5 1 V
0 1 V
0 1 V
0 1 V
0 1 V
0 1 V
0 1 V
0 1 V
5 0 V
0 1 V
0 1 V
0 1 V
5 1 V
0 1 V
0 1 V
0 1 V
5 1 V
0 1 V
0 1 V
5 1 V
0 1 V
0 1 V
0 1 V
5 1 V
0 1 V
0 1 V
0 1 V
5 1 V
0 1 V
0 1 V
0 1 V
0 1 V
0 1 V
4 0 V
0 1 V
0 1 V
0 1 V
0 1 V
0 1 V
5 1 V
0 1 V
0 1 V
14 1 V
0 -142 V
0 23 V
0 22 V
0 19 V
0 19 V
0 17 V
0 17 V
0 15 V
stroke 1631 2415 M
5 15 V
0 14 V
0 14 V
0 -14 V
0 14 V
4 13 V
0 -13 V
0 13 V
0 12 V
5 12 V
0 -12 V
0 12 V
0 11 V
0 11 V
5 10 V
0 -10 V
0 10 V
0 10 V
0 10 V
0 9 V
4 10 V
0 -10 V
0 10 V
0 8 V
0 9 V
0 8 V
0 9 V
5 7 V
0 -7 V
0 7 V
0 8 V
0 8 V
0 7 V
0 7 V
0 7 V
5 7 V
0 -451 V
0 4 V
0 3 V
5 4 V
0 3 V
0 3 V
5 3 V
0 3 V
5 3 V
0 3 V
5 3 V
0 3 V
5 3 V
0 2 V
0 3 V
83 -676 V
13 200 V
5 117 V
5 83 V
6 64 V
0 11 V
5 11 V
0 9 V
5 10 V
0 8 V
5 8 V
0 8 V
4 7 V
0 7 V
0 6 V
5 7 V
0 6 V
0 6 V
4 5 V
1 5 V
0 6 V
4 5 V
0 4 V
0 5 V
5 4 V
0 5 V
0 4 V
4 4 V
0 4 V
0 4 V
5 4 V
0 3 V
0 4 V
0 4 V
5 3 V
0 3 V
0 4 V
0 3 V
5 3 V
0 3 V
0 3 V
0 3 V
5 3 V
0 3 V
5 2 V
0 3 V
0 3 V
5 2 V
0 3 V
0 2 V
0 3 V
5 2 V
0 3 V
stroke 1878 2259 M
0 2 V
0 2 V
0 3 V
5 2 V
0 2 V
0 2 V
0 2 V
0 2 V
5 3 V
0 2 V
0 2 V
0 2 V
4 2 V
0 2 V
0 1 V
0 2 V
0 2 V
4 2 V
0 2 V
0 2 V
0 1 V
0 2 V
0 2 V
5 2 V
0 1 V
0 2 V
0 2 V
0 1 V
0 2 V
4 1 V
0 2 V
0 2 V
0 1 V
0 2 V
0 1 V
5 2 V
0 1 V
0 2 V
0 1 V
0 1 V
0 2 V
83 -766 V
14 200 V
4 117 V
5 83 V
4 64 V
0 53 V
5 44 V
0 38 V
0 34 V
5 31 V
0 27 V
0 25 V
0 2 V
4 2 V
0 2 V
0 2 V
0 2 V
0 2 V
0 1 V
4 2 V
0 2 V
0 2 V
0 2 V
0 1 V
0 2 V
5 2 V
0 1 V
0 2 V
0 2 V
0 1 V
0 2 V
4 1 V
0 2 V
0 1 V
0 2 V
0 1 V
4 2 V
0 1 V
0 2 V
0 1 V
0 2 V
0 1 V
5 2 V
0 1 V
0 1 V
0 2 V
0 1 V
0 1 V
83 -774 V
13 200 V
4 117 V
4 83 V
4 64 V
0 53 V
5 44 V
0 38 V
0 34 V
4 31 V
0 27 V
0 25 V
0 2 V
5 2 V
0 2 V
stroke 2178 2289 M
0 2 V
0 2 V
0 2 V
0 1 V
5 2 V
0 2 V
0 2 V
0 2 V
0 1 V
0 2 V
4 2 V
0 1 V
0 2 V
0 2 V
0 1 V
0 2 V
5 1 V
0 2 V
0 1 V
5 2 V
0 1 V
0 2 V
0 1 V
34 2 V
0 1 V
0 2 V
4 1 V
0 2 V
0 1 V
0 1 V
83 -770 V
13 200 V
4 117 V
6 83 V
4 64 V
0 53 V
4 44 V
0 6 V
0 5 V
4 6 V
0 5 V
0 5 V
5 5 V
0 4 V
0 5 V
4 4 V
0 4 V
2 5 V
0 4 V
2 3 V
0 4 V
2 4 V
0 4 V
2 3 V
0 3 V
2 4 V
0 3 V
3 3 V
0 3 V
2 4 V
0 3 V
5 2 V
0 3 V
0 3 V
5 3 V
0 3 V
4 2 V
0 3 V
0 2 V
0 3 V
0 2 V
4 3 V
0 2 V
0 3 V
0 2 V
0 2 V
4 2 V
0 3 V
0 2 V
0 2 V
1 2 V
4 2 V
0 2 V
0 2 V
0 2 V
0 2 V
4 2 V
0 2 V
0 2 V
0 2 V
0 2 V
1 2 V
3 1 V
0 2 V
0 2 V
0 2 V
0 1 V
2 2 V
3 2 V
0 1 V
0 2 V
0 2 V
0 1 V
1 2 V
stroke 2418 2318 M
3 1 V
0 2 V
0 1 V
0 2 V
0 1 V
2 2 V
2 1 V
0 2 V
0 1 V
0 2 V
2 1 V
3 1 V
0 2 V
0 1 V
0 2 V
0 1 V
0 1 V
2 1 V
2 2 V
0 1 V
0 1 V
0 2 V
0 1 V
0 1 V
2 1 V
17 2 V
0 1 V
0 1 V
0 1 V
4 1 V
0 2 V
0 1 V
5 1 V
0 1 V
0 1 V
0 1 V
0 1 V
4 2 V
0 1 V
0 1 V
0 1 V
0 1 V
0 1 V
4 1 V
0 1 V
0 1 V
0 1 V
0 1 V
0 1 V
0 1 V
0 1 V
83 -814 V
14 200 V
4 117 V
5 83 V
4 64 V
0 53 V
4 44 V
0 38 V
0 34 V
5 31 V
0 27 V
0 25 V
0 23 V
4 2 V
0 2 V
0 1 V
0 2 V
0 1 V
5 2 V
0 2 V
0 1 V
0 2 V
0 1 V
4 2 V
0 1 V
0 2 V
0 1 V
0 2 V
0 1 V
4 2 V
0 1 V
0 1 V
0 2 V
0 1 V
0 1 V
4 2 V
0 1 V
0 1 V
0 2 V
0 1 V
0 1 V
0 2 V
5 1 V
0 1 V
0 1 V
0 2 V
0 1 V
0 1 V
0 1 V
4 1 V
0 2 V
0 1 V
0 1 V
stroke 2619 2362 M
0 1 V
0 1 V
0 1 V
5 1 V
0 2 V
0 1 V
5 1 V
0 1 V
0 1 V
0 1 V
0 1 V
0 1 V
83 -808 V
12 200 V
5 117 V
4 83 V
4 64 V
0 53 V
4 44 V
0 38 V
0 34 V
5 31 V
0 27 V
0 25 V
0 23 V
4 2 V
0 2 V
0 1 V
0 2 V
0 1 V
0 2 V
4 2 V
0 1 V
0 2 V
0 1 V
0 2 V
0 1 V
4 2 V
0 1 V
0 2 V
0 1 V
0 2 V
5 1 V
0 1 V
0 2 V
0 1 V
0 1 V
0 2 V
0 1 V
4 1 V
0 2 V
0 1 V
0 1 V
0 2 V
0 1 V
0 1 V
5 1 V
0 2 V
0 1 V
0 1 V
0 1 V
0 1 V
0 2 V
5 1 V
0 1 V
0 1 V
0 1 V
4 1 V
0 1 V
0 2 V
0 1 V
0 1 V
4 1 V
0 1 V
0 1 V
0 1 V
0 1 V
0 1 V
5 1 V
0 1 V
0 1 V
0 1 V
0 1 V
0 1 V
0 1 V
0 1 V
5 1 V
0 1 V
0 1 V
0 1 V
0 1 V
0 1 V
0 1 V
0 1 V
4 1 V
0 1 V
0 1 V
0 1 V
0 1 V
4 1 V
0 1 V
0 1 V
0 1 V
0 1 V
stroke 2803 2402 M
0 1 V
0 1 V
84 -837 V
12 200 V
4 117 V
5 83 V
4 64 V
0 53 V
4 44 V
0 38 V
0 34 V
4 31 V
0 27 V
0 25 V
0 23 V
5 22 V
0 19 V
0 2 V
0 1 V
0 1 V
0 1 V
4 2 V
0 1 V
0 1 V
0 1 V
0 1 V
5 2 V
0 1 V
0 1 V
0 1 V
5 1 V
0 1 V
0 1 V
0 2 V
0 1 V
4 1 V
0 1 V
0 1 V
0 1 V
0 1 V
0 1 V
83 -808 V
13 200 V
4 117 V
4 83 V
4 64 V
0 53 V
5 44 V
0 38 V
0 34 V
4 31 V
0 27 V
0 25 V
0 23 V
4 2 V
0 2 V
0 1 V
0 2 V
0 1 V
0 2 V
4 2 V
0 1 V
0 2 V
0 1 V
0 2 V
0 1 V
5 2 V
0 1 V
0 2 V
0 1 V
0 2 V
0 1 V
4 1 V
0 2 V
0 1 V
0 1 V
0 2 V
0 1 V
4 1 V
0 2 V
0 1 V
0 1 V
0 2 V
0 1 V
0 1 V
4 1 V
0 2 V
0 1 V
0 1 V
0 1 V
0 1 V
0 2 V
5 1 V
0 1 V
0 1 V
0 1 V
0 1 V
0 1 V
0 2 V
4 1 V
0 1 V
0 1 V
0 1 V
0 1 V
stroke 3094 2373 M
0 1 V
0 1 V
0 1 V
4 1 V
0 1 V
0 1 V
0 1 V
0 1 V
0 1 V
0 1 V
0 1 V
4 1 V
0 1 V
0 1 V
0 1 V
0 1 V
0 1 V
0 1 V
0 1 V
5 1 V
0 1 V
0 1 V
0 1 V
0 1 V
0 1 V
0 1 V
4 1 V
0 1 V
0 1 V
0 1 V
0 1 V
0 1 V
4 1 V
0 1 V
0 1 V
0 1 V
0 1 V
0 1 V
0 1 V
4 1 V
0 1 V
0 1 V
0 1 V
0 1 V
0 1 V
0 1 V
5 1 V
0 1 V
0 1 V
0 1 V
0 1 V
0 1 V
0 1 V
4 1 V
0 1 V
0 1 V
0 1 V
0 1 V
0 1 V
4 1 V
0 1 V
0 1 V
0 1 V
0 1 V
0 1 V
0 1 V
4 0 V
0 1 V
0 1 V
0 1 V
0 1 V
0 1 V
0 1 V
5 1 V
0 1 V
0 1 V
0 1 V
0 1 V
0 1 V
0 1 V
4 0 V
0 1 V
0 1 V
0 1 V
0 1 V
0 1 V
0 1 V
4 0 V
0 1 V
0 1 V
0 1 V
0 1 V
4 1 V
0 1 V
0 1 V
0 1 V
0 1 V
0 1 V
5 0 V
0 1 V
0 1 V
0 1 V
0 1 V
0 1 V
stroke 3158 2473 M
0 1 V
4 0 V
0 1 V
0 1 V
0 1 V
0 1 V
0 1 V
4 1 V
0 1 V
0 1 V
0 1 V
0 1 V
4 1 V
0 1 V
0 1 V
0 1 V
1 1 V
4 1 V
0 1 V
0 1 V
0 1 V
0 1 V
0 1 V
4 0 V
0 1 V
0 1 V
0 1 V
9 0 V
0 -151 V
0 19 V
0 17 V
0 17 V
0 15 V
0 15 V
0 14 V
0 14 V
0 13 V
0 12 V
0 12 V
0 11 V
0 11 V
4 10 V
0 10 V
0 10 V
0 -10 V
0 10 V
4 9 V
0 10 V
0 8 V
0 -8 V
0 8 V
0 9 V
4 8 V
0 9 V
0 7 V
0 -7 V
0 7 V
0 8 V
0 8 V
5 7 V
0 7 V
0 7 V
0 -7 V
0 7 V
0 7 V
0 6 V
0 7 V
4 6 V
0 6 V
0 6 V
0 -6 V
0 6 V
0 6 V
0 6 V
0 6 V
0 5 V
4 6 V
0 5 V
0 6 V
0 -6 V
0 6 V
0 5 V
0 5 V
0 5 V
0 5 V
0 5 V
4 4 V
0 5 V
0 5 V
0 -5 V
0 5 V
0 4 V
0 5 V
0 4 V
0 4 V
0 5 V
0 4 V
5 4 V
0 4 V
0 4 V
0 -516 V
0 2 V
0 2 V
0 2 V
stroke 3222 2289 M
4 2 V
0 2 V
0 2 V
0 1 V
0 2 V
0 2 V
4 2 V
0 2 V
0 1 V
0 2 V
0 2 V
0 1 V
4 2 V
0 2 V
0 1 V
0 2 V
0 1 V
0 2 V
5 1 V
0 2 V
0 1 V
0 2 V
0 1 V
0 2 V
4 1 V
0 2 V
0 1 V
0 2 V
0 1 V
0 1 V
0 2 V
4 1 V
0 1 V
0 2 V
0 1 V
0 1 V
0 2 V
0 1 V
4 1 V
0 1 V
0 2 V
0 1 V
0 1 V
0 1 V
0 2 V
5 1 V
0 1 V
0 1 V
0 1 V
0 1 V
0 2 V
0 1 V
4 1 V
0 1 V
0 1 V
0 1 V
0 1 V
0 1 V
0 1 V
4 1 V
0 2 V
0 1 V
0 1 V
0 1 V
0 1 V
0 1 V
4 1 V
0 1 V
0 1 V
0 1 V
0 1 V
0 1 V
0 1 V
0 1 V
5 1 V
0 1 V
0 1 V
0 1 V
0 1 V
0 1 V
0 1 V
4 1 V
0 1 V
0 1 V
0 1 V
0 1 V
0 1 V
0 1 V
4 1 V
0 1 V
0 1 V
0 1 V
0 1 V
0 1 V
0 1 V
0 1 V
4 1 V
0 1 V
0 1 V
0 1 V
0 1 V
0 1 V
0 1 V
5 1 V
stroke 3290 2418 M
0 1 V
0 1 V
0 1 V
0 1 V
0 1 V
0 1 V
4 1 V
0 1 V
0 1 V
0 1 V
0 1 V
0 1 V
0 1 V
4 0 V
0 1 V
0 1 V
0 1 V
0 1 V
0 1 V
0 1 V
4 1 V
0 1 V
0 1 V
0 1 V
0 1 V
0 1 V
0 1 V
5 0 V
0 1 V
0 1 V
0 1 V
0 1 V
0 1 V
0 1 V
4 1 V
0 1 V
0 1 V
0 1 V
0 1 V
0 1 V
4 1 V
0 1 V
0 1 V
0 1 V
0 1 V
4 1 V
0 1 V
0 1 V
0 1 V
0 1 V
0 1 V
5 1 V
0 1 V
0 1 V
0 1 V
0 1 V
0 1 V
4 0 V
0 1 V
0 1 V
0 1 V
0 1 V
0 1 V
0 1 V
4 0 V
0 1 V
0 1 V
0 1 V
0 1 V
0 1 V
4 0 V
0 1 V
0 1 V
0 1 V
0 1 V
0 1 V
5 0 V
0 1 V
0 1 V
0 1 V
0 1 V
0 1 V
4 1 V
0 1 V
0 1 V
0 1 V
0 1 V
0 1 V
4 0 V
0 1 V
0 1 V
0 1 V
0 1 V
0 1 V
4 0 V
0 1 V
0 1 V
0 1 V
0 1 V
4 1 V
0 1 V
0 1 V
0 1 V
1 0 V
stroke 3358 2513 M
0 1 V
4 1 V
0 1 V
0 1 V
0 1 V
0 1 V
4 1 V
0 1 V
0 1 V
0 1 V
0 1 V
4 1 V
0 1 V
0 1 V
0 1 V
0 1 V
4 0 V
0 1 V
0 1 V
1 1 V
4 1 V
0 1 V
0 1 V
0 1 V
0 1 V
4 1 V
0 1 V
0 1 V
0 1 V
0 1 V
4 0 V
0 1 V
0 1 V
0 1 V
0 1 V
4 0 V
0 1 V
0 1 V
1 1 V
0 1 V
4 0 V
0 1 V
0 1 V
0 1 V
4 1 V
0 1 V
0 1 V
0 1 V
0 1 V
4 0 V
0 1 V
0 1 V
0 1 V
0 1 V
4 0 V
0 1 V
0 1 V
1 1 V
0 1 V
4 0 V
0 1 V
0 1 V
0 1 V
4 1 V
0 1 V
0 1 V
0 1 V
0 1 V
4 0 V
0 1 V
0 1 V
0 1 V
0 1 V
4 0 V
0 1 V
0 1 V
0 1 V
0 1 V
5 0 V
0 1 V
0 1 V
0 1 V
4 0 V
0 1 V
0 1 V
0 1 V
0 1 V
4 0 V
0 1 V
0 1 V
0 1 V
0 1 V
4 0 V
0 1 V
0 1 V
1 0 V
0 1 V
4 1 V
0 1 V
0 1 V
0 1 V
4 0 V
0 1 V
0 1 V
stroke 3451 2602 M
0 1 V
4 0 V
0 1 V
0 1 V
0 1 V
4 0 V
0 1 V
0 1 V
0 1 V
5 0 V
0 1 V
0 1 V
0 1 V
0 1 V
4 0 V
0 1 V
0 1 V
0 1 V
4 0 V
0 1 V
0 1 V
0 1 V
4 0 V
0 1 V
0 1 V
1 0 V
0 1 V
0 1 V
4 0 V
0 1 V
0 1 V
0 1 V
4 0 V
0 1 V
0 1 V
0 1 V
4 1 V
0 1 V
0 1 V
4 0 V
0 1 V
0 1 V
0 1 V
5 0 V
0 1 V
0 1 V
0 1 V
4 1 V
0 1 V
0 1 V
0 1 V
4 0 V
0 1 V
0 1 V
0 1 V
4 0 V
0 1 V
1 0 V
0 1 V
4 0 V
0 1 V
0 1 V
0 1 V
0 1 V
4 0 V
0 1 V
0 1 V
0 1 V
4 0 V
0 1 V
0 1 V
0 1 V
4 0 V
0 1 V
0 1 V
5 1 V
0 1 V
0 1 V
4 0 V
0 1 V
0 1 V
0 1 V
4 0 V
0 1 V
0 1 V
0 1 V
4 0 V
0 1 V
1 0 V
0 1 V
0 1 V
4 0 V
0 1 V
0 1 V
4 0 V
0 1 V
0 1 V
0 1 V
4 0 V
0 1 V
0 1 V
0 1 V
4 0 V
0 1 V
stroke 3561 2680 M
0 1 V
0 1 V
5 0 V
0 1 V
0 1 V
4 0 V
0 1 V
4 0 V
0 1 V
0 1 V
0 1 V
13 -54 V
0 7 V
0 7 V
0 7 V
0 6 V
0 7 V
0 6 V
0 6 V
0 6 V
0 6 V
0 6 V
0 5 V
0 6 V
0 5 V
0 6 V
0 5 V
0 5 V
0 5 V
0 5 V
0 5 V
0 5 V
0 4 V
0 5 V
0 4 V
0 5 V
0 4 V
0 5 V
0 4 V
0 4 V
0 4 V
0 5 V
0 4 V
0 4 V
0 4 V
0 3 V
0 4 V
0 4 V
0 4 V
0 3 V
4 4 V
0 4 V
0 -4 V
0 4 V
0 3 V
0 4 V
0 3 V
0 4 V
0 3 V
0 3 V
0 4 V
0 3 V
0 3 V
0 3 V
0 4 V
0 3 V
0 3 V
0 3 V
0 3 V
0 3 V
0 3 V
0 3 V
0 3 V
0 3 V
0 2 V
0 3 V
0 3 V
0 3 V
0 2 V
0 3 V
0 3 V
0 3 V
4 2 V
0 3 V
0 -3 V
0 3 V
0 2 V
0 3 V
0 3 V
0 2 V
0 3 V
0 2 V
0 2 V
0 3 V
0 2 V
0 3 V
0 2 V
0 2 V
0 3 V
0 2 V
0 2 V
0 3 V
0 2 V
1 2 V
stroke 3596 2966 M
0 2 V
0 3 V
0 2 V
0 2 V
0 2 V
0 2 V
0 3 V
0 2 V
0 2 V
0 2 V
0 2 V
4 2 V
0 2 V
0 -2 V
0 2 V
0 2 V
0 2 V
0 2 V
0 2 V
0 2 V
0 2 V
0 2 V
0 2 V
0 2 V
0 2 V
0 2 V
0 1 V
0 2 V
0 2 V
0 2 V
0 2 V
0 2 V
0 1 V
0 2 V
0 2 V
0 2 V
0 2 V
0 1 V
0 2 V
0 2 V
0 2 V
0 1 V
0 2 V
0 2 V
0 1 V
4 2 V
0 2 V
0 -2 V
0 2 V
0 1 V
0 2 V
0 2 V
0 1 V
0 2 V
0 1 V
0 2 V
0 2 V
0 1 V
0 2 V
0 1 V
0 2 V
0 1 V
0 2 V
0 2 V
0 1 V
0 2 V
0 1 V
0 2 V
0 1 V
0 2 V
0 1 V
0 1 V
0 2 V
0 1 V
0 2 V
0 1 V
0 2 V
0 1 V
0 2 V
0 1 V
4 1 V
0 2 V
0 -2 V
0 2 V
0 1 V
0 2 V
0 1 V
0 1 V
0 2 V
0 1 V
0 1 V
0 2 V
0 1 V
0 1 V
0 2 V
0 1 V
0 1 V
0 2 V
0 1 V
0 1 V
0 2 V
0 1 V
0 1 V
0 1 V
stroke 3608 3129 M
0 2 V
0 1 V
0 1 V
0 1 V
0 2 V
0 1 V
0 1 V
0 1 V
0 2 V
0 1 V
0 1 V
0 1 V
4 1 V
0 2 V
0 -2 V
0 2 V
0 1 V
0 1 V
0 1 V
0 1 V
0 2 V
0 1 V
0 1 V
0 1 V
0 1 V
0 1 V
0 2 V
0 1 V
0 1 V
0 1 V
0 1 V
0 1 V
0 1 V
0 1 V
0 2 V
0 1 V
0 1 V
0 1 V
0 1 V
0 1 V
0 1 V
0 1 V
0 1 V
0 1 V
0 1 V
0 1 V
0 2 V
0 1 V
0 1 V
5 1 V
0 1 V
0 -574 V
0 1 V
0 1 V
0 1 V
0 1 V
4 0 V
0 1 V
0 1 V
0 1 V
4 1 V
0 1 V
0 1 V
0 1 V
4 0 V
0 1 V
0 1 V
0 1 V
5 1 V
0 1 V
0 1 V
4 0 V
0 1 V
0 1 V
0 1 V
4 0 V
0 1 V
0 1 V
4 0 V
0 1 V
0 1 V
0 1 V
5 1 V
0 1 V
0 1 V
0 1 V
4 0 V
0 1 V
0 1 V
4 0 V
0 1 V
0 1 V
0 1 V
4 0 V
0 1 V
0 1 V
1 0 V
4 0 V
0 1 V
0 1 V
0 1 V
0 1 V
4 0 V
0 1 V
stroke 3672 2653 M
0 1 V
0 1 V
4 0 V
0 1 V
0 1 V
4 0 V
0 1 V
0 1 V
5 0 V
0 1 V
0 1 V
4 0 V
0 1 V
0 1 V
0 1 V
4 0 V
0 1 V
0 1 V
0 1 V
4 0 V
0 1 V
0 1 V
1 1 V
4 0 V
0 1 V
0 1 V
4 0 V
0 1 V
0 1 V
4 0 V
0 1 V
0 1 V
0 1 V
4 0 V
0 1 V
0 1 V
0 1 V
5 0 V
0 1 V
4 0 V
0 1 V
0 1 V
4 0 V
0 1 V
0 1 V
4 0 V
0 1 V
0 1 V
1 0 V
0 1 V
4 0 V
0 1 V
0 1 V
4 1 V
0 1 V
0 1 V
4 0 V
0 1 V
0 1 V
4 0 V
0 1 V
1 0 V
4 1 V
0 1 V
0 1 V
63 1686 V
% End plot #7
% Begin plot #8
2.000 UP
stroke
LTb
LT3
0.00 0.38 0.82 C 1378 1767 TriU
2051 2327 TriU
3124 2424 TriU
3362 2518 TriU
3502 2641 TriU
3604 3081 TriU
3714 2677 TriU
% End plot #8
% Begin plot #9
2.000 UP
1.000 UL
LTb
LT3
0.00 0.38 0.82 C LCb setrgbcolor
5660 153 M
[ [(Arial) 180.0 0.0 true true 0 (per-flow)]
] -60.0 MRshow
2.000 UP
1.000 UL
LTb
LT3
0.00 0.38 0.82 C 1378 1767 TriU
5934 153 TriU
% End plot #9
2.000 UL
LTb
LCb setrgbcolor
1.000 UP
1.000 UL
LTb
0.00 0.00 0.00 C stroke
grestore
end
showpage
%%Trailer
%%DocumentFonts: Arial
