%!PS-Adobe-2.0 EPSF-2.0
%%Title: TcpVegas-cwnd-1Mbps-UE9.eps
%%Creator: gnuplot 5.0 patchlevel 3
%%CreationDate: Tue May 24 14:35:29 2016
%%DocumentFonts: (atend)
%%BoundingBox: 50 50 410 302
%%EndComments
%%BeginProlog
/gnudict 256 dict def
gnudict begin
%
% The following true/false flags may be edited by hand if desired.
% The unit line width and grayscale image gamma correction may also be changed.
%
/Color true def
/Blacktext false def
/Solid false def
/Dashlength 3 def
/Landscape false def
/Level1 false def
/Level3 false def
/Rounded false def
/ClipToBoundingBox false def
/SuppressPDFMark false def
/TransparentPatterns false def
/gnulinewidth 15.000 def
/userlinewidth gnulinewidth def
/Gamma 1.0 def
/BackgroundColor {-1.000 -1.000 -1.000} def
%
/vshift -66 def
/dl1 {
  10.0 Dashlength userlinewidth gnulinewidth div mul mul mul
  Rounded { currentlinewidth 0.75 mul sub dup 0 le { pop 0.01 } if } if
} def
/dl2 {
  10.0 Dashlength userlinewidth gnulinewidth div mul mul mul
  Rounded { currentlinewidth 0.75 mul add } if
} def
/hpt_ 31.5 def
/vpt_ 31.5 def
/hpt hpt_ def
/vpt vpt_ def
/doclip {
  ClipToBoundingBox {
    newpath 50 50 moveto 410 50 lineto 410 302 lineto 50 302 lineto closepath
    clip
  } if
} def
%
% Gnuplot Prolog Version 5.1 (Oct 2015)
%
%/SuppressPDFMark true def
%
/M {moveto} bind def
/L {lineto} bind def
/R {rmoveto} bind def
/V {rlineto} bind def
/N {newpath moveto} bind def
/Z {closepath} bind def
/C {setrgbcolor} bind def
/f {rlineto fill} bind def
/g {setgray} bind def
/Gshow {show} def   % May be redefined later in the file to support UTF-8
/vpt2 vpt 2 mul def
/hpt2 hpt 2 mul def
/Lshow {currentpoint stroke M 0 vshift R 
	Blacktext {gsave 0 setgray textshow grestore} {textshow} ifelse} def
/Rshow {currentpoint stroke M dup stringwidth pop neg vshift R
	Blacktext {gsave 0 setgray textshow grestore} {textshow} ifelse} def
/Cshow {currentpoint stroke M dup stringwidth pop -2 div vshift R 
	Blacktext {gsave 0 setgray textshow grestore} {textshow} ifelse} def
/UP {dup vpt_ mul /vpt exch def hpt_ mul /hpt exch def
  /hpt2 hpt 2 mul def /vpt2 vpt 2 mul def} def
/DL {Color {setrgbcolor Solid {pop []} if 0 setdash}
 {pop pop pop 0 setgray Solid {pop []} if 0 setdash} ifelse} def
/BL {stroke userlinewidth 2 mul setlinewidth
	Rounded {1 setlinejoin 1 setlinecap} if} def
/AL {stroke userlinewidth 2 div setlinewidth
	Rounded {1 setlinejoin 1 setlinecap} if} def
/UL {dup gnulinewidth mul /userlinewidth exch def
	dup 1 lt {pop 1} if 10 mul /udl exch def} def
/PL {stroke userlinewidth setlinewidth
	Rounded {1 setlinejoin 1 setlinecap} if} def
3.8 setmiterlimit
% Classic Line colors (version 5.0)
/LCw {1 1 1} def
/LCb {0 0 0} def
/LCa {0 0 0} def
/LC0 {1 0 0} def
/LC1 {0 1 0} def
/LC2 {0 0 1} def
/LC3 {1 0 1} def
/LC4 {0 1 1} def
/LC5 {1 1 0} def
/LC6 {0 0 0} def
/LC7 {1 0.3 0} def
/LC8 {0.5 0.5 0.5} def
% Default dash patterns (version 5.0)
/LTB {BL [] LCb DL} def
/LTw {PL [] 1 setgray} def
/LTb {PL [] LCb DL} def
/LTa {AL [1 udl mul 2 udl mul] 0 setdash LCa setrgbcolor} def
/LT0 {PL [] LC0 DL} def
/LT1 {PL [2 dl1 3 dl2] LC1 DL} def
/LT2 {PL [1 dl1 1.5 dl2] LC2 DL} def
/LT3 {PL [6 dl1 2 dl2 1 dl1 2 dl2] LC3 DL} def
/LT4 {PL [1 dl1 2 dl2 6 dl1 2 dl2 1 dl1 2 dl2] LC4 DL} def
/LT5 {PL [4 dl1 2 dl2] LC5 DL} def
/LT6 {PL [1.5 dl1 1.5 dl2 1.5 dl1 1.5 dl2 1.5 dl1 6 dl2] LC6 DL} def
/LT7 {PL [3 dl1 3 dl2 1 dl1 3 dl2] LC7 DL} def
/LT8 {PL [2 dl1 2 dl2 2 dl1 6 dl2] LC8 DL} def
/SL {[] 0 setdash} def
/Pnt {stroke [] 0 setdash gsave 1 setlinecap M 0 0 V stroke grestore} def
/Dia {stroke [] 0 setdash 2 copy vpt add M
  hpt neg vpt neg V hpt vpt neg V
  hpt vpt V hpt neg vpt V closepath stroke
  Pnt} def
/Pls {stroke [] 0 setdash vpt sub M 0 vpt2 V
  currentpoint stroke M
  hpt neg vpt neg R hpt2 0 V stroke
 } def
/Box {stroke [] 0 setdash 2 copy exch hpt sub exch vpt add M
  0 vpt2 neg V hpt2 0 V 0 vpt2 V
  hpt2 neg 0 V closepath stroke
  Pnt} def
/Crs {stroke [] 0 setdash exch hpt sub exch vpt add M
  hpt2 vpt2 neg V currentpoint stroke M
  hpt2 neg 0 R hpt2 vpt2 V stroke} def
/TriU {stroke [] 0 setdash 2 copy vpt 1.12 mul add M
  hpt neg vpt -1.62 mul V
  hpt 2 mul 0 V
  hpt neg vpt 1.62 mul V closepath stroke
  Pnt} def
/Star {2 copy Pls Crs} def
/BoxF {stroke [] 0 setdash exch hpt sub exch vpt add M
  0 vpt2 neg V hpt2 0 V 0 vpt2 V
  hpt2 neg 0 V closepath fill} def
/TriUF {stroke [] 0 setdash vpt 1.12 mul add M
  hpt neg vpt -1.62 mul V
  hpt 2 mul 0 V
  hpt neg vpt 1.62 mul V closepath fill} def
/TriD {stroke [] 0 setdash 2 copy vpt 1.12 mul sub M
  hpt neg vpt 1.62 mul V
  hpt 2 mul 0 V
  hpt neg vpt -1.62 mul V closepath stroke
  Pnt} def
/TriDF {stroke [] 0 setdash vpt 1.12 mul sub M
  hpt neg vpt 1.62 mul V
  hpt 2 mul 0 V
  hpt neg vpt -1.62 mul V closepath fill} def
/DiaF {stroke [] 0 setdash vpt add M
  hpt neg vpt neg V hpt vpt neg V
  hpt vpt V hpt neg vpt V closepath fill} def
/Pent {stroke [] 0 setdash 2 copy gsave
  translate 0 hpt M 4 {72 rotate 0 hpt L} repeat
  closepath stroke grestore Pnt} def
/PentF {stroke [] 0 setdash gsave
  translate 0 hpt M 4 {72 rotate 0 hpt L} repeat
  closepath fill grestore} def
/Circle {stroke [] 0 setdash 2 copy
  hpt 0 360 arc stroke Pnt} def
/CircleF {stroke [] 0 setdash hpt 0 360 arc fill} def
/C0 {BL [] 0 setdash 2 copy moveto vpt 90 450 arc} bind def
/C1 {BL [] 0 setdash 2 copy moveto
	2 copy vpt 0 90 arc closepath fill
	vpt 0 360 arc closepath} bind def
/C2 {BL [] 0 setdash 2 copy moveto
	2 copy vpt 90 180 arc closepath fill
	vpt 0 360 arc closepath} bind def
/C3 {BL [] 0 setdash 2 copy moveto
	2 copy vpt 0 180 arc closepath fill
	vpt 0 360 arc closepath} bind def
/C4 {BL [] 0 setdash 2 copy moveto
	2 copy vpt 180 270 arc closepath fill
	vpt 0 360 arc closepath} bind def
/C5 {BL [] 0 setdash 2 copy moveto
	2 copy vpt 0 90 arc
	2 copy moveto
	2 copy vpt 180 270 arc closepath fill
	vpt 0 360 arc} bind def
/C6 {BL [] 0 setdash 2 copy moveto
	2 copy vpt 90 270 arc closepath fill
	vpt 0 360 arc closepath} bind def
/C7 {BL [] 0 setdash 2 copy moveto
	2 copy vpt 0 270 arc closepath fill
	vpt 0 360 arc closepath} bind def
/C8 {BL [] 0 setdash 2 copy moveto
	2 copy vpt 270 360 arc closepath fill
	vpt 0 360 arc closepath} bind def
/C9 {BL [] 0 setdash 2 copy moveto
	2 copy vpt 270 450 arc closepath fill
	vpt 0 360 arc closepath} bind def
/C10 {BL [] 0 setdash 2 copy 2 copy moveto vpt 270 360 arc closepath fill
	2 copy moveto
	2 copy vpt 90 180 arc closepath fill
	vpt 0 360 arc closepath} bind def
/C11 {BL [] 0 setdash 2 copy moveto
	2 copy vpt 0 180 arc closepath fill
	2 copy moveto
	2 copy vpt 270 360 arc closepath fill
	vpt 0 360 arc closepath} bind def
/C12 {BL [] 0 setdash 2 copy moveto
	2 copy vpt 180 360 arc closepath fill
	vpt 0 360 arc closepath} bind def
/C13 {BL [] 0 setdash 2 copy moveto
	2 copy vpt 0 90 arc closepath fill
	2 copy moveto
	2 copy vpt 180 360 arc closepath fill
	vpt 0 360 arc closepath} bind def
/C14 {BL [] 0 setdash 2 copy moveto
	2 copy vpt 90 360 arc closepath fill
	vpt 0 360 arc} bind def
/C15 {BL [] 0 setdash 2 copy vpt 0 360 arc closepath fill
	vpt 0 360 arc closepath} bind def
/Rec {newpath 4 2 roll moveto 1 index 0 rlineto 0 exch rlineto
	neg 0 rlineto closepath} bind def
/Square {dup Rec} bind def
/Bsquare {vpt sub exch vpt sub exch vpt2 Square} bind def
/S0 {BL [] 0 setdash 2 copy moveto 0 vpt rlineto BL Bsquare} bind def
/S1 {BL [] 0 setdash 2 copy vpt Square fill Bsquare} bind def
/S2 {BL [] 0 setdash 2 copy exch vpt sub exch vpt Square fill Bsquare} bind def
/S3 {BL [] 0 setdash 2 copy exch vpt sub exch vpt2 vpt Rec fill Bsquare} bind def
/S4 {BL [] 0 setdash 2 copy exch vpt sub exch vpt sub vpt Square fill Bsquare} bind def
/S5 {BL [] 0 setdash 2 copy 2 copy vpt Square fill
	exch vpt sub exch vpt sub vpt Square fill Bsquare} bind def
/S6 {BL [] 0 setdash 2 copy exch vpt sub exch vpt sub vpt vpt2 Rec fill Bsquare} bind def
/S7 {BL [] 0 setdash 2 copy exch vpt sub exch vpt sub vpt vpt2 Rec fill
	2 copy vpt Square fill Bsquare} bind def
/S8 {BL [] 0 setdash 2 copy vpt sub vpt Square fill Bsquare} bind def
/S9 {BL [] 0 setdash 2 copy vpt sub vpt vpt2 Rec fill Bsquare} bind def
/S10 {BL [] 0 setdash 2 copy vpt sub vpt Square fill 2 copy exch vpt sub exch vpt Square fill
	Bsquare} bind def
/S11 {BL [] 0 setdash 2 copy vpt sub vpt Square fill 2 copy exch vpt sub exch vpt2 vpt Rec fill
	Bsquare} bind def
/S12 {BL [] 0 setdash 2 copy exch vpt sub exch vpt sub vpt2 vpt Rec fill Bsquare} bind def
/S13 {BL [] 0 setdash 2 copy exch vpt sub exch vpt sub vpt2 vpt Rec fill
	2 copy vpt Square fill Bsquare} bind def
/S14 {BL [] 0 setdash 2 copy exch vpt sub exch vpt sub vpt2 vpt Rec fill
	2 copy exch vpt sub exch vpt Square fill Bsquare} bind def
/S15 {BL [] 0 setdash 2 copy Bsquare fill Bsquare} bind def
/D0 {gsave translate 45 rotate 0 0 S0 stroke grestore} bind def
/D1 {gsave translate 45 rotate 0 0 S1 stroke grestore} bind def
/D2 {gsave translate 45 rotate 0 0 S2 stroke grestore} bind def
/D3 {gsave translate 45 rotate 0 0 S3 stroke grestore} bind def
/D4 {gsave translate 45 rotate 0 0 S4 stroke grestore} bind def
/D5 {gsave translate 45 rotate 0 0 S5 stroke grestore} bind def
/D6 {gsave translate 45 rotate 0 0 S6 stroke grestore} bind def
/D7 {gsave translate 45 rotate 0 0 S7 stroke grestore} bind def
/D8 {gsave translate 45 rotate 0 0 S8 stroke grestore} bind def
/D9 {gsave translate 45 rotate 0 0 S9 stroke grestore} bind def
/D10 {gsave translate 45 rotate 0 0 S10 stroke grestore} bind def
/D11 {gsave translate 45 rotate 0 0 S11 stroke grestore} bind def
/D12 {gsave translate 45 rotate 0 0 S12 stroke grestore} bind def
/D13 {gsave translate 45 rotate 0 0 S13 stroke grestore} bind def
/D14 {gsave translate 45 rotate 0 0 S14 stroke grestore} bind def
/D15 {gsave translate 45 rotate 0 0 S15 stroke grestore} bind def
/DiaE {stroke [] 0 setdash vpt add M
  hpt neg vpt neg V hpt vpt neg V
  hpt vpt V hpt neg vpt V closepath stroke} def
/BoxE {stroke [] 0 setdash exch hpt sub exch vpt add M
  0 vpt2 neg V hpt2 0 V 0 vpt2 V
  hpt2 neg 0 V closepath stroke} def
/TriUE {stroke [] 0 setdash vpt 1.12 mul add M
  hpt neg vpt -1.62 mul V
  hpt 2 mul 0 V
  hpt neg vpt 1.62 mul V closepath stroke} def
/TriDE {stroke [] 0 setdash vpt 1.12 mul sub M
  hpt neg vpt 1.62 mul V
  hpt 2 mul 0 V
  hpt neg vpt -1.62 mul V closepath stroke} def
/PentE {stroke [] 0 setdash gsave
  translate 0 hpt M 4 {72 rotate 0 hpt L} repeat
  closepath stroke grestore} def
/CircE {stroke [] 0 setdash 
  hpt 0 360 arc stroke} def
/Opaque {gsave closepath 1 setgray fill grestore 0 setgray closepath} def
/DiaW {stroke [] 0 setdash vpt add M
  hpt neg vpt neg V hpt vpt neg V
  hpt vpt V hpt neg vpt V Opaque stroke} def
/BoxW {stroke [] 0 setdash exch hpt sub exch vpt add M
  0 vpt2 neg V hpt2 0 V 0 vpt2 V
  hpt2 neg 0 V Opaque stroke} def
/TriUW {stroke [] 0 setdash vpt 1.12 mul add M
  hpt neg vpt -1.62 mul V
  hpt 2 mul 0 V
  hpt neg vpt 1.62 mul V Opaque stroke} def
/TriDW {stroke [] 0 setdash vpt 1.12 mul sub M
  hpt neg vpt 1.62 mul V
  hpt 2 mul 0 V
  hpt neg vpt -1.62 mul V Opaque stroke} def
/PentW {stroke [] 0 setdash gsave
  translate 0 hpt M 4 {72 rotate 0 hpt L} repeat
  Opaque stroke grestore} def
/CircW {stroke [] 0 setdash 
  hpt 0 360 arc Opaque stroke} def
/BoxFill {gsave Rec 1 setgray fill grestore} def
/Density {
  /Fillden exch def
  currentrgbcolor
  /ColB exch def /ColG exch def /ColR exch def
  /ColR ColR Fillden mul Fillden sub 1 add def
  /ColG ColG Fillden mul Fillden sub 1 add def
  /ColB ColB Fillden mul Fillden sub 1 add def
  ColR ColG ColB setrgbcolor} def
/BoxColFill {gsave Rec PolyFill} def
/PolyFill {gsave Density fill grestore grestore} def
/h {rlineto rlineto rlineto gsave closepath fill grestore} bind def
%
% PostScript Level 1 Pattern Fill routine for rectangles
% Usage: x y w h s a XX PatternFill
%	x,y = lower left corner of box to be filled
%	w,h = width and height of box
%	  a = angle in degrees between lines and x-axis
%	 XX = 0/1 for no/yes cross-hatch
%
/PatternFill {gsave /PFa [ 9 2 roll ] def
  PFa 0 get PFa 2 get 2 div add PFa 1 get PFa 3 get 2 div add translate
  PFa 2 get -2 div PFa 3 get -2 div PFa 2 get PFa 3 get Rec
  TransparentPatterns {} {gsave 1 setgray fill grestore} ifelse
  clip
  currentlinewidth 0.5 mul setlinewidth
  /PFs PFa 2 get dup mul PFa 3 get dup mul add sqrt def
  0 0 M PFa 5 get rotate PFs -2 div dup translate
  0 1 PFs PFa 4 get div 1 add floor cvi
	{PFa 4 get mul 0 M 0 PFs V} for
  0 PFa 6 get ne {
	0 1 PFs PFa 4 get div 1 add floor cvi
	{PFa 4 get mul 0 2 1 roll M PFs 0 V} for
 } if
  stroke grestore} def
%
/languagelevel where
 {pop languagelevel} {1} ifelse
dup 2 lt
	{/InterpretLevel1 true def
	 /InterpretLevel3 false def}
	{/InterpretLevel1 Level1 def
	 2 gt
	    {/InterpretLevel3 Level3 def}
	    {/InterpretLevel3 false def}
	 ifelse }
 ifelse
%
% PostScript level 2 pattern fill definitions
%
/Level2PatternFill {
/Tile8x8 {/PaintType 2 /PatternType 1 /TilingType 1 /BBox [0 0 8 8] /XStep 8 /YStep 8}
	bind def
/KeepColor {currentrgbcolor [/Pattern /DeviceRGB] setcolorspace} bind def
<< Tile8x8
 /PaintProc {0.5 setlinewidth pop 0 0 M 8 8 L 0 8 M 8 0 L stroke} 
>> matrix makepattern
/Pat1 exch def
<< Tile8x8
 /PaintProc {0.5 setlinewidth pop 0 0 M 8 8 L 0 8 M 8 0 L stroke
	0 4 M 4 8 L 8 4 L 4 0 L 0 4 L stroke}
>> matrix makepattern
/Pat2 exch def
<< Tile8x8
 /PaintProc {0.5 setlinewidth pop 0 0 M 0 8 L
	8 8 L 8 0 L 0 0 L fill}
>> matrix makepattern
/Pat3 exch def
<< Tile8x8
 /PaintProc {0.5 setlinewidth pop -4 8 M 8 -4 L
	0 12 M 12 0 L stroke}
>> matrix makepattern
/Pat4 exch def
<< Tile8x8
 /PaintProc {0.5 setlinewidth pop -4 0 M 8 12 L
	0 -4 M 12 8 L stroke}
>> matrix makepattern
/Pat5 exch def
<< Tile8x8
 /PaintProc {0.5 setlinewidth pop -2 8 M 4 -4 L
	0 12 M 8 -4 L 4 12 M 10 0 L stroke}
>> matrix makepattern
/Pat6 exch def
<< Tile8x8
 /PaintProc {0.5 setlinewidth pop -2 0 M 4 12 L
	0 -4 M 8 12 L 4 -4 M 10 8 L stroke}
>> matrix makepattern
/Pat7 exch def
<< Tile8x8
 /PaintProc {0.5 setlinewidth pop 8 -2 M -4 4 L
	12 0 M -4 8 L 12 4 M 0 10 L stroke}
>> matrix makepattern
/Pat8 exch def
<< Tile8x8
 /PaintProc {0.5 setlinewidth pop 0 -2 M 12 4 L
	-4 0 M 12 8 L -4 4 M 8 10 L stroke}
>> matrix makepattern
/Pat9 exch def
/Pattern1 {PatternBgnd KeepColor Pat1 setpattern} bind def
/Pattern2 {PatternBgnd KeepColor Pat2 setpattern} bind def
/Pattern3 {PatternBgnd KeepColor Pat3 setpattern} bind def
/Pattern4 {PatternBgnd KeepColor Landscape {Pat5} {Pat4} ifelse setpattern} bind def
/Pattern5 {PatternBgnd KeepColor Landscape {Pat4} {Pat5} ifelse setpattern} bind def
/Pattern6 {PatternBgnd KeepColor Landscape {Pat9} {Pat6} ifelse setpattern} bind def
/Pattern7 {PatternBgnd KeepColor Landscape {Pat8} {Pat7} ifelse setpattern} bind def
} def
%
%
%End of PostScript Level 2 code
%
/PatternBgnd {
  TransparentPatterns {} {gsave 1 setgray fill grestore} ifelse
} def
%
% Substitute for Level 2 pattern fill codes with
% grayscale if Level 2 support is not selected.
%
/Level1PatternFill {
/Pattern1 {0.250 Density} bind def
/Pattern2 {0.500 Density} bind def
/Pattern3 {0.750 Density} bind def
/Pattern4 {0.125 Density} bind def
/Pattern5 {0.375 Density} bind def
/Pattern6 {0.625 Density} bind def
/Pattern7 {0.875 Density} bind def
} def
%
% Now test for support of Level 2 code
%
Level1 {Level1PatternFill} {Level2PatternFill} ifelse
%
/Symbol-Oblique /Symbol findfont [1 0 .167 1 0 0] makefont
dup length dict begin {1 index /FID eq {pop pop} {def} ifelse} forall
currentdict end definefont pop
%
/MFshow {
   { dup 5 get 3 ge
     { 5 get 3 eq {gsave} {grestore} ifelse }
     {dup dup 0 get findfont exch 1 get scalefont setfont
     [ currentpoint ] exch dup 2 get 0 exch R dup 5 get 2 ne {dup dup 6
     get exch 4 get {textshow} {stringwidth pop 0 R} ifelse }if dup 5 get 0 eq
     {dup 3 get {2 get neg 0 exch R pop} {pop aload pop M} ifelse} {dup 5
     get 1 eq {dup 2 get exch dup 3 get exch 6 get stringwidth pop -2 div
     dup 0 R} {dup 6 get stringwidth pop -2 div 0 R 6 get
     textshow 2 index {aload pop M neg 3 -1 roll neg R pop pop} {pop pop pop
     pop aload pop M} ifelse }ifelse }ifelse }
     ifelse }
   forall} def
/Gswidth {dup type /stringtype eq {stringwidth} {pop (n) stringwidth} ifelse} def
/MFwidth {0 exch { dup 5 get 3 ge { 5 get 3 eq { 0 } { pop } ifelse }
 {dup 3 get{dup dup 0 get findfont exch 1 get scalefont setfont
     6 get Gswidth pop add} {pop} ifelse} ifelse} forall} def
/MLshow { currentpoint stroke M
  0 exch R
  Blacktext {gsave 0 setgray MFshow grestore} {MFshow} ifelse } bind def
/MRshow { currentpoint stroke M
  exch dup MFwidth neg 3 -1 roll R
  Blacktext {gsave 0 setgray MFshow grestore} {MFshow} ifelse } bind def
/MCshow { currentpoint stroke M
  exch dup MFwidth -2 div 3 -1 roll R
  Blacktext {gsave 0 setgray MFshow grestore} {MFshow} ifelse } bind def
/XYsave    { [( ) 1 2 true false 3 ()] } bind def
/XYrestore { [( ) 1 2 true false 4 ()] } bind def
Level1 SuppressPDFMark or 
{} {
/SDict 10 dict def
systemdict /pdfmark known not {
  userdict /pdfmark systemdict /cleartomark get put
} if
SDict begin [
  /Title (TcpVegas-cwnd-1Mbps-UE9.eps)
  /Subject (gnuplot plot)
  /Creator (gnuplot 5.0 patchlevel 3)
  /Author (nat)
%  /Producer (gnuplot)
%  /Keywords ()
  /CreationDate (Tue May 24 14:35:29 2016)
  /DOCINFO pdfmark
end
} ifelse
%
% Support for boxed text - Ethan A Merritt May 2005
%
/InitTextBox { userdict /TBy2 3 -1 roll put userdict /TBx2 3 -1 roll put
           userdict /TBy1 3 -1 roll put userdict /TBx1 3 -1 roll put
	   /Boxing true def } def
/ExtendTextBox { Boxing
    { gsave dup false charpath pathbbox
      dup TBy2 gt {userdict /TBy2 3 -1 roll put} {pop} ifelse
      dup TBx2 gt {userdict /TBx2 3 -1 roll put} {pop} ifelse
      dup TBy1 lt {userdict /TBy1 3 -1 roll put} {pop} ifelse
      dup TBx1 lt {userdict /TBx1 3 -1 roll put} {pop} ifelse
      grestore } if } def
/PopTextBox { newpath TBx1 TBxmargin sub TBy1 TBymargin sub M
               TBx1 TBxmargin sub TBy2 TBymargin add L
	       TBx2 TBxmargin add TBy2 TBymargin add L
	       TBx2 TBxmargin add TBy1 TBymargin sub L closepath } def
/DrawTextBox { PopTextBox stroke /Boxing false def} def
/FillTextBox { gsave PopTextBox 1 1 1 setrgbcolor fill grestore /Boxing false def} def
0 0 0 0 InitTextBox
/TBxmargin 20 def
/TBymargin 20 def
/Boxing false def
/textshow { ExtendTextBox Gshow } def
%
% redundant definitions for compatibility with prologue.ps older than 5.0.2
/LTB {BL [] LCb DL} def
/LTb {PL [] LCb DL} def
end
%%EndProlog
%%Page: 1 1
gnudict begin
gsave
doclip
50 50 translate
0.050 0.050 scale
0 setgray
newpath
(Arial) findfont 200 scalefont setfont
BackgroundColor 0 lt 3 1 roll 0 lt exch 0 lt or or not {BackgroundColor C 1.000 0 0 7200.00 5040.00 BoxColFill} if
1.000 UL
LTb
0.00 0.00 0.00 C 0.500 UL
LTa
0.50 0.50 0.50 C 1100 820 M
5739 0 V
stroke
1.000 UL
LTb
0.00 0.00 0.00 C 1100 820 M
63 0 V
5676 0 R
-63 0 V
stroke
980 820 M
[ [(Arial) 200.0 0.0 true true 0 ( 1)]
] -66.7 MRshow
1.000 UL
LTb
0.00 0.00 0.00 C 1100 1219 M
31 0 V
5708 0 R
-31 0 V
1100 1453 M
31 0 V
5708 0 R
-31 0 V
1100 1619 M
31 0 V
5708 0 R
-31 0 V
1100 1747 M
31 0 V
5708 0 R
-31 0 V
1100 1852 M
31 0 V
5708 0 R
-31 0 V
-5708 89 R
31 0 V
5708 0 R
-31 0 V
-5708 77 R
31 0 V
5708 0 R
-31 0 V
-5708 68 R
31 0 V
5708 0 R
-31 0 V
stroke
0.500 UL
LTa
0.50 0.50 0.50 C 1100 2146 M
5739 0 V
stroke
1.000 UL
LTb
0.00 0.00 0.00 C 1100 2146 M
63 0 V
5676 0 R
-63 0 V
stroke
980 2146 M
[ [(Arial) 200.0 0.0 true true 0 ( 10)]
] -66.7 MRshow
1.000 UL
LTb
0.00 0.00 0.00 C 1100 2546 M
31 0 V
5708 0 R
-31 0 V
1100 2779 M
31 0 V
5708 0 R
-31 0 V
1100 2945 M
31 0 V
5708 0 R
-31 0 V
1100 3073 M
31 0 V
5708 0 R
-31 0 V
1100 3178 M
31 0 V
5708 0 R
-31 0 V
-5708 89 R
31 0 V
5708 0 R
-31 0 V
-5708 77 R
31 0 V
5708 0 R
-31 0 V
-5708 68 R
31 0 V
5708 0 R
-31 0 V
stroke
0.500 UL
LTa
0.50 0.50 0.50 C 1100 3473 M
5739 0 V
stroke
1.000 UL
LTb
0.00 0.00 0.00 C 1100 3473 M
63 0 V
5676 0 R
-63 0 V
stroke
980 3473 M
[ [(Arial) 200.0 0.0 true true 0 ( 100)]
] -66.7 MRshow
1.000 UL
LTb
0.00 0.00 0.00 C 1100 3872 M
31 0 V
5708 0 R
-31 0 V
1100 4105 M
31 0 V
5708 0 R
-31 0 V
1100 4271 M
31 0 V
5708 0 R
-31 0 V
1100 4400 M
31 0 V
5708 0 R
-31 0 V
1100 4505 M
31 0 V
5708 0 R
-31 0 V
-5708 89 R
31 0 V
5708 0 R
-31 0 V
-5708 76 R
31 0 V
5708 0 R
-31 0 V
-5708 68 R
31 0 V
5708 0 R
-31 0 V
stroke
0.500 UL
LTa
0.50 0.50 0.50 C 1100 4799 M
5739 0 V
stroke
1.000 UL
LTb
0.00 0.00 0.00 C 1100 4799 M
63 0 V
5676 0 R
-63 0 V
stroke
980 4799 M
[ [(Arial) 200.0 0.0 true true 0 ( 1000)]
] -66.7 MRshow
1.000 UL
LTb
0.00 0.00 0.00 C 0.500 UL
LTa
0.50 0.50 0.50 C 1240 820 M
0 3979 V
stroke
1.000 UL
LTb
0.00 0.00 0.00 C 1240 820 M
0 63 V
0 3916 R
0 -63 V
stroke
1240 620 M
[ [(Arial) 200.0 0.0 true true 0 ( 5)]
] -66.7 MCshow
1.000 UL
LTb
0.00 0.00 0.00 C 0.500 UL
LTa
0.50 0.50 0.50 C 1940 820 M
0 3979 V
stroke
1.000 UL
LTb
0.00 0.00 0.00 C 1940 820 M
0 63 V
0 3916 R
0 -63 V
stroke
1940 620 M
[ [(Arial) 200.0 0.0 true true 0 ( 10)]
] -66.7 MCshow
1.000 UL
LTb
0.00 0.00 0.00 C 0.500 UL
LTa
0.50 0.50 0.50 C 2640 820 M
0 3979 V
stroke
1.000 UL
LTb
0.00 0.00 0.00 C 2640 820 M
0 63 V
0 3916 R
0 -63 V
stroke
2640 620 M
[ [(Arial) 200.0 0.0 true true 0 ( 15)]
] -66.7 MCshow
1.000 UL
LTb
0.00 0.00 0.00 C 0.500 UL
LTa
0.50 0.50 0.50 C 3340 820 M
0 3979 V
stroke
1.000 UL
LTb
0.00 0.00 0.00 C 3340 820 M
0 63 V
0 3916 R
0 -63 V
stroke
3340 620 M
[ [(Arial) 200.0 0.0 true true 0 ( 20)]
] -66.7 MCshow
1.000 UL
LTb
0.00 0.00 0.00 C 0.500 UL
LTa
0.50 0.50 0.50 C 4039 820 M
0 3979 V
stroke
1.000 UL
LTb
0.00 0.00 0.00 C 4039 820 M
0 63 V
0 3916 R
0 -63 V
stroke
4039 620 M
[ [(Arial) 200.0 0.0 true true 0 ( 25)]
] -66.7 MCshow
1.000 UL
LTb
0.00 0.00 0.00 C 0.500 UL
LTa
0.50 0.50 0.50 C 4739 820 M
0 3979 V
stroke
1.000 UL
LTb
0.00 0.00 0.00 C 4739 820 M
0 63 V
0 3916 R
0 -63 V
stroke
4739 620 M
[ [(Arial) 200.0 0.0 true true 0 ( 30)]
] -66.7 MCshow
1.000 UL
LTb
0.00 0.00 0.00 C 0.500 UL
LTa
0.50 0.50 0.50 C 5439 820 M
0 3979 V
stroke
1.000 UL
LTb
0.00 0.00 0.00 C 5439 820 M
0 63 V
0 3916 R
0 -63 V
stroke
5439 620 M
[ [(Arial) 200.0 0.0 true true 0 ( 35)]
] -66.7 MCshow
1.000 UL
LTb
0.00 0.00 0.00 C 0.500 UL
LTa
0.50 0.50 0.50 C 6139 820 M
0 3979 V
stroke
1.000 UL
LTb
0.00 0.00 0.00 C 6139 820 M
0 63 V
0 3916 R
0 -63 V
stroke
6139 620 M
[ [(Arial) 200.0 0.0 true true 0 ( 40)]
] -66.7 MCshow
1.000 UL
LTb
0.00 0.00 0.00 C 0.500 UL
LTa
0.50 0.50 0.50 C 6839 820 M
0 3979 V
stroke
1.000 UL
LTb
0.00 0.00 0.00 C 6839 820 M
0 63 V
0 3916 R
0 -63 V
stroke
6839 620 M
[ [(Arial) 200.0 0.0 true true 0 ( 45)]
] -66.7 MCshow
1.000 UL
LTb
0.00 0.00 0.00 C 1.000 UL
LTB
0.00 0.00 0.00 C 1100 4799 M
0 -3979 V
5739 0 V
0 3979 R
-5739 0 R
1.000 UP
stroke
LTb
0.00 0.00 0.00 C LCb setrgbcolor
160 2809 M
currentpoint gsave translate -270 rotate 0 0 moveto
[ [(Arial) 200.0 0.0 true true 0 (cWnd \(KB\))]
] -66.7 MCshow
grestore
LTb
LCb setrgbcolor
3969 320 M
[ [(Arial) 200.0 0.0 true true 0 (Time \(s\))]
] -66.7 MCshow
LTb
% Begin plot #1
1.000 UL
LTa
0.60 0.60 0.00 C 2429 1388 M
6 233 V
5 166 V
6 129 V
0 105 V
6 88 V
0 77 V
0 68 V
6 61 V
0 55 V
0 50 V
0 46 V
6 43 V
0 39 V
0 38 V
0 35 V
0 32 V
0 32 V
6 29 V
0 -29 V
12 29 V
12 28 V
0 27 V
6 26 V
6 24 V
6 24 V
6 22 V
6 22 V
6 21 V
6 20 V
6 20 V
6 19 V
6 18 V
6 18 V
6 17 V
5 17 V
6 16 V
6 16 V
6 15 V
6 15 V
6 14 V
6 15 V
0 14 V
6 13 V
6 13 V
6 13 V
6 13 V
6 12 V
12 12 V
6 12 V
6 12 V
6 11 V
6 12 V
6 11 V
6 10 V
6 11 V
6 10 V
6 10 V
6 10 V
6 10 V
17 10 V
6 10 V
6 9 V
6 9 V
18 9 V
6 9 V
6 9 V
6 9 V
32 -9 V
6 -9 V
18 9 V
6 9 V
6 8 V
6 9 V
6 8 V
6 8 V
6 8 V
5 8 V
7 8 V
5 8 V
6 7 V
6 8 V
6 7 V
6 7 V
6 8 V
6 7 V
6 7 V
6 7 V
1 7 V
6 7 V
6 6 V
20 7 V
14 -7 V
6 -6 V
12 6 V
5 7 V
6 7 V
6 6 V
6 7 V
6 6 V
20 6 V
6 -6 V
6 -6 V
6 6 V
6 6 V
stroke 3081 3593 M
6 6 V
6 7 V
6 6 V
1 6 V
19 6 V
7 -6 V
5 -6 V
6 6 V
6 6 V
6 6 V
6 5 V
6 6 V
6 6 V
15 6 V
6 -6 V
6 -6 V
6 6 V
6 6 V
6 5 V
6 6 V
0 5 V
0 -2849 V
% End plot #1
% Begin plot #2
2.000 UP
stroke
LTa
0.60 0.60 0.00 C 2429 1388 Box
% End plot #2
% Begin plot #3
2.000 UP
1.000 UL
LTa
0.60 0.60 0.00 C LCb setrgbcolor
2714 153 M
[ [(Arial) 180.0 0.0 true true 0 (olsr)]
] -60.0 MRshow
2.000 UP
1.000 UL
LTa
0.60 0.60 0.00 C 2822 153 M
333 0 V
2429 1388 M
2429 1388 Box
2988 153 Box
% End plot #3
% Begin plot #4
1.000 UL
LTb
LT1
0.00 0.00 0.63 C 1169 1388 M
6 233 V
6 166 V
6 129 V
0 105 V
6 88 V
0 77 V
0 68 V
5 116 V
0 -116 V
0 61 V
0 55 V
0 50 V
0 -234 V
0 68 V
0 -233 V
0 88 V
6 77 V
0 -77 V
0 77 V
6 68 V
12 61 V
6 55 V
12 50 V
24 46 V
12 43 V
0 -21 V
0 41 V
0 -462 V
0 82 V
6 -178 V
0 96 V
0 -551 V
0 194 V
0 145 V
0 61 V
6 193 V
0 77 V
0 -270 V
0 105 V
0 -234 V
0 129 V
6 -129 V
0 234 V
0 -234 V
0 129 V
6 -295 V
0 166 V
0 -166 V
0 166 V
0 129 V
0 -295 V
12 166 V
5 35 V
0 31 V
6 28 V
6 25 V
0 24 V
6 21 V
7 20 V
0 19 V
6 17 V
17 14 V
7 15 V
0 15 V
12 58 V
0 12 V
6 65 V
6 9 V
0 59 V
0 -338 V
0 105 V
6 -234 V
0 129 V
0 105 V
6 165 V
0 68 V
0 -338 V
0 105 V
0 -234 V
0 129 V
5 193 V
0 -322 V
0 129 V
6 -528 V
0 233 V
0 166 V
7 35 V
6 31 V
0 28 V
6 25 V
0 24 V
6 21 V
0 20 V
12 50 V
6 15 V
0 73 V
30 77 V
0 9 V
6 59 V
12 7 V
0 54 V
18 55 V
6 5 V
12 45 V
stroke 1546 2420 M
0 -234 V
0 68 V
1 -145 V
0 77 V
5 -270 V
0 105 V
0 -234 V
0 129 V
0 -129 V
0 129 V
0 105 V
0 88 V
6 145 V
0 -233 V
0 88 V
0 -322 V
0 129 V
0 105 V
12 88 V
6 12 V
6 65 V
6 68 V
12 61 V
6 6 V
6 49 V
6 50 V
0 -50 V
0 50 V
0 -105 V
0 55 V
0 -261 V
0 77 V
6 68 V
0 -145 V
0 77 V
0 68 V
0 116 V
6 -55 V
0 55 V
0 50 V
0 -799 V
0 166 V
0 234 V
6 88 V
0 77 V
6 68 V
6 61 V
18 55 V
6 50 V
6 46 V
6 43 V
24 3 V
12 36 V
12 -29 V
0 -42 V
0 42 V
0 -136 V
0 49 V
0 -610 V
0 122 V
6 100 V
0 -588 V
0 212 V
0 248 V
6 105 V
0 88 V
0 77 V
6 68 V
0 61 V
0 55 V
0 50 V
12 46 V
17 43 V
6 10 V
0 -87 V
0 45 V
0 42 V
0 -315 V
0 66 V
0 -140 V
0 74 V
0 -160 V
0 86 V
6 -86 V
0 86 V
0 -186 V
0 100 V
0 142 V
0 129 V
0 -129 V
0 68 V
0 61 V
0 55 V
6 -55 V
0 55 V
0 -116 V
0 61 V
0 55 V
0 -184 V
0 68 V
0 61 V
0 -206 V
18 77 V
0 9 V
stroke 1815 2195 M
6 59 V
6 61 V
0 -294 V
0 88 V
0 77 V
0 -165 V
0 88 V
6 -193 V
0 105 V
0 88 V
12 77 V
6 68 V
36 61 V
12 55 V
6 50 V
15 46 V
8 43 V
39 39 V
35 38 V
12 35 V
6 32 V
6 32 V
12 29 V
6 -61 V
0 -105 V
0 38 V
0 -166 V
0 46 V
0 -96 V
0 50 V
0 -166 V
0 61 V
0 55 V
0 -454 V
0 105 V
0 -234 V
0 129 V
6 193 V
0 145 V
0 61 V
0 -206 V
0 77 V
0 68 V
6 -145 V
0 77 V
0 68 V
0 61 V
0 -294 V
12 15 V
6 73 V
6 12 V
6 11 V
6 54 V
6 9 V
0 59 V
11 61 V
18 55 V
12 50 V
6 46 V
42 -11 V
0 -155 V
0 57 V
0 -119 V
0 62 V
0 -211 V
0 79 V
0 70 V
0 -488 V
0 136 V
6 135 V
0 165 V
0 68 V
0 61 V
0 -129 V
0 68 V
6 -145 V
0 77 V
0 68 V
0 -68 V
0 68 V
0 61 V
0 55 V
0 -454 V
24 105 V
6 15 V
6 73 V
12 77 V
6 68 V
6 61 V
6 55 V
12 13 V
0 49 V
0 -488 V
0 100 V
6 -222 V
0 122 V
0 -276 V
0 154 V
0 199 V
6 165 V
0 -77 V
0 77 V
0 -165 V
0 88 V
stroke 2289 2109 M
0 -88 V
0 88 V
0 -88 V
0 88 V
0 -88 V
0 88 V
0 -193 V
11 105 V
0 15 V
13 73 V
6 77 V
11 68 V
0 61 V
0 -399 V
0 105 V
0 -400 V
0 166 V
6 -166 V
0 166 V
0 129 V
0 105 V
6 165 V
0 68 V
0 -467 V
0 129 V
0 -295 V
0 166 V
6 129 V
12 105 V
6 15 V
6 73 V
7 12 V
6 65 V
12 68 V
5 7 V
12 54 V
6 55 V
6 50 V
0 46 V
6 43 V
12 -21 V
0 41 V
0 38 V
0 36 V
0 34 V
0 -927 V
0 145 V
6 166 V
0 88 V
6 77 V
0 129 V
0 -294 V
0 88 V
0 -193 V
0 105 V
6 -105 V
0 105 V
0 -105 V
0 105 V
0 88 V
6 145 V
0 61 V
0 -61 V
0 61 V
0 -294 V
0 88 V
0 -193 V
0 105 V
5 -234 V
0 129 V
0 105 V
18 88 V
18 77 V
30 68 V
0 -68 V
0 68 V
0 -633 V
0 166 V
6 -399 V
0 233 V
0 295 V
0 105 V
18 88 V
6 77 V
12 68 V
6 61 V
6 6 V
23 49 V
19 50 V
5 46 V
57 -11 V
0 43 V
0 -409 V
0 79 V
2 -172 V
0 93 V
4 -93 V
0 93 V
0 79 V
0 70 V
0 62 V
0 -114 V
2 129 V
4 55 V
stroke 2709 2370 M
0 -116 V
0 61 V
0 -129 V
0 68 V
0 61 V
0 55 V
0 50 V
0 -311 V
18 77 V
24 68 V
12 61 V
5 6 V
6 22 V
0 -276 V
0 82 V
0 -294 V
0 116 V
6 -261 V
0 145 V
0 166 V
6 165 V
0 68 V
0 -68 V
0 68 V
0 61 V
0 -61 V
0 61 V
0 -129 V
0 68 V
0 61 V
0 -129 V
0 68 V
0 -338 V
6 193 V
0 77 V
0 -165 V
0 88 V
0 -193 V
0 105 V
6 -234 V
0 129 V
0 -129 V
0 234 V
6 88 V
0 77 V
0 -565 V
6 61 V
6 50 V
6 42 V
6 36 V
6 32 V
0 29 V
6 26 V
0 24 V
6 23 V
18 77 V
6 15 V
12 73 V
6 12 V
6 65 V
6 9 V
6 59 V
0 7 V
42 54 V
12 28 V
0 52 V
0 -540 V
0 116 V
0 -261 V
0 145 V
6 -145 V
0 145 V
0 116 V
0 50 V
0 88 V
0 145 V
6 61 V
0 -61 V
0 61 V
0 55 V
0 -55 V
0 55 V
0 -184 V
0 68 V
0 -233 V
12 88 V
6 12 V
11 65 V
6 68 V
0 7 V
12 54 V
12 55 V
6 50 V
6 46 V
6 43 V
6 39 V
6 -29 V
0 39 V
0 -514 V
0 86 V
0 -308 V
0 122 V
0 -488 V
0 212 V
stroke 3061 1668 M
6 248 V
0 193 V
0 77 V
6 -165 V
0 88 V
0 -88 V
0 88 V
0 -88 V
0 88 V
0 -322 V
12 129 V
6 105 V
6 128 V
0 -633 V
0 194 V
6 -488 V
0 294 V
0 271 V
6 129 V
6 105 V
6 88 V
6 12 V
0 11 V
6 11 V
6 10 V
12 33 V
6 68 V
6 61 V
24 55 V
6 50 V
6 46 V
66 3 V
30 -12 V
0 44 V
0 -608 V
0 109 V
6 -672 V
0 253 V
0 176 V
0 28 V
6 129 V
0 193 V
1 -721 V
0 233 V
5 166 V
12 129 V
0 22 V
6 21 V
18 62 V
6 15 V
12 73 V
6 77 V
5 9 V
6 59 V
6 61 V
6 55 V
18 50 V
6 46 V
0 43 V
0 39 V
0 -294 V
0 61 V
0 -61 V
0 61 V
0 -129 V
0 68 V
0 -145 V
0 77 V
6 -165 V
0 88 V
0 77 V
0 68 V
2 116 V
0 50 V
0 -105 V
0 55 V
4 -55 V
0 55 V
0 50 V
0 -50 V
0 50 V
0 46 V
0 -280 V
6 129 V
0 55 V
0 -349 V
0 88 V
2 -193 V
0 105 V
0 -234 V
0 129 V
4 105 V
0 88 V
24 77 V
6 9 V
17 9 V
48 50 V
12 61 V
6 55 V
6 5 V
6 45 V
6 46 V
6 -11 V
0 -459 V
stroke 3581 1996 M
0 93 V
0 -203 V
0 110 V
2 -246 V
0 136 V
4 -136 V
0 136 V
0 -315 V
0 179 V
0 166 V
2 193 V
4 77 V
0 -270 V
0 105 V
0 -234 V
0 129 V
0 -129 V
12 129 V
2 22 V
6 21 V
6 20 V
6 18 V
5 17 V
6 16 V
5 15 V
6 15 V
12 13 V
1 14 V
6 22 V
5 12 V
71 65 V
6 68 V
5 61 V
12 55 V
6 5 V
18 45 V
12 46 V
6 -11 V
0 -155 V
0 57 V
0 51 V
0 47 V
0 -366 V
0 79 V
4 -172 V
0 93 V
2 -93 V
0 93 V
0 79 V
0 70 V
0 62 V
0 -132 V
0 70 V
0 -52 V
0 68 V
6 61 V
12 55 V
12 50 V
24 46 V
0 -11 V
0 -47 V
0 47 V
0 43 V
0 41 V
0 -371 V
0 70 V
5 -70 V
0 70 V
0 -149 V
0 79 V
0 70 V
0 -70 V
0 70 V
0 62 V
12 15 V
18 55 V
18 50 V
6 46 V
6 43 V
12 39 V
0 -29 V
0 39 V
0 -614 V
0 100 V
6 -100 V
0 100 V
0 86 V
0 -308 V
0 122 V
0 165 V
6 77 V
0 129 V
0 55 V
1 -349 V
0 88 V
5 -193 V
0 105 V
0 88 V
0 -88 V
0 88 V
5 77 V
6 9 V
12 9 V
24 50 V
stroke 4009 2254 M
6 7 V
6 54 V
17 28 V
0 -276 V
0 82 V
0 72 V
0 -250 V
0 96 V
2 -212 V
0 116 V
4 -261 V
0 145 V
0 166 V
0 88 V
6 77 V
24 68 V
18 61 V
5 28 V
0 52 V
0 -328 V
0 82 V
0 -178 V
0 96 V
6 -212 V
0 116 V
0 50 V
6 88 V
0 77 V
24 68 V
6 7 V
0 82 V
0 -372 V
0 96 V
0 -212 V
0 116 V
6 -116 V
0 116 V
0 -261 V
0 145 V
0 116 V
0 50 V
6 88 V
0 77 V
6 129 V
0 -399 V
0 105 V
6 -234 V
0 129 V
0 105 V
0 88 V
65 12 V
6 142 V
0 -331 V
0 102 V
6 -227 V
0 125 V
0 89 V
6 88 V
0 12 V
12 11 V
18 54 V
6 68 V
6 61 V
12 28 V
0 -488 V
0 116 V
3 -261 V
0 145 V
3 -339 V
0 194 V
0 -194 V
0 194 V
2 206 V
4 105 V
2 88 V
0 77 V
4 68 V
27 61 V
17 55 V
3 50 V
15 46 V
9 43 V
6 39 V
3 -29 V
0 -190 V
0 54 V
3 -113 V
0 59 V
0 -125 V
0 66 V
0 -140 V
0 74 V
3 -74 V
0 74 V
0 -160 V
0 86 V
0 74 V
0 -160 V
0 86 V
0 74 V
0 50 V
3 116 V
2 -55 V
0 55 V
stroke 4409 2370 M
0 -116 V
0 61 V
0 55 V
0 -116 V
0 61 V
0 -129 V
0 68 V
0 -145 V
0 77 V
4 -77 V
0 77 V
5 129 V
3 -129 V
0 68 V
0 -68 V
0 68 V
0 61 V
0 -294 V
0 88 V
0 77 V
0 -77 V
18 77 V
6 68 V
6 61 V
6 55 V
6 13 V
0 -54 V
0 54 V
0 49 V
0 -228 V
0 66 V
0 -140 V
0 74 V
6 -74 V
0 74 V
0 -160 V
0 86 V
0 74 V
6 125 V
0 54 V
0 -113 V
0 59 V
0 54 V
0 -113 V
0 59 V
0 -285 V
0 86 V
6 -86 V
0 86 V
0 74 V
0 -74 V
11 10 V
6 46 V
6 9 V
6 59 V
6 7 V
6 68 V
0 -385 V
0 100 V
0 -222 V
0 122 V
6 -276 V
0 154 V
0 122 V
0 77 V
0 88 V
6 145 V
0 -68 V
0 68 V
0 -866 V
0 233 V
6 295 V
0 105 V
0 15 V
6 15 V
5 58 V
6 12 V
0 11 V
6 11 V
12 43 V
6 68 V
6 61 V
6 55 V
24 13 V
0 -439 V
0 100 V
2 -222 V
0 122 V
4 -276 V
0 154 V
0 -154 V
0 154 V
0 -154 V
0 154 V
2 199 V
4 88 V
2 77 V
0 68 V
10 61 V
12 55 V
6 50 V
6 46 V
47 43 V
44 39 V
stroke 4756 2548 M
23 38 V
36 -38 V
0 38 V
0 -271 V
0 55 V
4 -116 V
0 61 V
0 -129 V
0 68 V
2 -145 V
0 77 V
0 -165 V
0 88 V
0 77 V
0 -165 V
0 88 V
0 145 V
4 116 V
0 50 V
1 -50 V
0 50 V
0 -50 V
0 50 V
0 46 V
0 43 V
0 -89 V
0 46 V
0 43 V
0 -43 V
0 43 V
0 -89 V
0 46 V
0 -46 V
0 46 V
0 -96 V
0 50 V
5 -234 V
1 68 V
30 61 V
12 55 V
23 50 V
6 46 V
0 -11 V
0 -98 V
0 51 V
0 47 V
0 43 V
0 -330 V
0 70 V
6 -70 V
0 70 V
0 62 V
0 -132 V
0 70 V
0 62 V
0 57 V
0 51 V
0 -154 V
0 61 V
6 105 V
0 -50 V
0 50 V
0 46 V
0 -96 V
0 50 V
0 46 V
0 -96 V
0 50 V
0 -166 V
0 61 V
0 55 V
0 50 V
0 -166 V
0 61 V
6 -61 V
18 61 V
6 55 V
29 50 V
6 46 V
6 3 V
6 -14 V
0 -98 V
0 51 V
0 -170 V
0 62 V
0 -414 V
0 110 V
6 -110 V
0 110 V
0 -246 V
0 136 V
0 135 V
6 88 V
0 77 V
0 68 V
6 61 V
6 55 V
12 50 V
11 46 V
24 -11 V
0 43 V
0 -43 V
0 43 V
0 -90 V
stroke 5063 2408 M
0 47 V
0 43 V
0 -409 V
0 79 V
6 -172 V
0 93 V
0 79 V
0 70 V
0 -52 V
0 129 V
0 55 V
0 50 V
0 -105 V
0 55 V
6 50 V
0 -234 V
0 68 V
0 61 V
0 -206 V
29 12 V
6 65 V
18 68 V
18 61 V
6 55 V
0 13 V
0 -339 V
0 86 V
0 74 V
0 -160 V
0 86 V
5 -86 V
0 86 V
0 -186 V
0 100 V
0 86 V
0 74 V
0 -74 V
0 74 V
0 66 V
0 -66 V
6 125 V
0 54 V
0 -54 V
0 54 V
0 49 V
0 -103 V
0 54 V
0 -54 V
0 54 V
0 -54 V
0 54 V
0 -113 V
0 59 V
0 -125 V
0 66 V
6 -140 V
12 56 V
6 9 V
0 59 V
24 61 V
6 55 V
0 13 V
0 49 V
0 -302 V
0 74 V
6 -160 V
0 86 V
0 -308 V
0 122 V
0 100 V
0 -222 V
0 122 V
0 77 V
5 88 V
0 77 V
6 68 V
6 7 V
6 54 V
12 55 V
2 5 V
16 45 V
6 46 V
12 -11 V
0 -47 V
0 47 V
0 43 V
0 -330 V
0 70 V
1 -149 V
0 79 V
5 -172 V
0 93 V
0 -93 V
0 93 V
0 97 V
1 129 V
5 -61 V
0 61 V
0 55 V
0 -184 V
0 68 V
0 -145 V
0 77 V
0 -77 V
stroke 5306 2109 M
0 77 V
0 -165 V
0 88 V
12 77 V
11 68 V
18 61 V
6 55 V
12 13 V
0 -339 V
0 86 V
6 -186 V
0 100 V
0 -222 V
0 122 V
0 -488 V
0 212 V
0 154 V
0 94 V
6 105 V
0 88 V
6 77 V
0 68 V
18 116 V
0 -184 V
0 68 V
0 -338 V
0 105 V
6 -234 V
0 129 V
0 -129 V
0 129 V
0 193 V
0 77 V
6 129 V
0 -61 V
0 61 V
0 -528 V
0 129 V
0 -129 V
0 129 V
0 193 V
5 145 V
0 61 V
0 55 V
0 -261 V
0 77 V
0 68 V
0 -233 V
0 88 V
6 77 V
0 68 V
0 -338 V
0 105 V
12 88 V
6 77 V
6 68 V
28 61 V
32 55 V
10 50 V
14 46 V
10 43 V
41 -21 V
0 -45 V
0 45 V
0 41 V
0 38 V
0 -224 V
0 52 V
0 -424 V
0 96 V
3 82 V
0 -178 V
0 96 V
3 119 V
0 129 V
0 55 V
0 -116 V
0 61 V
0 55 V
3 -116 V
0 61 V
0 55 V
3 -116 V
0 61 V
0 -61 V
0 61 V
0 -129 V
0 68 V
0 61 V
0 -206 V
18 77 V
6 68 V
12 61 V
14 55 V
3 50 V
12 46 V
56 43 V
6 39 V
21 38 V
32 35 V
11 32 V
6 32 V
6 29 V
6 -61 V
stroke 5804 2653 M
0 -399 V
0 61 V
4 -129 V
0 68 V
0 61 V
0 -129 V
0 68 V
2 -145 V
0 77 V
0 -270 V
0 105 V
0 88 V
0 -88 V
0 88 V
0 77 V
0 68 V
4 116 V
2 50 V
0 -105 V
0 55 V
0 50 V
0 -504 V
0 105 V
4 88 V
2 77 V
10 68 V
13 61 V
12 55 V
6 50 V
6 46 V
6 43 V
42 39 V
11 -29 V
0 39 V
0 37 V
0 -465 V
0 74 V
6 -160 V
0 86 V
0 -86 V
0 86 V
0 -186 V
0 100 V
0 -222 V
0 122 V
0 100 V
0 65 V
6 77 V
0 129 V
0 -129 V
0 68 V
0 -145 V
0 77 V
6 -165 V
0 88 V
0 -322 V
0 129 V
0 105 V
0 88 V
6 145 V
0 61 V
0 -206 V
0 77 V
0 -165 V
0 88 V
6 -193 V
0 105 V
6 88 V
6 12 V
6 65 V
6 68 V
5 7 V
6 54 V
6 28 V
0 -372 V
0 96 V
6 -212 V
0 116 V
0 -749 V
0 294 V
0 194 V
0 77 V
6 129 V
0 105 V
6 88 V
0 77 V
0 68 V
6 61 V
12 55 V
6 5 V
12 45 V
37 46 V
28 43 V
6 -21 V
0 -145 V
0 52 V
0 -174 V
0 64 V
0 -136 V
0 72 V
2 -154 V
0 82 V
0 -178 V
0 96 V
stroke 6126 2067 M
3 82 V
0 72 V
0 -35 V
0 129 V
2 55 V
0 -116 V
0 61 V
0 55 V
4 -116 V
0 61 V
0 55 V
0 50 V
0 -234 V
0 68 V
0 -145 V
12 77 V
12 68 V
12 61 V
18 28 V
0 -122 V
0 64 V
0 58 V
0 -785 V
0 -738 V
% End plot #4
% Begin plot #5
2.000 UP
stroke
LTb
LT1
0.00 0.00 0.63 C 1169 1388 Circle
1510 2261 Circle
1797 2254 Circle
2277 2432 Circle
2616 2370 Circle
2972 2254 Circle
3432 2370 Circle
3902 2370 Circle
4306 1710 Circle
4534 2186 Circle
4915 2370 Circle
5211 2315 Circle
5448 2254 Circle
5940 2109 Circle
% End plot #5
% Begin plot #6
2.000 UP
1.000 UL
LTb
LT1
0.00 0.00 0.63 C LCb setrgbcolor
4127 153 M
[ [(Arial) 180.0 0.0 true true 0 (per-packet)]
] -60.0 MRshow
2.000 UP
1.000 UL
LTb
LT1
0.00 0.00 0.63 C 1169 1388 Circle
4401 153 Circle
% End plot #6
% Begin plot #7
1.000 UL
LTb
LT3
0.00 0.38 0.82 C 1169 1388 M
6 233 V
6 166 V
6 129 V
0 105 V
6 88 V
0 77 V
0 68 V
6 61 V
0 55 V
0 50 V
0 46 V
5 43 V
0 39 V
0 38 V
0 35 V
0 32 V
0 32 V
7 29 V
0 -29 V
47 29 V
12 28 V
0 27 V
6 26 V
6 24 V
6 24 V
6 22 V
6 22 V
6 21 V
6 20 V
6 20 V
6 19 V
6 18 V
6 18 V
6 17 V
6 17 V
6 16 V
6 16 V
6 15 V
6 15 V
6 14 V
13 15 V
6 14 V
6 13 V
54 13 V
60 13 V
25 13 V
24 12 V
60 12 V
6 -12 V
24 12 V
6 -12 V
6 -12 V
6 -13 V
6 -13 V
6 -13 V
19 -13 V
351 -14 V
137 -15 V
18 -14 V
13 -15 V
6 -15 V
18 -16 V
2429 989 L
20 399 V
7 233 V
6 166 V
6 129 V
0 105 V
6 88 V
0 77 V
0 68 V
7 61 V
0 -61 V
220 7 V
0 -1441 V
% End plot #7
% Begin plot #8
2.000 UP
stroke
LTb
LT3
0.00 0.38 0.82 C 1169 1388 TriU
% End plot #8
% Begin plot #9
2.000 UP
1.000 UL
LTb
LT3
0.00 0.38 0.82 C LCb setrgbcolor
5540 153 M
[ [(Arial) 180.0 0.0 true true 0 (per-flow)]
] -60.0 MRshow
2.000 UP
1.000 UL
LTb
LT3
0.00 0.38 0.82 C 1169 1388 TriU
5814 153 TriU
% End plot #9
2.000 UL
LTb
LCb setrgbcolor
1.000 UP
1.000 UL
LTb
0.00 0.00 0.00 C stroke
grestore
end
showpage
%%Trailer
%%DocumentFonts: Arial
