%!PS-Adobe-2.0 EPSF-2.0
%%Title: TcpVeno-cwnd-1Mbps-UE7.eps
%%Creator: gnuplot 5.0 patchlevel 3
%%CreationDate: Tue May 24 14:35:37 2016
%%DocumentFonts: (atend)
%%BoundingBox: 50 50 410 302
%%EndComments
%%BeginProlog
/gnudict 256 dict def
gnudict begin
%
% The following true/false flags may be edited by hand if desired.
% The unit line width and grayscale image gamma correction may also be changed.
%
/Color true def
/Blacktext false def
/Solid false def
/Dashlength 3 def
/Landscape false def
/Level1 false def
/Level3 false def
/Rounded false def
/ClipToBoundingBox false def
/SuppressPDFMark false def
/TransparentPatterns false def
/gnulinewidth 15.000 def
/userlinewidth gnulinewidth def
/Gamma 1.0 def
/BackgroundColor {-1.000 -1.000 -1.000} def
%
/vshift -66 def
/dl1 {
  10.0 Dashlength userlinewidth gnulinewidth div mul mul mul
  Rounded { currentlinewidth 0.75 mul sub dup 0 le { pop 0.01 } if } if
} def
/dl2 {
  10.0 Dashlength userlinewidth gnulinewidth div mul mul mul
  Rounded { currentlinewidth 0.75 mul add } if
} def
/hpt_ 31.5 def
/vpt_ 31.5 def
/hpt hpt_ def
/vpt vpt_ def
/doclip {
  ClipToBoundingBox {
    newpath 50 50 moveto 410 50 lineto 410 302 lineto 50 302 lineto closepath
    clip
  } if
} def
%
% Gnuplot Prolog Version 5.1 (Oct 2015)
%
%/SuppressPDFMark true def
%
/M {moveto} bind def
/L {lineto} bind def
/R {rmoveto} bind def
/V {rlineto} bind def
/N {newpath moveto} bind def
/Z {closepath} bind def
/C {setrgbcolor} bind def
/f {rlineto fill} bind def
/g {setgray} bind def
/Gshow {show} def   % May be redefined later in the file to support UTF-8
/vpt2 vpt 2 mul def
/hpt2 hpt 2 mul def
/Lshow {currentpoint stroke M 0 vshift R 
	Blacktext {gsave 0 setgray textshow grestore} {textshow} ifelse} def
/Rshow {currentpoint stroke M dup stringwidth pop neg vshift R
	Blacktext {gsave 0 setgray textshow grestore} {textshow} ifelse} def
/Cshow {currentpoint stroke M dup stringwidth pop -2 div vshift R 
	Blacktext {gsave 0 setgray textshow grestore} {textshow} ifelse} def
/UP {dup vpt_ mul /vpt exch def hpt_ mul /hpt exch def
  /hpt2 hpt 2 mul def /vpt2 vpt 2 mul def} def
/DL {Color {setrgbcolor Solid {pop []} if 0 setdash}
 {pop pop pop 0 setgray Solid {pop []} if 0 setdash} ifelse} def
/BL {stroke userlinewidth 2 mul setlinewidth
	Rounded {1 setlinejoin 1 setlinecap} if} def
/AL {stroke userlinewidth 2 div setlinewidth
	Rounded {1 setlinejoin 1 setlinecap} if} def
/UL {dup gnulinewidth mul /userlinewidth exch def
	dup 1 lt {pop 1} if 10 mul /udl exch def} def
/PL {stroke userlinewidth setlinewidth
	Rounded {1 setlinejoin 1 setlinecap} if} def
3.8 setmiterlimit
% Classic Line colors (version 5.0)
/LCw {1 1 1} def
/LCb {0 0 0} def
/LCa {0 0 0} def
/LC0 {1 0 0} def
/LC1 {0 1 0} def
/LC2 {0 0 1} def
/LC3 {1 0 1} def
/LC4 {0 1 1} def
/LC5 {1 1 0} def
/LC6 {0 0 0} def
/LC7 {1 0.3 0} def
/LC8 {0.5 0.5 0.5} def
% Default dash patterns (version 5.0)
/LTB {BL [] LCb DL} def
/LTw {PL [] 1 setgray} def
/LTb {PL [] LCb DL} def
/LTa {AL [1 udl mul 2 udl mul] 0 setdash LCa setrgbcolor} def
/LT0 {PL [] LC0 DL} def
/LT1 {PL [2 dl1 3 dl2] LC1 DL} def
/LT2 {PL [1 dl1 1.5 dl2] LC2 DL} def
/LT3 {PL [6 dl1 2 dl2 1 dl1 2 dl2] LC3 DL} def
/LT4 {PL [1 dl1 2 dl2 6 dl1 2 dl2 1 dl1 2 dl2] LC4 DL} def
/LT5 {PL [4 dl1 2 dl2] LC5 DL} def
/LT6 {PL [1.5 dl1 1.5 dl2 1.5 dl1 1.5 dl2 1.5 dl1 6 dl2] LC6 DL} def
/LT7 {PL [3 dl1 3 dl2 1 dl1 3 dl2] LC7 DL} def
/LT8 {PL [2 dl1 2 dl2 2 dl1 6 dl2] LC8 DL} def
/SL {[] 0 setdash} def
/Pnt {stroke [] 0 setdash gsave 1 setlinecap M 0 0 V stroke grestore} def
/Dia {stroke [] 0 setdash 2 copy vpt add M
  hpt neg vpt neg V hpt vpt neg V
  hpt vpt V hpt neg vpt V closepath stroke
  Pnt} def
/Pls {stroke [] 0 setdash vpt sub M 0 vpt2 V
  currentpoint stroke M
  hpt neg vpt neg R hpt2 0 V stroke
 } def
/Box {stroke [] 0 setdash 2 copy exch hpt sub exch vpt add M
  0 vpt2 neg V hpt2 0 V 0 vpt2 V
  hpt2 neg 0 V closepath stroke
  Pnt} def
/Crs {stroke [] 0 setdash exch hpt sub exch vpt add M
  hpt2 vpt2 neg V currentpoint stroke M
  hpt2 neg 0 R hpt2 vpt2 V stroke} def
/TriU {stroke [] 0 setdash 2 copy vpt 1.12 mul add M
  hpt neg vpt -1.62 mul V
  hpt 2 mul 0 V
  hpt neg vpt 1.62 mul V closepath stroke
  Pnt} def
/Star {2 copy Pls Crs} def
/BoxF {stroke [] 0 setdash exch hpt sub exch vpt add M
  0 vpt2 neg V hpt2 0 V 0 vpt2 V
  hpt2 neg 0 V closepath fill} def
/TriUF {stroke [] 0 setdash vpt 1.12 mul add M
  hpt neg vpt -1.62 mul V
  hpt 2 mul 0 V
  hpt neg vpt 1.62 mul V closepath fill} def
/TriD {stroke [] 0 setdash 2 copy vpt 1.12 mul sub M
  hpt neg vpt 1.62 mul V
  hpt 2 mul 0 V
  hpt neg vpt -1.62 mul V closepath stroke
  Pnt} def
/TriDF {stroke [] 0 setdash vpt 1.12 mul sub M
  hpt neg vpt 1.62 mul V
  hpt 2 mul 0 V
  hpt neg vpt -1.62 mul V closepath fill} def
/DiaF {stroke [] 0 setdash vpt add M
  hpt neg vpt neg V hpt vpt neg V
  hpt vpt V hpt neg vpt V closepath fill} def
/Pent {stroke [] 0 setdash 2 copy gsave
  translate 0 hpt M 4 {72 rotate 0 hpt L} repeat
  closepath stroke grestore Pnt} def
/PentF {stroke [] 0 setdash gsave
  translate 0 hpt M 4 {72 rotate 0 hpt L} repeat
  closepath fill grestore} def
/Circle {stroke [] 0 setdash 2 copy
  hpt 0 360 arc stroke Pnt} def
/CircleF {stroke [] 0 setdash hpt 0 360 arc fill} def
/C0 {BL [] 0 setdash 2 copy moveto vpt 90 450 arc} bind def
/C1 {BL [] 0 setdash 2 copy moveto
	2 copy vpt 0 90 arc closepath fill
	vpt 0 360 arc closepath} bind def
/C2 {BL [] 0 setdash 2 copy moveto
	2 copy vpt 90 180 arc closepath fill
	vpt 0 360 arc closepath} bind def
/C3 {BL [] 0 setdash 2 copy moveto
	2 copy vpt 0 180 arc closepath fill
	vpt 0 360 arc closepath} bind def
/C4 {BL [] 0 setdash 2 copy moveto
	2 copy vpt 180 270 arc closepath fill
	vpt 0 360 arc closepath} bind def
/C5 {BL [] 0 setdash 2 copy moveto
	2 copy vpt 0 90 arc
	2 copy moveto
	2 copy vpt 180 270 arc closepath fill
	vpt 0 360 arc} bind def
/C6 {BL [] 0 setdash 2 copy moveto
	2 copy vpt 90 270 arc closepath fill
	vpt 0 360 arc closepath} bind def
/C7 {BL [] 0 setdash 2 copy moveto
	2 copy vpt 0 270 arc closepath fill
	vpt 0 360 arc closepath} bind def
/C8 {BL [] 0 setdash 2 copy moveto
	2 copy vpt 270 360 arc closepath fill
	vpt 0 360 arc closepath} bind def
/C9 {BL [] 0 setdash 2 copy moveto
	2 copy vpt 270 450 arc closepath fill
	vpt 0 360 arc closepath} bind def
/C10 {BL [] 0 setdash 2 copy 2 copy moveto vpt 270 360 arc closepath fill
	2 copy moveto
	2 copy vpt 90 180 arc closepath fill
	vpt 0 360 arc closepath} bind def
/C11 {BL [] 0 setdash 2 copy moveto
	2 copy vpt 0 180 arc closepath fill
	2 copy moveto
	2 copy vpt 270 360 arc closepath fill
	vpt 0 360 arc closepath} bind def
/C12 {BL [] 0 setdash 2 copy moveto
	2 copy vpt 180 360 arc closepath fill
	vpt 0 360 arc closepath} bind def
/C13 {BL [] 0 setdash 2 copy moveto
	2 copy vpt 0 90 arc closepath fill
	2 copy moveto
	2 copy vpt 180 360 arc closepath fill
	vpt 0 360 arc closepath} bind def
/C14 {BL [] 0 setdash 2 copy moveto
	2 copy vpt 90 360 arc closepath fill
	vpt 0 360 arc} bind def
/C15 {BL [] 0 setdash 2 copy vpt 0 360 arc closepath fill
	vpt 0 360 arc closepath} bind def
/Rec {newpath 4 2 roll moveto 1 index 0 rlineto 0 exch rlineto
	neg 0 rlineto closepath} bind def
/Square {dup Rec} bind def
/Bsquare {vpt sub exch vpt sub exch vpt2 Square} bind def
/S0 {BL [] 0 setdash 2 copy moveto 0 vpt rlineto BL Bsquare} bind def
/S1 {BL [] 0 setdash 2 copy vpt Square fill Bsquare} bind def
/S2 {BL [] 0 setdash 2 copy exch vpt sub exch vpt Square fill Bsquare} bind def
/S3 {BL [] 0 setdash 2 copy exch vpt sub exch vpt2 vpt Rec fill Bsquare} bind def
/S4 {BL [] 0 setdash 2 copy exch vpt sub exch vpt sub vpt Square fill Bsquare} bind def
/S5 {BL [] 0 setdash 2 copy 2 copy vpt Square fill
	exch vpt sub exch vpt sub vpt Square fill Bsquare} bind def
/S6 {BL [] 0 setdash 2 copy exch vpt sub exch vpt sub vpt vpt2 Rec fill Bsquare} bind def
/S7 {BL [] 0 setdash 2 copy exch vpt sub exch vpt sub vpt vpt2 Rec fill
	2 copy vpt Square fill Bsquare} bind def
/S8 {BL [] 0 setdash 2 copy vpt sub vpt Square fill Bsquare} bind def
/S9 {BL [] 0 setdash 2 copy vpt sub vpt vpt2 Rec fill Bsquare} bind def
/S10 {BL [] 0 setdash 2 copy vpt sub vpt Square fill 2 copy exch vpt sub exch vpt Square fill
	Bsquare} bind def
/S11 {BL [] 0 setdash 2 copy vpt sub vpt Square fill 2 copy exch vpt sub exch vpt2 vpt Rec fill
	Bsquare} bind def
/S12 {BL [] 0 setdash 2 copy exch vpt sub exch vpt sub vpt2 vpt Rec fill Bsquare} bind def
/S13 {BL [] 0 setdash 2 copy exch vpt sub exch vpt sub vpt2 vpt Rec fill
	2 copy vpt Square fill Bsquare} bind def
/S14 {BL [] 0 setdash 2 copy exch vpt sub exch vpt sub vpt2 vpt Rec fill
	2 copy exch vpt sub exch vpt Square fill Bsquare} bind def
/S15 {BL [] 0 setdash 2 copy Bsquare fill Bsquare} bind def
/D0 {gsave translate 45 rotate 0 0 S0 stroke grestore} bind def
/D1 {gsave translate 45 rotate 0 0 S1 stroke grestore} bind def
/D2 {gsave translate 45 rotate 0 0 S2 stroke grestore} bind def
/D3 {gsave translate 45 rotate 0 0 S3 stroke grestore} bind def
/D4 {gsave translate 45 rotate 0 0 S4 stroke grestore} bind def
/D5 {gsave translate 45 rotate 0 0 S5 stroke grestore} bind def
/D6 {gsave translate 45 rotate 0 0 S6 stroke grestore} bind def
/D7 {gsave translate 45 rotate 0 0 S7 stroke grestore} bind def
/D8 {gsave translate 45 rotate 0 0 S8 stroke grestore} bind def
/D9 {gsave translate 45 rotate 0 0 S9 stroke grestore} bind def
/D10 {gsave translate 45 rotate 0 0 S10 stroke grestore} bind def
/D11 {gsave translate 45 rotate 0 0 S11 stroke grestore} bind def
/D12 {gsave translate 45 rotate 0 0 S12 stroke grestore} bind def
/D13 {gsave translate 45 rotate 0 0 S13 stroke grestore} bind def
/D14 {gsave translate 45 rotate 0 0 S14 stroke grestore} bind def
/D15 {gsave translate 45 rotate 0 0 S15 stroke grestore} bind def
/DiaE {stroke [] 0 setdash vpt add M
  hpt neg vpt neg V hpt vpt neg V
  hpt vpt V hpt neg vpt V closepath stroke} def
/BoxE {stroke [] 0 setdash exch hpt sub exch vpt add M
  0 vpt2 neg V hpt2 0 V 0 vpt2 V
  hpt2 neg 0 V closepath stroke} def
/TriUE {stroke [] 0 setdash vpt 1.12 mul add M
  hpt neg vpt -1.62 mul V
  hpt 2 mul 0 V
  hpt neg vpt 1.62 mul V closepath stroke} def
/TriDE {stroke [] 0 setdash vpt 1.12 mul sub M
  hpt neg vpt 1.62 mul V
  hpt 2 mul 0 V
  hpt neg vpt -1.62 mul V closepath stroke} def
/PentE {stroke [] 0 setdash gsave
  translate 0 hpt M 4 {72 rotate 0 hpt L} repeat
  closepath stroke grestore} def
/CircE {stroke [] 0 setdash 
  hpt 0 360 arc stroke} def
/Opaque {gsave closepath 1 setgray fill grestore 0 setgray closepath} def
/DiaW {stroke [] 0 setdash vpt add M
  hpt neg vpt neg V hpt vpt neg V
  hpt vpt V hpt neg vpt V Opaque stroke} def
/BoxW {stroke [] 0 setdash exch hpt sub exch vpt add M
  0 vpt2 neg V hpt2 0 V 0 vpt2 V
  hpt2 neg 0 V Opaque stroke} def
/TriUW {stroke [] 0 setdash vpt 1.12 mul add M
  hpt neg vpt -1.62 mul V
  hpt 2 mul 0 V
  hpt neg vpt 1.62 mul V Opaque stroke} def
/TriDW {stroke [] 0 setdash vpt 1.12 mul sub M
  hpt neg vpt 1.62 mul V
  hpt 2 mul 0 V
  hpt neg vpt -1.62 mul V Opaque stroke} def
/PentW {stroke [] 0 setdash gsave
  translate 0 hpt M 4 {72 rotate 0 hpt L} repeat
  Opaque stroke grestore} def
/CircW {stroke [] 0 setdash 
  hpt 0 360 arc Opaque stroke} def
/BoxFill {gsave Rec 1 setgray fill grestore} def
/Density {
  /Fillden exch def
  currentrgbcolor
  /ColB exch def /ColG exch def /ColR exch def
  /ColR ColR Fillden mul Fillden sub 1 add def
  /ColG ColG Fillden mul Fillden sub 1 add def
  /ColB ColB Fillden mul Fillden sub 1 add def
  ColR ColG ColB setrgbcolor} def
/BoxColFill {gsave Rec PolyFill} def
/PolyFill {gsave Density fill grestore grestore} def
/h {rlineto rlineto rlineto gsave closepath fill grestore} bind def
%
% PostScript Level 1 Pattern Fill routine for rectangles
% Usage: x y w h s a XX PatternFill
%	x,y = lower left corner of box to be filled
%	w,h = width and height of box
%	  a = angle in degrees between lines and x-axis
%	 XX = 0/1 for no/yes cross-hatch
%
/PatternFill {gsave /PFa [ 9 2 roll ] def
  PFa 0 get PFa 2 get 2 div add PFa 1 get PFa 3 get 2 div add translate
  PFa 2 get -2 div PFa 3 get -2 div PFa 2 get PFa 3 get Rec
  TransparentPatterns {} {gsave 1 setgray fill grestore} ifelse
  clip
  currentlinewidth 0.5 mul setlinewidth
  /PFs PFa 2 get dup mul PFa 3 get dup mul add sqrt def
  0 0 M PFa 5 get rotate PFs -2 div dup translate
  0 1 PFs PFa 4 get div 1 add floor cvi
	{PFa 4 get mul 0 M 0 PFs V} for
  0 PFa 6 get ne {
	0 1 PFs PFa 4 get div 1 add floor cvi
	{PFa 4 get mul 0 2 1 roll M PFs 0 V} for
 } if
  stroke grestore} def
%
/languagelevel where
 {pop languagelevel} {1} ifelse
dup 2 lt
	{/InterpretLevel1 true def
	 /InterpretLevel3 false def}
	{/InterpretLevel1 Level1 def
	 2 gt
	    {/InterpretLevel3 Level3 def}
	    {/InterpretLevel3 false def}
	 ifelse }
 ifelse
%
% PostScript level 2 pattern fill definitions
%
/Level2PatternFill {
/Tile8x8 {/PaintType 2 /PatternType 1 /TilingType 1 /BBox [0 0 8 8] /XStep 8 /YStep 8}
	bind def
/KeepColor {currentrgbcolor [/Pattern /DeviceRGB] setcolorspace} bind def
<< Tile8x8
 /PaintProc {0.5 setlinewidth pop 0 0 M 8 8 L 0 8 M 8 0 L stroke} 
>> matrix makepattern
/Pat1 exch def
<< Tile8x8
 /PaintProc {0.5 setlinewidth pop 0 0 M 8 8 L 0 8 M 8 0 L stroke
	0 4 M 4 8 L 8 4 L 4 0 L 0 4 L stroke}
>> matrix makepattern
/Pat2 exch def
<< Tile8x8
 /PaintProc {0.5 setlinewidth pop 0 0 M 0 8 L
	8 8 L 8 0 L 0 0 L fill}
>> matrix makepattern
/Pat3 exch def
<< Tile8x8
 /PaintProc {0.5 setlinewidth pop -4 8 M 8 -4 L
	0 12 M 12 0 L stroke}
>> matrix makepattern
/Pat4 exch def
<< Tile8x8
 /PaintProc {0.5 setlinewidth pop -4 0 M 8 12 L
	0 -4 M 12 8 L stroke}
>> matrix makepattern
/Pat5 exch def
<< Tile8x8
 /PaintProc {0.5 setlinewidth pop -2 8 M 4 -4 L
	0 12 M 8 -4 L 4 12 M 10 0 L stroke}
>> matrix makepattern
/Pat6 exch def
<< Tile8x8
 /PaintProc {0.5 setlinewidth pop -2 0 M 4 12 L
	0 -4 M 8 12 L 4 -4 M 10 8 L stroke}
>> matrix makepattern
/Pat7 exch def
<< Tile8x8
 /PaintProc {0.5 setlinewidth pop 8 -2 M -4 4 L
	12 0 M -4 8 L 12 4 M 0 10 L stroke}
>> matrix makepattern
/Pat8 exch def
<< Tile8x8
 /PaintProc {0.5 setlinewidth pop 0 -2 M 12 4 L
	-4 0 M 12 8 L -4 4 M 8 10 L stroke}
>> matrix makepattern
/Pat9 exch def
/Pattern1 {PatternBgnd KeepColor Pat1 setpattern} bind def
/Pattern2 {PatternBgnd KeepColor Pat2 setpattern} bind def
/Pattern3 {PatternBgnd KeepColor Pat3 setpattern} bind def
/Pattern4 {PatternBgnd KeepColor Landscape {Pat5} {Pat4} ifelse setpattern} bind def
/Pattern5 {PatternBgnd KeepColor Landscape {Pat4} {Pat5} ifelse setpattern} bind def
/Pattern6 {PatternBgnd KeepColor Landscape {Pat9} {Pat6} ifelse setpattern} bind def
/Pattern7 {PatternBgnd KeepColor Landscape {Pat8} {Pat7} ifelse setpattern} bind def
} def
%
%
%End of PostScript Level 2 code
%
/PatternBgnd {
  TransparentPatterns {} {gsave 1 setgray fill grestore} ifelse
} def
%
% Substitute for Level 2 pattern fill codes with
% grayscale if Level 2 support is not selected.
%
/Level1PatternFill {
/Pattern1 {0.250 Density} bind def
/Pattern2 {0.500 Density} bind def
/Pattern3 {0.750 Density} bind def
/Pattern4 {0.125 Density} bind def
/Pattern5 {0.375 Density} bind def
/Pattern6 {0.625 Density} bind def
/Pattern7 {0.875 Density} bind def
} def
%
% Now test for support of Level 2 code
%
Level1 {Level1PatternFill} {Level2PatternFill} ifelse
%
/Symbol-Oblique /Symbol findfont [1 0 .167 1 0 0] makefont
dup length dict begin {1 index /FID eq {pop pop} {def} ifelse} forall
currentdict end definefont pop
%
/MFshow {
   { dup 5 get 3 ge
     { 5 get 3 eq {gsave} {grestore} ifelse }
     {dup dup 0 get findfont exch 1 get scalefont setfont
     [ currentpoint ] exch dup 2 get 0 exch R dup 5 get 2 ne {dup dup 6
     get exch 4 get {textshow} {stringwidth pop 0 R} ifelse }if dup 5 get 0 eq
     {dup 3 get {2 get neg 0 exch R pop} {pop aload pop M} ifelse} {dup 5
     get 1 eq {dup 2 get exch dup 3 get exch 6 get stringwidth pop -2 div
     dup 0 R} {dup 6 get stringwidth pop -2 div 0 R 6 get
     textshow 2 index {aload pop M neg 3 -1 roll neg R pop pop} {pop pop pop
     pop aload pop M} ifelse }ifelse }ifelse }
     ifelse }
   forall} def
/Gswidth {dup type /stringtype eq {stringwidth} {pop (n) stringwidth} ifelse} def
/MFwidth {0 exch { dup 5 get 3 ge { 5 get 3 eq { 0 } { pop } ifelse }
 {dup 3 get{dup dup 0 get findfont exch 1 get scalefont setfont
     6 get Gswidth pop add} {pop} ifelse} ifelse} forall} def
/MLshow { currentpoint stroke M
  0 exch R
  Blacktext {gsave 0 setgray MFshow grestore} {MFshow} ifelse } bind def
/MRshow { currentpoint stroke M
  exch dup MFwidth neg 3 -1 roll R
  Blacktext {gsave 0 setgray MFshow grestore} {MFshow} ifelse } bind def
/MCshow { currentpoint stroke M
  exch dup MFwidth -2 div 3 -1 roll R
  Blacktext {gsave 0 setgray MFshow grestore} {MFshow} ifelse } bind def
/XYsave    { [( ) 1 2 true false 3 ()] } bind def
/XYrestore { [( ) 1 2 true false 4 ()] } bind def
Level1 SuppressPDFMark or 
{} {
/SDict 10 dict def
systemdict /pdfmark known not {
  userdict /pdfmark systemdict /cleartomark get put
} if
SDict begin [
  /Title (TcpVeno-cwnd-1Mbps-UE7.eps)
  /Subject (gnuplot plot)
  /Creator (gnuplot 5.0 patchlevel 3)
  /Author (nat)
%  /Producer (gnuplot)
%  /Keywords ()
  /CreationDate (Tue May 24 14:35:37 2016)
  /DOCINFO pdfmark
end
} ifelse
%
% Support for boxed text - Ethan A Merritt May 2005
%
/InitTextBox { userdict /TBy2 3 -1 roll put userdict /TBx2 3 -1 roll put
           userdict /TBy1 3 -1 roll put userdict /TBx1 3 -1 roll put
	   /Boxing true def } def
/ExtendTextBox { Boxing
    { gsave dup false charpath pathbbox
      dup TBy2 gt {userdict /TBy2 3 -1 roll put} {pop} ifelse
      dup TBx2 gt {userdict /TBx2 3 -1 roll put} {pop} ifelse
      dup TBy1 lt {userdict /TBy1 3 -1 roll put} {pop} ifelse
      dup TBx1 lt {userdict /TBx1 3 -1 roll put} {pop} ifelse
      grestore } if } def
/PopTextBox { newpath TBx1 TBxmargin sub TBy1 TBymargin sub M
               TBx1 TBxmargin sub TBy2 TBymargin add L
	       TBx2 TBxmargin add TBy2 TBymargin add L
	       TBx2 TBxmargin add TBy1 TBymargin sub L closepath } def
/DrawTextBox { PopTextBox stroke /Boxing false def} def
/FillTextBox { gsave PopTextBox 1 1 1 setrgbcolor fill grestore /Boxing false def} def
0 0 0 0 InitTextBox
/TBxmargin 20 def
/TBymargin 20 def
/Boxing false def
/textshow { ExtendTextBox Gshow } def
%
% redundant definitions for compatibility with prologue.ps older than 5.0.2
/LTB {BL [] LCb DL} def
/LTb {PL [] LCb DL} def
end
%%EndProlog
%%Page: 1 1
gnudict begin
gsave
doclip
50 50 translate
0.050 0.050 scale
0 setgray
newpath
(Arial) findfont 200 scalefont setfont
BackgroundColor 0 lt 3 1 roll 0 lt exch 0 lt or or not {BackgroundColor C 1.000 0 0 7200.00 5040.00 BoxColFill} if
1.000 UL
LTb
0.00 0.00 0.00 C 0.500 UL
LTa
0.50 0.50 0.50 C 1100 820 M
5739 0 V
stroke
1.000 UL
LTb
0.00 0.00 0.00 C 1100 820 M
63 0 V
5676 0 R
-63 0 V
stroke
980 820 M
[ [(Arial) 200.0 0.0 true true 0 ( 0.1)]
] -66.7 MRshow
1.000 UL
LTb
0.00 0.00 0.00 C 1100 1119 M
31 0 V
5708 0 R
-31 0 V
1100 1295 M
31 0 V
5708 0 R
-31 0 V
1100 1419 M
31 0 V
5708 0 R
-31 0 V
-5708 96 R
31 0 V
5708 0 R
-31 0 V
-5708 79 R
31 0 V
5708 0 R
-31 0 V
-5708 67 R
31 0 V
5708 0 R
-31 0 V
-5708 57 R
31 0 V
5708 0 R
-31 0 V
-5708 51 R
31 0 V
5708 0 R
-31 0 V
stroke
0.500 UL
LTa
0.50 0.50 0.50 C 1100 1815 M
5739 0 V
stroke
1.000 UL
LTb
0.00 0.00 0.00 C 1100 1815 M
63 0 V
5676 0 R
-63 0 V
stroke
980 1815 M
[ [(Arial) 200.0 0.0 true true 0 ( 1)]
] -66.7 MRshow
1.000 UL
LTb
0.00 0.00 0.00 C 1100 2114 M
31 0 V
5708 0 R
-31 0 V
1100 2289 M
31 0 V
5708 0 R
-31 0 V
1100 2414 M
31 0 V
5708 0 R
-31 0 V
-5708 96 R
31 0 V
5708 0 R
-31 0 V
-5708 79 R
31 0 V
5708 0 R
-31 0 V
-5708 66 R
31 0 V
5708 0 R
-31 0 V
-5708 58 R
31 0 V
5708 0 R
-31 0 V
-5708 51 R
31 0 V
5708 0 R
-31 0 V
stroke
0.500 UL
LTa
0.50 0.50 0.50 C 1100 2810 M
5739 0 V
stroke
1.000 UL
LTb
0.00 0.00 0.00 C 1100 2810 M
63 0 V
5676 0 R
-63 0 V
stroke
980 2810 M
[ [(Arial) 200.0 0.0 true true 0 ( 10)]
] -66.7 MRshow
1.000 UL
LTb
0.00 0.00 0.00 C 1100 3109 M
31 0 V
5708 0 R
-31 0 V
1100 3284 M
31 0 V
5708 0 R
-31 0 V
1100 3408 M
31 0 V
5708 0 R
-31 0 V
-5708 97 R
31 0 V
5708 0 R
-31 0 V
-5708 79 R
31 0 V
5708 0 R
-31 0 V
-5708 66 R
31 0 V
5708 0 R
-31 0 V
-5708 58 R
31 0 V
5708 0 R
-31 0 V
-5708 51 R
31 0 V
5708 0 R
-31 0 V
stroke
0.500 UL
LTa
0.50 0.50 0.50 C 1100 3804 M
5739 0 V
stroke
1.000 UL
LTb
0.00 0.00 0.00 C 1100 3804 M
63 0 V
5676 0 R
-63 0 V
stroke
980 3804 M
[ [(Arial) 200.0 0.0 true true 0 ( 100)]
] -66.7 MRshow
1.000 UL
LTb
0.00 0.00 0.00 C 1100 4104 M
31 0 V
5708 0 R
-31 0 V
1100 4279 M
31 0 V
5708 0 R
-31 0 V
1100 4403 M
31 0 V
5708 0 R
-31 0 V
-5708 97 R
31 0 V
5708 0 R
-31 0 V
-5708 78 R
31 0 V
5708 0 R
-31 0 V
-5708 67 R
31 0 V
5708 0 R
-31 0 V
-5708 58 R
31 0 V
5708 0 R
-31 0 V
-5708 50 R
31 0 V
5708 0 R
-31 0 V
stroke
0.500 UL
LTa
0.50 0.50 0.50 C 1100 4799 M
5739 0 V
stroke
1.000 UL
LTb
0.00 0.00 0.00 C 1100 4799 M
63 0 V
5676 0 R
-63 0 V
stroke
980 4799 M
[ [(Arial) 200.0 0.0 true true 0 ( 1000)]
] -66.7 MRshow
1.000 UL
LTb
0.00 0.00 0.00 C 0.500 UL
LTa
0.50 0.50 0.50 C 1622 820 M
0 3979 V
stroke
1.000 UL
LTb
0.00 0.00 0.00 C 1622 820 M
0 63 V
0 3916 R
0 -63 V
stroke
1622 620 M
[ [(Arial) 200.0 0.0 true true 0 ( 10)]
] -66.7 MCshow
1.000 UL
LTb
0.00 0.00 0.00 C 0.500 UL
LTa
0.50 0.50 0.50 C 2491 820 M
0 3979 V
stroke
1.000 UL
LTb
0.00 0.00 0.00 C 2491 820 M
0 63 V
0 3916 R
0 -63 V
stroke
2491 620 M
[ [(Arial) 200.0 0.0 true true 0 ( 20)]
] -66.7 MCshow
1.000 UL
LTb
0.00 0.00 0.00 C 0.500 UL
LTa
0.50 0.50 0.50 C 3361 820 M
0 3979 V
stroke
1.000 UL
LTb
0.00 0.00 0.00 C 3361 820 M
0 63 V
0 3916 R
0 -63 V
stroke
3361 620 M
[ [(Arial) 200.0 0.0 true true 0 ( 30)]
] -66.7 MCshow
1.000 UL
LTb
0.00 0.00 0.00 C 0.500 UL
LTa
0.50 0.50 0.50 C 4230 820 M
0 3979 V
stroke
1.000 UL
LTb
0.00 0.00 0.00 C 4230 820 M
0 63 V
0 3916 R
0 -63 V
stroke
4230 620 M
[ [(Arial) 200.0 0.0 true true 0 ( 40)]
] -66.7 MCshow
1.000 UL
LTb
0.00 0.00 0.00 C 0.500 UL
LTa
0.50 0.50 0.50 C 5100 820 M
0 3979 V
stroke
1.000 UL
LTb
0.00 0.00 0.00 C 5100 820 M
0 63 V
0 3916 R
0 -63 V
stroke
5100 620 M
[ [(Arial) 200.0 0.0 true true 0 ( 50)]
] -66.7 MCshow
1.000 UL
LTb
0.00 0.00 0.00 C 0.500 UL
LTa
0.50 0.50 0.50 C 5969 820 M
0 3979 V
stroke
1.000 UL
LTb
0.00 0.00 0.00 C 5969 820 M
0 63 V
0 3916 R
0 -63 V
stroke
5969 620 M
[ [(Arial) 200.0 0.0 true true 0 ( 60)]
] -66.7 MCshow
1.000 UL
LTb
0.00 0.00 0.00 C 0.500 UL
LTa
0.50 0.50 0.50 C 6839 820 M
0 3979 V
stroke
1.000 UL
LTb
0.00 0.00 0.00 C 6839 820 M
0 63 V
0 3916 R
0 -63 V
stroke
6839 620 M
[ [(Arial) 200.0 0.0 true true 0 ( 70)]
] -66.7 MCshow
1.000 UL
LTb
0.00 0.00 0.00 C 1.000 UL
LTB
0.00 0.00 0.00 C 1100 4799 M
0 -3979 V
5739 0 V
0 3979 R
-5739 0 R
1.000 UP
stroke
LTb
0.00 0.00 0.00 C LCb setrgbcolor
160 2809 M
currentpoint gsave translate -270 rotate 0 0 moveto
[ [(Arial) 200.0 0.0 true true 0 (cWnd \(KB\))]
] -66.7 MCshow
grestore
LTb
LCb setrgbcolor
3969 320 M
[ [(Arial) 200.0 0.0 true true 0 (Time \(s\))]
] -66.7 MCshow
LTb
% Begin plot #1
1.000 UL
LTa
0.60 0.60 0.00 C 1918 2241 M
5 175 V
5 124 V
6 96 V
0 79 V
5 67 V
0 58 V
0 50 V
5 46 V
0 41 V
0 38 V
1 34 V
4 32 V
0 30 V
0 28 V
0 26 V
0 25 V
2 23 V
4 22 V
0 21 V
0 21 V
0 19 V
0 18 V
0 18 V
0 17 V
0 16 V
2 16 V
4 15 V
0 15 V
0 14 V
0 13 V
0 14 V
0 13 V
0 12 V
0 12 V
0 12 V
0 12 V
0 11 V
0 11 V
1 11 V
0 10 V
5 10 V
0 10 V
0 10 V
0 9 V
0 10 V
0 9 V
0 9 V
0 8 V
0 9 V
0 8 V
0 8 V
0 8 V
0 8 V
0 8 V
0 8 V
0 7 V
0 8 V
0 7 V
0 7 V
0 7 V
0 7 V
5 7 V
0 7 V
0 6 V
0 7 V
0 6 V
0 6 V
0 7 V
0 6 V
0 6 V
0 6 V
0 6 V
0 5 V
0 6 V
0 6 V
0 5 V
0 6 V
1 5 V
0 6 V
0 5 V
0 5 V
0 5 V
0 5 V
0 6 V
0 5 V
0 4 V
0 5 V
1 5 V
0 5 V
0 5 V
0 4 V
0 5 V
4 5 V
0 4 V
0 5 V
0 4 V
0 4 V
0 5 V
0 4 V
0 4 V
0 4 V
0 5 V
0 4 V
0 4 V
stroke 1978 3956 M
0 4 V
0 4 V
0 4 V
0 4 V
0 4 V
0 4 V
0 3 V
0 4 V
0 4 V
0 4 V
0 4 V
0 3 V
0 4 V
0 3 V
0 4 V
0 4 V
0 3 V
0 4 V
0 3 V
0 4 V
0 3 V
0 3 V
0 4 V
0 3 V
0 3 V
0 4 V
0 3 V
0 3 V
0 3 V
0 4 V
0 3 V
0 3 V
0 3 V
0 3 V
0 3 V
5 3 V
0 3 V
0 3 V
0 3 V
0 3 V
0 3 V
0 3 V
0 3 V
0 3 V
0 3 V
0 3 V
0 2 V
0 3 V
0 3 V
0 3 V
0 3 V
0 2 V
0 3 V
0 3 V
0 2 V
0 3 V
0 3 V
0 2 V
1 3 V
0 3 V
0 2 V
1 3 V
0 2 V
0 3 V
0 2 V
0 3 V
0 2 V
0 3 V
0 2 V
0 3 V
0 2 V
0 3 V
0 2 V
0 3 V
0 2 V
0 2 V
0 3 V
0 2 V
0 2 V
0 3 V
0 2 V
0 2 V
0 3 V
0 2 V
0 2 V
9 3 V
0 2 V
0 2 V
0 2 V
9 2 V
0 3 V
0 2 V
0 2 V
0 2 V
0 2 V
0 2 V
0 3 V
0 2 V
0 2 V
0 2 V
0 2 V
0 2 V
0 2 V
0 2 V
stroke 2003 4251 M
0 2 V
0 2 V
0 2 V
0 2 V
0 2 V
0 2 V
0 2 V
0 2 V
0 2 V
0 2 V
0 2 V
0 2 V
0 2 V
0 2 V
0 2 V
0 2 V
0 2 V
0 2 V
0 2 V
0 2 V
0 1 V
0 2 V
0 2 V
0 2 V
0 2 V
0 2 V
0 1 V
0 2 V
0 2 V
0 2 V
0 2 V
0 1 V
0 2 V
0 2 V
0 2 V
0 2 V
0 1 V
0 2 V
0 2 V
0 2 V
0 1 V
0 2 V
0 2 V
0 1 V
0 2 V
0 2 V
0 1 V
0 2 V
0 2 V
0 1 V
0 2 V
0 2 V
0 1 V
0 2 V
0 2 V
0 1 V
0 2 V
0 2 V
0 1 V
0 2 V
0 1 V
0 2 V
0 2 V
0 1 V
0 2 V
0 1 V
0 2 V
0 1 V
0 2 V
0 1 V
0 2 V
0 2 V
0 1 V
0 2 V
0 1 V
0 2 V
0 1 V
5 2 V
0 1 V
0 2 V
0 1 V
0 2 V
0 1 V
0 2 V
0 1 V
0 2 V
0 1 V
0 1 V
0 2 V
0 1 V
0 2 V
0 1 V
0 2 V
1 1 V
0 1 V
0 2 V
0 1 V
0 2 V
0 1 V
0 1 V
0 2 V
0 1 V
0 2 V
0 1 V
stroke 2009 4425 M
0 1 V
0 2 V
0 1 V
0 1 V
9 2 V
0 1 V
0 2 V
0 1 V
0 1 V
0 2 V
0 1 V
0 1 V
0 2 V
0 1 V
0 1 V
0 1 V
0 2 V
0 1 V
0 1 V
0 2 V
0 1 V
0 -293 V
0 2 V
0 3 V
9 2 V
0 3 V
0 2 V
0 3 V
0 2 V
0 3 V
0 2 V
0 3 V
0 2 V
0 2 V
0 3 V
0 2 V
0 2 V
0 3 V
0 2 V
0 2 V
0 3 V
0 2 V
0 2 V
0 3 V
0 2 V
0 2 V
0 2 V
0 2 V
0 3 V
0 2 V
0 2 V
0 2 V
0 2 V
0 2 V
0 3 V
0 2 V
0 2 V
0 2 V
0 2 V
0 2 V
0 2 V
0 2 V
0 2 V
0 2 V
0 2 V
0 2 V
0 2 V
0 2 V
0 2 V
0 2 V
0 2 V
0 2 V
0 2 V
0 2 V
0 2 V
0 2 V
0 2 V
0 2 V
0 2 V
0 2 V
0 2 V
0 2 V
0 1 V
0 2 V
0 2 V
0 2 V
0 2 V
0 2 V
0 1 V
0 2 V
0 2 V
0 2 V
0 2 V
0 1 V
0 2 V
0 2 V
0 2 V
0 2 V
0 1 V
0 2 V
0 2 V
0 2 V
0 1 V
0 2 V
stroke 2027 4330 M
0 2 V
0 1 V
0 2 V
0 2 V
0 1 V
0 2 V
0 2 V
0 1 V
0 2 V
0 2 V
0 1 V
0 2 V
0 2 V
0 1 V
0 2 V
0 2 V
0 1 V
0 2 V
0 1 V
0 2 V
0 2 V
0 1 V
0 2 V
0 1 V
0 2 V
0 1 V
0 2 V
0 1 V
0 2 V
0 2 V
0 1 V
0 2 V
0 1 V
0 2 V
0 1 V
0 2 V
0 1 V
0 2 V
0 1 V
0 2 V
0 1 V
0 2 V
0 1 V
0 2 V
0 1 V
0 1 V
0 2 V
0 1 V
0 2 V
0 1 V
0 2 V
0 1 V
0 1 V
0 2 V
0 1 V
0 2 V
0 1 V
0 1 V
0 2 V
0 1 V
0 2 V
0 1 V
0 1 V
0 2 V
0 1 V
0 1 V
0 2 V
0 1 V
0 2 V
0 1 V
0 1 V
0 2 V
0 1 V
0 1 V
0 2 V
0 1 V
0 -1 V
0 1 V
6 -1 V
0 1 V
5 -1 V
0 1 V
6 -1 V
0 1 V
5 -1 V
0 1 V
7 -3 V
0 2 V
5 -2 V
0 2 V
6 -2 V
0 2 V
5 -2 V
0 2 V
5 -2 V
0 2 V
6 -2 V
0 2 V
0 1 V
5 -1 V
0 1 V
0 1 V
0 1 V
5 -1 V
stroke 2093 4445 M
0 1 V
0 2 V
0 1 V
0 1 V
6 -1 V
0 1 V
0 2 V
0 1 V
0 1 V
0 2 V
5 -2 V
0 2 V
0 1 V
0 1 V
0 1 V
0 2 V
0 1 V
5 -3 V
0 2 V
0 1 V
0 1 V
0 1 V
0 2 V
0 1 V
0 1 V
5 -1 V
0 1 V
0 1 V
0 2 V
0 1 V
0 1 V
0 1 V
0 -2533 V
5 300 V
6 175 V
0 124 V
0 96 V
0 79 V
0 67 V
0 58 V
0 50 V
0 46 V
5 41 V
0 38 V
0 34 V
0 32 V
0 30 V
0 28 V
0 26 V
0 25 V
0 23 V
6 22 V
0 21 V
0 21 V
0 19 V
0 18 V
0 18 V
0 17 V
0 16 V
0 16 V
0 15 V
0 15 V
0 14 V
0 13 V
0 14 V
0 13 V
0 12 V
0 12 V
0 12 V
5 12 V
0 11 V
0 11 V
0 11 V
0 10 V
0 10 V
0 10 V
0 10 V
0 9 V
0 10 V
0 9 V
0 9 V
0 8 V
0 9 V
0 8 V
0 8 V
0 8 V
0 8 V
0 8 V
0 8 V
0 7 V
0 8 V
0 7 V
0 7 V
0 7 V
0 7 V
0 7 V
0 7 V
0 6 V
0 7 V
0 6 V
0 6 V
0 7 V
0 6 V
5 6 V
stroke 2146 3789 M
0 6 V
0 6 V
0 5 V
0 6 V
1 6 V
0 5 V
0 6 V
0 5 V
0 6 V
0 5 V
0 5 V
0 5 V
0 5 V
0 6 V
0 5 V
0 4 V
0 5 V
0 5 V
0 5 V
0 5 V
0 1 V
13 0 V
0 -278 V
0 9 V
0 9 V
0 8 V
0 8 V
0 8 V
0 8 V
0 8 V
0 8 V
0 8 V
0 7 V
0 7 V
0 8 V
0 7 V
0 7 V
0 6 V
0 7 V
0 7 V
0 6 V
0 7 V
0 6 V
0 7 V
0 6 V
0 6 V
0 6 V
0 6 V
0 6 V
0 5 V
0 6 V
0 6 V
0 5 V
0 6 V
0 5 V
0 5 V
0 6 V
0 5 V
0 5 V
0 5 V
0 5 V
0 5 V
0 5 V
0 5 V
0 5 V
0 4 V
0 5 V
0 5 V
0 4 V
0 5 V
0 4 V
0 5 V
0 4 V
8 5 V
0 4 V
0 4 V
0 4 V
0 5 V
0 4 V
0 4 V
0 4 V
0 4 V
0 4 V
0 4 V
0 4 V
0 4 V
0 4 V
0 3 V
0 4 V
0 4 V
0 4 V
0 3 V
0 4 V
0 4 V
0 3 V
0 4 V
0 3 V
0 4 V
0 3 V
0 4 V
0 3 V
0 4 V
0 3 V
0 3 V
stroke 2168 4042 M
0 4 V
0 3 V
0 -7 V
0 4 V
0 -7 V
0 3 V
0 -6 V
0 3 V
0 -7 V
0 4 V
0 -7 V
0 3 V
0 -7 V
0 4 V
0 -7 V
0 3 V
0 -7 V
0 4 V
0 -7 V
0 3 V
0 -7 V
0 4 V
0 -7 V
0 3 V
0 -7 V
0 4 V
0 -8 V
0 4 V
9 -98 V
0 5 V
0 -9 V
0 4 V
0 -9 V
0 5 V
0 -10 V
0 5 V
0 -9 V
0 4 V
0 -9 V
0 5 V
0 -10 V
0 5 V
0 -10 V
0 5 V
0 -10 V
0 5 V
0 -10 V
0 5 V
0 -10 V
0 5 V
0 -10 V
0 5 V
0 5 V
0 5 V
0 5 V
0 5 V
0 5 V
0 5 V
0 4 V
0 5 V
0 5 V
0 4 V
0 5 V
0 4 V
0 5 V
0 4 V
0 5 V
0 4 V
0 4 V
0 4 V
0 5 V
0 4 V
0 4 V
0 4 V
0 4 V
0 4 V
0 4 V
0 4 V
0 4 V
0 4 V
0 3 V
0 4 V
0 4 V
0 4 V
0 3 V
0 4 V
0 4 V
0 3 V
0 4 V
0 3 V
0 4 V
0 3 V
0 4 V
0 3 V
0 4 V
0 3 V
0 3 V
0 4 V
0 3 V
0 3 V
0 4 V
0 3 V
0 3 V
0 3 V
stroke 2177 4065 M
0 3 V
0 3 V
0 4 V
0 3 V
0 3 V
0 3 V
0 3 V
0 3 V
0 3 V
0 3 V
5 3 V
0 3 V
0 2 V
0 3 V
0 3 V
0 3 V
1 3 V
0 3 V
0 2 V
0 3 V
0 3 V
0 3 V
0 2 V
0 3 V
0 3 V
0 2 V
0 3 V
0 3 V
0 2 V
0 3 V
0 3 V
0 2 V
0 -2 V
0 2 V
0 3 V
0 2 V
0 3 V
0 2 V
0 3 V
0 2 V
0 3 V
0 2 V
0 3 V
0 2 V
0 2 V
0 3 V
0 2 V
0 3 V
0 2 V
0 2 V
0 3 V
0 2 V
0 2 V
0 3 V
0 2 V
0 2 V
0 2 V
0 3 V
0 2 V
0 2 V
0 2 V
0 3 V
0 2 V
0 2 V
0 2 V
0 2 V
0 2 V
0 3 V
0 2 V
0 2 V
0 2 V
0 2 V
0 2 V
0 2 V
0 2 V
0 2 V
0 2 V
0 2 V
0 2 V
0 2 V
0 2 V
0 2 V
0 2 V
9 2 V
0 2 V
0 2 V
0 2 V
0 2 V
0 2 V
0 2 V
0 2 V
0 2 V
0 2 V
0 2 V
0 2 V
0 1 V
0 2 V
0 2 V
0 2 V
0 2 V
0 2 V
0 2 V
0 1 V
0 2 V
stroke 2192 4306 M
0 2 V
0 2 V
0 2 V
0 1 V
0 2 V
0 2 V
0 2 V
0 1 V
0 2 V
0 2 V
0 2 V
0 -4 V
0 2 V
0 2 V
0 1 V
0 2 V
0 2 V
0 2 V
0 1 V
0 2 V
0 2 V
0 1 V
0 2 V
0 2 V
0 1 V
0 2 V
0 2 V
0 1 V
0 2 V
0 2 V
0 1 V
0 2 V
0 1 V
0 2 V
0 2 V
0 1 V
0 2 V
0 1 V
0 2 V
0 1 V
0 2 V
0 2 V
0 1 V
0 2 V
0 1 V
0 2 V
0 1 V
0 2 V
0 1 V
0 2 V
0 1 V
0 2 V
0 1 V
0 2 V
0 1 V
0 2 V
0 1 V
0 2 V
0 1 V
0 2 V
0 1 V
0 2 V
0 1 V
5 2 V
0 1 V
0 1 V
0 2 V
0 1 V
0 2 V
0 1 V
0 2 V
0 1 V
0 1 V
0 2 V
0 1 V
0 2 V
10 -2 V
0 2 V
0 1 V
0 1 V
0 2 V
0 1 V
0 1 V
0 2 V
0 1 V
0 2 V
0 1 V
9 1 V
0 2 V
0 1 V
0 1 V
0 2 V
0 1 V
0 1 V
0 2 V
0 1 V
0 1 V
0 1 V
0 2 V
0 1 V
0 1 V
0 2 V
0 1 V
0 1 V
stroke 2216 4456 M
0 1 V
0 2 V
0 -2 V
0 2 V
0 1 V
0 1 V
0 2 V
0 1 V
0 1 V
0 1 V
0 2 V
0 1 V
0 1 V
0 1 V
5 2 V
0 1 V
0 1 V
0 1 V
0 1 V
0 2 V
0 1 V
0 1 V
0 1 V
0 1 V
0 2 V
0 1 V
0 1 V
0 1 V
0 1 V
0 2 V
0 1 V
0 1 V
0 1 V
0 -1 V
0 1 V
0 1 V
0 1 V
0 2 V
0 1 V
0 1 V
0 1 V
0 1 V
0 1 V
0 2 V
0 1 V
0 1 V
5 1 V
0 1 V
0 1 V
0 1 V
0 2 V
0 1 V
0 1 V
0 1 V
0 1 V
0 1 V
0 1 V
0 1 V
0 1 V
0 2 V
0 1 V
0 1 V
1 1 V
0 1 V
0 1 V
0 -1 V
0 1 V
0 1 V
0 1 V
0 1 V
0 1 V
0 1 V
0 1 V
0 1 V
0 2 V
0 1 V
0 1 V
0 1 V
0 1 V
5 1 V
0 1 V
0 1 V
0 1 V
0 1 V
0 1 V
0 1 V
0 1 V
0 1 V
0 1 V
0 1 V
0 1 V
0 1 V
0 1 V
0 1 V
0 1 V
0 1 V
0 1 V
0 1 V
0 -1 V
0 1 V
0 1 V
0 1 V
0 1 V
0 1 V
stroke 2232 4564 M
0 1 V
0 1 V
0 1 V
0 1 V
0 1 V
0 1 V
0 1 V
0 1 V
0 1 V
5 1 V
0 1 V
0 1 V
0 1 V
0 1 V
0 1 V
0 1 V
0 1 V
0 1 V
0 1 V
0 1 V
0 1 V
0 1 V
0 1 V
0 1 V
0 1 V
0 1 V
0 1 V
0 -1 V
0 1 V
0 1 V
0 1 V
0 1 V
0 1 V
0 1 V
0 1 V
0 1 V
0 1 V
0 1 V
0 1 V
0 1 V
0 1 V
0 1 V
5 1 V
0 1 V
0 1 V
0 1 V
0 1 V
0 1 V
1 1 V
0 1 V
0 1 V
0 1 V
0 1 V
0 1 V
0 1 V
0 1 V
0 1 V
0 1 V
0 1 V
0 -1 V
0 1 V
0 1 V
0 1 V
0 1 V
0 1 V
0 1 V
0 1 V
0 1 V
0 1 V
0 1 V
0 1 V
0 1 V
0 1 V
0 1 V
5 1 V
0 1 V
0 1 V
0 1 V
0 1 V
1 1 V
0 1 V
0 1 V
0 1 V
0 1 V
0 1 V
0 1 V
0 1 V
0 1 V
0 1 V
0 1 V
0 -1 V
0 1 V
0 1 V
0 1 V
0 1 V
0 1 V
0 1 V
0 1 V
0 1 V
0 1 V
0 1 V
0 1 V
0 1 V
0 1 V
stroke 2249 4662 M
0 1 V
4 1 V
0 1 V
0 1 V
0 1 V
0 1 V
2 0 V
0 1 V
0 1 V
0 1 V
0 1 V
0 1 V
0 1 V
0 1 V
0 1 V
0 1 V
0 1 V
0 -1 V
0 1 V
0 1 V
0 1 V
0 1 V
0 1 V
0 1 V
0 1 V
0 1 V
0 1 V
0 1 V
0 1 V
0 1 V
0 1 V
0 -2749 V
5 300 V
6 175 V
0 124 V
0 96 V
0 79 V
0 67 V
0 58 V
0 50 V
0 46 V
0 41 V
0 38 V
0 34 V
0 -159 V
0 46 V
0 41 V
0 38 V
0 34 V
0 32 V
0 30 V
5 28 V
0 26 V
0 -54 V
0 28 V
0 -58 V
0 30 V
0 -62 V
0 32 V
0 -66 V
0 34 V
0 -72 V
0 38 V
0 -79 V
0 41 V
0 -87 V
0 46 V
0 -221 V
6 12 V
0 11 V
0 11 V
0 10 V
5 10 V
6 9 V
0 9 V
0 8 V
5 8 V
0 8 V
0 8 V
6 7 V
0 7 V
0 7 V
5 7 V
0 6 V
6 7 V
0 6 V
0 6 V
0 5 V
5 6 V
0 5 V
0 6 V
0 5 V
5 5 V
0 5 V
0 5 V
0 5 V
6 4 V
0 5 V
0 4 V
0 5 V
5 4 V
0 4 V
0 4 V
0 4 V
stroke 2331 2953 M
0 4 V
5 4 V
0 4 V
0 4 V
0 3 V
0 4 V
5 3 V
0 4 V
0 3 V
0 4 V
0 3 V
6 3 V
0 4 V
0 3 V
0 3 V
0 3 V
5 3 V
0 3 V
0 3 V
0 3 V
0 3 V
6 3 V
0 3 V
0 2 V
5 3 V
0 3 V
0 3 V
0 2 V
0 3 V
0 2 V
6 3 V
0 2 V
0 3 V
0 2 V
0 3 V
0 2 V
5 3 V
0 2 V
0 2 V
0 3 V
0 2 V
0 2 V
6 2 V
0 3 V
0 2 V
6 2 V
0 2 V
0 2 V
0 2 V
5 2 V
0 2 V
0 2 V
6 2 V
0 2 V
0 2 V
0 2 V
0 2 V
0 2 V
0 2 V
5 2 V
0 2 V
0 2 V
0 2 V
0 2 V
0 1 V
0 2 V
5 2 V
0 2 V
0 1 V
0 2 V
6 2 V
0 2 V
0 1 V
5 2 V
0 2 V
0 1 V
0 2 V
6 2 V
0 1 V
0 2 V
0 1 V
6 2 V
0 2 V
0 1 V
0 2 V
5 1 V
0 2 V
0 1 V
0 2 V
0 1 V
0 2 V
0 1 V
5 2 V
0 1 V
0 2 V
0 1 V
0 2 V
0 1 V
1 1 V
0 2 V
4 1 V
0 2 V
0 1 V
0 1 V
stroke 2445 3184 M
2 2 V
3 1 V
0 1 V
1 2 V
1 1 V
3 1 V
0 2 V
1 1 V
2 1 V
0 2 V
3 1 V
0 1 V
0 1 V
0 2 V
2 1 V
0 1 V
0 1 V
3 2 V
0 1 V
0 1 V
0 1 V
0 1 V
0 2 V
4 1 V
0 1 V
11 1 V
0 1 V
0 1 V
5 2 V
0 1 V
0 1 V
0 1 V
0 1 V
5 1 V
0 1 V
0 1 V
0 2 V
5 1 V
0 1 V
0 1 V
0 1 V
0 1 V
5 1 V
0 1 V
0 1 V
0 1 V
6 1 V
0 1 V
0 1 V
0 1 V
0 1 V
0 1 V
5 2 V
0 1 V
0 1 V
0 1 V
0 1 V
0 1 V
0 1 V
0 1 V
0 1 V
5 1 V
0 1 V
0 1 V
0 1 V
0 1 V
0 1 V
0 1 V
0 1 V
0 1 V
0 1 V
5 1 V
0 1 V
0 1 V
0 1 V
0 1 V
0 1 V
0 1 V
0 1 V
0 1 V
6 1 V
0 1 V
0 1 V
0 1 V
0 1 V
5 0 V
0 1 V
0 1 V
0 1 V
0 1 V
0 1 V
5 1 V
0 1 V
1 1 V
0 1 V
0 1 V
0 1 V
0 1 V
4 0 V
1 1 V
0 1 V
0 1 V
0 1 V
0 1 V
stroke 2544 3296 M
0 1 V
0 1 V
4 1 V
0 1 V
10 1 V
0 1 V
0 1 V
5 1 V
0 1 V
0 1 V
0 1 V
1 0 V
0 1 V
5 1 V
0 1 V
0 1 V
0 1 V
5 1 V
0 1 V
0 1 V
0 1 V
5 1 V
0 1 V
0 1 V
0 1 V
0 1 V
6 0 V
0 1 V
0 1 V
0 1 V
0 1 V
5 1 V
0 1 V
0 1 V
0 1 V
0 1 V
0 1 V
0 1 V
6 1 V
0 1 V
0 1 V
0 1 V
0 1 V
5 0 V
0 1 V
0 1 V
0 1 V
0 1 V
5 0 V
0 1 V
0 1 V
0 1 V
0 1 V
5 1 V
0 1 V
0 1 V
0 1 V
0 1 V
6 0 V
0 1 V
0 1 V
0 1 V
6 1 V
0 1 V
0 1 V
0 1 V
0 1 V
5 0 V
0 1 V
0 1 V
0 1 V
0 1 V
0 1 V
5 0 V
0 1 V
0 1 V
0 1 V
1 1 V
0 1 V
5 1 V
0 1 V
0 1 V
0 1 V
5 1 V
0 1 V
1 0 V
0 1 V
0 1 V
4 1 V
2 0 V
0 1 V
0 1 V
0 1 V
3 0 V
0 1 V
2 0 V
0 1 V
0 1 V
3 1 V
0 1 V
2 0 V
0 1 V
0 1 V
4 1 V
stroke 2665 3388 M
2 1 V
0 1 V
0 1 V
3 0 V
0 1 V
2 0 V
0 1 V
0 1 V
0 1 V
0 1 V
4 0 V
0 1 V
1 1 V
0 1 V
0 1 V
0 1 V
4 1 V
0 1 V
2 1 V
0 1 V
0 1 V
0 1 V
3 1 V
1 0 V
0 1 V
1 0 V
0 1 V
0 1 V
0 1 V
3 1 V
1 0 V
0 1 V
0 1 V
0 1 V
0 1 V
2 0 V
3 1 V
0 1 V
0 1 V
1 0 V
0 1 V
0 1 V
4 1 V
0 1 V
1 0 V
0 1 V
0 1 V
0 1 V
0 1 V
4 0 V
0 1 V
0 1 V
0 1 V
0 1 V
1 0 V
0 1 V
0 1 V
5 1 V
0 1 V
0 1 V
0 1 V
5 0 V
2 0 V
0 1 V
0 1 V
4 1 V
1 1 V
0 1 V
0 1 V
4 0 V
1 1 V
0 1 V
0 1 V
0 1 V
0 1 V
4 0 V
0 1 V
1 0 V
0 1 V
0 1 V
0 1 V
0 1 V
0 1 V
4 0 V
0 1 V
1 0 V
0 1 V
0 1 V
0 1 V
0 1 V
0 1 V
5 0 V
0 1 V
0 1 V
0 1 V
5 0 V
0 1 V
1 1 V
0 1 V
5 0 V
0 1 V
0 1 V
0 1 V
6 0 V
stroke 2762 3470 M
0 1 V
0 1 V
0 1 V
5 0 V
1 1 V
0 1 V
0 1 V
4 0 V
1 1 V
0 1 V
0 1 V
5 0 V
1 1 V
0 1 V
0 1 V
4 0 V
1 1 V
0 1 V
0 1 V
4 0 V
1 0 V
0 1 V
0 1 V
4 1 V
1 0 V
0 1 V
1 0 V
0 1 V
3 1 V
1 0 V
1 1 V
2 0 V
0 1 V
1 1 V
2 0 V
1 1 V
1 0 V
0 1 V
2 0 V
1 1 V
1 0 V
0 1 V
0 1 V
0 1 V
4 0 V
0 1 V
0 1 V
2 0 V
0 1 V
0 1 V
4 0 V
0 1 V
1 0 V
0 1 V
4 1 V
2 1 V
0 1 V
4 0 V
0 1 V
1 0 V
0 1 V
1 0 V
0 1 V
3 0 V
0 1 V
1 0 V
0 1 V
1 0 V
3 1 V
1 1 V
0 1 V
2 0 V
3 0 V
0 1 V
0 1 V
1 0 V
0 1 V
1 0 V
3 0 V
0 1 V
1 1 V
1 0 V
3 1 V
0 1 V
2 0 V
0 1 V
4 1 V
0 1 V
1 0 V
0 1 V
4 0 V
0 1 V
1 1 V
1 0 V
0 1 V
3 0 V
0 1 V
1 0 V
1 1 V
3 0 V
0 1 V
1 1 V
1 0 V
0 1 V
stroke 2881 3536 M
3 0 V
0 1 V
2 0 V
0 1 V
3 0 V
0 1 V
0 1 V
2 0 V
0 1 V
3 0 V
0 1 V
2 0 V
0 1 V
1 0 V
2 1 V
0 1 V
2 0 V
1 0 V
0 1 V
3 0 V
0 1 V
2 0 V
0 1 V
3 1 V
0 1 V
2 0 V
1 0 V
0 1 V
2 0 V
0 1 V
2 0 V
0 1 V
1 0 V
3 1 V
0 1 V
1 0 V
1 0 V
2 1 V
1 0 V
0 1 V
1 0 V
0 1 V
2 0 V
1 0 V
1 0 V
0 1 V
2 1 V
1 0 V
1 1 V
12 0 V
0 1 V
5 0 V
0 1 V
0 1 V
5 1 V
0 1 V
0 1 V
5 0 V
0 1 V
0 1 V
5 0 V
0 1 V
0 1 V
1 0 V
5 1 V
0 1 V
0 1 V
5 0 V
0 1 V
0 1 V
6 0 V
0 1 V
0 1 V
5 1 V
0 1 V
0 1 V
6 0 V
0 1 V
0 1 V
5 0 V
0 1 V
0 1 V
0 1 V
5 0 V
0 1 V
0 1 V
1 0 V
0 1 V
4 0 V
0 1 V
1 0 V
0 1 V
4 0 V
0 1 V
1 1 V
1 0 V
0 1 V
3 0 V
0 1 V
1 0 V
1 1 V
4 0 V
0 1 V
0 1 V
stroke 3026 3598 M
1 0 V
0 1 V
4 0 V
0 1 V
0 1 V
1 0 V
0 1 V
0 1 V
4 0 V
0 1 V
0 1 V
1 0 V
0 1 V
0 1 V
4 1 V
0 1 V
1 1 V
4 1 V
1 1 V
0 1 V
4 0 V
0 1 V
1 0 V
0 1 V
4 0 V
0 1 V
1 0 V
0 1 V
0 1 V
4 0 V
0 1 V
0 1 V
1 1 V
0 1 V
5 0 V
0 1 V
0 1 V
0 1 V
0 1 V
5 0 V
0 1 V
0 1 V
0 1 V
5 0 V
0 1 V
0 1 V
5 0 V
0 1 V
1 0 V
0 1 V
4 0 V
0 1 V
1 0 V
13 0 V
0 1 V
14 0 V
0 1 V
0 1 V
5 0 V
0 1 V
0 1 V
14 0 V
0 1 V
14 0 V
0 1 V
0 1 V
5 0 V
0 1 V
0 1 V
5 0 V
0 1 V
1 0 V
0 1 V
5 0 V
0 1 V
5 1 V
0 1 V
5 1 V
0 1 V
5 1 V
0 1 V
5 1 V
0 1 V
5 1 V
0 1 V
5 1 V
14 0 V
5 0 V
0 1 V
0 1 V
5 0 V
0 1 V
1 0 V
0 1 V
5 0 V
0 1 V
0 1 V
5 0 V
0 1 V
0 1 V
5 0 V
0 1 V
5 1 V
14 0 V
stroke 3253 3668 M
6 0 V
0 1 V
0 1 V
5 0 V
0 1 V
0 1 V
5 0 V
0 1 V
0 1 V
5 0 V
0 1 V
5 1 V
0 1 V
5 0 V
0 1 V
1 1 V
13 0 V
0 1 V
5 0 V
0 1 V
0 1 V
5 0 V
0 1 V
0 1 V
5 0 V
0 1 V
0 -2865 V
% End plot #1
% Begin plot #2
2.000 UP
stroke
LTa
0.60 0.60 0.00 C 1918 2241 Box
2192 4362 Box
2795 3490 Box
% End plot #2
% Begin plot #3
2.000 UP
1.000 UL
LTa
0.60 0.60 0.00 C LCb setrgbcolor
2714 153 M
[ [(Arial) 180.0 0.0 true true 0 (olsr)]
] -60.0 MRshow
2.000 UP
1.000 UL
LTa
0.60 0.60 0.00 C 2822 153 M
333 0 V
1918 2241 M
1918 2241 Box
2988 153 Box
% End plot #3
% Begin plot #4
1.000 UL
LTb
LT1
0.00 0.00 0.63 C 1136 2241 M
5 175 V
5 124 V
6 96 V
0 79 V
5 67 V
0 58 V
5 50 V
0 46 V
6 41 V
0 38 V
0 34 V
5 32 V
0 30 V
0 28 V
0 26 V
6 25 V
0 -194 V
0 36 V
0 34 V
0 -109 V
0 39 V
0 36 V
0 -75 V
0 39 V
0 -318 V
0 72 V
0 -159 V
0 87 V
0 -341 V
0 145 V
6 233 V
0 -37 V
0 72 V
0 62 V
0 54 V
6 48 V
0 43 V
0 39 V
0 36 V
0 34 V
0 -729 V
6 64 V
0 49 V
0 39 V
5 33 V
6 28 V
6 25 V
0 22 V
6 21 V
0 18 V
6 17 V
0 16 V
6 14 V
5 14 V
6 13 V
0 12 V
6 11 V
0 11 V
6 11 V
0 9 V
5 10 V
0 9 V
0 9 V
6 8 V
0 8 V
0 8 V
6 7 V
0 7 V
5 7 V
0 7 V
0 7 V
6 6 V
0 14 V
0 -115 V
0 61 V
0 -322 V
0 105 V
6 85 V
0 -331 V
0 141 V
6 141 V
0 79 V
5 12 V
0 11 V
0 11 V
6 10 V
0 10 V
6 9 V
0 9 V
6 8 V
0 8 V
0 8 V
6 8 V
0 7 V
0 7 V
6 7 V
0 7 V
5 6 V
0 7 V
5 6 V
1 6 V
5 -1 V
0 -271 V
0 85 V
stroke 1346 2685 M
0 -190 V
0 105 V
0 -246 V
0 141 V
6 105 V
0 85 V
0 -49 V
6 -220 V
0 124 V
0 -299 V
6 96 V
6 64 V
5 49 V
6 39 V
6 33 V
6 28 V
6 25 V
0 22 V
6 21 V
0 18 V
5 17 V
0 16 V
5 14 V
0 14 V
5 13 V
6 12 V
5 11 V
0 11 V
0 11 V
6 9 V
0 10 V
0 9 V
6 9 V
0 8 V
0 8 V
6 8 V
6 7 V
0 7 V
5 7 V
0 7 V
0 7 V
0 6 V
6 6 V
0 6 V
0 6 V
6 6 V
0 5 V
0 5 V
6 6 V
0 5 V
0 5 V
5 5 V
0 5 V
0 4 V
0 5 V
5 4 V
0 5 V
0 4 V
6 4 V
0 4 V
0 4 V
0 4 V
5 4 V
0 4 V
0 4 V
0 4 V
5 3 V
0 4 V
0 3 V
0 4 V
5 3 V
0 4 V
0 -15 V
1 38 V
0 34 V
0 -334 V
0 67 V
5 -146 V
0 79 V
0 67 V
0 -146 V
0 79 V
0 67 V
0 -67 V
5 67 V
0 58 V
0 6 V
5 7 V
0 6 V
0 6 V
6 6 V
0 6 V
0 5 V
0 6 V
6 5 V
0 5 V
0 6 V
0 4 V
5 5 V
0 5 V
5 5 V
0 4 V
1 5 V
4 4 V
stroke 1552 2936 M
0 4 V
0 5 V
1 4 V
4 4 V
0 4 V
0 4 V
5 3 V
0 4 V
6 4 V
0 3 V
0 4 V
0 4 V
5 -6 V
0 38 V
0 34 V
0 32 V
0 -541 V
0 96 V
5 -220 V
0 124 V
0 96 V
0 79 V
0 67 V
0 -146 V
0 79 V
5 67 V
0 58 V
0 6 V
5 7 V
0 6 V
0 6 V
0 6 V
6 6 V
0 5 V
5 6 V
0 5 V
5 5 V
0 6 V
0 4 V
0 5 V
5 5 V
0 5 V
2 4 V
4 5 V
0 4 V
1 4 V
0 5 V
4 4 V
0 4 V
14 4 V
0 -145 V
0 54 V
0 -529 V
0 145 V
5 -145 V
0 145 V
0 109 V
5 45 V
0 -96 V
0 96 V
0 -220 V
0 124 V
0 -299 V
0 175 V
6 -175 V
0 96 V
5 64 V
5 49 V
6 39 V
5 33 V
5 28 V
5 25 V
6 22 V
0 21 V
6 18 V
0 17 V
5 16 V
0 14 V
5 14 V
1 13 V
5 12 V
0 11 V
5 11 V
0 11 V
1 9 V
5 10 V
0 9 V
0 9 V
0 8 V
5 8 V
0 21 V
0 -60 V
0 60 V
0 -311 V
0 101 V
5 -233 V
0 132 V
0 101 V
0 17 V
6 79 V
0 -79 V
0 79 V
0 -474 V
0 175 V
stroke 1736 2416 M
5 -175 V
0 96 V
5 64 V
5 49 V
5 39 V
0 33 V
6 28 V
0 25 V
5 22 V
0 21 V
5 18 V
0 17 V
6 16 V
0 14 V
5 14 V
0 13 V
5 12 V
0 11 V
5 11 V
0 11 V
6 9 V
0 10 V
0 9 V
5 9 V
0 8 V
0 8 V
5 8 V
0 7 V
0 7 V
5 7 V
0 7 V
0 7 V
0 6 V
6 6 V
0 6 V
0 6 V
5 6 V
0 5 V
1 5 V
5 6 V
0 5 V
0 5 V
0 5 V
5 5 V
0 4 V
1 5 V
0 4 V
4 5 V
0 4 V
1 4 V
0 4 V
4 4 V
0 4 V
1 4 V
0 4 V
0 4 V
4 4 V
0 3 V
2 4 V
0 3 V
0 4 V
4 3 V
0 4 V
5 3 V
0 3 V
0 3 V
0 4 V
5 3 V
0 3 V
0 3 V
2 3 V
0 3 V
14 3 V
0 3 V
5 2 V
6 3 V
0 3 V
5 3 V
0 2 V
5 3 V
0 3 V
0 2 V
6 3 V
0 2 V
0 3 V
0 2 V
0 3 V
5 2 V
0 3 V
0 2 V
0 2 V
0 3 V
5 2 V
0 2 V
0 2 V
0 3 V
0 2 V
6 2 V
0 2 V
0 2 V
0 2 V
0 2 V
0 2 V
5 2 V
stroke 1931 3097 M
0 3 V
0 2 V
0 2 V
0 1 V
0 2 V
0 2 V
5 2 V
0 2 V
0 2 V
5 2 V
0 2 V
0 2 V
5 1 V
0 2 V
0 2 V
0 2 V
0 2 V
0 1 V
5 2 V
0 2 V
2 -48 V
0 30 V
0 -388 V
0 65 V
0 -233 V
0 92 V
14 -633 V
0 262 V
0 258 V
5 96 V
0 79 V
0 67 V
0 -366 V
0 124 V
5 -299 V
0 96 V
5 64 V
0 49 V
5 39 V
6 33 V
5 28 V
6 25 V
0 22 V
5 21 V
0 18 V
6 17 V
0 16 V
5 14 V
0 14 V
5 13 V
0 12 V
5 11 V
0 11 V
0 11 V
5 9 V
0 10 V
0 9 V
5 9 V
0 8 V
0 8 V
5 8 V
0 7 V
0 7 V
0 7 V
5 7 V
0 7 V
6 6 V
0 6 V
0 6 V
0 6 V
0 6 V
5 5 V
0 5 V
1 6 V
0 5 V
4 5 V
0 5 V
1 5 V
0 4 V
4 5 V
0 4 V
1 5 V
0 4 V
0 4 V
4 4 V
0 4 V
1 4 V
0 4 V
0 4 V
4 4 V
0 4 V
2 3 V
0 4 V
4 3 V
0 4 V
1 3 V
0 4 V
0 3 V
4 3 V
0 3 V
1 4 V
0 3 V
0 3 V
4 3 V
stroke 2097 3014 M
0 3 V
1 3 V
0 3 V
4 3 V
0 2 V
1 3 V
0 3 V
0 3 V
4 2 V
0 3 V
1 3 V
0 2 V
5 3 V
0 2 V
0 3 V
0 2 V
0 3 V
5 2 V
0 3 V
0 2 V
1 2 V
0 3 V
0 2 V
0 2 V
4 2 V
0 3 V
1 2 V
0 2 V
0 2 V
0 2 V
4 2 V
0 2 V
1 2 V
0 2 V
0 3 V
4 2 V
0 2 V
0 1 V
1 2 V
0 2 V
0 2 V
4 2 V
0 2 V
0 2 V
2 2 V
0 2 V
0 1 V
3 2 V
0 2 V
0 2 V
2 2 V
0 1 V
3 2 V
0 2 V
0 2 V
2 1 V
0 2 V
0 2 V
0 1 V
4 2 V
0 1 V
0 2 V
1 2 V
0 1 V
0 2 V
0 1 V
4 2 V
0 2 V
1 1 V
0 2 V
0 1 V
4 2 V
0 1 V
0 2 V
0 1 V
1 2 V
0 1 V
0 1 V
0 2 V
5 1 V
0 2 V
0 1 V
1 2 V
0 1 V
0 1 V
4 2 V
0 1 V
0 1 V
1 2 V
0 1 V
0 1 V
0 2 V
4 1 V
0 1 V
0 2 V
1 1 V
0 1 V
1 1 V
0 2 V
0 1 V
3 1 V
0 1 V
0 2 V
0 1 V
stroke 2185 3207 M
1 1 V
0 1 V
0 2 V
1 1 V
0 1 V
0 1 V
3 1 V
0 2 V
1 1 V
0 1 V
1 1 V
0 1 V
0 1 V
3 1 V
0 2 V
1 1 V
0 1 V
2 1 V
0 1 V
2 1 V
0 1 V
1 1 V
0 1 V
2 1 V
0 2 V
0 1 V
3 1 V
0 1 V
1 1 V
0 1 V
1 1 V
0 1 V
0 1 V
0 1 V
3 1 V
0 1 V
0 1 V
1 1 V
0 1 V
0 1 V
0 -56 V
0 23 V
1 22 V
0 21 V
0 19 V
0 -193 V
0 30 V
3 -30 V
0 30 V
0 -173 V
0 41 V
1 -41 V
0 41 V
0 37 V
0 -122 V
0 44 V
0 -54 V
4 46 V
0 41 V
2 38 V
0 34 V
0 -209 V
0 50 V
0 -108 V
0 58 V
3 -125 V
0 67 V
0 58 V
0 -125 V
0 67 V
2 58 V
3 31 V
0 -115 V
0 61 V
0 54 V
2 -115 V
0 61 V
0 -61 V
0 61 V
0 -132 V
5 -49 V
0 79 V
0 -79 V
0 79 V
0 -79 V
0 79 V
0 -299 V
0 124 V
4 -299 V
1 96 V
5 64 V
0 49 V
5 39 V
6 33 V
5 28 V
5 25 V
0 22 V
5 21 V
0 18 V
5 17 V
0 16 V
5 14 V
0 14 V
5 13 V
stroke 2289 2710 M
0 12 V
0 11 V
6 11 V
0 11 V
0 9 V
5 10 V
0 9 V
0 9 V
5 8 V
0 8 V
5 8 V
0 7 V
0 7 V
5 7 V
0 7 V
0 7 V
5 6 V
0 6 V
0 6 V
0 6 V
0 6 V
7 5 V
0 5 V
0 6 V
0 5 V
5 5 V
0 5 V
0 5 V
5 4 V
0 5 V
0 4 V
0 5 V
5 4 V
0 4 V
0 4 V
5 4 V
0 4 V
0 4 V
0 4 V
5 4 V
0 4 V
0 3 V
0 4 V
5 3 V
0 4 V
0 3 V
0 4 V
0 3 V
6 3 V
0 3 V
0 -24 V
0 -262 V
0 67 V
0 -146 V
0 79 V
5 -175 V
0 96 V
0 -220 V
0 124 V
0 -124 V
0 124 V
0 175 V
5 67 V
0 58 V
6 6 V
0 7 V
0 6 V
5 6 V
0 6 V
0 6 V
0 5 V
5 6 V
0 5 V
0 5 V
5 6 V
0 4 V
0 5 V
0 5 V
5 5 V
0 4 V
0 5 V
5 4 V
0 4 V
5 5 V
0 -1 V
0 -150 V
0 56 V
0 -121 V
0 65 V
6 -141 V
0 76 V
0 -168 V
0 92 V
0 76 V
0 65 V
0 -12 V
0 -67 V
5 67 V
0 58 V
0 50 V
0 -108 V
0 58 V
0 -424 V
5 220 V
stroke 2425 2636 M
0 -395 V
0 175 V
5 -175 V
0 175 V
0 -175 V
0 96 V
5 64 V
5 49 V
5 39 V
0 33 V
5 28 V
6 25 V
0 22 V
5 21 V
0 18 V
5 17 V
0 16 V
5 14 V
0 14 V
5 13 V
0 12 V
0 11 V
5 11 V
0 11 V
0 9 V
5 10 V
0 9 V
0 9 V
5 8 V
6 8 V
0 8 V
0 7 V
5 7 V
0 -1 V
0 52 V
0 -363 V
0 101 V
5 -203 V
5 220 V
0 79 V
0 -175 V
0 96 V
0 -220 V
0 124 V
5 -299 V
0 96 V
5 64 V
5 49 V
6 39 V
0 33 V
5 28 V
5 25 V
0 22 V
5 21 V
0 18 V
0 17 V
5 16 V
0 14 V
5 14 V
0 13 V
0 12 V
5 11 V
0 11 V
0 11 V
5 9 V
0 10 V
0 9 V
6 9 V
0 8 V
0 8 V
2 8 V
3 7 V
0 7 V
2 7 V
3 7 V
0 7 V
2 6 V
3 6 V
0 6 V
3 6 V
2 6 V
0 5 V
0 5 V
0 6 V
3 5 V
2 5 V
0 5 V
0 5 V
3 4 V
3 5 V
0 4 V
2 5 V
3 4 V
0 4 V
0 4 V
0 4 V
2 4 V
3 4 V
0 4 V
0 4 V
0 4 V
3 3 V
2 4 V
0 3 V
stroke 2620 2981 M
3 4 V
2 3 V
0 4 V
0 3 V
3 3 V
2 3 V
0 4 V
0 3 V
3 3 V
2 3 V
0 3 V
3 3 V
2 3 V
0 3 V
0 2 V
3 3 V
3 3 V
0 3 V
0 2 V
2 3 V
3 3 V
0 2 V
0 3 V
2 2 V
3 3 V
0 2 V
0 3 V
0 2 V
0 3 V
3 2 V
2 2 V
0 3 V
0 2 V
0 2 V
4 2 V
1 3 V
0 2 V
0 2 V
1 2 V
3 2 V
1 2 V
0 2 V
0 2 V
4 2 V
1 3 V
0 2 V
1 2 V
3 1 V
2 2 V
0 2 V
0 2 V
0 2 V
0 2 V
3 2 V
2 2 V
0 2 V
0 1 V
0 2 V
0 2 V
4 2 V
1 2 V
0 1 V
0 2 V
0 2 V
0 2 V
4 1 V
1 2 V
0 2 V
0 1 V
0 2 V
4 1 V
1 2 V
0 2 V
0 1 V
0 -40 V
0 28 V
0 -203 V
0 41 V
0 38 V
0 -125 V
0 46 V
5 -96 V
0 50 V
0 46 V
0 -96 V
0 50 V
0 -175 V
0 67 V
0 -67 V
0 67 V
0 108 V
0 46 V
5 41 V
0 38 V
0 -8 V
0 36 V
0 32 V
0 -306 V
0 60 V
5 -60 V
0 60 V
0 -128 V
0 68 V
0 -68 V
stroke 2717 2701 M
0 68 V
0 60 V
0 11 V
5 -90 V
0 -268 V
5 34 V
5 29 V
0 26 V
6 23 V
0 20 V
5 19 V
0 17 V
5 16 V
0 15 V
5 14 V
0 13 V
5 12 V
0 11 V
5 11 V
0 11 V
5 10 V
0 9 V
5 9 V
0 9 V
0 8 V
0 8 V
6 8 V
0 8 V
5 7 V
0 7 V
0 7 V
5 6 V
0 7 V
5 6 V
0 6 V
0 6 V
0 6 V
5 5 V
0 5 V
0 6 V
6 5 V
0 8 V
0 -48 V
0 48 V
0 -439 V
0 111 V
5 134 V
5 67 V
0 9 V
0 8 V
0 8 V
5 8 V
0 7 V
5 7 V
0 7 V
0 7 V
5 7 V
0 6 V
0 6 V
5 6 V
0 6 V
0 6 V
0 5 V
6 6 V
0 18 V
0 -439 V
0 111 V
5 -111 V
0 111 V
0 89 V
0 -89 V
0 89 V
0 -200 V
0 111 V
0 134 V
5 67 V
0 9 V
5 8 V
0 8 V
0 8 V
5 7 V
0 7 V
0 7 V
5 7 V
0 7 V
0 6 V
5 6 V
0 6 V
0 6 V
0 6 V
5 5 V
0 6 V
0 5 V
0 5 V
6 5 V
0 5 V
5 5 V
0 5 V
0 4 V
0 5 V
5 -21 V
0 44 V
0 -44 V
0 44 V
stroke 2892 2953 M
0 -44 V
0 44 V
0 -92 V
0 48 V
0 -328 V
0 89 V
5 73 V
0 11 V
0 9 V
5 10 V
0 9 V
5 9 V
0 8 V
0 8 V
5 8 V
0 7 V
0 8 V
5 7 V
0 6 V
0 7 V
6 6 V
0 6 V
0 6 V
0 6 V
6 6 V
0 6 V
0 5 V
5 5 V
0 5 V
0 5 V
0 5 V
0 5 V
5 5 V
0 4 V
0 5 V
0 4 V
0 5 V
5 4 V
0 4 V
0 4 V
5 4 V
0 4 V
0 4 V
0 4 V
0 3 V
6 4 V
0 3 V
0 4 V
0 3 V
0 4 V
5 3 V
0 4 V
0 3 V
0 3 V
5 3 V
0 3 V
0 3 V
2 3 V
3 3 V
0 3 V
0 3 V
2 3 V
0 3 V
3 3 V
0 3 V
0 2 V
0 3 V
2 3 V
0 2 V
0 3 V
3 2 V
0 3 V
0 2 V
0 3 V
2 2 V
0 3 V
3 2 V
0 3 V
0 2 V
2 2 V
0 3 V
4 2 V
0 2 V
0 2 V
1 2 V
0 3 V
4 2 V
0 2 V
0 2 V
2 2 V
0 2 V
0 2 V
3 2 V
0 2 V
0 2 V
0 2 V
2 2 V
0 2 V
0 2 V
4 2 V
0 -26 V
0 -237 V
0 50 V
1 -50 V
stroke 3008 2850 M
0 50 V
0 44 V
0 41 V
0 37 V
0 -228 V
0 56 V
4 -121 V
0 65 V
0 96 V
0 -108 V
0 -146 V
0 79 V
5 -79 V
0 79 V
0 -79 V
0 79 V
0 67 V
0 -242 V
6 26 V
0 24 V
5 20 V
0 19 V
5 18 V
0 16 V
5 15 V
0 14 V
5 13 V
0 13 V
0 11 V
5 11 V
0 11 V
0 10 V
5 9 V
0 10 V
0 8 V
5 9 V
0 8 V
0 8 V
0 7 V
6 8 V
0 7 V
0 7 V
0 6 V
5 7 V
0 6 V
0 6 V
5 6 V
0 6 V
0 5 V
0 6 V
5 5 V
0 5 V
2 5 V
0 5 V
0 5 V
3 5 V
0 4 V
2 5 V
0 4 V
0 5 V
3 4 V
2 4 V
0 4 V
0 4 V
3 4 V
2 4 V
0 4 V
0 3 V
1 4 V
2 4 V
3 3 V
0 4 V
0 3 V
0 4 V
3 3 V
2 3 V
0 3 V
0 4 V
3 3 V
2 3 V
0 3 V
0 3 V
0 3 V
1 3 V
2 3 V
3 2 V
0 -20 V
0 -306 V
0 68 V
0 60 V
0 -128 V
0 68 V
2 -150 V
0 82 V
3 -183 V
0 101 V
0 96 V
4 -37 V
1 -87 V
0 87 V
0 -341 V
0 145 V
0 -840 V
0 474 V
stroke 3128 2116 M
4 221 V
1 299 V
4 -220 V
0 124 V
1 -124 V
0 124 V
4 -299 V
0 96 V
1 64 V
4 49 V
6 39 V
5 33 V
5 28 V
5 25 V
0 22 V
5 21 V
0 18 V
5 17 V
0 16 V
0 14 V
5 14 V
0 13 V
5 12 V
0 11 V
6 11 V
0 38 V
0 -541 V
0 175 V
5 -475 V
0 300 V
0 299 V
5 26 V
0 24 V
5 20 V
0 19 V
0 18 V
5 16 V
0 15 V
0 14 V
5 13 V
0 13 V
5 11 V
0 11 V
0 11 V
5 10 V
0 9 V
0 10 V
0 8 V
6 9 V
0 8 V
0 8 V
0 7 V
5 8 V
0 7 V
0 7 V
5 6 V
0 7 V
0 6 V
0 6 V
5 4 V
0 47 V
0 -774 V
0 210 V
5 -210 V
0 210 V
0 186 V
5 96 V
5 79 V
6 12 V
0 11 V
0 11 V
5 10 V
0 10 V
0 9 V
5 9 V
0 8 V
0 8 V
0 8 V
6 8 V
0 7 V
0 7 V
0 7 V
0 7 V
5 6 V
0 7 V
5 6 V
0 6 V
0 5 V
0 6 V
5 5 V
0 6 V
0 15 V
0 -328 V
0 89 V
5 -89 V
0 89 V
0 -583 V
0 232 V
0 221 V
5 96 V
0 79 V
5 67 V
0 9 V
0 8 V
stroke 3317 2799 M
5 8 V
0 8 V
0 7 V
6 7 V
0 7 V
0 7 V
0 7 V
5 6 V
0 6 V
5 6 V
0 6 V
5 6 V
0 5 V
0 6 V
0 5 V
5 5 V
0 5 V
0 5 V
5 5 V
0 5 V
0 4 V
5 -16 V
0 44 V
0 40 V
0 36 V
0 -76 V
0 40 V
0 -412 V
0 89 V
5 73 V
0 -203 V
0 96 V
0 79 V
6 67 V
0 9 V
5 8 V
0 8 V
0 8 V
5 7 V
0 7 V
0 7 V
5 7 V
0 7 V
0 6 V
5 6 V
0 6 V
0 6 V
0 6 V
1 5 V
4 6 V
0 5 V
0 5 V
1 5 V
4 5 V
0 5 V
0 5 V
1 4 V
5 5 V
0 4 V
0 4 V
0 5 V
0 4 V
5 4 V
0 4 V
0 4 V
2 4 V
3 3 V
0 4 V
0 4 V
2 3 V
3 4 V
0 3 V
0 4 V
2 3 V
0 4 V
3 3 V
0 3 V
0 3 V
0 3 V
2 3 V
0 3 V
0 3 V
4 3 V
0 3 V
0 3 V
1 3 V
0 3 V
0 3 V
4 2 V
0 3 V
0 3 V
1 2 V
0 3 V
0 2 V
4 3 V
0 2 V
0 3 V
1 2 V
0 3 V
4 2 V
0 3 V
0 2 V
0 2 V
2 3 V
stroke 3448 3074 M
0 2 V
0 2 V
0 2 V
3 2 V
0 3 V
2 2 V
0 2 V
0 2 V
0 2 V
3 2 V
0 2 V
0 2 V
2 2 V
0 2 V
0 2 V
0 2 V
3 2 V
0 2 V
0 2 V
2 2 V
0 2 V
0 2 V
3 1 V
0 2 V
0 2 V
2 2 V
0 2 V
0 1 V
0 2 V
4 2 V
0 2 V
0 1 V
1 2 V
0 2 V
0 1 V
0 2 V
4 2 V
0 1 V
0 2 V
0 1 V
1 2 V
0 2 V
0 1 V
0 2 V
0 1 V
4 2 V
0 1 V
0 2 V
1 1 V
0 2 V
1 1 V
3 2 V
0 1 V
0 2 V
2 1 V
0 2 V
3 1 V
0 2 V
0 1 V
2 1 V
0 2 V
0 -47 V
0 -91 V
0 32 V
0 30 V
0 -178 V
0 42 V
3 -42 V
0 42 V
0 -140 V
0 52 V
0 -52 V
0 52 V
11 -180 V
0 68 V
0 71 V
0 -90 V
0 -159 V
0 87 V
0 72 V
5 -72 V
0 72 V
0 -159 V
0 87 V
0 72 V
0 62 V
0 -330 V
5 154 V
0 -395 V
0 175 V
5 -175 V
5 96 V
0 64 V
5 49 V
5 39 V
5 33 V
6 28 V
5 25 V
0 22 V
5 21 V
0 18 V
5 17 V
0 16 V
5 14 V
stroke 3569 2683 M
0 14 V
0 13 V
5 12 V
0 11 V
0 11 V
5 38 V
0 -67 V
0 67 V
0 58 V
0 -424 V
0 124 V
6 -124 V
0 124 V
0 96 V
0 79 V
0 -175 V
0 26 V
5 24 V
0 20 V
0 19 V
5 18 V
0 16 V
5 15 V
0 14 V
5 13 V
0 13 V
5 11 V
0 11 V
0 11 V
5 10 V
0 9 V
0 10 V
0 8 V
5 9 V
0 8 V
2 8 V
4 7 V
0 8 V
1 7 V
4 7 V
0 6 V
1 7 V
4 6 V
0 6 V
0 6 V
1 6 V
4 5 V
0 6 V
2 5 V
3 5 V
0 5 V
2 5 V
3 5 V
0 5 V
0 4 V
2 5 V
4 4 V
0 5 V
0 4 V
1 4 V
4 4 V
0 4 V
0 4 V
1 4 V
4 4 V
0 3 V
0 4 V
3 4 V
2 3 V
0 4 V
0 3 V
0 4 V
3 3 V
2 3 V
0 3 V
0 4 V
0 3 V
3 3 V
2 3 V
0 3 V
3 3 V
3 3 V
0 -15 V
0 -238 V
0 60 V
0 -60 V
0 60 V
0 -128 V
0 68 V
2 -150 V
0 82 V
3 -82 V
0 82 V
0 81 V
0 -67 V
3 67 V
2 -67 V
0 67 V
0 -146 V
0 79 V
0 67 V
0 58 V
0 50 V
0 -108 V
stroke 3698 2782 M
0 58 V
0 -424 V
5 220 V
0 -395 V
0 175 V
5 -475 V
0 300 V
5 96 V
5 64 V
6 49 V
5 39 V
5 33 V
5 28 V
5 25 V
0 22 V
5 21 V
0 18 V
5 17 V
0 16 V
6 14 V
0 14 V
5 13 V
0 12 V
5 11 V
0 11 V
0 11 V
5 9 V
0 10 V
0 9 V
5 9 V
0 8 V
1 8 V
0 8 V
4 7 V
0 7 V
1 7 V
0 7 V
4 7 V
1 6 V
0 6 V
4 6 V
0 6 V
1 6 V
0 5 V
5 5 V
0 6 V
0 5 V
0 5 V
5 5 V
0 5 V
0 4 V
5 5 V
0 4 V
1 5 V
0 4 V
4 4 V
0 4 V
0 4 V
1 4 V
0 4 V
0 4 V
4 4 V
0 4 V
0 3 V
1 4 V
0 3 V
4 4 V
0 3 V
1 4 V
0 3 V
0 3 V
4 3 V
0 4 V
1 3 V
0 3 V
4 3 V
0 3 V
0 3 V
1 3 V
0 3 V
5 2 V
0 3 V
0 3 V
0 3 V
0 2 V
0 3 V
0 3 V
5 2 V
0 3 V
0 2 V
1 3 V
0 2 V
0 3 V
4 2 V
0 3 V
1 2 V
0 2 V
4 3 V
0 2 V
0 2 V
0 2 V
0 3 V
0 2 V
5 2 V
stroke 3862 3085 M
0 2 V
0 2 V
0 2 V
0 2 V
5 2 V
0 2 V
0 -35 V
0 31 V
0 29 V
0 28 V
0 -57 V
0 29 V
0 -452 V
0 73 V
5 -73 V
0 73 V
0 97 V
0 50 V
6 -108 V
0 58 V
0 -58 V
0 58 V
0 -58 V
0 58 V
0 -300 V
0 96 V
0 -395 V
0 175 V
5 124 V
0 26 V
5 24 V
0 20 V
3 19 V
2 18 V
3 16 V
3 15 V
2 14 V
2 13 V
3 13 V
2 11 V
3 11 V
0 11 V
2 10 V
3 9 V
0 10 V
3 8 V
3 9 V
0 8 V
3 8 V
2 7 V
0 8 V
3 7 V
2 7 V
0 6 V
4 7 V
1 6 V
0 10 V
0 -271 V
0 85 V
4 -190 V
0 105 V
1 -105 V
0 105 V
0 -246 V
0 141 V
0 141 V
5 79 V
0 -474 V
0 175 V
0 -475 V
0 300 V
11 96 V
0 64 V
5 49 V
5 39 V
5 33 V
5 28 V
5 25 V
0 22 V
5 21 V
0 18 V
6 17 V
0 16 V
5 14 V
0 14 V
5 13 V
0 12 V
5 11 V
0 11 V
0 11 V
5 9 V
0 18 V
0 -366 V
0 124 V
5 -124 V
0 124 V
0 -299 V
0 175 V
0 124 V
5 26 V
0 24 V
0 20 V
6 19 V
0 18 V
stroke 4030 2647 M
5 16 V
0 15 V
0 14 V
5 13 V
0 13 V
5 11 V
0 11 V
0 11 V
5 10 V
0 9 V
0 10 V
5 8 V
0 9 V
0 8 V
5 8 V
0 7 V
0 8 V
0 7 V
5 7 V
0 6 V
0 7 V
87 -914 V
15 300 V
5 175 V
5 124 V
5 96 V
0 79 V
5 67 V
0 9 V
0 8 V
5 8 V
0 8 V
0 7 V
0 7 V
6 7 V
0 7 V
5 7 V
0 6 V
0 6 V
5 6 V
0 6 V
0 6 V
0 5 V
6 6 V
0 5 V
0 5 V
0 5 V
0 5 V
5 5 V
0 5 V
0 4 V
0 5 V
5 4 V
0 4 V
0 5 V
0 4 V
5 4 V
0 4 V
0 4 V
0 4 V
5 3 V
0 4 V
0 4 V
5 3 V
0 4 V
0 3 V
0 4 V
0 3 V
5 4 V
0 3 V
0 3 V
0 3 V
0 3 V
6 3 V
0 3 V
0 3 V
0 3 V
0 3 V
5 3 V
0 3 V
0 3 V
0 3 V
0 2 V
0 3 V
5 3 V
0 -35 V
0 -178 V
0 52 V
0 -180 V
0 68 V
0 -150 V
0 82 V
5 -183 V
0 101 V
0 82 V
0 14 V
0 -37 V
0 72 V
5 62 V
0 -62 V
0 62 V
0 -134 V
0 72 V
0 62 V
stroke 4270 2812 M
0 -330 V
0 109 V
0 -254 V
5 64 V
5 49 V
0 39 V
5 33 V
6 28 V
5 25 V
0 22 V
5 21 V
0 18 V
5 17 V
0 16 V
5 14 V
0 14 V
5 13 V
1 12 V
0 11 V
0 11 V
5 11 V
0 9 V
0 10 V
5 9 V
0 9 V
6 8 V
0 8 V
0 8 V
5 7 V
0 7 V
0 7 V
5 7 V
0 7 V
5 6 V
0 14 V
0 -54 V
0 54 V
1 -271 V
0 85 V
4 -190 V
0 105 V
0 -246 V
0 141 V
0 141 V
5 79 V
0 12 V
5 11 V
0 11 V
5 10 V
0 10 V
6 9 V
0 9 V
0 8 V
5 8 V
0 8 V
0 8 V
0 7 V
0 7 V
5 7 V
0 7 V
5 6 V
0 7 V
0 6 V
0 6 V
0 5 V
5 6 V
0 5 V
1 6 V
4 5 V
0 5 V
2 5 V
0 5 V
0 5 V
3 4 V
0 5 V
2 4 V
0 5 V
4 4 V
0 4 V
1 4 V
0 4 V
0 4 V
4 4 V
0 4 V
1 4 V
0 3 V
0 4 V
4 3 V
0 4 V
1 3 V
0 4 V
0 3 V
4 3 V
0 4 V
1 3 V
0 3 V
1 3 V
3 3 V
0 3 V
1 3 V
0 3 V
0 3 V
4 3 V
0 3 V
stroke 4435 3030 M
0 2 V
1 3 V
0 3 V
4 3 V
0 2 V
2 3 V
0 2 V
0 3 V
13 2 V
6 3 V
0 -166 V
0 -108 V
0 58 V
0 -599 V
0 175 V
5 -175 V
0 175 V
0 -175 V
0 175 V
0 124 V
0 96 V
0 -695 V
0 300 V
0 299 V
5 96 V
5 79 V
0 12 V
0 11 V
5 11 V
0 10 V
0 10 V
5 9 V
0 9 V
0 8 V
5 8 V
0 8 V
0 8 V
5 7 V
0 7 V
0 7 V
0 7 V
6 6 V
0 7 V
0 6 V
0 6 V
5 5 V
0 6 V
0 5 V
5 6 V
0 5 V
0 10 V
0 -103 V
0 55 V
0 -191 V
0 73 V
87 -802 V
16 300 V
6 175 V
5 124 V
5 96 V
0 17 V
5 16 V
0 15 V
0 13 V
5 13 V
0 12 V
5 12 V
0 11 V
5 10 V
0 10 V
0 9 V
5 9 V
0 9 V
0 8 V
6 8 V
0 8 V
5 7 V
0 7 V
0 7 V
0 7 V
5 7 V
0 6 V
0 6 V
0 6 V
5 6 V
0 6 V
0 5 V
0 6 V
5 5 V
0 5 V
0 5 V
0 5 V
0 5 V
5 4 V
0 5 V
0 4 V
0 5 V
0 4 V
5 4 V
0 5 V
0 4 V
0 4 V
0 3 V
6 4 V
stroke 4698 2963 M
0 4 V
0 4 V
0 3 V
0 4 V
5 4 V
0 3 V
0 3 V
0 4 V
5 3 V
0 -18 V
0 -736 V
0 175 V
5 -475 V
0 300 V
0 299 V
5 96 V
0 -96 V
0 96 V
0 79 V
0 -299 V
0 124 V
5 -299 V
0 96 V
5 64 V
5 49 V
6 39 V
5 33 V
5 28 V
5 25 V
0 22 V
5 21 V
0 18 V
5 17 V
0 16 V
5 14 V
0 14 V
6 13 V
0 12 V
5 11 V
0 11 V
5 11 V
0 9 V
5 10 V
0 9 V
0 9 V
5 8 V
0 8 V
0 8 V
5 7 V
0 7 V
0 7 V
5 7 V
0 7 V
0 6 V
5 6 V
0 6 V
0 6 V
6 6 V
0 5 V
0 5 V
5 6 V
0 5 V
0 5 V
0 5 V
0 5 V
5 4 V
0 5 V
5 4 V
0 5 V
5 4 V
1 4 V
0 4 V
0 4 V
0 4 V
4 4 V
0 4 V
0 4 V
5 4 V
0 3 V
0 4 V
0 3 V
6 4 V
0 3 V
0 4 V
5 3 V
0 3 V
5 3 V
0 -24 V
0 -137 V
0 50 V
2 46 V
0 -154 V
0 58 V
0 -204 V
0 79 V
3 -175 V
0 96 V
0 79 V
0 67 V
2 -67 V
0 -79 V
0 79 V
3 -79 V
0 79 V
stroke 4872 2715 M
0 -79 V
0 79 V
0 -79 V
0 79 V
0 67 V
0 58 V
0 50 V
0 -474 V
5 220 V
0 -220 V
0 124 V
0 96 V
0 -220 V
0 124 V
2 -299 V
3 395 V
0 79 V
0 -175 V
0 96 V
5 79 V
0 -474 V
0 96 V
6 64 V
0 49 V
0 39 V
5 33 V
5 28 V
5 25 V
0 22 V
5 21 V
0 18 V
6 17 V
0 16 V
0 14 V
5 14 V
0 13 V
0 12 V
5 11 V
0 11 V
0 11 V
0 9 V
5 10 V
0 9 V
0 9 V
5 8 V
0 8 V
5 8 V
0 7 V
0 7 V
6 7 V
0 7 V
0 7 V
5 6 V
0 6 V
0 6 V
5 6 V
0 -4 V
0 -517 V
0 141 V
5 105 V
0 85 V
0 71 V
0 -261 V
0 105 V
0 -60 V
5 96 V
0 79 V
5 12 V
0 11 V
0 11 V
0 10 V
5 10 V
0 9 V
6 9 V
0 8 V
5 8 V
0 8 V
0 8 V
5 7 V
0 7 V
5 7 V
0 7 V
0 6 V
5 7 V
0 6 V
0 6 V
0 5 V
5 6 V
0 5 V
0 6 V
5 5 V
0 5 V
0 5 V
0 5 V
5 5 V
0 4 V
0 5 V
2 4 V
4 5 V
0 4 V
1 4 V
0 4 V
4 4 V
1 4 V
stroke 5033 2957 M
0 4 V
0 4 V
0 4 V
4 3 V
0 4 V
1 3 V
0 4 V
0 3 V
5 4 V
0 3 V
0 3 V
0 4 V
0 3 V
5 3 V
0 3 V
0 3 V
0 3 V
0 3 V
0 3 V
5 3 V
0 3 V
1 3 V
0 2 V
0 -25 V
0 -178 V
0 52 V
4 -112 V
0 60 V
0 -128 V
0 68 V
1 -150 V
0 82 V
0 -82 V
0 82 V
0 68 V
0 -68 V
0 68 V
0 71 V
4 -90 V
1 62 V
0 -62 V
0 62 V
0 54 V
0 -188 V
0 72 V
0 62 V
0 -475 V
0 145 V
4 -241 V
1 395 V
0 -220 V
0 124 V
5 -124 V
0 124 V
0 -299 V
0 96 V
0 64 V
5 49 V
5 39 V
5 33 V
6 28 V
5 25 V
0 22 V
5 21 V
0 18 V
5 17 V
0 16 V
5 14 V
0 14 V
0 13 V
5 12 V
0 11 V
6 11 V
0 11 V
0 9 V
5 10 V
0 9 V
5 9 V
0 8 V
5 8 V
0 8 V
1 7 V
4 7 V
0 7 V
1 7 V
5 7 V
0 6 V
5 6 V
0 8 V
0 47 V
0 -101 V
0 54 V
0 -271 V
0 85 V
5 -190 V
0 105 V
0 85 V
0 71 V
0 61 V
1 -181 V
4 79 V
0 12 V
0 11 V
1 11 V
stroke 5168 2749 M
4 10 V
0 10 V
1 9 V
4 9 V
0 8 V
1 8 V
4 8 V
0 8 V
1 7 V
5 7 V
0 7 V
0 7 V
5 6 V
0 7 V
1 6 V
4 6 V
0 -1 V
0 -271 V
0 85 V
1 -190 V
0 105 V
4 -246 V
0 141 V
0 105 V
0 36 V
5 79 V
0 67 V
0 58 V
0 -58 V
0 58 V
0 50 V
0 -175 V
0 67 V
0 58 V
0 -599 V
5 96 V
0 64 V
1 49 V
4 39 V
5 33 V
6 28 V
5 25 V
0 22 V
5 21 V
0 18 V
6 17 V
0 16 V
5 14 V
0 14 V
5 13 V
0 12 V
5 11 V
0 11 V
5 11 V
0 9 V
0 10 V
5 9 V
0 9 V
0 8 V
5 8 V
0 8 V
0 7 V
5 7 V
0 7 V
6 7 V
0 7 V
0 6 V
5 6 V
0 6 V
0 6 V
5 6 V
0 5 V
0 5 V
5 6 V
0 5 V
0 5 V
0 5 V
5 5 V
0 4 V
0 5 V
5 4 V
0 5 V
0 4 V
0 4 V
0 4 V
5 4 V
0 4 V
0 4 V
0 4 V
0 4 V
6 4 V
0 3 V
0 4 V
0 3 V
0 4 V
5 3 V
0 4 V
0 3 V
5 3 V
0 3 V
0 4 V
1 3 V
0 3 V
4 3 V
stroke 5337 3014 M
0 3 V
0 3 V
1 3 V
0 3 V
4 2 V
0 3 V
0 3 V
0 3 V
1 2 V
0 3 V
4 3 V
0 2 V
0 3 V
0 2 V
0 3 V
5 2 V
0 3 V
0 2 V
0 3 V
0 2 V
5 2 V
0 -33 V
0 -118 V
0 43 V
0 39 V
0 -183 V
0 54 V
0 47 V
1 -162 V
0 61 V
5 -132 V
0 71 V
0 -71 V
0 71 V
0 84 V
0 50 V
5 46 V
0 4 V
0 4 V
0 5 V
0 4 V
5 4 V
0 3 V
0 4 V
0 4 V
5 4 V
0 3 V
5 4 V
0 3 V
0 4 V
0 3 V
5 4 V
0 3 V
0 3 V
0 3 V
0 4 V
0 3 V
5 3 V
0 3 V
0 3 V
0 3 V
0 3 V
5 2 V
0 -19 V
0 36 V
0 32 V
0 -194 V
0 46 V
0 -98 V
0 52 V
0 -112 V
0 60 V
6 -60 V
0 60 V
0 -60 V
0 60 V
0 52 V
0 5 V
5 6 V
0 5 V
5 5 V
0 5 V
0 5 V
3 5 V
0 4 V
2 5 V
0 4 V
3 5 V
0 4 V
2 4 V
0 5 V
0 4 V
3 4 V
0 3 V
0 4 V
2 4 V
0 4 V
3 3 V
0 4 V
0 4 V
2 3 V
0 3 V
4 4 V
0 3 V
stroke 5438 2995 M
0 3 V
2 4 V
0 3 V
3 3 V
0 3 V
2 3 V
0 3 V
3 3 V
0 3 V
0 3 V
2 2 V
0 3 V
0 3 V
3 3 V
0 2 V
0 3 V
2 3 V
0 2 V
0 3 V
3 2 V
0 3 V
0 2 V
0 3 V
3 2 V
0 3 V
3 2 V
0 2 V
0 3 V
0 2 V
2 2 V
1 2 V
0 3 V
0 2 V
2 2 V
0 -23 V
0 -201 V
0 48 V
3 -103 V
0 55 V
0 48 V
0 -166 V
0 63 V
0 -136 V
0 73 V
2 -73 V
0 73 V
0 -162 V
0 89 V
0 112 V
3 58 V
2 31 V
0 -186 V
0 71 V
0 61 V
1 -132 V
0 71 V
2 -156 V
0 85 V
0 -190 V
0 105 V
12 85 V
0 14 V
0 13 V
5 12 V
0 11 V
5 11 V
0 10 V
0 10 V
0 9 V
5 9 V
0 9 V
0 8 V
6 8 V
0 8 V
5 7 V
0 7 V
0 7 V
5 7 V
0 7 V
5 6 V
0 6 V
0 6 V
5 6 V
0 5 V
5 6 V
0 5 V
0 6 V
5 5 V
0 5 V
0 5 V
0 4 V
5 5 V
0 5 V
0 4 V
6 4 V
0 5 V
0 4 V
0 4 V
0 4 V
5 4 V
0 4 V
0 4 V
0 4 V
5 3 V
stroke 5566 2971 M
0 4 V
5 4 V
0 3 V
0 4 V
5 3 V
0 3 V
0 4 V
0 3 V
0 3 V
0 3 V
6 3 V
0 3 V
0 -34 V
0 38 V
0 34 V
0 -34 V
0 34 V
0 -72 V
0 38 V
0 -233 V
0 58 V
5 -58 V
0 58 V
0 6 V
0 7 V
0 18 V
5 -54 V
0 54 V
0 -115 V
0 61 V
0 -61 V
0 61 V
0 -61 V
0 61 V
0 -217 V
0 85 V
5 14 V
0 13 V
5 12 V
0 11 V
5 11 V
0 10 V
0 10 V
5 9 V
0 9 V
0 9 V
5 8 V
0 8 V
0 8 V
6 7 V
0 7 V
0 7 V
0 7 V
5 7 V
0 6 V
0 6 V
0 6 V
5 6 V
0 5 V
0 6 V
0 5 V
5 6 V
0 5 V
0 5 V
0 5 V
0 4 V
5 5 V
0 5 V
0 4 V
5 4 V
0 5 V
0 4 V
0 4 V
0 4 V
5 4 V
0 4 V
0 4 V
0 4 V
6 3 V
0 4 V
0 4 V
0 3 V
5 4 V
0 3 V
0 3 V
0 4 V
5 3 V
0 3 V
0 3 V
0 3 V
5 3 V
0 3 V
0 3 V
0 3 V
5 3 V
0 3 V
0 3 V
2 3 V
0 2 V
14 3 V
5 3 V
0 2 V
5 3 V
0 3 V
stroke 5705 3048 M
1 2 V
0 3 V
0 2 V
4 3 V
1 2 V
0 3 V
0 2 V
0 2 V
4 3 V
0 2 V
0 2 V
1 2 V
0 3 V
4 2 V
0 2 V
0 2 V
0 2 V
0 3 V
0 2 V
5 2 V
0 2 V
0 2 V
0 2 V
6 2 V
0 2 V
0 2 V
5 2 V
0 2 V
0 2 V
0 2 V
0 1 V
0 2 V
0 2 V
5 2 V
0 2 V
0 -36 V
0 -102 V
0 37 V
0 -740 V
0 162 V
5 -424 V
0 262 V
0 162 V
0 117 V
0 92 V
0 -113 V
5 96 V
0 79 V
5 67 V
0 58 V
5 50 V
0 46 V
5 41 V
0 38 V
0 3 V
6 3 V
0 3 V
0 2 V
0 3 V
5 3 V
0 3 V
0 2 V
0 3 V
0 3 V
0 2 V
5 3 V
0 2 V
0 3 V
0 3 V
0 2 V
5 2 V
0 3 V
0 2 V
0 3 V
0 2 V
0 2 V
0 2 V
5 3 V
0 2 V
0 2 V
5 2 V
0 -21 V
0 -69 V
0 36 V
0 33 V
0 31 V
0 29 V
0 28 V
0 25 V
0 -314 V
0 48 V
5 -48 V
0 48 V
0 44 V
0 -92 V
0 48 V
0 44 V
0 -171 V
0 58 V
0 50 V
5 46 V
0 41 V
0 4 V
6 3 V
stroke 5813 2984 M
0 4 V
0 -11 V
0 -137 V
0 50 V
0 46 V
0 -46 V
0 46 V
0 -221 V
0 67 V
5 -67 V
0 67 V
0 -146 V
0 79 V
0 125 V
0 -90 V
0 62 V
0 -134 V
0 72 V
5 62 V
0 54 V
0 -116 V
0 62 V
0 -134 V
0 72 V
0 62 V
0 -62 V
0 62 V
0 -330 V
5 34 V
0 29 V
5 26 V
0 23 V
5 20 V
0 19 V
5 17 V
0 16 V
6 15 V
0 14 V
0 13 V
5 12 V
0 11 V
0 11 V
5 11 V
0 10 V
0 9 V
6 9 V
0 9 V
0 8 V
5 8 V
0 8 V
0 8 V
0 7 V
5 7 V
0 7 V
0 6 V
5 7 V
0 6 V
5 6 V
0 6 V
0 6 V
0 5 V
5 5 V
1 6 V
0 5 V
0 5 V
4 5 V
0 5 V
2 4 V
0 5 V
0 4 V
3 5 V
0 4 V
2 4 V
0 5 V
0 4 V
4 4 V
0 4 V
1 3 V
0 4 V
0 4 V
0 4 V
4 3 V
0 4 V
1 3 V
0 4 V
0 3 V
0 3 V
4 4 V
0 3 V
1 3 V
0 3 V
0 3 V
4 3 V
0 3 V
1 3 V
0 3 V
0 3 V
4 3 V
0 3 V
0 2 V
1 3 V
0 3 V
0 3 V
4 2 V
stroke 5931 3044 M
0 3 V
2 2 V
0 -13 V
0 -219 V
0 54 V
3 -115 V
0 61 V
0 54 V
0 -186 V
0 71 V
2 -71 V
0 71 V
0 84 V
3 -90 V
0 62 V
12 -330 V
6 34 V
0 29 V
5 26 V
0 23 V
5 20 V
0 19 V
5 17 V
0 16 V
5 15 V
0 14 V
5 13 V
0 12 V
5 11 V
0 11 V
0 11 V
6 10 V
0 9 V
0 9 V
5 9 V
0 8 V
0 8 V
5 8 V
0 8 V
0 7 V
0 7 V
5 7 V
0 6 V
5 7 V
0 6 V
0 6 V
5 6 V
0 6 V
0 5 V
5 5 V
0 6 V
0 5 V
0 5 V
5 5 V
0 5 V
0 4 V
0 5 V
0 4 V
6 5 V
0 -25 V
0 44 V
0 -92 V
0 48 V
0 44 V
4 -283 V
0 73 V
1 -162 V
0 89 V
0 -89 V
0 89 V
0 73 V
0 -28 V
0 67 V
4 9 V
0 8 V
0 8 V
6 8 V
0 7 V
5 7 V
0 7 V
0 7 V
5 7 V
0 6 V
5 6 V
0 6 V
0 6 V
5 6 V
0 5 V
0 6 V
5 5 V
0 5 V
0 5 V
0 5 V
0 5 V
5 5 V
0 4 V
0 5 V
5 4 V
0 4 V
0 5 V
0 4 V
0 4 V
6 4 V
0 4 V
stroke 6092 2959 M
0 4 V
0 3 V
5 4 V
0 4 V
0 3 V
0 4 V
5 3 V
0 4 V
0 3 V
0 4 V
5 3 V
0 3 V
0 3 V
0 3 V
5 3 V
0 3 V
0 3 V
0 3 V
5 3 V
0 3 V
0 3 V
0 3 V
0 3 V
5 2 V
0 3 V
0 3 V
0 2 V
0 3 V
5 2 V
0 3 V
0 2 V
0 3 V
0 2 V
6 3 V
0 2 V
0 3 V
0 2 V
0 2 V
5 3 V
0 2 V
0 2 V
0 2 V
5 2 V
0 3 V
0 2 V
0 2 V
5 2 V
0 2 V
0 2 V
0 2 V
0 2 V
0 2 V
0 2 V
5 2 V
0 2 V
0 2 V
0 2 V
0 2 V
5 2 V
0 2 V
0 2 V
0 1 V
2 2 V
3 2 V
0 2 V
0 2 V
2 1 V
0 2 V
4 2 V
0 2 V
0 1 V
0 2 V
1 2 V
0 1 V
4 2 V
0 2 V
0 1 V
0 2 V
1 1 V
0 2 V
0 2 V
4 1 V
0 2 V
0 1 V
0 2 V
0 1 V
0 2 V
5 1 V
0 2 V
0 1 V
0 2 V
0 1 V
0 2 V
0 1 V
5 2 V
0 1 V
0 2 V
0 1 V
0 1 V
0 2 V
5 1 V
0 1 V
0 -49 V
0 -29 V
stroke 6194 3105 M
0 29 V
0 -207 V
0 42 V
0 -140 V
0 52 V
0 -180 V
0 68 V
5 60 V
0 -210 V
0 82 V
0 68 V
0 60 V
0 -47 V
5 58 V
0 50 V
0 46 V
6 41 V
0 38 V
0 34 V
5 3 V
0 2 V
0 3 V
0 2 V
5 3 V
0 2 V
0 2 V
0 3 V
0 2 V
5 2 V
0 3 V
0 -40 V
0 -75 V
0 39 V
0 -129 V
0 47 V
0 -318 V
0 85 V
5 -190 V
0 105 V
0 -246 V
0 141 V
0 141 V
5 79 V
0 -79 V
0 79 V
0 -79 V
0 79 V
0 -79 V
0 79 V
0 -299 V
0 124 V
0 96 V
5 -395 V
0 429 V
0 73 V
0 63 V
0 -336 V
0 111 V
0 89 V
5 -89 V
0 89 V
0 -351 V
0 70 V
0 51 V
6 41 V
0 34 V
5 29 V
5 26 V
0 23 V
6 20 V
0 19 V
5 17 V
0 16 V
5 15 V
0 14 V
6 13 V
0 12 V
5 12 V
1 11 V
0 10 V
4 10 V
1 10 V
0 9 V
4 9 V
1 8 V
0 8 V
4 8 V
1 7 V
0 8 V
4 7 V
0 6 V
1 7 V
0 6 V
4 7 V
0 6 V
1 6 V
0 5 V
0 6 V
4 5 V
0 5 V
1 6 V
0 5 V
5 5 V
0 4 V
stroke 6324 2915 M
1 5 V
0 5 V
4 4 V
0 5 V
1 4 V
0 4 V
4 4 V
0 4 V
1 4 V
0 4 V
0 4 V
4 4 V
0 4 V
1 3 V
0 4 V
0 4 V
4 3 V
0 3 V
1 4 V
0 3 V
4 3 V
0 4 V
1 3 V
0 3 V
0 3 V
4 3 V
0 3 V
1 3 V
0 3 V
0 3 V
4 3 V
1 3 V
0 2 V
5 3 V
0 3 V
1 2 V
0 3 V
0 3 V
4 2 V
0 3 V
0 2 V
1 3 V
0 2 V
0 3 V
4 2 V
0 2 V
1 3 V
0 2 V
0 2 V
0 3 V
4 2 V
0 2 V
0 2 V
1 2 V
0 3 V
0 2 V
0 2 V
4 2 V
0 2 V
0 2 V
1 2 V
0 2 V
4 2 V
0 2 V
0 2 V
2 2 V
0 2 V
0 2 V
4 2 V
0 2 V
0 1 V
1 2 V
0 2 V
4 2 V
0 2 V
2 1 V
0 2 V
0 2 V
0 2 V
3 1 V
0 2 V
0 2 V
0 2 V
2 1 V
0 2 V
0 2 V
3 1 V
0 2 V
0 1 V
2 2 V
0 2 V
0 1 V
0 2 V
3 1 V
0 2 V
0 1 V
2 2 V
0 1 V
0 2 V
3 1 V
0 2 V
0 1 V
2 2 V
0 1 V
stroke 6423 3172 M
0 2 V
4 1 V
0 1 V
0 2 V
0 1 V
1 2 V
0 1 V
2 1 V
0 2 V
2 1 V
0 1 V
1 2 V
0 1 V
2 1 V
0 2 V
2 1 V
0 1 V
0 2 V
1 1 V
0 1 V
0 1 V
2 2 V
0 1 V
2 1 V
0 -49 V
0 -27 V
0 27 V
0 25 V
0 -52 V
0 27 V
0 -155 V
0 36 V
2 -75 V
0 39 V
0 -129 V
0 47 V
1 -101 V
0 54 V
2 -115 V
0 61 V
0 -132 V
0 71 V
0 84 V
2 -90 V
0 -72 V
0 72 V
1 -72 V
0 72 V
3 -72 V
0 72 V
0 62 V
0 -62 V
0 62 V
0 -330 V
3 154 V
2 -96 V
0 96 V
0 -220 V
0 124 V
0 96 V
0 79 V
2 -474 V
3 96 V
0 64 V
5 49 V
5 39 V
5 33 V
6 28 V
5 25 V
0 22 V
5 21 V
0 18 V
5 17 V
0 16 V
5 14 V
0 14 V
5 13 V
0 12 V
5 11 V
0 11 V
0 11 V
5 9 V
0 10 V
0 9 V
6 9 V
0 8 V
0 8 V
0 8 V
5 7 V
0 7 V
0 7 V
5 7 V
0 7 V
0 20 V
0 -271 V
0 85 V
5 -85 V
0 85 V
0 -190 V
0 105 V
0 85 V
5 -49 V
0 -395 V
0 175 V
stroke 6545 2416 M
0 124 V
0 -299 V
0 175 V
5 -175 V
0 175 V
0 124 V
0 -299 V
0 96 V
8 64 V
5 49 V
5 39 V
6 33 V
5 28 V
5 25 V
0 22 V
5 21 V
0 18 V
5 17 V
0 16 V
5 14 V
0 14 V
5 13 V
0 12 V
5 11 V
0 11 V
0 11 V
6 9 V
0 10 V
0 9 V
5 9 V
0 8 V
0 8 V
5 8 V
0 13 V
0 -128 V
0 68 V
1 -251 V
0 101 V
4 -233 V
0 132 V
0 101 V
1 17 V
4 79 V
0 -474 V
0 175 V
0 -175 V
5 96 V
5 64 V
6 49 V
5 39 V
0 33 V
5 28 V
5 25 V
0 22 V
5 21 V
0 18 V
5 17 V
0 16 V
5 14 V
0 14 V
6 13 V
0 12 V
5 11 V
0 49 V
0 -366 V
0 124 V
5 -299 V
0 175 V
0 124 V
5 96 V
0 79 V
0 67 V
0 58 V
0 -58 V
0 58 V
0 -204 V
0 79 V
0 -474 V
5 96 V
0 64 V
5 49 V
5 39 V
5 33 V
6 28 V
5 25 V
0 22 V
0 -1777 V
% End plot #4
% Begin plot #5
2.000 UP
stroke
LTb
LT1
0.00 0.00 0.63 C 1136 2241 Circle
1340 2866 Circle
1537 2898 Circle
1725 2769 Circle
1915 3062 Circle
2072 2943 Circle
2170 3175 Circle
2233 2756 Circle
2389 2888 Circle
2574 2792 Circle
2692 3135 Circle
2835 2868 Circle
2965 3007 Circle
3079 2900 Circle
3229 2788 Circle
3384 2856 Circle
3477 3149 Circle
3622 2813 Circle
3781 2808 Circle
3878 2416 Circle
4172 2416 Circle
4317 2744 Circle
4466 2241 Circle
4708 2416 Circle
4872 2416 Circle
5037 2972 Circle
5168 2749 Circle
5332 3001 Circle
5429 2967 Circle
5550 2922 Circle
5669 3002 Circle
5797 3029 Circle
5907 2970 Circle
6045 2807 Circle
6169 3138 Circle
6261 2570 Circle
6390 3105 Circle
6458 2636 Circle
6671 2636 Circle
% End plot #5
% Begin plot #6
2.000 UP
1.000 UL
LTb
LT1
0.00 0.00 0.63 C LCb setrgbcolor
4127 153 M
[ [(Arial) 180.0 0.0 true true 0 (per-packet)]
] -60.0 MRshow
2.000 UP
1.000 UL
LTb
LT1
0.00 0.00 0.63 C 1136 2241 Circle
4401 153 Circle
% End plot #6
% Begin plot #7
1.000 UL
LTb
LT3
0.00 0.38 0.82 C 1136 2241 M
5 175 V
5 124 V
5 96 V
0 79 V
5 67 V
0 58 V
0 50 V
6 46 V
0 41 V
0 38 V
0 34 V
5 32 V
0 30 V
0 28 V
0 26 V
0 25 V
0 23 V
6 22 V
0 21 V
0 21 V
0 19 V
0 18 V
0 18 V
0 17 V
0 16 V
0 16 V
5 15 V
0 15 V
0 14 V
0 13 V
0 14 V
0 13 V
0 12 V
0 12 V
0 12 V
0 12 V
0 11 V
0 11 V
0 11 V
0 10 V
6 10 V
0 10 V
0 10 V
0 9 V
0 10 V
0 9 V
0 9 V
0 8 V
0 9 V
0 8 V
0 8 V
0 8 V
0 8 V
0 8 V
0 8 V
0 7 V
0 8 V
0 7 V
0 7 V
0 7 V
0 7 V
7 7 V
0 -267 V
0 12 V
0 12 V
5 12 V
0 11 V
0 11 V
0 11 V
0 -11 V
0 11 V
6 -11 V
0 11 V
6 -11 V
0 11 V
6 -11 V
0 11 V
5 -11 V
0 11 V
6 -11 V
0 11 V
6 -11 V
0 11 V
5 -11 V
0 11 V
6 -11 V
0 11 V
6 -11 V
0 11 V
6 -11 V
0 11 V
5 -11 V
0 11 V
6 -22 V
0 11 V
6 -11 V
0 11 V
6 -11 V
0 11 V
6 -1588 V
0 300 V
6 175 V
0 124 V
6 96 V
stroke 1295 2636 M
0 79 V
0 67 V
0 58 V
5 50 V
0 46 V
0 41 V
0 38 V
0 34 V
1 32 V
0 30 V
5 28 V
0 26 V
0 25 V
0 23 V
0 22 V
0 21 V
0 21 V
0 19 V
0 18 V
0 18 V
1 17 V
5 1 V
0 1 V
0 1 V
0 1 V
0 1 V
0 -229 V
0 27 V
0 26 V
0 -53 V
0 27 V
0 -56 V
0 29 V
0 -59 V
0 30 V
6 -64 V
0 34 V
0 -70 V
0 36 V
0 -75 V
0 39 V
0 -82 V
0 43 V
0 -91 V
0 48 V
0 -102 V
0 54 V
0 -116 V
0 62 V
0 -134 V
0 72 V
0 -159 V
0 87 V
0 -196 V
0 109 V
0 124 V
0 -37 V
0 72 V
6 62 V
0 54 V
0 48 V
0 43 V
0 39 V
0 36 V
0 34 V
0 30 V
0 29 V
0 -29 V
0 29 V
0 -59 V
0 30 V
0 -64 V
0 34 V
0 -70 V
0 36 V
0 -695 V
6 64 V
0 49 V
0 39 V
0 33 V
0 28 V
0 25 V
0 22 V
5 21 V
0 18 V
6 17 V
0 16 V
5 14 V
0 14 V
5 13 V
0 12 V
5 11 V
0 11 V
0 11 V
5 9 V
0 10 V
0 9 V
6 9 V
0 8 V
0 8 V
5 8 V
0 7 V
0 7 V
6 7 V
stroke 1378 2837 M
0 7 V
0 7 V
5 6 V
0 6 V
0 6 V
0 6 V
6 6 V
0 5 V
0 5 V
0 6 V
5 5 V
0 5 V
0 5 V
0 5 V
5 4 V
0 5 V
0 4 V
0 5 V
6 4 V
0 4 V
0 4 V
0 4 V
6 4 V
0 4 V
0 4 V
0 4 V
0 4 V
5 3 V
0 4 V
1 3 V
0 4 V
0 3 V
37 4 V
0 3 V
0 3 V
6 3 V
0 4 V
6 3 V
0 3 V
0 3 V
6 3 V
0 3 V
5 3 V
1 3 V
0 2 V
5 3 V
0 3 V
0 3 V
0 2 V
0 3 V
0 3 V
5 2 V
0 3 V
0 2 V
1 3 V
0 2 V
0 3 V
5 2 V
0 3 V
0 2 V
0 2 V
0 3 V
0 2 V
5 2 V
0 2 V
0 3 V
0 2 V
0 2 V
0 2 V
6 2 V
0 2 V
0 2 V
0 2 V
0 2 V
5 3 V
0 2 V
0 2 V
0 1 V
0 2 V
0 2 V
0 2 V
6 2 V
0 2 V
0 2 V
0 2 V
0 2 V
0 1 V
0 2 V
6 2 V
0 2 V
0 2 V
0 1 V
6 2 V
0 2 V
0 2 V
0 1 V
5 2 V
0 2 V
0 1 V
0 2 V
6 1 V
0 2 V
0 2 V
0 1 V
stroke 1539 3151 M
0 2 V
5 1 V
0 2 V
0 2 V
0 1 V
0 2 V
0 1 V
0 2 V
0 1 V
5 2 V
0 1 V
0 2 V
0 1 V
0 1 V
0 2 V
0 1 V
0 2 V
6 1 V
0 2 V
0 1 V
0 1 V
0 2 V
0 1 V
0 1 V
0 2 V
5 1 V
0 1 V
0 2 V
0 1 V
0 1 V
0 2 V
0 1 V
6 1 V
0 1 V
0 2 V
0 1 V
0 1 V
0 1 V
5 2 V
0 1 V
0 1 V
0 1 V
0 2 V
0 1 V
0 1 V
0 1 V
0 1 V
6 2 V
0 1 V
0 1 V
0 1 V
0 1 V
0 1 V
0 1 V
0 2 V
0 1 V
5 1 V
0 1 V
0 1 V
0 1 V
0 1 V
0 1 V
0 1 V
6 1 V
0 2 V
0 1 V
0 1 V
5 1 V
0 1 V
0 1 V
0 1 V
0 1 V
0 1 V
0 1 V
6 1 V
0 1 V
0 1 V
0 1 V
0 1 V
0 1 V
0 1 V
0 1 V
0 1 V
0 1 V
5 1 V
0 1 V
0 1 V
0 1 V
0 1 V
0 1 V
0 1 V
0 1 V
0 1 V
0 1 V
5 1 V
0 1 V
0 1 V
0 1 V
0 1 V
0 1 V
0 1 V
0 1 V
0 1 V
6 1 V
stroke 1615 3275 M
0 1 V
0 1 V
0 1 V
0 1 V
0 1 V
5 1 V
0 1 V
0 1 V
0 1 V
0 1 V
0 1 V
0 1 V
1 1 V
4 1 V
0 1 V
10 1 V
0 1 V
6 1 V
0 1 V
0 1 V
0 1 V
5 1 V
0 1 V
0 1 V
0 1 V
1 1 V
0 1 V
0 1 V
0 1 V
4 1 V
1 0 V
0 1 V
0 1 V
0 1 V
0 1 V
5 1 V
0 1 V
0 1 V
0 1 V
0 1 V
0 1 V
1 1 V
4 1 V
0 1 V
0 1 V
0 1 V
0 1 V
1 1 V
4 1 V
0 1 V
0 1 V
0 1 V
0 1 V
0 1 V
1 0 V
0 1 V
0 1 V
5 1 V
0 1 V
0 1 V
0 1 V
0 1 V
0 1 V
0 1 V
0 1 V
5 1 V
0 1 V
0 1 V
0 1 V
0 1 V
0 1 V
1 1 V
0 1 V
5 1 V
0 1 V
0 1 V
0 1 V
0 1 V
0 1 V
0 1 V
5 1 V
0 1 V
0 1 V
0 1 V
0 1 V
0 1 V
0 1 V
5 1 V
0 1 V
0 1 V
0 1 V
0 1 V
0 1 V
0 1 V
0 1 V
5 1 V
0 1 V
0 1 V
0 1 V
0 1 V
0 1 V
1 0 V
0 1 V
0 1 V
stroke 1700 3376 M
4 0 V
0 1 V
0 1 V
0 1 V
0 1 V
1 1 V
0 1 V
4 0 V
0 1 V
0 1 V
0 1 V
0 1 V
1 0 V
0 1 V
0 1 V
5 1 V
0 1 V
0 1 V
0 1 V
0 1 V
0 1 V
0 1 V
5 1 V
0 1 V
0 1 V
0 1 V
0 1 V
0 1 V
0 1 V
5 1 V
0 1 V
0 1 V
0 1 V
0 1 V
0 1 V
0 1 V
5 1 V
0 1 V
0 1 V
0 1 V
0 1 V
5 1 V
0 1 V
0 1 V
0 1 V
1 0 V
0 1 V
4 0 V
0 1 V
0 1 V
0 1 V
0 1 V
1 0 V
0 1 V
0 1 V
5 1 V
0 1 V
0 1 V
0 1 V
0 1 V
1 0 V
0 1 V
0 1 V
4 0 V
0 1 V
0 1 V
0 1 V
1 1 V
0 1 V
4 1 V
0 1 V
0 1 V
1 0 V
0 1 V
4 1 V
0 1 V
0 1 V
1 1 V
0 1 V
4 1 V
0 1 V
0 1 V
0 1 V
0 1 V
2 0 V
0 1 V
3 1 V
0 1 V
0 1 V
0 1 V
2 1 V
0 1 V
4 0 V
0 1 V
0 1 V
1 1 V
4 0 V
0 1 V
0 1 V
1 1 V
0 1 V
5 0 V
0 1 V
0 1 V
stroke 1788 3467 M
14 1 V
0 1 V
0 1 V
5 0 V
0 1 V
0 1 V
0 1 V
5 0 V
0 1 V
0 1 V
1 1 V
5 1 V
0 1 V
1 0 V
0 1 V
4 1 V
0 1 V
1 1 V
4 1 V
0 1 V
0 1 V
2 0 V
0 1 V
4 0 V
0 1 V
14 1 V
0 1 V
5 0 V
0 1 V
0 1 V
0 1 V
5 0 V
0 1 V
0 1 V
0 1 V
5 1 V
0 1 V
0 1 V
0 1 V
0 1 V
0 1 V
5 0 V
0 1 V
0 1 V
0 1 V
0 1 V
0 1 V
0 1 V
5 0 V
0 1 V
0 1 V
0 1 V
1 0 V
0 1 V
0 1 V
5 0 V
0 1 V
1 1 V
0 1 V
4 0 V
0 1 V
0 1 V
1 1 V
0 1 V
4 0 V
0 1 V
0 1 V
0 1 V
0 1 V
1 1 V
5 0 V
0 1 V
0 1 V
0 1 V
5 0 V
0 1 V
0 1 V
0 1 V
5 1 V
1 0 V
0 1 V
0 1 V
4 0 V
1 1 V
0 1 V
4 1 V
1 0 V
0 1 V
1 0 V
0 1 V
4 0 V
0 1 V
0 1 V
1 0 V
0 1 V
0 1 V
4 1 V
0 1 V
0 1 V
1 0 V
0 1 V
0 1 V
4 1 V
0 1 V
stroke 1931 3549 M
1 0 V
0 1 V
0 1 V
0 1 V
5 0 V
0 1 V
0 1 V
0 1 V
0 1 V
5 0 V
1 0 V
0 1 V
0 1 V
0 1 V
4 0 V
0 1 V
0 1 V
0 1 V
1 1 V
4 0 V
0 1 V
0 1 V
1 0 V
0 1 V
0 1 V
5 0 V
0 1 V
0 1 V
0 1 V
1 0 V
4 1 V
0 1 V
1 0 V
0 1 V
0 1 V
4 0 V
0 1 V
1 0 V
0 1 V
0 1 V
5 0 V
0 1 V
0 1 V
13 0 V
0 1 V
14 1 V
0 1 V
6 0 V
0 1 V
0 1 V
5 1 V
0 1 V
1 0 V
0 1 V
4 0 V
0 1 V
0 1 V
1 0 V
0 1 V
5 0 V
0 1 V
0 1 V
0 1 V
5 0 V
0 1 V
0 1 V
5 0 V
0 1 V
0 1 V
6 1 V
0 1 V
5 1 V
0 1 V
1 0 V
0 1 V
5 0 V
0 1 V
1 1 V
5 0 V
0 1 V
0 1 V
6 0 V
0 1 V
0 1 V
5 1 V
0 1 V
0 1 V
5 0 V
0 1 V
1 0 V
0 1 V
5 0 V
0 1 V
0 1 V
5 0 V
0 1 V
0 1 V
87 -1676 V
14 300 V
5 175 V
5 124 V
5 96 V
0 79 V
6 67 V
stroke 2205 2782 M
0 58 V
0 50 V
5 46 V
0 41 V
0 38 V
0 34 V
5 32 V
0 30 V
0 28 V
0 26 V
0 25 V
0 23 V
6 22 V
0 21 V
0 21 V
0 19 V
0 18 V
0 1 V
0 1 V
5 0 V
0 1 V
0 1 V
0 1 V
0 1 V
5 1 V
0 1 V
0 1 V
0 1 V
0 1 V
0 1 V
0 1 V
0 1 V
0 1 V
5 0 V
0 1 V
0 1 V
0 1 V
0 1 V
0 1 V
0 1 V
0 1 V
0 1 V
5 0 V
0 1 V
0 1 V
0 1 V
0 1 V
0 1 V
0 1 V
0 1 V
0 1 V
6 0 V
0 1 V
0 1 V
0 1 V
5 1 V
0 1 V
0 1 V
0 1 V
5 1 V
0 1 V
0 1 V
0 1 V
6 1 V
0 1 V
0 1 V
0 1 V
5 1 V
0 1 V
0 1 V
0 1 V
0 1 V
0 1 V
5 0 V
0 1 V
0 1 V
0 1 V
0 1 V
0 1 V
0 1 V
0 1 V
5 1 V
0 1 V
1 1 V
4 1 V
0 1 V
0 1 V
14 0 V
0 1 V
0 1 V
5 0 V
0 1 V
0 1 V
0 1 V
0 1 V
6 0 V
0 1 V
0 1 V
0 1 V
5 1 V
0 1 V
0 1 V
0 1 V
0 1 V
stroke 2313 3393 M
5 0 V
0 1 V
1 1 V
0 1 V
0 1 V
0 1 V
0 1 V
0 1 V
5 1 V
0 1 V
0 1 V
0 1 V
0 1 V
0 1 V
5 0 V
0 1 V
0 1 V
0 1 V
0 1 V
0 1 V
5 0 V
0 1 V
0 1 V
0 1 V
6 1 V
0 1 V
0 1 V
0 1 V
0 1 V
6 1 V
0 1 V
0 1 V
5 1 V
0 1 V
0 1 V
0 1 V
6 0 V
0 1 V
0 1 V
0 1 V
5 0 V
0 1 V
0 1 V
0 1 V
5 1 V
0 1 V
0 1 V
6 1 V
0 1 V
0 1 V
0 1 V
5 0 V
0 1 V
0 1 V
0 1 V
1 0 V
4 0 V
0 1 V
0 1 V
0 1 V
0 1 V
1 0 V
0 1 V
4 0 V
0 1 V
0 1 V
0 1 V
0 1 V
2 1 V
3 0 V
0 1 V
0 1 V
0 1 V
0 1 V
2 1 V
3 0 V
0 1 V
0 1 V
0 1 V
0 1 V
0 1 V
2 1 V
4 0 V
0 1 V
0 1 V
1 1 V
4 0 V
0 1 V
0 1 V
0 1 V
2 0 V
3 0 V
0 1 V
0 1 V
0 1 V
0 1 V
0 1 V
2 0 V
0 1 V
3 0 V
0 1 V
0 1 V
0 1 V
0 1 V
stroke 2419 3479 M
0 1 V
2 0 V
0 1 V
4 0 V
0 1 V
0 1 V
0 1 V
0 1 V
0 1 V
1 0 V
4 0 V
0 1 V
0 1 V
1 1 V
4 0 V
0 1 V
9 1 V
0 1 V
0 1 V
6 0 V
0 1 V
0 1 V
5 1 V
0 1 V
0 1 V
5 1 V
0 1 V
0 1 V
1 0 V
0 1 V
0 1 V
5 0 V
0 1 V
0 1 V
0 1 V
0 1 V
5 0 V
0 1 V
0 1 V
5 1 V
0 1 V
0 1 V
5 0 V
0 1 V
0 1 V
0 1 V
5 0 V
0 1 V
0 1 V
0 1 V
5 0 V
0 1 V
0 1 V
5 0 V
0 1 V
0 1 V
0 1 V
5 0 V
0 1 V
0 1 V
1 1 V
5 0 V
0 1 V
0 1 V
0 1 V
5 0 V
0 1 V
0 1 V
5 0 V
0 1 V
0 1 V
0 1 V
5 0 V
0 1 V
0 1 V
5 0 V
0 1 V
0 1 V
0 1 V
5 0 V
0 1 V
0 1 V
5 1 V
0 1 V
0 1 V
6 0 V
0 1 V
0 1 V
5 1 V
0 1 V
0 1 V
5 1 V
0 1 V
0 1 V
5 0 V
0 1 V
0 1 V
5 1 V
0 1 V
0 1 V
5 0 V
0 1 V
0 1 V
5 0 V
stroke 2573 3559 M
0 1 V
0 1 V
0 1 V
5 0 V
0 1 V
0 1 V
1 0 V
5 0 V
0 1 V
0 1 V
0 1 V
5 0 V
0 1 V
0 1 V
0 1 V
0 1 V
5 1 V
14 0 V
0 1 V
5 0 V
0 1 V
14 0 V
5 1 V
14 0 V
0 1 V
5 0 V
0 1 V
0 1 V
5 1 V
0 1 V
0 1 V
5 0 V
0 1 V
0 1 V
5 0 V
0 1 V
0 1 V
0 1 V
5 0 V
0 1 V
0 1 V
0 1 V
0 1 V
5 0 V
0 1 V
0 1 V
5 1 V
0 1 V
0 1 V
6 0 V
0 1 V
0 1 V
5 0 V
0 1 V
0 1 V
5 0 V
0 1 V
0 1 V
5 0 V
0 1 V
0 1 V
0 1 V
5 0 V
0 1 V
0 1 V
0 1 V
0 1 V
0 1 V
5 0 V
0 1 V
0 1 V
0 1 V
5 1 V
0 1 V
6 1 V
0 1 V
0 1 V
5 0 V
0 1 V
0 1 V
0 1 V
5 1 V
0 1 V
0 1 V
5 0 V
0 1 V
0 1 V
5 0 V
0 1 V
0 1 V
5 0 V
0 1 V
0 1 V
5 0 V
0 1 V
0 1 V
5 0 V
14 1 V
14 0 V
14 0 V
0 1 V
5 0 V
0 1 V
0 1 V
stroke 2805 3635 M
5 0 V
0 1 V
0 1 V
5 0 V
0 1 V
0 1 V
5 1 V
0 1 V
6 1 V
0 1 V
0 1 V
5 0 V
0 1 V
0 -2825 V
% End plot #7
% Begin plot #8
2.000 UP
stroke
LTb
LT3
0.00 0.38 0.82 C 1136 2241 TriU
1673 3336 TriU
1921 3538 TriU
2308 3385 TriU
2568 3559 TriU
% End plot #8
% Begin plot #9
2.000 UP
1.000 UL
LTb
LT3
0.00 0.38 0.82 C LCb setrgbcolor
5540 153 M
[ [(Arial) 180.0 0.0 true true 0 (per-flow)]
] -60.0 MRshow
2.000 UP
1.000 UL
LTb
LT3
0.00 0.38 0.82 C 1136 2241 TriU
5814 153 TriU
% End plot #9
2.000 UL
LTb
LCb setrgbcolor
1.000 UP
1.000 UL
LTb
0.00 0.00 0.00 C stroke
grestore
end
showpage
%%Trailer
%%DocumentFonts: Arial
