%!PS-Adobe-2.0 EPSF-2.0
%%Title: TcpVeno-cwnd-1Mbps-UE21.eps
%%Creator: gnuplot 5.0 patchlevel 3
%%CreationDate: Tue May 24 14:35:37 2016
%%DocumentFonts: (atend)
%%BoundingBox: 50 50 410 302
%%EndComments
%%BeginProlog
/gnudict 256 dict def
gnudict begin
%
% The following true/false flags may be edited by hand if desired.
% The unit line width and grayscale image gamma correction may also be changed.
%
/Color true def
/Blacktext false def
/Solid false def
/Dashlength 3 def
/Landscape false def
/Level1 false def
/Level3 false def
/Rounded false def
/ClipToBoundingBox false def
/SuppressPDFMark false def
/TransparentPatterns false def
/gnulinewidth 15.000 def
/userlinewidth gnulinewidth def
/Gamma 1.0 def
/BackgroundColor {-1.000 -1.000 -1.000} def
%
/vshift -66 def
/dl1 {
  10.0 Dashlength userlinewidth gnulinewidth div mul mul mul
  Rounded { currentlinewidth 0.75 mul sub dup 0 le { pop 0.01 } if } if
} def
/dl2 {
  10.0 Dashlength userlinewidth gnulinewidth div mul mul mul
  Rounded { currentlinewidth 0.75 mul add } if
} def
/hpt_ 31.5 def
/vpt_ 31.5 def
/hpt hpt_ def
/vpt vpt_ def
/doclip {
  ClipToBoundingBox {
    newpath 50 50 moveto 410 50 lineto 410 302 lineto 50 302 lineto closepath
    clip
  } if
} def
%
% Gnuplot Prolog Version 5.1 (Oct 2015)
%
%/SuppressPDFMark true def
%
/M {moveto} bind def
/L {lineto} bind def
/R {rmoveto} bind def
/V {rlineto} bind def
/N {newpath moveto} bind def
/Z {closepath} bind def
/C {setrgbcolor} bind def
/f {rlineto fill} bind def
/g {setgray} bind def
/Gshow {show} def   % May be redefined later in the file to support UTF-8
/vpt2 vpt 2 mul def
/hpt2 hpt 2 mul def
/Lshow {currentpoint stroke M 0 vshift R 
	Blacktext {gsave 0 setgray textshow grestore} {textshow} ifelse} def
/Rshow {currentpoint stroke M dup stringwidth pop neg vshift R
	Blacktext {gsave 0 setgray textshow grestore} {textshow} ifelse} def
/Cshow {currentpoint stroke M dup stringwidth pop -2 div vshift R 
	Blacktext {gsave 0 setgray textshow grestore} {textshow} ifelse} def
/UP {dup vpt_ mul /vpt exch def hpt_ mul /hpt exch def
  /hpt2 hpt 2 mul def /vpt2 vpt 2 mul def} def
/DL {Color {setrgbcolor Solid {pop []} if 0 setdash}
 {pop pop pop 0 setgray Solid {pop []} if 0 setdash} ifelse} def
/BL {stroke userlinewidth 2 mul setlinewidth
	Rounded {1 setlinejoin 1 setlinecap} if} def
/AL {stroke userlinewidth 2 div setlinewidth
	Rounded {1 setlinejoin 1 setlinecap} if} def
/UL {dup gnulinewidth mul /userlinewidth exch def
	dup 1 lt {pop 1} if 10 mul /udl exch def} def
/PL {stroke userlinewidth setlinewidth
	Rounded {1 setlinejoin 1 setlinecap} if} def
3.8 setmiterlimit
% Classic Line colors (version 5.0)
/LCw {1 1 1} def
/LCb {0 0 0} def
/LCa {0 0 0} def
/LC0 {1 0 0} def
/LC1 {0 1 0} def
/LC2 {0 0 1} def
/LC3 {1 0 1} def
/LC4 {0 1 1} def
/LC5 {1 1 0} def
/LC6 {0 0 0} def
/LC7 {1 0.3 0} def
/LC8 {0.5 0.5 0.5} def
% Default dash patterns (version 5.0)
/LTB {BL [] LCb DL} def
/LTw {PL [] 1 setgray} def
/LTb {PL [] LCb DL} def
/LTa {AL [1 udl mul 2 udl mul] 0 setdash LCa setrgbcolor} def
/LT0 {PL [] LC0 DL} def
/LT1 {PL [2 dl1 3 dl2] LC1 DL} def
/LT2 {PL [1 dl1 1.5 dl2] LC2 DL} def
/LT3 {PL [6 dl1 2 dl2 1 dl1 2 dl2] LC3 DL} def
/LT4 {PL [1 dl1 2 dl2 6 dl1 2 dl2 1 dl1 2 dl2] LC4 DL} def
/LT5 {PL [4 dl1 2 dl2] LC5 DL} def
/LT6 {PL [1.5 dl1 1.5 dl2 1.5 dl1 1.5 dl2 1.5 dl1 6 dl2] LC6 DL} def
/LT7 {PL [3 dl1 3 dl2 1 dl1 3 dl2] LC7 DL} def
/LT8 {PL [2 dl1 2 dl2 2 dl1 6 dl2] LC8 DL} def
/SL {[] 0 setdash} def
/Pnt {stroke [] 0 setdash gsave 1 setlinecap M 0 0 V stroke grestore} def
/Dia {stroke [] 0 setdash 2 copy vpt add M
  hpt neg vpt neg V hpt vpt neg V
  hpt vpt V hpt neg vpt V closepath stroke
  Pnt} def
/Pls {stroke [] 0 setdash vpt sub M 0 vpt2 V
  currentpoint stroke M
  hpt neg vpt neg R hpt2 0 V stroke
 } def
/Box {stroke [] 0 setdash 2 copy exch hpt sub exch vpt add M
  0 vpt2 neg V hpt2 0 V 0 vpt2 V
  hpt2 neg 0 V closepath stroke
  Pnt} def
/Crs {stroke [] 0 setdash exch hpt sub exch vpt add M
  hpt2 vpt2 neg V currentpoint stroke M
  hpt2 neg 0 R hpt2 vpt2 V stroke} def
/TriU {stroke [] 0 setdash 2 copy vpt 1.12 mul add M
  hpt neg vpt -1.62 mul V
  hpt 2 mul 0 V
  hpt neg vpt 1.62 mul V closepath stroke
  Pnt} def
/Star {2 copy Pls Crs} def
/BoxF {stroke [] 0 setdash exch hpt sub exch vpt add M
  0 vpt2 neg V hpt2 0 V 0 vpt2 V
  hpt2 neg 0 V closepath fill} def
/TriUF {stroke [] 0 setdash vpt 1.12 mul add M
  hpt neg vpt -1.62 mul V
  hpt 2 mul 0 V
  hpt neg vpt 1.62 mul V closepath fill} def
/TriD {stroke [] 0 setdash 2 copy vpt 1.12 mul sub M
  hpt neg vpt 1.62 mul V
  hpt 2 mul 0 V
  hpt neg vpt -1.62 mul V closepath stroke
  Pnt} def
/TriDF {stroke [] 0 setdash vpt 1.12 mul sub M
  hpt neg vpt 1.62 mul V
  hpt 2 mul 0 V
  hpt neg vpt -1.62 mul V closepath fill} def
/DiaF {stroke [] 0 setdash vpt add M
  hpt neg vpt neg V hpt vpt neg V
  hpt vpt V hpt neg vpt V closepath fill} def
/Pent {stroke [] 0 setdash 2 copy gsave
  translate 0 hpt M 4 {72 rotate 0 hpt L} repeat
  closepath stroke grestore Pnt} def
/PentF {stroke [] 0 setdash gsave
  translate 0 hpt M 4 {72 rotate 0 hpt L} repeat
  closepath fill grestore} def
/Circle {stroke [] 0 setdash 2 copy
  hpt 0 360 arc stroke Pnt} def
/CircleF {stroke [] 0 setdash hpt 0 360 arc fill} def
/C0 {BL [] 0 setdash 2 copy moveto vpt 90 450 arc} bind def
/C1 {BL [] 0 setdash 2 copy moveto
	2 copy vpt 0 90 arc closepath fill
	vpt 0 360 arc closepath} bind def
/C2 {BL [] 0 setdash 2 copy moveto
	2 copy vpt 90 180 arc closepath fill
	vpt 0 360 arc closepath} bind def
/C3 {BL [] 0 setdash 2 copy moveto
	2 copy vpt 0 180 arc closepath fill
	vpt 0 360 arc closepath} bind def
/C4 {BL [] 0 setdash 2 copy moveto
	2 copy vpt 180 270 arc closepath fill
	vpt 0 360 arc closepath} bind def
/C5 {BL [] 0 setdash 2 copy moveto
	2 copy vpt 0 90 arc
	2 copy moveto
	2 copy vpt 180 270 arc closepath fill
	vpt 0 360 arc} bind def
/C6 {BL [] 0 setdash 2 copy moveto
	2 copy vpt 90 270 arc closepath fill
	vpt 0 360 arc closepath} bind def
/C7 {BL [] 0 setdash 2 copy moveto
	2 copy vpt 0 270 arc closepath fill
	vpt 0 360 arc closepath} bind def
/C8 {BL [] 0 setdash 2 copy moveto
	2 copy vpt 270 360 arc closepath fill
	vpt 0 360 arc closepath} bind def
/C9 {BL [] 0 setdash 2 copy moveto
	2 copy vpt 270 450 arc closepath fill
	vpt 0 360 arc closepath} bind def
/C10 {BL [] 0 setdash 2 copy 2 copy moveto vpt 270 360 arc closepath fill
	2 copy moveto
	2 copy vpt 90 180 arc closepath fill
	vpt 0 360 arc closepath} bind def
/C11 {BL [] 0 setdash 2 copy moveto
	2 copy vpt 0 180 arc closepath fill
	2 copy moveto
	2 copy vpt 270 360 arc closepath fill
	vpt 0 360 arc closepath} bind def
/C12 {BL [] 0 setdash 2 copy moveto
	2 copy vpt 180 360 arc closepath fill
	vpt 0 360 arc closepath} bind def
/C13 {BL [] 0 setdash 2 copy moveto
	2 copy vpt 0 90 arc closepath fill
	2 copy moveto
	2 copy vpt 180 360 arc closepath fill
	vpt 0 360 arc closepath} bind def
/C14 {BL [] 0 setdash 2 copy moveto
	2 copy vpt 90 360 arc closepath fill
	vpt 0 360 arc} bind def
/C15 {BL [] 0 setdash 2 copy vpt 0 360 arc closepath fill
	vpt 0 360 arc closepath} bind def
/Rec {newpath 4 2 roll moveto 1 index 0 rlineto 0 exch rlineto
	neg 0 rlineto closepath} bind def
/Square {dup Rec} bind def
/Bsquare {vpt sub exch vpt sub exch vpt2 Square} bind def
/S0 {BL [] 0 setdash 2 copy moveto 0 vpt rlineto BL Bsquare} bind def
/S1 {BL [] 0 setdash 2 copy vpt Square fill Bsquare} bind def
/S2 {BL [] 0 setdash 2 copy exch vpt sub exch vpt Square fill Bsquare} bind def
/S3 {BL [] 0 setdash 2 copy exch vpt sub exch vpt2 vpt Rec fill Bsquare} bind def
/S4 {BL [] 0 setdash 2 copy exch vpt sub exch vpt sub vpt Square fill Bsquare} bind def
/S5 {BL [] 0 setdash 2 copy 2 copy vpt Square fill
	exch vpt sub exch vpt sub vpt Square fill Bsquare} bind def
/S6 {BL [] 0 setdash 2 copy exch vpt sub exch vpt sub vpt vpt2 Rec fill Bsquare} bind def
/S7 {BL [] 0 setdash 2 copy exch vpt sub exch vpt sub vpt vpt2 Rec fill
	2 copy vpt Square fill Bsquare} bind def
/S8 {BL [] 0 setdash 2 copy vpt sub vpt Square fill Bsquare} bind def
/S9 {BL [] 0 setdash 2 copy vpt sub vpt vpt2 Rec fill Bsquare} bind def
/S10 {BL [] 0 setdash 2 copy vpt sub vpt Square fill 2 copy exch vpt sub exch vpt Square fill
	Bsquare} bind def
/S11 {BL [] 0 setdash 2 copy vpt sub vpt Square fill 2 copy exch vpt sub exch vpt2 vpt Rec fill
	Bsquare} bind def
/S12 {BL [] 0 setdash 2 copy exch vpt sub exch vpt sub vpt2 vpt Rec fill Bsquare} bind def
/S13 {BL [] 0 setdash 2 copy exch vpt sub exch vpt sub vpt2 vpt Rec fill
	2 copy vpt Square fill Bsquare} bind def
/S14 {BL [] 0 setdash 2 copy exch vpt sub exch vpt sub vpt2 vpt Rec fill
	2 copy exch vpt sub exch vpt Square fill Bsquare} bind def
/S15 {BL [] 0 setdash 2 copy Bsquare fill Bsquare} bind def
/D0 {gsave translate 45 rotate 0 0 S0 stroke grestore} bind def
/D1 {gsave translate 45 rotate 0 0 S1 stroke grestore} bind def
/D2 {gsave translate 45 rotate 0 0 S2 stroke grestore} bind def
/D3 {gsave translate 45 rotate 0 0 S3 stroke grestore} bind def
/D4 {gsave translate 45 rotate 0 0 S4 stroke grestore} bind def
/D5 {gsave translate 45 rotate 0 0 S5 stroke grestore} bind def
/D6 {gsave translate 45 rotate 0 0 S6 stroke grestore} bind def
/D7 {gsave translate 45 rotate 0 0 S7 stroke grestore} bind def
/D8 {gsave translate 45 rotate 0 0 S8 stroke grestore} bind def
/D9 {gsave translate 45 rotate 0 0 S9 stroke grestore} bind def
/D10 {gsave translate 45 rotate 0 0 S10 stroke grestore} bind def
/D11 {gsave translate 45 rotate 0 0 S11 stroke grestore} bind def
/D12 {gsave translate 45 rotate 0 0 S12 stroke grestore} bind def
/D13 {gsave translate 45 rotate 0 0 S13 stroke grestore} bind def
/D14 {gsave translate 45 rotate 0 0 S14 stroke grestore} bind def
/D15 {gsave translate 45 rotate 0 0 S15 stroke grestore} bind def
/DiaE {stroke [] 0 setdash vpt add M
  hpt neg vpt neg V hpt vpt neg V
  hpt vpt V hpt neg vpt V closepath stroke} def
/BoxE {stroke [] 0 setdash exch hpt sub exch vpt add M
  0 vpt2 neg V hpt2 0 V 0 vpt2 V
  hpt2 neg 0 V closepath stroke} def
/TriUE {stroke [] 0 setdash vpt 1.12 mul add M
  hpt neg vpt -1.62 mul V
  hpt 2 mul 0 V
  hpt neg vpt 1.62 mul V closepath stroke} def
/TriDE {stroke [] 0 setdash vpt 1.12 mul sub M
  hpt neg vpt 1.62 mul V
  hpt 2 mul 0 V
  hpt neg vpt -1.62 mul V closepath stroke} def
/PentE {stroke [] 0 setdash gsave
  translate 0 hpt M 4 {72 rotate 0 hpt L} repeat
  closepath stroke grestore} def
/CircE {stroke [] 0 setdash 
  hpt 0 360 arc stroke} def
/Opaque {gsave closepath 1 setgray fill grestore 0 setgray closepath} def
/DiaW {stroke [] 0 setdash vpt add M
  hpt neg vpt neg V hpt vpt neg V
  hpt vpt V hpt neg vpt V Opaque stroke} def
/BoxW {stroke [] 0 setdash exch hpt sub exch vpt add M
  0 vpt2 neg V hpt2 0 V 0 vpt2 V
  hpt2 neg 0 V Opaque stroke} def
/TriUW {stroke [] 0 setdash vpt 1.12 mul add M
  hpt neg vpt -1.62 mul V
  hpt 2 mul 0 V
  hpt neg vpt 1.62 mul V Opaque stroke} def
/TriDW {stroke [] 0 setdash vpt 1.12 mul sub M
  hpt neg vpt 1.62 mul V
  hpt 2 mul 0 V
  hpt neg vpt -1.62 mul V Opaque stroke} def
/PentW {stroke [] 0 setdash gsave
  translate 0 hpt M 4 {72 rotate 0 hpt L} repeat
  Opaque stroke grestore} def
/CircW {stroke [] 0 setdash 
  hpt 0 360 arc Opaque stroke} def
/BoxFill {gsave Rec 1 setgray fill grestore} def
/Density {
  /Fillden exch def
  currentrgbcolor
  /ColB exch def /ColG exch def /ColR exch def
  /ColR ColR Fillden mul Fillden sub 1 add def
  /ColG ColG Fillden mul Fillden sub 1 add def
  /ColB ColB Fillden mul Fillden sub 1 add def
  ColR ColG ColB setrgbcolor} def
/BoxColFill {gsave Rec PolyFill} def
/PolyFill {gsave Density fill grestore grestore} def
/h {rlineto rlineto rlineto gsave closepath fill grestore} bind def
%
% PostScript Level 1 Pattern Fill routine for rectangles
% Usage: x y w h s a XX PatternFill
%	x,y = lower left corner of box to be filled
%	w,h = width and height of box
%	  a = angle in degrees between lines and x-axis
%	 XX = 0/1 for no/yes cross-hatch
%
/PatternFill {gsave /PFa [ 9 2 roll ] def
  PFa 0 get PFa 2 get 2 div add PFa 1 get PFa 3 get 2 div add translate
  PFa 2 get -2 div PFa 3 get -2 div PFa 2 get PFa 3 get Rec
  TransparentPatterns {} {gsave 1 setgray fill grestore} ifelse
  clip
  currentlinewidth 0.5 mul setlinewidth
  /PFs PFa 2 get dup mul PFa 3 get dup mul add sqrt def
  0 0 M PFa 5 get rotate PFs -2 div dup translate
  0 1 PFs PFa 4 get div 1 add floor cvi
	{PFa 4 get mul 0 M 0 PFs V} for
  0 PFa 6 get ne {
	0 1 PFs PFa 4 get div 1 add floor cvi
	{PFa 4 get mul 0 2 1 roll M PFs 0 V} for
 } if
  stroke grestore} def
%
/languagelevel where
 {pop languagelevel} {1} ifelse
dup 2 lt
	{/InterpretLevel1 true def
	 /InterpretLevel3 false def}
	{/InterpretLevel1 Level1 def
	 2 gt
	    {/InterpretLevel3 Level3 def}
	    {/InterpretLevel3 false def}
	 ifelse }
 ifelse
%
% PostScript level 2 pattern fill definitions
%
/Level2PatternFill {
/Tile8x8 {/PaintType 2 /PatternType 1 /TilingType 1 /BBox [0 0 8 8] /XStep 8 /YStep 8}
	bind def
/KeepColor {currentrgbcolor [/Pattern /DeviceRGB] setcolorspace} bind def
<< Tile8x8
 /PaintProc {0.5 setlinewidth pop 0 0 M 8 8 L 0 8 M 8 0 L stroke} 
>> matrix makepattern
/Pat1 exch def
<< Tile8x8
 /PaintProc {0.5 setlinewidth pop 0 0 M 8 8 L 0 8 M 8 0 L stroke
	0 4 M 4 8 L 8 4 L 4 0 L 0 4 L stroke}
>> matrix makepattern
/Pat2 exch def
<< Tile8x8
 /PaintProc {0.5 setlinewidth pop 0 0 M 0 8 L
	8 8 L 8 0 L 0 0 L fill}
>> matrix makepattern
/Pat3 exch def
<< Tile8x8
 /PaintProc {0.5 setlinewidth pop -4 8 M 8 -4 L
	0 12 M 12 0 L stroke}
>> matrix makepattern
/Pat4 exch def
<< Tile8x8
 /PaintProc {0.5 setlinewidth pop -4 0 M 8 12 L
	0 -4 M 12 8 L stroke}
>> matrix makepattern
/Pat5 exch def
<< Tile8x8
 /PaintProc {0.5 setlinewidth pop -2 8 M 4 -4 L
	0 12 M 8 -4 L 4 12 M 10 0 L stroke}
>> matrix makepattern
/Pat6 exch def
<< Tile8x8
 /PaintProc {0.5 setlinewidth pop -2 0 M 4 12 L
	0 -4 M 8 12 L 4 -4 M 10 8 L stroke}
>> matrix makepattern
/Pat7 exch def
<< Tile8x8
 /PaintProc {0.5 setlinewidth pop 8 -2 M -4 4 L
	12 0 M -4 8 L 12 4 M 0 10 L stroke}
>> matrix makepattern
/Pat8 exch def
<< Tile8x8
 /PaintProc {0.5 setlinewidth pop 0 -2 M 12 4 L
	-4 0 M 12 8 L -4 4 M 8 10 L stroke}
>> matrix makepattern
/Pat9 exch def
/Pattern1 {PatternBgnd KeepColor Pat1 setpattern} bind def
/Pattern2 {PatternBgnd KeepColor Pat2 setpattern} bind def
/Pattern3 {PatternBgnd KeepColor Pat3 setpattern} bind def
/Pattern4 {PatternBgnd KeepColor Landscape {Pat5} {Pat4} ifelse setpattern} bind def
/Pattern5 {PatternBgnd KeepColor Landscape {Pat4} {Pat5} ifelse setpattern} bind def
/Pattern6 {PatternBgnd KeepColor Landscape {Pat9} {Pat6} ifelse setpattern} bind def
/Pattern7 {PatternBgnd KeepColor Landscape {Pat8} {Pat7} ifelse setpattern} bind def
} def
%
%
%End of PostScript Level 2 code
%
/PatternBgnd {
  TransparentPatterns {} {gsave 1 setgray fill grestore} ifelse
} def
%
% Substitute for Level 2 pattern fill codes with
% grayscale if Level 2 support is not selected.
%
/Level1PatternFill {
/Pattern1 {0.250 Density} bind def
/Pattern2 {0.500 Density} bind def
/Pattern3 {0.750 Density} bind def
/Pattern4 {0.125 Density} bind def
/Pattern5 {0.375 Density} bind def
/Pattern6 {0.625 Density} bind def
/Pattern7 {0.875 Density} bind def
} def
%
% Now test for support of Level 2 code
%
Level1 {Level1PatternFill} {Level2PatternFill} ifelse
%
/Symbol-Oblique /Symbol findfont [1 0 .167 1 0 0] makefont
dup length dict begin {1 index /FID eq {pop pop} {def} ifelse} forall
currentdict end definefont pop
%
/MFshow {
   { dup 5 get 3 ge
     { 5 get 3 eq {gsave} {grestore} ifelse }
     {dup dup 0 get findfont exch 1 get scalefont setfont
     [ currentpoint ] exch dup 2 get 0 exch R dup 5 get 2 ne {dup dup 6
     get exch 4 get {textshow} {stringwidth pop 0 R} ifelse }if dup 5 get 0 eq
     {dup 3 get {2 get neg 0 exch R pop} {pop aload pop M} ifelse} {dup 5
     get 1 eq {dup 2 get exch dup 3 get exch 6 get stringwidth pop -2 div
     dup 0 R} {dup 6 get stringwidth pop -2 div 0 R 6 get
     textshow 2 index {aload pop M neg 3 -1 roll neg R pop pop} {pop pop pop
     pop aload pop M} ifelse }ifelse }ifelse }
     ifelse }
   forall} def
/Gswidth {dup type /stringtype eq {stringwidth} {pop (n) stringwidth} ifelse} def
/MFwidth {0 exch { dup 5 get 3 ge { 5 get 3 eq { 0 } { pop } ifelse }
 {dup 3 get{dup dup 0 get findfont exch 1 get scalefont setfont
     6 get Gswidth pop add} {pop} ifelse} ifelse} forall} def
/MLshow { currentpoint stroke M
  0 exch R
  Blacktext {gsave 0 setgray MFshow grestore} {MFshow} ifelse } bind def
/MRshow { currentpoint stroke M
  exch dup MFwidth neg 3 -1 roll R
  Blacktext {gsave 0 setgray MFshow grestore} {MFshow} ifelse } bind def
/MCshow { currentpoint stroke M
  exch dup MFwidth -2 div 3 -1 roll R
  Blacktext {gsave 0 setgray MFshow grestore} {MFshow} ifelse } bind def
/XYsave    { [( ) 1 2 true false 3 ()] } bind def
/XYrestore { [( ) 1 2 true false 4 ()] } bind def
Level1 SuppressPDFMark or 
{} {
/SDict 10 dict def
systemdict /pdfmark known not {
  userdict /pdfmark systemdict /cleartomark get put
} if
SDict begin [
  /Title (TcpVeno-cwnd-1Mbps-UE21.eps)
  /Subject (gnuplot plot)
  /Creator (gnuplot 5.0 patchlevel 3)
  /Author (nat)
%  /Producer (gnuplot)
%  /Keywords ()
  /CreationDate (Tue May 24 14:35:37 2016)
  /DOCINFO pdfmark
end
} ifelse
%
% Support for boxed text - Ethan A Merritt May 2005
%
/InitTextBox { userdict /TBy2 3 -1 roll put userdict /TBx2 3 -1 roll put
           userdict /TBy1 3 -1 roll put userdict /TBx1 3 -1 roll put
	   /Boxing true def } def
/ExtendTextBox { Boxing
    { gsave dup false charpath pathbbox
      dup TBy2 gt {userdict /TBy2 3 -1 roll put} {pop} ifelse
      dup TBx2 gt {userdict /TBx2 3 -1 roll put} {pop} ifelse
      dup TBy1 lt {userdict /TBy1 3 -1 roll put} {pop} ifelse
      dup TBx1 lt {userdict /TBx1 3 -1 roll put} {pop} ifelse
      grestore } if } def
/PopTextBox { newpath TBx1 TBxmargin sub TBy1 TBymargin sub M
               TBx1 TBxmargin sub TBy2 TBymargin add L
	       TBx2 TBxmargin add TBy2 TBymargin add L
	       TBx2 TBxmargin add TBy1 TBymargin sub L closepath } def
/DrawTextBox { PopTextBox stroke /Boxing false def} def
/FillTextBox { gsave PopTextBox 1 1 1 setrgbcolor fill grestore /Boxing false def} def
0 0 0 0 InitTextBox
/TBxmargin 20 def
/TBymargin 20 def
/Boxing false def
/textshow { ExtendTextBox Gshow } def
%
% redundant definitions for compatibility with prologue.ps older than 5.0.2
/LTB {BL [] LCb DL} def
/LTb {PL [] LCb DL} def
end
%%EndProlog
%%Page: 1 1
gnudict begin
gsave
doclip
50 50 translate
0.050 0.050 scale
0 setgray
newpath
(Arial) findfont 200 scalefont setfont
BackgroundColor 0 lt 3 1 roll 0 lt exch 0 lt or or not {BackgroundColor C 1.000 0 0 7200.00 5040.00 BoxColFill} if
1.000 UL
LTb
0.00 0.00 0.00 C 0.500 UL
LTa
0.50 0.50 0.50 C 1220 820 M
5619 0 V
stroke
1.000 UL
LTb
0.00 0.00 0.00 C 1220 820 M
63 0 V
5556 0 R
-63 0 V
stroke
1100 820 M
[ [(Arial) 200.0 0.0 true true 0 ( 1)]
] -66.7 MRshow
1.000 UL
LTb
0.00 0.00 0.00 C 1220 1119 M
31 0 V
5588 0 R
-31 0 V
1220 1295 M
31 0 V
5588 0 R
-31 0 V
1220 1419 M
31 0 V
5588 0 R
-31 0 V
-5588 96 R
31 0 V
5588 0 R
-31 0 V
-5588 79 R
31 0 V
5588 0 R
-31 0 V
-5588 67 R
31 0 V
5588 0 R
-31 0 V
-5588 57 R
31 0 V
5588 0 R
-31 0 V
-5588 51 R
31 0 V
5588 0 R
-31 0 V
stroke
0.500 UL
LTa
0.50 0.50 0.50 C 1220 1815 M
5619 0 V
stroke
1.000 UL
LTb
0.00 0.00 0.00 C 1220 1815 M
63 0 V
5556 0 R
-63 0 V
stroke
1100 1815 M
[ [(Arial) 200.0 0.0 true true 0 ( 10)]
] -66.7 MRshow
1.000 UL
LTb
0.00 0.00 0.00 C 1220 2114 M
31 0 V
5588 0 R
-31 0 V
1220 2289 M
31 0 V
5588 0 R
-31 0 V
1220 2414 M
31 0 V
5588 0 R
-31 0 V
-5588 96 R
31 0 V
5588 0 R
-31 0 V
-5588 79 R
31 0 V
5588 0 R
-31 0 V
-5588 66 R
31 0 V
5588 0 R
-31 0 V
-5588 58 R
31 0 V
5588 0 R
-31 0 V
-5588 51 R
31 0 V
5588 0 R
-31 0 V
stroke
0.500 UL
LTa
0.50 0.50 0.50 C 1220 2810 M
5619 0 V
stroke
1.000 UL
LTb
0.00 0.00 0.00 C 1220 2810 M
63 0 V
5556 0 R
-63 0 V
stroke
1100 2810 M
[ [(Arial) 200.0 0.0 true true 0 ( 100)]
] -66.7 MRshow
1.000 UL
LTb
0.00 0.00 0.00 C 1220 3109 M
31 0 V
5588 0 R
-31 0 V
1220 3284 M
31 0 V
5588 0 R
-31 0 V
1220 3408 M
31 0 V
5588 0 R
-31 0 V
-5588 97 R
31 0 V
5588 0 R
-31 0 V
-5588 79 R
31 0 V
5588 0 R
-31 0 V
-5588 66 R
31 0 V
5588 0 R
-31 0 V
-5588 58 R
31 0 V
5588 0 R
-31 0 V
-5588 51 R
31 0 V
5588 0 R
-31 0 V
stroke
0.500 UL
LTa
0.50 0.50 0.50 C 1220 3804 M
5619 0 V
stroke
1.000 UL
LTb
0.00 0.00 0.00 C 1220 3804 M
63 0 V
5556 0 R
-63 0 V
stroke
1100 3804 M
[ [(Arial) 200.0 0.0 true true 0 ( 1000)]
] -66.7 MRshow
1.000 UL
LTb
0.00 0.00 0.00 C 1220 4104 M
31 0 V
5588 0 R
-31 0 V
1220 4279 M
31 0 V
5588 0 R
-31 0 V
1220 4403 M
31 0 V
5588 0 R
-31 0 V
-5588 97 R
31 0 V
5588 0 R
-31 0 V
-5588 78 R
31 0 V
5588 0 R
-31 0 V
-5588 67 R
31 0 V
5588 0 R
-31 0 V
-5588 58 R
31 0 V
5588 0 R
-31 0 V
-5588 50 R
31 0 V
5588 0 R
-31 0 V
stroke
0.500 UL
LTa
0.50 0.50 0.50 C 1220 4799 M
5619 0 V
stroke
1.000 UL
LTb
0.00 0.00 0.00 C 1220 4799 M
63 0 V
5556 0 R
-63 0 V
stroke
1100 4799 M
[ [(Arial) 200.0 0.0 true true 0 ( 10000)]
] -66.7 MRshow
1.000 UL
LTb
0.00 0.00 0.00 C 0.500 UL
LTa
0.50 0.50 0.50 C 1436 820 M
0 3979 V
stroke
1.000 UL
LTb
0.00 0.00 0.00 C 1436 820 M
0 63 V
0 3916 R
0 -63 V
stroke
1436 620 M
[ [(Arial) 200.0 0.0 true true 0 ( 5)]
] -66.7 MCshow
1.000 UL
LTb
0.00 0.00 0.00 C 0.500 UL
LTa
0.50 0.50 0.50 C 2517 820 M
0 3979 V
stroke
1.000 UL
LTb
0.00 0.00 0.00 C 2517 820 M
0 63 V
0 3916 R
0 -63 V
stroke
2517 620 M
[ [(Arial) 200.0 0.0 true true 0 ( 10)]
] -66.7 MCshow
1.000 UL
LTb
0.00 0.00 0.00 C 0.500 UL
LTa
0.50 0.50 0.50 C 3597 820 M
0 3979 V
stroke
1.000 UL
LTb
0.00 0.00 0.00 C 3597 820 M
0 63 V
0 3916 R
0 -63 V
stroke
3597 620 M
[ [(Arial) 200.0 0.0 true true 0 ( 15)]
] -66.7 MCshow
1.000 UL
LTb
0.00 0.00 0.00 C 0.500 UL
LTa
0.50 0.50 0.50 C 4678 820 M
0 3979 V
stroke
1.000 UL
LTb
0.00 0.00 0.00 C 4678 820 M
0 63 V
0 3916 R
0 -63 V
stroke
4678 620 M
[ [(Arial) 200.0 0.0 true true 0 ( 20)]
] -66.7 MCshow
1.000 UL
LTb
0.00 0.00 0.00 C 0.500 UL
LTa
0.50 0.50 0.50 C 5758 820 M
0 3979 V
stroke
1.000 UL
LTb
0.00 0.00 0.00 C 5758 820 M
0 63 V
0 3916 R
0 -63 V
stroke
5758 620 M
[ [(Arial) 200.0 0.0 true true 0 ( 25)]
] -66.7 MCshow
1.000 UL
LTb
0.00 0.00 0.00 C 0.500 UL
LTa
0.50 0.50 0.50 C 6839 820 M
0 3979 V
stroke
1.000 UL
LTb
0.00 0.00 0.00 C 6839 820 M
0 63 V
0 3916 R
0 -63 V
stroke
6839 620 M
[ [(Arial) 200.0 0.0 true true 0 ( 30)]
] -66.7 MCshow
1.000 UL
LTb
0.00 0.00 0.00 C 1.000 UL
LTB
0.00 0.00 0.00 C 1220 4799 M
0 -3979 V
5619 0 V
0 3979 R
-5619 0 R
1.000 UP
stroke
LTb
0.00 0.00 0.00 C LCb setrgbcolor
160 2809 M
currentpoint gsave translate -270 rotate 0 0 moveto
[ [(Arial) 200.0 0.0 true true 0 (cWnd \(KB\))]
] -66.7 MCshow
grestore
LTb
LCb setrgbcolor
4029 320 M
[ [(Arial) 200.0 0.0 true true 0 (Time \(s\))]
] -66.7 MCshow
LTb
% Begin plot #1
1.000 UL
LTa
0.60 0.60 0.00 C 3405 1246 M
12 175 V
13 124 V
13 97 V
0 79 V
13 66 V
0 58 V
0 51 V
12 45 V
0 41 V
0 38 V
0 35 V
13 32 V
0 29 V
0 28 V
0 26 V
0 25 V
0 23 V
13 23 V
0 21 V
0 20 V
0 19 V
0 18 V
0 18 V
0 17 V
0 16 V
0 16 V
13 15 V
0 15 V
0 14 V
0 14 V
0 13 V
0 13 V
0 12 V
0 13 V
0 11 V
0 12 V
0 11 V
0 11 V
0 11 V
0 10 V
12 10 V
0 10 V
0 10 V
0 9 V
0 10 V
0 9 V
0 9 V
0 8 V
0 9 V
0 8 V
0 9 V
0 8 V
0 8 V
0 7 V
0 8 V
0 8 V
1 7 V
0 7 V
0 7 V
0 7 V
0 7 V
12 7 V
0 7 V
0 6 V
0 7 V
0 6 V
0 7 V
0 6 V
0 6 V
0 6 V
0 6 V
0 6 V
0 6 V
0 5 V
0 6 V
0 6 V
0 5 V
0 6 V
0 5 V
0 5 V
0 5 V
0 6 V
0 5 V
0 5 V
2 5 V
0 5 V
0 5 V
0 4 V
34 5 V
0 5 V
0 5 V
0 4 V
0 5 V
0 4 V
0 5 V
0 4 V
0 5 V
0 4 V
0 4 V
0 4 V
0 5 V
0 4 V
0 4 V
0 4 V
stroke 3568 2961 M
0 4 V
0 4 V
0 4 V
0 4 V
0 4 V
0 4 V
0 4 V
0 4 V
22 3 V
0 4 V
0 4 V
0 3 V
0 4 V
0 4 V
0 3 V
0 4 V
0 3 V
0 4 V
0 3 V
0 4 V
0 3 V
0 4 V
0 3 V
0 3 V
0 4 V
0 3 V
0 3 V
0 3 V
0 4 V
0 3 V
0 3 V
0 3 V
0 3 V
0 3 V
0 3 V
0 3 V
0 3 V
0 3 V
0 3 V
0 3 V
0 3 V
0 3 V
0 3 V
0 3 V
0 3 V
0 3 V
0 3 V
0 2 V
0 3 V
0 3 V
0 3 V
0 3 V
14 2 V
0 3 V
0 3 V
0 2 V
0 3 V
0 3 V
0 2 V
0 3 V
0 2 V
0 3 V
0 3 V
0 2 V
0 3 V
0 2 V
0 3 V
0 2 V
0 3 V
0 2 V
0 3 V
0 2 V
0 2 V
0 3 V
0 2 V
3 3 V
0 2 V
0 2 V
0 3 V
0 2 V
0 2 V
0 3 V
0 2 V
0 2 V
0 2 V
0 3 V
0 2 V
0 2 V
0 2 V
0 3 V
0 2 V
0 2 V
0 2 V
0 2 V
0 3 V
0 2 V
0 2 V
0 2 V
0 2 V
0 2 V
0 2 V
0 -289 V
0 4 V
0 4 V
stroke 3607 2969 M
0 4 V
11 4 V
0 4 V
0 4 V
0 4 V
0 4 V
0 3 V
0 4 V
0 4 V
0 3 V
0 4 V
0 4 V
0 3 V
0 4 V
0 3 V
0 4 V
0 3 V
0 4 V
0 3 V
0 4 V
0 3 V
0 3 V
0 4 V
0 3 V
0 3 V
0 3 V
0 4 V
0 3 V
0 3 V
0 3 V
0 3 V
0 3 V
0 3 V
1 3 V
0 3 V
0 3 V
0 3 V
0 3 V
0 3 V
0 3 V
0 3 V
0 3 V
0 3 V
0 3 V
0 3 V
0 2 V
0 3 V
0 3 V
0 3 V
0 3 V
0 2 V
0 3 V
0 3 V
0 2 V
0 3 V
0 3 V
0 2 V
0 3 V
0 2 V
0 3 V
0 3 V
0 2 V
0 3 V
0 2 V
0 3 V
0 2 V
0 3 V
0 2 V
0 3 V
0 2 V
0 2 V
0 3 V
1 2 V
0 3 V
0 2 V
0 2 V
0 3 V
0 2 V
0 2 V
0 3 V
0 2 V
0 2 V
0 2 V
0 3 V
0 2 V
0 2 V
0 2 V
0 3 V
0 2 V
0 2 V
1 2 V
0 2 V
0 3 V
0 2 V
0 2 V
0 2 V
0 2 V
0 2 V
0 2 V
0 2 V
0 2 V
0 2 V
0 3 V
0 2 V
stroke 3621 3261 M
1 2 V
0 2 V
0 2 V
0 2 V
0 2 V
0 2 V
0 2 V
0 2 V
0 2 V
0 1 V
0 2 V
0 2 V
0 2 V
0 2 V
22 2 V
0 2 V
0 2 V
0 2 V
0 2 V
0 2 V
0 1 V
0 2 V
0 2 V
0 2 V
0 2 V
0 2 V
0 1 V
0 2 V
0 2 V
0 2 V
0 2 V
0 1 V
0 2 V
0 2 V
0 2 V
0 1 V
0 2 V
0 2 V
0 2 V
0 1 V
0 2 V
0 2 V
0 -2 V
0 2 V
0 1 V
0 2 V
0 2 V
0 1 V
0 2 V
0 2 V
0 1 V
0 2 V
0 2 V
0 1 V
0 2 V
0 2 V
0 1 V
0 2 V
0 1 V
0 2 V
0 2 V
15 1 V
0 2 V
0 1 V
0 2 V
0 2 V
0 1 V
0 2 V
0 1 V
0 2 V
0 1 V
0 2 V
0 1 V
0 2 V
0 1 V
0 2 V
0 1 V
0 2 V
0 1 V
0 2 V
0 1 V
0 2 V
0 1 V
0 2 V
0 1 V
0 2 V
0 1 V
0 2 V
0 1 V
0 -3 V
0 2 V
0 1 V
0 2 V
0 1 V
0 1 V
0 2 V
0 1 V
0 2 V
0 1 V
0 2 V
0 1 V
0 1 V
0 2 V
0 1 V
stroke 3659 3426 M
0 1 V
0 2 V
0 1 V
0 2 V
0 1 V
14 1 V
0 2 V
0 1 V
0 1 V
0 2 V
0 1 V
0 1 V
0 2 V
0 1 V
0 1 V
0 2 V
0 1 V
0 1 V
0 2 V
0 1 V
0 1 V
0 2 V
0 1 V
0 1 V
0 2 V
0 1 V
0 1 V
0 1 V
0 2 V
0 1 V
0 1 V
0 1 V
0 2 V
0 -2 V
0 2 V
0 1 V
0 1 V
0 1 V
0 2 V
0 1 V
0 1 V
0 1 V
0 2 V
0 1 V
0 1 V
0 1 V
0 1 V
0 2 V
0 1 V
0 1 V
0 1 V
0 2 V
0 1 V
0 1 V
13 1 V
0 1 V
0 1 V
0 2 V
0 1 V
0 1 V
0 1 V
0 1 V
0 1 V
0 2 V
0 1 V
0 1 V
0 1 V
0 1 V
0 1 V
0 2 V
0 1 V
0 1 V
0 1 V
0 1 V
0 1 V
0 1 V
0 1 V
0 2 V
0 1 V
0 1 V
0 1 V
0 1 V
0 -1 V
0 1 V
0 1 V
0 1 V
0 1 V
0 1 V
0 1 V
0 2 V
0 1 V
0 1 V
0 1 V
0 1 V
0 1 V
0 1 V
0 1 V
0 1 V
0 1 V
0 1 V
0 1 V
0 1 V
0 2 V
0 1 V
stroke 3686 3547 M
12 1 V
0 1 V
0 1 V
0 1 V
0 1 V
0 1 V
0 1 V
0 1 V
0 1 V
0 1 V
0 1 V
0 1 V
0 1 V
0 1 V
0 1 V
0 1 V
0 1 V
0 1 V
0 1 V
0 1 V
0 1 V
0 1 V
0 1 V
0 1 V
0 1 V
0 1 V
0 1 V
0 1 V
0 -1 V
0 1 V
0 1 V
0 1 V
0 1 V
0 1 V
0 1 V
0 1 V
0 1 V
0 1 V
0 1 V
0 1 V
0 1 V
0 1 V
0 1 V
0 1 V
0 1 V
0 1 V
0 1 V
0 1 V
0 1 V
0 1 V
13 1 V
0 1 V
0 1 V
0 1 V
0 1 V
0 1 V
0 1 V
0 1 V
0 1 V
0 1 V
0 1 V
0 1 V
36 -1 V
0 1 V
0 1 V
0 1 V
0 1 V
0 1 V
0 1 V
0 1 V
0 1 V
0 1 V
0 1 V
0 1 V
0 1 V
13 -1 V
0 1 V
0 1 V
0 1 V
0 1 V
0 1 V
0 1 V
0 1 V
0 1 V
0 1 V
0 1 V
0 1 V
0 1 V
3 1 V
9 -1 V
0 1 V
0 1 V
0 1 V
0 1 V
0 1 V
24 1 V
0 -1 V
0 1 V
0 1 V
0 1 V
0 1 V
0 1 V
0 1 V
13 1 V
stroke 3809 3641 M
0 -1 V
0 1 V
0 1 V
0 1 V
0 1 V
0 1 V
0 1 V
0 1 V
12 0 V
0 -1 V
0 1 V
0 1 V
0 1 V
0 1 V
0 1 V
0 1 V
0 1 V
13 1 V
0 -1 V
0 1 V
0 1 V
0 1 V
0 1 V
0 1 V
0 1 V
0 1 V
0 1 V
13 1 V
0 -1 V
0 1 V
0 1 V
0 1 V
0 1 V
0 1 V
0 1 V
0 1 V
0 1 V
0 1 V
13 1 V
0 -1 V
0 1 V
0 1 V
0 1 V
0 1 V
0 1 V
0 1 V
0 1 V
0 1 V
0 1 V
0 -2733 V
12 300 V
13 175 V
0 124 V
0 97 V
0 79 V
0 66 V
0 58 V
0 51 V
0 45 V
0 41 V
0 38 V
0 35 V
0 32 V
0 29 V
0 28 V
13 26 V
0 25 V
0 23 V
0 23 V
0 21 V
0 20 V
0 19 V
0 18 V
0 18 V
0 17 V
3 16 V
0 16 V
0 15 V
0 15 V
10 14 V
0 14 V
0 13 V
0 13 V
0 12 V
0 13 V
0 11 V
0 12 V
0 11 V
0 11 V
0 11 V
0 -250 V
0 18 V
0 18 V
0 17 V
0 16 V
0 16 V
0 15 V
0 15 V
0 14 V
3 14 V
0 13 V
0 13 V
0 12 V
0 13 V
stroke 3914 2495 M
0 11 V
2 12 V
7 11 V
0 11 V
0 11 V
0 10 V
0 10 V
0 10 V
0 10 V
0 9 V
0 10 V
0 9 V
0 9 V
0 8 V
0 9 V
0 8 V
0 9 V
0 8 V
1 8 V
0 7 V
0 8 V
0 8 V
0 7 V
0 -15 V
0 8 V
0 -16 V
0 8 V
0 -15 V
0 7 V
0 -15 V
0 8 V
0 -16 V
0 8 V
0 -17 V
0 9 V
0 -17 V
0 8 V
0 -17 V
0 9 V
0 -17 V
0 8 V
0 -17 V
0 9 V
0 -18 V
0 9 V
0 -19 V
0 10 V
0 -19 V
0 9 V
0 -19 V
0 10 V
0 -20 V
0 10 V
0 -20 V
0 10 V
0 -20 V
0 10 V
0 -21 V
0 11 V
0 -22 V
0 11 V
0 -22 V
0 11 V
0 -23 V
0 12 V
0 -277 V
12 1 V
0 1 V
0 1 V
0 1 V
0 1 V
0 1 V
0 1 V
0 1 V
0 1 V
0 1 V
4 1 V
0 1 V
0 1 V
0 1 V
0 1 V
0 1 V
0 1 V
0 1 V
0 1 V
9 1 V
4 1 V
0 1 V
0 1 V
0 1 V
0 1 V
9 1 V
0 1 V
4 1 V
0 1 V
0 1 V
0 1 V
0 1 V
0 1 V
0 1 V
8 1 V
0 1 V
4 1 V
0 1 V
stroke 3978 2279 M
0 1 V
0 1 V
0 1 V
0 1 V
0 1 V
11 1 V
2 1 V
0 1 V
0 1 V
0 1 V
0 1 V
0 1 V
0 1 V
10 1 V
0 1 V
3 0 V
0 1 V
0 1 V
0 1 V
0 1 V
0 1 V
3 0 V
0 1 V
0 1 V
7 1 V
0 1 V
3 0 V
0 1 V
0 1 V
0 1 V
0 1 V
3 1 V
0 1 V
0 1 V
7 1 V
2 1 V
0 1 V
0 1 V
0 1 V
0 1 V
4 1 V
0 1 V
7 1 V
0 1 V
2 0 V
0 1 V
0 1 V
0 1 V
0 1 V
5 1 V
0 1 V
5 1 V
0 1 V
3 0 V
0 1 V
0 1 V
3 1 V
5 1 V
2 1 V
3 1 V
0 1 V
3 1 V
0 1 V
5 1 V
0 1 V
0 1 V
2 0 V
0 1 V
0 1 V
2 0 V
0 1 V
0 1 V
4 0 V
0 1 V
0 1 V
4 0 V
0 1 V
3 1 V
0 1 V
4 1 V
0 1 V
0 1 V
0 1 V
6 1 V
0 1 V
2 1 V
0 1 V
5 1 V
0 1 V
0 1 V
0 1 V
6 0 V
0 1 V
0 1 V
4 1 V
0 1 V
4 1 V
0 1 V
0 1 V
0 1 V
32 0 V
0 1 V
0 1 V
0 1 V
stroke 4154 2372 M
14 0 V
0 1 V
0 1 V
0 1 V
80 1 V
14 0 V
0 1 V
0 1 V
0 1 V
14 1 V
0 1 V
0 1 V
0 1 V
14 0 V
0 1 V
0 1 V
0 1 V
15 1 V
0 1 V
0 1 V
0 1 V
14 1 V
0 1 V
0 1 V
0 1 V
14 0 V
0 1 V
0 1 V
0 1 V
13 1 V
0 1 V
3 0 V
0 1 V
0 1 V
10 1 V
0 1 V
3 0 V
0 1 V
0 1 V
0 1 V
0 1 V
10 1 V
3 1 V
0 1 V
0 1 V
0 1 V
0 1 V
11 1 V
0 1 V
1 1 V
0 1 V
0 1 V
0 1 V
12 0 V
0 1 V
0 1 V
0 1 V
0 1 V
0 1 V
0 1 V
1 0 V
11 1 V
0 1 V
0 1 V
4 1 V
0 1 V
9 1 V
0 1 V
35 0 V
0 1 V
14 1 V
0 1 V
0 1 V
0 1 V
13 0 V
0 1 V
0 1 V
0 1 V
12 0 V
0 1 V
0 1 V
0 1 V
0 1 V
0 1 V
13 0 V
0 1 V
0 1 V
0 1 V
0 1 V
4727 946 L
35 300 V
12 175 V
13 124 V
13 97 V
0 79 V
13 66 V
0 58 V
0 51 V
12 45 V
0 41 V
0 38 V
0 35 V
80 32 V
14 29 V
0 28 V
0 26 V
0 25 V
0 23 V
0 23 V
0 21 V
13 20 V
0 19 V
0 18 V
0 18 V
0 17 V
0 1 V
0 1 V
12 1 V
0 1 V
0 1 V
0 1 V
0 1 V
13 1 V
0 1 V
0 1 V
0 1 V
0 1 V
0 1 V
0 1 V
0 1 V
13 1 V
0 1 V
0 1 V
0 1 V
0 1 V
0 1 V
0 1 V
0 1 V
14 0 V
0 1 V
0 1 V
0 1 V
0 1 V
0 1 V
13 0 V
0 1 V
0 1 V
0 1 V
0 1 V
13 1 V
0 1 V
0 1 V
0 1 V
0 1 V
0 1 V
13 1 V
0 1 V
0 1 V
0 1 V
0 1 V
0 1 V
0 1 V
12 1 V
0 1 V
0 1 V
0 1 V
0 1 V
0 1 V
0 1 V
0 1 V
15 0 V
0 1 V
0 1 V
0 1 V
0 1 V
12 1 V
0 1 V
0 1 V
0 1 V
0 1 V
13 0 V
0 1 V
0 1 V
0 1 V
0 1 V
13 1 V
0 1 V
0 1 V
0 1 V
0 1 V
0 1 V
13 0 V
0 1 V
0 1 V
stroke 5101 2428 M
0 1 V
0 1 V
0 1 V
0 1 V
0 1 V
80 0 V
14 1 V
0 1 V
0 1 V
13 1 V
0 1 V
0 1 V
0 1 V
12 0 V
0 1 V
0 1 V
0 1 V
0 1 V
0 1 V
13 0 V
0 1 V
0 1 V
0 1 V
0 1 V
0 1 V
13 0 V
0 1 V
0 1 V
0 1 V
0 1 V
0 1 V
0 1 V
13 1 V
0 1 V
0 1 V
0 1 V
0 1 V
0 1 V
0 1 V
12 0 V
0 1 V
0 1 V
0 1 V
0 1 V
0 1 V
0 1 V
13 0 V
0 1 V
0 1 V
0 1 V
0 1 V
13 0 V
0 1 V
0 1 V
0 1 V
0 1 V
0 1 V
13 0 V
0 1 V
0 1 V
0 1 V
0 1 V
0 1 V
0 1 V
12 0 V
0 1 V
0 1 V
0 1 V
0 1 V
0 1 V
13 1 V
0 1 V
0 1 V
0 1 V
0 1 V
13 0 V
0 1 V
0 1 V
0 1 V
0 1 V
13 1 V
0 1 V
0 1 V
0 1 V
0 1 V
12 0 V
0 1 V
0 1 V
0 1 V
0 1 V
0 1 V
13 1 V
0 1 V
0 1 V
0 1 V
0 1 V
0 1 V
13 0 V
0 1 V
0 1 V
0 1 V
0 1 V
13 0 V
0 1 V
stroke 5412 2519 M
0 1 V
0 1 V
0 1 V
12 1 V
0 1 V
0 1 V
0 1 V
0 1 V
0 1 V
13 0 V
0 1 V
0 1 V
0 1 V
0 1 V
0 1 V
13 0 V
0 1 V
0 1 V
0 1 V
0 1 V
0 1 V
13 1 V
0 1 V
0 1 V
0 1 V
12 0 V
0 1 V
0 1 V
0 1 V
0 1 V
13 0 V
0 1 V
0 1 V
0 1 V
0 1 V
0 1 V
13 0 V
0 1 V
0 1 V
0 1 V
0 1 V
0 1 V
13 0 V
0 1 V
0 1 V
0 1 V
0 1 V
12 0 V
0 1 V
0 1 V
0 1 V
13 1 V
0 1 V
0 1 V
0 1 V
13 0 V
0 1 V
0 1 V
0 1 V
0 1 V
0 1 V
13 0 V
0 1 V
0 1 V
0 1 V
0 1 V
0 1 V
12 0 V
0 1 V
0 1 V
0 1 V
13 0 V
0 1 V
0 1 V
0 1 V
0 1 V
13 0 V
0 1 V
0 1 V
0 1 V
13 0 V
0 1 V
0 1 V
0 1 V
0 1 V
0 1 V
12 0 V
0 1 V
0 1 V
0 1 V
1 0 V
0 1 V
12 0 V
0 1 V
0 1 V
0 1 V
0 1 V
13 0 V
0 1 V
0 1 V
0 1 V
13 0 V
0 1 V
0 1 V
stroke 5667 2605 M
0 1 V
12 1 V
0 1 V
0 1 V
0 1 V
1 0 V
0 1 V
12 0 V
0 1 V
0 1 V
0 1 V
0 1 V
13 0 V
0 1 V
0 1 V
0 1 V
0 1 V
13 0 V
0 1 V
0 1 V
0 1 V
12 0 V
0 1 V
0 1 V
1 0 V
0 1 V
12 0 V
0 1 V
0 1 V
0 1 V
0 1 V
13 1 V
0 1 V
0 1 V
0 1 V
0 1 V
13 0 V
0 1 V
0 1 V
0 1 V
12 0 V
0 1 V
0 1 V
1 0 V
0 1 V
12 0 V
0 1 V
0 1 V
0 1 V
0 1 V
13 0 V
0 1 V
0 1 V
0 1 V
0 1 V
13 1 V
0 1 V
0 1 V
0 1 V
12 0 V
0 1 V
0 1 V
1 0 V
0 1 V
12 0 V
0 1 V
0 1 V
0 1 V
13 0 V
0 1 V
0 1 V
0 1 V
0 1 V
13 0 V
0 1 V
0 1 V
0 1 V
0 1 V
12 0 V
0 1 V
1 0 V
0 1 V
12 0 V
0 1 V
0 1 V
0 1 V
13 0 V
0 1 V
0 1 V
13 1 V
0 1 V
0 1 V
0 1 V
12 0 V
0 1 V
0 1 V
1 1 V
0 1 V
12 0 V
0 1 V
0 1 V
0 1 V
0 1 V
13 0 V
stroke 5960 2685 M
0 1 V
0 1 V
13 0 V
0 1 V
0 1 V
0 1 V
12 0 V
0 1 V
0 1 V
1 0 V
0 1 V
0 1 V
12 0 V
0 1 V
0 1 V
0 1 V
13 0 V
0 1 V
0 1 V
0 1 V
13 0 V
0 1 V
0 1 V
0 1 V
12 0 V
0 1 V
1 0 V
0 1 V
12 0 V
0 1 V
0 1 V
0 1 V
13 1 V
0 1 V
0 1 V
0 1 V
13 0 V
0 1 V
0 1 V
0 1 V
12 0 V
1 1 V
0 1 V
12 0 V
0 1 V
0 1 V
13 1 V
0 1 V
0 1 V
0 1 V
13 0 V
0 1 V
0 1 V
0 1 V
12 0 V
0 1 V
1 0 V
0 1 V
0 1 V
12 0 V
0 1 V
0 1 V
13 0 V
0 1 V
0 1 V
0 1 V
13 0 V
0 1 V
0 1 V
0 1 V
12 0 V
0 1 V
0 1 V
1 0 V
0 1 V
12 1 V
0 1 V
0 1 V
1 0 V
12 0 V
0 1 V
0 1 V
13 0 V
0 1 V
0 1 V
0 1 V
12 0 V
0 1 V
1 0 V
0 1 V
0 1 V
12 0 V
0 1 V
0 1 V
0 1 V
1 0 V
12 0 V
0 1 V
0 1 V
13 0 V
0 1 V
0 1 V
0 1 V
12 0 V
stroke 6291 2759 M
0 1 V
0 1 V
1 0 V
12 0 V
0 1 V
0 1 V
0 1 V
1 0 V
12 0 V
0 1 V
0 1 V
0 1 V
13 0 V
0 1 V
0 1 V
12 0 V
0 1 V
0 1 V
1 0 V
0 1 V
12 0 V
0 1 V
0 1 V
1 1 V
12 0 V
0 1 V
0 1 V
0 1 V
1 0 V
12 0 V
0 1 V
0 1 V
0 1 V
12 0 V
0 1 V
1 1 V
12 0 V
0 1 V
0 1 V
1 0 V
0 1 V
12 0 V
0 1 V
0 1 V
1 0 V
12 0 V
0 1 V
0 1 V
0 1 V
12 0 V
0 1 V
0 1 V
1 0 V
12 0 V
0 1 V
0 -1974 V
% End plot #1
% Begin plot #2
2.000 UP
stroke
LTa
0.60 0.60 0.00 C 3405 1246 Box
4290 2384 Box
5718 2621 Box
6253 2753 Box
% End plot #2
% Begin plot #3
2.000 UP
1.000 UL
LTa
0.60 0.60 0.00 C LCb setrgbcolor
2774 153 M
[ [(Arial) 180.0 0.0 true true 0 (olsr)]
] -60.0 MRshow
2.000 UP
1.000 UL
LTa
0.60 0.60 0.00 C 2882 153 M
333 0 V
190 1093 R
3405 1246 Box
3048 153 Box
% End plot #3
% Begin plot #4
1.000 UL
LTb
LT1
0.00 0.00 0.63 C 1460 1246 M
13 175 V
13 124 V
12 97 V
0 79 V
13 66 V
0 58 V
0 51 V
13 45 V
0 41 V
0 38 V
0 35 V
13 32 V
0 29 V
0 28 V
2 26 V
0 25 V
0 23 V
11 23 V
0 21 V
0 20 V
0 19 V
0 18 V
2 18 V
0 17 V
0 16 V
0 16 V
10 15 V
0 15 V
0 14 V
0 14 V
0 13 V
0 13 V
0 12 V
0 13 V
3 11 V
0 12 V
0 11 V
0 11 V
0 11 V
0 10 V
12 10 V
0 10 V
0 10 V
0 9 V
0 10 V
0 9 V
0 9 V
0 8 V
0 9 V
0 8 V
0 9 V
0 8 V
0 8 V
0 7 V
0 8 V
0 8 V
0 7 V
0 7 V
0 7 V
0 7 V
0 7 V
13 7 V
0 7 V
0 6 V
0 7 V
0 6 V
0 7 V
0 6 V
0 6 V
0 6 V
0 6 V
0 6 V
0 6 V
0 5 V
0 6 V
0 6 V
0 5 V
0 6 V
0 5 V
0 5 V
0 5 V
0 6 V
0 5 V
0 5 V
0 5 V
0 5 V
0 5 V
0 4 V
0 5 V
0 5 V
0 5 V
0 4 V
14 5 V
0 4 V
0 5 V
0 4 V
0 5 V
0 4 V
0 4 V
0 4 V
0 5 V
0 4 V
0 4 V
0 4 V
stroke 1604 2961 M
0 4 V
0 4 V
0 4 V
0 4 V
0 4 V
0 4 V
0 4 V
0 4 V
0 3 V
0 4 V
0 4 V
0 3 V
0 4 V
0 4 V
0 3 V
0 4 V
0 3 V
0 4 V
0 3 V
0 4 V
0 3 V
0 4 V
0 3 V
0 3 V
0 4 V
0 3 V
1 3 V
0 3 V
0 4 V
0 3 V
0 3 V
0 3 V
0 3 V
0 3 V
0 3 V
13 3 V
0 3 V
0 3 V
0 3 V
0 3 V
0 3 V
0 3 V
0 3 V
0 3 V
0 3 V
0 3 V
0 3 V
0 2 V
0 3 V
0 3 V
0 3 V
0 3 V
0 2 V
0 3 V
0 3 V
0 2 V
0 3 V
0 3 V
0 2 V
0 3 V
0 2 V
0 3 V
0 3 V
0 2 V
0 3 V
0 2 V
0 3 V
1 2 V
0 3 V
0 2 V
0 3 V
0 2 V
0 2 V
0 3 V
0 2 V
0 3 V
0 2 V
0 2 V
0 3 V
0 2 V
0 2 V
0 3 V
0 2 V
0 2 V
0 2 V
0 3 V
0 2 V
0 2 V
0 2 V
0 3 V
0 2 V
0 2 V
0 2 V
0 2 V
0 3 V
1 2 V
0 2 V
0 2 V
0 2 V
0 2 V
0 2 V
0 2 V
0 2 V
0 2 V
stroke 1620 3256 M
0 3 V
12 2 V
0 2 V
0 2 V
0 2 V
0 2 V
0 2 V
0 2 V
0 2 V
1 2 V
0 2 V
0 1 V
0 2 V
0 2 V
0 2 V
0 2 V
0 2 V
0 2 V
0 2 V
0 2 V
0 2 V
0 2 V
0 1 V
0 2 V
0 2 V
0 2 V
0 2 V
0 2 V
0 1 V
0 2 V
0 2 V
0 2 V
0 2 V
0 1 V
0 2 V
0 2 V
0 2 V
0 1 V
0 2 V
0 2 V
0 2 V
0 1 V
0 2 V
0 2 V
1 1 V
0 2 V
0 2 V
0 1 V
0 2 V
0 2 V
0 1 V
0 2 V
0 2 V
0 1 V
0 2 V
0 2 V
0 1 V
0 2 V
0 1 V
1 2 V
0 2 V
0 1 V
0 2 V
0 1 V
0 2 V
0 2 V
0 1 V
0 2 V
0 1 V
0 2 V
0 1 V
0 2 V
0 1 V
0 2 V
0 1 V
0 2 V
1 1 V
0 2 V
0 1 V
0 2 V
0 1 V
0 2 V
0 1 V
0 2 V
0 1 V
0 2 V
0 1 V
0 2 V
0 1 V
1 2 V
0 1 V
0 1 V
0 2 V
0 1 V
0 2 V
0 1 V
0 2 V
0 1 V
0 1 V
0 2 V
0 1 V
0 1 V
0 2 V
0 1 V
stroke 1637 3430 M
0 2 V
0 1 V
8 1 V
0 2 V
0 1 V
0 1 V
0 2 V
0 1 V
0 1 V
0 2 V
1 1 V
0 1 V
0 2 V
0 1 V
0 1 V
0 2 V
0 1 V
0 1 V
0 2 V
0 1 V
0 1 V
0 2 V
0 1 V
0 1 V
0 1 V
0 2 V
0 1 V
0 1 V
0 1 V
0 2 V
0 1 V
0 1 V
0 1 V
0 2 V
0 1 V
0 1 V
0 1 V
0 2 V
0 1 V
0 1 V
0 1 V
0 1 V
0 2 V
0 1 V
0 1 V
0 1 V
1 2 V
0 1 V
0 1 V
0 1 V
0 1 V
0 1 V
0 2 V
0 1 V
0 1 V
0 1 V
0 1 V
0 1 V
0 2 V
1 1 V
0 1 V
0 1 V
0 1 V
0 1 V
0 2 V
0 1 V
1 1 V
0 1 V
0 1 V
0 1 V
0 1 V
0 1 V
0 2 V
1 1 V
0 1 V
0 1 V
0 1 V
0 1 V
0 1 V
0 1 V
0 1 V
0 1 V
0 2 V
0 1 V
0 1 V
0 1 V
0 1 V
0 1 V
0 1 V
0 1 V
0 1 V
0 1 V
0 1 V
0 1 V
0 1 V
0 2 V
0 1 V
0 1 V
0 1 V
0 1 V
0 1 V
0 1 V
0 1 V
0 1 V
stroke 1650 3554 M
0 1 V
0 1 V
1 1 V
0 1 V
0 1 V
0 1 V
0 1 V
0 1 V
0 1 V
0 1 V
0 1 V
0 1 V
0 1 V
0 1 V
0 1 V
0 1 V
0 1 V
0 1 V
0 1 V
0 1 V
1 1 V
0 1 V
0 1 V
0 1 V
0 1 V
0 1 V
0 1 V
0 1 V
0 1 V
0 1 V
0 1 V
0 1 V
1 1 V
0 1 V
0 1 V
0 1 V
0 1 V
0 1 V
0 1 V
0 1 V
0 1 V
0 1 V
0 1 V
0 1 V
0 1 V
0 1 V
3 1 V
0 1 V
0 1 V
0 1 V
0 1 V
0 1 V
0 1 V
0 1 V
5 1 V
0 1 V
0 1 V
0 1 V
0 1 V
0 1 V
0 1 V
0 1 V
0 1 V
0 1 V
0 1 V
0 1 V
0 1 V
0 1 V
0 1 V
0 1 V
0 1 V
0 1 V
0 1 V
0 1 V
0 1 V
0 1 V
0 1 V
0 1 V
0 1 V
0 1 V
0 1 V
0 1 V
1 0 V
0 1 V
0 1 V
0 1 V
0 1 V
0 1 V
0 1 V
0 1 V
0 1 V
0 1 V
0 1 V
2 1 V
0 1 V
0 1 V
0 1 V
0 1 V
0 1 V
0 1 V
0 1 V
1 1 V
0 1 V
0 1 V
stroke 1665 3657 M
0 1 V
1 1 V
0 1 V
0 1 V
0 1 V
0 1 V
0 1 V
0 1 V
0 1 V
0 1 V
0 1 V
1 0 V
0 1 V
0 1 V
0 1 V
0 1 V
0 1 V
0 1 V
0 1 V
0 1 V
1 0 V
0 1 V
0 1 V
0 1 V
21 1 V
0 1 V
0 1 V
0 1 V
0 1 V
0 1 V
0 1 V
0 1 V
0 1 V
0 1 V
0 1 V
0 1 V
0 1 V
0 1 V
0 1 V
0 1 V
0 1 V
0 1 V
0 1 V
0 1 V
0 1 V
0 1 V
0 1 V
0 1 V
0 1 V
0 1 V
0 1 V
0 1 V
0 1 V
0 1 V
0 1 V
0 1 V
0 1 V
0 1 V
0 1 V
0 1 V
0 1 V
0 1 V
0 1 V
0 1 V
0 1 V
0 1 V
0 1 V
0 1 V
0 1 V
0 1 V
0 1 V
0 1 V
0 1 V
0 1 V
0 1 V
0 1 V
0 1 V
0 1 V
0 1 V
0 1 V
0 1 V
0 1 V
0 -296 V
0 1 V
0 2 V
0 1 V
0 1 V
0 2 V
0 1 V
0 1 V
0 2 V
0 1 V
0 1 V
0 2 V
0 1 V
0 1 V
0 2 V
0 1 V
0 1 V
0 1 V
0 2 V
0 1 V
0 1 V
0 1 V
stroke 1689 3468 M
0 2 V
0 1 V
0 1 V
0 1 V
0 2 V
0 1 V
0 1 V
0 1 V
0 2 V
0 1 V
0 1 V
0 1 V
0 1 V
0 2 V
0 1 V
0 1 V
0 1 V
0 2 V
0 1 V
0 1 V
0 1 V
0 1 V
0 1 V
0 2 V
0 1 V
0 1 V
0 1 V
0 1 V
0 1 V
0 2 V
0 1 V
0 1 V
0 1 V
0 1 V
0 1 V
0 2 V
0 1 V
0 1 V
0 1 V
0 1 V
0 1 V
0 1 V
0 1 V
0 2 V
0 1 V
0 1 V
0 1 V
0 1 V
0 1 V
0 1 V
0 1 V
0 1 V
0 1 V
0 2 V
0 1 V
0 1 V
0 1 V
0 1 V
0 1 V
0 1 V
0 1 V
0 1 V
0 1 V
0 1 V
0 1 V
0 1 V
0 2 V
0 1 V
0 1 V
0 1 V
0 1 V
0 1 V
0 1 V
0 1 V
0 1 V
0 1 V
0 1 V
0 1 V
0 1 V
0 1 V
0 1 V
0 1 V
0 1 V
0 1 V
0 1 V
0 1 V
0 1 V
0 1 V
0 1 V
0 1 V
0 1 V
0 1 V
0 1 V
0 1 V
0 1 V
0 1 V
0 1 V
0 1 V
0 1 V
0 1 V
0 1 V
0 1 V
0 1 V
0 1 V
stroke 1689 3583 M
0 1 V
0 1 V
0 1 V
0 1 V
0 1 V
0 1 V
0 1 V
0 1 V
0 1 V
0 1 V
0 1 V
0 1 V
0 1 V
0 1 V
0 1 V
0 1 V
0 1 V
0 1 V
0 1 V
0 1 V
0 1 V
0 1 V
0 1 V
0 1 V
0 1 V
0 1 V
0 1 V
0 1 V
0 1 V
0 1 V
0 1 V
0 1 V
0 1 V
0 1 V
0 1 V
0 1 V
0 1 V
0 1 V
0 1 V
0 1 V
0 1 V
0 1 V
0 1 V
0 1 V
0 1 V
0 1 V
0 1 V
0 1 V
22 1 V
0 1 V
0 1 V
0 1 V
0 1 V
0 1 V
0 1 V
0 1 V
0 1 V
0 1 V
0 1 V
0 1 V
0 1 V
0 1 V
0 1 V
0 1 V
0 1 V
0 1 V
0 1 V
0 1 V
0 1 V
0 1 V
0 1 V
0 1 V
0 1 V
0 1 V
0 1 V
0 1 V
0 1 V
0 1 V
0 1 V
0 1 V
0 1 V
0 1 V
0 1 V
0 1 V
0 1 V
0 1 V
0 1 V
0 1 V
0 1 V
0 1 V
0 1 V
0 1 V
0 1 V
0 1 V
0 1 V
0 1 V
0 1 V
0 1 V
0 1 V
0 1 V
0 1 V
0 1 V
0 1 V
0 1 V
stroke 1711 3687 M
0 1 V
0 1 V
0 1 V
0 1 V
0 1 V
0 1 V
0 1 V
0 1 V
0 1 V
0 1 V
0 1 V
0 1 V
0 1 V
0 1 V
0 1 V
0 1 V
0 1 V
0 1 V
0 1 V
0 1 V
0 1 V
0 1 V
0 1 V
0 1 V
0 1 V
0 1 V
0 1 V
0 1 V
0 1 V
0 1 V
0 1 V
0 1 V
0 1 V
0 1 V
0 1 V
0 1 V
0 1 V
0 1 V
0 1 V
0 1 V
0 1 V
0 1 V
0 1 V
0 1 V
0 1 V
0 1 V
0 1 V
0 1 V
0 1 V
0 1 V
0 1 V
0 1 V
0 1 V
0 1 V
0 1 V
0 1 V
0 1 V
0 1 V
0 1 V
0 1 V
0 1 V
0 1 V
0 1 V
0 1 V
0 1 V
0 1 V
0 1 V
0 1 V
0 1 V
0 1 V
0 1 V
0 1 V
0 1 V
0 1 V
0 1 V
0 1 V
0 1 V
0 1 V
0 1 V
0 1 V
0 1 V
0 1 V
0 1 V
0 1 V
0 1 V
0 1 V
0 1 V
0 1 V
0 1 V
0 1 V
0 1 V
0 1 V
0 1 V
0 1 V
0 1 V
0 1 V
0 1 V
0 1 V
0 1 V
0 1 V
0 1 V
0 1 V
0 1 V
0 1 V
stroke 1711 3791 M
0 1 V
0 1 V
0 1 V
0 1 V
0 1 V
0 1 V
0 1 V
0 1 V
0 1 V
0 1 V
0 1 V
0 1 V
0 1 V
0 1 V
0 1 V
0 1 V
0 1 V
0 1 V
0 1 V
0 1 V
0 1 V
0 1 V
0 1 V
0 1 V
0 1 V
0 1 V
0 1 V
0 1 V
0 1 V
0 1 V
0 1 V
0 1 V
0 1 V
0 1 V
0 1 V
0 1 V
0 1 V
0 1 V
0 1 V
0 1 V
0 1 V
0 1 V
0 1 V
0 1 V
0 1 V
0 1 V
0 1 V
0 1 V
0 1 V
0 1 V
0 1 V
0 1 V
0 1 V
0 1 V
0 1 V
0 1 V
0 1 V
0 1 V
0 1 V
0 1 V
0 1 V
0 1 V
0 1 V
0 1 V
0 1 V
0 1 V
0 1 V
0 1 V
0 1 V
0 1 V
0 1 V
0 1 V
0 1 V
0 1 V
0 1 V
0 1 V
0 1 V
0 1 V
0 1 V
0 1 V
0 1 V
0 1 V
0 1 V
0 1 V
0 1 V
0 1 V
0 1 V
0 1 V
0 1 V
0 -1 V
0 1 V
12 0 V
0 1 V
0 1 V
0 1 V
0 1 V
0 1 V
0 1 V
0 1 V
0 1 V
0 1 V
0 1 V
0 1 V
0 1 V
stroke 1723 3892 M
0 1 V
0 1 V
0 1 V
0 1 V
0 1 V
0 1 V
0 1 V
0 1 V
0 1 V
0 1 V
0 1 V
0 1 V
0 1 V
1 1 V
0 1 V
0 1 V
0 1 V
0 1 V
0 1 V
0 1 V
0 1 V
0 1 V
0 1 V
0 1 V
0 1 V
0 1 V
1 0 V
0 1 V
0 1 V
0 1 V
0 1 V
0 1 V
1 1 V
0 1 V
0 1 V
0 1 V
0 1 V
0 1 V
0 1 V
0 1 V
0 1 V
0 1 V
0 1 V
0 1 V
1 0 V
0 1 V
0 1 V
0 1 V
0 1 V
0 1 V
0 1 V
0 1 V
0 1 V
2 1 V
0 1 V
0 1 V
0 1 V
0 1 V
0 1 V
0 1 V
1 1 V
0 1 V
0 1 V
0 1 V
0 1 V
0 1 V
0 1 V
0 1 V
0 1 V
0 1 V
0 1 V
0 1 V
0 1 V
0 1 V
0 1 V
0 1 V
0 1 V
0 1 V
0 1 V
0 1 V
0 1 V
0 1 V
0 1 V
0 1 V
0 1 V
0 1 V
1 1 V
0 1 V
0 1 V
0 1 V
0 1 V
0 1 V
0 1 V
0 1 V
0 1 V
0 1 V
0 1 V
10 0 V
0 1 V
0 1 V
0 1 V
0 1 V
0 1 V
0 1 V
stroke 1741 3993 M
0 1 V
0 1 V
0 1 V
0 1 V
0 1 V
0 1 V
0 1 V
0 1 V
0 1 V
0 1 V
0 1 V
0 1 V
0 1 V
0 1 V
0 1 V
0 1 V
21 1 V
0 1 V
0 1 V
0 1 V
0 1 V
0 1 V
0 1 V
0 1 V
0 1 V
0 1 V
0 1 V
0 1 V
0 1 V
0 1 V
0 1 V
0 1 V
0 1 V
0 1 V
0 1 V
0 1 V
0 1 V
0 1 V
0 1 V
0 1 V
0 1 V
0 1 V
0 1 V
0 1 V
0 1 V
0 1 V
0 1 V
0 1 V
0 1 V
0 1 V
0 1 V
0 1 V
0 1 V
0 1 V
0 1 V
0 1 V
0 1 V
0 1 V
0 1 V
0 1 V
0 1 V
0 1 V
0 1 V
0 1 V
0 1 V
0 1 V
0 1 V
0 1 V
0 1 V
0 1 V
0 1 V
0 1 V
1 0 V
0 1 V
0 1 V
0 1 V
0 1 V
0 1 V
0 1 V
0 1 V
0 1 V
0 1 V
0 1 V
0 1 V
0 1 V
0 1 V
0 1 V
0 1 V
0 1 V
0 1 V
0 1 V
0 1 V
0 1 V
0 1 V
0 1 V
0 1 V
0 1 V
12 0 V
0 1 V
0 1 V
0 1 V
0 1 V
0 1 V
0 1 V
stroke 1775 4095 M
0 1 V
0 1 V
0 1 V
1 0 V
0 1 V
0 1 V
0 1 V
0 1 V
0 1 V
0 1 V
0 1 V
0 1 V
0 1 V
0 1 V
0 1 V
0 1 V
0 1 V
0 1 V
0 1 V
0 1 V
0 1 V
0 1 V
1 0 V
0 1 V
0 1 V
0 1 V
0 1 V
0 1 V
0 1 V
0 1 V
0 1 V
0 1 V
1 1 V
0 1 V
0 1 V
0 1 V
0 1 V
0 1 V
0 1 V
0 1 V
1 0 V
0 1 V
0 1 V
0 1 V
0 1 V
0 1 V
1 0 V
0 1 V
0 -3 V
0 1 V
0 1 V
0 1 V
0 1 V
0 1 V
0 1 V
0 1 V
0 1 V
0 1 V
0 1 V
0 1 V
0 1 V
2 0 V
0 1 V
0 1 V
0 1 V
0 1 V
0 1 V
7 0 V
0 1 V
0 1 V
0 1 V
0 1 V
0 1 V
0 1 V
0 1 V
0 1 V
0 1 V
0 1 V
0 1 V
0 1 V
0 1 V
0 1 V
0 1 V
0 1 V
0 1 V
0 1 V
0 1 V
0 1 V
5 1 V
0 1 V
0 1 V
0 1 V
0 1 V
0 1 V
0 1 V
0 1 V
0 1 V
0 1 V
0 1 V
0 1 V
0 1 V
0 1 V
0 1 V
0 1 V
stroke 1794 4189 M
1 1 V
0 1 V
0 1 V
0 1 V
0 1 V
0 1 V
0 1 V
0 1 V
0 1 V
0 1 V
0 1 V
0 1 V
1 0 V
0 1 V
0 1 V
0 1 V
22 1 V
0 1 V
0 1 V
0 1 V
0 1 V
0 1 V
0 1 V
0 1 V
0 1 V
0 1 V
0 1 V
0 1 V
0 1 V
0 1 V
0 1 V
0 1 V
0 1 V
0 1 V
0 1 V
0 1 V
0 1 V
0 1 V
0 1 V
0 1 V
0 1 V
0 1 V
0 1 V
0 1 V
0 1 V
0 1 V
0 1 V
0 1 V
0 1 V
0 1 V
0 1 V
0 1 V
0 1 V
0 1 V
0 1 V
0 1 V
0 1 V
0 1 V
0 1 V
0 1 V
0 1 V
0 -1 V
0 1 V
0 1 V
0 1 V
0 1 V
0 1 V
0 1 V
0 1 V
13 0 V
0 1 V
0 1 V
0 1 V
0 1 V
0 1 V
0 1 V
0 1 V
2 1 V
0 1 V
0 1 V
0 1 V
0 1 V
0 1 V
0 1 V
0 1 V
0 1 V
0 1 V
0 1 V
0 1 V
0 1 V
0 1 V
0 1 V
0 1 V
0 1 V
0 1 V
0 1 V
0 1 V
1 0 V
0 1 V
0 1 V
0 1 V
0 1 V
0 1 V
0 1 V
stroke 1834 4288 M
1 0 V
0 1 V
0 1 V
0 1 V
0 1 V
0 1 V
0 1 V
1 1 V
0 1 V
0 1 V
0 1 V
0 1 V
0 1 V
0 1 V
1 0 V
0 1 V
8 0 V
1 0 V
0 1 V
0 1 V
0 1 V
0 1 V
0 1 V
0 1 V
0 1 V
3 0 V
0 1 V
0 1 V
0 1 V
0 1 V
0 1 V
0 1 V
0 1 V
0 1 V
0 1 V
0 1 V
0 1 V
0 1 V
0 1 V
0 1 V
0 1 V
0 1 V
0 1 V
0 1 V
0 1 V
1 0 V
0 1 V
0 1 V
0 1 V
0 1 V
0 1 V
1 1 V
0 1 V
29 -1 V
0 1 V
0 1 V
0 1 V
0 1 V
0 1 V
0 1 V
0 1 V
0 1 V
0 1 V
0 1 V
0 1 V
0 1 V
0 1 V
0 1 V
0 1 V
0 1 V
0 1 V
0 1 V
0 1 V
0 1 V
0 1 V
0 1 V
0 1 V
0 1 V
0 1 V
0 1 V
0 1 V
0 1 V
0 1 V
0 1 V
0 1 V
15 0 V
0 1 V
0 1 V
0 1 V
0 1 V
0 1 V
0 1 V
0 1 V
0 1 V
0 1 V
0 1 V
0 1 V
1 0 V
0 1 V
0 1 V
0 1 V
0 1 V
1 0 V
0 1 V
stroke 1897 4381 M
0 1 V
0 1 V
0 1 V
0 1 V
1 0 V
0 1 V
0 1 V
0 1 V
0 1 V
1 0 V
0 1 V
0 1 V
0 1 V
0 1 V
0 1 V
8 -1 V
0 1 V
1 0 V
0 1 V
0 1 V
0 1 V
0 1 V
0 1 V
0 1 V
0 1 V
0 1 V
0 1 V
0 1 V
0 1 V
1 1 V
0 1 V
1 1 V
0 1 V
0 1 V
0 1 V
0 1 V
1 0 V
0 1 V
0 1 V
0 1 V
0 1 V
0 1 V
0 1 V
0 1 V
1 0 V
0 1 V
8 0 V
0 1 V
0 1 V
1 0 V
0 1 V
0 1 V
0 1 V
0 1 V
0 1 V
0 1 V
0 1 V
0 1 V
0 1 V
0 1 V
1 0 V
0 1 V
0 1 V
0 1 V
0 1 V
1 0 V
0 1 V
0 1 V
0 1 V
1 0 V
0 1 V
0 1 V
0 1 V
0 1 V
1 1 V
0 1 V
2 -3499 V
8 300 V
12 175 V
0 124 V
2 97 V
0 79 V
0 66 V
0 58 V
0 51 V
0 45 V
0 41 V
0 38 V
0 35 V
0 32 V
0 29 V
0 28 V
0 26 V
0 25 V
0 23 V
0 23 V
0 21 V
0 20 V
0 19 V
0 18 V
0 18 V
0 17 V
0 16 V
0 16 V
stroke 1949 2386 M
0 15 V
0 15 V
0 14 V
0 14 V
0 13 V
2 13 V
0 12 V
0 13 V
0 11 V
0 -244 V
0 20 V
0 19 V
0 18 V
0 18 V
0 17 V
0 16 V
0 16 V
1 15 V
0 15 V
0 14 V
0 14 V
0 13 V
0 13 V
0 12 V
0 13 V
0 11 V
0 12 V
0 11 V
0 11 V
0 11 V
0 10 V
0 10 V
0 10 V
0 10 V
0 9 V
0 10 V
0 9 V
0 9 V
0 8 V
0 9 V
0 8 V
0 9 V
0 8 V
0 8 V
0 7 V
0 8 V
0 8 V
0 7 V
0 7 V
0 7 V
0 7 V
0 7 V
0 7 V
0 7 V
0 6 V
0 7 V
0 6 V
1 7 V
0 6 V
0 6 V
0 6 V
0 6 V
0 6 V
0 6 V
0 5 V
0 6 V
0 6 V
0 5 V
0 6 V
0 5 V
0 5 V
0 5 V
0 6 V
0 5 V
0 5 V
0 5 V
0 5 V
0 5 V
0 4 V
0 5 V
0 5 V
0 5 V
0 4 V
0 5 V
0 4 V
0 5 V
0 4 V
0 5 V
0 4 V
0 4 V
0 4 V
0 5 V
0 4 V
0 4 V
0 4 V
0 4 V
0 4 V
0 4 V
0 4 V
0 4 V
1 4 V
0 4 V
0 4 V
0 3 V
stroke 1954 2996 M
0 4 V
0 4 V
0 3 V
0 4 V
0 4 V
0 3 V
0 4 V
0 3 V
0 4 V
0 3 V
0 4 V
0 3 V
0 4 V
0 3 V
0 3 V
0 4 V
0 3 V
0 3 V
0 3 V
0 4 V
0 3 V
0 3 V
0 3 V
0 3 V
0 3 V
0 3 V
1 3 V
0 3 V
0 3 V
0 3 V
0 3 V
6 3 V
0 3 V
0 3 V
0 3 V
4 3 V
0 3 V
0 3 V
0 2 V
0 3 V
0 3 V
0 3 V
0 3 V
0 2 V
0 3 V
0 3 V
0 2 V
0 3 V
0 3 V
0 2 V
0 3 V
0 2 V
0 3 V
0 3 V
0 2 V
0 3 V
0 2 V
0 3 V
0 2 V
0 3 V
0 2 V
0 -5 V
0 3 V
0 -5 V
0 2 V
0 -5 V
0 3 V
0 -5 V
0 2 V
0 -5 V
0 3 V
0 -5 V
0 2 V
0 -5 V
0 3 V
0 -6 V
0 3 V
0 -5 V
0 2 V
0 -5 V
0 3 V
0 -5 V
0 2 V
0 -5 V
0 3 V
0 -6 V
0 3 V
0 -5 V
0 2 V
0 -5 V
0 3 V
0 -6 V
0 3 V
0 -5 V
0 2 V
0 -5 V
0 3 V
0 -6 V
0 3 V
0 -936 V
0 1 V
0 2 V
0 1 V
0 1 V
stroke 1965 2200 M
0 2 V
0 1 V
0 1 V
0 1 V
0 2 V
0 1 V
0 1 V
1 1 V
0 2 V
0 1 V
0 1 V
0 1 V
0 2 V
0 1 V
0 1 V
0 1 V
0 1 V
0 1 V
0 2 V
0 1 V
0 1 V
0 1 V
0 1 V
0 1 V
1 2 V
0 1 V
0 1 V
0 1 V
0 1 V
0 1 V
0 1 V
0 1 V
0 1 V
0 1 V
0 1 V
0 2 V
0 1 V
0 1 V
1 1 V
0 1 V
7 1 V
0 1 V
3 1 V
0 1 V
0 1 V
0 1 V
0 1 V
0 1 V
0 1 V
0 1 V
0 1 V
0 1 V
0 1 V
0 1 V
0 1 V
0 1 V
2 1 V
0 1 V
0 1 V
0 1 V
0 1 V
0 1 V
0 1 V
0 1 V
0 1 V
0 1 V
0 1 V
0 1 V
13 1 V
0 1 V
1 1 V
0 1 V
0 1 V
12 0 V
0 1 V
0 1 V
0 1 V
1 1 V
0 1 V
0 1 V
9 1 V
3 0 V
0 1 V
0 1 V
0 1 V
0 1 V
0 1 V
0 1 V
0 1 V
10 1 V
3 1 V
0 1 V
0 1 V
0 1 V
0 1 V
0 1 V
0 1 V
0 1 V
10 1 V
3 1 V
0 1 V
0 1 V
0 1 V
0 1 V
stroke 2045 2309 M
0 1 V
0 1 V
0 1 V
10 1 V
3 0 V
0 1 V
0 1 V
0 1 V
0 1 V
0 1 V
1 1 V
0 1 V
11 1 V
0 1 V
0 1 V
0 1 V
2 1 V
0 1 V
0 1 V
9 1 V
4 0 V
0 1 V
0 1 V
0 1 V
0 1 V
0 1 V
3 1 V
0 1 V
6 0 V
4 1 V
0 1 V
1 1 V
0 1 V
0 1 V
0 1 V
2 0 V
0 1 V
0 1 V
6 0 V
3 1 V
0 1 V
24 1 V
0 1 V
13 1 V
0 1 V
0 1 V
0 1 V
15 1 V
0 1 V
0 1 V
0 1 V
12 1 V
0 1 V
0 1 V
0 1 V
0 1 V
0 1 V
13 0 V
0 1 V
0 1 V
0 1 V
0 1 V
0 1 V
0 1 V
0 1 V
15 1 V
0 1 V
0 1 V
0 1 V
0 1 V
0 1 V
0 1 V
0 1 V
14 1 V
0 1 V
0 1 V
0 1 V
0 1 V
13 1 V
0 1 V
2 1 V
0 1 V
13 1 V
0 1 V
0 1 V
4 0 V
0 1 V
10 0 V
0 1 V
0 1 V
3 1 V
0 1 V
12 0 V
0 1 V
0 1 V
0 1 V
0 1 V
13 0 V
0 1 V
0 1 V
0 1 V
0 1 V
0 1 V
0 1 V
stroke 2286 2403 M
0 1 V
12 0 V
0 1 V
0 1 V
0 1 V
0 1 V
0 1 V
0 1 V
0 1 V
13 0 V
0 1 V
0 1 V
0 1 V
0 1 V
0 1 V
0 1 V
13 0 V
0 1 V
0 1 V
0 1 V
0 1 V
0 1 V
0 1 V
13 0 V
0 1 V
0 1 V
0 1 V
0 1 V
0 1 V
0 1 V
13 1 V
0 1 V
0 1 V
0 1 V
0 1 V
0 1 V
0 1 V
12 0 V
0 1 V
0 1 V
0 1 V
0 1 V
0 1 V
0 1 V
13 1 V
0 1 V
0 1 V
0 1 V
0 1 V
0 1 V
13 0 V
0 1 V
0 1 V
0 1 V
0 1 V
0 1 V
13 0 V
0 1 V
0 1 V
0 1 V
0 1 V
0 1 V
0 1 V
12 1 V
0 1 V
0 1 V
0 1 V
0 1 V
0 1 V
13 1 V
0 1 V
0 1 V
0 1 V
0 1 V
0 1 V
13 0 V
0 1 V
0 1 V
0 1 V
0 1 V
13 1 V
0 1 V
0 1 V
0 1 V
0 1 V
0 1 V
13 1 V
2 1 V
0 1 V
0 1 V
0 1 V
11 0 V
3 0 V
0 1 V
0 1 V
9 1 V
36 0 V
13 1 V
0 1 V
0 1 V
95 1 V
0 1 V
0 1 V
12 1 V
stroke 2646 2496 M
0 1 V
0 1 V
0 1 V
1 0 V
12 1 V
0 1 V
0 1 V
0 1 V
0 1 V
0 1 V
15 0 V
0 1 V
0 1 V
0 1 V
12 1 V
0 1 V
1 0 V
0 1 V
0 1 V
0 1 V
12 1 V
0 1 V
0 1 V
0 1 V
0 1 V
13 0 V
0 1 V
0 1 V
0 1 V
0 1 V
0 1 V
13 0 V
0 1 V
0 1 V
0 1 V
2 1 V
0 1 V
10 0 V
0 1 V
0 1 V
0 1 V
3 0 V
0 1 V
2 0 V
0 1 V
8 0 V
0 1 V
0 1 V
0 1 V
3 0 V
0 1 V
4 0 V
6 0 V
0 1 V
0 1 V
3 1 V
4 0 V
6 1 V
0 1 V
0 1 V
2 0 V
0 1 V
5 0 V
0 1 V
5 0 V
0 1 V
0 1 V
0 1 V
3 0 V
0 1 V
5 0 V
0 1 V
6 0 V
0 1 V
0 1 V
0 1 V
28 0 V
0 1 V
35 0 V
13 1 V
0 1 V
0 1 V
13 0 V
0 1 V
0 1 V
0 1 V
14 1 V
0 1 V
0 1 V
13 0 V
0 1 V
0 1 V
0 1 V
14 1 V
0 1 V
0 1 V
14 0 V
0 1 V
0 1 V
1 0 V
0 1 V
14 0 V
0 1 V
0 1 V
stroke 2961 2574 M
13 0 V
0 1 V
2 0 V
0 1 V
10 1 V
1 0 V
1 0 V
0 1 V
2 0 V
0 1 V
9 0 V
2 1 V
4 0 V
0 1 V
7 1 V
2 0 V
2 0 V
0 1 V
3 0 V
0 1 V
6 0 V
2 1 V
1 0 V
0 1 V
4 0 V
0 1 V
0 1 V
5 0 V
0 1 V
2 0 V
0 1 V
2 0 V
0 1 V
3 0 V
0 1 V
1 0 V
5 1 V
0 1 V
3 0 V
0 1 V
4 0 V
0 1 V
0 1 V
6 0 V
0 1 V
2 0 V
5 0 V
0 1 V
6 0 V
0 1 V
2 0 V
5 1 V
5 1 V
4 0 V
0 1 V
3 0 V
0 1 V
6 0 V
4 0 V
0 1 V
2 0 V
0 1 V
1 0 V
0 1 V
6 0 V
0 1 V
4 0 V
0 1 V
2 0 V
0 1 V
0 1 V
7 1 V
0 1 V
4 0 V
1 0 V
0 1 V
0 1 V
0 1 V
7 0 V
4 1 V
3 0 V
0 1 V
6 0 V
1 1 V
3 0 V
3 0 V
0 1 V
7 0 V
0 1 V
3 0 V
3 0 V
0 1 V
0 -1802 V
% End plot #4
% Begin plot #5
2.000 UP
stroke
LTb
LT1
0.00 0.00 0.63 C 1460 1246 Circle
1604 2944 Circle
1620 3240 Circle
1637 3413 Circle
1650 3537 Circle
1661 3633 Circle
1689 3711 Circle
1689 3517 Circle
1689 3617 Circle
1711 3698 Circle
1711 3767 Circle
1711 3826 Circle
1711 3877 Circle
1725 3923 Circle
1730 3965 Circle
1741 4002 Circle
1762 4037 Circle
1763 4069 Circle
1776 4099 Circle
1778 4128 Circle
1782 4151 Circle
1794 4176 Circle
1795 4200 Circle
1818 4222 Circle
1818 4244 Circle
1833 4263 Circle
1834 4282 Circle
1837 4301 Circle
1849 4319 Circle
1880 4336 Circle
1880 4352 Circle
1895 4368 Circle
1897 4383 Circle
1908 4397 Circle
1910 4412 Circle
1921 4425 Circle
1923 4439 Circle
1952 2457 Circle
1954 3059 Circle
1966 2218 Circle
2055 2313 Circle
2216 2378 Circle
2337 2429 Circle
2426 2469 Circle
2659 2503 Circle
2750 2533 Circle
2891 2559 Circle
3012 2582 Circle
3092 2603 Circle
3172 2622 Circle
% End plot #5
% Begin plot #6
2.000 UP
1.000 UL
LTb
LT1
0.00 0.00 0.63 C LCb setrgbcolor
4187 153 M
[ [(Arial) 180.0 0.0 true true 0 (per-packet)]
] -60.0 MRshow
2.000 UP
1.000 UL
LTb
LT1
0.00 0.00 0.63 C 1460 1246 Circle
4461 153 Circle
% End plot #6
% Begin plot #7
1.000 UL
LTb
LT3
0.00 0.38 0.82 C 1460 1246 M
13 175 V
12 124 V
13 97 V
0 79 V
13 66 V
0 58 V
0 51 V
13 45 V
0 41 V
0 38 V
0 35 V
14 32 V
0 29 V
0 28 V
0 26 V
0 25 V
0 23 V
15 23 V
0 21 V
0 20 V
0 19 V
0 18 V
0 18 V
0 17 V
0 16 V
0 16 V
14 15 V
0 15 V
0 14 V
0 14 V
0 13 V
0 13 V
0 12 V
0 13 V
0 11 V
0 12 V
0 11 V
0 11 V
0 11 V
0 10 V
12 10 V
0 10 V
0 10 V
0 9 V
0 10 V
0 9 V
0 9 V
0 8 V
0 9 V
0 8 V
0 9 V
0 8 V
0 8 V
0 7 V
0 8 V
0 8 V
1 7 V
0 7 V
0 7 V
0 7 V
0 7 V
12 7 V
0 7 V
0 6 V
0 7 V
0 6 V
0 7 V
0 6 V
0 6 V
0 6 V
0 6 V
0 6 V
0 6 V
0 5 V
0 6 V
0 6 V
0 5 V
0 6 V
0 5 V
0 5 V
0 5 V
0 6 V
0 5 V
0 5 V
0 5 V
0 5 V
0 5 V
0 4 V
0 5 V
0 5 V
0 5 V
0 4 V
15 5 V
0 4 V
0 5 V
0 4 V
0 5 V
0 4 V
0 4 V
0 4 V
0 5 V
0 4 V
0 4 V
0 4 V
stroke 1607 2961 M
0 4 V
0 4 V
0 4 V
0 4 V
0 4 V
0 4 V
0 4 V
0 4 V
0 3 V
0 4 V
0 4 V
0 3 V
0 4 V
0 4 V
0 3 V
0 4 V
0 3 V
0 4 V
0 3 V
0 4 V
0 3 V
0 4 V
0 3 V
1 3 V
0 4 V
0 3 V
0 3 V
0 3 V
0 4 V
0 3 V
0 3 V
0 3 V
0 3 V
0 3 V
0 3 V
37 3 V
0 3 V
0 3 V
0 3 V
0 3 V
0 3 V
0 3 V
0 3 V
0 3 V
0 3 V
0 3 V
0 3 V
0 2 V
0 3 V
0 3 V
0 3 V
0 3 V
0 2 V
0 3 V
0 3 V
0 2 V
0 3 V
0 3 V
0 2 V
22 3 V
0 2 V
0 3 V
0 3 V
0 2 V
0 3 V
0 2 V
0 3 V
0 2 V
0 3 V
0 2 V
0 3 V
0 2 V
0 2 V
0 3 V
0 2 V
0 3 V
0 2 V
0 2 V
0 3 V
0 2 V
0 2 V
0 3 V
0 2 V
0 2 V
0 2 V
0 3 V
0 2 V
0 2 V
0 2 V
0 3 V
0 2 V
0 2 V
0 2 V
0 2 V
0 3 V
0 2 V
0 2 V
0 2 V
0 2 V
0 2 V
0 2 V
0 2 V
0 2 V
0 2 V
stroke 1667 3256 M
0 3 V
0 2 V
0 2 V
0 2 V
0 2 V
0 2 V
0 2 V
0 2 V
0 2 V
0 2 V
0 2 V
0 1 V
0 2 V
0 2 V
0 2 V
0 2 V
0 2 V
0 2 V
0 2 V
0 2 V
0 2 V
0 2 V
21 1 V
0 2 V
0 2 V
0 2 V
0 2 V
0 2 V
0 1 V
0 2 V
0 2 V
0 2 V
0 2 V
0 1 V
0 2 V
0 2 V
0 2 V
0 1 V
0 2 V
0 2 V
0 2 V
0 1 V
0 2 V
0 2 V
0 1 V
0 2 V
0 2 V
0 1 V
0 2 V
0 2 V
0 1 V
0 2 V
0 2 V
0 1 V
0 2 V
0 2 V
0 1 V
0 2 V
0 1 V
0 2 V
0 2 V
0 1 V
0 2 V
0 1 V
0 2 V
0 2 V
0 1 V
0 2 V
0 1 V
0 2 V
0 1 V
0 2 V
0 1 V
0 2 V
0 1 V
0 2 V
0 1 V
0 2 V
0 1 V
0 2 V
0 1 V
0 2 V
0 1 V
0 2 V
0 1 V
0 2 V
0 1 V
0 2 V
0 1 V
0 2 V
0 1 V
0 1 V
0 2 V
0 1 V
0 2 V
0 1 V
0 2 V
0 1 V
0 1 V
0 2 V
0 1 V
1 1 V
0 2 V
0 1 V
stroke 1689 3430 M
0 2 V
21 1 V
0 1 V
0 2 V
0 1 V
0 1 V
0 2 V
22 1 V
0 1 V
0 2 V
0 1 V
0 1 V
0 2 V
0 1 V
0 1 V
0 2 V
0 1 V
0 1 V
0 2 V
0 1 V
0 1 V
0 2 V
0 1 V
0 1 V
0 1 V
0 2 V
0 1 V
0 1 V
0 1 V
0 2 V
0 1 V
0 1 V
0 1 V
0 2 V
0 1 V
0 1 V
0 1 V
0 2 V
0 1 V
0 1 V
0 1 V
0 1 V
0 2 V
0 1 V
0 1 V
0 1 V
0 2 V
0 1 V
0 1 V
0 1 V
0 1 V
0 1 V
0 2 V
0 1 V
0 1 V
0 1 V
0 1 V
0 1 V
0 2 V
0 1 V
0 1 V
0 1 V
0 1 V
0 1 V
0 2 V
0 1 V
0 1 V
0 1 V
0 1 V
0 1 V
0 1 V
0 1 V
0 2 V
0 1 V
0 1 V
0 1 V
0 1 V
0 1 V
0 1 V
0 1 V
0 1 V
0 1 V
0 2 V
0 1 V
0 1 V
0 1 V
0 1 V
0 1 V
0 1 V
0 1 V
0 1 V
0 1 V
0 1 V
0 1 V
0 1 V
0 2 V
0 1 V
0 1 V
0 1 V
0 1 V
0 1 V
0 1 V
0 1 V
0 1 V
stroke 1732 3554 M
0 1 V
0 1 V
0 1 V
0 1 V
0 1 V
0 1 V
0 1 V
0 1 V
0 1 V
0 1 V
0 1 V
0 1 V
0 1 V
0 1 V
0 1 V
0 1 V
0 1 V
0 1 V
0 1 V
21 1 V
0 1 V
0 1 V
0 1 V
0 1 V
0 1 V
0 1 V
0 1 V
0 1 V
0 1 V
0 1 V
0 1 V
0 1 V
0 1 V
0 1 V
0 1 V
0 1 V
0 1 V
0 1 V
0 1 V
0 1 V
0 1 V
0 1 V
0 1 V
0 1 V
0 1 V
0 1 V
0 1 V
0 1 V
0 1 V
0 1 V
0 1 V
0 1 V
0 1 V
0 1 V
0 1 V
0 1 V
0 1 V
0 1 V
0 1 V
0 1 V
0 1 V
0 1 V
0 1 V
0 1 V
0 1 V
0 1 V
0 1 V
0 1 V
0 1 V
0 1 V
0 1 V
0 1 V
0 1 V
0 1 V
0 1 V
0 1 V
0 1 V
0 1 V
0 1 V
0 1 V
0 1 V
0 1 V
0 1 V
0 1 V
0 1 V
0 1 V
0 1 V
0 1 V
0 1 V
0 1 V
0 1 V
0 1 V
0 1 V
0 1 V
0 1 V
0 1 V
0 1 V
0 1 V
0 1 V
0 1 V
0 1 V
0 1 V
0 1 V
0 1 V
stroke 1753 3658 M
0 1 V
0 1 V
0 1 V
0 1 V
0 1 V
0 1 V
0 1 V
0 1 V
0 1 V
0 1 V
0 1 V
0 1 V
0 1 V
0 1 V
0 1 V
0 1 V
0 1 V
0 1 V
0 1 V
0 1 V
0 1 V
0 1 V
0 1 V
0 1 V
2 1 V
0 1 V
0 1 V
0 1 V
0 1 V
1 1 V
0 1 V
0 1 V
0 1 V
0 1 V
0 1 V
0 1 V
0 1 V
0 1 V
0 1 V
0 1 V
0 1 V
0 1 V
0 1 V
0 1 V
0 1 V
1 0 V
0 1 V
0 1 V
0 1 V
0 1 V
0 1 V
0 1 V
0 1 V
0 1 V
0 1 V
0 1 V
0 1 V
1 0 V
0 1 V
0 1 V
0 1 V
0 1 V
0 1 V
0 1 V
30 1 V
0 -296 V
0 1 V
0 1 V
0 2 V
0 1 V
0 2 V
0 1 V
0 1 V
0 2 V
0 1 V
0 1 V
0 2 V
0 1 V
0 1 V
0 2 V
0 1 V
0 1 V
0 2 V
0 1 V
0 1 V
0 2 V
0 1 V
0 1 V
0 2 V
0 1 V
0 1 V
0 2 V
0 1 V
0 1 V
0 1 V
0 2 V
0 1 V
0 1 V
0 1 V
0 2 V
0 1 V
0 1 V
0 1 V
0 2 V
stroke 1788 3475 M
0 1 V
0 1 V
0 1 V
0 2 V
0 1 V
0 1 V
0 1 V
0 1 V
0 2 V
0 1 V
0 1 V
0 1 V
0 2 V
0 1 V
0 1 V
0 1 V
0 1 V
0 1 V
0 2 V
0 1 V
0 1 V
0 1 V
0 1 V
0 1 V
0 2 V
0 1 V
0 1 V
0 1 V
0 1 V
0 1 V
0 2 V
0 1 V
0 1 V
0 1 V
0 1 V
0 1 V
0 1 V
0 1 V
0 2 V
0 1 V
0 1 V
0 1 V
0 1 V
0 1 V
0 1 V
0 1 V
0 1 V
0 1 V
0 2 V
0 1 V
0 1 V
0 1 V
0 1 V
0 1 V
0 1 V
0 1 V
0 1 V
0 1 V
0 1 V
0 1 V
0 1 V
0 2 V
0 1 V
0 1 V
0 1 V
0 1 V
0 1 V
0 1 V
0 1 V
0 1 V
0 1 V
0 1 V
0 1 V
0 1 V
0 1 V
0 1 V
0 1 V
0 1 V
0 1 V
0 1 V
0 1 V
0 1 V
0 1 V
0 1 V
0 1 V
0 1 V
0 1 V
0 1 V
0 1 V
0 1 V
0 1 V
0 1 V
0 1 V
0 1 V
0 1 V
0 1 V
0 1 V
0 1 V
0 1 V
0 1 V
0 1 V
0 1 V
0 1 V
0 1 V
stroke 1788 3588 M
0 1 V
0 1 V
0 1 V
0 1 V
0 1 V
0 1 V
0 1 V
0 1 V
0 1 V
0 1 V
0 1 V
0 1 V
0 1 V
0 1 V
0 1 V
0 1 V
0 1 V
0 1 V
0 1 V
0 1 V
0 1 V
0 1 V
0 1 V
0 1 V
0 1 V
0 1 V
0 1 V
0 1 V
0 1 V
0 1 V
0 1 V
0 1 V
0 1 V
0 1 V
0 1 V
0 1 V
0 1 V
0 1 V
0 1 V
0 1 V
0 1 V
0 1 V
0 1 V
0 1 V
0 1 V
0 1 V
0 1 V
0 1 V
0 1 V
0 1 V
0 1 V
0 1 V
0 1 V
0 1 V
0 1 V
0 1 V
0 1 V
0 1 V
0 1 V
0 1 V
0 1 V
0 1 V
0 1 V
0 1 V
0 1 V
0 1 V
0 1 V
0 1 V
0 1 V
0 1 V
0 1 V
0 1 V
0 1 V
0 1 V
0 1 V
0 1 V
0 1 V
0 1 V
0 1 V
0 1 V
0 1 V
0 1 V
0 1 V
0 1 V
0 1 V
0 1 V
0 1 V
0 1 V
0 1 V
0 1 V
0 1 V
0 1 V
0 1 V
0 1 V
0 1 V
0 1 V
0 1 V
0 1 V
0 1 V
0 1 V
0 1 V
0 1 V
0 1 V
0 1 V
stroke 1788 3692 M
0 1 V
0 1 V
0 1 V
0 1 V
0 1 V
0 1 V
0 1 V
0 1 V
0 1 V
0 1 V
0 1 V
0 1 V
0 1 V
0 1 V
0 1 V
0 1 V
0 1 V
0 1 V
0 1 V
0 1 V
0 1 V
0 1 V
0 1 V
0 1 V
0 1 V
0 1 V
0 1 V
0 1 V
0 1 V
0 1 V
0 1 V
0 1 V
0 1 V
0 1 V
0 1 V
0 1 V
0 1 V
0 1 V
0 1 V
0 1 V
0 1 V
0 1 V
0 1 V
0 1 V
0 1 V
0 1 V
0 1 V
0 1 V
0 1 V
0 1 V
0 1 V
0 1 V
0 1 V
0 1 V
0 1 V
0 1 V
0 1 V
0 1 V
0 1 V
0 1 V
0 1 V
0 1 V
0 1 V
0 1 V
0 1 V
0 1 V
0 1 V
0 1 V
0 1 V
0 1 V
0 1 V
0 1 V
0 1 V
0 1 V
0 1 V
0 1 V
0 1 V
0 1 V
0 1 V
0 1 V
0 1 V
0 1 V
0 1 V
0 1 V
0 1 V
0 1 V
15 1 V
0 1 V
0 1 V
0 1 V
0 1 V
0 1 V
0 1 V
0 1 V
0 1 V
0 1 V
0 1 V
0 1 V
0 1 V
0 1 V
0 1 V
0 1 V
0 1 V
0 1 V
stroke 1803 3796 M
0 1 V
0 1 V
0 1 V
0 1 V
0 1 V
0 1 V
0 1 V
0 1 V
0 1 V
0 1 V
0 -1 V
0 1 V
0 1 V
0 1 V
0 1 V
0 1 V
0 1 V
0 1 V
0 1 V
34 0 V
0 1 V
0 1 V
0 1 V
0 1 V
0 1 V
0 1 V
0 1 V
0 1 V
0 1 V
0 1 V
0 1 V
0 1 V
0 1 V
0 1 V
0 1 V
0 1 V
0 1 V
0 1 V
0 1 V
0 1 V
0 1 V
0 1 V
0 1 V
0 1 V
0 1 V
0 1 V
0 1 V
1 1 V
0 1 V
0 1 V
0 1 V
0 1 V
12 0 V
0 1 V
0 1 V
0 1 V
36 0 V
0 1 V
0 1 V
0 1 V
15 -1 V
0 1 V
0 1 V
0 1 V
0 1 V
13 -1 V
0 1 V
0 1 V
0 1 V
0 1 V
13 0 V
0 1 V
0 1 V
0 1 V
0 1 V
13 0 V
0 1 V
0 1 V
0 1 V
0 1 V
0 1 V
13 0 V
0 1 V
0 1 V
0 1 V
0 1 V
0 1 V
14 0 V
0 1 V
0 1 V
0 1 V
0 1 V
0 1 V
14 0 V
0 1 V
0 1 V
0 1 V
0 1 V
0 1 V
0 1 V
15 0 V
0 1 V
0 1 V
0 1 V
stroke 1996 3885 M
0 1 V
0 1 V
0 1 V
0 1 V
14 -1 V
0 1 V
0 1 V
0 1 V
0 1 V
0 1 V
0 1 V
0 1 V
9 -2949 V
5 300 V
13 175 V
0 124 V
0 97 V
0 79 V
0 66 V
0 58 V
0 51 V
0 45 V
0 41 V
0 38 V
0 35 V
0 32 V
0 29 V
0 28 V
0 26 V
0 25 V
0 23 V
8 23 V
5 21 V
0 20 V
0 19 V
0 18 V
0 18 V
13 17 V
0 16 V
0 16 V
0 15 V
0 15 V
0 14 V
0 14 V
0 13 V
0 13 V
0 12 V
0 13 V
0 11 V
0 12 V
0 11 V
0 11 V
0 11 V
0 10 V
0 10 V
0 10 V
0 10 V
0 9 V
0 10 V
0 9 V
0 9 V
0 8 V
0 9 V
0 8 V
0 9 V
0 8 V
0 8 V
0 7 V
0 8 V
9 8 V
4 7 V
0 7 V
0 7 V
0 7 V
0 7 V
0 7 V
0 7 V
0 6 V
0 7 V
0 6 V
0 7 V
0 6 V
0 6 V
0 6 V
0 6 V
0 6 V
0 6 V
0 5 V
0 6 V
0 6 V
0 5 V
0 6 V
0 5 V
0 5 V
0 5 V
0 6 V
1 5 V
0 5 V
0 5 V
0 5 V
13 5 V
0 4 V
0 5 V
1 5 V
stroke 2091 2900 M
0 5 V
0 4 V
0 5 V
0 4 V
0 5 V
0 4 V
0 5 V
0 4 V
0 4 V
0 4 V
0 5 V
0 4 V
0 4 V
1 4 V
0 4 V
0 4 V
0 4 V
0 4 V
0 4 V
0 4 V
0 4 V
0 4 V
0 3 V
0 4 V
0 4 V
0 3 V
0 4 V
0 4 V
0 3 V
0 4 V
0 3 V
0 4 V
0 3 V
1 4 V
0 3 V
0 4 V
0 3 V
0 3 V
0 4 V
0 3 V
0 3 V
0 3 V
0 4 V
0 3 V
0 3 V
0 3 V
0 3 V
0 3 V
0 3 V
0 3 V
0 3 V
0 3 V
0 3 V
0 3 V
1 3 V
21 3 V
0 3 V
0 3 V
0 3 V
0 3 V
0 3 V
0 2 V
0 3 V
0 -285 V
0 5 V
0 5 V
0 5 V
0 6 V
0 5 V
0 5 V
0 5 V
0 5 V
0 5 V
0 4 V
0 5 V
0 5 V
0 5 V
0 4 V
0 5 V
0 4 V
0 5 V
0 4 V
0 5 V
0 4 V
0 4 V
0 4 V
0 5 V
0 4 V
0 4 V
0 4 V
0 4 V
0 4 V
0 4 V
0 4 V
0 4 V
0 4 V
0 4 V
0 4 V
0 3 V
0 4 V
0 4 V
0 3 V
0 4 V
0 4 V
stroke 2115 3015 M
0 3 V
0 4 V
0 3 V
0 4 V
0 3 V
0 4 V
0 3 V
0 4 V
0 3 V
0 3 V
0 4 V
0 3 V
0 3 V
0 3 V
0 4 V
0 3 V
0 3 V
0 3 V
0 3 V
0 3 V
0 3 V
0 3 V
0 3 V
0 3 V
0 3 V
0 3 V
0 3 V
0 3 V
0 3 V
0 3 V
0 3 V
0 3 V
0 3 V
0 2 V
0 3 V
0 3 V
0 3 V
0 3 V
0 2 V
0 3 V
0 3 V
0 2 V
0 3 V
0 3 V
0 2 V
0 3 V
0 2 V
0 3 V
0 3 V
0 2 V
0 3 V
0 2 V
0 3 V
0 2 V
0 3 V
0 2 V
0 3 V
0 2 V
0 2 V
0 3 V
0 2 V
0 3 V
0 2 V
0 2 V
0 3 V
0 2 V
0 2 V
0 3 V
0 2 V
0 2 V
0 2 V
0 3 V
0 2 V
0 2 V
0 2 V
0 3 V
0 2 V
0 2 V
0 2 V
0 2 V
0 3 V
0 2 V
0 2 V
0 2 V
0 2 V
0 2 V
0 2 V
0 2 V
15 2 V
0 2 V
0 3 V
0 2 V
0 2 V
0 2 V
0 2 V
0 2 V
0 2 V
0 2 V
0 2 V
0 2 V
0 2 V
0 1 V
0 2 V
0 2 V
stroke 2130 3284 M
0 2 V
0 2 V
0 2 V
0 2 V
0 2 V
0 2 V
0 -4 V
0 2 V
0 -4 V
0 2 V
0 -4 V
0 2 V
0 -4 V
0 2 V
0 -4 V
0 2 V
0 -4 V
0 2 V
0 -4 V
0 2 V
0 -3 V
0 1 V
0 -3 V
0 2 V
0 -4 V
0 2 V
0 -4 V
0 2 V
0 -4 V
0 2 V
0 -4 V
0 2 V
0 -4 V
0 2 V
0 -4 V
0 2 V
0 -4 V
0 2 V
0 -4 V
0 2 V
0 -4 V
0 2 V
0 -5 V
0 3 V
0 -5 V
0 2 V
0 -4 V
0 2 V
0 -4 V
0 2 V
0 -4 V
0 2 V
0 -4 V
0 2 V
1 -4 V
0 2 V
0 -4 V
0 2 V
0 -4 V
0 2 V
0 -4 V
0 2 V
0 -5 V
0 3 V
0 -5 V
0 2 V
0 -4 V
0 2 V
0 -4 V
0 2 V
0 -4 V
0 2 V
0 -5 V
0 3 V
0 -5 V
0 2 V
0 -4 V
0 2 V
0 -4 V
0 2 V
0 -5 V
0 3 V
0 -5 V
0 2 V
0 -4 V
0 2 V
0 -4 V
0 2 V
0 -5 V
0 3 V
0 -5 V
0 2 V
0 -4 V
0 2 V
0 -5 V
0 3 V
0 -5 V
0 2 V
0 -4 V
0 2 V
0 -5 V
0 3 V
0 -5 V
0 2 V
stroke 2131 3192 M
2 -5 V
0 3 V
0 -5 V
0 2 V
0 -4 V
0 2 V
0 -5 V
0 3 V
0 -5 V
0 2 V
0 -5 V
0 3 V
0 -5 V
0 2 V
0 -5 V
0 3 V
0 -5 V
0 2 V
0 -5 V
0 3 V
0 -5 V
0 2 V
0 -5 V
0 3 V
0 -6 V
0 3 V
0 -5 V
0 2 V
0 -5 V
0 3 V
0 -5 V
0 2 V
0 -5 V
0 3 V
0 -6 V
0 3 V
0 -5 V
0 2 V
0 -5 V
0 3 V
0 -6 V
0 3 V
0 -5 V
0 2 V
0 -5 V
0 3 V
0 -6 V
0 3 V
0 -6 V
0 3 V
0 -6 V
0 3 V
0 -5 V
0 2 V
0 -5 V
0 3 V
0 -6 V
0 3 V
0 -294 V
1 0 V
0 1 V
1 0 V
7 0 V
0 1 V
1 0 V
0 1 V
3 0 V
0 1 V
1 0 V
1 0 V
1 0 V
21 0 V
1 1 V
12 1 V
1 0 V
0 1 V
12 0 V
0 1 V
0 1 V
1 0 V
12 0 V
0 1 V
0 1 V
0 1 V
1 0 V
12 0 V
0 1 V
0 1 V
1 0 V
12 0 V
0 1 V
1 0 V
12 1 V
1 0 V
1 0 V
0 1 V
10 0 V
4 0 V
0 1 V
1 0 V
8 0 V
4 0 V
1 0 V
0 1 V
stroke 2278 2842 M
1 0 V
7 0 V
0 1 V
4 0 V
1 0 V
2 0 V
0 1 V
6 0 V
3 0 V
6 0 V
0 1 V
3 0 V
27 0 V
0 1 V
13 0 V
0 1 V
1 0 V
33 0 V
13 1 V
0 1 V
1 0 V
11 0 V
1 0 V
0 1 V
0 1 V
14 0 V
0 1 V
14 0 V
0 1 V
14 0 V
1 0 V
0 1 V
22 0 V
0 1 V
14 0 V
0 1 V
13 0 V
0 1 V
0 1 V
12 0 V
0 1 V
1 0 V
0 1 V
12 0 V
0 1 V
1 0 V
0 1 V
12 0 V
0 1 V
1 0 V
37 0 V
0 1 V
34 0 V
0 1 V
22 0 V
21 0 V
0 1 V
13 0 V
2 0 V
1 0 V
0 1 V
10 0 V
1 0 V
1 0 V
0 1 V
2 0 V
9 0 V
0 1 V
1 0 V
5 0 V
0 1 V
10 0 V
2 0 V
2 0 V
0 1 V
8 0 V
2 1 V
3 0 V
2 0 V
6 0 V
0 1 V
5 0 V
29 0 V
1 0 V
0 1 V
12 0 V
1 0 V
0 1 V
1 0 V
11 0 V
0 1 V
1 0 V
12 0 V
0 1 V
1 0 V
12 0 V
0 1 V
24 0 V
13 0 V
2 0 V
0 1 V
11 0 V
0 1 V
1 0 V
stroke 2873 2880 M
3 0 V
9 0 V
0 1 V
27 0 V
0 1 V
13 0 V
0 1 V
1 0 V
11 0 V
0 1 V
1 0 V
1 0 V
12 0 V
0 1 V
34 0 V
14 1 V
1 0 V
0 1 V
1 0 V
11 0 V
1 1 V
12 0 V
0 1 V
1 0 V
13 0 V
0 1 V
22 0 V
0 1 V
13 0 V
0 1 V
1 0 V
12 0 V
0 1 V
34 0 V
14 1 V
23 0 V
22 0 V
0 1 V
13 0 V
0 1 V
1 0 V
11 0 V
1 1 V
5 0 V
7 0 V
0 1 V
1 0 V
5 0 V
7 0 V
0 1 V
1 0 V
0 -2079 V
% End plot #7
% Begin plot #8
2.000 UP
stroke
LTb
LT3
0.00 0.38 0.82 C 1460 1246 TriU
1753 3633 TriU
1788 3774 TriU
2115 3178 TriU
2286 2842 TriU
2736 2873 TriU
3231 2899 TriU
% End plot #8
% Begin plot #9
2.000 UP
1.000 UL
LTb
LT3
0.00 0.38 0.82 C LCb setrgbcolor
5600 153 M
[ [(Arial) 180.0 0.0 true true 0 (per-flow)]
] -60.0 MRshow
2.000 UP
1.000 UL
LTb
LT3
0.00 0.38 0.82 C 1460 1246 TriU
5874 153 TriU
% End plot #9
2.000 UL
LTb
LCb setrgbcolor
1.000 UP
1.000 UL
LTb
0.00 0.00 0.00 C stroke
grestore
end
showpage
%%Trailer
%%DocumentFonts: Arial
