%!PS-Adobe-2.0 EPSF-2.0
%%Title: TcpVegas-cwnd-1Mbps-UE20.eps
%%Creator: gnuplot 5.0 patchlevel 3
%%CreationDate: Tue May 24 14:35:30 2016
%%DocumentFonts: (atend)
%%BoundingBox: 50 50 410 302
%%EndComments
%%BeginProlog
/gnudict 256 dict def
gnudict begin
%
% The following true/false flags may be edited by hand if desired.
% The unit line width and grayscale image gamma correction may also be changed.
%
/Color true def
/Blacktext false def
/Solid false def
/Dashlength 3 def
/Landscape false def
/Level1 false def
/Level3 false def
/Rounded false def
/ClipToBoundingBox false def
/SuppressPDFMark false def
/TransparentPatterns false def
/gnulinewidth 15.000 def
/userlinewidth gnulinewidth def
/Gamma 1.0 def
/BackgroundColor {-1.000 -1.000 -1.000} def
%
/vshift -66 def
/dl1 {
  10.0 Dashlength userlinewidth gnulinewidth div mul mul mul
  Rounded { currentlinewidth 0.75 mul sub dup 0 le { pop 0.01 } if } if
} def
/dl2 {
  10.0 Dashlength userlinewidth gnulinewidth div mul mul mul
  Rounded { currentlinewidth 0.75 mul add } if
} def
/hpt_ 31.5 def
/vpt_ 31.5 def
/hpt hpt_ def
/vpt vpt_ def
/doclip {
  ClipToBoundingBox {
    newpath 50 50 moveto 410 50 lineto 410 302 lineto 50 302 lineto closepath
    clip
  } if
} def
%
% Gnuplot Prolog Version 5.1 (Oct 2015)
%
%/SuppressPDFMark true def
%
/M {moveto} bind def
/L {lineto} bind def
/R {rmoveto} bind def
/V {rlineto} bind def
/N {newpath moveto} bind def
/Z {closepath} bind def
/C {setrgbcolor} bind def
/f {rlineto fill} bind def
/g {setgray} bind def
/Gshow {show} def   % May be redefined later in the file to support UTF-8
/vpt2 vpt 2 mul def
/hpt2 hpt 2 mul def
/Lshow {currentpoint stroke M 0 vshift R 
	Blacktext {gsave 0 setgray textshow grestore} {textshow} ifelse} def
/Rshow {currentpoint stroke M dup stringwidth pop neg vshift R
	Blacktext {gsave 0 setgray textshow grestore} {textshow} ifelse} def
/Cshow {currentpoint stroke M dup stringwidth pop -2 div vshift R 
	Blacktext {gsave 0 setgray textshow grestore} {textshow} ifelse} def
/UP {dup vpt_ mul /vpt exch def hpt_ mul /hpt exch def
  /hpt2 hpt 2 mul def /vpt2 vpt 2 mul def} def
/DL {Color {setrgbcolor Solid {pop []} if 0 setdash}
 {pop pop pop 0 setgray Solid {pop []} if 0 setdash} ifelse} def
/BL {stroke userlinewidth 2 mul setlinewidth
	Rounded {1 setlinejoin 1 setlinecap} if} def
/AL {stroke userlinewidth 2 div setlinewidth
	Rounded {1 setlinejoin 1 setlinecap} if} def
/UL {dup gnulinewidth mul /userlinewidth exch def
	dup 1 lt {pop 1} if 10 mul /udl exch def} def
/PL {stroke userlinewidth setlinewidth
	Rounded {1 setlinejoin 1 setlinecap} if} def
3.8 setmiterlimit
% Classic Line colors (version 5.0)
/LCw {1 1 1} def
/LCb {0 0 0} def
/LCa {0 0 0} def
/LC0 {1 0 0} def
/LC1 {0 1 0} def
/LC2 {0 0 1} def
/LC3 {1 0 1} def
/LC4 {0 1 1} def
/LC5 {1 1 0} def
/LC6 {0 0 0} def
/LC7 {1 0.3 0} def
/LC8 {0.5 0.5 0.5} def
% Default dash patterns (version 5.0)
/LTB {BL [] LCb DL} def
/LTw {PL [] 1 setgray} def
/LTb {PL [] LCb DL} def
/LTa {AL [1 udl mul 2 udl mul] 0 setdash LCa setrgbcolor} def
/LT0 {PL [] LC0 DL} def
/LT1 {PL [2 dl1 3 dl2] LC1 DL} def
/LT2 {PL [1 dl1 1.5 dl2] LC2 DL} def
/LT3 {PL [6 dl1 2 dl2 1 dl1 2 dl2] LC3 DL} def
/LT4 {PL [1 dl1 2 dl2 6 dl1 2 dl2 1 dl1 2 dl2] LC4 DL} def
/LT5 {PL [4 dl1 2 dl2] LC5 DL} def
/LT6 {PL [1.5 dl1 1.5 dl2 1.5 dl1 1.5 dl2 1.5 dl1 6 dl2] LC6 DL} def
/LT7 {PL [3 dl1 3 dl2 1 dl1 3 dl2] LC7 DL} def
/LT8 {PL [2 dl1 2 dl2 2 dl1 6 dl2] LC8 DL} def
/SL {[] 0 setdash} def
/Pnt {stroke [] 0 setdash gsave 1 setlinecap M 0 0 V stroke grestore} def
/Dia {stroke [] 0 setdash 2 copy vpt add M
  hpt neg vpt neg V hpt vpt neg V
  hpt vpt V hpt neg vpt V closepath stroke
  Pnt} def
/Pls {stroke [] 0 setdash vpt sub M 0 vpt2 V
  currentpoint stroke M
  hpt neg vpt neg R hpt2 0 V stroke
 } def
/Box {stroke [] 0 setdash 2 copy exch hpt sub exch vpt add M
  0 vpt2 neg V hpt2 0 V 0 vpt2 V
  hpt2 neg 0 V closepath stroke
  Pnt} def
/Crs {stroke [] 0 setdash exch hpt sub exch vpt add M
  hpt2 vpt2 neg V currentpoint stroke M
  hpt2 neg 0 R hpt2 vpt2 V stroke} def
/TriU {stroke [] 0 setdash 2 copy vpt 1.12 mul add M
  hpt neg vpt -1.62 mul V
  hpt 2 mul 0 V
  hpt neg vpt 1.62 mul V closepath stroke
  Pnt} def
/Star {2 copy Pls Crs} def
/BoxF {stroke [] 0 setdash exch hpt sub exch vpt add M
  0 vpt2 neg V hpt2 0 V 0 vpt2 V
  hpt2 neg 0 V closepath fill} def
/TriUF {stroke [] 0 setdash vpt 1.12 mul add M
  hpt neg vpt -1.62 mul V
  hpt 2 mul 0 V
  hpt neg vpt 1.62 mul V closepath fill} def
/TriD {stroke [] 0 setdash 2 copy vpt 1.12 mul sub M
  hpt neg vpt 1.62 mul V
  hpt 2 mul 0 V
  hpt neg vpt -1.62 mul V closepath stroke
  Pnt} def
/TriDF {stroke [] 0 setdash vpt 1.12 mul sub M
  hpt neg vpt 1.62 mul V
  hpt 2 mul 0 V
  hpt neg vpt -1.62 mul V closepath fill} def
/DiaF {stroke [] 0 setdash vpt add M
  hpt neg vpt neg V hpt vpt neg V
  hpt vpt V hpt neg vpt V closepath fill} def
/Pent {stroke [] 0 setdash 2 copy gsave
  translate 0 hpt M 4 {72 rotate 0 hpt L} repeat
  closepath stroke grestore Pnt} def
/PentF {stroke [] 0 setdash gsave
  translate 0 hpt M 4 {72 rotate 0 hpt L} repeat
  closepath fill grestore} def
/Circle {stroke [] 0 setdash 2 copy
  hpt 0 360 arc stroke Pnt} def
/CircleF {stroke [] 0 setdash hpt 0 360 arc fill} def
/C0 {BL [] 0 setdash 2 copy moveto vpt 90 450 arc} bind def
/C1 {BL [] 0 setdash 2 copy moveto
	2 copy vpt 0 90 arc closepath fill
	vpt 0 360 arc closepath} bind def
/C2 {BL [] 0 setdash 2 copy moveto
	2 copy vpt 90 180 arc closepath fill
	vpt 0 360 arc closepath} bind def
/C3 {BL [] 0 setdash 2 copy moveto
	2 copy vpt 0 180 arc closepath fill
	vpt 0 360 arc closepath} bind def
/C4 {BL [] 0 setdash 2 copy moveto
	2 copy vpt 180 270 arc closepath fill
	vpt 0 360 arc closepath} bind def
/C5 {BL [] 0 setdash 2 copy moveto
	2 copy vpt 0 90 arc
	2 copy moveto
	2 copy vpt 180 270 arc closepath fill
	vpt 0 360 arc} bind def
/C6 {BL [] 0 setdash 2 copy moveto
	2 copy vpt 90 270 arc closepath fill
	vpt 0 360 arc closepath} bind def
/C7 {BL [] 0 setdash 2 copy moveto
	2 copy vpt 0 270 arc closepath fill
	vpt 0 360 arc closepath} bind def
/C8 {BL [] 0 setdash 2 copy moveto
	2 copy vpt 270 360 arc closepath fill
	vpt 0 360 arc closepath} bind def
/C9 {BL [] 0 setdash 2 copy moveto
	2 copy vpt 270 450 arc closepath fill
	vpt 0 360 arc closepath} bind def
/C10 {BL [] 0 setdash 2 copy 2 copy moveto vpt 270 360 arc closepath fill
	2 copy moveto
	2 copy vpt 90 180 arc closepath fill
	vpt 0 360 arc closepath} bind def
/C11 {BL [] 0 setdash 2 copy moveto
	2 copy vpt 0 180 arc closepath fill
	2 copy moveto
	2 copy vpt 270 360 arc closepath fill
	vpt 0 360 arc closepath} bind def
/C12 {BL [] 0 setdash 2 copy moveto
	2 copy vpt 180 360 arc closepath fill
	vpt 0 360 arc closepath} bind def
/C13 {BL [] 0 setdash 2 copy moveto
	2 copy vpt 0 90 arc closepath fill
	2 copy moveto
	2 copy vpt 180 360 arc closepath fill
	vpt 0 360 arc closepath} bind def
/C14 {BL [] 0 setdash 2 copy moveto
	2 copy vpt 90 360 arc closepath fill
	vpt 0 360 arc} bind def
/C15 {BL [] 0 setdash 2 copy vpt 0 360 arc closepath fill
	vpt 0 360 arc closepath} bind def
/Rec {newpath 4 2 roll moveto 1 index 0 rlineto 0 exch rlineto
	neg 0 rlineto closepath} bind def
/Square {dup Rec} bind def
/Bsquare {vpt sub exch vpt sub exch vpt2 Square} bind def
/S0 {BL [] 0 setdash 2 copy moveto 0 vpt rlineto BL Bsquare} bind def
/S1 {BL [] 0 setdash 2 copy vpt Square fill Bsquare} bind def
/S2 {BL [] 0 setdash 2 copy exch vpt sub exch vpt Square fill Bsquare} bind def
/S3 {BL [] 0 setdash 2 copy exch vpt sub exch vpt2 vpt Rec fill Bsquare} bind def
/S4 {BL [] 0 setdash 2 copy exch vpt sub exch vpt sub vpt Square fill Bsquare} bind def
/S5 {BL [] 0 setdash 2 copy 2 copy vpt Square fill
	exch vpt sub exch vpt sub vpt Square fill Bsquare} bind def
/S6 {BL [] 0 setdash 2 copy exch vpt sub exch vpt sub vpt vpt2 Rec fill Bsquare} bind def
/S7 {BL [] 0 setdash 2 copy exch vpt sub exch vpt sub vpt vpt2 Rec fill
	2 copy vpt Square fill Bsquare} bind def
/S8 {BL [] 0 setdash 2 copy vpt sub vpt Square fill Bsquare} bind def
/S9 {BL [] 0 setdash 2 copy vpt sub vpt vpt2 Rec fill Bsquare} bind def
/S10 {BL [] 0 setdash 2 copy vpt sub vpt Square fill 2 copy exch vpt sub exch vpt Square fill
	Bsquare} bind def
/S11 {BL [] 0 setdash 2 copy vpt sub vpt Square fill 2 copy exch vpt sub exch vpt2 vpt Rec fill
	Bsquare} bind def
/S12 {BL [] 0 setdash 2 copy exch vpt sub exch vpt sub vpt2 vpt Rec fill Bsquare} bind def
/S13 {BL [] 0 setdash 2 copy exch vpt sub exch vpt sub vpt2 vpt Rec fill
	2 copy vpt Square fill Bsquare} bind def
/S14 {BL [] 0 setdash 2 copy exch vpt sub exch vpt sub vpt2 vpt Rec fill
	2 copy exch vpt sub exch vpt Square fill Bsquare} bind def
/S15 {BL [] 0 setdash 2 copy Bsquare fill Bsquare} bind def
/D0 {gsave translate 45 rotate 0 0 S0 stroke grestore} bind def
/D1 {gsave translate 45 rotate 0 0 S1 stroke grestore} bind def
/D2 {gsave translate 45 rotate 0 0 S2 stroke grestore} bind def
/D3 {gsave translate 45 rotate 0 0 S3 stroke grestore} bind def
/D4 {gsave translate 45 rotate 0 0 S4 stroke grestore} bind def
/D5 {gsave translate 45 rotate 0 0 S5 stroke grestore} bind def
/D6 {gsave translate 45 rotate 0 0 S6 stroke grestore} bind def
/D7 {gsave translate 45 rotate 0 0 S7 stroke grestore} bind def
/D8 {gsave translate 45 rotate 0 0 S8 stroke grestore} bind def
/D9 {gsave translate 45 rotate 0 0 S9 stroke grestore} bind def
/D10 {gsave translate 45 rotate 0 0 S10 stroke grestore} bind def
/D11 {gsave translate 45 rotate 0 0 S11 stroke grestore} bind def
/D12 {gsave translate 45 rotate 0 0 S12 stroke grestore} bind def
/D13 {gsave translate 45 rotate 0 0 S13 stroke grestore} bind def
/D14 {gsave translate 45 rotate 0 0 S14 stroke grestore} bind def
/D15 {gsave translate 45 rotate 0 0 S15 stroke grestore} bind def
/DiaE {stroke [] 0 setdash vpt add M
  hpt neg vpt neg V hpt vpt neg V
  hpt vpt V hpt neg vpt V closepath stroke} def
/BoxE {stroke [] 0 setdash exch hpt sub exch vpt add M
  0 vpt2 neg V hpt2 0 V 0 vpt2 V
  hpt2 neg 0 V closepath stroke} def
/TriUE {stroke [] 0 setdash vpt 1.12 mul add M
  hpt neg vpt -1.62 mul V
  hpt 2 mul 0 V
  hpt neg vpt 1.62 mul V closepath stroke} def
/TriDE {stroke [] 0 setdash vpt 1.12 mul sub M
  hpt neg vpt 1.62 mul V
  hpt 2 mul 0 V
  hpt neg vpt -1.62 mul V closepath stroke} def
/PentE {stroke [] 0 setdash gsave
  translate 0 hpt M 4 {72 rotate 0 hpt L} repeat
  closepath stroke grestore} def
/CircE {stroke [] 0 setdash 
  hpt 0 360 arc stroke} def
/Opaque {gsave closepath 1 setgray fill grestore 0 setgray closepath} def
/DiaW {stroke [] 0 setdash vpt add M
  hpt neg vpt neg V hpt vpt neg V
  hpt vpt V hpt neg vpt V Opaque stroke} def
/BoxW {stroke [] 0 setdash exch hpt sub exch vpt add M
  0 vpt2 neg V hpt2 0 V 0 vpt2 V
  hpt2 neg 0 V Opaque stroke} def
/TriUW {stroke [] 0 setdash vpt 1.12 mul add M
  hpt neg vpt -1.62 mul V
  hpt 2 mul 0 V
  hpt neg vpt 1.62 mul V Opaque stroke} def
/TriDW {stroke [] 0 setdash vpt 1.12 mul sub M
  hpt neg vpt 1.62 mul V
  hpt 2 mul 0 V
  hpt neg vpt -1.62 mul V Opaque stroke} def
/PentW {stroke [] 0 setdash gsave
  translate 0 hpt M 4 {72 rotate 0 hpt L} repeat
  Opaque stroke grestore} def
/CircW {stroke [] 0 setdash 
  hpt 0 360 arc Opaque stroke} def
/BoxFill {gsave Rec 1 setgray fill grestore} def
/Density {
  /Fillden exch def
  currentrgbcolor
  /ColB exch def /ColG exch def /ColR exch def
  /ColR ColR Fillden mul Fillden sub 1 add def
  /ColG ColG Fillden mul Fillden sub 1 add def
  /ColB ColB Fillden mul Fillden sub 1 add def
  ColR ColG ColB setrgbcolor} def
/BoxColFill {gsave Rec PolyFill} def
/PolyFill {gsave Density fill grestore grestore} def
/h {rlineto rlineto rlineto gsave closepath fill grestore} bind def
%
% PostScript Level 1 Pattern Fill routine for rectangles
% Usage: x y w h s a XX PatternFill
%	x,y = lower left corner of box to be filled
%	w,h = width and height of box
%	  a = angle in degrees between lines and x-axis
%	 XX = 0/1 for no/yes cross-hatch
%
/PatternFill {gsave /PFa [ 9 2 roll ] def
  PFa 0 get PFa 2 get 2 div add PFa 1 get PFa 3 get 2 div add translate
  PFa 2 get -2 div PFa 3 get -2 div PFa 2 get PFa 3 get Rec
  TransparentPatterns {} {gsave 1 setgray fill grestore} ifelse
  clip
  currentlinewidth 0.5 mul setlinewidth
  /PFs PFa 2 get dup mul PFa 3 get dup mul add sqrt def
  0 0 M PFa 5 get rotate PFs -2 div dup translate
  0 1 PFs PFa 4 get div 1 add floor cvi
	{PFa 4 get mul 0 M 0 PFs V} for
  0 PFa 6 get ne {
	0 1 PFs PFa 4 get div 1 add floor cvi
	{PFa 4 get mul 0 2 1 roll M PFs 0 V} for
 } if
  stroke grestore} def
%
/languagelevel where
 {pop languagelevel} {1} ifelse
dup 2 lt
	{/InterpretLevel1 true def
	 /InterpretLevel3 false def}
	{/InterpretLevel1 Level1 def
	 2 gt
	    {/InterpretLevel3 Level3 def}
	    {/InterpretLevel3 false def}
	 ifelse }
 ifelse
%
% PostScript level 2 pattern fill definitions
%
/Level2PatternFill {
/Tile8x8 {/PaintType 2 /PatternType 1 /TilingType 1 /BBox [0 0 8 8] /XStep 8 /YStep 8}
	bind def
/KeepColor {currentrgbcolor [/Pattern /DeviceRGB] setcolorspace} bind def
<< Tile8x8
 /PaintProc {0.5 setlinewidth pop 0 0 M 8 8 L 0 8 M 8 0 L stroke} 
>> matrix makepattern
/Pat1 exch def
<< Tile8x8
 /PaintProc {0.5 setlinewidth pop 0 0 M 8 8 L 0 8 M 8 0 L stroke
	0 4 M 4 8 L 8 4 L 4 0 L 0 4 L stroke}
>> matrix makepattern
/Pat2 exch def
<< Tile8x8
 /PaintProc {0.5 setlinewidth pop 0 0 M 0 8 L
	8 8 L 8 0 L 0 0 L fill}
>> matrix makepattern
/Pat3 exch def
<< Tile8x8
 /PaintProc {0.5 setlinewidth pop -4 8 M 8 -4 L
	0 12 M 12 0 L stroke}
>> matrix makepattern
/Pat4 exch def
<< Tile8x8
 /PaintProc {0.5 setlinewidth pop -4 0 M 8 12 L
	0 -4 M 12 8 L stroke}
>> matrix makepattern
/Pat5 exch def
<< Tile8x8
 /PaintProc {0.5 setlinewidth pop -2 8 M 4 -4 L
	0 12 M 8 -4 L 4 12 M 10 0 L stroke}
>> matrix makepattern
/Pat6 exch def
<< Tile8x8
 /PaintProc {0.5 setlinewidth pop -2 0 M 4 12 L
	0 -4 M 8 12 L 4 -4 M 10 8 L stroke}
>> matrix makepattern
/Pat7 exch def
<< Tile8x8
 /PaintProc {0.5 setlinewidth pop 8 -2 M -4 4 L
	12 0 M -4 8 L 12 4 M 0 10 L stroke}
>> matrix makepattern
/Pat8 exch def
<< Tile8x8
 /PaintProc {0.5 setlinewidth pop 0 -2 M 12 4 L
	-4 0 M 12 8 L -4 4 M 8 10 L stroke}
>> matrix makepattern
/Pat9 exch def
/Pattern1 {PatternBgnd KeepColor Pat1 setpattern} bind def
/Pattern2 {PatternBgnd KeepColor Pat2 setpattern} bind def
/Pattern3 {PatternBgnd KeepColor Pat3 setpattern} bind def
/Pattern4 {PatternBgnd KeepColor Landscape {Pat5} {Pat4} ifelse setpattern} bind def
/Pattern5 {PatternBgnd KeepColor Landscape {Pat4} {Pat5} ifelse setpattern} bind def
/Pattern6 {PatternBgnd KeepColor Landscape {Pat9} {Pat6} ifelse setpattern} bind def
/Pattern7 {PatternBgnd KeepColor Landscape {Pat8} {Pat7} ifelse setpattern} bind def
} def
%
%
%End of PostScript Level 2 code
%
/PatternBgnd {
  TransparentPatterns {} {gsave 1 setgray fill grestore} ifelse
} def
%
% Substitute for Level 2 pattern fill codes with
% grayscale if Level 2 support is not selected.
%
/Level1PatternFill {
/Pattern1 {0.250 Density} bind def
/Pattern2 {0.500 Density} bind def
/Pattern3 {0.750 Density} bind def
/Pattern4 {0.125 Density} bind def
/Pattern5 {0.375 Density} bind def
/Pattern6 {0.625 Density} bind def
/Pattern7 {0.875 Density} bind def
} def
%
% Now test for support of Level 2 code
%
Level1 {Level1PatternFill} {Level2PatternFill} ifelse
%
/Symbol-Oblique /Symbol findfont [1 0 .167 1 0 0] makefont
dup length dict begin {1 index /FID eq {pop pop} {def} ifelse} forall
currentdict end definefont pop
%
/MFshow {
   { dup 5 get 3 ge
     { 5 get 3 eq {gsave} {grestore} ifelse }
     {dup dup 0 get findfont exch 1 get scalefont setfont
     [ currentpoint ] exch dup 2 get 0 exch R dup 5 get 2 ne {dup dup 6
     get exch 4 get {textshow} {stringwidth pop 0 R} ifelse }if dup 5 get 0 eq
     {dup 3 get {2 get neg 0 exch R pop} {pop aload pop M} ifelse} {dup 5
     get 1 eq {dup 2 get exch dup 3 get exch 6 get stringwidth pop -2 div
     dup 0 R} {dup 6 get stringwidth pop -2 div 0 R 6 get
     textshow 2 index {aload pop M neg 3 -1 roll neg R pop pop} {pop pop pop
     pop aload pop M} ifelse }ifelse }ifelse }
     ifelse }
   forall} def
/Gswidth {dup type /stringtype eq {stringwidth} {pop (n) stringwidth} ifelse} def
/MFwidth {0 exch { dup 5 get 3 ge { 5 get 3 eq { 0 } { pop } ifelse }
 {dup 3 get{dup dup 0 get findfont exch 1 get scalefont setfont
     6 get Gswidth pop add} {pop} ifelse} ifelse} forall} def
/MLshow { currentpoint stroke M
  0 exch R
  Blacktext {gsave 0 setgray MFshow grestore} {MFshow} ifelse } bind def
/MRshow { currentpoint stroke M
  exch dup MFwidth neg 3 -1 roll R
  Blacktext {gsave 0 setgray MFshow grestore} {MFshow} ifelse } bind def
/MCshow { currentpoint stroke M
  exch dup MFwidth -2 div 3 -1 roll R
  Blacktext {gsave 0 setgray MFshow grestore} {MFshow} ifelse } bind def
/XYsave    { [( ) 1 2 true false 3 ()] } bind def
/XYrestore { [( ) 1 2 true false 4 ()] } bind def
Level1 SuppressPDFMark or 
{} {
/SDict 10 dict def
systemdict /pdfmark known not {
  userdict /pdfmark systemdict /cleartomark get put
} if
SDict begin [
  /Title (TcpVegas-cwnd-1Mbps-UE20.eps)
  /Subject (gnuplot plot)
  /Creator (gnuplot 5.0 patchlevel 3)
  /Author (nat)
%  /Producer (gnuplot)
%  /Keywords ()
  /CreationDate (Tue May 24 14:35:30 2016)
  /DOCINFO pdfmark
end
} ifelse
%
% Support for boxed text - Ethan A Merritt May 2005
%
/InitTextBox { userdict /TBy2 3 -1 roll put userdict /TBx2 3 -1 roll put
           userdict /TBy1 3 -1 roll put userdict /TBx1 3 -1 roll put
	   /Boxing true def } def
/ExtendTextBox { Boxing
    { gsave dup false charpath pathbbox
      dup TBy2 gt {userdict /TBy2 3 -1 roll put} {pop} ifelse
      dup TBx2 gt {userdict /TBx2 3 -1 roll put} {pop} ifelse
      dup TBy1 lt {userdict /TBy1 3 -1 roll put} {pop} ifelse
      dup TBx1 lt {userdict /TBx1 3 -1 roll put} {pop} ifelse
      grestore } if } def
/PopTextBox { newpath TBx1 TBxmargin sub TBy1 TBymargin sub M
               TBx1 TBxmargin sub TBy2 TBymargin add L
	       TBx2 TBxmargin add TBy2 TBymargin add L
	       TBx2 TBxmargin add TBy1 TBymargin sub L closepath } def
/DrawTextBox { PopTextBox stroke /Boxing false def} def
/FillTextBox { gsave PopTextBox 1 1 1 setrgbcolor fill grestore /Boxing false def} def
0 0 0 0 InitTextBox
/TBxmargin 20 def
/TBymargin 20 def
/Boxing false def
/textshow { ExtendTextBox Gshow } def
%
% redundant definitions for compatibility with prologue.ps older than 5.0.2
/LTB {BL [] LCb DL} def
/LTb {PL [] LCb DL} def
end
%%EndProlog
%%Page: 1 1
gnudict begin
gsave
doclip
50 50 translate
0.050 0.050 scale
0 setgray
newpath
(Arial) findfont 200 scalefont setfont
BackgroundColor 0 lt 3 1 roll 0 lt exch 0 lt or or not {BackgroundColor C 1.000 0 0 7200.00 5040.00 BoxColFill} if
1.000 UL
LTb
0.00 0.00 0.00 C 0.500 UL
LTa
0.50 0.50 0.50 C 980 820 M
5859 0 V
stroke
1.000 UL
LTb
0.00 0.00 0.00 C 980 820 M
63 0 V
5796 0 R
-63 0 V
stroke
860 820 M
[ [(Arial) 200.0 0.0 true true 0 ( 1)]
] -66.7 MRshow
1.000 UL
LTb
0.00 0.00 0.00 C 980 1419 M
31 0 V
5828 0 R
-31 0 V
980 1769 M
31 0 V
5828 0 R
-31 0 V
980 2018 M
31 0 V
5828 0 R
-31 0 V
980 2211 M
31 0 V
5828 0 R
-31 0 V
980 2368 M
31 0 V
5828 0 R
-31 0 V
980 2501 M
31 0 V
5828 0 R
-31 0 V
980 2617 M
31 0 V
5828 0 R
-31 0 V
980 2718 M
31 0 V
5828 0 R
-31 0 V
stroke
0.500 UL
LTa
0.50 0.50 0.50 C 980 2810 M
5859 0 V
stroke
1.000 UL
LTb
0.00 0.00 0.00 C 980 2810 M
63 0 V
5796 0 R
-63 0 V
stroke
860 2810 M
[ [(Arial) 200.0 0.0 true true 0 ( 10)]
] -66.7 MRshow
1.000 UL
LTb
0.00 0.00 0.00 C 980 3408 M
31 0 V
5828 0 R
-31 0 V
980 3759 M
31 0 V
5828 0 R
-31 0 V
980 4007 M
31 0 V
5828 0 R
-31 0 V
980 4200 M
31 0 V
5828 0 R
-31 0 V
980 4358 M
31 0 V
5828 0 R
-31 0 V
980 4491 M
31 0 V
5828 0 R
-31 0 V
980 4606 M
31 0 V
5828 0 R
-31 0 V
980 4708 M
31 0 V
5828 0 R
-31 0 V
stroke
0.500 UL
LTa
0.50 0.50 0.50 C 980 4799 M
5859 0 V
stroke
1.000 UL
LTb
0.00 0.00 0.00 C 980 4799 M
63 0 V
5796 0 R
-63 0 V
stroke
860 4799 M
[ [(Arial) 200.0 0.0 true true 0 ( 100)]
] -66.7 MRshow
1.000 UL
LTb
0.00 0.00 0.00 C 0.500 UL
LTa
0.50 0.50 0.50 C 1095 820 M
0 3979 V
stroke
1.000 UL
LTb
0.00 0.00 0.00 C 1095 820 M
0 63 V
0 3916 R
0 -63 V
stroke
1095 620 M
[ [(Arial) 200.0 0.0 true true 0 ( 5)]
] -66.7 MCshow
1.000 UL
LTb
0.00 0.00 0.00 C 0.500 UL
LTa
0.50 0.50 0.50 C 1669 820 M
0 3979 V
stroke
1.000 UL
LTb
0.00 0.00 0.00 C 1669 820 M
0 63 V
0 3916 R
0 -63 V
stroke
1669 620 M
[ [(Arial) 200.0 0.0 true true 0 ( 10)]
] -66.7 MCshow
1.000 UL
LTb
0.00 0.00 0.00 C 0.500 UL
LTa
0.50 0.50 0.50 C 2244 820 M
0 3979 V
stroke
1.000 UL
LTb
0.00 0.00 0.00 C 2244 820 M
0 63 V
0 3916 R
0 -63 V
stroke
2244 620 M
[ [(Arial) 200.0 0.0 true true 0 ( 15)]
] -66.7 MCshow
1.000 UL
LTb
0.00 0.00 0.00 C 0.500 UL
LTa
0.50 0.50 0.50 C 2818 820 M
0 3979 V
stroke
1.000 UL
LTb
0.00 0.00 0.00 C 2818 820 M
0 63 V
0 3916 R
0 -63 V
stroke
2818 620 M
[ [(Arial) 200.0 0.0 true true 0 ( 20)]
] -66.7 MCshow
1.000 UL
LTb
0.00 0.00 0.00 C 0.500 UL
LTa
0.50 0.50 0.50 C 3393 820 M
0 3979 V
stroke
1.000 UL
LTb
0.00 0.00 0.00 C 3393 820 M
0 63 V
0 3916 R
0 -63 V
stroke
3393 620 M
[ [(Arial) 200.0 0.0 true true 0 ( 25)]
] -66.7 MCshow
1.000 UL
LTb
0.00 0.00 0.00 C 0.500 UL
LTa
0.50 0.50 0.50 C 3967 820 M
0 3979 V
stroke
1.000 UL
LTb
0.00 0.00 0.00 C 3967 820 M
0 63 V
0 3916 R
0 -63 V
stroke
3967 620 M
[ [(Arial) 200.0 0.0 true true 0 ( 30)]
] -66.7 MCshow
1.000 UL
LTb
0.00 0.00 0.00 C 0.500 UL
LTa
0.50 0.50 0.50 C 4541 820 M
0 3979 V
stroke
1.000 UL
LTb
0.00 0.00 0.00 C 4541 820 M
0 63 V
0 3916 R
0 -63 V
stroke
4541 620 M
[ [(Arial) 200.0 0.0 true true 0 ( 35)]
] -66.7 MCshow
1.000 UL
LTb
0.00 0.00 0.00 C 0.500 UL
LTa
0.50 0.50 0.50 C 5116 820 M
0 3979 V
stroke
1.000 UL
LTb
0.00 0.00 0.00 C 5116 820 M
0 63 V
0 3916 R
0 -63 V
stroke
5116 620 M
[ [(Arial) 200.0 0.0 true true 0 ( 40)]
] -66.7 MCshow
1.000 UL
LTb
0.00 0.00 0.00 C 0.500 UL
LTa
0.50 0.50 0.50 C 5690 820 M
0 3979 V
stroke
1.000 UL
LTb
0.00 0.00 0.00 C 5690 820 M
0 63 V
0 3916 R
0 -63 V
stroke
5690 620 M
[ [(Arial) 200.0 0.0 true true 0 ( 45)]
] -66.7 MCshow
1.000 UL
LTb
0.00 0.00 0.00 C 0.500 UL
LTa
0.50 0.50 0.50 C 6265 820 M
0 3979 V
stroke
1.000 UL
LTb
0.00 0.00 0.00 C 6265 820 M
0 63 V
0 3916 R
0 -63 V
stroke
6265 620 M
[ [(Arial) 200.0 0.0 true true 0 ( 50)]
] -66.7 MCshow
1.000 UL
LTb
0.00 0.00 0.00 C 0.500 UL
LTa
0.50 0.50 0.50 C 6839 820 M
0 3979 V
stroke
1.000 UL
LTb
0.00 0.00 0.00 C 6839 820 M
0 63 V
0 3916 R
0 -63 V
stroke
6839 620 M
[ [(Arial) 200.0 0.0 true true 0 ( 55)]
] -66.7 MCshow
1.000 UL
LTb
0.00 0.00 0.00 C 1.000 UL
LTB
0.00 0.00 0.00 C 980 4799 M
980 820 L
5859 0 V
0 3979 R
-5859 0 R
1.000 UP
stroke
LTb
0.00 0.00 0.00 C LCb setrgbcolor
160 2809 M
currentpoint gsave translate -270 rotate 0 0 moveto
[ [(Arial) 200.0 0.0 true true 0 (cWnd \(KB\))]
] -66.7 MCshow
grestore
LTb
LCb setrgbcolor
3909 320 M
[ [(Arial) 200.0 0.0 true true 0 (Time \(s\))]
] -66.7 MCshow
LTb
% Begin plot #1
1.000 UL
LTa
0.60 0.60 0.00 C 1099 1672 M
4 350 V
4 249 V
4 192 V
0 158 V
3 133 V
0 116 V
0 101 V
4 91 V
0 83 V
0 75 V
0 69 V
4 64 V
0 60 V
0 55 V
0 53 V
0 49 V
0 47 V
4 44 V
0 -44 V
36 -47 V
12 47 V
4 44 V
3 42 V
4 41 V
4 38 V
5 37 V
8 35 V
19 34 V
4 -34 V
0 -35 V
8 35 V
4 34 V
4 33 V
4 31 V
3 30 V
4 30 V
1367 1073 L
16 599 V
4 350 V
5 249 V
4 192 V
0 158 V
4 133 V
0 116 V
0 101 V
4 91 V
0 83 V
0 75 V
0 69 V
5 64 V
0 60 V
0 55 V
0 53 V
0 49 V
0 47 V
3 44 V
0 -140 V
12 49 V
1539 1073 L
16 599 V
4 350 V
4 249 V
4 192 V
0 158 V
4 133 V
0 116 V
0 101 V
4 91 V
0 83 V
0 75 V
0 69 V
4 64 V
0 60 V
0 55 V
8 53 V
0 49 V
3 47 V
6 44 V
19 -44 V
0 -47 V
21 -49 V
0 -53 V
4 -55 V
45 -60 V
11 60 V
4 55 V
4 53 V
5 49 V
8 47 V
0 44 V
4 42 V
4 41 V
4 38 V
8 37 V
4 35 V
4 34 V
1860 1073 L
15 599 V
4 350 V
5 249 V
4 192 V
0 158 V
4 133 V
0 116 V
0 101 V
4 91 V
0 83 V
0 75 V
0 69 V
3 64 V
0 60 V
0 55 V
0 53 V
0 49 V
0 47 V
5 44 V
8 42 V
4 41 V
4 38 V
39 37 V
4 1 V
0 -38 V
4 37 V
20 -37 V
3 -38 V
8 38 V
4 37 V
4 35 V
4 34 V
4 33 V
4 31 V
4 30 V
4 30 V
3 28 V
4 27 V
4 27 V
4 26 V
4 25 V
4 24 V
4 24 V
4 23 V
4 22 V
4 22 V
4 22 V
0 20 V
3 21 V
4 20 V
4 19 V
4 19 V
4 19 V
4 18 V
4 18 V
4 17 V
5 17 V
3 17 V
4 16 V
20 16 V
4 -16 V
4 16 V
27 -16 V
5 -16 V
5 -17 V
6 -17 V
3 -17 V
25 17 V
23 -17 V
47 0 V
4 0 V
4 -18 V
23 -18 V
6 -19 V
7 19 V
4 18 V
20 -18 V
0 -19 V
27 -19 V
5 -19 V
8 19 V
16 19 V
4 -19 V
39 -19 V
4 -20 V
2 -21 V
18 -20 V
4 -22 V
36 -22 V
5 -22 V
8 -23 V
5 -24 V
18 -24 V
5 -25 V
19 -26 V
4 1 V
8 25 V
4 25 V
9 -25 V
20 -26 V
0 -27 V
20 -27 V
0 -28 V
4 -30 V
stroke 2641 3982 M
7 30 V
4 28 V
4 27 V
4 27 V
4 26 V
19 25 V
0 -25 V
4 -26 V
4 26 V
4 25 V
104 -25 V
20 -26 V
0 -27 V
19 -27 V
0 -28 V
4 -30 V
12 -30 V
20 1 V
4 1 V
4 28 V
4 30 V
0 -3192 V
% End plot #1
% Begin plot #2
2.000 UP
stroke
LTa
0.60 0.60 0.00 C 1099 1672 Box
% End plot #2
% Begin plot #3
2.000 UP
1.000 UL
LTa
0.60 0.60 0.00 C LCb setrgbcolor
2654 153 M
[ [(Arial) 180.0 0.0 true true 0 (olsr)]
] -60.0 MRshow
2.000 UP
1.000 UL
LTa
0.60 0.60 0.00 C 2762 153 M
333 0 V
1099 1672 M
1099 1672 Box
2928 153 Box
% End plot #3
% Begin plot #4
1.000 UL
LTb
LT1
0.00 0.00 0.63 C 1099 1672 M
4 350 V
4 249 V
4 192 V
0 158 V
0 133 V
4 116 V
0 101 V
0 91 V
0 83 V
4 75 V
0 69 V
0 64 V
0 60 V
4 55 V
0 53 V
0 49 V
1 47 V
0 44 V
0 42 V
2 41 V
0 38 V
2 37 V
1 35 V
0 -72 V
19 -38 V
10 -41 V
24 -42 V
13 -44 V
13 44 V
15 42 V
0 -42 V
0 42 V
0 -235 V
0 53 V
0 -376 V
0 75 V
1 -158 V
0 83 V
0 -174 V
0 91 V
0 -91 V
0 91 V
0 -192 V
0 101 V
3 -101 V
0 101 V
0 174 V
0 75 V
1 69 V
3 64 V
0 60 V
0 55 V
0 53 V
0 49 V
4 91 V
0 -44 V
0 44 V
0 42 V
0 -133 V
0 47 V
0 44 V
15 -1198 V
0 158 V
0 133 V
0 116 V
0 101 V
0 91 V
4 83 V
0 75 V
0 69 V
0 64 V
4 60 V
0 -268 V
8 75 V
4 69 V
9 64 V
0 -208 V
0 75 V
1 -249 V
0 91 V
0 -192 V
0 101 V
0 -101 V
0 101 V
0 -101 V
0 101 V
0 -217 V
0 116 V
3 -249 V
0 133 V
0 217 V
0 91 V
20 83 V
4 75 V
4 69 V
2 64 V
2 60 V
8 55 V
3 53 V
8 49 V
7 47 V
4 44 V
4 42 V
12 41 V
stroke 1361 3744 M
29 -41 V
0 -64 V
0 44 V
0 -44 V
0 44 V
0 -44 V
0 44 V
0 -44 V
0 44 V
0 -89 V
0 45 V
0 -93 V
0 48 V
0 -211 V
0 58 V
0 -258 V
0 72 V
4 -150 V
0 78 V
0 -165 V
0 87 V
0 -183 V
0 96 V
0 87 V
0 40 V
0 75 V
1 69 V
3 64 V
0 60 V
0 55 V
0 53 V
40 -53 V
4 4 V
47 3 V
8 -62 V
6 108 V
0 49 V
0 -102 V
0 53 V
0 -168 V
0 60 V
2 -124 V
0 64 V
1 -133 V
0 69 V
0 64 V
0 -133 V
0 69 V
0 -318 V
0 91 V
1 158 V
2 69 V
0 64 V
51 60 V
12 4 V
3 51 V
34 -55 V
24 55 V
20 53 V
0 49 V
0 -49 V
0 49 V
0 -49 V
0 49 V
0 -425 V
0 75 V
0 -158 V
0 83 V
0 -275 V
0 101 V
4 -101 V
0 101 V
0 174 V
0 75 V
0 69 V
0 64 V
36 4 V
0 115 V
0 52 V
0 50 V
0 46 V
0 -96 V
0 50 V
0 -280 V
0 63 V
0 -63 V
0 63 V
0 -132 V
0 69 V
4 -144 V
0 75 V
0 -157 V
0 82 V
0 -82 V
0 82 V
0 139 V
0 64 V
1823 1073 L
16 599 V
4 350 V
4 249 V
4 192 V
0 158 V
4 133 V
0 116 V
0 101 V
0 91 V
4 83 V
0 75 V
0 69 V
4 64 V
8 60 V
29 55 V
5 -179 V
0 64 V
0 -64 V
0 64 V
0 -133 V
0 69 V
0 -144 V
0 75 V
0 -249 V
0 91 V
5 -192 V
0 101 V
0 91 V
0 -192 V
0 101 V
0 91 V
0 -91 V
0 91 V
0 158 V
0 133 V
0 -64 V
0 64 V
0 -133 V
0 69 V
4 -144 V
0 75 V
0 -75 V
0 75 V
0 69 V
0 64 V
0 -208 V
0 75 V
0 -249 V
0 91 V
0 83 V
8 75 V
29 69 V
7 5 V
9 59 V
0 -64 V
0 64 V
0 -208 V
0 75 V
0 -249 V
0 91 V
0 -192 V
0 101 V
4 -217 V
0 116 V
0 -249 V
0 133 V
0 217 V
0 91 V
0 83 V
24 75 V
4 6 V
23 6 V
0 6 V
36 5 V
20 46 V
16 64 V
4 60 V
8 55 V
36 4 V
46 3 V
16 -62 V
18 -60 V
13 62 V
0 -439 V
0 90 V
2 -191 V
0 101 V
0 -216 V
0 115 V
0 -247 V
0 132 V
2 -132 V
0 132 V
0 115 V
0 -247 V
0 132 V
13 211 V
0 91 V
0 83 V
0 75 V
5 69 V
0 -69 V
4 -75 V
39 7 V
stroke 2300 3152 M
4 7 V
48 7 V
31 6 V
5 -110 V
47 9 V
6 -100 V
17 -101 V
13 13 V
1 13 V
22 12 V
0 63 V
4 91 V
21 9 V
6 8 V
26 9 V
5 -117 V
28 11 V
59 10 V
5 125 V
0 77 V
0 -77 V
0 77 V
0 -163 V
0 86 V
0 -180 V
0 94 V
0 -321 V
0 121 V
4 -262 V
0 141 V
0 121 V
8 14 V
8 198 V
0 84 V
0 -84 V
0 84 V
0 -282 V
0 105 V
0 -361 V
0 137 V
40 19 V
4 18 V
33 107 V
3 101 V
4 91 V
4 83 V
4 75 V
8 69 V
0 -69 V
0 69 V
2 -318 V
0 91 V
0 -192 V
0 101 V
0 -101 V
0 101 V
0 -217 V
0 116 V
2 -116 V
0 116 V
0 -116 V
0 116 V
0 101 V
8 91 V
2 83 V
4 75 V
4 69 V
16 64 V
11 60 V
26 4 V
23 3 V
0 -52 V
0 59 V
0 -263 V
0 74 V
0 -74 V
0 74 V
2 -154 V
0 80 V
2 -169 V
0 89 V
0 80 V
0 -80 V
0 80 V
0 74 V
0 -74 V
16 56 V
9 133 V
0 60 V
0 -351 V
0 83 V
0 -174 V
0 91 V
0 -192 V
0 101 V
0 -350 V
0 133 V
4 -133 V
0 133 V
0 217 V
0 91 V
0 158 V
0 69 V
0 -144 V
stroke 2899 3145 M
0 75 V
0 -158 V
0 83 V
4 75 V
0 -466 V
0 116 V
0 101 V
21 11 V
8 10 V
8 70 V
4 83 V
4 75 V
3 69 V
12 64 V
4 60 V
8 55 V
21 4 V
12 49 V
11 49 V
14 47 V
4 44 V
23 -44 V
0 -47 V
0 -157 V
0 55 V
0 -55 V
0 55 V
0 -115 V
0 60 V
0 -124 V
0 64 V
0 -291 V
0 83 V
4 -174 V
0 91 V
0 -308 V
0 116 V
0 -249 V
0 133 V
0 116 V
0 101 V
0 174 V
0 75 V
0 -75 V
0 75 V
0 -75 V
0 75 V
4 69 V
0 -69 V
0 69 V
0 -144 V
0 75 V
2 -75 V
0 75 V
0 69 V
0 -69 V
0 69 V
0 -144 V
0 75 V
0 -350 V
39 13 V
16 88 V
4 11 V
4 80 V
4 83 V
4 75 V
7 69 V
33 5 V
66 59 V
19 60 V
24 -45 V
0 -472 V
0 99 V
0 -99 V
0 99 V
0 -339 V
0 129 V
4 -279 V
0 150 V
0 129 V
0 -279 V
0 150 V
0 214 V
0 192 V
4 83 V
0 75 V
0 -249 V
0 91 V
0 -192 V
0 101 V
0 91 V
0 -308 V
0 116 V
0 -116 V
0 116 V
4 -116 V
5 116 V
4 13 V
16 179 V
0 -441 V
0 133 V
0 -291 V
0 158 V
4 -158 V
stroke 3331 2463 M
0 158 V
0 -350 V
0 192 V
0 158 V
0 133 V
8 116 V
4 101 V
8 91 V
7 83 V
44 7 V
4 7 V
21 61 V
7 69 V
4 5 V
25 59 V
10 60 V
4 55 V
21 53 V
20 49 V
56 47 V
12 44 V
4 -91 V
0 47 V
0 -96 V
0 49 V
0 -49 V
0 49 V
0 -49 V
0 49 V
0 -102 V
0 53 V
1 -168 V
0 60 V
0 -124 V
0 64 V
0 -291 V
0 83 V
3 -83 V
0 83 V
0 -174 V
0 91 V
0 158 V
0 133 V
0 60 V
0 55 V
0 -55 V
0 55 V
0 53 V
0 -53 V
0 53 V
0 -108 V
0 55 V
4 53 V
0 -108 V
0 55 V
0 53 V
0 -53 V
0 53 V
0 49 V
0 -102 V
0 53 V
0 -108 V
0 55 V
0 -323 V
4 144 V
0 64 V
0 60 V
0 -60 V
0 60 V
0 -268 V
0 75 V
0 -158 V
0 83 V
0 -391 V
0 116 V
4 192 V
0 158 V
0 -158 V
0 83 V
4 -174 V
0 91 V
0 -308 V
0 116 V
0 -599 V
0 192 V
0 291 V
0 116 V
4 101 V
4 91 V
0 83 V
7 75 V
4 6 V
20 63 V
8 -17 V
0 -232 V
0 85 V
1 -283 V
0 105 V
0 -224 V
0 119 V
3 -258 V
0 139 V
0 119 V
0 -119 V
stroke 3661 2723 M
0 119 V
0 105 V
0 24 V
1 174 V
3 75 V
0 69 V
0 -318 V
0 91 V
0 -91 V
0 91 V
0 -192 V
0 101 V
0 -350 V
0 133 V
1 116 V
6 101 V
4 91 V
4 83 V
4 75 V
16 69 V
16 -17 V
0 66 V
0 -66 V
0 66 V
0 -298 V
0 85 V
0 -283 V
0 105 V
0 -224 V
0 119 V
2 -258 V
0 139 V
1 -304 V
0 165 V
0 170 V
0 116 V
3 101 V
1 91 V
0 83 V
8 75 V
4 69 V
8 64 V
8 60 V
8 55 V
3 53 V
4 49 V
4 -75 V
0 51 V
0 48 V
0 45 V
0 -45 V
0 45 V
0 -456 V
0 72 V
0 -237 V
0 87 V
4 -183 V
0 96 V
0 -646 V
0 174 V
0 208 V
0 116 V
4 101 V
0 91 V
0 83 V
0 75 V
4 69 V
0 64 V
16 60 V
7 82 V
0 51 V
0 -363 V
0 72 V
0 -72 V
0 72 V
0 -150 V
0 78 V
4 -78 V
0 78 V
0 -165 V
0 87 V
16 115 V
0 69 V
0 64 V
4 4 V
3955 1073 L
16 599 V
4 350 V
4 249 V
4 192 V
0 158 V
4 133 V
0 116 V
4 101 V
0 91 V
0 83 V
0 75 V
4106 1073 L
15 599 V
4 350 V
4 249 V
0 192 V
4 158 V
0 133 V
4 116 V
0 101 V
0 91 V
0 83 V
17 7 V
7 143 V
0 64 V
0 -64 V
0 64 V
0 -289 V
0 82 V
0 -172 V
0 90 V
0 -191 V
0 101 V
5 90 V
0 82 V
0 74 V
0 69 V
0 64 V
0 59 V
0 -348 V
27 75 V
4 75 V
4 69 V
11 64 V
16 60 V
4 -45 V
0 59 V
0 55 V
0 -114 V
0 59 V
0 -343 V
0 80 V
0 -169 V
0 89 V
0 -299 V
0 111 V
2 -240 V
0 129 V
2 186 V
0 91 V
0 83 V
0 75 V
8 69 V
4 5 V
23 -74 V
4 -75 V
8 144 V
0 64 V
0 60 V
0 -124 V
0 64 V
0 -382 V
0 91 V
3 -91 V
0 91 V
0 -91 V
0 91 V
0 83 V
0 -275 V
0 101 V
0 91 V
16 83 V
4 7 V
4 137 V
0 -69 V
0 69 V
0 -69 V
0 69 V
0 -318 V
0 91 V
0 -308 V
0 116 V
0 -249 V
0 133 V
4 116 V
0 101 V
0 -101 V
0 101 V
0 91 V
0 83 V
0 -83 V
33 -91 V
23 91 V
4 83 V
4 75 V
4 69 V
0 64 V
4 60 V
8 55 V
27 -55 V
4 55 V
0 -55 V
0 55 V
0 -55 V
0 55 V
0 -179 V
stroke 4425 3289 M
0 64 V
0 -382 V
0 91 V
4 -192 V
0 101 V
0 -217 V
0 116 V
0 -116 V
0 116 V
0 -116 V
0 116 V
0 192 V
0 83 V
0 75 V
23 69 V
16 124 V
0 55 V
0 -55 V
0 55 V
0 -55 V
0 55 V
0 -179 V
0 64 V
0 -208 V
0 75 V
4 -158 V
0 83 V
0 -83 V
0 83 V
0 75 V
0 69 V
0 64 V
0 60 V
0 55 V
0 -248 V
4 133 V
0 -291 V
0 83 V
0 -391 V
0 116 V
0 -249 V
0 133 V
4 217 V
0 91 V
0 83 V
23 75 V
16 69 V
4 64 V
39 60 V
5 4 V
40 51 V
4 53 V
4730 1073 L
16 599 V
4 350 V
4 249 V
4 192 V
0 158 V
4 133 V
0 116 V
2 101 V
2 91 V
0 83 V
0 75 V
2 -75 V
6 7 V
0 -2332 V
% End plot #4
% Begin plot #5
2.000 UP
stroke
LTb
LT1
0.00 0.00 0.63 C 1099 1672 Circle
1334 3570 Circle
1697 3289 Circle
2252 3062 Circle
2895 2870 Circle
3298 2971 Circle
3610 2754 Circle
3825 3220 Circle
4314 2971 Circle
% End plot #5
% Begin plot #6
2.000 UP
1.000 UL
LTb
LT1
0.00 0.00 0.63 C LCb setrgbcolor
4067 153 M
[ [(Arial) 180.0 0.0 true true 0 (per-packet)]
] -60.0 MRshow
2.000 UP
1.000 UL
LTb
LT1
0.00 0.00 0.63 C 1099 1672 Circle
4341 153 Circle
% End plot #6
% Begin plot #7
1.000 UL
LTb
LT3
0.00 0.38 0.82 C 1099 1672 M
4 350 V
4 249 V
4 192 V
0 158 V
4 133 V
0 116 V
0 101 V
4 91 V
0 -91 V
4 91 V
1245 1073 L
16 599 V
4 350 V
5 249 V
4 192 V
0 158 V
5 133 V
0 116 V
0 13 V
8 88 V
0 91 V
1402 1073 L
15 599 V
5 350 V
5 249 V
4 192 V
0 158 V
4 133 V
0 116 V
0 13 V
4 88 V
4 91 V
4 83 V
0 75 V
4 69 V
4 64 V
24 4 V
31 56 V
0 4 V
4 -64 V
1633 1073 L
16 599 V
5 350 V
4 249 V
4 192 V
0 158 V
4 133 V
0 116 V
0 101 V
5 91 V
0 -91 V
92 11 V
4 -112 V
1881 1073 L
16 599 V
4 350 V
4 249 V
2020 1073 L
15 599 V
4 350 V
0 91 V
4 74 V
6 63 V
5 55 V
4 48 V
1 44 V
4 39 V
0 36 V
4 33 V
4 31 V
4 29 V
4 27 V
4 25 V
4 24 V
2202 1073 L
16 599 V
4 350 V
0 91 V
4 74 V
5 63 V
3 55 V
4 48 V
0 44 V
5 39 V
0 36 V
4 33 V
5 31 V
4 29 V
5 27 V
39 25 V
4 24 V
4 22 V
0 22 V
4 20 V
4 20 V
1 18 V
4 18 V
3 17 V
74 17 V
93 16 V
116 15 V
4 15 V
62 14 V
4 14 V
49 13 V
4 -128 V
82 18 V
4 16 V
66 16 V
146 16 V
66 15 V
4 14 V
43 14 V
55 14 V
4 -123 V
39 18 V
4 16 V
222 16 V
4 16 V
40 15 V
4 14 V
37 14 V
48 14 V
4 -123 V
53 18 V
177 16 V
128 16 V
318 16 V
4 15 V
337 14 V
132 14 V
40 14 V
5 13 V
0 -136 V
45 18 V
234 16 V
36 16 V
3 16 V
374 15 V
4 14 V
112 14 V
119 14 V
15 94 V
4 91 V
4 83 V
4 75 V
4 69 V
4 64 V
4 60 V
0 55 V
19 4 V
4 3 V
4 46 V
4 49 V
4 47 V
4 44 V
4 42 V
3 41 V
4 38 V
4 37 V
4 35 V
4 34 V
4 33 V
4 31 V
4 30 V
0 30 V
19 28 V
0 -28 V
4 -30 V
4 30 V
4 28 V
4 27 V
4 27 V
4 26 V
3 25 V
4 24 V
5 24 V
37 -24 V
6051 1073 L
15 599 V
4 350 V
4 249 V
5 192 V
0 158 V
4 133 V
0 116 V
0 101 V
3 91 V
0 -91 V
4 91 V
8 83 V
4 75 V
4 69 V
4 64 V
4 60 V
4 55 V
4 53 V
4 49 V
3 47 V
4 44 V
8 42 V
4 41 V
4 38 V
4 37 V
4 35 V
4 34 V
4 33 V
23 -33 V
7 -34 V
4 -35 V
9 35 V
30 -35 V
4 -37 V
3 37 V
10 -37 V
71 37 V
4 35 V
4 34 V
4 33 V
4 31 V
5 30 V
11 30 V
4 28 V
4 27 V
4 27 V
4 26 V
5 25 V
4 -25 V
3 25 V
0 -3325 V
% End plot #7
% Begin plot #8
2.000 UP
stroke
LTb
LT3
0.00 0.38 0.82 C 1099 1672 TriU
% End plot #8
% Begin plot #9
2.000 UP
1.000 UL
LTb
LT3
0.00 0.38 0.82 C LCb setrgbcolor
5480 153 M
[ [(Arial) 180.0 0.0 true true 0 (per-flow)]
] -60.0 MRshow
2.000 UP
1.000 UL
LTb
LT3
0.00 0.38 0.82 C 1099 1672 TriU
5754 153 TriU
% End plot #9
2.000 UL
LTb
LCb setrgbcolor
1.000 UP
1.000 UL
LTb
0.00 0.00 0.00 C stroke
grestore
end
showpage
%%Trailer
%%DocumentFonts: Arial
