%!PS-Adobe-2.0 EPSF-2.0
%%Title: TcpVegas-cwnd-1Mbps-UE19.eps
%%Creator: gnuplot 5.0 patchlevel 3
%%CreationDate: Tue May 24 14:35:30 2016
%%DocumentFonts: (atend)
%%BoundingBox: 50 50 410 302
%%EndComments
%%BeginProlog
/gnudict 256 dict def
gnudict begin
%
% The following true/false flags may be edited by hand if desired.
% The unit line width and grayscale image gamma correction may also be changed.
%
/Color true def
/Blacktext false def
/Solid false def
/Dashlength 3 def
/Landscape false def
/Level1 false def
/Level3 false def
/Rounded false def
/ClipToBoundingBox false def
/SuppressPDFMark false def
/TransparentPatterns false def
/gnulinewidth 15.000 def
/userlinewidth gnulinewidth def
/Gamma 1.0 def
/BackgroundColor {-1.000 -1.000 -1.000} def
%
/vshift -66 def
/dl1 {
  10.0 Dashlength userlinewidth gnulinewidth div mul mul mul
  Rounded { currentlinewidth 0.75 mul sub dup 0 le { pop 0.01 } if } if
} def
/dl2 {
  10.0 Dashlength userlinewidth gnulinewidth div mul mul mul
  Rounded { currentlinewidth 0.75 mul add } if
} def
/hpt_ 31.5 def
/vpt_ 31.5 def
/hpt hpt_ def
/vpt vpt_ def
/doclip {
  ClipToBoundingBox {
    newpath 50 50 moveto 410 50 lineto 410 302 lineto 50 302 lineto closepath
    clip
  } if
} def
%
% Gnuplot Prolog Version 5.1 (Oct 2015)
%
%/SuppressPDFMark true def
%
/M {moveto} bind def
/L {lineto} bind def
/R {rmoveto} bind def
/V {rlineto} bind def
/N {newpath moveto} bind def
/Z {closepath} bind def
/C {setrgbcolor} bind def
/f {rlineto fill} bind def
/g {setgray} bind def
/Gshow {show} def   % May be redefined later in the file to support UTF-8
/vpt2 vpt 2 mul def
/hpt2 hpt 2 mul def
/Lshow {currentpoint stroke M 0 vshift R 
	Blacktext {gsave 0 setgray textshow grestore} {textshow} ifelse} def
/Rshow {currentpoint stroke M dup stringwidth pop neg vshift R
	Blacktext {gsave 0 setgray textshow grestore} {textshow} ifelse} def
/Cshow {currentpoint stroke M dup stringwidth pop -2 div vshift R 
	Blacktext {gsave 0 setgray textshow grestore} {textshow} ifelse} def
/UP {dup vpt_ mul /vpt exch def hpt_ mul /hpt exch def
  /hpt2 hpt 2 mul def /vpt2 vpt 2 mul def} def
/DL {Color {setrgbcolor Solid {pop []} if 0 setdash}
 {pop pop pop 0 setgray Solid {pop []} if 0 setdash} ifelse} def
/BL {stroke userlinewidth 2 mul setlinewidth
	Rounded {1 setlinejoin 1 setlinecap} if} def
/AL {stroke userlinewidth 2 div setlinewidth
	Rounded {1 setlinejoin 1 setlinecap} if} def
/UL {dup gnulinewidth mul /userlinewidth exch def
	dup 1 lt {pop 1} if 10 mul /udl exch def} def
/PL {stroke userlinewidth setlinewidth
	Rounded {1 setlinejoin 1 setlinecap} if} def
3.8 setmiterlimit
% Classic Line colors (version 5.0)
/LCw {1 1 1} def
/LCb {0 0 0} def
/LCa {0 0 0} def
/LC0 {1 0 0} def
/LC1 {0 1 0} def
/LC2 {0 0 1} def
/LC3 {1 0 1} def
/LC4 {0 1 1} def
/LC5 {1 1 0} def
/LC6 {0 0 0} def
/LC7 {1 0.3 0} def
/LC8 {0.5 0.5 0.5} def
% Default dash patterns (version 5.0)
/LTB {BL [] LCb DL} def
/LTw {PL [] 1 setgray} def
/LTb {PL [] LCb DL} def
/LTa {AL [1 udl mul 2 udl mul] 0 setdash LCa setrgbcolor} def
/LT0 {PL [] LC0 DL} def
/LT1 {PL [2 dl1 3 dl2] LC1 DL} def
/LT2 {PL [1 dl1 1.5 dl2] LC2 DL} def
/LT3 {PL [6 dl1 2 dl2 1 dl1 2 dl2] LC3 DL} def
/LT4 {PL [1 dl1 2 dl2 6 dl1 2 dl2 1 dl1 2 dl2] LC4 DL} def
/LT5 {PL [4 dl1 2 dl2] LC5 DL} def
/LT6 {PL [1.5 dl1 1.5 dl2 1.5 dl1 1.5 dl2 1.5 dl1 6 dl2] LC6 DL} def
/LT7 {PL [3 dl1 3 dl2 1 dl1 3 dl2] LC7 DL} def
/LT8 {PL [2 dl1 2 dl2 2 dl1 6 dl2] LC8 DL} def
/SL {[] 0 setdash} def
/Pnt {stroke [] 0 setdash gsave 1 setlinecap M 0 0 V stroke grestore} def
/Dia {stroke [] 0 setdash 2 copy vpt add M
  hpt neg vpt neg V hpt vpt neg V
  hpt vpt V hpt neg vpt V closepath stroke
  Pnt} def
/Pls {stroke [] 0 setdash vpt sub M 0 vpt2 V
  currentpoint stroke M
  hpt neg vpt neg R hpt2 0 V stroke
 } def
/Box {stroke [] 0 setdash 2 copy exch hpt sub exch vpt add M
  0 vpt2 neg V hpt2 0 V 0 vpt2 V
  hpt2 neg 0 V closepath stroke
  Pnt} def
/Crs {stroke [] 0 setdash exch hpt sub exch vpt add M
  hpt2 vpt2 neg V currentpoint stroke M
  hpt2 neg 0 R hpt2 vpt2 V stroke} def
/TriU {stroke [] 0 setdash 2 copy vpt 1.12 mul add M
  hpt neg vpt -1.62 mul V
  hpt 2 mul 0 V
  hpt neg vpt 1.62 mul V closepath stroke
  Pnt} def
/Star {2 copy Pls Crs} def
/BoxF {stroke [] 0 setdash exch hpt sub exch vpt add M
  0 vpt2 neg V hpt2 0 V 0 vpt2 V
  hpt2 neg 0 V closepath fill} def
/TriUF {stroke [] 0 setdash vpt 1.12 mul add M
  hpt neg vpt -1.62 mul V
  hpt 2 mul 0 V
  hpt neg vpt 1.62 mul V closepath fill} def
/TriD {stroke [] 0 setdash 2 copy vpt 1.12 mul sub M
  hpt neg vpt 1.62 mul V
  hpt 2 mul 0 V
  hpt neg vpt -1.62 mul V closepath stroke
  Pnt} def
/TriDF {stroke [] 0 setdash vpt 1.12 mul sub M
  hpt neg vpt 1.62 mul V
  hpt 2 mul 0 V
  hpt neg vpt -1.62 mul V closepath fill} def
/DiaF {stroke [] 0 setdash vpt add M
  hpt neg vpt neg V hpt vpt neg V
  hpt vpt V hpt neg vpt V closepath fill} def
/Pent {stroke [] 0 setdash 2 copy gsave
  translate 0 hpt M 4 {72 rotate 0 hpt L} repeat
  closepath stroke grestore Pnt} def
/PentF {stroke [] 0 setdash gsave
  translate 0 hpt M 4 {72 rotate 0 hpt L} repeat
  closepath fill grestore} def
/Circle {stroke [] 0 setdash 2 copy
  hpt 0 360 arc stroke Pnt} def
/CircleF {stroke [] 0 setdash hpt 0 360 arc fill} def
/C0 {BL [] 0 setdash 2 copy moveto vpt 90 450 arc} bind def
/C1 {BL [] 0 setdash 2 copy moveto
	2 copy vpt 0 90 arc closepath fill
	vpt 0 360 arc closepath} bind def
/C2 {BL [] 0 setdash 2 copy moveto
	2 copy vpt 90 180 arc closepath fill
	vpt 0 360 arc closepath} bind def
/C3 {BL [] 0 setdash 2 copy moveto
	2 copy vpt 0 180 arc closepath fill
	vpt 0 360 arc closepath} bind def
/C4 {BL [] 0 setdash 2 copy moveto
	2 copy vpt 180 270 arc closepath fill
	vpt 0 360 arc closepath} bind def
/C5 {BL [] 0 setdash 2 copy moveto
	2 copy vpt 0 90 arc
	2 copy moveto
	2 copy vpt 180 270 arc closepath fill
	vpt 0 360 arc} bind def
/C6 {BL [] 0 setdash 2 copy moveto
	2 copy vpt 90 270 arc closepath fill
	vpt 0 360 arc closepath} bind def
/C7 {BL [] 0 setdash 2 copy moveto
	2 copy vpt 0 270 arc closepath fill
	vpt 0 360 arc closepath} bind def
/C8 {BL [] 0 setdash 2 copy moveto
	2 copy vpt 270 360 arc closepath fill
	vpt 0 360 arc closepath} bind def
/C9 {BL [] 0 setdash 2 copy moveto
	2 copy vpt 270 450 arc closepath fill
	vpt 0 360 arc closepath} bind def
/C10 {BL [] 0 setdash 2 copy 2 copy moveto vpt 270 360 arc closepath fill
	2 copy moveto
	2 copy vpt 90 180 arc closepath fill
	vpt 0 360 arc closepath} bind def
/C11 {BL [] 0 setdash 2 copy moveto
	2 copy vpt 0 180 arc closepath fill
	2 copy moveto
	2 copy vpt 270 360 arc closepath fill
	vpt 0 360 arc closepath} bind def
/C12 {BL [] 0 setdash 2 copy moveto
	2 copy vpt 180 360 arc closepath fill
	vpt 0 360 arc closepath} bind def
/C13 {BL [] 0 setdash 2 copy moveto
	2 copy vpt 0 90 arc closepath fill
	2 copy moveto
	2 copy vpt 180 360 arc closepath fill
	vpt 0 360 arc closepath} bind def
/C14 {BL [] 0 setdash 2 copy moveto
	2 copy vpt 90 360 arc closepath fill
	vpt 0 360 arc} bind def
/C15 {BL [] 0 setdash 2 copy vpt 0 360 arc closepath fill
	vpt 0 360 arc closepath} bind def
/Rec {newpath 4 2 roll moveto 1 index 0 rlineto 0 exch rlineto
	neg 0 rlineto closepath} bind def
/Square {dup Rec} bind def
/Bsquare {vpt sub exch vpt sub exch vpt2 Square} bind def
/S0 {BL [] 0 setdash 2 copy moveto 0 vpt rlineto BL Bsquare} bind def
/S1 {BL [] 0 setdash 2 copy vpt Square fill Bsquare} bind def
/S2 {BL [] 0 setdash 2 copy exch vpt sub exch vpt Square fill Bsquare} bind def
/S3 {BL [] 0 setdash 2 copy exch vpt sub exch vpt2 vpt Rec fill Bsquare} bind def
/S4 {BL [] 0 setdash 2 copy exch vpt sub exch vpt sub vpt Square fill Bsquare} bind def
/S5 {BL [] 0 setdash 2 copy 2 copy vpt Square fill
	exch vpt sub exch vpt sub vpt Square fill Bsquare} bind def
/S6 {BL [] 0 setdash 2 copy exch vpt sub exch vpt sub vpt vpt2 Rec fill Bsquare} bind def
/S7 {BL [] 0 setdash 2 copy exch vpt sub exch vpt sub vpt vpt2 Rec fill
	2 copy vpt Square fill Bsquare} bind def
/S8 {BL [] 0 setdash 2 copy vpt sub vpt Square fill Bsquare} bind def
/S9 {BL [] 0 setdash 2 copy vpt sub vpt vpt2 Rec fill Bsquare} bind def
/S10 {BL [] 0 setdash 2 copy vpt sub vpt Square fill 2 copy exch vpt sub exch vpt Square fill
	Bsquare} bind def
/S11 {BL [] 0 setdash 2 copy vpt sub vpt Square fill 2 copy exch vpt sub exch vpt2 vpt Rec fill
	Bsquare} bind def
/S12 {BL [] 0 setdash 2 copy exch vpt sub exch vpt sub vpt2 vpt Rec fill Bsquare} bind def
/S13 {BL [] 0 setdash 2 copy exch vpt sub exch vpt sub vpt2 vpt Rec fill
	2 copy vpt Square fill Bsquare} bind def
/S14 {BL [] 0 setdash 2 copy exch vpt sub exch vpt sub vpt2 vpt Rec fill
	2 copy exch vpt sub exch vpt Square fill Bsquare} bind def
/S15 {BL [] 0 setdash 2 copy Bsquare fill Bsquare} bind def
/D0 {gsave translate 45 rotate 0 0 S0 stroke grestore} bind def
/D1 {gsave translate 45 rotate 0 0 S1 stroke grestore} bind def
/D2 {gsave translate 45 rotate 0 0 S2 stroke grestore} bind def
/D3 {gsave translate 45 rotate 0 0 S3 stroke grestore} bind def
/D4 {gsave translate 45 rotate 0 0 S4 stroke grestore} bind def
/D5 {gsave translate 45 rotate 0 0 S5 stroke grestore} bind def
/D6 {gsave translate 45 rotate 0 0 S6 stroke grestore} bind def
/D7 {gsave translate 45 rotate 0 0 S7 stroke grestore} bind def
/D8 {gsave translate 45 rotate 0 0 S8 stroke grestore} bind def
/D9 {gsave translate 45 rotate 0 0 S9 stroke grestore} bind def
/D10 {gsave translate 45 rotate 0 0 S10 stroke grestore} bind def
/D11 {gsave translate 45 rotate 0 0 S11 stroke grestore} bind def
/D12 {gsave translate 45 rotate 0 0 S12 stroke grestore} bind def
/D13 {gsave translate 45 rotate 0 0 S13 stroke grestore} bind def
/D14 {gsave translate 45 rotate 0 0 S14 stroke grestore} bind def
/D15 {gsave translate 45 rotate 0 0 S15 stroke grestore} bind def
/DiaE {stroke [] 0 setdash vpt add M
  hpt neg vpt neg V hpt vpt neg V
  hpt vpt V hpt neg vpt V closepath stroke} def
/BoxE {stroke [] 0 setdash exch hpt sub exch vpt add M
  0 vpt2 neg V hpt2 0 V 0 vpt2 V
  hpt2 neg 0 V closepath stroke} def
/TriUE {stroke [] 0 setdash vpt 1.12 mul add M
  hpt neg vpt -1.62 mul V
  hpt 2 mul 0 V
  hpt neg vpt 1.62 mul V closepath stroke} def
/TriDE {stroke [] 0 setdash vpt 1.12 mul sub M
  hpt neg vpt 1.62 mul V
  hpt 2 mul 0 V
  hpt neg vpt -1.62 mul V closepath stroke} def
/PentE {stroke [] 0 setdash gsave
  translate 0 hpt M 4 {72 rotate 0 hpt L} repeat
  closepath stroke grestore} def
/CircE {stroke [] 0 setdash 
  hpt 0 360 arc stroke} def
/Opaque {gsave closepath 1 setgray fill grestore 0 setgray closepath} def
/DiaW {stroke [] 0 setdash vpt add M
  hpt neg vpt neg V hpt vpt neg V
  hpt vpt V hpt neg vpt V Opaque stroke} def
/BoxW {stroke [] 0 setdash exch hpt sub exch vpt add M
  0 vpt2 neg V hpt2 0 V 0 vpt2 V
  hpt2 neg 0 V Opaque stroke} def
/TriUW {stroke [] 0 setdash vpt 1.12 mul add M
  hpt neg vpt -1.62 mul V
  hpt 2 mul 0 V
  hpt neg vpt 1.62 mul V Opaque stroke} def
/TriDW {stroke [] 0 setdash vpt 1.12 mul sub M
  hpt neg vpt 1.62 mul V
  hpt 2 mul 0 V
  hpt neg vpt -1.62 mul V Opaque stroke} def
/PentW {stroke [] 0 setdash gsave
  translate 0 hpt M 4 {72 rotate 0 hpt L} repeat
  Opaque stroke grestore} def
/CircW {stroke [] 0 setdash 
  hpt 0 360 arc Opaque stroke} def
/BoxFill {gsave Rec 1 setgray fill grestore} def
/Density {
  /Fillden exch def
  currentrgbcolor
  /ColB exch def /ColG exch def /ColR exch def
  /ColR ColR Fillden mul Fillden sub 1 add def
  /ColG ColG Fillden mul Fillden sub 1 add def
  /ColB ColB Fillden mul Fillden sub 1 add def
  ColR ColG ColB setrgbcolor} def
/BoxColFill {gsave Rec PolyFill} def
/PolyFill {gsave Density fill grestore grestore} def
/h {rlineto rlineto rlineto gsave closepath fill grestore} bind def
%
% PostScript Level 1 Pattern Fill routine for rectangles
% Usage: x y w h s a XX PatternFill
%	x,y = lower left corner of box to be filled
%	w,h = width and height of box
%	  a = angle in degrees between lines and x-axis
%	 XX = 0/1 for no/yes cross-hatch
%
/PatternFill {gsave /PFa [ 9 2 roll ] def
  PFa 0 get PFa 2 get 2 div add PFa 1 get PFa 3 get 2 div add translate
  PFa 2 get -2 div PFa 3 get -2 div PFa 2 get PFa 3 get Rec
  TransparentPatterns {} {gsave 1 setgray fill grestore} ifelse
  clip
  currentlinewidth 0.5 mul setlinewidth
  /PFs PFa 2 get dup mul PFa 3 get dup mul add sqrt def
  0 0 M PFa 5 get rotate PFs -2 div dup translate
  0 1 PFs PFa 4 get div 1 add floor cvi
	{PFa 4 get mul 0 M 0 PFs V} for
  0 PFa 6 get ne {
	0 1 PFs PFa 4 get div 1 add floor cvi
	{PFa 4 get mul 0 2 1 roll M PFs 0 V} for
 } if
  stroke grestore} def
%
/languagelevel where
 {pop languagelevel} {1} ifelse
dup 2 lt
	{/InterpretLevel1 true def
	 /InterpretLevel3 false def}
	{/InterpretLevel1 Level1 def
	 2 gt
	    {/InterpretLevel3 Level3 def}
	    {/InterpretLevel3 false def}
	 ifelse }
 ifelse
%
% PostScript level 2 pattern fill definitions
%
/Level2PatternFill {
/Tile8x8 {/PaintType 2 /PatternType 1 /TilingType 1 /BBox [0 0 8 8] /XStep 8 /YStep 8}
	bind def
/KeepColor {currentrgbcolor [/Pattern /DeviceRGB] setcolorspace} bind def
<< Tile8x8
 /PaintProc {0.5 setlinewidth pop 0 0 M 8 8 L 0 8 M 8 0 L stroke} 
>> matrix makepattern
/Pat1 exch def
<< Tile8x8
 /PaintProc {0.5 setlinewidth pop 0 0 M 8 8 L 0 8 M 8 0 L stroke
	0 4 M 4 8 L 8 4 L 4 0 L 0 4 L stroke}
>> matrix makepattern
/Pat2 exch def
<< Tile8x8
 /PaintProc {0.5 setlinewidth pop 0 0 M 0 8 L
	8 8 L 8 0 L 0 0 L fill}
>> matrix makepattern
/Pat3 exch def
<< Tile8x8
 /PaintProc {0.5 setlinewidth pop -4 8 M 8 -4 L
	0 12 M 12 0 L stroke}
>> matrix makepattern
/Pat4 exch def
<< Tile8x8
 /PaintProc {0.5 setlinewidth pop -4 0 M 8 12 L
	0 -4 M 12 8 L stroke}
>> matrix makepattern
/Pat5 exch def
<< Tile8x8
 /PaintProc {0.5 setlinewidth pop -2 8 M 4 -4 L
	0 12 M 8 -4 L 4 12 M 10 0 L stroke}
>> matrix makepattern
/Pat6 exch def
<< Tile8x8
 /PaintProc {0.5 setlinewidth pop -2 0 M 4 12 L
	0 -4 M 8 12 L 4 -4 M 10 8 L stroke}
>> matrix makepattern
/Pat7 exch def
<< Tile8x8
 /PaintProc {0.5 setlinewidth pop 8 -2 M -4 4 L
	12 0 M -4 8 L 12 4 M 0 10 L stroke}
>> matrix makepattern
/Pat8 exch def
<< Tile8x8
 /PaintProc {0.5 setlinewidth pop 0 -2 M 12 4 L
	-4 0 M 12 8 L -4 4 M 8 10 L stroke}
>> matrix makepattern
/Pat9 exch def
/Pattern1 {PatternBgnd KeepColor Pat1 setpattern} bind def
/Pattern2 {PatternBgnd KeepColor Pat2 setpattern} bind def
/Pattern3 {PatternBgnd KeepColor Pat3 setpattern} bind def
/Pattern4 {PatternBgnd KeepColor Landscape {Pat5} {Pat4} ifelse setpattern} bind def
/Pattern5 {PatternBgnd KeepColor Landscape {Pat4} {Pat5} ifelse setpattern} bind def
/Pattern6 {PatternBgnd KeepColor Landscape {Pat9} {Pat6} ifelse setpattern} bind def
/Pattern7 {PatternBgnd KeepColor Landscape {Pat8} {Pat7} ifelse setpattern} bind def
} def
%
%
%End of PostScript Level 2 code
%
/PatternBgnd {
  TransparentPatterns {} {gsave 1 setgray fill grestore} ifelse
} def
%
% Substitute for Level 2 pattern fill codes with
% grayscale if Level 2 support is not selected.
%
/Level1PatternFill {
/Pattern1 {0.250 Density} bind def
/Pattern2 {0.500 Density} bind def
/Pattern3 {0.750 Density} bind def
/Pattern4 {0.125 Density} bind def
/Pattern5 {0.375 Density} bind def
/Pattern6 {0.625 Density} bind def
/Pattern7 {0.875 Density} bind def
} def
%
% Now test for support of Level 2 code
%
Level1 {Level1PatternFill} {Level2PatternFill} ifelse
%
/Symbol-Oblique /Symbol findfont [1 0 .167 1 0 0] makefont
dup length dict begin {1 index /FID eq {pop pop} {def} ifelse} forall
currentdict end definefont pop
%
/MFshow {
   { dup 5 get 3 ge
     { 5 get 3 eq {gsave} {grestore} ifelse }
     {dup dup 0 get findfont exch 1 get scalefont setfont
     [ currentpoint ] exch dup 2 get 0 exch R dup 5 get 2 ne {dup dup 6
     get exch 4 get {textshow} {stringwidth pop 0 R} ifelse }if dup 5 get 0 eq
     {dup 3 get {2 get neg 0 exch R pop} {pop aload pop M} ifelse} {dup 5
     get 1 eq {dup 2 get exch dup 3 get exch 6 get stringwidth pop -2 div
     dup 0 R} {dup 6 get stringwidth pop -2 div 0 R 6 get
     textshow 2 index {aload pop M neg 3 -1 roll neg R pop pop} {pop pop pop
     pop aload pop M} ifelse }ifelse }ifelse }
     ifelse }
   forall} def
/Gswidth {dup type /stringtype eq {stringwidth} {pop (n) stringwidth} ifelse} def
/MFwidth {0 exch { dup 5 get 3 ge { 5 get 3 eq { 0 } { pop } ifelse }
 {dup 3 get{dup dup 0 get findfont exch 1 get scalefont setfont
     6 get Gswidth pop add} {pop} ifelse} ifelse} forall} def
/MLshow { currentpoint stroke M
  0 exch R
  Blacktext {gsave 0 setgray MFshow grestore} {MFshow} ifelse } bind def
/MRshow { currentpoint stroke M
  exch dup MFwidth neg 3 -1 roll R
  Blacktext {gsave 0 setgray MFshow grestore} {MFshow} ifelse } bind def
/MCshow { currentpoint stroke M
  exch dup MFwidth -2 div 3 -1 roll R
  Blacktext {gsave 0 setgray MFshow grestore} {MFshow} ifelse } bind def
/XYsave    { [( ) 1 2 true false 3 ()] } bind def
/XYrestore { [( ) 1 2 true false 4 ()] } bind def
Level1 SuppressPDFMark or 
{} {
/SDict 10 dict def
systemdict /pdfmark known not {
  userdict /pdfmark systemdict /cleartomark get put
} if
SDict begin [
  /Title (TcpVegas-cwnd-1Mbps-UE19.eps)
  /Subject (gnuplot plot)
  /Creator (gnuplot 5.0 patchlevel 3)
  /Author (nat)
%  /Producer (gnuplot)
%  /Keywords ()
  /CreationDate (Tue May 24 14:35:30 2016)
  /DOCINFO pdfmark
end
} ifelse
%
% Support for boxed text - Ethan A Merritt May 2005
%
/InitTextBox { userdict /TBy2 3 -1 roll put userdict /TBx2 3 -1 roll put
           userdict /TBy1 3 -1 roll put userdict /TBx1 3 -1 roll put
	   /Boxing true def } def
/ExtendTextBox { Boxing
    { gsave dup false charpath pathbbox
      dup TBy2 gt {userdict /TBy2 3 -1 roll put} {pop} ifelse
      dup TBx2 gt {userdict /TBx2 3 -1 roll put} {pop} ifelse
      dup TBy1 lt {userdict /TBy1 3 -1 roll put} {pop} ifelse
      dup TBx1 lt {userdict /TBx1 3 -1 roll put} {pop} ifelse
      grestore } if } def
/PopTextBox { newpath TBx1 TBxmargin sub TBy1 TBymargin sub M
               TBx1 TBxmargin sub TBy2 TBymargin add L
	       TBx2 TBxmargin add TBy2 TBymargin add L
	       TBx2 TBxmargin add TBy1 TBymargin sub L closepath } def
/DrawTextBox { PopTextBox stroke /Boxing false def} def
/FillTextBox { gsave PopTextBox 1 1 1 setrgbcolor fill grestore /Boxing false def} def
0 0 0 0 InitTextBox
/TBxmargin 20 def
/TBymargin 20 def
/Boxing false def
/textshow { ExtendTextBox Gshow } def
%
% redundant definitions for compatibility with prologue.ps older than 5.0.2
/LTB {BL [] LCb DL} def
/LTb {PL [] LCb DL} def
end
%%EndProlog
%%Page: 1 1
gnudict begin
gsave
doclip
50 50 translate
0.050 0.050 scale
0 setgray
newpath
(Arial) findfont 200 scalefont setfont
BackgroundColor 0 lt 3 1 roll 0 lt exch 0 lt or or not {BackgroundColor C 1.000 0 0 7200.00 5040.00 BoxColFill} if
1.000 UL
LTb
0.00 0.00 0.00 C 0.500 UL
LTa
0.50 0.50 0.50 C 980 820 M
5859 0 V
stroke
1.000 UL
LTb
0.00 0.00 0.00 C 980 820 M
63 0 V
5796 0 R
-63 0 V
stroke
860 820 M
[ [(Arial) 200.0 0.0 true true 0 ( 1)]
] -66.7 MRshow
1.000 UL
LTb
0.00 0.00 0.00 C 980 1419 M
31 0 V
5828 0 R
-31 0 V
980 1769 M
31 0 V
5828 0 R
-31 0 V
980 2018 M
31 0 V
5828 0 R
-31 0 V
980 2211 M
31 0 V
5828 0 R
-31 0 V
980 2368 M
31 0 V
5828 0 R
-31 0 V
980 2501 M
31 0 V
5828 0 R
-31 0 V
980 2617 M
31 0 V
5828 0 R
-31 0 V
980 2718 M
31 0 V
5828 0 R
-31 0 V
stroke
0.500 UL
LTa
0.50 0.50 0.50 C 980 2810 M
5859 0 V
stroke
1.000 UL
LTb
0.00 0.00 0.00 C 980 2810 M
63 0 V
5796 0 R
-63 0 V
stroke
860 2810 M
[ [(Arial) 200.0 0.0 true true 0 ( 10)]
] -66.7 MRshow
1.000 UL
LTb
0.00 0.00 0.00 C 980 3408 M
31 0 V
5828 0 R
-31 0 V
980 3759 M
31 0 V
5828 0 R
-31 0 V
980 4007 M
31 0 V
5828 0 R
-31 0 V
980 4200 M
31 0 V
5828 0 R
-31 0 V
980 4358 M
31 0 V
5828 0 R
-31 0 V
980 4491 M
31 0 V
5828 0 R
-31 0 V
980 4606 M
31 0 V
5828 0 R
-31 0 V
980 4708 M
31 0 V
5828 0 R
-31 0 V
stroke
0.500 UL
LTa
0.50 0.50 0.50 C 980 4799 M
5859 0 V
stroke
1.000 UL
LTb
0.00 0.00 0.00 C 980 4799 M
63 0 V
5796 0 R
-63 0 V
stroke
860 4799 M
[ [(Arial) 200.0 0.0 true true 0 ( 100)]
] -66.7 MRshow
1.000 UL
LTb
0.00 0.00 0.00 C 0.500 UL
LTa
0.50 0.50 0.50 C 1608 820 M
0 3979 V
stroke
1.000 UL
LTb
0.00 0.00 0.00 C 1608 820 M
0 63 V
0 3916 R
0 -63 V
stroke
1608 620 M
[ [(Arial) 200.0 0.0 true true 0 ( 10)]
] -66.7 MCshow
1.000 UL
LTb
0.00 0.00 0.00 C 0.500 UL
LTa
0.50 0.50 0.50 C 2654 820 M
0 3979 V
stroke
1.000 UL
LTb
0.00 0.00 0.00 C 2654 820 M
0 63 V
0 3916 R
0 -63 V
stroke
2654 620 M
[ [(Arial) 200.0 0.0 true true 0 ( 20)]
] -66.7 MCshow
1.000 UL
LTb
0.00 0.00 0.00 C 0.500 UL
LTa
0.50 0.50 0.50 C 3700 820 M
0 3979 V
stroke
1.000 UL
LTb
0.00 0.00 0.00 C 3700 820 M
0 63 V
0 3916 R
0 -63 V
stroke
3700 620 M
[ [(Arial) 200.0 0.0 true true 0 ( 30)]
] -66.7 MCshow
1.000 UL
LTb
0.00 0.00 0.00 C 0.500 UL
LTa
0.50 0.50 0.50 C 4747 820 M
0 3979 V
stroke
1.000 UL
LTb
0.00 0.00 0.00 C 4747 820 M
0 63 V
0 3916 R
0 -63 V
stroke
4747 620 M
[ [(Arial) 200.0 0.0 true true 0 ( 40)]
] -66.7 MCshow
1.000 UL
LTb
0.00 0.00 0.00 C 0.500 UL
LTa
0.50 0.50 0.50 C 5793 820 M
0 3979 V
stroke
1.000 UL
LTb
0.00 0.00 0.00 C 5793 820 M
0 63 V
0 3916 R
0 -63 V
stroke
5793 620 M
[ [(Arial) 200.0 0.0 true true 0 ( 50)]
] -66.7 MCshow
1.000 UL
LTb
0.00 0.00 0.00 C 0.500 UL
LTa
0.50 0.50 0.50 C 6839 820 M
0 3979 V
stroke
1.000 UL
LTb
0.00 0.00 0.00 C 6839 820 M
0 63 V
0 3916 R
0 -63 V
stroke
6839 620 M
[ [(Arial) 200.0 0.0 true true 0 ( 60)]
] -66.7 MCshow
1.000 UL
LTb
0.00 0.00 0.00 C 1.000 UL
LTB
0.00 0.00 0.00 C 980 4799 M
980 820 L
5859 0 V
0 3979 R
-5859 0 R
1.000 UP
stroke
LTb
0.00 0.00 0.00 C LCb setrgbcolor
160 2809 M
currentpoint gsave translate -270 rotate 0 0 moveto
[ [(Arial) 200.0 0.0 true true 0 (cWnd \(KB\))]
] -66.7 MCshow
grestore
LTb
LCb setrgbcolor
3909 320 M
[ [(Arial) 200.0 0.0 true true 0 (Time \(s\))]
] -66.7 MCshow
LTb
% Begin plot #1
1.000 UL
LTa
0.60 0.60 0.00 C 2025 1672 M
5 350 V
4 249 V
5 192 V
0 158 V
4 133 V
0 116 V
0 101 V
5 91 V
0 -91 V
34 11 V
5 -112 V
41 101 V
4 91 V
5 83 V
20 7 V
20 7 V
5 7 V
4 -104 V
18 83 V
5 75 V
76 69 V
6 64 V
4 60 V
6 55 V
19 4 V
6 -59 V
72 -60 V
5 4 V
1 -68 V
5 -69 V
40 69 V
4 -69 V
2578 1073 L
15 599 V
5 350 V
4 249 V
5 192 V
0 158 V
5 133 V
0 116 V
0 101 V
4 91 V
0 -91 V
5 91 V
18 83 V
25 -83 V
17 83 V
6 75 V
18 6 V
32 63 V
4 64 V
5 60 V
0 55 V
4 53 V
5 49 V
4 47 V
5 44 V
5 42 V
23 -42 V
6 -44 V
72 -47 V
4 -49 V
29 -53 V
4 -55 V
39 -60 V
5 -64 V
61 5 V
4 5 V
4 -79 V
14 69 V
4 64 V
5 60 V
5 55 V
14 53 V
5 49 V
4 47 V
5 44 V
4 42 V
4 41 V
5 38 V
65 2 V
5 -40 V
3264 1073 L
15 599 V
5 350 V
4 249 V
4 192 V
0 158 V
5 133 V
0 116 V
0 101 V
4 91 V
0 -91 V
16 91 V
5 9 V
18 74 V
0 75 V
5 69 V
5 64 V
34 -64 V
6 -69 V
36 69 V
2 64 V
5 60 V
4 55 V
5 53 V
41 3 V
4 -56 V
17 4 V
0 3 V
28 46 V
4 49 V
5 47 V
0 44 V
4 42 V
37 2 V
5 2 V
4 -46 V
37 -44 V
0 -47 V
4 -49 V
34 -53 V
4 -55 V
36 4 V
5 3 V
5 -67 V
15 4 V
4 5 V
0 -73 V
24 5 V
4 5 V
5 -79 V
20 6 V
5 6 V
23 57 V
0 64 V
5 60 V
4 55 V
5 53 V
116 3 V
4 -56 V
14 53 V
4 49 V
5 47 V
4 44 V
5 42 V
18 41 V
25 1 V
40 37 V
5 37 V
57 35 V
0 -35 V
4 -37 V
71 -38 V
4311 1073 L
16 599 V
4 350 V
5 249 V
4 192 V
2 158 V
3 133 V
1 116 V
0 101 V
3 91 V
2 -91 V
29 11 V
5 10 V
93 -122 V
27 101 V
4 91 V
18 83 V
5 75 V
4638 1073 L
15 599 V
5 350 V
4 249 V
5 192 V
0 158 V
6 133 V
0 116 V
0 101 V
350 11 V
5 10 V
80 10 V
59 10 V
22 10 V
4 -152 V
5308 1073 L
16 599 V
5 350 V
5 249 V
5439 1073 L
15 599 V
4 350 V
0 91 V
5 74 V
4 63 V
5 55 V
5 48 V
0 44 V
4 39 V
0 36 V
5 33 V
36 31 V
5 29 V
4 27 V
4 25 V
5 24 V
4 22 V
2 22 V
3 20 V
4 20 V
2 18 V
3 18 V
5 17 V
21 17 V
132 16 V
943 15 V
0 -2006 V
% End plot #1
% Begin plot #2
2.000 UP
stroke
LTa
0.60 0.60 0.00 C 2025 1672 Box
% End plot #2
% Begin plot #3
2.000 UP
1.000 UL
LTa
0.60 0.60 0.00 C LCb setrgbcolor
2654 153 M
[ [(Arial) 180.0 0.0 true true 0 (olsr)]
] -60.0 MRshow
2.000 UP
1.000 UL
LTa
0.60 0.60 0.00 C 2762 153 M
333 0 V
2025 1672 M
2025 1672 Box
2928 153 Box
% End plot #3
% Begin plot #4
1.000 UL
LTb
LT1
0.00 0.00 0.63 C 1084 1672 M
4 350 V
5 249 V
4 192 V
0 158 V
5 133 V
0 116 V
0 101 V
0 -101 V
41 13 V
29 13 V
19 166 V
0 83 V
0 -682 V
0 158 V
0 -350 V
0 192 V
1296 1073 L
15 599 V
4 350 V
5 249 V
4 52 V
0 47 V
5 41 V
6 52 V
3 34 V
4 32 V
2 29 V
4 27 V
4 26 V
5 24 V
4 23 V
4 22 V
1 20 V
4 54 V
17 18 V
22 16 V
43 82 V
21 13 V
13 88 V
9 91 V
16 9 V
4 8 V
6 26 V
0 -183 V
0 96 V
0 -472 V
0 144 V
3 -144 V
0 144 V
0 124 V
55 15 V
0 15 V
57 26 V
0 192 V
0 -791 V
0 192 V
5 -192 V
0 192 V
0 158 V
0 133 V
0 116 V
0 -116 V
4 217 V
0 91 V
0 83 V
0 -391 V
0 116 V
0 -599 V
0 192 V
5 -192 V
0 192 V
0 158 V
33 133 V
5 18 V
6 98 V
3 13 V
14 88 V
23 11 V
24 10 V
36 10 V
4 10 V
31 10 V
17 40 V
5 83 V
4 19 V
0 -508 V
0 129 V
5 -279 V
0 150 V
0 129 V
0 -694 V
0 232 V
0 298 V
4 133 V
0 116 V
0 101 V
5 91 V
13 83 V
10 75 V
20 6 V
0 -6 V
0 69 V
0 -69 V
0 69 V
0 -668 V
0 133 V
2016 1073 L
16 599 V
4 350 V
5 249 V
5 192 V
0 158 V
0 24 V
5 22 V
9 87 V
31 116 V
5 13 V
0 88 V
0 91 V
0 -308 V
0 116 V
0 -599 V
0 192 V
4 158 V
0 -158 V
0 158 V
0 133 V
0 -133 V
9 24 V
4 22 V
0 21 V
5 21 V
4 19 V
0 18 V
15 8 V
5 18 V
9 16 V
9 16 V
5 16 V
5 50 V
5 13 V
0 13 V
42 93 V
0 -494 V
0 152 V
1 -152 V
0 152 V
0 -337 V
0 185 V
4 -421 V
0 236 V
0 185 V
0 126 V
1 133 V
4 217 V
0 -350 V
0 133 V
2 -133 V
0 133 V
0 -291 V
0 158 V
3 -158 V
0 158 V
17 24 V
4 22 V
0 21 V
5 21 V
5 19 V
23 26 V
10 116 V
9 101 V
0 91 V
36 43 V
0 -733 V
0 174 V
0 -1123 V
0 442 V
5 -442 V
0 442 V
1 406 V
39 192 V
6 158 V
0 133 V
0 116 V
0 13 V
5 13 V
4 12 V
0 186 V
0 -422 V
0 126 V
5 -451 V
0 178 V
0 -403 V
0 225 V
0 274 V
0 133 V
6 116 V
0 13 V
5 13 V
35 12 V
37 13 V
32 12 V
23 161 V
0 -569 V
0 147 V
0 -325 V
0 178 V
4 -178 V
0 178 V
1 147 V
0 82 V
stroke 2549 2754 M
0 116 V
40 13 V
4 13 V
39 12 V
11 13 V
18 173 V
0 -422 V
0 126 V
0 110 V
0 -110 V
0 110 V
1 -236 V
0 126 V
3 -126 V
0 126 V
50 72 V
10 101 V
2829 1073 L
16 599 V
4 350 V
6 249 V
0 192 V
5 158 V
0 133 V
4 116 V
0 13 V
5 190 V
0 -776 V
0 188 V
4 -188 V
0 188 V
0 -188 V
0 188 V
0 154 V
0 130 V
0 -15 V
0 116 V
20 13 V
5 13 V
0 177 V
0 -90 V
0 90 V
0 81 V
0 -515 V
0 130 V
4 -284 V
0 154 V
0 130 V
0 214 V
15 -344 V
0 130 V
0 -284 V
0 154 V
0 -582 V
0 240 V
4 324 V
2 133 V
19 18 V
16 16 V
5 16 V
5 16 V
10 15 V
14 35 V
3107 1073 L
15 599 V
4 350 V
5 249 V
4 192 V
0 158 V
5 249 V
0 101 V
0 -101 V
0 101 V
0 -700 V
0 192 V
5 -192 V
0 192 V
41 158 V
5 24 V
5 22 V
0 203 V
0 -599 V
0 192 V
5 -192 V
0 192 V
0 -441 V
0 249 V
0 192 V
5 291 V
0 116 V
0 -116 V
0 116 V
0 -249 V
0 133 V
0 116 V
0 -249 V
0 133 V
0 -483 V
4 350 V
0 -158 V
0 158 V
0 -350 V
0 192 V
6 -441 V
0 249 V
0 -249 V
4 441 V
1 158 V
0 -158 V
0 158 V
0 133 V
0 -483 V
0 192 V
4 -791 V
1 193 V
6 128 V
5 97 V
5 78 V
0 66 V
5 57 V
6 50 V
0 44 V
4 41 V
6 37 V
0 33 V
60 32 V
5 29 V
0 27 V
5 26 V
0 24 V
4 23 V
23 22 V
3474 1073 L
15 599 V
4 350 V
6 249 V
0 192 V
0 34 V
5 32 V
5 29 V
0 27 V
5 26 V
5 24 V
0 23 V
10 96 V
24 116 V
5 13 V
26 88 V
46 91 V
26 83 V
2 75 V
4 -350 V
0 101 V
3 -217 V
0 116 V
2 -249 V
0 133 V
0 -291 V
0 158 V
0 249 V
4 101 V
5 91 V
4 9 V
14 74 V
5 7 V
27 68 V
0 69 V
0 64 V
0 60 V
15 -1391 V
0 249 V
0 192 V
0 158 V
0 133 V
4 116 V
2 101 V
28 91 V
9 83 V
4 75 V
4 69 V
4 64 V
6 60 V
3 -45 V
0 -284 V
0 80 V
2 -80 V
0 80 V
0 -169 V
0 89 V
0 80 V
0 74 V
0 -243 V
0 89 V
0 -188 V
0 99 V
3 -210 V
0 111 V
0 99 V
0 89 V
0 -22 V
1 158 V
0 69 V
0 -227 V
0 83 V
0 75 V
3 -75 V
0 75 V
0 -158 V
0 83 V
0 -83 V
0 83 V
0 -275 V
0 101 V
9 91 V
5 83 V
5 75 V
4 69 V
5 64 V
8 60 V
5 55 V
23 4 V
0 -59 V
0 55 V
0 53 V
0 -108 V
0 55 V
0 53 V
0 -900 V
0 133 V
5 -133 V
0 133 V
1 -291 V
0 158 V
0 249 V
0 192 V
0 -192 V
0 101 V
stroke 3884 2971 M
3 91 V
3 -91 V
0 91 V
0 -192 V
0 101 V
0 -217 V
5 217 V
0 91 V
0 -1040 V
0 249 V
0 192 V
4 -441 V
0 249 V
0 192 V
0 158 V
0 -158 V
0 158 V
31 133 V
4 18 V
5 98 V
4 13 V
5 88 V
24 91 V
5 83 V
40 19 V
0 -379 V
0 111 V
0 99 V
0 -210 V
0 111 V
4 99 V
0 -339 V
0 129 V
0 -31 V
0 116 V
5 101 V
5 91 V
44 83 V
1 19 V
0 -379 V
0 111 V
1 -240 V
0 129 V
3 -129 V
0 129 V
0 -279 V
0 150 V
0 214 V
1 192 V
3 83 V
0 75 V
0 -350 V
0 101 V
0 91 V
0 83 V
0 -524 V
0 133 V
2 -483 V
3 192 V
0 158 V
0 133 V
0 116 V
37 13 V
4 13 V
26 75 V
6 91 V
24 83 V
4 75 V
38 -75 V
9 75 V
0 -249 V
0 91 V
0 83 V
1 75 V
0 -249 V
0 91 V
0 -192 V
0 101 V
4 -217 V
0 116 V
0 -116 V
0 116 V
0 101 V
0 91 V
0 83 V
0 -174 V
20 11 V
4 10 V
5 10 V
4 10 V
0 10 V
5 9 V
4 9 V
0 162 V
0 -618 V
0 139 V
4 -304 V
0 165 V
0 170 V
6 116 V
0 101 V
19 11 V
9 80 V
4 9 V
stroke 4326 3071 M
24 74 V
5 7 V
8 68 V
5 69 V
4 64 V
13 60 V
5 55 V
0 -55 V
0 55 V
0 -406 V
0 83 V
0 75 V
0 -158 V
0 83 V
0 -83 V
0 83 V
0 -83 V
0 83 V
0 -275 V
0 101 V
4 -217 V
0 116 V
0 -249 V
0 133 V
0 217 V
0 91 V
0 83 V
0 75 V
15 133 V
0 60 V
0 -124 V
0 64 V
0 -483 V
0 101 V
3 -217 V
0 116 V
2 -249 V
0 133 V
0 217 V
0 91 V
0 83 V
14 75 V
13 69 V
23 64 V
4 4 V
4 -4 V
0 -1082 V
0 192 V
5 -192 V
0 192 V
0 158 V
0 -949 V
0 350 V
0 249 V
4 192 V
0 158 V
5 133 V
0 116 V
0 101 V
0 91 V
4 83 V
5 75 V
4 133 V
0 60 V
0 -351 V
0 83 V
0 -391 V
0 116 V
4 -249 V
0 133 V
0 116 V
0 101 V
0 174 V
0 75 V
0 -158 V
0 83 V
5 75 V
0 69 V
0 -144 V
0 75 V
0 69 V
0 64 V
0 60 V
0 55 V
0 -598 V
17 101 V
5 91 V
27 83 V
9 75 V
4 6 V
4704 1073 L
15 599 V
5 350 V
4 249 V
5 192 V
0 158 V
4 133 V
0 -133 V
9 133 V
5 18 V
4 98 V
9 101 V
5 91 V
0 43 V
0 -415 V
0 124 V
0 108 V
0 -376 V
0 144 V
4 -318 V
0 174 V
0 -391 V
0 217 V
0 249 V
0 133 V
4 116 V
9 101 V
14 134 V
0 -559 V
0 144 V
4 -144 V
0 144 V
0 -535 V
0 217 V
0 249 V
5 133 V
0 116 V
4 101 V
9 91 V
4 83 V
0 75 V
13 -249 V
0 91 V
0 83 V
0 75 V
0 -350 V
0 101 V
0 -217 V
0 116 V
5 -249 V
0 133 V
0 -133 V
0 133 V
0 217 V
9 91 V
4 83 V
18 75 V
0 -466 V
0 116 V
0 101 V
0 -350 V
0 133 V
5 -291 V
0 158 V
0 133 V
0 116 V
0 101 V
0 -101 V
0 101 V
8 91 V
5 9 V
4 8 V
9 66 V
4 75 V
7 69 V
7 64 V
4 60 V
5 -45 V
0 -284 V
0 80 V
0 74 V
0 68 V
0 -410 V
0 99 V
0 -210 V
0 111 V
2 -240 V
0 129 V
2 -279 V
0 150 V
0 -150 V
0 150 V
0 129 V
0 85 V
0 101 V
4 91 V
0 83 V
0 75 V
14 133 V
0 -64 V
0 64 V
0 60 V
0 -351 V
0 83 V
0 -174 V
stroke 4955 2971 M
0 91 V
5 -91 V
0 91 V
0 -91 V
0 91 V
0 83 V
0 75 V
0 69 V
0 64 V
0 60 V
0 -268 V
0 144 V
0 -227 V
0 83 V
4 -83 V
0 83 V
0 -83 V
0 83 V
0 75 V
0 -249 V
0 91 V
0 -192 V
0 101 V
0 -101 V
0 101 V
0 91 V
5 158 V
0 -158 V
0 83 V
0 75 V
0 69 V
0 -144 V
0 75 V
0 -158 V
0 83 V
4 -83 V
0 83 V
0 -275 V
0 101 V
18 174 V
0 -391 V
0 116 V
0 101 V
0 91 V
0 -599 V
0 158 V
4 -158 V
0 158 V
0 133 V
0 116 V
9 101 V
10 91 V
14 83 V
4 75 V
9 69 V
5 64 V
13 60 V
9 55 V
13 53 V
4 49 V
39 -49 V
13 -26 V
0 -54 V
0 54 V
0 51 V
0 48 V
0 -211 V
0 58 V
0 54 V
0 -240 V
0 67 V
0 -139 V
0 72 V
0 -237 V
0 87 V
4 -183 V
0 96 V
0 -96 V
0 96 V
0 87 V
0 40 V
0 75 V
5 69 V
0 64 V
0 115 V
0 53 V
0 49 V
0 47 V
2 -397 V
0 69 V
0 -144 V
0 75 V
2 -75 V
0 75 V
0 -158 V
0 83 V
0 75 V
0 -75 V
0 75 V
2 69 V
2 124 V
0 -124 V
0 64 V
0 -133 V
stroke 5154 3220 M
0 69 V
0 64 V
0 -291 V
0 83 V
0 -174 V
0 91 V
2 -91 V
0 91 V
0 -192 V
0 101 V
3 174 V
0 75 V
4 133 V
0 60 V
0 -543 V
0 101 V
2 -217 V
0 116 V
3 -249 V
0 133 V
0 116 V
0 -116 V
0 116 V
0 192 V
0 83 V
22 75 V
9 133 V
0 60 V
0 -442 V
0 91 V
4 -91 V
0 91 V
0 -308 V
0 116 V
0 -249 V
0 133 V
0 217 V
0 91 V
5 158 V
0 69 V
0 64 V
0 60 V
0 -193 V
0 69 V
0 -69 V
0 69 V
0 -69 V
0 69 V
0 -535 V
0 116 V
4 101 V
13 91 V
5 9 V
0 149 V
0 -350 V
0 101 V
4 -217 V
0 116 V
0 -116 V
0 116 V
0 101 V
0 -508 V
0 158 V
0 249 V
0 101 V
4 174 V
0 -174 V
0 91 V
0 -91 V
0 91 V
0 83 V
0 75 V
0 -249 V
0 91 V
0 -308 V
0 116 V
9 101 V
5 91 V
4 83 V
5 75 V
14 -599 V
0 133 V
0 -291 V
0 158 V
5 -350 V
0 192 V
0 -192 V
0 192 V
0 158 V
0 133 V
0 116 V
0 -116 V
4 116 V
0 101 V
5 91 V
8 83 V
9 75 V
41 69 V
14 -17 V
0 66 V
0 -1123 V
0 204 V
4 -472 V
0 268 V
stroke 5365 2215 M
0 -268 V
0 268 V
0 -268 V
0 268 V
4 248 V
0 158 V
5 133 V
1 116 V
0 101 V
3 91 V
5 83 V
6 75 V
4 69 V
5 64 V
4 60 V
0 -45 V
0 -204 V
0 74 V
2 -74 V
0 74 V
0 -74 V
0 74 V
0 -243 V
0 89 V
1 -188 V
0 99 V
1 -210 V
0 111 V
0 -111 V
0 111 V
0 -111 V
0 111 V
0 99 V
0 -210 V
0 111 V
0 166 V
2 158 V
1 -75 V
0 75 V
2 -75 V
0 75 V
0 -75 V
0 75 V
0 69 V
0 -227 V
0 83 V
0 -174 V
0 91 V
0 -192 V
0 101 V
10 91 V
4 83 V
4 75 V
5543 1073 L
14 599 V
5 350 V
4 249 V
6 192 V
0 158 V
5 133 V
0 116 V
4 101 V
13 91 V
5 83 V
4 75 V
18 69 V
17 64 V
4 4 V
9 -32 V
0 62 V
0 -62 V
0 62 V
0 57 V
0 -57 V
0 57 V
0 54 V
0 51 V
0 -622 V
0 96 V
4 -203 V
0 107 V
0 96 V
0 39 V
0 83 V
19 144 V
0 -144 V
0 75 V
0 -75 V
0 75 V
0 -350 V
0 101 V
5 -101 V
0 101 V
0 -350 V
0 133 V
0 217 V
0 91 V
4 158 V
0 -249 V
0 91 V
0 -192 V
0 101 V
0 91 V
0 -599 V
0 158 V
5 249 V
0 101 V
4 91 V
13 83 V
6 75 V
9 69 V
12 64 V
4 60 V
9 55 V
13 53 V
27 49 V
12 47 V
0 -84 V
0 -227 V
0 62 V
2 -62 V
0 62 V
0 -62 V
0 62 V
0 -130 V
0 68 V
0 -222 V
0 80 V
2 -169 V
0 89 V
0 80 V
0 74 V
0 -74 V
0 74 V
0 -582 V
0 129 V
0 186 V
3 174 V
0 75 V
0 -75 V
0 75 V
2 69 V
0 -69 V
0 69 V
0 -227 V
0 83 V
0 75 V
0 -75 V
0 75 V
0 69 V
0 -318 V
0 91 V
2 -192 V
4 192 V
0 -192 V
0 101 V
1 -217 V
0 116 V
stroke 5813 2870 M
2 -249 V
0 133 V
0 -133 V
0 133 V
8 116 V
5 101 V
15 91 V
13 83 V
3 75 V
6 69 V
0 -318 V
0 91 V
2 -192 V
0 101 V
0 -217 V
0 116 V
0 -249 V
0 133 V
2 -291 V
0 158 V
0 133 V
0 116 V
3 101 V
4 91 V
7 83 V
19 75 V
4 69 V
15 64 V
5 -31 V
0 -304 V
0 87 V
0 -415 V
0 124 V
0 108 V
0 -550 V
0 174 V
4 -391 V
0 217 V
0 174 V
0 144 V
0 -69 V
0 133 V
4 116 V
0 101 V
5 -350 V
4 249 V
0 -599 V
0 192 V
5 -441 V
0 249 V
0 -249 V
0 249 V
0 192 V
15 34 V
4 32 V
5 29 V
4 27 V
17 26 V
5 24 V
4 23 V
9 22 V
9 20 V
5 20 V
4 34 V
5 116 V
4 101 V
5 11 V
26 58 V
0 -456 V
0 139 V
0 119 V
0 -258 V
0 139 V
5 -304 V
0 165 V
0 -165 V
0 165 V
0 139 V
0 224 V
5 -105 V
0 105 V
0 93 V
0 85 V
0 77 V
0 -77 V
0 77 V
0 70 V
0 -430 V
0 105 V
0 -363 V
4 258 V
0 -258 V
0 139 V
0 -139 V
0 139 V
0 -776 V
0 268 V
5 204 V
0 304 V
1 119 V
3 -258 V
0 139 V
0 -139 V
0 139 V
stroke 6092 2723 M
0 119 V
0 105 V
0 -732 V
5 56 V
4 52 V
4 47 V
5 93 V
5 34 V
5 32 V
5 29 V
9 27 V
13 36 V
13 24 V
9 22 V
0 87 V
13 116 V
5 13 V
4 88 V
5 91 V
5 43 V
0 78 V
0 -261 V
0 96 V
0 -472 V
0 144 V
4 -144 V
0 144 V
0 124 V
0 -124 V
0 124 V
6310 1073 L
15 599 V
4 350 V
5 249 V
4 192 V
0 158 V
4 133 V
0 18 V
5 98 V
9 101 V
4 91 V
5 9 V
13 74 V
11 75 V
37 -599 V
0 133 V
4 -291 V
0 158 V
0 133 V
0 116 V
0 101 V
0 -101 V
0 101 V
0 -350 V
0 133 V
0 116 V
40 101 V
0 11 V
5 10 V
31 70 V
20 9 V
4 149 V
0 69 V
0 -826 V
0 158 V
5 -350 V
0 192 V
0 158 V
0 133 V
1 116 V
3 101 V
18 91 V
9 83 V
4 75 V
0 69 V
0 64 V
0 -382 V
0 91 V
2 83 V
0 -682 V
0 158 V
3 -350 V
0 192 V
1 158 V
3 133 V
2 116 V
0 101 V
4 91 V
4 9 V
14 74 V
8 75 V
0 -466 V
0 116 V
5 -116 V
0 116 V
0 -249 V
0 133 V
0 116 V
0 -116 V
0 116 V
0 101 V
9 91 V
4 83 V
9 75 V
9 69 V
4 64 V
5 4 V
14 -35 V
0 61 V
0 58 V
0 -519 V
0 96 V
0 -204 V
0 108 V
0 -232 V
0 124 V
4 -268 V
0 144 V
0 180 V
0 101 V
0 91 V
4 83 V
5 75 V
9 69 V
4 64 V
0 -2533 V
% End plot #4
% Begin plot #5
2.000 UP
stroke
LTb
LT1
0.00 0.00 0.63 C 1084 1672 Circle
1912 3226 Circle
2452 2908 Circle
3206 2754 Circle
3807 3084 Circle
4084 2870 Circle
4472 2463 Circle
4875 2754 Circle
5028 3145 Circle
5208 2754 Circle
5411 3062 Circle
5806 3062 Circle
6079 3272 Circle
6575 2463 Circle
% End plot #5
% Begin plot #6
2.000 UP
1.000 UL
LTb
LT1
0.00 0.00 0.63 C LCb setrgbcolor
4067 153 M
[ [(Arial) 180.0 0.0 true true 0 (per-packet)]
] -60.0 MRshow
2.000 UP
1.000 UL
LTb
LT1
0.00 0.00 0.63 C 1084 1672 Circle
4341 153 Circle
% End plot #6
% Begin plot #7
1.000 UL
LTb
LT3
0.00 0.38 0.82 C 1084 1672 M
4 350 V
5 249 V
4 192 V
0 158 V
5 133 V
0 116 V
0 101 V
37 91 V
5 83 V
0 75 V
0 69 V
1 64 V
0 -382 V
20 11 V
5 10 V
326 -122 V
23 101 V
5 91 V
4 83 V
31 7 V
5 7 V
4 -97 V
53 83 V
2 75 V
14 69 V
4 64 V
5 60 V
36 55 V
4 4 V
1 -59 V
64 -60 V
4 -64 V
51 -69 V
5 -75 V
52 7 V
6 -90 V
24 83 V
6 75 V
16 69 V
2 64 V
6 60 V
70 4 V
5 -64 V
8 60 V
5 55 V
5 53 V
4 49 V
5 47 V
4 44 V
5 42 V
16 -42 V
25 2 V
0 3 V
33 37 V
5 41 V
4 38 V
45 -38 V
24 38 V
5 37 V
4 35 V
5 34 V
4 33 V
5 31 V
4 30 V
4 30 V
10 -30 V
22 -30 V
4 -31 V
4 -33 V
13 -34 V
5 -35 V
48 -37 V
5 -38 V
20 -41 V
5 2 V
4 -44 V
45 2 V
5 -46 V
24 -47 V
6 -49 V
3 -53 V
30 -55 V
4 -60 V
2594 1073 L
15 599 V
5 350 V
6 249 V
4 192 V
0 158 V
5 133 V
0 116 V
0 101 V
5 91 V
0 -91 V
53 -101 V
5 -116 V
119 18 V
5 16 V
78 16 V
56 16 V
50 15 V
342 14 V
46 14 V
5 14 V
3498 1073 L
14 599 V
5 350 V
5 249 V
5 192 V
0 158 V
0 24 V
6 22 V
5 21 V
0 21 V
6 19 V
4 18 V
0 18 V
5 17 V
117 16 V
5 16 V
30 15 V
153 15 V
157 14 V
100 14 V
49 100 V
1 91 V
5 83 V
30 7 V
5 -90 V
30 83 V
37 -83 V
5 -91 V
63 11 V
5 10 V
48 10 V
4 10 V
4 -142 V
53 101 V
5 91 V
79 83 V
28 7 V
4 7 V
15 7 V
4 6 V
16 7 V
4 6 V
5 -123 V
5 -91 V
87 11 V
5 10 V
56 10 V
5 -132 V
29 101 V
6 91 V
24 83 V
64 7 V
5 7 V
37 -97 V
4 9 V
0 -100 V
27 11 V
5 10 V
4 -122 V
64 101 V
4 91 V
5 83 V
77 -83 V
5 -91 V
74 -101 V
39 101 V
4 91 V
4 83 V
29 -83 V
4 -91 V
85 11 V
5 10 V
67 10 V
54 10 V
4 -142 V
26 101 V
4 91 V
5 83 V
6 75 V
5658 1073 L
16 599 V
4 350 V
5 249 V
4 192 V
0 158 V
6 133 V
0 116 V
0 101 V
107 -101 V
48 101 V
0 91 V
44 83 V
5 75 V
33 69 V
4 64 V
5 60 V
63 4 V
4 3 V
5 -67 V
0 -2533 V
% End plot #7
% Begin plot #8
2.000 UP
stroke
LTb
LT3
0.00 0.38 0.82 C 1084 1672 TriU
% End plot #8
% Begin plot #9
2.000 UP
1.000 UL
LTb
LT3
0.00 0.38 0.82 C LCb setrgbcolor
5480 153 M
[ [(Arial) 180.0 0.0 true true 0 (per-flow)]
] -60.0 MRshow
2.000 UP
1.000 UL
LTb
LT3
0.00 0.38 0.82 C 1084 1672 TriU
5754 153 TriU
% End plot #9
2.000 UL
LTb
LCb setrgbcolor
1.000 UP
1.000 UL
LTb
0.00 0.00 0.00 C stroke
grestore
end
showpage
%%Trailer
%%DocumentFonts: Arial
