%!PS-Adobe-2.0 EPSF-2.0
%%Title: TcpWestwood-cwnd-1Mbps-UE24.eps
%%Creator: gnuplot 5.0 patchlevel 3
%%CreationDate: Tue May 24 14:35:53 2016
%%DocumentFonts: (atend)
%%BoundingBox: 50 50 410 302
%%EndComments
%%BeginProlog
/gnudict 256 dict def
gnudict begin
%
% The following true/false flags may be edited by hand if desired.
% The unit line width and grayscale image gamma correction may also be changed.
%
/Color true def
/Blacktext false def
/Solid false def
/Dashlength 3 def
/Landscape false def
/Level1 false def
/Level3 false def
/Rounded false def
/ClipToBoundingBox false def
/SuppressPDFMark false def
/TransparentPatterns false def
/gnulinewidth 15.000 def
/userlinewidth gnulinewidth def
/Gamma 1.0 def
/BackgroundColor {-1.000 -1.000 -1.000} def
%
/vshift -66 def
/dl1 {
  10.0 Dashlength userlinewidth gnulinewidth div mul mul mul
  Rounded { currentlinewidth 0.75 mul sub dup 0 le { pop 0.01 } if } if
} def
/dl2 {
  10.0 Dashlength userlinewidth gnulinewidth div mul mul mul
  Rounded { currentlinewidth 0.75 mul add } if
} def
/hpt_ 31.5 def
/vpt_ 31.5 def
/hpt hpt_ def
/vpt vpt_ def
/doclip {
  ClipToBoundingBox {
    newpath 50 50 moveto 410 50 lineto 410 302 lineto 50 302 lineto closepath
    clip
  } if
} def
%
% Gnuplot Prolog Version 5.1 (Oct 2015)
%
%/SuppressPDFMark true def
%
/M {moveto} bind def
/L {lineto} bind def
/R {rmoveto} bind def
/V {rlineto} bind def
/N {newpath moveto} bind def
/Z {closepath} bind def
/C {setrgbcolor} bind def
/f {rlineto fill} bind def
/g {setgray} bind def
/Gshow {show} def   % May be redefined later in the file to support UTF-8
/vpt2 vpt 2 mul def
/hpt2 hpt 2 mul def
/Lshow {currentpoint stroke M 0 vshift R 
	Blacktext {gsave 0 setgray textshow grestore} {textshow} ifelse} def
/Rshow {currentpoint stroke M dup stringwidth pop neg vshift R
	Blacktext {gsave 0 setgray textshow grestore} {textshow} ifelse} def
/Cshow {currentpoint stroke M dup stringwidth pop -2 div vshift R 
	Blacktext {gsave 0 setgray textshow grestore} {textshow} ifelse} def
/UP {dup vpt_ mul /vpt exch def hpt_ mul /hpt exch def
  /hpt2 hpt 2 mul def /vpt2 vpt 2 mul def} def
/DL {Color {setrgbcolor Solid {pop []} if 0 setdash}
 {pop pop pop 0 setgray Solid {pop []} if 0 setdash} ifelse} def
/BL {stroke userlinewidth 2 mul setlinewidth
	Rounded {1 setlinejoin 1 setlinecap} if} def
/AL {stroke userlinewidth 2 div setlinewidth
	Rounded {1 setlinejoin 1 setlinecap} if} def
/UL {dup gnulinewidth mul /userlinewidth exch def
	dup 1 lt {pop 1} if 10 mul /udl exch def} def
/PL {stroke userlinewidth setlinewidth
	Rounded {1 setlinejoin 1 setlinecap} if} def
3.8 setmiterlimit
% Classic Line colors (version 5.0)
/LCw {1 1 1} def
/LCb {0 0 0} def
/LCa {0 0 0} def
/LC0 {1 0 0} def
/LC1 {0 1 0} def
/LC2 {0 0 1} def
/LC3 {1 0 1} def
/LC4 {0 1 1} def
/LC5 {1 1 0} def
/LC6 {0 0 0} def
/LC7 {1 0.3 0} def
/LC8 {0.5 0.5 0.5} def
% Default dash patterns (version 5.0)
/LTB {BL [] LCb DL} def
/LTw {PL [] 1 setgray} def
/LTb {PL [] LCb DL} def
/LTa {AL [1 udl mul 2 udl mul] 0 setdash LCa setrgbcolor} def
/LT0 {PL [] LC0 DL} def
/LT1 {PL [2 dl1 3 dl2] LC1 DL} def
/LT2 {PL [1 dl1 1.5 dl2] LC2 DL} def
/LT3 {PL [6 dl1 2 dl2 1 dl1 2 dl2] LC3 DL} def
/LT4 {PL [1 dl1 2 dl2 6 dl1 2 dl2 1 dl1 2 dl2] LC4 DL} def
/LT5 {PL [4 dl1 2 dl2] LC5 DL} def
/LT6 {PL [1.5 dl1 1.5 dl2 1.5 dl1 1.5 dl2 1.5 dl1 6 dl2] LC6 DL} def
/LT7 {PL [3 dl1 3 dl2 1 dl1 3 dl2] LC7 DL} def
/LT8 {PL [2 dl1 2 dl2 2 dl1 6 dl2] LC8 DL} def
/SL {[] 0 setdash} def
/Pnt {stroke [] 0 setdash gsave 1 setlinecap M 0 0 V stroke grestore} def
/Dia {stroke [] 0 setdash 2 copy vpt add M
  hpt neg vpt neg V hpt vpt neg V
  hpt vpt V hpt neg vpt V closepath stroke
  Pnt} def
/Pls {stroke [] 0 setdash vpt sub M 0 vpt2 V
  currentpoint stroke M
  hpt neg vpt neg R hpt2 0 V stroke
 } def
/Box {stroke [] 0 setdash 2 copy exch hpt sub exch vpt add M
  0 vpt2 neg V hpt2 0 V 0 vpt2 V
  hpt2 neg 0 V closepath stroke
  Pnt} def
/Crs {stroke [] 0 setdash exch hpt sub exch vpt add M
  hpt2 vpt2 neg V currentpoint stroke M
  hpt2 neg 0 R hpt2 vpt2 V stroke} def
/TriU {stroke [] 0 setdash 2 copy vpt 1.12 mul add M
  hpt neg vpt -1.62 mul V
  hpt 2 mul 0 V
  hpt neg vpt 1.62 mul V closepath stroke
  Pnt} def
/Star {2 copy Pls Crs} def
/BoxF {stroke [] 0 setdash exch hpt sub exch vpt add M
  0 vpt2 neg V hpt2 0 V 0 vpt2 V
  hpt2 neg 0 V closepath fill} def
/TriUF {stroke [] 0 setdash vpt 1.12 mul add M
  hpt neg vpt -1.62 mul V
  hpt 2 mul 0 V
  hpt neg vpt 1.62 mul V closepath fill} def
/TriD {stroke [] 0 setdash 2 copy vpt 1.12 mul sub M
  hpt neg vpt 1.62 mul V
  hpt 2 mul 0 V
  hpt neg vpt -1.62 mul V closepath stroke
  Pnt} def
/TriDF {stroke [] 0 setdash vpt 1.12 mul sub M
  hpt neg vpt 1.62 mul V
  hpt 2 mul 0 V
  hpt neg vpt -1.62 mul V closepath fill} def
/DiaF {stroke [] 0 setdash vpt add M
  hpt neg vpt neg V hpt vpt neg V
  hpt vpt V hpt neg vpt V closepath fill} def
/Pent {stroke [] 0 setdash 2 copy gsave
  translate 0 hpt M 4 {72 rotate 0 hpt L} repeat
  closepath stroke grestore Pnt} def
/PentF {stroke [] 0 setdash gsave
  translate 0 hpt M 4 {72 rotate 0 hpt L} repeat
  closepath fill grestore} def
/Circle {stroke [] 0 setdash 2 copy
  hpt 0 360 arc stroke Pnt} def
/CircleF {stroke [] 0 setdash hpt 0 360 arc fill} def
/C0 {BL [] 0 setdash 2 copy moveto vpt 90 450 arc} bind def
/C1 {BL [] 0 setdash 2 copy moveto
	2 copy vpt 0 90 arc closepath fill
	vpt 0 360 arc closepath} bind def
/C2 {BL [] 0 setdash 2 copy moveto
	2 copy vpt 90 180 arc closepath fill
	vpt 0 360 arc closepath} bind def
/C3 {BL [] 0 setdash 2 copy moveto
	2 copy vpt 0 180 arc closepath fill
	vpt 0 360 arc closepath} bind def
/C4 {BL [] 0 setdash 2 copy moveto
	2 copy vpt 180 270 arc closepath fill
	vpt 0 360 arc closepath} bind def
/C5 {BL [] 0 setdash 2 copy moveto
	2 copy vpt 0 90 arc
	2 copy moveto
	2 copy vpt 180 270 arc closepath fill
	vpt 0 360 arc} bind def
/C6 {BL [] 0 setdash 2 copy moveto
	2 copy vpt 90 270 arc closepath fill
	vpt 0 360 arc closepath} bind def
/C7 {BL [] 0 setdash 2 copy moveto
	2 copy vpt 0 270 arc closepath fill
	vpt 0 360 arc closepath} bind def
/C8 {BL [] 0 setdash 2 copy moveto
	2 copy vpt 270 360 arc closepath fill
	vpt 0 360 arc closepath} bind def
/C9 {BL [] 0 setdash 2 copy moveto
	2 copy vpt 270 450 arc closepath fill
	vpt 0 360 arc closepath} bind def
/C10 {BL [] 0 setdash 2 copy 2 copy moveto vpt 270 360 arc closepath fill
	2 copy moveto
	2 copy vpt 90 180 arc closepath fill
	vpt 0 360 arc closepath} bind def
/C11 {BL [] 0 setdash 2 copy moveto
	2 copy vpt 0 180 arc closepath fill
	2 copy moveto
	2 copy vpt 270 360 arc closepath fill
	vpt 0 360 arc closepath} bind def
/C12 {BL [] 0 setdash 2 copy moveto
	2 copy vpt 180 360 arc closepath fill
	vpt 0 360 arc closepath} bind def
/C13 {BL [] 0 setdash 2 copy moveto
	2 copy vpt 0 90 arc closepath fill
	2 copy moveto
	2 copy vpt 180 360 arc closepath fill
	vpt 0 360 arc closepath} bind def
/C14 {BL [] 0 setdash 2 copy moveto
	2 copy vpt 90 360 arc closepath fill
	vpt 0 360 arc} bind def
/C15 {BL [] 0 setdash 2 copy vpt 0 360 arc closepath fill
	vpt 0 360 arc closepath} bind def
/Rec {newpath 4 2 roll moveto 1 index 0 rlineto 0 exch rlineto
	neg 0 rlineto closepath} bind def
/Square {dup Rec} bind def
/Bsquare {vpt sub exch vpt sub exch vpt2 Square} bind def
/S0 {BL [] 0 setdash 2 copy moveto 0 vpt rlineto BL Bsquare} bind def
/S1 {BL [] 0 setdash 2 copy vpt Square fill Bsquare} bind def
/S2 {BL [] 0 setdash 2 copy exch vpt sub exch vpt Square fill Bsquare} bind def
/S3 {BL [] 0 setdash 2 copy exch vpt sub exch vpt2 vpt Rec fill Bsquare} bind def
/S4 {BL [] 0 setdash 2 copy exch vpt sub exch vpt sub vpt Square fill Bsquare} bind def
/S5 {BL [] 0 setdash 2 copy 2 copy vpt Square fill
	exch vpt sub exch vpt sub vpt Square fill Bsquare} bind def
/S6 {BL [] 0 setdash 2 copy exch vpt sub exch vpt sub vpt vpt2 Rec fill Bsquare} bind def
/S7 {BL [] 0 setdash 2 copy exch vpt sub exch vpt sub vpt vpt2 Rec fill
	2 copy vpt Square fill Bsquare} bind def
/S8 {BL [] 0 setdash 2 copy vpt sub vpt Square fill Bsquare} bind def
/S9 {BL [] 0 setdash 2 copy vpt sub vpt vpt2 Rec fill Bsquare} bind def
/S10 {BL [] 0 setdash 2 copy vpt sub vpt Square fill 2 copy exch vpt sub exch vpt Square fill
	Bsquare} bind def
/S11 {BL [] 0 setdash 2 copy vpt sub vpt Square fill 2 copy exch vpt sub exch vpt2 vpt Rec fill
	Bsquare} bind def
/S12 {BL [] 0 setdash 2 copy exch vpt sub exch vpt sub vpt2 vpt Rec fill Bsquare} bind def
/S13 {BL [] 0 setdash 2 copy exch vpt sub exch vpt sub vpt2 vpt Rec fill
	2 copy vpt Square fill Bsquare} bind def
/S14 {BL [] 0 setdash 2 copy exch vpt sub exch vpt sub vpt2 vpt Rec fill
	2 copy exch vpt sub exch vpt Square fill Bsquare} bind def
/S15 {BL [] 0 setdash 2 copy Bsquare fill Bsquare} bind def
/D0 {gsave translate 45 rotate 0 0 S0 stroke grestore} bind def
/D1 {gsave translate 45 rotate 0 0 S1 stroke grestore} bind def
/D2 {gsave translate 45 rotate 0 0 S2 stroke grestore} bind def
/D3 {gsave translate 45 rotate 0 0 S3 stroke grestore} bind def
/D4 {gsave translate 45 rotate 0 0 S4 stroke grestore} bind def
/D5 {gsave translate 45 rotate 0 0 S5 stroke grestore} bind def
/D6 {gsave translate 45 rotate 0 0 S6 stroke grestore} bind def
/D7 {gsave translate 45 rotate 0 0 S7 stroke grestore} bind def
/D8 {gsave translate 45 rotate 0 0 S8 stroke grestore} bind def
/D9 {gsave translate 45 rotate 0 0 S9 stroke grestore} bind def
/D10 {gsave translate 45 rotate 0 0 S10 stroke grestore} bind def
/D11 {gsave translate 45 rotate 0 0 S11 stroke grestore} bind def
/D12 {gsave translate 45 rotate 0 0 S12 stroke grestore} bind def
/D13 {gsave translate 45 rotate 0 0 S13 stroke grestore} bind def
/D14 {gsave translate 45 rotate 0 0 S14 stroke grestore} bind def
/D15 {gsave translate 45 rotate 0 0 S15 stroke grestore} bind def
/DiaE {stroke [] 0 setdash vpt add M
  hpt neg vpt neg V hpt vpt neg V
  hpt vpt V hpt neg vpt V closepath stroke} def
/BoxE {stroke [] 0 setdash exch hpt sub exch vpt add M
  0 vpt2 neg V hpt2 0 V 0 vpt2 V
  hpt2 neg 0 V closepath stroke} def
/TriUE {stroke [] 0 setdash vpt 1.12 mul add M
  hpt neg vpt -1.62 mul V
  hpt 2 mul 0 V
  hpt neg vpt 1.62 mul V closepath stroke} def
/TriDE {stroke [] 0 setdash vpt 1.12 mul sub M
  hpt neg vpt 1.62 mul V
  hpt 2 mul 0 V
  hpt neg vpt -1.62 mul V closepath stroke} def
/PentE {stroke [] 0 setdash gsave
  translate 0 hpt M 4 {72 rotate 0 hpt L} repeat
  closepath stroke grestore} def
/CircE {stroke [] 0 setdash 
  hpt 0 360 arc stroke} def
/Opaque {gsave closepath 1 setgray fill grestore 0 setgray closepath} def
/DiaW {stroke [] 0 setdash vpt add M
  hpt neg vpt neg V hpt vpt neg V
  hpt vpt V hpt neg vpt V Opaque stroke} def
/BoxW {stroke [] 0 setdash exch hpt sub exch vpt add M
  0 vpt2 neg V hpt2 0 V 0 vpt2 V
  hpt2 neg 0 V Opaque stroke} def
/TriUW {stroke [] 0 setdash vpt 1.12 mul add M
  hpt neg vpt -1.62 mul V
  hpt 2 mul 0 V
  hpt neg vpt 1.62 mul V Opaque stroke} def
/TriDW {stroke [] 0 setdash vpt 1.12 mul sub M
  hpt neg vpt 1.62 mul V
  hpt 2 mul 0 V
  hpt neg vpt -1.62 mul V Opaque stroke} def
/PentW {stroke [] 0 setdash gsave
  translate 0 hpt M 4 {72 rotate 0 hpt L} repeat
  Opaque stroke grestore} def
/CircW {stroke [] 0 setdash 
  hpt 0 360 arc Opaque stroke} def
/BoxFill {gsave Rec 1 setgray fill grestore} def
/Density {
  /Fillden exch def
  currentrgbcolor
  /ColB exch def /ColG exch def /ColR exch def
  /ColR ColR Fillden mul Fillden sub 1 add def
  /ColG ColG Fillden mul Fillden sub 1 add def
  /ColB ColB Fillden mul Fillden sub 1 add def
  ColR ColG ColB setrgbcolor} def
/BoxColFill {gsave Rec PolyFill} def
/PolyFill {gsave Density fill grestore grestore} def
/h {rlineto rlineto rlineto gsave closepath fill grestore} bind def
%
% PostScript Level 1 Pattern Fill routine for rectangles
% Usage: x y w h s a XX PatternFill
%	x,y = lower left corner of box to be filled
%	w,h = width and height of box
%	  a = angle in degrees between lines and x-axis
%	 XX = 0/1 for no/yes cross-hatch
%
/PatternFill {gsave /PFa [ 9 2 roll ] def
  PFa 0 get PFa 2 get 2 div add PFa 1 get PFa 3 get 2 div add translate
  PFa 2 get -2 div PFa 3 get -2 div PFa 2 get PFa 3 get Rec
  TransparentPatterns {} {gsave 1 setgray fill grestore} ifelse
  clip
  currentlinewidth 0.5 mul setlinewidth
  /PFs PFa 2 get dup mul PFa 3 get dup mul add sqrt def
  0 0 M PFa 5 get rotate PFs -2 div dup translate
  0 1 PFs PFa 4 get div 1 add floor cvi
	{PFa 4 get mul 0 M 0 PFs V} for
  0 PFa 6 get ne {
	0 1 PFs PFa 4 get div 1 add floor cvi
	{PFa 4 get mul 0 2 1 roll M PFs 0 V} for
 } if
  stroke grestore} def
%
/languagelevel where
 {pop languagelevel} {1} ifelse
dup 2 lt
	{/InterpretLevel1 true def
	 /InterpretLevel3 false def}
	{/InterpretLevel1 Level1 def
	 2 gt
	    {/InterpretLevel3 Level3 def}
	    {/InterpretLevel3 false def}
	 ifelse }
 ifelse
%
% PostScript level 2 pattern fill definitions
%
/Level2PatternFill {
/Tile8x8 {/PaintType 2 /PatternType 1 /TilingType 1 /BBox [0 0 8 8] /XStep 8 /YStep 8}
	bind def
/KeepColor {currentrgbcolor [/Pattern /DeviceRGB] setcolorspace} bind def
<< Tile8x8
 /PaintProc {0.5 setlinewidth pop 0 0 M 8 8 L 0 8 M 8 0 L stroke} 
>> matrix makepattern
/Pat1 exch def
<< Tile8x8
 /PaintProc {0.5 setlinewidth pop 0 0 M 8 8 L 0 8 M 8 0 L stroke
	0 4 M 4 8 L 8 4 L 4 0 L 0 4 L stroke}
>> matrix makepattern
/Pat2 exch def
<< Tile8x8
 /PaintProc {0.5 setlinewidth pop 0 0 M 0 8 L
	8 8 L 8 0 L 0 0 L fill}
>> matrix makepattern
/Pat3 exch def
<< Tile8x8
 /PaintProc {0.5 setlinewidth pop -4 8 M 8 -4 L
	0 12 M 12 0 L stroke}
>> matrix makepattern
/Pat4 exch def
<< Tile8x8
 /PaintProc {0.5 setlinewidth pop -4 0 M 8 12 L
	0 -4 M 12 8 L stroke}
>> matrix makepattern
/Pat5 exch def
<< Tile8x8
 /PaintProc {0.5 setlinewidth pop -2 8 M 4 -4 L
	0 12 M 8 -4 L 4 12 M 10 0 L stroke}
>> matrix makepattern
/Pat6 exch def
<< Tile8x8
 /PaintProc {0.5 setlinewidth pop -2 0 M 4 12 L
	0 -4 M 8 12 L 4 -4 M 10 8 L stroke}
>> matrix makepattern
/Pat7 exch def
<< Tile8x8
 /PaintProc {0.5 setlinewidth pop 8 -2 M -4 4 L
	12 0 M -4 8 L 12 4 M 0 10 L stroke}
>> matrix makepattern
/Pat8 exch def
<< Tile8x8
 /PaintProc {0.5 setlinewidth pop 0 -2 M 12 4 L
	-4 0 M 12 8 L -4 4 M 8 10 L stroke}
>> matrix makepattern
/Pat9 exch def
/Pattern1 {PatternBgnd KeepColor Pat1 setpattern} bind def
/Pattern2 {PatternBgnd KeepColor Pat2 setpattern} bind def
/Pattern3 {PatternBgnd KeepColor Pat3 setpattern} bind def
/Pattern4 {PatternBgnd KeepColor Landscape {Pat5} {Pat4} ifelse setpattern} bind def
/Pattern5 {PatternBgnd KeepColor Landscape {Pat4} {Pat5} ifelse setpattern} bind def
/Pattern6 {PatternBgnd KeepColor Landscape {Pat9} {Pat6} ifelse setpattern} bind def
/Pattern7 {PatternBgnd KeepColor Landscape {Pat8} {Pat7} ifelse setpattern} bind def
} def
%
%
%End of PostScript Level 2 code
%
/PatternBgnd {
  TransparentPatterns {} {gsave 1 setgray fill grestore} ifelse
} def
%
% Substitute for Level 2 pattern fill codes with
% grayscale if Level 2 support is not selected.
%
/Level1PatternFill {
/Pattern1 {0.250 Density} bind def
/Pattern2 {0.500 Density} bind def
/Pattern3 {0.750 Density} bind def
/Pattern4 {0.125 Density} bind def
/Pattern5 {0.375 Density} bind def
/Pattern6 {0.625 Density} bind def
/Pattern7 {0.875 Density} bind def
} def
%
% Now test for support of Level 2 code
%
Level1 {Level1PatternFill} {Level2PatternFill} ifelse
%
/Symbol-Oblique /Symbol findfont [1 0 .167 1 0 0] makefont
dup length dict begin {1 index /FID eq {pop pop} {def} ifelse} forall
currentdict end definefont pop
%
/MFshow {
   { dup 5 get 3 ge
     { 5 get 3 eq {gsave} {grestore} ifelse }
     {dup dup 0 get findfont exch 1 get scalefont setfont
     [ currentpoint ] exch dup 2 get 0 exch R dup 5 get 2 ne {dup dup 6
     get exch 4 get {textshow} {stringwidth pop 0 R} ifelse }if dup 5 get 0 eq
     {dup 3 get {2 get neg 0 exch R pop} {pop aload pop M} ifelse} {dup 5
     get 1 eq {dup 2 get exch dup 3 get exch 6 get stringwidth pop -2 div
     dup 0 R} {dup 6 get stringwidth pop -2 div 0 R 6 get
     textshow 2 index {aload pop M neg 3 -1 roll neg R pop pop} {pop pop pop
     pop aload pop M} ifelse }ifelse }ifelse }
     ifelse }
   forall} def
/Gswidth {dup type /stringtype eq {stringwidth} {pop (n) stringwidth} ifelse} def
/MFwidth {0 exch { dup 5 get 3 ge { 5 get 3 eq { 0 } { pop } ifelse }
 {dup 3 get{dup dup 0 get findfont exch 1 get scalefont setfont
     6 get Gswidth pop add} {pop} ifelse} ifelse} forall} def
/MLshow { currentpoint stroke M
  0 exch R
  Blacktext {gsave 0 setgray MFshow grestore} {MFshow} ifelse } bind def
/MRshow { currentpoint stroke M
  exch dup MFwidth neg 3 -1 roll R
  Blacktext {gsave 0 setgray MFshow grestore} {MFshow} ifelse } bind def
/MCshow { currentpoint stroke M
  exch dup MFwidth -2 div 3 -1 roll R
  Blacktext {gsave 0 setgray MFshow grestore} {MFshow} ifelse } bind def
/XYsave    { [( ) 1 2 true false 3 ()] } bind def
/XYrestore { [( ) 1 2 true false 4 ()] } bind def
Level1 SuppressPDFMark or 
{} {
/SDict 10 dict def
systemdict /pdfmark known not {
  userdict /pdfmark systemdict /cleartomark get put
} if
SDict begin [
  /Title (TcpWestwood-cwnd-1Mbps-UE24.eps)
  /Subject (gnuplot plot)
  /Creator (gnuplot 5.0 patchlevel 3)
  /Author (nat)
%  /Producer (gnuplot)
%  /Keywords ()
  /CreationDate (Tue May 24 14:35:53 2016)
  /DOCINFO pdfmark
end
} ifelse
%
% Support for boxed text - Ethan A Merritt May 2005
%
/InitTextBox { userdict /TBy2 3 -1 roll put userdict /TBx2 3 -1 roll put
           userdict /TBy1 3 -1 roll put userdict /TBx1 3 -1 roll put
	   /Boxing true def } def
/ExtendTextBox { Boxing
    { gsave dup false charpath pathbbox
      dup TBy2 gt {userdict /TBy2 3 -1 roll put} {pop} ifelse
      dup TBx2 gt {userdict /TBx2 3 -1 roll put} {pop} ifelse
      dup TBy1 lt {userdict /TBy1 3 -1 roll put} {pop} ifelse
      dup TBx1 lt {userdict /TBx1 3 -1 roll put} {pop} ifelse
      grestore } if } def
/PopTextBox { newpath TBx1 TBxmargin sub TBy1 TBymargin sub M
               TBx1 TBxmargin sub TBy2 TBymargin add L
	       TBx2 TBxmargin add TBy2 TBymargin add L
	       TBx2 TBxmargin add TBy1 TBymargin sub L closepath } def
/DrawTextBox { PopTextBox stroke /Boxing false def} def
/FillTextBox { gsave PopTextBox 1 1 1 setrgbcolor fill grestore /Boxing false def} def
0 0 0 0 InitTextBox
/TBxmargin 20 def
/TBymargin 20 def
/Boxing false def
/textshow { ExtendTextBox Gshow } def
%
% redundant definitions for compatibility with prologue.ps older than 5.0.2
/LTB {BL [] LCb DL} def
/LTb {PL [] LCb DL} def
end
%%EndProlog
%%Page: 1 1
gnudict begin
gsave
doclip
50 50 translate
0.050 0.050 scale
0 setgray
newpath
(Arial) findfont 200 scalefont setfont
BackgroundColor 0 lt 3 1 roll 0 lt exch 0 lt or or not {BackgroundColor C 1.000 0 0 7200.00 5040.00 BoxColFill} if
1.000 UL
LTb
0.00 0.00 0.00 C 0.500 UL
LTa
0.50 0.50 0.50 C 1100 820 M
5739 0 V
stroke
1.000 UL
LTb
0.00 0.00 0.00 C 1100 820 M
63 0 V
5676 0 R
-63 0 V
stroke
980 820 M
[ [(Arial) 200.0 0.0 true true 0 ( 1)]
] -66.7 MRshow
1.000 UL
LTb
0.00 0.00 0.00 C 1100 1219 M
31 0 V
5708 0 R
-31 0 V
1100 1453 M
31 0 V
5708 0 R
-31 0 V
1100 1619 M
31 0 V
5708 0 R
-31 0 V
1100 1747 M
31 0 V
5708 0 R
-31 0 V
1100 1852 M
31 0 V
5708 0 R
-31 0 V
-5708 89 R
31 0 V
5708 0 R
-31 0 V
-5708 77 R
31 0 V
5708 0 R
-31 0 V
-5708 68 R
31 0 V
5708 0 R
-31 0 V
stroke
0.500 UL
LTa
0.50 0.50 0.50 C 1100 2146 M
5739 0 V
stroke
1.000 UL
LTb
0.00 0.00 0.00 C 1100 2146 M
63 0 V
5676 0 R
-63 0 V
stroke
980 2146 M
[ [(Arial) 200.0 0.0 true true 0 ( 10)]
] -66.7 MRshow
1.000 UL
LTb
0.00 0.00 0.00 C 1100 2546 M
31 0 V
5708 0 R
-31 0 V
1100 2779 M
31 0 V
5708 0 R
-31 0 V
1100 2945 M
31 0 V
5708 0 R
-31 0 V
1100 3073 M
31 0 V
5708 0 R
-31 0 V
1100 3178 M
31 0 V
5708 0 R
-31 0 V
-5708 89 R
31 0 V
5708 0 R
-31 0 V
-5708 77 R
31 0 V
5708 0 R
-31 0 V
-5708 68 R
31 0 V
5708 0 R
-31 0 V
stroke
0.500 UL
LTa
0.50 0.50 0.50 C 1100 3473 M
5739 0 V
stroke
1.000 UL
LTb
0.00 0.00 0.00 C 1100 3473 M
63 0 V
5676 0 R
-63 0 V
stroke
980 3473 M
[ [(Arial) 200.0 0.0 true true 0 ( 100)]
] -66.7 MRshow
1.000 UL
LTb
0.00 0.00 0.00 C 1100 3872 M
31 0 V
5708 0 R
-31 0 V
1100 4105 M
31 0 V
5708 0 R
-31 0 V
1100 4271 M
31 0 V
5708 0 R
-31 0 V
1100 4400 M
31 0 V
5708 0 R
-31 0 V
1100 4505 M
31 0 V
5708 0 R
-31 0 V
-5708 89 R
31 0 V
5708 0 R
-31 0 V
-5708 76 R
31 0 V
5708 0 R
-31 0 V
-5708 68 R
31 0 V
5708 0 R
-31 0 V
stroke
0.500 UL
LTa
0.50 0.50 0.50 C 1100 4799 M
5739 0 V
stroke
1.000 UL
LTb
0.00 0.00 0.00 C 1100 4799 M
63 0 V
5676 0 R
-63 0 V
stroke
980 4799 M
[ [(Arial) 200.0 0.0 true true 0 ( 1000)]
] -66.7 MRshow
1.000 UL
LTb
0.00 0.00 0.00 C 0.500 UL
LTa
0.50 0.50 0.50 C 1100 820 M
0 3979 V
stroke
1.000 UL
LTb
0.00 0.00 0.00 C 1100 820 M
0 63 V
0 3916 R
0 -63 V
stroke
1100 620 M
[ [(Arial) 200.0 0.0 true true 0 ( 4)]
] -66.7 MCshow
1.000 UL
LTb
0.00 0.00 0.00 C 0.500 UL
LTa
0.50 0.50 0.50 C 1674 820 M
0 3979 V
stroke
1.000 UL
LTb
0.00 0.00 0.00 C 1674 820 M
0 63 V
0 3916 R
0 -63 V
stroke
1674 620 M
[ [(Arial) 200.0 0.0 true true 0 ( 6)]
] -66.7 MCshow
1.000 UL
LTb
0.00 0.00 0.00 C 0.500 UL
LTa
0.50 0.50 0.50 C 2248 820 M
0 3979 V
stroke
1.000 UL
LTb
0.00 0.00 0.00 C 2248 820 M
0 63 V
0 3916 R
0 -63 V
stroke
2248 620 M
[ [(Arial) 200.0 0.0 true true 0 ( 8)]
] -66.7 MCshow
1.000 UL
LTb
0.00 0.00 0.00 C 0.500 UL
LTa
0.50 0.50 0.50 C 2822 820 M
0 3979 V
stroke
1.000 UL
LTb
0.00 0.00 0.00 C 2822 820 M
0 63 V
0 3916 R
0 -63 V
stroke
2822 620 M
[ [(Arial) 200.0 0.0 true true 0 ( 10)]
] -66.7 MCshow
1.000 UL
LTb
0.00 0.00 0.00 C 0.500 UL
LTa
0.50 0.50 0.50 C 3396 820 M
0 3979 V
stroke
1.000 UL
LTb
0.00 0.00 0.00 C 3396 820 M
0 63 V
0 3916 R
0 -63 V
stroke
3396 620 M
[ [(Arial) 200.0 0.0 true true 0 ( 12)]
] -66.7 MCshow
1.000 UL
LTb
0.00 0.00 0.00 C 0.500 UL
LTa
0.50 0.50 0.50 C 3970 820 M
0 3979 V
stroke
1.000 UL
LTb
0.00 0.00 0.00 C 3970 820 M
0 63 V
0 3916 R
0 -63 V
stroke
3970 620 M
[ [(Arial) 200.0 0.0 true true 0 ( 14)]
] -66.7 MCshow
1.000 UL
LTb
0.00 0.00 0.00 C 0.500 UL
LTa
0.50 0.50 0.50 C 4543 820 M
0 3979 V
stroke
1.000 UL
LTb
0.00 0.00 0.00 C 4543 820 M
0 63 V
0 3916 R
0 -63 V
stroke
4543 620 M
[ [(Arial) 200.0 0.0 true true 0 ( 16)]
] -66.7 MCshow
1.000 UL
LTb
0.00 0.00 0.00 C 0.500 UL
LTa
0.50 0.50 0.50 C 5117 820 M
0 3979 V
stroke
1.000 UL
LTb
0.00 0.00 0.00 C 5117 820 M
0 63 V
0 3916 R
0 -63 V
stroke
5117 620 M
[ [(Arial) 200.0 0.0 true true 0 ( 18)]
] -66.7 MCshow
1.000 UL
LTb
0.00 0.00 0.00 C 0.500 UL
LTa
0.50 0.50 0.50 C 5691 820 M
0 3979 V
stroke
1.000 UL
LTb
0.00 0.00 0.00 C 5691 820 M
0 63 V
0 3916 R
0 -63 V
stroke
5691 620 M
[ [(Arial) 200.0 0.0 true true 0 ( 20)]
] -66.7 MCshow
1.000 UL
LTb
0.00 0.00 0.00 C 0.500 UL
LTa
0.50 0.50 0.50 C 6265 820 M
0 3979 V
stroke
1.000 UL
LTb
0.00 0.00 0.00 C 6265 820 M
0 63 V
0 3916 R
0 -63 V
stroke
6265 620 M
[ [(Arial) 200.0 0.0 true true 0 ( 22)]
] -66.7 MCshow
1.000 UL
LTb
0.00 0.00 0.00 C 0.500 UL
LTa
0.50 0.50 0.50 C 6839 820 M
0 3979 V
stroke
1.000 UL
LTb
0.00 0.00 0.00 C 6839 820 M
0 63 V
0 3916 R
0 -63 V
stroke
6839 620 M
[ [(Arial) 200.0 0.0 true true 0 ( 24)]
] -66.7 MCshow
1.000 UL
LTb
0.00 0.00 0.00 C 1.000 UL
LTB
0.00 0.00 0.00 C 1100 4799 M
0 -3979 V
5739 0 V
0 3979 R
-5739 0 R
1.000 UP
stroke
LTb
0.00 0.00 0.00 C LCb setrgbcolor
160 2809 M
currentpoint gsave translate -270 rotate 0 0 moveto
[ [(Arial) 200.0 0.0 true true 0 (cWnd \(KB\))]
] -66.7 MCshow
grestore
LTb
LCb setrgbcolor
3969 320 M
[ [(Arial) 200.0 0.0 true true 0 (Time \(s\))]
] -66.7 MCshow
LTb
% Begin plot #1
1.000 UL
LTa
0.60 0.60 0.00 C 4037 1388 M
10 233 V
9 166 V
10 129 V
0 105 V
12 88 V
0 77 V
0 68 V
10 61 V
0 55 V
0 50 V
0 46 V
11 43 V
0 39 V
0 38 V
0 35 V
0 32 V
0 32 V
10 29 V
0 28 V
0 27 V
0 26 V
0 24 V
0 24 V
0 22 V
0 22 V
0 21 V
12 20 V
0 20 V
0 19 V
0 18 V
0 18 V
0 17 V
0 17 V
0 16 V
0 16 V
0 15 V
0 15 V
0 14 V
0 15 V
0 14 V
4408 989 L
39 399 V
0 128 V
9 86 V
10 65 V
10 52 V
12 44 V
9 37 V
12 34 V
0 30 V
10 27 V
0 24 V
10 23 V
0 21 V
12 19 V
0 18 V
9 17 V
0 17 V
12 15 V
0 14 V
0 14 V
10 13 V
0 13 V
0 12 V
12 11 V
0 12 V
0 10 V
9 11 V
0 9 V
0 10 V
10 9 V
0 9 V
0 9 V
10 9 V
2 8 V
0 8 V
0 8 V
8 7 V
2 7 V
4 8 V
0 7 V
3 6 V
3 7 V
4 7 V
34 6 V
0 6 V
10 6 V
0 6 V
0 6 V
0 6 V
10 6 V
0 5 V
0 6 V
0 5 V
0 5 V
9 5 V
0 5 V
0 5 V
0 5 V
0 5 V
10 5 V
0 4 V
0 5 V
0 4 V
0 5 V
10 4 V
0 4 V
0 4 V
0 5 V
0 4 V
10 4 V
0 4 V
0 4 V
0 4 V
0 3 V
10 4 V
0 4 V
0 4 V
0 3 V
0 4 V
0 3 V
9 4 V
0 3 V
0 4 V
0 3 V
0 3 V
0 4 V
10 3 V
0 3 V
0 3 V
0 4 V
0 3 V
0 3 V
10 3 V
0 3 V
0 3 V
0 3 V
0 3 V
0 3 V
10 2 V
0 3 V
0 3 V
0 3 V
0 3 V
0 2 V
stroke 4781 2530 M
0 3 V
9 3 V
0 2 V
0 3 V
0 3 V
0 2 V
0 3 V
0 2 V
10 3 V
0 2 V
0 3 V
0 2 V
0 3 V
0 2 V
0 2 V
10 3 V
0 2 V
0 2 V
0 3 V
0 2 V
0 2 V
0 3 V
10 2 V
0 2 V
0 2 V
0 2 V
0 3 V
0 2 V
0 2 V
9 2 V
0 2 V
0 2 V
0 2 V
0 2 V
0 2 V
0 2 V
0 3 V
10 2 V
0 2 V
0 1 V
0 2 V
0 2 V
0 2 V
0 2 V
0 2 V
10 2 V
0 2 V
0 2 V
0 2 V
0 2 V
0 1 V
0 2 V
0 2 V
10 2 V
0 2 V
0 1 V
0 2 V
0 2 V
0 2 V
0 1 V
0 2 V
9 2 V
0 2 V
0 1 V
0 2 V
0 2 V
0 1 V
0 2 V
0 2 V
0 1 V
10 2 V
0 2 V
0 1 V
0 2 V
0 1 V
0 2 V
0 1 V
0 2 V
0 2 V
10 1 V
0 2 V
0 1 V
0 2 V
0 1 V
0 2 V
0 1 V
0 2 V
0 1 V
10 2 V
0 1 V
0 2 V
0 1 V
0 2 V
0 1 V
0 1 V
0 2 V
0 1 V
9 2 V
0 1 V
0 1 V
0 2 V
0 1 V
0 2 V
0 1 V
stroke 4907 2727 M
0 1 V
0 2 V
0 1 V
10 1 V
0 2 V
0 1 V
0 1 V
0 2 V
0 1 V
0 1 V
0 2 V
0 1 V
0 1 V
10 2 V
0 1 V
0 1 V
0 1 V
0 2 V
0 1 V
0 1 V
0 1 V
0 2 V
0 1 V
10 1 V
0 1 V
0 2 V
0 1 V
0 1 V
0 1 V
0 1 V
0 2 V
0 1 V
0 1 V
9 1 V
0 1 V
0 1 V
0 2 V
0 1 V
0 1 V
0 1 V
0 1 V
0 1 V
0 2 V
10 1 V
0 1 V
0 1 V
0 1 V
0 1 V
0 1 V
0 1 V
0 1 V
0 2 V
0 1 V
0 1 V
10 1 V
0 1 V
0 1 V
0 1 V
0 1 V
0 1 V
0 1 V
0 1 V
0 1 V
0 1 V
0 1 V
10 2 V
0 1 V
0 1 V
0 1 V
0 1 V
0 1 V
0 1 V
0 1 V
0 1 V
0 1 V
0 1 V
9 1 V
0 1 V
0 1 V
0 1 V
0 1 V
0 1 V
0 1 V
0 1 V
0 1 V
0 1 V
1 1 V
9 1 V
0 1 V
0 1 V
0 1 V
0 1 V
0 1 V
0 1 V
0 1 V
0 1 V
0 1 V
0 1 V
10 1 V
0 1 V
0 1 V
0 1 V
0 1 V
0 1 V
stroke 5005 2844 M
0 1 V
0 1 V
0 1 V
0 1 V
0 1 V
10 1 V
0 1 V
0 1 V
0 1 V
0 1 V
0 1 V
0 1 V
0 1 V
0 1 V
0 1 V
9 1 V
0 1 V
0 1 V
0 1 V
0 1 V
0 1 V
0 1 V
0 1 V
0 1 V
0 1 V
0 1 V
10 0 V
0 1 V
0 1 V
0 1 V
0 1 V
0 1 V
0 1 V
0 1 V
0 1 V
0 1 V
0 1 V
10 1 V
0 1 V
0 1 V
0 1 V
0 1 V
0 1 V
0 1 V
0 1 V
0 1 V
0 1 V
10 1 V
0 1 V
0 1 V
0 1 V
0 1 V
0 1 V
0 1 V
0 1 V
0 1 V
0 1 V
9 1 V
0 1 V
0 1 V
0 1 V
0 1 V
0 1 V
0 1 V
0 1 V
0 1 V
0 1 V
10 1 V
0 1 V
0 1 V
0 1 V
0 1 V
0 1 V
0 1 V
0 1 V
0 1 V
0 1 V
10 1 V
0 1 V
0 1 V
0 1 V
0 1 V
0 1 V
0 1 V
0 1 V
0 1 V
10 1 V
0 1 V
0 1 V
0 1 V
0 1 V
0 1 V
0 1 V
0 1 V
0 1 V
0 1 V
12 0 V
0 1 V
0 1 V
0 1 V
0 1 V
0 1 V
0 1 V
0 1 V
stroke 5105 2946 M
0 1 V
0 1 V
9 0 V
0 1 V
0 1 V
0 1 V
0 1 V
0 1 V
0 1 V
0 1 V
0 1 V
10 1 V
0 1 V
0 1 V
0 1 V
0 1 V
0 1 V
0 1 V
0 1 V
0 1 V
0 1 V
10 0 V
0 1 V
0 1 V
0 1 V
0 1 V
0 1 V
0 1 V
0 1 V
0 1 V
10 1 V
0 1 V
0 1 V
0 1 V
0 1 V
0 1 V
0 1 V
0 1 V
0 1 V
9 0 V
0 1 V
0 1 V
0 1 V
0 1 V
0 1 V
0 1 V
0 1 V
0 1 V
10 1 V
0 1 V
0 1 V
0 1 V
0 1 V
0 1 V
0 1 V
0 1 V
0 1 V
10 0 V
0 1 V
0 1 V
0 1 V
0 1 V
0 1 V
0 1 V
0 1 V
0 1 V
10 1 V
0 1 V
0 1 V
0 1 V
0 1 V
0 1 V
0 1 V
0 1 V
9 1 V
0 1 V
0 1 V
0 1 V
0 1 V
1 1 V
0 1 V
0 1 V
9 0 V
0 1 V
0 1 V
0 1 V
0 1 V
0 1 V
0 1 V
0 1 V
0 1 V
10 1 V
0 1 V
0 1 V
0 1 V
0 1 V
0 1 V
0 1 V
0 1 V
10 0 V
0 1 V
0 1 V
0 1 V
0 1 V
stroke 5222 3044 M
0 1 V
0 1 V
0 1 V
0 1 V
9 0 V
0 1 V
0 1 V
0 1 V
0 1 V
0 1 V
0 1 V
0 1 V
10 1 V
0 1 V
0 1 V
0 1 V
0 1 V
0 1 V
0 1 V
2 0 V
0 1 V
8 0 V
0 1 V
0 1 V
0 1 V
0 1 V
0 1 V
0 1 V
0 1 V
10 1 V
0 1 V
0 1 V
0 1 V
0 1 V
0 1 V
0 1 V
0 1 V
9 0 V
0 1 V
0 1 V
0 1 V
0 1 V
39 1 V
0 1 V
0 1 V
0 1 V
10 1 V
0 1 V
0 1 V
0 1 V
0 1 V
0 1 V
1 1 V
37 1 V
0 1 V
0 1 V
0 1 V
0 1 V
0 1 V
0 1 V
10 1 V
0 1 V
0 1 V
0 1 V
0 1 V
0 1 V
0 1 V
10 1 V
0 1 V
0 1 V
0 1 V
0 1 V
0 1 V
0 1 V
9 0 V
0 1 V
0 1 V
0 1 V
0 1 V
0 1 V
0 1 V
0 1 V
10 0 V
0 1 V
0 1 V
38 1 V
0 1 V
0 1 V
10 0 V
0 1 V
0 1 V
0 1 V
1 0 V
0 1 V
0 1 V
0 1 V
97 1 V
10 0 V
0 1 V
0 1 V
0 1 V
0 1 V
0 1 V
0 1 V
stroke 5552 3139 M
10 1 V
0 1 V
0 1 V
0 1 V
0 1 V
0 1 V
0 1 V
10 0 V
0 1 V
0 1 V
0 1 V
0 1 V
0 1 V
0 1 V
9 1 V
0 1 V
0 1 V
1 1 V
0 1 V
0 1 V
0 1 V
9 0 V
0 1 V
0 1 V
0 1 V
0 1 V
0 1 V
0 1 V
10 0 V
0 1 V
0 1 V
0 1 V
0 1 V
0 1 V
0 1 V
10 0 V
0 1 V
0 1 V
0 1 V
0 1 V
0 1 V
0 1 V
0 1 V
9 0 V
0 1 V
0 1 V
0 1 V
0 1 V
0 1 V
0 1 V
10 0 V
0 1 V
0 1 V
0 1 V
0 1 V
0 1 V
1 0 V
1 1 V
8 0 V
0 1 V
0 1 V
0 1 V
0 1 V
0 1 V
0 1 V
10 0 V
0 1 V
0 1 V
0 1 V
0 1 V
0 1 V
0 1 V
9 0 V
0 1 V
0 1 V
0 1 V
0 1 V
0 1 V
0 1 V
10 0 V
0 1 V
0 1 V
0 1 V
0 1 V
0 1 V
10 1 V
0 1 V
0 1 V
0 1 V
0 1 V
1 1 V
9 0 V
0 1 V
0 1 V
0 1 V
0 1 V
0 1 V
0 1 V
9 0 V
0 1 V
0 1 V
1 1 V
0 1 V
0 1 V
stroke 5699 3230 M
0 1 V
9 0 V
0 1 V
0 1 V
0 1 V
0 1 V
0 1 V
10 1 V
0 1 V
0 1 V
0 1 V
0 1 V
0 1 V
10 0 V
0 1 V
0 1 V
0 1 V
0 1 V
0 1 V
10 0 V
0 1 V
0 1 V
0 1 V
0 1 V
0 1 V
0 1 V
11 0 V
0 1 V
0 1 V
1 0 V
0 1 V
0 1 V
0 1 V
9 0 V
0 1 V
0 1 V
0 1 V
0 1 V
0 1 V
10 1 V
0 1 V
0 1 V
0 1 V
0 1 V
10 1 V
0 1 V
0 1 V
0 1 V
0 1 V
0 1 V
11 0 V
0 1 V
0 1 V
1 0 V
0 1 V
0 1 V
0 1 V
9 0 V
0 1 V
0 1 V
0 1 V
0 1 V
0 1 V
6 0 V
4 0 V
0 1 V
0 1 V
0 1 V
0 1 V
0 1 V
6 0 V
33 0 V
0 1 V
0 1 V
0 1 V
10 0 V
0 1 V
0 1 V
0 1 V
0 1 V
1 0 V
0 1 V
9 0 V
0 1 V
0 1 V
0 1 V
0 1 V
0 1 V
10 0 V
0 1 V
0 1 V
0 1 V
0 1 V
0 1 V
9 0 V
0 1 V
0 1 V
0 1 V
0 1 V
1 0 V
0 1 V
9 0 V
0 1 V
0 1 V
stroke 5898 3314 M
0 1 V
0 1 V
10 1 V
0 1 V
0 1 V
0 1 V
1 0 V
0 1 V
9 1 V
0 1 V
0 1 V
0 1 V
0 1 V
9 0 V
0 1 V
0 1 V
1 0 V
0 1 V
0 1 V
0 1 V
9 0 V
0 1 V
0 1 V
0 1 V
0 1 V
1 0 V
0 1 V
9 0 V
0 1 V
0 1 V
0 1 V
0 1 V
1 0 V
9 0 V
0 1 V
0 1 V
0 1 V
0 1 V
0 1 V
9 0 V
0 1 V
0 1 V
1 0 V
0 1 V
0 1 V
9 1 V
0 1 V
1 0 V
0 1 V
0 1 V
0 1 V
9 0 V
0 1 V
0 1 V
0 1 V
0 1 V
1 0 V
0 1 V
9 0 V
0 1 V
0 1 V
0 1 V
0 1 V
10 0 V
0 1 V
0 1 V
0 1 V
0 1 V
9 1 V
0 1 V
0 1 V
0 1 V
1 0 V
0 1 V
9 0 V
0 1 V
0 1 V
0 1 V
0 1 V
1 0 V
9 0 V
0 1 V
0 1 V
0 1 V
0 1 V
0 1 V
10 0 V
2 0 V
0 1 V
0 1 V
0 1 V
0 1 V
7 0 V
3 0 V
0 1 V
0 1 V
0 1 V
36 1 V
0 1 V
0 1 V
0 1 V
10 0 V
0 1 V
0 1 V
stroke 6103 3394 M
0 1 V
0 1 V
9 0 V
0 1 V
1 1 V
0 1 V
0 1 V
9 0 V
0 1 V
0 1 V
0 1 V
0 1 V
1 0 V
9 1 V
38 0 V
10 0 V
0 1 V
0 1 V
1 0 V
0 1 V
0 1 V
9 0 V
0 1 V
0 1 V
3 0 V
0 1 V
0 1 V
7 0 V
0 1 V
0 1 V
3 0 V
35 0 V
0 1 V
0 1 V
10 1 V
0 1 V
0 1 V
1 0 V
0 1 V
9 1 V
2 0 V
0 1 V
0 1 V
0 1 V
8 1 V
2 0 V
0 1 V
0 1 V
0 1 V
4 0 V
0 1 V
3 0 V
3 0 V
0 1 V
0 1 V
0 1 V
4 0 V
0 1 V
34 0 V
0 1 V
10 0 V
0 1 V
0 1 V
1 0 V
2 0 V
0 1 V
0 1 V
7 0 V
0 1 V
0 1 V
1 0 V
0 1 V
1 0 V
1 0 V
0 1 V
6 0 V
0 1 V
0 1 V
1 1 V
1 0 V
1 1 V
7 0 V
3 1 V
0 1 V
0 1 V
7 1 V
3 0 V
35 0 V
0 1 V
10 0 V
0 1 V
0 1 V
1 0 V
0 1 V
0 1 V
9 0 V
0 1 V
0 1 V
0 1 V
1 0 V
0 1 V
9 0 V
0 1 V
0 1 V
stroke 6435 3462 M
0 1 V
1 1 V
8 0 V
39 0 V
0 1 V
9 0 V
0 1 V
1 0 V
0 1 V
0 1 V
1 0 V
8 0 V
0 1 V
1 0 V
0 1 V
0 1 V
0 1 V
9 0 V
0 1 V
0 1 V
0 1 V
1 0 V
0 1 V
9 0 V
0 1 V
0 1 V
0 1 V
1 0 V
9 0 V
0 1 V
0 1 V
0 1 V
0 1 V
1 0 V
8 0 V
0 1 V
0 1 V
1 0 V
0 1 V
9 1 V
0 1 V
1 0 V
0 1 V
0 1 V
9 0 V
0 1 V
0 1 V
0 1 V
1 0 V
0 1 V
9 0 V
0 1 V
0 1 V
0 1 V
1 0 V
8 0 V
0 1 V
0 1 V
0 1 V
1 0 V
0 1 V
9 0 V
0 1 V
0 1 V
1 0 V
0 1 V
9 0 V
0 1 V
0 1 V
0 1 V
1 0 V
0 1 V
9 0 V
0 1 V
0 1 V
0 1 V
1 0 V
8 0 V
0 1 V
1 0 V
1 1 V
2 0 V
0 1 V
0 1 V
6 0 V
0 1 V
0 1 V
2 0 V
0 1 V
2 0 V
6 0 V
0 1 V
0 1 V
1 1 V
1 0 V
8 0 V
0 1 V
0 1 V
0 1 V
1 0 V
0 1 V
8 0 V
0 1 V
0 1 V
stroke 6658 3527 M
1 0 V
0 1 V
1 0 V
8 0 V
0 1 V
0 1 V
1 0 V
0 1 V
1 0 V
0 -2711 V
% End plot #1
% Begin plot #2
2.000 UP
stroke
LTa
0.60 0.60 0.00 C 4037 1388 Box
5591 3163 Box
6006 3367 Box
6541 3485 Box
% End plot #2
% Begin plot #3
2.000 UP
1.000 UL
LTa
0.60 0.60 0.00 C LCb setrgbcolor
2714 153 M
[ [(Arial) 180.0 0.0 true true 0 (olsr)]
] -60.0 MRshow
2.000 UP
1.000 UL
LTa
0.60 0.60 0.00 C 2822 153 M
333 0 V
882 1235 R
4037 1388 Box
2988 153 Box
% End plot #3
% Begin plot #4
1.000 UL
LTb
LT1
0.00 0.00 0.63 C 1454 1388 M
10 233 V
10 166 V
10 129 V
0 105 V
10 88 V
0 77 V
0 68 V
10 61 V
0 55 V
0 50 V
0 46 V
10 43 V
0 39 V
0 38 V
0 35 V
0 32 V
0 32 V
12 29 V
0 28 V
0 27 V
0 26 V
0 24 V
0 24 V
0 22 V
0 22 V
0 21 V
9 20 V
41 20 V
12 19 V
0 18 V
1 18 V
0 17 V
0 17 V
0 16 V
0 16 V
0 15 V
0 15 V
0 14 V
0 15 V
0 14 V
0 13 V
0 13 V
0 13 V
100 13 V
10 12 V
0 12 V
0 12 V
0 12 V
2 11 V
0 12 V
0 11 V
0 10 V
0 11 V
0 10 V
0 10 V
0 10 V
0 10 V
0 10 V
0 10 V
0 9 V
0 9 V
1 9 V
0 9 V
0 9 V
0 9 V
0 8 V
0 9 V
6 8 V
0 8 V
0 8 V
0 8 V
0 8 V
0 8 V
1 7 V
2 8 V
0 7 V
0 7 V
0 8 V
0 7 V
0 7 V
0 7 V
0 7 V
0 7 V
0 6 V
0 7 V
0 7 V
0 6 V
0 7 V
0 6 V
0 6 V
0 6 V
0 7 V
0 6 V
0 6 V
5 6 V
0 6 V
0 5 V
0 6 V
0 6 V
0 6 V
0 5 V
2 6 V
0 5 V
0 6 V
stroke 1718 3675 M
0 5 V
0 6 V
0 5 V
0 5 V
0 5 V
0 6 V
0 5 V
0 5 V
1 5 V
4 5 V
0 5 V
0 5 V
0 4 V
0 5 V
0 5 V
0 5 V
0 4 V
0 5 V
0 5 V
0 4 V
0 5 V
0 4 V
0 5 V
0 4 V
0 5 V
0 4 V
0 5 V
0 4 V
0 4 V
0 4 V
0 5 V
0 4 V
0 4 V
0 4 V
0 4 V
0 4 V
0 4 V
0 4 V
5 4 V
0 4 V
0 4 V
0 4 V
0 4 V
0 4 V
0 4 V
0 3 V
0 4 V
0 4 V
0 4 V
0 3 V
0 4 V
0 4 V
3 3 V
0 4 V
0 4 V
0 3 V
0 4 V
0 3 V
0 4 V
0 3 V
0 4 V
0 3 V
0 4 V
0 3 V
0 3 V
0 4 V
3 3 V
0 3 V
0 4 V
0 3 V
0 3 V
0 3 V
0 4 V
0 3 V
0 3 V
0 3 V
0 3 V
0 3 V
0 4 V
0 3 V
0 3 V
0 3 V
0 3 V
0 3 V
0 3 V
0 3 V
0 3 V
0 3 V
0 3 V
0 3 V
0 3 V
0 3 V
0 3 V
0 3 V
0 2 V
0 3 V
1 3 V
0 3 V
0 3 V
0 3 V
0 2 V
0 3 V
0 3 V
0 3 V
stroke 1735 4069 M
0 2 V
0 3 V
0 3 V
0 2 V
0 3 V
0 3 V
2 3 V
0 2 V
0 3 V
2 2 V
0 3 V
0 3 V
0 2 V
0 3 V
0 2 V
0 3 V
0 2 V
0 3 V
0 3 V
0 2 V
0 3 V
0 2 V
0 2 V
0 3 V
0 2 V
0 3 V
0 2 V
0 3 V
0 2 V
0 3 V
0 2 V
0 2 V
0 3 V
0 2 V
0 2 V
0 3 V
1 2 V
0 2 V
0 3 V
0 2 V
0 2 V
0 3 V
0 2 V
1 2 V
0 2 V
0 3 V
0 2 V
0 2 V
7 2 V
0 3 V
0 2 V
0 2 V
0 2 V
0 2 V
0 3 V
0 2 V
0 2 V
0 2 V
0 2 V
0 2 V
0 3 V
0 2 V
0 2 V
0 2 V
0 2 V
0 2 V
0 2 V
0 2 V
0 2 V
0 2 V
0 2 V
0 2 V
0 2 V
0 3 V
0 2 V
0 2 V
0 2 V
0 2 V
0 2 V
0 2 V
0 2 V
0 2 V
0 1 V
0 2 V
0 2 V
0 2 V
0 2 V
0 2 V
0 2 V
0 2 V
0 2 V
0 2 V
0 2 V
0 2 V
0 2 V
0 1 V
0 2 V
0 2 V
0 2 V
0 2 V
0 2 V
0 2 V
0 2 V
0 1 V
stroke 1748 4300 M
0 2 V
0 2 V
0 2 V
1 2 V
0 1 V
0 2 V
0 2 V
0 2 V
0 2 V
0 1 V
0 2 V
0 2 V
0 2 V
0 1 V
0 2 V
0 2 V
0 2 V
1 1 V
0 2 V
0 2 V
0 2 V
0 1 V
0 2 V
0 2 V
0 1 V
0 2 V
0 2 V
1 2 V
0 1 V
0 2 V
0 2 V
0 1 V
0 2 V
0 2 V
1 1 V
0 2 V
0 2 V
4 1 V
0 2 V
0 1 V
0 2 V
0 2 V
0 1 V
0 2 V
0 1 V
0 2 V
0 2 V
0 1 V
0 2 V
0 1 V
0 2 V
0 2 V
0 1 V
0 2 V
0 1 V
0 2 V
0 1 V
0 2 V
0 2 V
0 1 V
0 2 V
0 1 V
0 2 V
0 1 V
0 2 V
0 1 V
0 2 V
0 1 V
0 2 V
0 1 V
0 2 V
0 1 V
0 2 V
0 1 V
0 2 V
0 1 V
0 2 V
0 1 V
0 2 V
0 1 V
0 2 V
0 1 V
0 1 V
0 2 V
1 1 V
0 2 V
0 1 V
1 2 V
0 1 V
0 2 V
0 1 V
0 1 V
0 2 V
0 1 V
0 2 V
0 1 V
0 1 V
0 2 V
0 1 V
0 2 V
0 1 V
0 1 V
0 2 V
0 1 V
stroke 1758 4465 M
0 2 V
0 1 V
0 1 V
2 2 V
0 1 V
0 1 V
0 2 V
0 1 V
0 1 V
0 2 V
3 1 V
0 1 V
0 2 V
0 1 V
0 1 V
0 2 V
0 1 V
0 1 V
0 2 V
0 1 V
0 1 V
0 2 V
0 1 V
0 1 V
0 2 V
0 1 V
0 1 V
0 1 V
0 2 V
0 1 V
0 1 V
0 2 V
0 1 V
0 1 V
0 1 V
0 2 V
0 1 V
0 1 V
0 2 V
0 1 V
0 1 V
0 1 V
0 2 V
0 1 V
0 1 V
0 1 V
0 2 V
0 1 V
0 1 V
0 1 V
0 1 V
0 2 V
1 1 V
0 1 V
0 1 V
0 2 V
0 1 V
0 1 V
0 1 V
0 1 V
0 2 V
0 1 V
0 1 V
0 1 V
0 1 V
0 2 V
1 1 V
0 1 V
0 1 V
0 1 V
0 2 V
0 1 V
0 1 V
0 1 V
0 1 V
0 1 V
1 2 V
0 1 V
0 1 V
0 1 V
0 1 V
0 1 V
0 1 V
29 2 V
0 1 V
0 1 V
0 1 V
0 1 V
0 1 V
0 1 V
29 2 V
0 1 V
0 1 V
0 1 V
0 1 V
0 1 V
0 1 V
0 1 V
0 2 V
0 1 V
0 1 V
0 1 V
0 1 V
0 1 V
stroke 1824 4593 M
0 1 V
0 1 V
0 1 V
0 2 V
0 1 V
0 1 V
0 1 V
0 1 V
0 1 V
0 1 V
0 1 V
0 1 V
0 1 V
0 1 V
0 1 V
0 2 V
0 1 V
0 1 V
0 1 V
0 1 V
0 1 V
0 1 V
0 1 V
0 1 V
0 1 V
0 1 V
0 1 V
0 1 V
0 1 V
0 1 V
0 1 V
0 1 V
0 1 V
0 1 V
0 2 V
0 1 V
0 1 V
0 1 V
0 1 V
0 1 V
0 1 V
0 1 V
0 1 V
0 1 V
0 1 V
0 1 V
0 1 V
0 1 V
0 1 V
0 1 V
0 1 V
0 1 V
0 1 V
0 1 V
0 1 V
0 1 V
0 1 V
0 1 V
0 1 V
0 1 V
0 1 V
0 1 V
0 1 V
0 1 V
0 1 V
0 1 V
0 1 V
0 1 V
0 1 V
0 1 V
0 1 V
0 1 V
0 1 V
0 1 V
0 1 V
0 1 V
0 1 V
0 1 V
0 1 V
0 1 V
0 1 V
0 1 V
0 1 V
0 1 V
0 1 V
0 1 V
0 1 V
0 1 V
0 1 V
0 1 V
0 1 V
0 1 V
0 1 V
0 1 V
0 1 V
0 1 V
0 1 V
0 1 V
0 1 V
0 1 V
0 1 V
0 1 V
0 1 V
0 1 V
stroke 1824 4700 M
0 1 V
0 1 V
0 1 V
0 1 V
0 1 V
0 1 V
0 1 V
0 1 V
0 1 V
0 1 V
0 1 V
0 1 V
0 1 V
0 1 V
0 1 V
0 1 V
0 1 V
0 1 V
0 1 V
0 1 V
0 1 V
0 1 V
0 1 V
0 1 V
0 1 V
0 1 V
0 1 V
0 1 V
0 1 V
0 1 V
0 1 V
0 1 V
0 1 V
0 1 V
0 1 V
0 1 V
0 1 V
0 1 V
0 1 V
0 1 V
0 1 V
0 1 V
0 1 V
0 1 V
0 1 V
0 1 V
0 1 V
0 1 V
0 1 V
0 1 V
0 -2834 V
0 105 V
0 88 V
0 77 V
0 68 V
0 61 V
0 55 V
0 50 V
0 46 V
0 43 V
0 39 V
0 38 V
0 35 V
0 32 V
0 32 V
0 29 V
0 28 V
0 27 V
0 26 V
0 24 V
0 24 V
0 22 V
0 22 V
0 21 V
0 20 V
0 20 V
0 19 V
0 18 V
0 18 V
0 17 V
0 17 V
0 16 V
0 16 V
0 15 V
0 15 V
0 14 V
0 15 V
0 14 V
0 13 V
0 13 V
0 13 V
0 13 V
0 12 V
0 12 V
0 12 V
0 12 V
0 11 V
0 12 V
0 11 V
0 10 V
0 11 V
0 10 V
0 10 V
0 10 V
stroke 1824 3327 M
0 10 V
0 10 V
0 10 V
0 9 V
0 9 V
0 9 V
0 9 V
0 9 V
0 9 V
0 8 V
0 9 V
0 8 V
0 8 V
0 8 V
0 8 V
0 8 V
0 8 V
10 7 V
0 8 V
0 7 V
0 7 V
0 8 V
0 7 V
0 7 V
0 7 V
0 7 V
0 7 V
0 6 V
0 7 V
0 7 V
0 6 V
0 7 V
0 6 V
0 6 V
0 6 V
0 7 V
0 6 V
0 6 V
0 6 V
0 6 V
0 5 V
0 6 V
0 6 V
0 6 V
0 5 V
0 6 V
0 5 V
0 6 V
0 5 V
0 6 V
0 5 V
0 5 V
0 5 V
0 6 V
0 5 V
0 5 V
0 5 V
0 5 V
1 5 V
0 5 V
0 4 V
0 5 V
0 5 V
0 5 V
0 4 V
0 5 V
0 5 V
0 4 V
0 5 V
0 4 V
0 5 V
0 4 V
0 5 V
0 4 V
0 5 V
0 4 V
0 4 V
0 4 V
1 5 V
0 4 V
0 4 V
0 4 V
0 4 V
0 4 V
0 4 V
0 4 V
0 4 V
0 4 V
0 4 V
0 4 V
0 4 V
0 4 V
0 4 V
0 3 V
0 4 V
0 4 V
0 4 V
0 3 V
0 4 V
0 4 V
0 3 V
0 4 V
0 4 V
0 3 V
stroke 1836 3919 M
0 4 V
0 3 V
0 4 V
0 3 V
0 4 V
0 3 V
0 4 V
0 3 V
0 3 V
0 4 V
0 3 V
0 3 V
0 4 V
0 3 V
0 3 V
0 3 V
0 4 V
0 3 V
0 3 V
0 3 V
0 3 V
0 3 V
0 4 V
0 3 V
0 3 V
0 3 V
0 3 V
0 3 V
0 3 V
1 3 V
0 3 V
0 3 V
0 3 V
0 3 V
0 3 V
0 3 V
4 3 V
0 3 V
0 2 V
0 3 V
0 3 V
0 3 V
0 3 V
0 3 V
0 2 V
0 3 V
0 3 V
0 3 V
0 2 V
0 3 V
0 3 V
0 2 V
0 3 V
0 3 V
0 3 V
1 2 V
0 3 V
0 2 V
0 3 V
0 3 V
0 2 V
0 3 V
0 2 V
0 3 V
0 2 V
0 3 V
0 3 V
0 2 V
0 3 V
0 2 V
0 2 V
0 3 V
0 2 V
0 3 V
0 2 V
0 3 V
0 2 V
0 3 V
0 2 V
0 2 V
0 3 V
0 2 V
0 2 V
0 3 V
0 2 V
0 2 V
0 3 V
0 2 V
0 2 V
0 3 V
0 2 V
0 2 V
0 2 V
0 3 V
0 2 V
0 2 V
0 2 V
1 3 V
0 2 V
0 2 V
0 2 V
0 2 V
0 3 V
0 2 V
stroke 1843 4205 M
0 2 V
0 2 V
0 2 V
0 2 V
0 3 V
0 2 V
0 2 V
0 2 V
0 2 V
0 2 V
0 2 V
0 2 V
0 2 V
0 2 V
0 2 V
0 2 V
0 2 V
0 3 V
0 2 V
0 2 V
0 2 V
0 2 V
0 2 V
0 2 V
0 2 V
0 2 V
0 1 V
0 2 V
0 2 V
0 2 V
0 2 V
0 2 V
0 2 V
0 2 V
0 2 V
0 2 V
0 2 V
0 2 V
0 2 V
0 1 V
0 2 V
0 2 V
0 2 V
0 2 V
0 2 V
0 2 V
0 2 V
0 1 V
0 2 V
0 2 V
0 2 V
0 2 V
0 1 V
0 2 V
0 2 V
0 2 V
0 2 V
0 1 V
0 2 V
0 2 V
0 2 V
0 1 V
0 2 V
1 2 V
0 2 V
0 1 V
0 2 V
0 2 V
0 2 V
0 1 V
0 2 V
0 2 V
0 1 V
0 2 V
0 2 V
0 2 V
0 1 V
0 2 V
0 2 V
0 1 V
0 2 V
0 2 V
0 1 V
0 2 V
0 2 V
0 1 V
0 2 V
0 1 V
0 2 V
0 2 V
1 1 V
0 2 V
0 1 V
0 2 V
0 2 V
0 1 V
0 2 V
4 1 V
0 2 V
0 2 V
0 1 V
0 2 V
0 1 V
0 2 V
stroke 1849 4395 M
0 1 V
0 2 V
0 2 V
0 1 V
0 2 V
0 1 V
0 2 V
0 1 V
0 2 V
0 1 V
0 2 V
0 1 V
0 2 V
0 1 V
0 2 V
0 1 V
0 2 V
0 1 V
0 2 V
0 1 V
0 2 V
0 1 V
0 2 V
0 1 V
0 2 V
0 1 V
0 1 V
0 2 V
0 1 V
0 2 V
0 1 V
0 2 V
0 1 V
0 2 V
0 1 V
0 1 V
0 2 V
0 1 V
0 2 V
0 1 V
0 1 V
0 2 V
0 1 V
0 2 V
0 1 V
0 1 V
0 2 V
0 1 V
0 2 V
0 1 V
0 1 V
0 2 V
0 1 V
0 1 V
0 2 V
0 1 V
0 1 V
0 2 V
0 1 V
0 1 V
0 2 V
0 1 V
0 1 V
0 2 V
0 1 V
0 1 V
0 2 V
0 1 V
0 1 V
0 2 V
0 1 V
0 1 V
0 2 V
0 1 V
0 1 V
0 1 V
0 2 V
0 1 V
0 1 V
0 2 V
0 1 V
4 1 V
0 1 V
0 2 V
0 1 V
0 1 V
0 2 V
0 1 V
0 1 V
0 1 V
0 2 V
0 1 V
0 1 V
0 1 V
0 2 V
0 1 V
0 1 V
0 1 V
0 1 V
0 2 V
0 1 V
0 1 V
0 1 V
0 2 V
stroke 1853 4538 M
0 1 V
0 1 V
0 1 V
0 1 V
0 2 V
0 -2 V
0 2 V
10 -2 V
0 2 V
10 -2 V
0 2 V
10 -2 V
0 2 V
9 -2 V
0 2 V
10 -2 V
0 2 V
10 -2 V
0 2 V
10 -2 V
0 2 V
10 -2 V
0 2 V
9 -2 V
0 2 V
11 -2 V
0 2 V
9 -2 V
0 2 V
10 -2 V
0 2 V
10 -2 V
0 2 V
10 -2 V
0 2 V
9 -2 V
0 2 V
10 -2 V
0 2 V
10 -2 V
0 2 V
10 -2 V
0 2 V
10 -2 V
0 2 V
12 -2 V
0 2 V
9 -2 V
0 2 V
13 -2 V
0 2 V
10 -2 V
0 2 V
12 -2 V
0 2 V
10 -10 V
0 1 V
10 -1 V
0 1 V
9 -1 V
0 1 V
10 -1 V
0 1 V
5 -3546 V
5 399 V
10 128 V
0 86 V
5 65 V
39 52 V
0 44 V
10 37 V
0 34 V
0 30 V
10 27 V
0 24 V
0 23 V
0 21 V
9 19 V
0 18 V
1 17 V
9 17 V
0 15 V
0 14 V
0 14 V
0 13 V
10 13 V
0 12 V
0 11 V
10 12 V
0 10 V
0 11 V
0 9 V
0 10 V
9 9 V
0 9 V
0 9 V
0 9 V
0 8 V
0 8 V
39 8 V
10 7 V
0 7 V
0 8 V
0 7 V
stroke 2316 2263 M
0 6 V
0 7 V
0 7 V
0 6 V
0 6 V
10 6 V
0 6 V
0 6 V
0 6 V
0 6 V
0 5 V
0 6 V
0 5 V
2 5 V
7 5 V
0 5 V
0 5 V
0 5 V
0 5 V
0 5 V
0 4 V
0 5 V
0 4 V
1 5 V
9 4 V
0 4 V
0 4 V
0 5 V
10 4 V
0 4 V
0 4 V
0 4 V
0 4 V
0 3 V
0 4 V
0 4 V
0 4 V
0 3 V
0 4 V
0 3 V
0 4 V
1 3 V
0 4 V
0 3 V
0 3 V
0 4 V
9 3 V
0 3 V
0 3 V
0 4 V
0 3 V
0 3 V
0 3 V
0 3 V
0 3 V
0 3 V
0 3 V
0 3 V
0 2 V
10 3 V
0 3 V
0 3 V
0 3 V
0 2 V
0 3 V
0 3 V
0 2 V
10 3 V
0 3 V
0 2 V
0 3 V
0 2 V
0 3 V
0 2 V
0 3 V
0 2 V
0 3 V
0 2 V
0 2 V
0 3 V
1 2 V
0 2 V
0 3 V
0 2 V
0 2 V
11 3 V
0 2 V
0 2 V
0 2 V
0 2 V
0 3 V
0 2 V
0 2 V
0 2 V
0 2 V
0 2 V
0 2 V
0 2 V
0 2 V
0 2 V
9 3 V
0 2 V
0 2 V
0 1 V
stroke 2406 2622 M
10 2 V
0 2 V
0 2 V
0 2 V
0 2 V
1 2 V
0 2 V
0 2 V
0 2 V
0 2 V
0 1 V
0 2 V
0 2 V
0 2 V
0 2 V
0 1 V
0 2 V
0 2 V
9 2 V
0 1 V
0 2 V
0 2 V
0 2 V
0 1 V
0 2 V
0 2 V
0 1 V
0 2 V
0 2 V
12 1 V
0 2 V
0 2 V
0 1 V
0 2 V
0 1 V
0 2 V
0 1 V
0 2 V
0 2 V
10 1 V
0 2 V
0 1 V
0 2 V
0 1 V
0 2 V
0 1 V
0 2 V
0 1 V
11 2 V
0 1 V
0 2 V
0 1 V
0 2 V
0 1 V
0 1 V
0 2 V
0 1 V
10 2 V
0 1 V
0 1 V
0 2 V
0 1 V
0 2 V
0 1 V
0 1 V
0 2 V
0 1 V
10 1 V
0 2 V
0 1 V
0 1 V
0 2 V
0 1 V
0 1 V
0 2 V
0 1 V
0 1 V
10 2 V
0 1 V
0 1 V
0 1 V
0 2 V
0 1 V
0 1 V
0 1 V
0 2 V
0 1 V
9 1 V
0 1 V
0 2 V
0 1 V
0 1 V
0 1 V
0 1 V
0 2 V
0 1 V
0 1 V
10 1 V
0 1 V
0 1 V
0 2 V
0 1 V
0 1 V
0 1 V
stroke 2508 2777 M
0 1 V
0 1 V
0 2 V
10 1 V
0 1 V
0 1 V
0 1 V
0 1 V
0 1 V
0 1 V
0 1 V
0 2 V
0 1 V
0 1 V
10 1 V
0 1 V
0 1 V
0 1 V
0 1 V
0 1 V
0 1 V
0 1 V
0 1 V
0 1 V
0 1 V
10 2 V
0 1 V
0 1 V
0 1 V
0 1 V
0 1 V
0 1 V
0 1 V
0 1 V
0 1 V
0 1 V
98 1 V
10 1 V
0 1 V
0 1 V
0 1 V
0 1 V
0 1 V
0 1 V
0 1 V
0 1 V
0 1 V
0 1 V
10 1 V
0 1 V
0 1 V
0 1 V
0 1 V
0 1 V
0 1 V
0 1 V
0 1 V
0 1 V
0 1 V
9 1 V
0 1 V
0 1 V
0 1 V
0 1 V
0 1 V
0 1 V
0 1 V
0 1 V
0 1 V
0 1 V
12 1 V
0 1 V
0 1 V
0 1 V
0 1 V
0 1 V
0 1 V
0 1 V
0 1 V
0 1 V
10 1 V
0 1 V
0 1 V
0 1 V
0 1 V
0 1 V
0 1 V
0 1 V
0 1 V
0 1 V
12 1 V
0 1 V
0 1 V
0 1 V
0 1 V
0 1 V
0 1 V
0 1 V
0 1 V
0 1 V
0 1 V
9 1 V
0 1 V
0 1 V
stroke 2708 2884 M
0 1 V
0 1 V
0 1 V
0 1 V
0 1 V
1 1 V
0 1 V
10 1 V
0 1 V
0 1 V
2 1 V
0 1 V
0 1 V
0 1 V
0 1 V
0 1 V
0 1 V
7 1 V
0 1 V
1 0 V
0 1 V
2 1 V
0 1 V
0 1 V
0 1 V
0 1 V
0 1 V
0 1 V
7 0 V
0 1 V
0 1 V
3 1 V
0 1 V
0 1 V
35 1 V
0 1 V
0 1 V
0 1 V
0 1 V
0 1 V
10 1 V
0 1 V
0 1 V
0 1 V
0 1 V
3 0 V
0 1 V
0 1 V
0 1 V
0 1 V
9 1 V
0 1 V
0 1 V
0 1 V
0 1 V
0 1 V
0 1 V
0 1 V
0 1 V
0 1 V
12 0 V
0 1 V
0 1 V
0 1 V
0 1 V
0 1 V
0 1 V
0 1 V
0 1 V
0 1 V
10 0 V
0 1 V
0 1 V
0 1 V
0 1 V
0 1 V
0 1 V
0 1 V
0 1 V
0 1 V
9 1 V
0 1 V
0 1 V
0 1 V
0 1 V
0 1 V
1 1 V
0 1 V
1 1 V
10 0 V
0 1 V
0 1 V
0 1 V
0 1 V
0 1 V
0 1 V
0 1 V
0 1 V
0 1 V
10 0 V
0 1 V
0 1 V
0 1 V
0 1 V
stroke 2851 2981 M
0 1 V
0 1 V
0 1 V
0 1 V
3138 989 L
39 399 V
0 128 V
12 86 V
10 65 V
10 52 V
13 44 V
9 37 V
11 34 V
1 30 V
3530 989 L
41 399 V
10 233 V
10 166 V
0 35 V
10 31 V
0 28 V
10 25 V
0 24 V
9 21 V
0 20 V
10 19 V
0 17 V
10 17 V
0 15 V
10 15 V
0 14 V
0 14 V
9 12 V
0 13 V
0 11 V
10 12 V
0 10 V
0 11 V
10 10 V
0 10 V
0 9 V
10 9 V
0 9 V
0 8 V
10 9 V
0 8 V
0 8 V
0 7 V
9 8 V
0 7 V
0 7 V
0 7 V
10 7 V
0 6 V
0 7 V
0 6 V
10 6 V
0 6 V
0 6 V
0 6 V
10 6 V
0 5 V
0 6 V
0 5 V
0 5 V
10 5 V
0 6 V
0 5 V
0 4 V
0 5 V
9 5 V
39 5 V
9 4 V
0 5 V
0 4 V
0 5 V
0 4 V
10 4 V
0 4 V
0 4 V
0 4 V
0 4 V
10 4 V
0 4 V
0 4 V
0 4 V
0 4 V
0 3 V
10 4 V
0 4 V
0 3 V
0 4 V
0 3 V
0 4 V
10 3 V
0 3 V
0 4 V
0 3 V
0 3 V
0 3 V
10 3 V
0 4 V
0 3 V
0 3 V
0 3 V
0 3 V
9 3 V
0 3 V
0 3 V
0 3 V
0 2 V
0 3 V
10 3 V
0 3 V
0 2 V
0 3 V
0 3 V
0 3 V
0 2 V
stroke 3874 2540 M
10 3 V
4 2 V
0 3 V
0 3 V
0 2 V
0 3 V
0 2 V
6 2 V
4 3 V
0 2 V
0 3 V
0 2 V
0 2 V
0 3 V
5 2 V
5 2 V
0 3 V
0 2 V
0 2 V
0 2 V
0 3 V
5 2 V
4 2 V
0 2 V
0 2 V
0 2 V
0 3 V
1 2 V
0 2 V
40 2 V
0 2 V
0 2 V
0 2 V
0 2 V
0 2 V
0 2 V
10 2 V
0 2 V
0 2 V
0 2 V
0 2 V
0 2 V
0 1 V
0 2 V
11 2 V
0 2 V
0 2 V
0 2 V
0 2 V
0 1 V
0 2 V
0 2 V
10 2 V
0 1 V
0 2 V
0 2 V
0 2 V
0 1 V
0 2 V
0 2 V
10 1 V
0 2 V
0 2 V
0 1 V
0 2 V
0 2 V
0 1 V
0 2 V
0 2 V
10 1 V
0 2 V
0 1 V
0 2 V
0 2 V
0 1 V
0 2 V
0 1 V
0 2 V
11 1 V
0 2 V
0 1 V
0 2 V
0 1 V
0 2 V
0 1 V
0 2 V
0 1 V
12 2 V
0 1 V
0 2 V
0 1 V
0 1 V
0 2 V
0 1 V
0 2 V
0 1 V
10 2 V
0 1 V
0 1 V
0 2 V
0 1 V
0 1 V
0 2 V
0 1 V
stroke 4042 2732 M
0 1 V
0 2 V
10 1 V
0 1 V
0 2 V
0 1 V
0 1 V
0 2 V
0 1 V
0 1 V
0 1 V
0 2 V
9 1 V
0 1 V
0 2 V
0 1 V
0 1 V
0 1 V
0 2 V
0 1 V
0 1 V
0 1 V
10 1 V
0 2 V
0 1 V
0 1 V
0 1 V
0 1 V
0 2 V
0 1 V
0 1 V
0 1 V
10 1 V
0 1 V
0 2 V
0 1 V
0 1 V
0 1 V
0 1 V
0 1 V
0 1 V
0 2 V
0 1 V
10 1 V
0 1 V
0 1 V
0 1 V
0 1 V
0 1 V
0 1 V
0 2 V
0 1 V
0 1 V
0 1 V
9 1 V
39 1 V
10 1 V
0 1 V
0 1 V
0 1 V
0 1 V
0 1 V
0 1 V
0 1 V
0 1 V
0 1 V
1 1 V
9 1 V
2 1 V
0 1 V
0 1 V
0 1 V
0 1 V
0 1 V
0 1 V
0 1 V
0 1 V
0 1 V
8 1 V
2 1 V
0 1 V
0 1 V
0 1 V
0 1 V
0 1 V
0 1 V
0 1 V
0 1 V
0 1 V
0 1 V
8 1 V
2 1 V
0 1 V
0 1 V
0 1 V
0 1 V
0 1 V
0 1 V
0 1 V
0 1 V
0 1 V
7 1 V
3 1 V
0 1 V
stroke 4191 2847 M
0 1 V
0 1 V
0 1 V
0 1 V
0 1 V
0 1 V
0 1 V
0 1 V
7 1 V
2 1 V
0 1 V
0 1 V
0 1 V
0 1 V
0 1 V
0 1 V
0 1 V
0 1 V
8 1 V
0 1 V
39 1 V
0 1 V
9 1 V
0 1 V
0 1 V
0 1 V
0 1 V
0 1 V
0 1 V
0 1 V
0 1 V
1 0 V
0 1 V
0 1 V
9 1 V
0 1 V
0 1 V
0 1 V
0 1 V
0 1 V
0 1 V
0 1 V
0 1 V
1 1 V
9 1 V
0 1 V
0 1 V
0 1 V
0 1 V
0 1 V
0 1 V
0 1 V
0 1 V
0 1 V
10 1 V
0 1 V
0 1 V
0 1 V
0 1 V
0 1 V
0 1 V
0 1 V
0 1 V
0 1 V
9 0 V
0 1 V
0 1 V
0 1 V
0 1 V
0 1 V
0 1 V
0 1 V
0 1 V
0 1 V
0 1 V
10 0 V
0 1 V
0 1 V
0 1 V
0 1 V
0 1 V
0 1 V
0 1 V
0 1 V
0 1 V
10 1 V
0 1 V
0 1 V
0 1 V
0 1 V
0 1 V
0 1 V
0 1 V
0 1 V
0 1 V
10 0 V
0 1 V
0 1 V
0 1 V
0 1 V
0 1 V
0 1 V
0 1 V
0 1 V
stroke 4325 2947 M
0 1 V
9 0 V
0 1 V
0 1 V
0 1 V
0 1 V
0 1 V
0 1 V
0 1 V
0 1 V
10 1 V
0 1 V
0 1 V
0 1 V
0 1 V
0 1 V
0 1 V
0 1 V
0 1 V
10 1 V
0 1 V
0 1 V
0 1 V
0 1 V
0 1 V
0 1 V
0 1 V
0 1 V
10 1 V
0 1 V
0 1 V
0 1 V
0 1 V
0 1 V
0 1 V
0 1 V
0 1 V
10 0 V
0 1 V
0 1 V
0 1 V
0 1 V
0 1 V
0 1 V
0 1 V
0 1 V
9 1 V
0 1 V
0 1 V
0 1 V
0 1 V
0 1 V
0 1 V
0 1 V
0 1 V
10 0 V
0 1 V
0 1 V
0 1 V
0 1 V
0 1 V
0 1 V
0 1 V
0 1 V
10 0 V
0 1 V
0 1 V
0 1 V
0 1 V
0 1 V
0 1 V
0 1 V
0 1 V
10 0 V
0 1 V
0 1 V
0 1 V
0 1 V
0 1 V
0 1 V
0 1 V
0 1 V
9 0 V
0 1 V
0 1 V
0 1 V
0 1 V
0 1 V
0 1 V
0 1 V
0 1 V
10 0 V
0 1 V
0 1 V
0 1 V
0 1 V
0 1 V
0 1 V
0 1 V
0 1 V
10 0 V
0 1 V
0 1 V
0 1 V
stroke 4442 3043 M
0 1 V
0 1 V
0 1 V
0 1 V
0 1 V
10 0 V
0 1 V
0 1 V
0 1 V
0 1 V
0 1 V
0 1 V
0 1 V
9 1 V
0 1 V
0 1 V
0 1 V
1 1 V
0 1 V
0 1 V
0 1 V
9 0 V
0 1 V
0 1 V
0 1 V
0 1 V
0 1 V
0 1 V
0 1 V
10 1 V
0 1 V
0 1 V
0 1 V
0 1 V
0 1 V
0 1 V
0 1 V
10 0 V
0 1 V
0 1 V
0 1 V
0 1 V
0 1 V
0 1 V
0 1 V
10 0 V
0 1 V
0 1 V
0 1 V
0 1 V
5 0 V
0 1 V
0 1 V
0 1 V
5 1 V
0 1 V
0 1 V
0 1 V
5 1 V
33 0 V
0 1 V
0 1 V
0 1 V
0 1 V
10 1 V
0 1 V
0 1 V
0 1 V
0 1 V
0 1 V
0 1 V
10 1 V
0 1 V
0 1 V
0 1 V
0 1 V
0 1 V
0 1 V
10 0 V
0 1 V
0 1 V
0 1 V
0 1 V
0 1 V
0 1 V
2 0 V
0 1 V
8 0 V
0 1 V
0 1 V
0 1 V
0 1 V
0 1 V
0 1 V
0 1 V
9 0 V
0 1 V
0 1 V
0 1 V
1 0 V
0 1 V
0 1 V
0 1 V
9 1 V
stroke 4608 3136 M
0 1 V
0 1 V
0 1 V
0 1 V
0 1 V
0 1 V
10 0 V
0 1 V
0 1 V
0 1 V
0 1 V
1 1 V
0 1 V
9 1 V
0 1 V
0 1 V
0 1 V
0 1 V
0 1 V
0 1 V
9 0 V
0 1 V
0 1 V
0 1 V
0 1 V
0 1 V
0 1 V
10 1 V
0 1 V
0 1 V
0 1 V
0 1 V
1 0 V
0 1 V
0 1 V
9 0 V
0 1 V
0 1 V
3 0 V
0 1 V
0 1 V
0 1 V
0 1 V
7 0 V
0 1 V
0 1 V
0 1 V
2 0 V
0 1 V
0 1 V
1 1 V
6 0 V
0 1 V
0 1 V
1 0 V
0 1 V
2 0 V
0 1 V
0 1 V
0 1 V
1 0 V
6 0 V
2 1 V
0 1 V
0 1 V
0 1 V
1 0 V
0 1 V
0 1 V
7 0 V
2 1 V
2 0 V
0 1 V
0 1 V
1 0 V
0 1 V
0 1 V
0 1 V
5 0 V
2 0 V
0 1 V
2 0 V
0 1 V
0 1 V
0 1 V
0 1 V
0 1 V
5 0 V
4 0 V
0 1 V
0 1 V
0 1 V
1 1 V
0 1 V
0 1 V
37 0 V
0 1 V
0 1 V
0 1 V
10 0 V
0 1 V
0 1 V
0 1 V
0 1 V
stroke 4767 3217 M
0 1 V
10 1 V
0 1 V
0 1 V
0 1 V
38 0 V
0 1 V
0 1 V
0 1 V
0 1 V
10 0 V
0 1 V
0 1 V
0 1 V
0 1 V
0 1 V
11 1 V
0 1 V
0 1 V
0 1 V
1 0 V
0 1 V
0 1 V
9 0 V
3 1 V
0 1 V
0 1 V
0 1 V
0 1 V
0 1 V
7 0 V
2 0 V
0 1 V
0 1 V
0 1 V
0 1 V
0 1 V
8 0 V
2 1 V
0 1 V
0 1 V
0 1 V
0 1 V
0 1 V
8 0 V
2 0 V
0 1 V
0 1 V
0 1 V
0 1 V
0 1 V
7 0 V
3 0 V
0 1 V
0 1 V
0 1 V
0 1 V
0 1 V
7 0 V
2 1 V
0 1 V
0 1 V
0 1 V
0 1 V
8 1 V
2 0 V
0 1 V
0 1 V
0 1 V
0 1 V
0 1 V
10 0 V
0 1 V
0 1 V
0 1 V
0 1 V
0 1 V
9 0 V
0 1 V
0 1 V
0 1 V
0 1 V
0 1 V
7 0 V
3 0 V
0 1 V
0 1 V
0 1 V
0 1 V
0 1 V
6 0 V
33 0 V
0 1 V
0 1 V
0 1 V
10 0 V
0 1 V
0 1 V
0 1 V
0 1 V
0 1 V
10 0 V
0 1 V
0 1 V
stroke 4995 3300 M
0 1 V
0 1 V
0 1 V
9 0 V
0 1 V
39 0 V
10 0 V
0 1 V
0 1 V
0 1 V
0 1 V
0 1 V
9 0 V
0 1 V
0 1 V
0 1 V
0 1 V
1 1 V
9 0 V
0 1 V
0 1 V
0 1 V
0 1 V
0 1 V
10 0 V
0 1 V
0 1 V
0 1 V
0 1 V
0 1 V
10 0 V
0 1 V
0 1 V
0 1 V
0 1 V
9 1 V
0 1 V
1 0 V
0 1 V
0 1 V
0 1 V
9 0 V
0 1 V
0 1 V
0 1 V
0 1 V
0 1 V
1 0 V
9 0 V
0 1 V
0 1 V
0 1 V
0 1 V
1 1 V
9 0 V
0 1 V
0 1 V
0 1 V
0 1 V
10 0 V
0 1 V
0 1 V
0 1 V
0 1 V
0 1 V
9 0 V
0 1 V
1 1 V
0 1 V
0 1 V
9 1 V
0 1 V
0 1 V
0 1 V
0 1 V
1 0 V
9 0 V
0 1 V
0 1 V
0 1 V
1 0 V
0 1 V
9 0 V
0 1 V
0 1 V
0 1 V
0 1 V
0 1 V
9 0 V
0 1 V
0 1 V
0 1 V
1 0 V
0 1 V
9 0 V
0 1 V
0 1 V
0 1 V
0 1 V
1 0 V
0 1 V
9 0 V
0 1 V
0 1 V
stroke 5209 3381 M
0 1 V
0 1 V
1 0 V
9 0 V
0 1 V
0 1 V
0 1 V
0 1 V
1 0 V
8 0 V
0 1 V
0 1 V
0 1 V
1 1 V
9 0 V
0 1 V
1 0 V
0 1 V
0 1 V
0 1 V
0 1 V
9 0 V
0 1 V
0 1 V
0 1 V
1 0 V
0 1 V
9 0 V
0 1 V
0 -2581 V
% End plot #4
% Begin plot #5
2.000 UP
stroke
LTb
LT1
0.00 0.00 0.63 C 1454 1388 Circle
1716 3653 Circle
1734 4046 Circle
1748 4278 Circle
1758 4443 Circle
1795 4571 Circle
1824 4675 Circle
1824 2714 Circle
1835 3746 Circle
1842 4095 Circle
1843 4311 Circle
1849 4468 Circle
2052 4542 Circle
2356 2463 Circle
2438 2689 Circle
2538 2814 Circle
2721 2900 Circle
2830 2967 Circle
3796 2379 Circle
3989 2654 Circle
4091 2791 Circle
4266 2884 Circle
4334 2954 Circle
4403 3010 Circle
4461 3057 Circle
4549 3097 Circle
4599 3132 Circle
4647 3164 Circle
4689 3192 Circle
4767 3218 Circle
4849 3241 Circle
4888 3263 Circle
4926 3284 Circle
4995 3302 Circle
5082 3320 Circle
5111 3337 Circle
5150 3353 Circle
5180 3367 Circle
5209 3382 Circle
5239 3395 Circle
% End plot #5
% Begin plot #6
2.000 UP
1.000 UL
LTb
LT1
0.00 0.00 0.63 C LCb setrgbcolor
4127 153 M
[ [(Arial) 180.0 0.0 true true 0 (per-packet)]
] -60.0 MRshow
2.000 UP
1.000 UL
LTb
LT1
0.00 0.00 0.63 C 1454 1388 Circle
4401 153 Circle
% End plot #6
% Begin plot #7
1.000 UL
LTb
LT3
0.00 0.38 0.82 C 1454 1388 M
10 233 V
10 166 V
10 129 V
0 105 V
10 88 V
0 77 V
0 68 V
10 61 V
0 55 V
0 50 V
0 46 V
9 43 V
0 39 V
0 38 V
0 35 V
0 32 V
0 32 V
10 29 V
2 28 V
0 27 V
0 26 V
0 24 V
0 24 V
0 22 V
0 22 V
0 21 V
8 20 V
0 20 V
4 19 V
0 18 V
0 18 V
0 17 V
0 17 V
0 16 V
0 16 V
0 15 V
0 15 V
0 14 V
0 15 V
0 14 V
6 13 V
2 13 V
0 13 V
2 13 V
0 12 V
0 12 V
0 12 V
0 12 V
0 11 V
0 12 V
0 11 V
0 10 V
0 11 V
0 10 V
0 10 V
0 10 V
0 10 V
0 10 V
0 10 V
0 9 V
0 9 V
8 9 V
0 9 V
0 9 V
0 9 V
0 8 V
1 9 V
0 8 V
0 8 V
4 8 V
0 8 V
0 8 V
0 8 V
0 7 V
0 8 V
0 7 V
0 7 V
0 8 V
0 7 V
0 7 V
0 7 V
0 7 V
0 7 V
0 6 V
0 7 V
0 7 V
0 6 V
0 7 V
0 6 V
0 6 V
0 6 V
0 7 V
5 6 V
0 6 V
0 6 V
0 6 V
0 5 V
0 6 V
0 6 V
0 6 V
0 5 V
0 6 V
1 5 V
0 6 V
stroke 1566 3675 M
6 5 V
0 6 V
0 5 V
0 5 V
0 5 V
0 6 V
0 5 V
0 5 V
0 5 V
0 5 V
0 5 V
0 5 V
0 4 V
0 5 V
0 5 V
0 5 V
0 4 V
0 5 V
0 5 V
0 4 V
1 5 V
0 4 V
0 5 V
0 4 V
0 5 V
0 4 V
0 5 V
0 4 V
0 4 V
0 4 V
0 5 V
0 4 V
0 4 V
1 4 V
0 4 V
0 4 V
0 4 V
0 4 V
0 4 V
0 4 V
0 4 V
0 4 V
0 4 V
29 4 V
0 4 V
0 3 V
29 4 V
0 4 V
0 4 V
0 3 V
0 4 V
0 4 V
0 3 V
0 4 V
0 4 V
0 3 V
0 4 V
0 3 V
0 4 V
0 3 V
0 4 V
0 3 V
0 4 V
0 3 V
0 3 V
0 4 V
0 3 V
0 3 V
0 4 V
0 3 V
0 3 V
0 3 V
0 4 V
0 3 V
0 3 V
0 3 V
0 3 V
0 3 V
0 4 V
0 3 V
0 3 V
0 3 V
0 3 V
0 3 V
0 3 V
0 3 V
0 3 V
0 3 V
0 3 V
0 3 V
0 3 V
0 3 V
0 3 V
0 3 V
0 2 V
0 3 V
0 3 V
0 3 V
0 3 V
0 3 V
0 2 V
0 3 V
0 3 V
0 3 V
stroke 1632 4069 M
0 2 V
0 3 V
0 3 V
0 2 V
0 3 V
0 3 V
0 3 V
0 2 V
0 3 V
0 2 V
0 3 V
0 3 V
0 2 V
0 3 V
0 2 V
11 3 V
0 2 V
0 3 V
0 3 V
0 2 V
0 3 V
0 2 V
0 2 V
0 3 V
0 2 V
0 3 V
0 2 V
0 3 V
0 2 V
0 3 V
0 2 V
0 2 V
0 3 V
0 2 V
0 2 V
0 3 V
0 2 V
0 2 V
0 3 V
0 2 V
0 2 V
0 3 V
0 2 V
0 2 V
0 2 V
0 3 V
0 2 V
0 2 V
0 2 V
0 3 V
0 2 V
0 2 V
0 2 V
0 2 V
0 3 V
1 2 V
0 2 V
0 2 V
0 2 V
0 2 V
0 3 V
0 2 V
3 2 V
0 2 V
0 2 V
0 2 V
0 2 V
0 2 V
0 2 V
0 2 V
0 2 V
0 2 V
0 2 V
0 3 V
0 2 V
0 2 V
0 2 V
0 2 V
0 2 V
1 2 V
0 2 V
0 2 V
0 1 V
0 2 V
0 2 V
0 2 V
0 2 V
0 2 V
0 2 V
0 2 V
0 2 V
0 2 V
0 2 V
0 2 V
0 2 V
0 1 V
0 2 V
0 2 V
0 2 V
0 2 V
0 2 V
0 2 V
0 2 V
0 1 V
stroke 1648 4300 M
0 2 V
0 2 V
0 2 V
0 2 V
0 1 V
0 2 V
0 2 V
0 2 V
0 2 V
0 1 V
1 2 V
0 2 V
0 2 V
0 1 V
0 2 V
0 2 V
0 2 V
0 1 V
0 2 V
0 2 V
0 2 V
0 1 V
1 2 V
1 2 V
0 1 V
0 2 V
0 2 V
1 2 V
0 1 V
0 2 V
0 2 V
0 1 V
0 2 V
0 2 V
1 1 V
0 2 V
0 2 V
0 1 V
0 2 V
0 1 V
0 2 V
0 2 V
0 1 V
0 2 V
0 1 V
0 2 V
0 2 V
0 1 V
0 2 V
0 1 V
0 2 V
0 2 V
1 1 V
0 2 V
0 1 V
0 2 V
0 1 V
0 2 V
0 2 V
0 1 V
0 2 V
0 1 V
0 2 V
0 1 V
0 2 V
1 1 V
0 2 V
0 1 V
0 2 V
0 1 V
0 2 V
0 1 V
0 2 V
0 1 V
0 2 V
1 1 V
0 2 V
0 1 V
0 2 V
0 1 V
0 2 V
1 1 V
0 1 V
0 2 V
0 1 V
0 2 V
0 1 V
0 2 V
3 1 V
0 2 V
0 1 V
0 1 V
0 2 V
0 1 V
0 2 V
0 1 V
0 1 V
0 2 V
0 1 V
0 2 V
0 1 V
0 1 V
0 2 V
0 1 V
stroke 1660 4465 M
0 2 V
1 1 V
0 1 V
0 2 V
0 1 V
0 1 V
0 2 V
0 1 V
0 1 V
0 2 V
0 1 V
0 1 V
0 2 V
0 1 V
0 1 V
0 2 V
0 1 V
0 1 V
0 2 V
0 1 V
0 1 V
0 2 V
0 1 V
0 1 V
0 2 V
0 1 V
0 1 V
0 1 V
0 2 V
0 1 V
0 1 V
0 2 V
0 1 V
0 1 V
0 1 V
29 2 V
0 1 V
0 1 V
0 2 V
0 1 V
0 1 V
0 1 V
0 2 V
0 1 V
0 1 V
0 1 V
0 2 V
0 1 V
0 1 V
0 1 V
0 1 V
0 2 V
0 1 V
0 1 V
0 1 V
0 2 V
0 1 V
0 1 V
0 1 V
0 1 V
0 2 V
0 1 V
0 1 V
0 1 V
0 1 V
0 2 V
0 1 V
0 1 V
0 1 V
0 1 V
0 2 V
0 1 V
0 1 V
0 1 V
0 1 V
0 1 V
0 2 V
0 1 V
0 1 V
0 1 V
0 1 V
0 1 V
0 1 V
0 2 V
0 1 V
0 1 V
0 1 V
0 1 V
0 1 V
0 1 V
0 2 V
0 1 V
0 1 V
0 1 V
0 1 V
0 1 V
0 1 V
0 1 V
0 2 V
0 1 V
0 1 V
0 1 V
0 1 V
0 1 V
stroke 1690 4593 M
0 1 V
0 1 V
0 1 V
0 2 V
0 1 V
0 1 V
0 1 V
0 1 V
0 1 V
0 1 V
0 1 V
0 1 V
0 1 V
0 1 V
0 1 V
0 2 V
0 1 V
0 1 V
0 1 V
0 1 V
0 1 V
0 1 V
0 1 V
0 1 V
0 1 V
0 1 V
0 1 V
0 1 V
0 1 V
0 1 V
0 1 V
0 1 V
0 1 V
0 1 V
0 2 V
0 1 V
0 1 V
0 1 V
0 1 V
0 1 V
0 1 V
0 1 V
0 1 V
0 1 V
0 1 V
0 1 V
0 1 V
0 1 V
0 1 V
0 1 V
0 1 V
0 1 V
0 1 V
0 1 V
0 1 V
0 1 V
0 1 V
0 1 V
0 1 V
0 1 V
0 1 V
0 1 V
0 1 V
0 1 V
0 1 V
0 1 V
0 1 V
0 1 V
0 1 V
0 1 V
0 1 V
0 1 V
0 1 V
0 1 V
0 1 V
0 1 V
0 1 V
0 1 V
0 1 V
0 1 V
0 1 V
0 1 V
0 1 V
0 1 V
0 1 V
0 1 V
0 1 V
0 1 V
0 1 V
0 1 V
0 1 V
0 1 V
0 1 V
0 1 V
0 1 V
0 1 V
0 1 V
0 1 V
0 1 V
0 1 V
0 1 V
0 1 V
0 1 V
0 1 V
stroke 1690 4700 M
0 1 V
0 1 V
0 1 V
0 1 V
0 1 V
0 1 V
0 1 V
0 1 V
0 1 V
0 1 V
0 1 V
0 1 V
0 1 V
29 1 V
0 1 V
0 1 V
0 1 V
0 1 V
0 1 V
0 1 V
0 1 V
0 1 V
0 1 V
0 1 V
0 -2808 V
0 105 V
0 88 V
0 77 V
0 68 V
0 61 V
0 55 V
0 50 V
0 46 V
0 43 V
0 39 V
0 38 V
0 35 V
0 32 V
0 32 V
0 29 V
0 28 V
0 27 V
0 26 V
0 24 V
0 24 V
0 22 V
0 22 V
0 21 V
0 20 V
0 20 V
0 19 V
0 18 V
0 18 V
0 17 V
0 17 V
0 16 V
0 16 V
0 15 V
0 15 V
0 14 V
0 15 V
0 14 V
0 13 V
0 13 V
0 13 V
0 13 V
0 12 V
0 12 V
0 12 V
0 12 V
0 11 V
0 12 V
0 11 V
0 10 V
0 11 V
0 10 V
0 10 V
0 10 V
0 10 V
0 10 V
0 10 V
0 9 V
0 9 V
0 9 V
0 9 V
0 9 V
0 9 V
0 8 V
0 9 V
0 8 V
0 8 V
0 8 V
0 8 V
0 8 V
0 8 V
0 7 V
0 8 V
0 7 V
0 7 V
0 8 V
0 7 V
0 7 V
0 7 V
0 7 V
stroke 1719 3541 M
0 7 V
0 6 V
0 7 V
0 7 V
0 6 V
0 7 V
0 6 V
0 6 V
0 6 V
0 7 V
0 6 V
0 6 V
0 6 V
0 6 V
0 5 V
0 6 V
0 6 V
0 6 V
0 5 V
0 6 V
0 5 V
0 6 V
0 5 V
0 6 V
0 5 V
0 5 V
0 5 V
0 6 V
0 5 V
0 5 V
0 5 V
0 5 V
0 5 V
0 5 V
0 4 V
0 5 V
0 5 V
0 5 V
0 4 V
0 5 V
0 5 V
0 4 V
0 5 V
0 4 V
0 5 V
0 4 V
0 5 V
0 4 V
0 5 V
0 4 V
0 4 V
0 4 V
0 5 V
0 4 V
0 4 V
0 4 V
0 4 V
0 4 V
0 4 V
0 4 V
0 4 V
0 4 V
0 4 V
0 4 V
0 4 V
0 4 V
0 4 V
0 3 V
0 4 V
0 4 V
0 4 V
0 3 V
0 4 V
0 4 V
0 3 V
0 4 V
0 4 V
0 3 V
0 4 V
0 3 V
0 4 V
0 3 V
0 4 V
0 3 V
0 4 V
0 3 V
0 3 V
0 4 V
0 3 V
0 3 V
0 4 V
0 3 V
0 3 V
0 3 V
0 4 V
0 3 V
0 3 V
0 3 V
0 3 V
0 3 V
0 4 V
0 3 V
0 3 V
0 3 V
stroke 1719 4005 M
0 3 V
0 3 V
0 3 V
0 3 V
0 3 V
0 3 V
0 3 V
0 3 V
0 3 V
0 3 V
0 3 V
0 3 V
0 2 V
0 3 V
0 3 V
0 3 V
0 3 V
0 3 V
0 2 V
0 3 V
0 3 V
0 3 V
0 2 V
0 3 V
0 3 V
0 2 V
0 3 V
0 3 V
0 3 V
0 2 V
0 3 V
0 2 V
0 3 V
0 3 V
0 2 V
0 3 V
0 2 V
0 3 V
0 2 V
0 3 V
0 3 V
0 2 V
0 3 V
0 2 V
0 2 V
0 3 V
0 2 V
0 3 V
0 2 V
0 3 V
0 2 V
0 3 V
0 2 V
0 2 V
0 3 V
0 2 V
0 2 V
0 3 V
0 2 V
0 2 V
0 3 V
0 2 V
0 2 V
0 3 V
0 2 V
0 2 V
0 2 V
0 3 V
0 2 V
0 2 V
0 2 V
0 3 V
0 2 V
0 2 V
0 2 V
0 2 V
0 3 V
0 2 V
0 2 V
0 2 V
0 2 V
0 2 V
0 3 V
0 2 V
0 2 V
0 2 V
0 2 V
0 2 V
0 2 V
0 2 V
0 2 V
0 2 V
0 2 V
0 2 V
0 2 V
0 3 V
0 2 V
0 2 V
0 2 V
0 2 V
0 2 V
0 2 V
0 2 V
0 2 V
stroke 1719 4259 M
0 1 V
0 2 V
0 2 V
0 2 V
0 2 V
0 2 V
0 2 V
0 2 V
0 2 V
0 2 V
0 2 V
0 2 V
0 2 V
0 1 V
0 2 V
0 2 V
0 2 V
0 2 V
0 2 V
0 2 V
0 2 V
0 1 V
0 2 V
0 2 V
0 2 V
0 2 V
0 1 V
0 2 V
0 2 V
0 2 V
0 2 V
0 1 V
0 2 V
0 2 V
0 2 V
0 1 V
0 2 V
0 2 V
0 2 V
0 1 V
0 2 V
0 2 V
0 2 V
0 1 V
0 2 V
0 2 V
0 1 V
0 2 V
0 2 V
0 2 V
0 1 V
0 2 V
0 2 V
0 1 V
0 2 V
0 2 V
0 1 V
0 2 V
0 2 V
0 1 V
0 2 V
0 1 V
0 2 V
0 2 V
0 1 V
0 2 V
0 1 V
9 2 V
0 2 V
0 1 V
0 2 V
0 1 V
0 2 V
0 2 V
0 1 V
0 2 V
0 1 V
1 2 V
0 1 V
0 2 V
0 2 V
0 1 V
0 2 V
0 1 V
0 2 V
0 1 V
0 2 V
0 1 V
0 2 V
0 1 V
0 2 V
0 1 V
0 2 V
0 1 V
0 2 V
0 1 V
0 2 V
0 1 V
0 2 V
0 1 V
0 2 V
0 1 V
0 2 V
0 1 V
stroke 1729 4434 M
0 1 V
0 2 V
0 1 V
0 2 V
0 1 V
0 2 V
0 1 V
0 2 V
0 1 V
0 1 V
0 2 V
0 1 V
0 2 V
0 1 V
1 1 V
0 2 V
0 1 V
0 2 V
0 1 V
0 1 V
0 -1 V
0 1 V
10 -1 V
0 1 V
11 -1 V
0 1 V
12 -1 V
0 1 V
12 -1 V
0 1 V
9 -1 V
0 1 V
12 -1 V
0 1 V
10 -1 V
0 1 V
9 -1 V
0 1 V
10 -1 V
0 1 V
10 -1 V
0 1 V
10 -1 V
0 1 V
10 -1 V
0 1 V
10 -1 V
0 1 V
10 -1 V
0 1 V
10 -1 V
0 1 V
9 -1 V
0 1 V
10 -1 V
0 1 V
10 -1 V
0 1 V
10 -1 V
0 1 V
10 -1 V
0 1 V
9 -1 V
0 1 V
12 -1 V
0 1 V
10 -838 V
0 6 V
10 -6 V
0 6 V
10 -6 V
0 6 V
9 -6 V
0 6 V
10 -6 V
0 6 V
10 -6 V
0 6 V
3 -2641 V
7 399 V
9 128 V
0 86 V
7 65 V
3 52 V
8 44 V
0 37 V
0 34 V
10 30 V
0 27 V
2 24 V
0 23 V
9 21 V
0 19 V
0 18 V
0 17 V
0 17 V
10 15 V
0 14 V
0 14 V
0 13 V
0 13 V
0 12 V
10 11 V
0 12 V
stroke 2092 2134 M
0 10 V
0 11 V
10 9 V
0 10 V
0 9 V
0 9 V
0 9 V
0 9 V
0 8 V
0 8 V
0 8 V
0 7 V
10 7 V
0 8 V
0 7 V
0 6 V
0 7 V
0 7 V
0 6 V
0 6 V
9 6 V
0 6 V
0 6 V
0 6 V
0 6 V
0 5 V
0 6 V
0 5 V
0 5 V
10 5 V
0 5 V
0 5 V
0 5 V
0 5 V
0 5 V
0 4 V
0 5 V
0 4 V
10 5 V
0 4 V
0 4 V
0 4 V
0 5 V
0 4 V
0 4 V
0 4 V
0 4 V
0 4 V
0 3 V
0 4 V
10 4 V
0 4 V
0 3 V
0 4 V
0 3 V
0 4 V
0 3 V
0 4 V
0 3 V
0 3 V
0 4 V
0 3 V
10 3 V
0 3 V
0 4 V
0 3 V
0 3 V
0 3 V
0 3 V
0 3 V
0 3 V
0 3 V
0 3 V
0 2 V
0 3 V
10 3 V
3 3 V
0 3 V
0 2 V
0 3 V
0 3 V
0 2 V
7 3 V
0 3 V
0 2 V
0 3 V
0 2 V
0 3 V
0 2 V
0 3 V
0 2 V
0 3 V
0 2 V
0 2 V
0 3 V
0 2 V
0 2 V
10 3 V
0 2 V
0 2 V
0 3 V
0 2 V
0 2 V
0 2 V
stroke 2191 2591 M
0 2 V
0 3 V
0 2 V
0 2 V
0 2 V
0 2 V
0 2 V
0 2 V
10 2 V
0 2 V
0 2 V
0 3 V
0 2 V
0 2 V
0 1 V
0 2 V
0 2 V
12 2 V
0 2 V
0 2 V
0 2 V
0 2 V
0 2 V
0 2 V
0 2 V
0 1 V
0 2 V
0 2 V
0 2 V
0 2 V
0 1 V
0 2 V
0 2 V
0 2 V
10 1 V
0 2 V
0 2 V
0 2 V
0 1 V
0 2 V
0 2 V
0 1 V
0 2 V
0 2 V
0 1 V
10 2 V
0 2 V
0 1 V
0 2 V
0 1 V
0 2 V
0 1 V
0 2 V
0 2 V
0 1 V
0 2 V
0 1 V
0 2 V
0 1 V
0 2 V
0 1 V
0 2 V
0 1 V
0 2 V
0 1 V
0 2 V
0 1 V
0 2 V
0 1 V
0 1 V
10 2 V
0 1 V
0 2 V
0 1 V
0 1 V
0 2 V
0 1 V
0 2 V
0 1 V
0 1 V
0 2 V
0 1 V
0 1 V
0 2 V
10 -818 V
0 105 V
0 88 V
0 77 V
0 68 V
0 61 V
0 55 V
0 50 V
0 46 V
0 43 V
0 39 V
0 38 V
0 35 V
0 32 V
0 32 V
0 29 V
0 28 V
0 27 V
0 26 V
0 24 V
stroke 2253 2819 M
0 24 V
0 22 V
0 -46 V
0 24 V
0 -48 V
0 24 V
0 -50 V
0 26 V
0 -53 V
0 27 V
0 -55 V
0 28 V
0 -57 V
0 29 V
1 -61 V
0 32 V
0 -64 V
0 32 V
0 -67 V
0 35 V
0 -73 V
0 38 V
9 -1198 V
2 128 V
0 86 V
0 65 V
0 52 V
0 44 V
0 37 V
0 34 V
0 30 V
0 27 V
0 24 V
0 23 V
8 21 V
2 19 V
8 18 V
0 17 V
14 17 V
0 15 V
10 14 V
0 14 V
0 13 V
10 13 V
0 12 V
0 11 V
10 12 V
0 10 V
0 11 V
10 9 V
0 10 V
0 9 V
11 9 V
0 9 V
0 9 V
10 8 V
0 8 V
0 8 V
0 7 V
10 7 V
0 8 V
0 7 V
0 6 V
12 7 V
0 7 V
0 6 V
0 6 V
10 6 V
0 6 V
0 6 V
0 6 V
10 6 V
0 5 V
0 6 V
0 5 V
0 5 V
10 5 V
0 5 V
0 5 V
0 5 V
0 5 V
10 5 V
0 4 V
0 5 V
0 4 V
0 5 V
10 4 V
0 4 V
0 4 V
0 5 V
0 4 V
10 4 V
0 4 V
0 4 V
0 4 V
0 3 V
10 4 V
0 4 V
0 4 V
4 3 V
0 4 V
0 3 V
6 4 V
0 3 V
stroke 2460 2463 M
0 4 V
4 3 V
0 3 V
0 4 V
6 3 V
0 3 V
0 3 V
4 4 V
0 3 V
0 3 V
6 3 V
0 3 V
0 3 V
4 3 V
0 3 V
0 3 V
6 2 V
0 3 V
0 3 V
4 3 V
0 3 V
0 2 V
0 3 V
6 3 V
0 2 V
0 3 V
4 3 V
0 2 V
0 3 V
0 2 V
5 3 V
0 2 V
0 3 V
5 2 V
0 3 V
0 2 V
0 2 V
5 3 V
0 2 V
0 2 V
4 3 V
0 2 V
0 2 V
0 3 V
6 2 V
0 2 V
0 2 V
4 2 V
0 3 V
0 2 V
0 2 V
6 2 V
0 2 V
0 2 V
0 2 V
4 2 V
0 2 V
0 2 V
0 3 V
6 2 V
0 2 V
0 1 V
0 2 V
5 2 V
0 2 V
0 2 V
0 2 V
5 2 V
0 2 V
0 2 V
0 2 V
4 2 V
0 1 V
0 2 V
0 2 V
6 2 V
0 2 V
0 1 V
0 2 V
4 2 V
0 2 V
0 1 V
0 2 V
6 2 V
0 2 V
0 1 V
0 2 V
0 2 V
4 1 V
0 2 V
0 2 V
0 1 V
40 2 V
0 2 V
0 1 V
1 2 V
9 1 V
1 2 V
0 1 V
0 2 V
0 2 V
0 1 V
0 2 V
4 1 V
stroke 2638 2695 M
0 2 V
5 1 V
0 2 V
0 1 V
0 2 V
0 1 V
0 2 V
0 1 V
7 2 V
1 1 V
4 2 V
0 1 V
0 1 V
0 2 V
0 1 V
0 2 V
0 1 V
7 1 V
0 2 V
5 1 V
0 2 V
0 1 V
0 1 V
0 2 V
0 1 V
0 1 V
0 2 V
5 1 V
0 1 V
5 2 V
34 1 V
0 1 V
0 2 V
10 1 V
0 1 V
0 2 V
0 1 V
0 1 V
0 1 V
0 2 V
0 1 V
0 1 V
0 1 V
9 2 V
0 1 V
0 1 V
0 1 V
0 2 V
0 1 V
0 1 V
0 1 V
0 1 V
0 2 V
10 1 V
0 1 V
0 1 V
0 1 V
0 1 V
0 2 V
0 1 V
0 1 V
0 1 V
0 1 V
12 1 V
0 2 V
0 1 V
0 1 V
0 1 V
0 1 V
0 1 V
0 1 V
0 1 V
0 1 V
0 2 V
10 1 V
0 1 V
0 1 V
0 1 V
0 1 V
0 1 V
0 1 V
0 1 V
0 1 V
0 1 V
0 1 V
10 1 V
0 1 V
0 2 V
0 1 V
0 1 V
0 1 V
0 1 V
0 1 V
0 1 V
0 1 V
0 1 V
12 1 V
0 1 V
0 1 V
0 1 V
0 1 V
0 1 V
0 1 V
0 1 V
stroke 2784 2822 M
0 1 V
0 1 V
0 1 V
11 1 V
0 1 V
0 1 V
0 1 V
0 1 V
1 1 V
0 1 V
0 1 V
0 1 V
0 1 V
0 1 V
9 1 V
0 1 V
0 1 V
0 1 V
0 1 V
0 1 V
0 1 V
0 1 V
0 1 V
0 1 V
0 1 V
10 1 V
0 1 V
0 1 V
0 1 V
0 1 V
0 1 V
0 1 V
0 1 V
0 1 V
0 1 V
3 1 V
7 1 V
0 1 V
0 1 V
0 1 V
0 1 V
0 1 V
0 1 V
0 1 V
0 1 V
3 1 V
7 1 V
0 1 V
0 1 V
0 1 V
0 1 V
0 1 V
0 1 V
0 1 V
0 1 V
0 1 V
5 1 V
5 0 V
0 1 V
0 1 V
0 1 V
0 1 V
0 1 V
0 1 V
0 1 V
0 1 V
4 1 V
3 1 V
3 1 V
0 1 V
0 1 V
0 1 V
0 1 V
0 1 V
0 1 V
0 1 V
1 1 V
8 1 V
0 1 V
0 1 V
0 1 V
0 1 V
0 1 V
0 1 V
0 1 V
0 1 V
0 1 V
12 0 V
0 1 V
0 1 V
0 1 V
0 1 V
0 1 V
0 1 V
0 1 V
0 1 V
0 1 V
10 1 V
0 1 V
0 1 V
0 1 V
0 1 V
0 1 V
0 1 V
stroke 2886 2924 M
0 1 V
0 1 V
0 1 V
10 0 V
0 1 V
0 1 V
0 1 V
0 1 V
0 1 V
0 1 V
0 1 V
0 1 V
0 1 V
10 1 V
0 1 V
0 1 V
0 1 V
0 1 V
0 1 V
0 1 V
0 1 V
0 1 V
99 1 V
10 0 V
0 1 V
0 1 V
0 1 V
0 1 V
0 1 V
0 1 V
0 1 V
0 1 V
0 1 V
10 0 V
0 1 V
0 1 V
0 1 V
0 1 V
0 1 V
0 1 V
0 1 V
0 1 V
0 1 V
10 0 V
0 1 V
0 1 V
0 1 V
0 1 V
0 1 V
0 1 V
0 1 V
0 1 V
0 1 V
12 0 V
0 1 V
0 1 V
0 1 V
0 1 V
0 1 V
0 1 V
0 1 V
0 1 V
10 1 V
0 1 V
0 1 V
0 1 V
0 1 V
0 1 V
0 1 V
0 1 V
9 1 V
0 1 V
0 1 V
0 1 V
0 1 V
0 1 V
0 1 V
0 1 V
0 1 V
10 1 V
0 1 V
3 0 V
0 1 V
0 1 V
0 1 V
0 1 V
0 1 V
0 1 V
7 1 V
0 1 V
3 1 V
0 1 V
5 1 V
0 1 V
0 1 V
0 1 V
0 1 V
2 0 V
0 1 V
3 1 V
33 0 V
0 1 V
0 1 V
0 1 V
stroke 3132 3020 M
0 1 V
0 1 V
0 1 V
10 1 V
0 1 V
0 1 V
0 1 V
0 1 V
0 1 V
0 1 V
0 1 V
10 1 V
0 1 V
0 1 V
0 1 V
0 1 V
0 1 V
0 1 V
0 1 V
10 1 V
0 1 V
0 1 V
0 1 V
0 1 V
3 1 V
0 1 V
0 1 V
7 0 V
0 1 V
0 1 V
0 1 V
0 1 V
0 1 V
38 0 V
0 1 V
0 1 V
0 1 V
0 1 V
0 1 V
10 0 V
0 1 V
0 1 V
0 1 V
0 1 V
0 1 V
0 1 V
0 1 V
3507 989 L
41 399 V
0 128 V
10 86 V
10 65 V
9 52 V
10 44 V
10 37 V
10 34 V
0 30 V
10 27 V
0 24 V
10 23 V
0 21 V
9 19 V
0 18 V
11 17 V
0 17 V
9 15 V
0 14 V
0 14 V
10 13 V
0 13 V
0 12 V
10 11 V
0 12 V
0 10 V
10 11 V
0 9 V
0 10 V
10 9 V
0 9 V
0 9 V
10 9 V
0 8 V
0 8 V
0 8 V
3993 989 L
38 399 V
0 128 V
10 86 V
10 65 V
10 52 V
11 44 V
10 37 V
10 34 V
0 30 V
10 27 V
0 24 V
12 23 V
0 21 V
10 19 V
0 18 V
10 17 V
0 17 V
10 15 V
0 14 V
0 14 V
12 13 V
0 13 V
0 12 V
9 11 V
0 12 V
0 10 V
10 11 V
0 9 V
0 10 V
10 9 V
0 9 V
0 9 V
10 9 V
0 8 V
0 8 V
0 8 V
10 7 V
0 7 V
0 8 V
0 7 V
12 6 V
0 7 V
0 7 V
0 6 V
41 6 V
10 6 V
0 6 V
0 6 V
0 6 V
10 6 V
0 5 V
0 6 V
0 5 V
0 5 V
10 5 V
0 5 V
0 5 V
0 5 V
0 5 V
10 5 V
0 4 V
0 5 V
0 4 V
0 5 V
9 4 V
0 4 V
0 4 V
0 5 V
0 4 V
10 4 V
0 4 V
0 4 V
0 4 V
0 3 V
10 4 V
0 4 V
0 4 V
0 3 V
0 4 V
0 3 V
10 4 V
0 3 V
0 4 V
0 3 V
0 3 V
0 4 V
10 3 V
0 3 V
0 3 V
0 4 V
0 3 V
0 3 V
10 3 V
0 3 V
0 3 V
0 3 V
5 3 V
0 3 V
7 2 V
0 3 V
0 3 V
0 3 V
2 3 V
0 2 V
stroke 4371 2530 M
0 3 V
8 3 V
0 2 V
0 3 V
0 3 V
3 2 V
0 3 V
0 2 V
6 3 V
0 2 V
0 3 V
0 2 V
4 3 V
0 2 V
0 2 V
6 3 V
2 2 V
0 2 V
0 3 V
0 2 V
0 2 V
0 3 V
8 2 V
0 2 V
2 2 V
0 2 V
0 3 V
0 2 V
0 2 V
8 2 V
0 2 V
0 2 V
0 2 V
0 2 V
0 2 V
0 2 V
0 3 V
10 2 V
2 2 V
0 1 V
0 2 V
0 2 V
0 2 V
0 2 V
0 2 V
8 2 V
2 2 V
0 2 V
0 2 V
0 2 V
0 1 V
0 2 V
0 2 V
8 2 V
0 2 V
0 1 V
0 2 V
2 2 V
0 2 V
0 1 V
0 2 V
8 2 V
2 2 V
0 1 V
0 2 V
0 2 V
0 1 V
0 2 V
0 2 V
0 1 V
8 2 V
0 2 V
2 1 V
0 2 V
0 1 V
0 2 V
0 1 V
0 2 V
0 2 V
8 1 V
0 2 V
0 1 V
0 2 V
0 1 V
0 2 V
38 1 V
0 2 V
0 1 V
0 2 V
0 1 V
0 2 V
12 1 V
0 2 V
0 1 V
0 1 V
0 2 V
0 1 V
0 2 V
0 1 V
0 1 V
10 2 V
0 1 V
0 2 V
0 1 V
stroke 4538 2727 M
0 1 V
0 2 V
0 1 V
0 1 V
0 2 V
0 1 V
10 1 V
0 2 V
0 1 V
0 1 V
2 2 V
0 1 V
0 1 V
0 2 V
0 1 V
0 1 V
7 1 V
0 2 V
0 1 V
0 1 V
3 1 V
0 2 V
0 1 V
0 1 V
0 1 V
0 2 V
7 1 V
0 1 V
0 1 V
0 1 V
7 2 V
0 1 V
0 1 V
0 1 V
0 1 V
0 1 V
3 2 V
0 1 V
0 1 V
0 1 V
9 1 V
0 1 V
0 2 V
0 1 V
0 1 V
0 1 V
0 1 V
0 1 V
0 1 V
0 1 V
0 1 V
10 2 V
0 1 V
0 1 V
0 1 V
0 1 V
0 1 V
0 1 V
0 1 V
0 1 V
0 1 V
0 1 V
12 1 V
0 1 V
0 1 V
0 2 V
0 1 V
0 1 V
0 1 V
0 1 V
0 1 V
0 1 V
0 1 V
10 1 V
0 1 V
0 1 V
0 1 V
0 1 V
0 1 V
0 1 V
0 1 V
0 1 V
0 1 V
0 1 V
9 1 V
0 1 V
0 1 V
0 1 V
0 1 V
0 1 V
0 1 V
0 1 V
0 1 V
0 1 V
0 1 V
10 1 V
0 1 V
0 1 V
0 1 V
0 1 V
0 1 V
0 1 V
0 1 V
0 1 V
stroke 4637 2844 M
0 1 V
0 1 V
11 1 V
0 1 V
0 1 V
0 1 V
0 1 V
0 1 V
0 1 V
0 1 V
0 1 V
0 1 V
0 1 V
9 1 V
0 1 V
0 1 V
0 1 V
0 1 V
0 1 V
0 1 V
0 1 V
0 1 V
0 1 V
10 1 V
2 1 V
0 1 V
0 1 V
0 1 V
0 1 V
0 1 V
0 1 V
0 1 V
0 1 V
0 1 V
8 1 V
2 0 V
0 1 V
0 1 V
0 1 V
0 1 V
0 1 V
0 1 V
0 1 V
0 1 V
0 1 V
8 1 V
2 1 V
0 1 V
0 1 V
0 1 V
0 1 V
0 1 V
0 1 V
0 1 V
0 1 V
7 1 V
3 1 V
0 1 V
0 1 V
0 1 V
0 1 V
0 1 V
0 1 V
0 1 V
0 1 V
7 0 V
5 1 V
0 1 V
0 1 V
0 1 V
0 1 V
0 1 V
0 1 V
0 1 V
0 1 V
8 1 V
2 1 V
0 1 V
0 1 V
0 1 V
0 1 V
0 1 V
0 1 V
0 1 V
0 1 V
7 0 V
0 1 V
0 1 V
1 0 V
0 1 V
0 1 V
1 0 V
0 1 V
0 1 V
0 1 V
0 1 V
0 1 V
8 1 V
39 0 V
10 1 V
0 1 V
0 1 V
0 1 V
0 1 V
stroke 4787 2942 M
0 1 V
0 1 V
0 1 V
0 1 V
10 1 V
0 1 V
0 1 V
0 1 V
0 1 V
0 1 V
0 1 V
0 1 V
0 1 V
9 1 V
0 1 V
0 1 V
0 1 V
0 1 V
0 1 V
1 1 V
0 1 V
0 1 V
9 1 V
0 1 V
0 1 V
0 1 V
0 1 V
0 1 V
0 1 V
0 1 V
0 1 V
13 1 V
0 1 V
0 1 V
0 1 V
0 1 V
0 1 V
0 1 V
0 1 V
0 1 V
9 0 V
0 1 V
0 1 V
0 1 V
0 1 V
1 0 V
0 1 V
0 1 V
0 1 V
0 1 V
10 1 V
0 1 V
0 1 V
0 1 V
0 1 V
0 1 V
0 1 V
0 1 V
0 1 V
9 0 V
0 1 V
0 1 V
0 1 V
0 1 V
0 1 V
0 1 V
0 1 V
0 1 V
10 1 V
0 1 V
0 1 V
0 1 V
0 1 V
0 1 V
0 1 V
0 1 V
10 1 V
0 1 V
0 1 V
0 1 V
0 1 V
0 1 V
0 1 V
0 1 V
10 1 V
0 1 V
0 1 V
0 1 V
0 1 V
0 1 V
0 1 V
0 1 V
9 1 V
0 1 V
0 1 V
0 1 V
0 1 V
1 0 V
0 1 V
0 1 V
0 1 V
9 1 V
0 1 V
0 1 V
stroke 4907 3042 M
0 1 V
0 1 V
0 1 V
0 1 V
0 1 V
10 0 V
0 1 V
0 1 V
0 1 V
0 1 V
0 1 V
0 1 V
0 1 V
10 1 V
0 1 V
0 1 V
0 1 V
0 1 V
0 1 V
0 1 V
0 1 V
9 0 V
0 1 V
0 1 V
0 1 V
0 1 V
0 1 V
0 1 V
0 1 V
0 1 V
10 0 V
0 1 V
0 1 V
0 1 V
0 1 V
0 1 V
0 1 V
0 1 V
10 0 V
0 1 V
0 1 V
0 1 V
0 1 V
0 1 V
0 1 V
0 1 V
10 1 V
0 1 V
0 1 V
0 1 V
0 1 V
0 1 V
0 1 V
9 1 V
0 1 V
0 1 V
0 1 V
0 1 V
1 0 V
0 1 V
0 1 V
0 1 V
9 0 V
0 1 V
0 1 V
0 1 V
0 1 V
0 1 V
0 1 V
0 1 V
10 0 V
0 1 V
0 1 V
0 1 V
0 1 V
0 1 V
0 1 V
0 1 V
10 0 V
0 1 V
0 1 V
0 1 V
0 1 V
0 1 V
0 1 V
9 1 V
0 1 V
0 1 V
0 1 V
1 0 V
0 1 V
0 1 V
0 1 V
9 0 V
0 1 V
0 1 V
0 1 V
0 1 V
0 1 V
0 1 V
0 1 V
10 0 V
0 1 V
0 1 V
stroke 5034 3135 M
0 1 V
0 1 V
0 1 V
0 1 V
10 1 V
0 1 V
0 1 V
0 1 V
0 1 V
0 1 V
0 1 V
10 0 V
0 1 V
0 1 V
0 1 V
0 1 V
0 1 V
0 1 V
9 1 V
0 1 V
0 1 V
0 1 V
0 1 V
0 1 V
0 1 V
10 0 V
0 1 V
0 1 V
0 1 V
0 1 V
0 1 V
0 1 V
10 0 V
0 1 V
0 1 V
0 1 V
0 1 V
0 1 V
0 1 V
1 0 V
11 0 V
0 1 V
0 1 V
0 1 V
0 1 V
0 1 V
0 1 V
0 1 V
10 0 V
0 1 V
0 1 V
0 1 V
0 1 V
0 1 V
0 1 V
9 0 V
0 1 V
0 1 V
0 1 V
0 1 V
0 1 V
0 1 V
10 0 V
0 1 V
0 1 V
0 1 V
0 1 V
0 1 V
1 0 V
0 1 V
9 0 V
0 1 V
0 1 V
0 1 V
0 1 V
0 1 V
0 1 V
10 0 V
39 0 V
9 0 V
0 1 V
0 1 V
0 1 V
1 0 V
0 1 V
0 1 V
0 1 V
9 0 V
0 1 V
0 1 V
0 1 V
3 0 V
0 1 V
0 1 V
0 1 V
7 0 V
0 1 V
0 1 V
0 1 V
1 0 V
2 0 V
0 1 V
0 1 V
0 1 V
stroke 5215 3220 M
7 0 V
0 1 V
0 1 V
0 1 V
1 0 V
2 0 V
3 1 V
0 1 V
4 1 V
0 1 V
0 1 V
1 1 V
2 0 V
2 0 V
0 1 V
0 1 V
4 0 V
0 1 V
0 1 V
0 1 V
2 1 V
2 0 V
2 0 V
0 1 V
0 1 V
33 0 V
0 1 V
0 1 V
10 0 V
0 1 V
0 1 V
0 1 V
0 1 V
0 1 V
0 1 V
9 0 V
0 1 V
0 1 V
0 1 V
1 0 V
0 1 V
0 1 V
9 0 V
0 1 V
0 1 V
0 1 V
0 1 V
0 1 V
1 0 V
0 1 V
9 0 V
0 1 V
0 1 V
0 1 V
0 1 V
0 1 V
10 0 V
0 1 V
0 1 V
0 1 V
0 1 V
0 1 V
9 0 V
0 1 V
0 1 V
0 1 V
0 1 V
0 1 V
1 1 V
9 0 V
3 1 V
0 1 V
0 1 V
0 1 V
0 1 V
7 0 V
0 1 V
3 0 V
0 1 V
0 1 V
0 1 V
0 1 V
7 0 V
0 1 V
3 0 V
0 1 V
0 1 V
0 1 V
0 1 V
7 0 V
0 1 V
2 0 V
0 1 V
0 1 V
0 1 V
0 1 V
7 0 V
0 1 V
3 0 V
0 1 V
0 1 V
0 1 V
4 0 V
0 1 V
stroke 5394 3297 M
3 0 V
0 1 V
3 0 V
0 1 V
0 1 V
0 1 V
38 0 V
0 1 V
0 1 V
10 0 V
0 1 V
0 1 V
0 1 V
0 1 V
1 0 V
0 1 V
9 0 V
0 1 V
0 1 V
0 1 V
3 0 V
0 1 V
0 1 V
9 0 V
0 1 V
0 1 V
0 1 V
1 1 V
0 1 V
8 0 V
0 1 V
0 1 V
0 1 V
1 1 V
0 1 V
11 0 V
0 1 V
0 1 V
0 1 V
1 0 V
0 1 V
39 0 V
0 1 V
0 1 V
1 1 V
0 1 V
0 1 V
9 0 V
0 1 V
1 0 V
0 1 V
0 1 V
0 1 V
6 0 V
3 0 V
0 1 V
0 1 V
0 1 V
0 1 V
0 1 V
7 0 V
3 0 V
0 1 V
0 1 V
0 1 V
0 1 V
7 0 V
38 1 V
10 0 V
0 1 V
0 1 V
0 1 V
0 1 V
10 0 V
0 1 V
2 1 V
0 1 V
0 -2533 V
% End plot #7
% Begin plot #8
2.000 UP
stroke
LTb
LT3
0.00 0.38 0.82 C 1454 1388 TriU
1690 4571 TriU
1719 4365 TriU
2519 2573 TriU
3152 3039 TriU
4711 2917 TriU
5054 3147 TriU
5348 3272 TriU
% End plot #8
% Begin plot #9
2.000 UP
1.000 UL
LTb
LT3
0.00 0.38 0.82 C LCb setrgbcolor
5540 153 M
[ [(Arial) 180.0 0.0 true true 0 (per-flow)]
] -60.0 MRshow
2.000 UP
1.000 UL
LTb
LT3
0.00 0.38 0.82 C 1454 1388 TriU
5814 153 TriU
% End plot #9
2.000 UL
LTb
LCb setrgbcolor
1.000 UP
1.000 UL
LTb
0.00 0.00 0.00 C stroke
grestore
end
showpage
%%Trailer
%%DocumentFonts: Arial
