%!PS-Adobe-2.0 EPSF-2.0
%%Title: TcpBic-download-rtt-100UE-90-240.eps
%%Creator: gnuplot 5.0 patchlevel 3
%%CreationDate: Thu Jun  2 10:39:42 2016
%%DocumentFonts: (atend)
%%BoundingBox: 50 50 770 302
%%EndComments
%%BeginProlog
/gnudict 256 dict def
gnudict begin
%
% The following true/false flags may be edited by hand if desired.
% The unit line width and grayscale image gamma correction may also be changed.
%
/Color true def
/Blacktext false def
/Solid false def
/Dashlength 3 def
/Landscape false def
/Level1 false def
/Level3 false def
/Rounded false def
/ClipToBoundingBox false def
/SuppressPDFMark false def
/TransparentPatterns false def
/gnulinewidth 15.000 def
/userlinewidth gnulinewidth def
/Gamma 1.0 def
/BackgroundColor {-1.000 -1.000 -1.000} def
%
/vshift -66 def
/dl1 {
  10.0 Dashlength userlinewidth gnulinewidth div mul mul mul
  Rounded { currentlinewidth 0.75 mul sub dup 0 le { pop 0.01 } if } if
} def
/dl2 {
  10.0 Dashlength userlinewidth gnulinewidth div mul mul mul
  Rounded { currentlinewidth 0.75 mul add } if
} def
/hpt_ 31.5 def
/vpt_ 31.5 def
/hpt hpt_ def
/vpt vpt_ def
/doclip {
  ClipToBoundingBox {
    newpath 50 50 moveto 770 50 lineto 770 302 lineto 50 302 lineto closepath
    clip
  } if
} def
%
% Gnuplot Prolog Version 5.1 (Oct 2015)
%
%/SuppressPDFMark true def
%
/M {moveto} bind def
/L {lineto} bind def
/R {rmoveto} bind def
/V {rlineto} bind def
/N {newpath moveto} bind def
/Z {closepath} bind def
/C {setrgbcolor} bind def
/f {rlineto fill} bind def
/g {setgray} bind def
/Gshow {show} def   % May be redefined later in the file to support UTF-8
/vpt2 vpt 2 mul def
/hpt2 hpt 2 mul def
/Lshow {currentpoint stroke M 0 vshift R 
	Blacktext {gsave 0 setgray textshow grestore} {textshow} ifelse} def
/Rshow {currentpoint stroke M dup stringwidth pop neg vshift R
	Blacktext {gsave 0 setgray textshow grestore} {textshow} ifelse} def
/Cshow {currentpoint stroke M dup stringwidth pop -2 div vshift R 
	Blacktext {gsave 0 setgray textshow grestore} {textshow} ifelse} def
/UP {dup vpt_ mul /vpt exch def hpt_ mul /hpt exch def
  /hpt2 hpt 2 mul def /vpt2 vpt 2 mul def} def
/DL {Color {setrgbcolor Solid {pop []} if 0 setdash}
 {pop pop pop 0 setgray Solid {pop []} if 0 setdash} ifelse} def
/BL {stroke userlinewidth 2 mul setlinewidth
	Rounded {1 setlinejoin 1 setlinecap} if} def
/AL {stroke userlinewidth 2 div setlinewidth
	Rounded {1 setlinejoin 1 setlinecap} if} def
/UL {dup gnulinewidth mul /userlinewidth exch def
	dup 1 lt {pop 1} if 10 mul /udl exch def} def
/PL {stroke userlinewidth setlinewidth
	Rounded {1 setlinejoin 1 setlinecap} if} def
3.8 setmiterlimit
% Classic Line colors (version 5.0)
/LCw {1 1 1} def
/LCb {0 0 0} def
/LCa {0 0 0} def
/LC0 {1 0 0} def
/LC1 {0 1 0} def
/LC2 {0 0 1} def
/LC3 {1 0 1} def
/LC4 {0 1 1} def
/LC5 {1 1 0} def
/LC6 {0 0 0} def
/LC7 {1 0.3 0} def
/LC8 {0.5 0.5 0.5} def
% Default dash patterns (version 5.0)
/LTB {BL [] LCb DL} def
/LTw {PL [] 1 setgray} def
/LTb {PL [] LCb DL} def
/LTa {AL [1 udl mul 2 udl mul] 0 setdash LCa setrgbcolor} def
/LT0 {PL [] LC0 DL} def
/LT1 {PL [2 dl1 3 dl2] LC1 DL} def
/LT2 {PL [1 dl1 1.5 dl2] LC2 DL} def
/LT3 {PL [6 dl1 2 dl2 1 dl1 2 dl2] LC3 DL} def
/LT4 {PL [1 dl1 2 dl2 6 dl1 2 dl2 1 dl1 2 dl2] LC4 DL} def
/LT5 {PL [4 dl1 2 dl2] LC5 DL} def
/LT6 {PL [1.5 dl1 1.5 dl2 1.5 dl1 1.5 dl2 1.5 dl1 6 dl2] LC6 DL} def
/LT7 {PL [3 dl1 3 dl2 1 dl1 3 dl2] LC7 DL} def
/LT8 {PL [2 dl1 2 dl2 2 dl1 6 dl2] LC8 DL} def
/SL {[] 0 setdash} def
/Pnt {stroke [] 0 setdash gsave 1 setlinecap M 0 0 V stroke grestore} def
/Dia {stroke [] 0 setdash 2 copy vpt add M
  hpt neg vpt neg V hpt vpt neg V
  hpt vpt V hpt neg vpt V closepath stroke
  Pnt} def
/Pls {stroke [] 0 setdash vpt sub M 0 vpt2 V
  currentpoint stroke M
  hpt neg vpt neg R hpt2 0 V stroke
 } def
/Box {stroke [] 0 setdash 2 copy exch hpt sub exch vpt add M
  0 vpt2 neg V hpt2 0 V 0 vpt2 V
  hpt2 neg 0 V closepath stroke
  Pnt} def
/Crs {stroke [] 0 setdash exch hpt sub exch vpt add M
  hpt2 vpt2 neg V currentpoint stroke M
  hpt2 neg 0 R hpt2 vpt2 V stroke} def
/TriU {stroke [] 0 setdash 2 copy vpt 1.12 mul add M
  hpt neg vpt -1.62 mul V
  hpt 2 mul 0 V
  hpt neg vpt 1.62 mul V closepath stroke
  Pnt} def
/Star {2 copy Pls Crs} def
/BoxF {stroke [] 0 setdash exch hpt sub exch vpt add M
  0 vpt2 neg V hpt2 0 V 0 vpt2 V
  hpt2 neg 0 V closepath fill} def
/TriUF {stroke [] 0 setdash vpt 1.12 mul add M
  hpt neg vpt -1.62 mul V
  hpt 2 mul 0 V
  hpt neg vpt 1.62 mul V closepath fill} def
/TriD {stroke [] 0 setdash 2 copy vpt 1.12 mul sub M
  hpt neg vpt 1.62 mul V
  hpt 2 mul 0 V
  hpt neg vpt -1.62 mul V closepath stroke
  Pnt} def
/TriDF {stroke [] 0 setdash vpt 1.12 mul sub M
  hpt neg vpt 1.62 mul V
  hpt 2 mul 0 V
  hpt neg vpt -1.62 mul V closepath fill} def
/DiaF {stroke [] 0 setdash vpt add M
  hpt neg vpt neg V hpt vpt neg V
  hpt vpt V hpt neg vpt V closepath fill} def
/Pent {stroke [] 0 setdash 2 copy gsave
  translate 0 hpt M 4 {72 rotate 0 hpt L} repeat
  closepath stroke grestore Pnt} def
/PentF {stroke [] 0 setdash gsave
  translate 0 hpt M 4 {72 rotate 0 hpt L} repeat
  closepath fill grestore} def
/Circle {stroke [] 0 setdash 2 copy
  hpt 0 360 arc stroke Pnt} def
/CircleF {stroke [] 0 setdash hpt 0 360 arc fill} def
/C0 {BL [] 0 setdash 2 copy moveto vpt 90 450 arc} bind def
/C1 {BL [] 0 setdash 2 copy moveto
	2 copy vpt 0 90 arc closepath fill
	vpt 0 360 arc closepath} bind def
/C2 {BL [] 0 setdash 2 copy moveto
	2 copy vpt 90 180 arc closepath fill
	vpt 0 360 arc closepath} bind def
/C3 {BL [] 0 setdash 2 copy moveto
	2 copy vpt 0 180 arc closepath fill
	vpt 0 360 arc closepath} bind def
/C4 {BL [] 0 setdash 2 copy moveto
	2 copy vpt 180 270 arc closepath fill
	vpt 0 360 arc closepath} bind def
/C5 {BL [] 0 setdash 2 copy moveto
	2 copy vpt 0 90 arc
	2 copy moveto
	2 copy vpt 180 270 arc closepath fill
	vpt 0 360 arc} bind def
/C6 {BL [] 0 setdash 2 copy moveto
	2 copy vpt 90 270 arc closepath fill
	vpt 0 360 arc closepath} bind def
/C7 {BL [] 0 setdash 2 copy moveto
	2 copy vpt 0 270 arc closepath fill
	vpt 0 360 arc closepath} bind def
/C8 {BL [] 0 setdash 2 copy moveto
	2 copy vpt 270 360 arc closepath fill
	vpt 0 360 arc closepath} bind def
/C9 {BL [] 0 setdash 2 copy moveto
	2 copy vpt 270 450 arc closepath fill
	vpt 0 360 arc closepath} bind def
/C10 {BL [] 0 setdash 2 copy 2 copy moveto vpt 270 360 arc closepath fill
	2 copy moveto
	2 copy vpt 90 180 arc closepath fill
	vpt 0 360 arc closepath} bind def
/C11 {BL [] 0 setdash 2 copy moveto
	2 copy vpt 0 180 arc closepath fill
	2 copy moveto
	2 copy vpt 270 360 arc closepath fill
	vpt 0 360 arc closepath} bind def
/C12 {BL [] 0 setdash 2 copy moveto
	2 copy vpt 180 360 arc closepath fill
	vpt 0 360 arc closepath} bind def
/C13 {BL [] 0 setdash 2 copy moveto
	2 copy vpt 0 90 arc closepath fill
	2 copy moveto
	2 copy vpt 180 360 arc closepath fill
	vpt 0 360 arc closepath} bind def
/C14 {BL [] 0 setdash 2 copy moveto
	2 copy vpt 90 360 arc closepath fill
	vpt 0 360 arc} bind def
/C15 {BL [] 0 setdash 2 copy vpt 0 360 arc closepath fill
	vpt 0 360 arc closepath} bind def
/Rec {newpath 4 2 roll moveto 1 index 0 rlineto 0 exch rlineto
	neg 0 rlineto closepath} bind def
/Square {dup Rec} bind def
/Bsquare {vpt sub exch vpt sub exch vpt2 Square} bind def
/S0 {BL [] 0 setdash 2 copy moveto 0 vpt rlineto BL Bsquare} bind def
/S1 {BL [] 0 setdash 2 copy vpt Square fill Bsquare} bind def
/S2 {BL [] 0 setdash 2 copy exch vpt sub exch vpt Square fill Bsquare} bind def
/S3 {BL [] 0 setdash 2 copy exch vpt sub exch vpt2 vpt Rec fill Bsquare} bind def
/S4 {BL [] 0 setdash 2 copy exch vpt sub exch vpt sub vpt Square fill Bsquare} bind def
/S5 {BL [] 0 setdash 2 copy 2 copy vpt Square fill
	exch vpt sub exch vpt sub vpt Square fill Bsquare} bind def
/S6 {BL [] 0 setdash 2 copy exch vpt sub exch vpt sub vpt vpt2 Rec fill Bsquare} bind def
/S7 {BL [] 0 setdash 2 copy exch vpt sub exch vpt sub vpt vpt2 Rec fill
	2 copy vpt Square fill Bsquare} bind def
/S8 {BL [] 0 setdash 2 copy vpt sub vpt Square fill Bsquare} bind def
/S9 {BL [] 0 setdash 2 copy vpt sub vpt vpt2 Rec fill Bsquare} bind def
/S10 {BL [] 0 setdash 2 copy vpt sub vpt Square fill 2 copy exch vpt sub exch vpt Square fill
	Bsquare} bind def
/S11 {BL [] 0 setdash 2 copy vpt sub vpt Square fill 2 copy exch vpt sub exch vpt2 vpt Rec fill
	Bsquare} bind def
/S12 {BL [] 0 setdash 2 copy exch vpt sub exch vpt sub vpt2 vpt Rec fill Bsquare} bind def
/S13 {BL [] 0 setdash 2 copy exch vpt sub exch vpt sub vpt2 vpt Rec fill
	2 copy vpt Square fill Bsquare} bind def
/S14 {BL [] 0 setdash 2 copy exch vpt sub exch vpt sub vpt2 vpt Rec fill
	2 copy exch vpt sub exch vpt Square fill Bsquare} bind def
/S15 {BL [] 0 setdash 2 copy Bsquare fill Bsquare} bind def
/D0 {gsave translate 45 rotate 0 0 S0 stroke grestore} bind def
/D1 {gsave translate 45 rotate 0 0 S1 stroke grestore} bind def
/D2 {gsave translate 45 rotate 0 0 S2 stroke grestore} bind def
/D3 {gsave translate 45 rotate 0 0 S3 stroke grestore} bind def
/D4 {gsave translate 45 rotate 0 0 S4 stroke grestore} bind def
/D5 {gsave translate 45 rotate 0 0 S5 stroke grestore} bind def
/D6 {gsave translate 45 rotate 0 0 S6 stroke grestore} bind def
/D7 {gsave translate 45 rotate 0 0 S7 stroke grestore} bind def
/D8 {gsave translate 45 rotate 0 0 S8 stroke grestore} bind def
/D9 {gsave translate 45 rotate 0 0 S9 stroke grestore} bind def
/D10 {gsave translate 45 rotate 0 0 S10 stroke grestore} bind def
/D11 {gsave translate 45 rotate 0 0 S11 stroke grestore} bind def
/D12 {gsave translate 45 rotate 0 0 S12 stroke grestore} bind def
/D13 {gsave translate 45 rotate 0 0 S13 stroke grestore} bind def
/D14 {gsave translate 45 rotate 0 0 S14 stroke grestore} bind def
/D15 {gsave translate 45 rotate 0 0 S15 stroke grestore} bind def
/DiaE {stroke [] 0 setdash vpt add M
  hpt neg vpt neg V hpt vpt neg V
  hpt vpt V hpt neg vpt V closepath stroke} def
/BoxE {stroke [] 0 setdash exch hpt sub exch vpt add M
  0 vpt2 neg V hpt2 0 V 0 vpt2 V
  hpt2 neg 0 V closepath stroke} def
/TriUE {stroke [] 0 setdash vpt 1.12 mul add M
  hpt neg vpt -1.62 mul V
  hpt 2 mul 0 V
  hpt neg vpt 1.62 mul V closepath stroke} def
/TriDE {stroke [] 0 setdash vpt 1.12 mul sub M
  hpt neg vpt 1.62 mul V
  hpt 2 mul 0 V
  hpt neg vpt -1.62 mul V closepath stroke} def
/PentE {stroke [] 0 setdash gsave
  translate 0 hpt M 4 {72 rotate 0 hpt L} repeat
  closepath stroke grestore} def
/CircE {stroke [] 0 setdash 
  hpt 0 360 arc stroke} def
/Opaque {gsave closepath 1 setgray fill grestore 0 setgray closepath} def
/DiaW {stroke [] 0 setdash vpt add M
  hpt neg vpt neg V hpt vpt neg V
  hpt vpt V hpt neg vpt V Opaque stroke} def
/BoxW {stroke [] 0 setdash exch hpt sub exch vpt add M
  0 vpt2 neg V hpt2 0 V 0 vpt2 V
  hpt2 neg 0 V Opaque stroke} def
/TriUW {stroke [] 0 setdash vpt 1.12 mul add M
  hpt neg vpt -1.62 mul V
  hpt 2 mul 0 V
  hpt neg vpt 1.62 mul V Opaque stroke} def
/TriDW {stroke [] 0 setdash vpt 1.12 mul sub M
  hpt neg vpt 1.62 mul V
  hpt 2 mul 0 V
  hpt neg vpt -1.62 mul V Opaque stroke} def
/PentW {stroke [] 0 setdash gsave
  translate 0 hpt M 4 {72 rotate 0 hpt L} repeat
  Opaque stroke grestore} def
/CircW {stroke [] 0 setdash 
  hpt 0 360 arc Opaque stroke} def
/BoxFill {gsave Rec 1 setgray fill grestore} def
/Density {
  /Fillden exch def
  currentrgbcolor
  /ColB exch def /ColG exch def /ColR exch def
  /ColR ColR Fillden mul Fillden sub 1 add def
  /ColG ColG Fillden mul Fillden sub 1 add def
  /ColB ColB Fillden mul Fillden sub 1 add def
  ColR ColG ColB setrgbcolor} def
/BoxColFill {gsave Rec PolyFill} def
/PolyFill {gsave Density fill grestore grestore} def
/h {rlineto rlineto rlineto gsave closepath fill grestore} bind def
%
% PostScript Level 1 Pattern Fill routine for rectangles
% Usage: x y w h s a XX PatternFill
%	x,y = lower left corner of box to be filled
%	w,h = width and height of box
%	  a = angle in degrees between lines and x-axis
%	 XX = 0/1 for no/yes cross-hatch
%
/PatternFill {gsave /PFa [ 9 2 roll ] def
  PFa 0 get PFa 2 get 2 div add PFa 1 get PFa 3 get 2 div add translate
  PFa 2 get -2 div PFa 3 get -2 div PFa 2 get PFa 3 get Rec
  TransparentPatterns {} {gsave 1 setgray fill grestore} ifelse
  clip
  currentlinewidth 0.5 mul setlinewidth
  /PFs PFa 2 get dup mul PFa 3 get dup mul add sqrt def
  0 0 M PFa 5 get rotate PFs -2 div dup translate
  0 1 PFs PFa 4 get div 1 add floor cvi
	{PFa 4 get mul 0 M 0 PFs V} for
  0 PFa 6 get ne {
	0 1 PFs PFa 4 get div 1 add floor cvi
	{PFa 4 get mul 0 2 1 roll M PFs 0 V} for
 } if
  stroke grestore} def
%
/languagelevel where
 {pop languagelevel} {1} ifelse
dup 2 lt
	{/InterpretLevel1 true def
	 /InterpretLevel3 false def}
	{/InterpretLevel1 Level1 def
	 2 gt
	    {/InterpretLevel3 Level3 def}
	    {/InterpretLevel3 false def}
	 ifelse }
 ifelse
%
% PostScript level 2 pattern fill definitions
%
/Level2PatternFill {
/Tile8x8 {/PaintType 2 /PatternType 1 /TilingType 1 /BBox [0 0 8 8] /XStep 8 /YStep 8}
	bind def
/KeepColor {currentrgbcolor [/Pattern /DeviceRGB] setcolorspace} bind def
<< Tile8x8
 /PaintProc {0.5 setlinewidth pop 0 0 M 8 8 L 0 8 M 8 0 L stroke} 
>> matrix makepattern
/Pat1 exch def
<< Tile8x8
 /PaintProc {0.5 setlinewidth pop 0 0 M 8 8 L 0 8 M 8 0 L stroke
	0 4 M 4 8 L 8 4 L 4 0 L 0 4 L stroke}
>> matrix makepattern
/Pat2 exch def
<< Tile8x8
 /PaintProc {0.5 setlinewidth pop 0 0 M 0 8 L
	8 8 L 8 0 L 0 0 L fill}
>> matrix makepattern
/Pat3 exch def
<< Tile8x8
 /PaintProc {0.5 setlinewidth pop -4 8 M 8 -4 L
	0 12 M 12 0 L stroke}
>> matrix makepattern
/Pat4 exch def
<< Tile8x8
 /PaintProc {0.5 setlinewidth pop -4 0 M 8 12 L
	0 -4 M 12 8 L stroke}
>> matrix makepattern
/Pat5 exch def
<< Tile8x8
 /PaintProc {0.5 setlinewidth pop -2 8 M 4 -4 L
	0 12 M 8 -4 L 4 12 M 10 0 L stroke}
>> matrix makepattern
/Pat6 exch def
<< Tile8x8
 /PaintProc {0.5 setlinewidth pop -2 0 M 4 12 L
	0 -4 M 8 12 L 4 -4 M 10 8 L stroke}
>> matrix makepattern
/Pat7 exch def
<< Tile8x8
 /PaintProc {0.5 setlinewidth pop 8 -2 M -4 4 L
	12 0 M -4 8 L 12 4 M 0 10 L stroke}
>> matrix makepattern
/Pat8 exch def
<< Tile8x8
 /PaintProc {0.5 setlinewidth pop 0 -2 M 12 4 L
	-4 0 M 12 8 L -4 4 M 8 10 L stroke}
>> matrix makepattern
/Pat9 exch def
/Pattern1 {PatternBgnd KeepColor Pat1 setpattern} bind def
/Pattern2 {PatternBgnd KeepColor Pat2 setpattern} bind def
/Pattern3 {PatternBgnd KeepColor Pat3 setpattern} bind def
/Pattern4 {PatternBgnd KeepColor Landscape {Pat5} {Pat4} ifelse setpattern} bind def
/Pattern5 {PatternBgnd KeepColor Landscape {Pat4} {Pat5} ifelse setpattern} bind def
/Pattern6 {PatternBgnd KeepColor Landscape {Pat9} {Pat6} ifelse setpattern} bind def
/Pattern7 {PatternBgnd KeepColor Landscape {Pat8} {Pat7} ifelse setpattern} bind def
} def
%
%
%End of PostScript Level 2 code
%
/PatternBgnd {
  TransparentPatterns {} {gsave 1 setgray fill grestore} ifelse
} def
%
% Substitute for Level 2 pattern fill codes with
% grayscale if Level 2 support is not selected.
%
/Level1PatternFill {
/Pattern1 {0.250 Density} bind def
/Pattern2 {0.500 Density} bind def
/Pattern3 {0.750 Density} bind def
/Pattern4 {0.125 Density} bind def
/Pattern5 {0.375 Density} bind def
/Pattern6 {0.625 Density} bind def
/Pattern7 {0.875 Density} bind def
} def
%
% Now test for support of Level 2 code
%
Level1 {Level1PatternFill} {Level2PatternFill} ifelse
%
/Symbol-Oblique /Symbol findfont [1 0 .167 1 0 0] makefont
dup length dict begin {1 index /FID eq {pop pop} {def} ifelse} forall
currentdict end definefont pop
%
/MFshow {
   { dup 5 get 3 ge
     { 5 get 3 eq {gsave} {grestore} ifelse }
     {dup dup 0 get findfont exch 1 get scalefont setfont
     [ currentpoint ] exch dup 2 get 0 exch R dup 5 get 2 ne {dup dup 6
     get exch 4 get {textshow} {stringwidth pop 0 R} ifelse }if dup 5 get 0 eq
     {dup 3 get {2 get neg 0 exch R pop} {pop aload pop M} ifelse} {dup 5
     get 1 eq {dup 2 get exch dup 3 get exch 6 get stringwidth pop -2 div
     dup 0 R} {dup 6 get stringwidth pop -2 div 0 R 6 get
     textshow 2 index {aload pop M neg 3 -1 roll neg R pop pop} {pop pop pop
     pop aload pop M} ifelse }ifelse }ifelse }
     ifelse }
   forall} def
/Gswidth {dup type /stringtype eq {stringwidth} {pop (n) stringwidth} ifelse} def
/MFwidth {0 exch { dup 5 get 3 ge { 5 get 3 eq { 0 } { pop } ifelse }
 {dup 3 get{dup dup 0 get findfont exch 1 get scalefont setfont
     6 get Gswidth pop add} {pop} ifelse} ifelse} forall} def
/MLshow { currentpoint stroke M
  0 exch R
  Blacktext {gsave 0 setgray MFshow grestore} {MFshow} ifelse } bind def
/MRshow { currentpoint stroke M
  exch dup MFwidth neg 3 -1 roll R
  Blacktext {gsave 0 setgray MFshow grestore} {MFshow} ifelse } bind def
/MCshow { currentpoint stroke M
  exch dup MFwidth -2 div 3 -1 roll R
  Blacktext {gsave 0 setgray MFshow grestore} {MFshow} ifelse } bind def
/XYsave    { [( ) 1 2 true false 3 ()] } bind def
/XYrestore { [( ) 1 2 true false 4 ()] } bind def
Level1 SuppressPDFMark or 
{} {
/SDict 10 dict def
systemdict /pdfmark known not {
  userdict /pdfmark systemdict /cleartomark get put
} if
SDict begin [
  /Title (TcpBic-download-rtt-100UE-90-240.eps)
  /Subject (gnuplot plot)
  /Creator (gnuplot 5.0 patchlevel 3)
  /Author (nat)
%  /Producer (gnuplot)
%  /Keywords ()
  /CreationDate (Thu Jun  2 10:39:42 2016)
  /DOCINFO pdfmark
end
} ifelse
%
% Support for boxed text - Ethan A Merritt May 2005
%
/InitTextBox { userdict /TBy2 3 -1 roll put userdict /TBx2 3 -1 roll put
           userdict /TBy1 3 -1 roll put userdict /TBx1 3 -1 roll put
	   /Boxing true def } def
/ExtendTextBox { Boxing
    { gsave dup false charpath pathbbox
      dup TBy2 gt {userdict /TBy2 3 -1 roll put} {pop} ifelse
      dup TBx2 gt {userdict /TBx2 3 -1 roll put} {pop} ifelse
      dup TBy1 lt {userdict /TBy1 3 -1 roll put} {pop} ifelse
      dup TBx1 lt {userdict /TBx1 3 -1 roll put} {pop} ifelse
      grestore } if } def
/PopTextBox { newpath TBx1 TBxmargin sub TBy1 TBymargin sub M
               TBx1 TBxmargin sub TBy2 TBymargin add L
	       TBx2 TBxmargin add TBy2 TBymargin add L
	       TBx2 TBxmargin add TBy1 TBymargin sub L closepath } def
/DrawTextBox { PopTextBox stroke /Boxing false def} def
/FillTextBox { gsave PopTextBox 1 1 1 setrgbcolor fill grestore /Boxing false def} def
0 0 0 0 InitTextBox
/TBxmargin 20 def
/TBymargin 20 def
/Boxing false def
/textshow { ExtendTextBox Gshow } def
%
% redundant definitions for compatibility with prologue.ps older than 5.0.2
/LTB {BL [] LCb DL} def
/LTb {PL [] LCb DL} def
end
%%EndProlog
%%Page: 1 1
gnudict begin
gsave
doclip
50 50 translate
0.050 0.050 scale
0 setgray
newpath
(Arial) findfont 200 scalefont setfont
BackgroundColor 0 lt 3 1 roll 0 lt exch 0 lt or or not {BackgroundColor C 1.000 0 0 14400.00 5040.00 BoxColFill} if
1.000 UL
LTb
0.00 0.00 0.00 C 0.500 UL
LTa
0.50 0.50 0.50 C 980 1000 M
12139 0 V
stroke
1.000 UL
LTb
0.00 0.00 0.00 C 980 1000 M
63 0 V
stroke
860 1000 M
[ [(Arial) 200.0 0.0 true true 0 ( 0)]
] -66.7 MRshow
1.000 UL
LTb
0.00 0.00 0.00 C 0.500 UL
LTa
0.50 0.50 0.50 C 980 1633 M
12139 0 V
stroke
1.000 UL
LTb
0.00 0.00 0.00 C 980 1633 M
63 0 V
stroke
860 1633 M
[ [(Arial) 200.0 0.0 true true 0 ( 50)]
] -66.7 MRshow
1.000 UL
LTb
0.00 0.00 0.00 C 0.500 UL
LTa
0.50 0.50 0.50 C 980 2266 M
12139 0 V
stroke
1.000 UL
LTb
0.00 0.00 0.00 C 980 2266 M
63 0 V
stroke
860 2266 M
[ [(Arial) 200.0 0.0 true true 0 ( 100)]
] -66.7 MRshow
1.000 UL
LTb
0.00 0.00 0.00 C 0.500 UL
LTa
0.50 0.50 0.50 C 980 2900 M
12139 0 V
stroke
1.000 UL
LTb
0.00 0.00 0.00 C 980 2900 M
63 0 V
stroke
860 2900 M
[ [(Arial) 200.0 0.0 true true 0 ( 150)]
] -66.7 MRshow
1.000 UL
LTb
0.00 0.00 0.00 C 0.500 UL
LTa
0.50 0.50 0.50 C 980 3533 M
12139 0 V
stroke
1.000 UL
LTb
0.00 0.00 0.00 C 980 3533 M
63 0 V
stroke
860 3533 M
[ [(Arial) 200.0 0.0 true true 0 ( 200)]
] -66.7 MRshow
1.000 UL
LTb
0.00 0.00 0.00 C 0.500 UL
LTa
0.50 0.50 0.50 C 980 4166 M
12139 0 V
stroke
1.000 UL
LTb
0.00 0.00 0.00 C 980 4166 M
63 0 V
stroke
860 4166 M
[ [(Arial) 200.0 0.0 true true 0 ( 250)]
] -66.7 MRshow
1.000 UL
LTb
0.00 0.00 0.00 C 0.500 UL
LTa
0.50 0.50 0.50 C 980 4799 M
12139 0 V
stroke
1.000 UL
LTb
0.00 0.00 0.00 C 980 4799 M
63 0 V
stroke
860 4799 M
[ [(Arial) 200.0 0.0 true true 0 ( 300)]
] -66.7 MRshow
1.000 UL
LTb
0.00 0.00 0.00 C 0.500 UL
LTa
0.50 0.50 0.50 C 1359 1000 M
0 3799 V
stroke
1.000 UL
LTb
0.00 0.00 0.00 C 1359 1000 M
0 63 V
0 3736 R
0 -63 V
stroke
1359 800 M
[ [(Arial) 200.0 0.0 true true 0 ( 270)]
] -66.7 MCshow
1.000 UL
LTb
0.00 0.00 0.00 C 0.500 UL
LTa
0.50 0.50 0.50 C 2118 1000 M
0 3799 V
stroke
1.000 UL
LTb
0.00 0.00 0.00 C 2118 1000 M
0 63 V
0 3736 R
0 -63 V
stroke
2118 800 M
[ [(Arial) 200.0 0.0 true true 0 ( 300)]
] -66.7 MCshow
1.000 UL
LTb
0.00 0.00 0.00 C 0.500 UL
LTa
0.50 0.50 0.50 C 2877 1000 M
0 3799 V
stroke
1.000 UL
LTb
0.00 0.00 0.00 C 2877 1000 M
0 63 V
0 3736 R
0 -63 V
stroke
2877 800 M
[ [(Arial) 200.0 0.0 true true 0 ( 330)]
] -66.7 MCshow
1.000 UL
LTb
0.00 0.00 0.00 C 0.500 UL
LTa
0.50 0.50 0.50 C 3635 1000 M
0 3799 V
stroke
1.000 UL
LTb
0.00 0.00 0.00 C 3635 1000 M
0 63 V
0 3736 R
0 -63 V
stroke
3635 800 M
[ [(Arial) 200.0 0.0 true true 0 ( 360)]
] -66.7 MCshow
1.000 UL
LTb
0.00 0.00 0.00 C 0.500 UL
LTa
0.50 0.50 0.50 C 4394 1000 M
0 3799 V
stroke
1.000 UL
LTb
0.00 0.00 0.00 C 4394 1000 M
0 63 V
0 3736 R
0 -63 V
stroke
4394 800 M
[ [(Arial) 200.0 0.0 true true 0 ( 390)]
] -66.7 MCshow
1.000 UL
LTb
0.00 0.00 0.00 C 0.500 UL
LTa
0.50 0.50 0.50 C 5153 1000 M
0 3799 V
stroke
1.000 UL
LTb
0.00 0.00 0.00 C 5153 1000 M
0 63 V
0 3736 R
0 -63 V
stroke
5153 800 M
[ [(Arial) 200.0 0.0 true true 0 ( 420)]
] -66.7 MCshow
1.000 UL
LTb
0.00 0.00 0.00 C 0.500 UL
LTa
0.50 0.50 0.50 C 5911 1000 M
0 3799 V
stroke
1.000 UL
LTb
0.00 0.00 0.00 C 5911 1000 M
0 63 V
0 3736 R
0 -63 V
stroke
5911 800 M
[ [(Arial) 200.0 0.0 true true 0 ( 450)]
] -66.7 MCshow
1.000 UL
LTb
0.00 0.00 0.00 C 0.500 UL
LTa
0.50 0.50 0.50 C 6670 1000 M
0 3799 V
stroke
1.000 UL
LTb
0.00 0.00 0.00 C 6670 1000 M
0 63 V
0 3736 R
0 -63 V
stroke
6670 800 M
[ [(Arial) 200.0 0.0 true true 0 ( 480)]
] -66.7 MCshow
1.000 UL
LTb
0.00 0.00 0.00 C 0.500 UL
LTa
0.50 0.50 0.50 C 7429 1000 M
0 3799 V
stroke
1.000 UL
LTb
0.00 0.00 0.00 C 7429 1000 M
0 63 V
0 3736 R
0 -63 V
stroke
7429 800 M
[ [(Arial) 200.0 0.0 true true 0 ( 510)]
] -66.7 MCshow
1.000 UL
LTb
0.00 0.00 0.00 C 0.500 UL
LTa
0.50 0.50 0.50 C 8188 1000 M
0 3799 V
stroke
1.000 UL
LTb
0.00 0.00 0.00 C 8188 1000 M
0 63 V
0 3736 R
0 -63 V
stroke
8188 800 M
[ [(Arial) 200.0 0.0 true true 0 ( 540)]
] -66.7 MCshow
1.000 UL
LTb
0.00 0.00 0.00 C 0.500 UL
LTa
0.50 0.50 0.50 C 8946 1000 M
0 3799 V
stroke
1.000 UL
LTb
0.00 0.00 0.00 C 8946 1000 M
0 63 V
0 3736 R
0 -63 V
stroke
8946 800 M
[ [(Arial) 200.0 0.0 true true 0 ( 570)]
] -66.7 MCshow
1.000 UL
LTb
0.00 0.00 0.00 C 0.500 UL
LTa
0.50 0.50 0.50 C 9705 1000 M
0 3799 V
stroke
1.000 UL
LTb
0.00 0.00 0.00 C 9705 1000 M
0 63 V
0 3736 R
0 -63 V
stroke
9705 800 M
[ [(Arial) 200.0 0.0 true true 0 ( 600)]
] -66.7 MCshow
1.000 UL
LTb
0.00 0.00 0.00 C 0.500 UL
LTa
0.50 0.50 0.50 C 10464 1000 M
0 3799 V
stroke
1.000 UL
LTb
0.00 0.00 0.00 C 10464 1000 M
0 63 V
0 3736 R
0 -63 V
stroke
10464 800 M
[ [(Arial) 200.0 0.0 true true 0 ( 630)]
] -66.7 MCshow
1.000 UL
LTb
0.00 0.00 0.00 C 0.500 UL
LTa
0.50 0.50 0.50 C 11222 1000 M
0 3799 V
stroke
1.000 UL
LTb
0.00 0.00 0.00 C 11222 1000 M
0 63 V
0 3736 R
0 -63 V
stroke
11222 800 M
[ [(Arial) 200.0 0.0 true true 0 ( 660)]
] -66.7 MCshow
1.000 UL
LTb
0.00 0.00 0.00 C 0.500 UL
LTa
0.50 0.50 0.50 C 11981 1000 M
0 3799 V
stroke
1.000 UL
LTb
0.00 0.00 0.00 C 11981 1000 M
0 63 V
0 3736 R
0 -63 V
stroke
11981 800 M
[ [(Arial) 200.0 0.0 true true 0 ( 690)]
] -66.7 MCshow
1.000 UL
LTb
0.00 0.00 0.00 C 0.500 UL
LTa
0.50 0.50 0.50 C 12740 1000 M
0 3799 V
stroke
1.000 UL
LTb
0.00 0.00 0.00 C 12740 1000 M
0 63 V
0 3736 R
0 -63 V
stroke
12740 800 M
[ [(Arial) 200.0 0.0 true true 0 ( 720)]
] -66.7 MCshow
1.000 UL
LTb
0.00 0.00 0.00 C 13119 1000 M
-63 0 V
stroke
13239 1000 M
[ [(Arial) 200.0 0.0 true true 0 ( 0)]
] -66.7 MLshow
1.000 UL
LTb
0.00 0.00 0.00 C 13119 1760 M
-63 0 V
stroke
13239 1760 M
[ [(Arial) 200.0 0.0 true true 0 ( 20)]
] -66.7 MLshow
1.000 UL
LTb
0.00 0.00 0.00 C 13119 2520 M
-63 0 V
stroke
13239 2520 M
[ [(Arial) 200.0 0.0 true true 0 ( 40)]
] -66.7 MLshow
1.000 UL
LTb
0.00 0.00 0.00 C 13119 3279 M
-63 0 V
stroke
13239 3279 M
[ [(Arial) 200.0 0.0 true true 0 ( 60)]
] -66.7 MLshow
1.000 UL
LTb
0.00 0.00 0.00 C 13119 4039 M
-63 0 V
stroke
13239 4039 M
[ [(Arial) 200.0 0.0 true true 0 ( 80)]
] -66.7 MLshow
1.000 UL
LTb
0.00 0.00 0.00 C 13119 4799 M
-63 0 V
stroke
13239 4799 M
[ [(Arial) 200.0 0.0 true true 0 ( 100)]
] -66.7 MLshow
1.000 UL
LTb
0.00 0.00 0.00 C 1.000 UL
LTB
0.00 0.00 0.00 C 980 4799 M
0 -3799 V
12139 0 V
0 3799 R
980 4799 M
1.000 UP
stroke
LTb
0.00 0.00 0.00 C LCb setrgbcolor
160 2899 M
currentpoint gsave translate -270 rotate 0 0 moveto
[ [(Arial) 200.0 0.0 true true 0 (RTT \(ms\))]
] -66.7 MCshow
grestore
LTb
LCb setrgbcolor
13938 2899 M
currentpoint gsave translate -270 rotate 0 0 moveto
[ [(Arial) 200.0 0.0 true true 0 (TCP delivery ratio [%])]
] -66.7 MCshow
grestore
LTb
LCb setrgbcolor
7049 500 M
[ [(Arial) 200.0 0.0 true true 0 (Local backhaul traffic traffic \(Mb/s\))]
] -66.7 MCshow
LTb
% Begin plot #1
1.000 UL
LTb
0.60 0.60 0.00 C LCb setrgbcolor
4714 333 M
[ [(Arial) 180.0 0.0 true true 0 (RTT      :   olsr)]
] -60.0 MRshow
1.000 UL
LTb
0.60 0.60 0.00 C 4822 288 333 90 80 -45 0 PatternFill
4822 288 N
333 0 V
0 90 V
-333 0 V
0 -90 V
Z stroke
1.000 UL
LTb
0.60 0.60 0.00 C 1094 1648 152 563 80 -45 0 PatternFill
1170 1608 M
0 40 V
0 563 R
0 718 V
stroke
1094 1648 N
152 0 V
0 563 V
-152 0 V
0 -563 V
Z stroke
1094 2929 M
152 0 V
1094 1608 M
152 0 V
stroke
1852 1650 152 600 80 -45 0 PatternFill
1928 1614 M
0 36 V
0 600 R
0 773 V
stroke
1852 1650 N
152 0 V
0 600 V
-152 0 V
0 -600 V
Z stroke
1852 3023 M
152 0 V
1852 1614 M
152 0 V
stroke
2611 1650 152 595 80 -45 0 PatternFill
2687 1611 M
0 39 V
0 595 R
0 710 V
stroke
2611 1650 N
152 0 V
0 595 V
-152 0 V
0 -595 V
Z stroke
2611 2955 M
152 0 V
2611 1611 M
152 0 V
stroke
3370 1646 152 559 80 -45 0 PatternFill
3446 1609 M
0 37 V
0 559 R
0 711 V
stroke
3370 1646 N
152 0 V
0 559 V
-152 0 V
0 -559 V
Z stroke
3370 2916 M
152 0 V
3370 1609 M
152 0 V
stroke
4129 1645 152 542 80 -45 0 PatternFill
4205 1608 M
0 37 V
0 542 R
0 708 V
stroke
4129 1645 N
152 0 V
0 542 V
-152 0 V
0 -542 V
Z stroke
4129 2895 M
152 0 V
4129 1608 M
152 0 V
stroke
4887 1655 152 540 80 -45 0 PatternFill
4963 1610 M
0 45 V
0 540 R
0 702 V
stroke
4887 1655 N
152 0 V
0 540 V
-152 0 V
0 -540 V
Z stroke
4887 2897 M
152 0 V
4887 1610 M
152 0 V
stroke
5646 1657 152 617 80 -45 0 PatternFill
5722 1617 M
0 40 V
0 617 R
0 745 V
stroke
5646 1657 N
152 0 V
0 617 V
-152 0 V
0 -617 V
Z stroke
5646 3019 M
152 0 V
5646 1617 M
152 0 V
stroke
6405 1651 152 549 80 -45 0 PatternFill
6481 1611 M
0 40 V
0 549 R
0 734 V
stroke
6405 1651 N
152 0 V
0 549 V
-152 0 V
0 -549 V
Z stroke
6405 2934 M
152 0 V
6405 1611 M
152 0 V
stroke
7163 1651 152 569 80 -45 0 PatternFill
7239 1612 M
0 39 V
0 569 R
0 723 V
stroke
7163 1651 N
152 0 V
0 569 V
-152 0 V
0 -569 V
Z stroke
7163 2943 M
152 0 V
7163 1612 M
152 0 V
stroke
7922 1646 152 535 80 -45 0 PatternFill
7998 1611 M
0 35 V
0 535 R
0 718 V
stroke
7922 1646 N
152 0 V
0 535 V
-152 0 V
0 -535 V
Z stroke
7922 2899 M
152 0 V
7922 1611 M
152 0 V
stroke
8681 1649 152 577 80 -45 0 PatternFill
8757 1610 M
0 39 V
0 577 R
0 763 V
stroke
8681 1649 N
152 0 V
0 577 V
-152 0 V
0 -577 V
Z stroke
8681 2989 M
152 0 V
8681 1610 M
152 0 V
stroke
9439 1655 152 543 80 -45 0 PatternFill
9515 1612 M
0 43 V
0 543 R
0 729 V
stroke
9439 1655 N
152 0 V
0 543 V
-152 0 V
0 -543 V
Z stroke
9439 2927 M
152 0 V
9439 1612 M
152 0 V
stroke
10198 1652 152 576 80 -45 0 PatternFill
10274 1614 M
0 38 V
0 576 R
0 779 V
stroke
10198 1652 N
152 0 V
0 576 V
-152 0 V
0 -576 V
Z stroke
10198 3007 M
152 0 V
10198 1614 M
152 0 V
stroke
10957 1655 152 562 80 -45 0 PatternFill
11033 1612 M
0 43 V
0 562 R
0 709 V
stroke
10957 1655 N
152 0 V
0 562 V
-152 0 V
0 -562 V
Z stroke
10957 2926 M
152 0 V
10957 1612 M
152 0 V
stroke
11715 1653 152 590 80 -45 0 PatternFill
11791 1611 M
0 42 V
0 590 R
0 689 V
stroke
11715 1653 N
152 0 V
0 590 V
-152 0 V
0 -590 V
Z stroke
11715 2932 M
152 0 V
11715 1611 M
152 0 V
stroke
12474 1657 152 567 80 -45 0 PatternFill
12550 1615 M
0 42 V
0 567 R
0 699 V
stroke
12474 1657 N
152 0 V
0 567 V
-152 0 V
0 -567 V
Z stroke
12474 2923 M
152 0 V
12474 1615 M
152 0 V
% End plot #1
% Begin plot #2
stroke
LTb
LCb setrgbcolor

 /TransparentPatterns true def
1094 1951 152 0 40 30 0 PatternFill
1170 1951 M
stroke
1094 1951 N
152 0 V
-152 0 V
Z stroke
1094 1951 M
152 0 V
-152 0 R
152 0 V
stroke

 /TransparentPatterns true def
1852 1973 152 0 40 30 0 PatternFill
1928 1973 M
stroke
1852 1973 N
152 0 V
-152 0 V
Z stroke
1852 1973 M
152 0 V
-152 0 R
152 0 V
stroke

 /TransparentPatterns true def
2611 1961 152 0 40 30 0 PatternFill
2687 1961 M
stroke
2611 1961 N
152 0 V
-152 0 V
Z stroke
2611 1961 M
152 0 V
-152 0 R
152 0 V
stroke

 /TransparentPatterns true def
3370 1943 152 0 40 30 0 PatternFill
3446 1943 M
stroke
3370 1943 N
152 0 V
-152 0 V
Z stroke
3370 1943 M
152 0 V
-152 0 R
152 0 V
stroke

 /TransparentPatterns true def
4129 1933 152 0 40 30 0 PatternFill
4205 1933 M
stroke
4129 1933 N
152 0 V
-152 0 V
Z stroke
4129 1933 M
152 0 V
-152 0 R
152 0 V
stroke

 /TransparentPatterns true def
4887 1949 152 0 40 30 0 PatternFill
4963 1949 M
stroke
4887 1949 N
152 0 V
-152 0 V
Z stroke
4887 1949 M
152 0 V
-152 0 R
152 0 V
stroke

 /TransparentPatterns true def
5646 1987 152 0 40 30 0 PatternFill
5722 1987 M
stroke
5646 1987 N
152 0 V
-152 0 V
Z stroke
5646 1987 M
152 0 V
-152 0 R
152 0 V
stroke

 /TransparentPatterns true def
6405 1949 152 0 40 30 0 PatternFill
6481 1949 M
stroke
6405 1949 N
152 0 V
-152 0 V
Z stroke
6405 1949 M
152 0 V
-152 0 R
152 0 V
stroke

 /TransparentPatterns true def
7163 1959 152 0 40 30 0 PatternFill
7239 1959 M
stroke
7163 1959 N
152 0 V
-152 0 V
Z stroke
7163 1959 M
152 0 V
-152 0 R
152 0 V
stroke

 /TransparentPatterns true def
7922 1938 152 0 40 30 0 PatternFill
7998 1938 M
stroke
7922 1938 N
152 0 V
-152 0 V
Z stroke
7922 1938 M
152 0 V
-152 0 R
152 0 V
stroke

 /TransparentPatterns true def
8681 1960 152 0 40 30 0 PatternFill
8757 1960 M
stroke
8681 1960 N
152 0 V
-152 0 V
Z stroke
8681 1960 M
152 0 V
-152 0 R
152 0 V
stroke

 /TransparentPatterns true def
9439 1950 152 0 40 30 0 PatternFill
9515 1950 M
stroke
9439 1950 N
152 0 V
-152 0 V
Z stroke
9439 1950 M
152 0 V
-152 0 R
152 0 V
stroke

 /TransparentPatterns true def
10198 1964 152 0 40 30 0 PatternFill
10274 1964 M
stroke
10198 1964 N
152 0 V
-152 0 V
Z stroke
10198 1964 M
152 0 V
-152 0 R
152 0 V
stroke

 /TransparentPatterns true def
10957 1960 152 0 40 30 0 PatternFill
11033 1960 M
stroke
10957 1960 N
152 0 V
-152 0 V
Z stroke
10957 1960 M
152 0 V
-152 0 R
152 0 V
stroke

 /TransparentPatterns true def
11715 1963 152 0 40 30 0 PatternFill
11791 1963 M
stroke
11715 1963 N
152 0 V
-152 0 V
Z stroke
11715 1963 M
152 0 V
-152 0 R
152 0 V
stroke

 /TransparentPatterns true def
12474 1962 152 0 40 30 0 PatternFill
12550 1962 M
stroke
12474 1962 N
152 0 V
-152 0 V
Z stroke
12474 1962 M
152 0 V
-152 0 R
152 0 V
% End plot #2
% Begin plot #3
2.000 UP
stroke
LTa
0.60 0.60 0.00 C LCb setrgbcolor
4714 153 M
[ [(Arial) 180.0 0.0 true true 0 (app. received bytes :         )]
] -60.0 MRshow
2.000 UP
1.000 UL
LTa
0.60 0.60 0.00 C 4822 153 M
333 0 V
980 4723 M
190 0 V
758 0 V
759 0 V
759 0 V
758 0 V
759 0 V
759 0 V
758 0 V
759 0 V
759 0 V
759 0 V
758 0 V
759 0 V
759 0 V
758 0 V
759 0 V
569 0 V
1170 4723 Box
1928 4723 Box
2687 4723 Box
3446 4723 Box
4204 4723 Box
4963 4723 Box
5722 4723 Box
6480 4723 Box
7239 4723 Box
7998 4723 Box
8757 4723 Box
9515 4723 Box
10274 4723 Box
11033 4723 Box
11791 4723 Box
12550 4723 Box
4988 153 Box
% End plot #3
% Begin plot #4
1.000 UL
LTb
0.00 0.00 0.63 C LCb setrgbcolor
8287 333 M
[ [(Arial) 180.0 0.0 true true 0 (per-packet)]
] -60.0 MRshow
1.000 UL
LTb
0.00 0.00 0.63 C 8395 288 333 90 80 45 0 PatternFill
8395 288 N
333 0 V
0 90 V
-333 0 V
0 -90 V
Z stroke
1.000 UL
LTb
0.00 0.00 0.63 C 1283 1658 152 620 80 45 0 PatternFill
1359 1609 M
0 49 V
0 620 R
0 478 V
stroke
1283 1658 N
152 0 V
0 620 V
-152 0 V
0 -620 V
Z stroke
1283 2756 M
152 0 V
1283 1609 M
152 0 V
stroke
2042 1668 152 601 80 45 0 PatternFill
2118 1612 M
0 56 V
0 601 R
0 492 V
stroke
2042 1668 N
152 0 V
0 601 V
-152 0 V
0 -601 V
Z stroke
2042 2761 M
152 0 V
2042 1612 M
152 0 V
stroke
2801 1664 152 581 80 45 0 PatternFill
2877 1613 M
0 51 V
0 581 R
0 497 V
stroke
2801 1664 N
152 0 V
0 581 V
-152 0 V
0 -581 V
Z stroke
2801 2742 M
152 0 V
2801 1613 M
152 0 V
stroke
3560 1675 152 602 80 45 0 PatternFill
3636 1615 M
0 60 V
0 602 R
0 489 V
stroke
3560 1675 N
152 0 V
0 602 V
-152 0 V
0 -602 V
Z stroke
3560 2766 M
152 0 V
3560 1615 M
152 0 V
stroke
4318 1666 152 618 80 45 0 PatternFill
4394 1613 M
0 53 V
0 618 R
0 469 V
stroke
4318 1666 N
152 0 V
0 618 V
-152 0 V
0 -618 V
Z stroke
4318 2753 M
152 0 V
4318 1613 M
152 0 V
stroke
5077 1662 152 645 80 45 0 PatternFill
5153 1610 M
0 52 V
0 645 R
0 464 V
stroke
5077 1662 N
152 0 V
0 645 V
-152 0 V
0 -645 V
Z stroke
5077 2771 M
152 0 V
5077 1610 M
152 0 V
stroke
5836 1667 152 594 80 45 0 PatternFill
5912 1614 M
0 53 V
0 594 R
0 503 V
stroke
5836 1667 N
152 0 V
0 594 V
-152 0 V
0 -594 V
Z stroke
5836 2764 M
152 0 V
5836 1614 M
152 0 V
stroke
6594 1661 152 537 80 45 0 PatternFill
6670 1612 M
0 49 V
0 537 R
0 514 V
stroke
6594 1661 N
152 0 V
0 537 V
-152 0 V
0 -537 V
Z stroke
6594 2712 M
152 0 V
6594 1612 M
152 0 V
stroke
7353 1659 152 586 80 45 0 PatternFill
7429 1612 M
0 47 V
0 586 R
0 474 V
stroke
7353 1659 N
152 0 V
0 586 V
-152 0 V
0 -586 V
Z stroke
7353 2719 M
152 0 V
7353 1612 M
152 0 V
stroke
8112 1658 152 598 80 45 0 PatternFill
8188 1612 M
0 46 V
0 598 R
0 491 V
stroke
8112 1658 N
152 0 V
0 598 V
-152 0 V
0 -598 V
Z stroke
8112 2747 M
152 0 V
8112 1612 M
152 0 V
stroke
8870 1667 152 638 80 45 0 PatternFill
8946 1610 M
0 57 V
0 638 R
0 462 V
stroke
8870 1667 N
152 0 V
0 638 V
-152 0 V
0 -638 V
Z stroke
8870 2767 M
152 0 V
8870 1610 M
152 0 V
stroke
9629 1668 152 612 80 45 0 PatternFill
9705 1612 M
0 56 V
0 612 R
0 429 V
stroke
9629 1668 N
152 0 V
0 612 V
-152 0 V
0 -612 V
Z stroke
9629 2709 M
152 0 V
9629 1612 M
152 0 V
stroke
10388 1663 152 632 80 45 0 PatternFill
10464 1613 M
0 50 V
0 632 R
0 475 V
stroke
10388 1663 N
152 0 V
0 632 V
-152 0 V
0 -632 V
Z stroke
10388 2770 M
152 0 V
10388 1613 M
152 0 V
stroke
11146 1667 152 617 80 45 0 PatternFill
11222 1611 M
0 56 V
0 617 R
0 440 V
stroke
11146 1667 N
152 0 V
0 617 V
-152 0 V
0 -617 V
Z stroke
11146 2724 M
152 0 V
11146 1611 M
152 0 V
stroke
11905 1658 152 618 80 45 0 PatternFill
11981 1610 M
0 48 V
0 618 R
0 474 V
stroke
11905 1658 N
152 0 V
0 618 V
-152 0 V
0 -618 V
Z stroke
11905 2750 M
152 0 V
11905 1610 M
152 0 V
stroke
12664 1662 152 590 80 45 0 PatternFill
12740 1611 M
0 51 V
0 590 R
0 535 V
stroke
12664 1662 N
152 0 V
0 590 V
-152 0 V
0 -590 V
Z stroke
12664 2787 M
152 0 V
12664 1611 M
152 0 V
% End plot #4
% Begin plot #5
stroke
LTb
LCb setrgbcolor

 /TransparentPatterns true def
1283 1977 152 0 80 -45 0 PatternFill
1359 1977 M
stroke
1283 1977 N
152 0 V
-152 0 V
Z stroke
1283 1977 M
152 0 V
-152 0 R
152 0 V
stroke

 /TransparentPatterns true def
2042 1991 152 0 80 -45 0 PatternFill
2118 1991 M
stroke
2042 1991 N
152 0 V
-152 0 V
Z stroke
2042 1991 M
152 0 V
-152 0 R
152 0 V
stroke

 /TransparentPatterns true def
2801 1972 152 0 80 -45 0 PatternFill
2877 1972 M
stroke
2801 1972 N
152 0 V
-152 0 V
Z stroke
2801 1972 M
152 0 V
-152 0 R
152 0 V
stroke

 /TransparentPatterns true def
3560 1986 152 0 80 -45 0 PatternFill
3636 1986 M
stroke
3560 1986 N
152 0 V
-152 0 V
Z stroke
3560 1986 M
152 0 V
-152 0 R
152 0 V
stroke

 /TransparentPatterns true def
4318 1984 152 0 80 -45 0 PatternFill
4394 1984 M
stroke
4318 1984 N
152 0 V
-152 0 V
Z stroke
4318 1984 M
152 0 V
-152 0 R
152 0 V
stroke

 /TransparentPatterns true def
5077 1995 152 0 80 -45 0 PatternFill
5153 1995 M
stroke
5077 1995 N
152 0 V
-152 0 V
Z stroke
5077 1995 M
152 0 V
-152 0 R
152 0 V
stroke

 /TransparentPatterns true def
5836 1986 152 0 80 -45 0 PatternFill
5912 1986 M
stroke
5836 1986 N
152 0 V
-152 0 V
Z stroke
5836 1986 M
152 0 V
-152 0 R
152 0 V
stroke

 /TransparentPatterns true def
6594 1948 152 0 80 -45 0 PatternFill
6670 1948 M
stroke
6594 1948 N
152 0 V
-152 0 V
Z stroke
6594 1948 M
152 0 V
-152 0 R
152 0 V
stroke

 /TransparentPatterns true def
7353 1966 152 0 80 -45 0 PatternFill
7429 1966 M
stroke
7353 1966 N
152 0 V
-152 0 V
Z stroke
7353 1966 M
152 0 V
-152 0 R
152 0 V
stroke

 /TransparentPatterns true def
8112 1971 152 0 80 -45 0 PatternFill
8188 1971 M
stroke
8112 1971 N
152 0 V
-152 0 V
Z stroke
8112 1971 M
152 0 V
-152 0 R
152 0 V
stroke

 /TransparentPatterns true def
8870 2003 152 0 80 -45 0 PatternFill
8946 2003 M
stroke
8870 2003 N
152 0 V
-152 0 V
Z stroke
8870 2003 M
152 0 V
-152 0 R
152 0 V
stroke

 /TransparentPatterns true def
9629 1980 152 0 80 -45 0 PatternFill
9705 1980 M
stroke
9629 1980 N
152 0 V
-152 0 V
Z stroke
9629 1980 M
152 0 V
-152 0 R
152 0 V
stroke

 /TransparentPatterns true def
10388 1987 152 0 80 -45 0 PatternFill
10464 1987 M
stroke
10388 1987 N
152 0 V
-152 0 V
Z stroke
10388 1987 M
152 0 V
-152 0 R
152 0 V
stroke

 /TransparentPatterns true def
11146 1987 152 0 80 -45 0 PatternFill
11222 1987 M
stroke
11146 1987 N
152 0 V
-152 0 V
Z stroke
11146 1987 M
152 0 V
-152 0 R
152 0 V
stroke

 /TransparentPatterns true def
11905 1980 152 0 80 -45 0 PatternFill
11981 1980 M
stroke
11905 1980 N
152 0 V
-152 0 V
Z stroke
11905 1980 M
152 0 V
-152 0 R
152 0 V
stroke

 /TransparentPatterns true def
12664 1975 152 0 80 -45 0 PatternFill
12740 1975 M
stroke
12664 1975 N
152 0 V
-152 0 V
Z stroke
12664 1975 M
152 0 V
-152 0 R
152 0 V
% End plot #5
% Begin plot #6
2.000 UP
stroke
LTa
0.00 0.00 0.63 C LCb setrgbcolor
8287 153 M
[ [(Arial) 180.0 0.0 true true 0 ( )]
] -60.0 MRshow
2.000 UP
1.000 UL
LTa
0.00 0.00 0.63 C 8395 153 M
333 0 V
980 4723 M
379 0 V
759 0 V
759 0 V
758 0 V
759 0 V
759 0 V
758 0 V
759 0 V
759 0 V
759 0 V
758 0 V
759 0 V
759 0 V
758 0 V
759 0 V
759 0 V
379 0 V
1359 4723 Circle
2118 4723 Circle
2877 4723 Circle
3635 4723 Circle
4394 4723 Circle
5153 4723 Circle
5911 4723 Circle
6670 4723 Circle
7429 4723 Circle
8188 4723 Circle
8946 4723 Circle
9705 4723 Circle
10464 4723 Circle
11222 4723 Circle
11981 4723 Circle
12740 4723 Circle
8561 153 Circle
% End plot #6
% Begin plot #7
1.000 UL
LTb
0.00 0.38 0.82 C LCb setrgbcolor
11860 333 M
[ [(Arial) 180.0 0.0 true true 0 (per-flow)]
] -60.0 MRshow
1.000 UL
LTb
0.00 0.38 0.82 C 11968 288 333 90 40 30 0 PatternFill
11968 288 N
333 0 V
0 90 V
-333 0 V
0 -90 V
Z stroke
1.000 UL
LTb
0.00 0.38 0.82 C 1473 1782 152 1318 40 30 0 PatternFill
1549 1644 M
0 138 V
0 1318 R
0 1043 V
stroke
1473 1782 N
152 0 V
0 1318 V
-152 0 V
0 -1318 V
Z stroke
1473 4143 M
152 0 V
1473 1644 M
152 0 V
stroke
2232 1780 152 1228 40 30 0 PatternFill
2308 1645 M
0 135 V
0 1228 R
0 993 V
stroke
2232 1780 N
152 0 V
0 1228 V
-152 0 V
0 -1228 V
Z stroke
2232 4001 M
152 0 V
2232 1645 M
152 0 V
stroke
2991 1815 152 1237 40 30 0 PatternFill
3067 1646 M
0 169 V
0 1237 R
0 871 V
stroke
2991 1815 N
152 0 V
0 1237 V
-152 0 V
0 -1237 V
Z stroke
2991 3923 M
152 0 V
2991 1646 M
152 0 V
stroke
3749 1786 152 1201 40 30 0 PatternFill
3825 1649 M
0 137 V
0 1201 R
0 821 V
stroke
3749 1786 N
152 0 V
0 1201 V
-152 0 V
0 -1201 V
Z stroke
3749 3808 M
152 0 V
3749 1649 M
152 0 V
stroke
4508 1790 152 1330 40 30 0 PatternFill
4584 1655 M
0 135 V
0 1330 R
0 953 V
stroke
4508 1790 N
152 0 V
0 1330 V
-152 0 V
0 -1330 V
Z stroke
4508 4073 M
152 0 V
4508 1655 M
152 0 V
stroke
5267 1751 152 1218 40 30 0 PatternFill
5343 1648 M
0 103 V
0 1218 R
0 810 V
stroke
5267 1751 N
152 0 V
0 1218 V
-152 0 V
0 -1218 V
Z stroke
5267 3779 M
152 0 V
5267 1648 M
152 0 V
stroke
6025 1775 152 1381 40 30 0 PatternFill
6101 1646 M
0 129 V
0 1381 R
0 1086 V
stroke
6025 1775 N
152 0 V
0 1381 V
-152 0 V
0 -1381 V
Z stroke
6025 4242 M
152 0 V
6025 1646 M
152 0 V
stroke
6784 1742 152 1288 40 30 0 PatternFill
6860 1639 M
0 103 V
0 1288 R
0 856 V
stroke
6784 1742 N
152 0 V
0 1288 V
-152 0 V
0 -1288 V
Z stroke
6784 3886 M
152 0 V
6784 1639 M
152 0 V
stroke
7543 1770 152 1240 40 30 0 PatternFill
7619 1643 M
0 127 V
0 1240 R
0 916 V
stroke
7543 1770 N
152 0 V
0 1240 V
-152 0 V
0 -1240 V
Z stroke
7543 3926 M
152 0 V
7543 1643 M
152 0 V
stroke
8301 1757 152 1255 40 30 0 PatternFill
8377 1651 M
0 106 V
0 1255 R
0 814 V
stroke
8301 1757 N
152 0 V
0 1255 V
-152 0 V
0 -1255 V
Z stroke
8301 3826 M
152 0 V
8301 1651 M
152 0 V
stroke
9060 1785 152 1206 40 30 0 PatternFill
9136 1646 M
0 139 V
0 1206 R
0 906 V
stroke
9060 1785 N
152 0 V
0 1206 V
-152 0 V
0 -1206 V
Z stroke
9060 3897 M
152 0 V
9060 1646 M
152 0 V
stroke
9819 1760 152 1251 40 30 0 PatternFill
9895 1648 M
0 112 V
0 1251 R
0 940 V
stroke
9819 1760 N
152 0 V
0 1251 V
-152 0 V
0 -1251 V
Z stroke
9819 3951 M
152 0 V
9819 1648 M
152 0 V
stroke
10577 1758 152 1299 40 30 0 PatternFill
10653 1643 M
0 115 V
0 1299 R
0 886 V
stroke
10577 1758 N
152 0 V
0 1299 V
-152 0 V
0 -1299 V
Z stroke
10577 3943 M
152 0 V
10577 1643 M
152 0 V
stroke
11336 1802 152 1286 40 30 0 PatternFill
11412 1654 M
0 148 V
0 1286 R
0 998 V
stroke
11336 1802 N
152 0 V
0 1286 V
-152 0 V
0 -1286 V
Z stroke
11336 4086 M
152 0 V
11336 1654 M
152 0 V
stroke
12095 1744 152 1105 40 30 0 PatternFill
12171 1644 M
0 100 V
0 1105 R
0 811 V
stroke
12095 1744 N
152 0 V
0 1105 V
-152 0 V
0 -1105 V
Z stroke
12095 3660 M
152 0 V
12095 1644 M
152 0 V
stroke
12853 1756 152 1297 40 30 0 PatternFill
12929 1642 M
0 114 V
0 1297 R
0 978 V
stroke
12853 1756 N
152 0 V
0 1297 V
-152 0 V
0 -1297 V
Z stroke
12853 4031 M
152 0 V
12853 1642 M
152 0 V
% End plot #7
% Begin plot #8
stroke
LTb
LCb setrgbcolor

 /TransparentPatterns true def
1473 2485 152 0 40 -30 0 PatternFill
1549 2485 M
stroke
1473 2485 N
152 0 V
-152 0 V
Z stroke
1473 2485 M
152 0 V
-152 0 R
152 0 V
stroke

 /TransparentPatterns true def
2232 2433 152 0 40 -30 0 PatternFill
2308 2433 M
stroke
2232 2433 N
152 0 V
-152 0 V
Z stroke
2232 2433 M
152 0 V
-152 0 R
152 0 V
stroke

 /TransparentPatterns true def
2991 2459 152 0 40 -30 0 PatternFill
3067 2459 M
stroke
2991 2459 N
152 0 V
-152 0 V
Z stroke
2991 2459 M
152 0 V
-152 0 R
152 0 V
stroke

 /TransparentPatterns true def
3749 2413 152 0 40 -30 0 PatternFill
3825 2413 M
stroke
3749 2413 N
152 0 V
-152 0 V
Z stroke
3749 2413 M
152 0 V
-152 0 R
152 0 V
stroke

 /TransparentPatterns true def
4508 2480 152 0 40 -30 0 PatternFill
4584 2480 M
stroke
4508 2480 N
152 0 V
-152 0 V
Z stroke
4508 2480 M
152 0 V
-152 0 R
152 0 V
stroke

 /TransparentPatterns true def
5267 2390 152 0 40 -30 0 PatternFill
5343 2390 M
stroke
5267 2390 N
152 0 V
-152 0 V
Z stroke
5267 2390 M
152 0 V
-152 0 R
152 0 V
stroke

 /TransparentPatterns true def
6025 2507 152 0 40 -30 0 PatternFill
6101 2507 M
stroke
6025 2507 N
152 0 V
-152 0 V
Z stroke
6025 2507 M
152 0 V
-152 0 R
152 0 V
stroke

 /TransparentPatterns true def
6784 2410 152 0 40 -30 0 PatternFill
6860 2410 M
stroke
6784 2410 N
152 0 V
-152 0 V
Z stroke
6784 2410 M
152 0 V
-152 0 R
152 0 V
stroke

 /TransparentPatterns true def
7543 2413 152 0 40 -30 0 PatternFill
7619 2413 M
stroke
7543 2413 N
152 0 V
-152 0 V
Z stroke
7543 2413 M
152 0 V
-152 0 R
152 0 V
stroke

 /TransparentPatterns true def
8301 2411 152 0 40 -30 0 PatternFill
8377 2411 M
stroke
8301 2411 N
152 0 V
-152 0 V
Z stroke
8301 2411 M
152 0 V
-152 0 R
152 0 V
stroke

 /TransparentPatterns true def
9060 2427 152 0 40 -30 0 PatternFill
9136 2427 M
stroke
9060 2427 N
152 0 V
-152 0 V
Z stroke
9060 2427 M
152 0 V
-152 0 R
152 0 V
stroke

 /TransparentPatterns true def
9819 2416 152 0 40 -30 0 PatternFill
9895 2416 M
stroke
9819 2416 N
152 0 V
-152 0 V
Z stroke
9819 2416 M
152 0 V
-152 0 R
152 0 V
stroke

 /TransparentPatterns true def
10577 2415 152 0 40 -30 0 PatternFill
10653 2415 M
stroke
10577 2415 N
152 0 V
-152 0 V
Z stroke
10577 2415 M
152 0 V
-152 0 R
152 0 V
stroke

 /TransparentPatterns true def
11336 2481 152 0 40 -30 0 PatternFill
11412 2481 M
stroke
11336 2481 N
152 0 V
-152 0 V
Z stroke
11336 2481 M
152 0 V
-152 0 R
152 0 V
stroke

 /TransparentPatterns true def
12095 2310 152 0 40 -30 0 PatternFill
12171 2310 M
stroke
12095 2310 N
152 0 V
-152 0 V
Z stroke
12095 2310 M
152 0 V
-152 0 R
152 0 V
stroke

 /TransparentPatterns true def
12853 2436 152 0 40 -30 0 PatternFill
12929 2436 M
stroke
12853 2436 N
152 0 V
-152 0 V
Z stroke
12853 2436 M
152 0 V
-152 0 R
152 0 V
% End plot #8
% Begin plot #9
2.000 UP
stroke
LTa
0.00 0.38 0.82 C LCb setrgbcolor
11860 153 M
[ [(Arial) 180.0 0.0 true true 0 ( )]
] -60.0 MRshow
2.000 UP
1.000 UL
LTa
0.00 0.38 0.82 C 11968 153 M
333 0 V
980 4723 M
569 0 V
759 0 V
758 0 V
759 0 V
759 0 V
758 0 V
759 0 V
759 0 V
759 0 V
758 0 V
759 0 V
759 0 V
758 0 V
759 0 V
759 0 V
758 0 V
190 0 V
1549 4723 TriU
2308 4723 TriU
3066 4723 TriU
3825 4723 TriU
4584 4723 TriU
5342 4723 TriU
6101 4723 TriU
6860 4723 TriU
7619 4723 TriU
8377 4723 TriU
9136 4723 TriU
9895 4723 TriU
10653 4723 TriU
11412 4723 TriU
12171 4723 TriU
12929 4723 TriU
12134 153 TriU
% End plot #9
2.000 UL
LTb
LCb setrgbcolor
1.000 UP
1.000 UL
LTb
0.00 0.00 0.00 C stroke
grestore
end
showpage
%%Trailer
%%DocumentFonts: Arial
