%!PS-Adobe-2.0 EPSF-2.0
%%Title: TcpHybla-download-rtt-100UE-250-400.eps
%%Creator: gnuplot 5.0 patchlevel 3
%%CreationDate: Thu Jun  2 10:39:42 2016
%%DocumentFonts: (atend)
%%BoundingBox: 50 50 770 302
%%EndComments
%%BeginProlog
/gnudict 256 dict def
gnudict begin
%
% The following true/false flags may be edited by hand if desired.
% The unit line width and grayscale image gamma correction may also be changed.
%
/Color true def
/Blacktext false def
/Solid false def
/Dashlength 3 def
/Landscape false def
/Level1 false def
/Level3 false def
/Rounded false def
/ClipToBoundingBox false def
/SuppressPDFMark false def
/TransparentPatterns false def
/gnulinewidth 15.000 def
/userlinewidth gnulinewidth def
/Gamma 1.0 def
/BackgroundColor {-1.000 -1.000 -1.000} def
%
/vshift -66 def
/dl1 {
  10.0 Dashlength userlinewidth gnulinewidth div mul mul mul
  Rounded { currentlinewidth 0.75 mul sub dup 0 le { pop 0.01 } if } if
} def
/dl2 {
  10.0 Dashlength userlinewidth gnulinewidth div mul mul mul
  Rounded { currentlinewidth 0.75 mul add } if
} def
/hpt_ 31.5 def
/vpt_ 31.5 def
/hpt hpt_ def
/vpt vpt_ def
/doclip {
  ClipToBoundingBox {
    newpath 50 50 moveto 770 50 lineto 770 302 lineto 50 302 lineto closepath
    clip
  } if
} def
%
% Gnuplot Prolog Version 5.1 (Oct 2015)
%
%/SuppressPDFMark true def
%
/M {moveto} bind def
/L {lineto} bind def
/R {rmoveto} bind def
/V {rlineto} bind def
/N {newpath moveto} bind def
/Z {closepath} bind def
/C {setrgbcolor} bind def
/f {rlineto fill} bind def
/g {setgray} bind def
/Gshow {show} def   % May be redefined later in the file to support UTF-8
/vpt2 vpt 2 mul def
/hpt2 hpt 2 mul def
/Lshow {currentpoint stroke M 0 vshift R 
	Blacktext {gsave 0 setgray textshow grestore} {textshow} ifelse} def
/Rshow {currentpoint stroke M dup stringwidth pop neg vshift R
	Blacktext {gsave 0 setgray textshow grestore} {textshow} ifelse} def
/Cshow {currentpoint stroke M dup stringwidth pop -2 div vshift R 
	Blacktext {gsave 0 setgray textshow grestore} {textshow} ifelse} def
/UP {dup vpt_ mul /vpt exch def hpt_ mul /hpt exch def
  /hpt2 hpt 2 mul def /vpt2 vpt 2 mul def} def
/DL {Color {setrgbcolor Solid {pop []} if 0 setdash}
 {pop pop pop 0 setgray Solid {pop []} if 0 setdash} ifelse} def
/BL {stroke userlinewidth 2 mul setlinewidth
	Rounded {1 setlinejoin 1 setlinecap} if} def
/AL {stroke userlinewidth 2 div setlinewidth
	Rounded {1 setlinejoin 1 setlinecap} if} def
/UL {dup gnulinewidth mul /userlinewidth exch def
	dup 1 lt {pop 1} if 10 mul /udl exch def} def
/PL {stroke userlinewidth setlinewidth
	Rounded {1 setlinejoin 1 setlinecap} if} def
3.8 setmiterlimit
% Classic Line colors (version 5.0)
/LCw {1 1 1} def
/LCb {0 0 0} def
/LCa {0 0 0} def
/LC0 {1 0 0} def
/LC1 {0 1 0} def
/LC2 {0 0 1} def
/LC3 {1 0 1} def
/LC4 {0 1 1} def
/LC5 {1 1 0} def
/LC6 {0 0 0} def
/LC7 {1 0.3 0} def
/LC8 {0.5 0.5 0.5} def
% Default dash patterns (version 5.0)
/LTB {BL [] LCb DL} def
/LTw {PL [] 1 setgray} def
/LTb {PL [] LCb DL} def
/LTa {AL [1 udl mul 2 udl mul] 0 setdash LCa setrgbcolor} def
/LT0 {PL [] LC0 DL} def
/LT1 {PL [2 dl1 3 dl2] LC1 DL} def
/LT2 {PL [1 dl1 1.5 dl2] LC2 DL} def
/LT3 {PL [6 dl1 2 dl2 1 dl1 2 dl2] LC3 DL} def
/LT4 {PL [1 dl1 2 dl2 6 dl1 2 dl2 1 dl1 2 dl2] LC4 DL} def
/LT5 {PL [4 dl1 2 dl2] LC5 DL} def
/LT6 {PL [1.5 dl1 1.5 dl2 1.5 dl1 1.5 dl2 1.5 dl1 6 dl2] LC6 DL} def
/LT7 {PL [3 dl1 3 dl2 1 dl1 3 dl2] LC7 DL} def
/LT8 {PL [2 dl1 2 dl2 2 dl1 6 dl2] LC8 DL} def
/SL {[] 0 setdash} def
/Pnt {stroke [] 0 setdash gsave 1 setlinecap M 0 0 V stroke grestore} def
/Dia {stroke [] 0 setdash 2 copy vpt add M
  hpt neg vpt neg V hpt vpt neg V
  hpt vpt V hpt neg vpt V closepath stroke
  Pnt} def
/Pls {stroke [] 0 setdash vpt sub M 0 vpt2 V
  currentpoint stroke M
  hpt neg vpt neg R hpt2 0 V stroke
 } def
/Box {stroke [] 0 setdash 2 copy exch hpt sub exch vpt add M
  0 vpt2 neg V hpt2 0 V 0 vpt2 V
  hpt2 neg 0 V closepath stroke
  Pnt} def
/Crs {stroke [] 0 setdash exch hpt sub exch vpt add M
  hpt2 vpt2 neg V currentpoint stroke M
  hpt2 neg 0 R hpt2 vpt2 V stroke} def
/TriU {stroke [] 0 setdash 2 copy vpt 1.12 mul add M
  hpt neg vpt -1.62 mul V
  hpt 2 mul 0 V
  hpt neg vpt 1.62 mul V closepath stroke
  Pnt} def
/Star {2 copy Pls Crs} def
/BoxF {stroke [] 0 setdash exch hpt sub exch vpt add M
  0 vpt2 neg V hpt2 0 V 0 vpt2 V
  hpt2 neg 0 V closepath fill} def
/TriUF {stroke [] 0 setdash vpt 1.12 mul add M
  hpt neg vpt -1.62 mul V
  hpt 2 mul 0 V
  hpt neg vpt 1.62 mul V closepath fill} def
/TriD {stroke [] 0 setdash 2 copy vpt 1.12 mul sub M
  hpt neg vpt 1.62 mul V
  hpt 2 mul 0 V
  hpt neg vpt -1.62 mul V closepath stroke
  Pnt} def
/TriDF {stroke [] 0 setdash vpt 1.12 mul sub M
  hpt neg vpt 1.62 mul V
  hpt 2 mul 0 V
  hpt neg vpt -1.62 mul V closepath fill} def
/DiaF {stroke [] 0 setdash vpt add M
  hpt neg vpt neg V hpt vpt neg V
  hpt vpt V hpt neg vpt V closepath fill} def
/Pent {stroke [] 0 setdash 2 copy gsave
  translate 0 hpt M 4 {72 rotate 0 hpt L} repeat
  closepath stroke grestore Pnt} def
/PentF {stroke [] 0 setdash gsave
  translate 0 hpt M 4 {72 rotate 0 hpt L} repeat
  closepath fill grestore} def
/Circle {stroke [] 0 setdash 2 copy
  hpt 0 360 arc stroke Pnt} def
/CircleF {stroke [] 0 setdash hpt 0 360 arc fill} def
/C0 {BL [] 0 setdash 2 copy moveto vpt 90 450 arc} bind def
/C1 {BL [] 0 setdash 2 copy moveto
	2 copy vpt 0 90 arc closepath fill
	vpt 0 360 arc closepath} bind def
/C2 {BL [] 0 setdash 2 copy moveto
	2 copy vpt 90 180 arc closepath fill
	vpt 0 360 arc closepath} bind def
/C3 {BL [] 0 setdash 2 copy moveto
	2 copy vpt 0 180 arc closepath fill
	vpt 0 360 arc closepath} bind def
/C4 {BL [] 0 setdash 2 copy moveto
	2 copy vpt 180 270 arc closepath fill
	vpt 0 360 arc closepath} bind def
/C5 {BL [] 0 setdash 2 copy moveto
	2 copy vpt 0 90 arc
	2 copy moveto
	2 copy vpt 180 270 arc closepath fill
	vpt 0 360 arc} bind def
/C6 {BL [] 0 setdash 2 copy moveto
	2 copy vpt 90 270 arc closepath fill
	vpt 0 360 arc closepath} bind def
/C7 {BL [] 0 setdash 2 copy moveto
	2 copy vpt 0 270 arc closepath fill
	vpt 0 360 arc closepath} bind def
/C8 {BL [] 0 setdash 2 copy moveto
	2 copy vpt 270 360 arc closepath fill
	vpt 0 360 arc closepath} bind def
/C9 {BL [] 0 setdash 2 copy moveto
	2 copy vpt 270 450 arc closepath fill
	vpt 0 360 arc closepath} bind def
/C10 {BL [] 0 setdash 2 copy 2 copy moveto vpt 270 360 arc closepath fill
	2 copy moveto
	2 copy vpt 90 180 arc closepath fill
	vpt 0 360 arc closepath} bind def
/C11 {BL [] 0 setdash 2 copy moveto
	2 copy vpt 0 180 arc closepath fill
	2 copy moveto
	2 copy vpt 270 360 arc closepath fill
	vpt 0 360 arc closepath} bind def
/C12 {BL [] 0 setdash 2 copy moveto
	2 copy vpt 180 360 arc closepath fill
	vpt 0 360 arc closepath} bind def
/C13 {BL [] 0 setdash 2 copy moveto
	2 copy vpt 0 90 arc closepath fill
	2 copy moveto
	2 copy vpt 180 360 arc closepath fill
	vpt 0 360 arc closepath} bind def
/C14 {BL [] 0 setdash 2 copy moveto
	2 copy vpt 90 360 arc closepath fill
	vpt 0 360 arc} bind def
/C15 {BL [] 0 setdash 2 copy vpt 0 360 arc closepath fill
	vpt 0 360 arc closepath} bind def
/Rec {newpath 4 2 roll moveto 1 index 0 rlineto 0 exch rlineto
	neg 0 rlineto closepath} bind def
/Square {dup Rec} bind def
/Bsquare {vpt sub exch vpt sub exch vpt2 Square} bind def
/S0 {BL [] 0 setdash 2 copy moveto 0 vpt rlineto BL Bsquare} bind def
/S1 {BL [] 0 setdash 2 copy vpt Square fill Bsquare} bind def
/S2 {BL [] 0 setdash 2 copy exch vpt sub exch vpt Square fill Bsquare} bind def
/S3 {BL [] 0 setdash 2 copy exch vpt sub exch vpt2 vpt Rec fill Bsquare} bind def
/S4 {BL [] 0 setdash 2 copy exch vpt sub exch vpt sub vpt Square fill Bsquare} bind def
/S5 {BL [] 0 setdash 2 copy 2 copy vpt Square fill
	exch vpt sub exch vpt sub vpt Square fill Bsquare} bind def
/S6 {BL [] 0 setdash 2 copy exch vpt sub exch vpt sub vpt vpt2 Rec fill Bsquare} bind def
/S7 {BL [] 0 setdash 2 copy exch vpt sub exch vpt sub vpt vpt2 Rec fill
	2 copy vpt Square fill Bsquare} bind def
/S8 {BL [] 0 setdash 2 copy vpt sub vpt Square fill Bsquare} bind def
/S9 {BL [] 0 setdash 2 copy vpt sub vpt vpt2 Rec fill Bsquare} bind def
/S10 {BL [] 0 setdash 2 copy vpt sub vpt Square fill 2 copy exch vpt sub exch vpt Square fill
	Bsquare} bind def
/S11 {BL [] 0 setdash 2 copy vpt sub vpt Square fill 2 copy exch vpt sub exch vpt2 vpt Rec fill
	Bsquare} bind def
/S12 {BL [] 0 setdash 2 copy exch vpt sub exch vpt sub vpt2 vpt Rec fill Bsquare} bind def
/S13 {BL [] 0 setdash 2 copy exch vpt sub exch vpt sub vpt2 vpt Rec fill
	2 copy vpt Square fill Bsquare} bind def
/S14 {BL [] 0 setdash 2 copy exch vpt sub exch vpt sub vpt2 vpt Rec fill
	2 copy exch vpt sub exch vpt Square fill Bsquare} bind def
/S15 {BL [] 0 setdash 2 copy Bsquare fill Bsquare} bind def
/D0 {gsave translate 45 rotate 0 0 S0 stroke grestore} bind def
/D1 {gsave translate 45 rotate 0 0 S1 stroke grestore} bind def
/D2 {gsave translate 45 rotate 0 0 S2 stroke grestore} bind def
/D3 {gsave translate 45 rotate 0 0 S3 stroke grestore} bind def
/D4 {gsave translate 45 rotate 0 0 S4 stroke grestore} bind def
/D5 {gsave translate 45 rotate 0 0 S5 stroke grestore} bind def
/D6 {gsave translate 45 rotate 0 0 S6 stroke grestore} bind def
/D7 {gsave translate 45 rotate 0 0 S7 stroke grestore} bind def
/D8 {gsave translate 45 rotate 0 0 S8 stroke grestore} bind def
/D9 {gsave translate 45 rotate 0 0 S9 stroke grestore} bind def
/D10 {gsave translate 45 rotate 0 0 S10 stroke grestore} bind def
/D11 {gsave translate 45 rotate 0 0 S11 stroke grestore} bind def
/D12 {gsave translate 45 rotate 0 0 S12 stroke grestore} bind def
/D13 {gsave translate 45 rotate 0 0 S13 stroke grestore} bind def
/D14 {gsave translate 45 rotate 0 0 S14 stroke grestore} bind def
/D15 {gsave translate 45 rotate 0 0 S15 stroke grestore} bind def
/DiaE {stroke [] 0 setdash vpt add M
  hpt neg vpt neg V hpt vpt neg V
  hpt vpt V hpt neg vpt V closepath stroke} def
/BoxE {stroke [] 0 setdash exch hpt sub exch vpt add M
  0 vpt2 neg V hpt2 0 V 0 vpt2 V
  hpt2 neg 0 V closepath stroke} def
/TriUE {stroke [] 0 setdash vpt 1.12 mul add M
  hpt neg vpt -1.62 mul V
  hpt 2 mul 0 V
  hpt neg vpt 1.62 mul V closepath stroke} def
/TriDE {stroke [] 0 setdash vpt 1.12 mul sub M
  hpt neg vpt 1.62 mul V
  hpt 2 mul 0 V
  hpt neg vpt -1.62 mul V closepath stroke} def
/PentE {stroke [] 0 setdash gsave
  translate 0 hpt M 4 {72 rotate 0 hpt L} repeat
  closepath stroke grestore} def
/CircE {stroke [] 0 setdash 
  hpt 0 360 arc stroke} def
/Opaque {gsave closepath 1 setgray fill grestore 0 setgray closepath} def
/DiaW {stroke [] 0 setdash vpt add M
  hpt neg vpt neg V hpt vpt neg V
  hpt vpt V hpt neg vpt V Opaque stroke} def
/BoxW {stroke [] 0 setdash exch hpt sub exch vpt add M
  0 vpt2 neg V hpt2 0 V 0 vpt2 V
  hpt2 neg 0 V Opaque stroke} def
/TriUW {stroke [] 0 setdash vpt 1.12 mul add M
  hpt neg vpt -1.62 mul V
  hpt 2 mul 0 V
  hpt neg vpt 1.62 mul V Opaque stroke} def
/TriDW {stroke [] 0 setdash vpt 1.12 mul sub M
  hpt neg vpt 1.62 mul V
  hpt 2 mul 0 V
  hpt neg vpt -1.62 mul V Opaque stroke} def
/PentW {stroke [] 0 setdash gsave
  translate 0 hpt M 4 {72 rotate 0 hpt L} repeat
  Opaque stroke grestore} def
/CircW {stroke [] 0 setdash 
  hpt 0 360 arc Opaque stroke} def
/BoxFill {gsave Rec 1 setgray fill grestore} def
/Density {
  /Fillden exch def
  currentrgbcolor
  /ColB exch def /ColG exch def /ColR exch def
  /ColR ColR Fillden mul Fillden sub 1 add def
  /ColG ColG Fillden mul Fillden sub 1 add def
  /ColB ColB Fillden mul Fillden sub 1 add def
  ColR ColG ColB setrgbcolor} def
/BoxColFill {gsave Rec PolyFill} def
/PolyFill {gsave Density fill grestore grestore} def
/h {rlineto rlineto rlineto gsave closepath fill grestore} bind def
%
% PostScript Level 1 Pattern Fill routine for rectangles
% Usage: x y w h s a XX PatternFill
%	x,y = lower left corner of box to be filled
%	w,h = width and height of box
%	  a = angle in degrees between lines and x-axis
%	 XX = 0/1 for no/yes cross-hatch
%
/PatternFill {gsave /PFa [ 9 2 roll ] def
  PFa 0 get PFa 2 get 2 div add PFa 1 get PFa 3 get 2 div add translate
  PFa 2 get -2 div PFa 3 get -2 div PFa 2 get PFa 3 get Rec
  TransparentPatterns {} {gsave 1 setgray fill grestore} ifelse
  clip
  currentlinewidth 0.5 mul setlinewidth
  /PFs PFa 2 get dup mul PFa 3 get dup mul add sqrt def
  0 0 M PFa 5 get rotate PFs -2 div dup translate
  0 1 PFs PFa 4 get div 1 add floor cvi
	{PFa 4 get mul 0 M 0 PFs V} for
  0 PFa 6 get ne {
	0 1 PFs PFa 4 get div 1 add floor cvi
	{PFa 4 get mul 0 2 1 roll M PFs 0 V} for
 } if
  stroke grestore} def
%
/languagelevel where
 {pop languagelevel} {1} ifelse
dup 2 lt
	{/InterpretLevel1 true def
	 /InterpretLevel3 false def}
	{/InterpretLevel1 Level1 def
	 2 gt
	    {/InterpretLevel3 Level3 def}
	    {/InterpretLevel3 false def}
	 ifelse }
 ifelse
%
% PostScript level 2 pattern fill definitions
%
/Level2PatternFill {
/Tile8x8 {/PaintType 2 /PatternType 1 /TilingType 1 /BBox [0 0 8 8] /XStep 8 /YStep 8}
	bind def
/KeepColor {currentrgbcolor [/Pattern /DeviceRGB] setcolorspace} bind def
<< Tile8x8
 /PaintProc {0.5 setlinewidth pop 0 0 M 8 8 L 0 8 M 8 0 L stroke} 
>> matrix makepattern
/Pat1 exch def
<< Tile8x8
 /PaintProc {0.5 setlinewidth pop 0 0 M 8 8 L 0 8 M 8 0 L stroke
	0 4 M 4 8 L 8 4 L 4 0 L 0 4 L stroke}
>> matrix makepattern
/Pat2 exch def
<< Tile8x8
 /PaintProc {0.5 setlinewidth pop 0 0 M 0 8 L
	8 8 L 8 0 L 0 0 L fill}
>> matrix makepattern
/Pat3 exch def
<< Tile8x8
 /PaintProc {0.5 setlinewidth pop -4 8 M 8 -4 L
	0 12 M 12 0 L stroke}
>> matrix makepattern
/Pat4 exch def
<< Tile8x8
 /PaintProc {0.5 setlinewidth pop -4 0 M 8 12 L
	0 -4 M 12 8 L stroke}
>> matrix makepattern
/Pat5 exch def
<< Tile8x8
 /PaintProc {0.5 setlinewidth pop -2 8 M 4 -4 L
	0 12 M 8 -4 L 4 12 M 10 0 L stroke}
>> matrix makepattern
/Pat6 exch def
<< Tile8x8
 /PaintProc {0.5 setlinewidth pop -2 0 M 4 12 L
	0 -4 M 8 12 L 4 -4 M 10 8 L stroke}
>> matrix makepattern
/Pat7 exch def
<< Tile8x8
 /PaintProc {0.5 setlinewidth pop 8 -2 M -4 4 L
	12 0 M -4 8 L 12 4 M 0 10 L stroke}
>> matrix makepattern
/Pat8 exch def
<< Tile8x8
 /PaintProc {0.5 setlinewidth pop 0 -2 M 12 4 L
	-4 0 M 12 8 L -4 4 M 8 10 L stroke}
>> matrix makepattern
/Pat9 exch def
/Pattern1 {PatternBgnd KeepColor Pat1 setpattern} bind def
/Pattern2 {PatternBgnd KeepColor Pat2 setpattern} bind def
/Pattern3 {PatternBgnd KeepColor Pat3 setpattern} bind def
/Pattern4 {PatternBgnd KeepColor Landscape {Pat5} {Pat4} ifelse setpattern} bind def
/Pattern5 {PatternBgnd KeepColor Landscape {Pat4} {Pat5} ifelse setpattern} bind def
/Pattern6 {PatternBgnd KeepColor Landscape {Pat9} {Pat6} ifelse setpattern} bind def
/Pattern7 {PatternBgnd KeepColor Landscape {Pat8} {Pat7} ifelse setpattern} bind def
} def
%
%
%End of PostScript Level 2 code
%
/PatternBgnd {
  TransparentPatterns {} {gsave 1 setgray fill grestore} ifelse
} def
%
% Substitute for Level 2 pattern fill codes with
% grayscale if Level 2 support is not selected.
%
/Level1PatternFill {
/Pattern1 {0.250 Density} bind def
/Pattern2 {0.500 Density} bind def
/Pattern3 {0.750 Density} bind def
/Pattern4 {0.125 Density} bind def
/Pattern5 {0.375 Density} bind def
/Pattern6 {0.625 Density} bind def
/Pattern7 {0.875 Density} bind def
} def
%
% Now test for support of Level 2 code
%
Level1 {Level1PatternFill} {Level2PatternFill} ifelse
%
/Symbol-Oblique /Symbol findfont [1 0 .167 1 0 0] makefont
dup length dict begin {1 index /FID eq {pop pop} {def} ifelse} forall
currentdict end definefont pop
%
/MFshow {
   { dup 5 get 3 ge
     { 5 get 3 eq {gsave} {grestore} ifelse }
     {dup dup 0 get findfont exch 1 get scalefont setfont
     [ currentpoint ] exch dup 2 get 0 exch R dup 5 get 2 ne {dup dup 6
     get exch 4 get {textshow} {stringwidth pop 0 R} ifelse }if dup 5 get 0 eq
     {dup 3 get {2 get neg 0 exch R pop} {pop aload pop M} ifelse} {dup 5
     get 1 eq {dup 2 get exch dup 3 get exch 6 get stringwidth pop -2 div
     dup 0 R} {dup 6 get stringwidth pop -2 div 0 R 6 get
     textshow 2 index {aload pop M neg 3 -1 roll neg R pop pop} {pop pop pop
     pop aload pop M} ifelse }ifelse }ifelse }
     ifelse }
   forall} def
/Gswidth {dup type /stringtype eq {stringwidth} {pop (n) stringwidth} ifelse} def
/MFwidth {0 exch { dup 5 get 3 ge { 5 get 3 eq { 0 } { pop } ifelse }
 {dup 3 get{dup dup 0 get findfont exch 1 get scalefont setfont
     6 get Gswidth pop add} {pop} ifelse} ifelse} forall} def
/MLshow { currentpoint stroke M
  0 exch R
  Blacktext {gsave 0 setgray MFshow grestore} {MFshow} ifelse } bind def
/MRshow { currentpoint stroke M
  exch dup MFwidth neg 3 -1 roll R
  Blacktext {gsave 0 setgray MFshow grestore} {MFshow} ifelse } bind def
/MCshow { currentpoint stroke M
  exch dup MFwidth -2 div 3 -1 roll R
  Blacktext {gsave 0 setgray MFshow grestore} {MFshow} ifelse } bind def
/XYsave    { [( ) 1 2 true false 3 ()] } bind def
/XYrestore { [( ) 1 2 true false 4 ()] } bind def
Level1 SuppressPDFMark or 
{} {
/SDict 10 dict def
systemdict /pdfmark known not {
  userdict /pdfmark systemdict /cleartomark get put
} if
SDict begin [
  /Title (TcpHybla-download-rtt-100UE-250-400.eps)
  /Subject (gnuplot plot)
  /Creator (gnuplot 5.0 patchlevel 3)
  /Author (nat)
%  /Producer (gnuplot)
%  /Keywords ()
  /CreationDate (Thu Jun  2 10:39:42 2016)
  /DOCINFO pdfmark
end
} ifelse
%
% Support for boxed text - Ethan A Merritt May 2005
%
/InitTextBox { userdict /TBy2 3 -1 roll put userdict /TBx2 3 -1 roll put
           userdict /TBy1 3 -1 roll put userdict /TBx1 3 -1 roll put
	   /Boxing true def } def
/ExtendTextBox { Boxing
    { gsave dup false charpath pathbbox
      dup TBy2 gt {userdict /TBy2 3 -1 roll put} {pop} ifelse
      dup TBx2 gt {userdict /TBx2 3 -1 roll put} {pop} ifelse
      dup TBy1 lt {userdict /TBy1 3 -1 roll put} {pop} ifelse
      dup TBx1 lt {userdict /TBx1 3 -1 roll put} {pop} ifelse
      grestore } if } def
/PopTextBox { newpath TBx1 TBxmargin sub TBy1 TBymargin sub M
               TBx1 TBxmargin sub TBy2 TBymargin add L
	       TBx2 TBxmargin add TBy2 TBymargin add L
	       TBx2 TBxmargin add TBy1 TBymargin sub L closepath } def
/DrawTextBox { PopTextBox stroke /Boxing false def} def
/FillTextBox { gsave PopTextBox 1 1 1 setrgbcolor fill grestore /Boxing false def} def
0 0 0 0 InitTextBox
/TBxmargin 20 def
/TBymargin 20 def
/Boxing false def
/textshow { ExtendTextBox Gshow } def
%
% redundant definitions for compatibility with prologue.ps older than 5.0.2
/LTB {BL [] LCb DL} def
/LTb {PL [] LCb DL} def
end
%%EndProlog
%%Page: 1 1
gnudict begin
gsave
doclip
50 50 translate
0.050 0.050 scale
0 setgray
newpath
(Arial) findfont 200 scalefont setfont
BackgroundColor 0 lt 3 1 roll 0 lt exch 0 lt or or not {BackgroundColor C 1.000 0 0 14400.00 5040.00 BoxColFill} if
1.000 UL
LTb
0.00 0.00 0.00 C 0.500 UL
LTa
0.50 0.50 0.50 C 980 1000 M
12139 0 V
stroke
1.000 UL
LTb
0.00 0.00 0.00 C 980 1000 M
63 0 V
stroke
860 1000 M
[ [(Arial) 200.0 0.0 true true 0 ( 40)]
] -66.7 MRshow
1.000 UL
LTb
0.00 0.00 0.00 C 0.500 UL
LTa
0.50 0.50 0.50 C 980 1475 M
12139 0 V
stroke
1.000 UL
LTb
0.00 0.00 0.00 C 980 1475 M
63 0 V
stroke
860 1475 M
[ [(Arial) 200.0 0.0 true true 0 ( 60)]
] -66.7 MRshow
1.000 UL
LTb
0.00 0.00 0.00 C 0.500 UL
LTa
0.50 0.50 0.50 C 980 1950 M
12139 0 V
stroke
1.000 UL
LTb
0.00 0.00 0.00 C 980 1950 M
63 0 V
stroke
860 1950 M
[ [(Arial) 200.0 0.0 true true 0 ( 80)]
] -66.7 MRshow
1.000 UL
LTb
0.00 0.00 0.00 C 0.500 UL
LTa
0.50 0.50 0.50 C 980 2425 M
12139 0 V
stroke
1.000 UL
LTb
0.00 0.00 0.00 C 980 2425 M
63 0 V
stroke
860 2425 M
[ [(Arial) 200.0 0.0 true true 0 ( 100)]
] -66.7 MRshow
1.000 UL
LTb
0.00 0.00 0.00 C 0.500 UL
LTa
0.50 0.50 0.50 C 980 2900 M
12139 0 V
stroke
1.000 UL
LTb
0.00 0.00 0.00 C 980 2900 M
63 0 V
stroke
860 2900 M
[ [(Arial) 200.0 0.0 true true 0 ( 120)]
] -66.7 MRshow
1.000 UL
LTb
0.00 0.00 0.00 C 0.500 UL
LTa
0.50 0.50 0.50 C 980 3374 M
12139 0 V
stroke
1.000 UL
LTb
0.00 0.00 0.00 C 980 3374 M
63 0 V
stroke
860 3374 M
[ [(Arial) 200.0 0.0 true true 0 ( 140)]
] -66.7 MRshow
1.000 UL
LTb
0.00 0.00 0.00 C 0.500 UL
LTa
0.50 0.50 0.50 C 980 3849 M
12139 0 V
stroke
1.000 UL
LTb
0.00 0.00 0.00 C 980 3849 M
63 0 V
stroke
860 3849 M
[ [(Arial) 200.0 0.0 true true 0 ( 160)]
] -66.7 MRshow
1.000 UL
LTb
0.00 0.00 0.00 C 0.500 UL
LTa
0.50 0.50 0.50 C 980 4324 M
12139 0 V
stroke
1.000 UL
LTb
0.00 0.00 0.00 C 980 4324 M
63 0 V
stroke
860 4324 M
[ [(Arial) 200.0 0.0 true true 0 ( 180)]
] -66.7 MRshow
1.000 UL
LTb
0.00 0.00 0.00 C 0.500 UL
LTa
0.50 0.50 0.50 C 980 4799 M
12139 0 V
stroke
1.000 UL
LTb
0.00 0.00 0.00 C 980 4799 M
63 0 V
stroke
860 4799 M
[ [(Arial) 200.0 0.0 true true 0 ( 200)]
] -66.7 MRshow
1.000 UL
LTb
0.00 0.00 0.00 C 0.500 UL
LTa
0.50 0.50 0.50 C 1359 1000 M
0 3799 V
stroke
1.000 UL
LTb
0.00 0.00 0.00 C 1359 1000 M
0 63 V
0 3736 R
0 -63 V
stroke
1359 800 M
[ [(Arial) 200.0 0.0 true true 0 ( 750)]
] -66.7 MCshow
1.000 UL
LTb
0.00 0.00 0.00 C 0.500 UL
LTa
0.50 0.50 0.50 C 2118 1000 M
0 3799 V
stroke
1.000 UL
LTb
0.00 0.00 0.00 C 2118 1000 M
0 63 V
0 3736 R
0 -63 V
stroke
2118 800 M
[ [(Arial) 200.0 0.0 true true 0 ( 780)]
] -66.7 MCshow
1.000 UL
LTb
0.00 0.00 0.00 C 0.500 UL
LTa
0.50 0.50 0.50 C 2877 1000 M
0 3799 V
stroke
1.000 UL
LTb
0.00 0.00 0.00 C 2877 1000 M
0 63 V
0 3736 R
0 -63 V
stroke
2877 800 M
[ [(Arial) 200.0 0.0 true true 0 ( 810)]
] -66.7 MCshow
1.000 UL
LTb
0.00 0.00 0.00 C 0.500 UL
LTa
0.50 0.50 0.50 C 3635 1000 M
0 3799 V
stroke
1.000 UL
LTb
0.00 0.00 0.00 C 3635 1000 M
0 63 V
0 3736 R
0 -63 V
stroke
3635 800 M
[ [(Arial) 200.0 0.0 true true 0 ( 840)]
] -66.7 MCshow
1.000 UL
LTb
0.00 0.00 0.00 C 0.500 UL
LTa
0.50 0.50 0.50 C 4394 1000 M
0 3799 V
stroke
1.000 UL
LTb
0.00 0.00 0.00 C 4394 1000 M
0 63 V
0 3736 R
0 -63 V
stroke
4394 800 M
[ [(Arial) 200.0 0.0 true true 0 ( 870)]
] -66.7 MCshow
1.000 UL
LTb
0.00 0.00 0.00 C 0.500 UL
LTa
0.50 0.50 0.50 C 5153 1000 M
0 3799 V
stroke
1.000 UL
LTb
0.00 0.00 0.00 C 5153 1000 M
0 63 V
0 3736 R
0 -63 V
stroke
5153 800 M
[ [(Arial) 200.0 0.0 true true 0 ( 900)]
] -66.7 MCshow
1.000 UL
LTb
0.00 0.00 0.00 C 0.500 UL
LTa
0.50 0.50 0.50 C 5911 1000 M
0 3799 V
stroke
1.000 UL
LTb
0.00 0.00 0.00 C 5911 1000 M
0 63 V
0 3736 R
0 -63 V
stroke
5911 800 M
[ [(Arial) 200.0 0.0 true true 0 ( 930)]
] -66.7 MCshow
1.000 UL
LTb
0.00 0.00 0.00 C 0.500 UL
LTa
0.50 0.50 0.50 C 6670 1000 M
0 3799 V
stroke
1.000 UL
LTb
0.00 0.00 0.00 C 6670 1000 M
0 63 V
0 3736 R
0 -63 V
stroke
6670 800 M
[ [(Arial) 200.0 0.0 true true 0 ( 960)]
] -66.7 MCshow
1.000 UL
LTb
0.00 0.00 0.00 C 0.500 UL
LTa
0.50 0.50 0.50 C 7429 1000 M
0 3799 V
stroke
1.000 UL
LTb
0.00 0.00 0.00 C 7429 1000 M
0 63 V
0 3736 R
0 -63 V
stroke
7429 800 M
[ [(Arial) 200.0 0.0 true true 0 ( 990)]
] -66.7 MCshow
1.000 UL
LTb
0.00 0.00 0.00 C 0.500 UL
LTa
0.50 0.50 0.50 C 8188 1000 M
0 3799 V
stroke
1.000 UL
LTb
0.00 0.00 0.00 C 8188 1000 M
0 63 V
0 3736 R
0 -63 V
stroke
8188 800 M
[ [(Arial) 200.0 0.0 true true 0 ( 1020)]
] -66.7 MCshow
1.000 UL
LTb
0.00 0.00 0.00 C 0.500 UL
LTa
0.50 0.50 0.50 C 8946 1000 M
0 3799 V
stroke
1.000 UL
LTb
0.00 0.00 0.00 C 8946 1000 M
0 63 V
0 3736 R
0 -63 V
stroke
8946 800 M
[ [(Arial) 200.0 0.0 true true 0 ( 1050)]
] -66.7 MCshow
1.000 UL
LTb
0.00 0.00 0.00 C 0.500 UL
LTa
0.50 0.50 0.50 C 9705 1000 M
0 3799 V
stroke
1.000 UL
LTb
0.00 0.00 0.00 C 9705 1000 M
0 63 V
0 3736 R
0 -63 V
stroke
9705 800 M
[ [(Arial) 200.0 0.0 true true 0 ( 1080)]
] -66.7 MCshow
1.000 UL
LTb
0.00 0.00 0.00 C 0.500 UL
LTa
0.50 0.50 0.50 C 10464 1000 M
0 3799 V
stroke
1.000 UL
LTb
0.00 0.00 0.00 C 10464 1000 M
0 63 V
0 3736 R
0 -63 V
stroke
10464 800 M
[ [(Arial) 200.0 0.0 true true 0 ( 1110)]
] -66.7 MCshow
1.000 UL
LTb
0.00 0.00 0.00 C 0.500 UL
LTa
0.50 0.50 0.50 C 11222 1000 M
0 3799 V
stroke
1.000 UL
LTb
0.00 0.00 0.00 C 11222 1000 M
0 63 V
0 3736 R
0 -63 V
stroke
11222 800 M
[ [(Arial) 200.0 0.0 true true 0 ( 1140)]
] -66.7 MCshow
1.000 UL
LTb
0.00 0.00 0.00 C 0.500 UL
LTa
0.50 0.50 0.50 C 11981 1000 M
0 3799 V
stroke
1.000 UL
LTb
0.00 0.00 0.00 C 11981 1000 M
0 63 V
0 3736 R
0 -63 V
stroke
11981 800 M
[ [(Arial) 200.0 0.0 true true 0 ( 1170)]
] -66.7 MCshow
1.000 UL
LTb
0.00 0.00 0.00 C 0.500 UL
LTa
0.50 0.50 0.50 C 12740 1000 M
0 3799 V
stroke
1.000 UL
LTb
0.00 0.00 0.00 C 12740 1000 M
0 63 V
0 3736 R
0 -63 V
stroke
12740 800 M
[ [(Arial) 200.0 0.0 true true 0 ( 1200)]
] -66.7 MCshow
1.000 UL
LTb
0.00 0.00 0.00 C 13119 1000 M
-63 0 V
stroke
13239 1000 M
[ [(Arial) 200.0 0.0 true true 0 ( 0)]
] -66.7 MLshow
1.000 UL
LTb
0.00 0.00 0.00 C 13119 1760 M
-63 0 V
stroke
13239 1760 M
[ [(Arial) 200.0 0.0 true true 0 ( 20)]
] -66.7 MLshow
1.000 UL
LTb
0.00 0.00 0.00 C 13119 2520 M
-63 0 V
stroke
13239 2520 M
[ [(Arial) 200.0 0.0 true true 0 ( 40)]
] -66.7 MLshow
1.000 UL
LTb
0.00 0.00 0.00 C 13119 3279 M
-63 0 V
stroke
13239 3279 M
[ [(Arial) 200.0 0.0 true true 0 ( 60)]
] -66.7 MLshow
1.000 UL
LTb
0.00 0.00 0.00 C 13119 4039 M
-63 0 V
stroke
13239 4039 M
[ [(Arial) 200.0 0.0 true true 0 ( 80)]
] -66.7 MLshow
1.000 UL
LTb
0.00 0.00 0.00 C 13119 4799 M
-63 0 V
stroke
13239 4799 M
[ [(Arial) 200.0 0.0 true true 0 ( 100)]
] -66.7 MLshow
1.000 UL
LTb
0.00 0.00 0.00 C 1.000 UL
LTB
0.00 0.00 0.00 C 980 4799 M
0 -3799 V
12139 0 V
0 3799 R
980 4799 M
1.000 UP
stroke
LTb
0.00 0.00 0.00 C LCb setrgbcolor
160 2899 M
currentpoint gsave translate -270 rotate 0 0 moveto
[ [(Arial) 200.0 0.0 true true 0 (RTT \(ms\))]
] -66.7 MCshow
grestore
LTb
LCb setrgbcolor
13938 2899 M
currentpoint gsave translate -270 rotate 0 0 moveto
[ [(Arial) 200.0 0.0 true true 0 (TCP delivery ratio [%])]
] -66.7 MCshow
grestore
LTb
LCb setrgbcolor
7049 500 M
[ [(Arial) 200.0 0.0 true true 0 (Local backhaul traffic traffic \(Mb/s\))]
] -66.7 MCshow
LTb
% Begin plot #1
1.000 UL
LTb
0.60 0.60 0.00 C LCb setrgbcolor
4714 333 M
[ [(Arial) 180.0 0.0 true true 0 (RTT      :   olsr)]
] -60.0 MRshow
1.000 UL
LTb
0.60 0.60 0.00 C 4822 288 333 90 80 -45 0 PatternFill
4822 288 N
333 0 V
0 90 V
-333 0 V
0 -90 V
Z stroke
1.000 UL
LTb
0.60 0.60 0.00 C 1094 1257 152 687 80 -45 0 PatternFill
1170 1193 M
0 64 V
0 687 R
0 1099 V
stroke
1094 1257 N
152 0 V
0 687 V
-152 0 V
0 -687 V
Z stroke
1094 3043 M
152 0 V
1094 1193 M
152 0 V
stroke
1852 1255 152 689 80 -45 0 PatternFill
1928 1192 M
0 63 V
0 689 R
0 1166 V
stroke
1852 1255 N
152 0 V
0 689 V
-152 0 V
0 -689 V
Z stroke
1852 3110 M
152 0 V
1852 1192 M
152 0 V
stroke
2611 1250 152 686 80 -45 0 PatternFill
2687 1193 M
0 57 V
0 686 R
0 1137 V
stroke
2611 1250 N
152 0 V
0 686 V
-152 0 V
0 -686 V
Z stroke
2611 3073 M
152 0 V
2611 1193 M
152 0 V
stroke
3370 1254 152 676 80 -45 0 PatternFill
3446 1192 M
0 62 V
0 676 R
0 1085 V
stroke
3370 1254 N
152 0 V
0 676 V
-152 0 V
0 -676 V
Z stroke
3370 3015 M
152 0 V
3370 1192 M
152 0 V
stroke
4129 1254 152 689 80 -45 0 PatternFill
4205 1194 M
0 60 V
0 689 R
0 1128 V
stroke
4129 1254 N
152 0 V
0 689 V
-152 0 V
0 -689 V
Z stroke
4129 3071 M
152 0 V
4129 1194 M
152 0 V
stroke
4887 1260 152 747 80 -45 0 PatternFill
4963 1195 M
0 65 V
0 747 R
0 1159 V
stroke
4887 1260 N
152 0 V
0 747 V
-152 0 V
0 -747 V
Z stroke
4887 3166 M
152 0 V
4887 1195 M
152 0 V
stroke
5646 1256 152 653 80 -45 0 PatternFill
5722 1190 M
0 66 V
0 653 R
0 1138 V
stroke
5646 1256 N
152 0 V
0 653 V
-152 0 V
0 -653 V
Z stroke
5646 3047 M
152 0 V
5646 1190 M
152 0 V
stroke
6405 1265 152 773 80 -45 0 PatternFill
6481 1197 M
0 68 V
0 773 R
0 1161 V
stroke
6405 1265 N
152 0 V
0 773 V
-152 0 V
0 -773 V
Z stroke
6405 3199 M
152 0 V
6405 1197 M
152 0 V
stroke
7163 1259 152 666 80 -45 0 PatternFill
7239 1195 M
0 64 V
0 666 R
0 1071 V
stroke
7163 1259 N
152 0 V
0 666 V
-152 0 V
0 -666 V
Z stroke
7163 2996 M
152 0 V
7163 1195 M
152 0 V
stroke
7922 1258 152 692 80 -45 0 PatternFill
7998 1191 M
0 67 V
0 692 R
0 1154 V
stroke
7922 1258 N
152 0 V
0 692 V
-152 0 V
0 -692 V
Z stroke
7922 3104 M
152 0 V
7922 1191 M
152 0 V
stroke
8681 1257 152 650 80 -45 0 PatternFill
8757 1197 M
0 60 V
0 650 R
0 1143 V
stroke
8681 1257 N
152 0 V
0 650 V
-152 0 V
0 -650 V
Z stroke
8681 3050 M
152 0 V
8681 1197 M
152 0 V
stroke
9439 1260 152 633 80 -45 0 PatternFill
9515 1198 M
0 62 V
0 633 R
0 1076 V
stroke
9439 1260 N
152 0 V
0 633 V
-152 0 V
0 -633 V
Z stroke
9439 2969 M
152 0 V
9439 1198 M
152 0 V
stroke
10198 1263 152 581 80 -45 0 PatternFill
10274 1201 M
0 62 V
0 581 R
0 1058 V
stroke
10198 1263 N
152 0 V
0 581 V
-152 0 V
0 -581 V
Z stroke
10198 2902 M
152 0 V
10198 1201 M
152 0 V
stroke
10957 1257 152 541 80 -45 0 PatternFill
11033 1195 M
0 62 V
0 541 R
0 1028 V
stroke
10957 1257 N
152 0 V
0 541 V
-152 0 V
0 -541 V
Z stroke
10957 2826 M
152 0 V
10957 1195 M
152 0 V
stroke
11715 1267 152 521 80 -45 0 PatternFill
11791 1198 M
0 69 V
0 521 R
0 905 V
stroke
11715 1267 N
152 0 V
0 521 V
-152 0 V
0 -521 V
Z stroke
11715 2693 M
152 0 V
11715 1198 M
152 0 V
stroke
12474 1265 152 448 80 -45 0 PatternFill
12550 1198 M
0 67 V
0 448 R
0 896 V
stroke
12474 1265 N
152 0 V
0 448 V
-152 0 V
0 -448 V
Z stroke
12474 2609 M
152 0 V
12474 1198 M
152 0 V
% End plot #1
% Begin plot #2
stroke
LTb
LCb setrgbcolor

 /TransparentPatterns true def
1094 1657 152 0 40 30 0 PatternFill
1170 1657 M
stroke
1094 1657 N
152 0 V
-152 0 V
Z stroke
1094 1657 M
152 0 V
-152 0 R
152 0 V
stroke

 /TransparentPatterns true def
1852 1662 152 0 40 30 0 PatternFill
1928 1662 M
stroke
1852 1662 N
152 0 V
-152 0 V
Z stroke
1852 1662 M
152 0 V
-152 0 R
152 0 V
stroke

 /TransparentPatterns true def
2611 1660 152 0 40 30 0 PatternFill
2687 1660 M
stroke
2611 1660 N
152 0 V
-152 0 V
Z stroke
2611 1660 M
152 0 V
-152 0 R
152 0 V
stroke

 /TransparentPatterns true def
3370 1646 152 0 40 30 0 PatternFill
3446 1646 M
stroke
3370 1646 N
152 0 V
-152 0 V
Z stroke
3370 1646 M
152 0 V
-152 0 R
152 0 V
stroke

 /TransparentPatterns true def
4129 1663 152 0 40 30 0 PatternFill
4205 1663 M
stroke
4129 1663 N
152 0 V
-152 0 V
Z stroke
4129 1663 M
152 0 V
-152 0 R
152 0 V
stroke

 /TransparentPatterns true def
4887 1686 152 0 40 30 0 PatternFill
4963 1686 M
stroke
4887 1686 N
152 0 V
-152 0 V
Z stroke
4887 1686 M
152 0 V
-152 0 R
152 0 V
stroke

 /TransparentPatterns true def
5646 1646 152 0 40 30 0 PatternFill
5722 1646 M
stroke
5646 1646 N
152 0 V
-152 0 V
Z stroke
5646 1646 M
152 0 V
-152 0 R
152 0 V
stroke

 /TransparentPatterns true def
6405 1709 152 0 40 30 0 PatternFill
6481 1709 M
stroke
6405 1709 N
152 0 V
-152 0 V
Z stroke
6405 1709 M
152 0 V
-152 0 R
152 0 V
stroke

 /TransparentPatterns true def
7163 1651 152 0 40 30 0 PatternFill
7239 1651 M
stroke
7163 1651 N
152 0 V
-152 0 V
Z stroke
7163 1651 M
152 0 V
-152 0 R
152 0 V
stroke

 /TransparentPatterns true def
7922 1673 152 0 40 30 0 PatternFill
7998 1673 M
stroke
7922 1673 N
152 0 V
-152 0 V
Z stroke
7922 1673 M
152 0 V
-152 0 R
152 0 V
stroke

 /TransparentPatterns true def
8681 1652 152 0 40 30 0 PatternFill
8757 1652 M
stroke
8681 1652 N
152 0 V
-152 0 V
Z stroke
8681 1652 M
152 0 V
-152 0 R
152 0 V
stroke

 /TransparentPatterns true def
9439 1637 152 0 40 30 0 PatternFill
9515 1637 M
stroke
9439 1637 N
152 0 V
-152 0 V
Z stroke
9439 1637 M
152 0 V
-152 0 R
152 0 V
stroke

 /TransparentPatterns true def
10198 1614 152 0 40 30 0 PatternFill
10274 1614 M
stroke
10198 1614 N
152 0 V
-152 0 V
Z stroke
10198 1614 M
152 0 V
-152 0 R
152 0 V
stroke

 /TransparentPatterns true def
10957 1601 152 0 40 30 0 PatternFill
11033 1601 M
stroke
10957 1601 N
152 0 V
-152 0 V
Z stroke
10957 1601 M
152 0 V
-152 0 R
152 0 V
stroke

 /TransparentPatterns true def
11715 1586 152 0 40 30 0 PatternFill
11791 1586 M
stroke
11715 1586 N
152 0 V
-152 0 V
Z stroke
11715 1586 M
152 0 V
-152 0 R
152 0 V
stroke

 /TransparentPatterns true def
12474 1556 152 0 40 30 0 PatternFill
12550 1556 M
stroke
12474 1556 N
152 0 V
-152 0 V
Z stroke
12474 1556 M
152 0 V
-152 0 R
152 0 V
% End plot #2
% Begin plot #3
2.000 UP
stroke
LTa
0.60 0.60 0.00 C LCb setrgbcolor
4714 153 M
[ [(Arial) 180.0 0.0 true true 0 (app. received bytes :         )]
] -60.0 MRshow
2.000 UP
1.000 UL
LTa
0.60 0.60 0.00 C 4822 153 M
333 0 V
980 4723 M
190 0 V
758 0 V
759 0 V
759 0 V
758 0 V
759 0 V
759 0 V
758 0 V
759 0 V
759 0 V
759 0 V
758 0 V
759 0 V
759 0 V
758 0 V
759 0 V
1170 4723 Box
1928 4723 Box
2687 4723 Box
3446 4723 Box
4204 4723 Box
4963 4723 Box
5722 4723 Box
6480 4723 Box
7239 4723 Box
7998 4723 Box
8757 4723 Box
9515 4723 Box
10274 4723 Box
11033 4723 Box
11791 4723 Box
12550 4723 Box
4988 153 Box
% End plot #3
% Begin plot #4
1.000 UL
LTb
0.00 0.00 0.63 C LCb setrgbcolor
8287 333 M
[ [(Arial) 180.0 0.0 true true 0 (per-packet)]
] -60.0 MRshow
1.000 UL
LTb
0.00 0.00 0.63 C 8395 288 333 90 80 45 0 PatternFill
8395 288 N
333 0 V
0 90 V
-333 0 V
0 -90 V
Z stroke
1.000 UL
LTb
0.00 0.00 0.63 C 1283 1257 152 814 80 45 0 PatternFill
1359 1186 M
0 71 V
0 814 R
0 914 V
stroke
1283 1257 N
152 0 V
0 814 V
-152 0 V
0 -814 V
Z stroke
1283 2985 M
152 0 V
1283 1186 M
152 0 V
stroke
2042 1250 152 788 80 45 0 PatternFill
2118 1183 M
0 67 V
0 788 R
0 852 V
stroke
2042 1250 N
152 0 V
0 788 V
-152 0 V
0 -788 V
Z stroke
2042 2890 M
152 0 V
2042 1183 M
152 0 V
stroke
2801 1248 152 727 80 45 0 PatternFill
2877 1182 M
0 66 V
0 727 R
0 1002 V
stroke
2801 1248 N
152 0 V
0 727 V
-152 0 V
0 -727 V
Z stroke
2801 2977 M
152 0 V
2801 1182 M
152 0 V
stroke
3560 1249 152 730 80 45 0 PatternFill
3636 1182 M
0 67 V
0 730 R
0 931 V
stroke
3560 1249 N
152 0 V
0 730 V
-152 0 V
0 -730 V
Z stroke
3560 2910 M
152 0 V
3560 1182 M
152 0 V
stroke
4318 1240 152 712 80 45 0 PatternFill
4394 1177 M
0 63 V
0 712 R
0 940 V
stroke
4318 1240 N
152 0 V
0 712 V
-152 0 V
0 -712 V
Z stroke
4318 2892 M
152 0 V
4318 1177 M
152 0 V
stroke
5077 1253 152 797 80 45 0 PatternFill
5153 1185 M
0 68 V
0 797 R
0 929 V
stroke
5077 1253 N
152 0 V
0 797 V
-152 0 V
0 -797 V
Z stroke
5077 2979 M
152 0 V
5077 1185 M
152 0 V
stroke
5836 1241 152 732 80 45 0 PatternFill
5912 1177 M
0 64 V
0 732 R
0 874 V
stroke
5836 1241 N
152 0 V
0 732 V
-152 0 V
0 -732 V
Z stroke
5836 2847 M
152 0 V
5836 1177 M
152 0 V
stroke
6594 1255 152 724 80 45 0 PatternFill
6670 1187 M
0 68 V
0 724 R
0 978 V
stroke
6594 1255 N
152 0 V
0 724 V
-152 0 V
0 -724 V
Z stroke
6594 2957 M
152 0 V
6594 1187 M
152 0 V
stroke
7353 1248 152 710 80 45 0 PatternFill
7429 1183 M
0 65 V
0 710 R
0 886 V
stroke
7353 1248 N
152 0 V
0 710 V
-152 0 V
0 -710 V
Z stroke
7353 2844 M
152 0 V
7353 1183 M
152 0 V
stroke
8112 1259 152 751 80 45 0 PatternFill
8188 1186 M
0 73 V
0 751 R
0 868 V
stroke
8112 1259 N
152 0 V
0 751 V
-152 0 V
0 -751 V
Z stroke
8112 2878 M
152 0 V
8112 1186 M
152 0 V
stroke
8870 1243 152 641 80 45 0 PatternFill
8946 1183 M
0 60 V
0 641 R
0 797 V
stroke
8870 1243 N
152 0 V
0 641 V
-152 0 V
0 -641 V
Z stroke
8870 2681 M
152 0 V
8870 1183 M
152 0 V
stroke
9629 1250 152 689 80 45 0 PatternFill
9705 1185 M
0 65 V
0 689 R
0 859 V
stroke
9629 1250 N
152 0 V
0 689 V
-152 0 V
0 -689 V
Z stroke
9629 2798 M
152 0 V
9629 1185 M
152 0 V
stroke
10388 1250 152 689 80 45 0 PatternFill
10464 1184 M
0 66 V
0 689 R
0 936 V
stroke
10388 1250 N
152 0 V
0 689 V
-152 0 V
0 -689 V
Z stroke
10388 2875 M
152 0 V
10388 1184 M
152 0 V
stroke
11146 1250 152 701 80 45 0 PatternFill
11222 1186 M
0 64 V
0 701 R
0 914 V
stroke
11146 1250 N
152 0 V
0 701 V
-152 0 V
0 -701 V
Z stroke
11146 2865 M
152 0 V
11146 1186 M
152 0 V
stroke
11905 1257 152 699 80 45 0 PatternFill
11981 1193 M
0 64 V
0 699 R
0 847 V
stroke
11905 1257 N
152 0 V
0 699 V
-152 0 V
0 -699 V
Z stroke
11905 2803 M
152 0 V
11905 1193 M
152 0 V
stroke
12664 1250 152 663 80 45 0 PatternFill
12740 1186 M
0 64 V
0 663 R
0 851 V
stroke
12664 1250 N
152 0 V
0 663 V
-152 0 V
0 -663 V
Z stroke
12664 2764 M
152 0 V
12664 1186 M
152 0 V
% End plot #4
% Begin plot #5
stroke
LTb
LCb setrgbcolor

 /TransparentPatterns true def
1283 1682 152 0 80 -45 0 PatternFill
1359 1682 M
stroke
1283 1682 N
152 0 V
-152 0 V
Z stroke
1283 1682 M
152 0 V
-152 0 R
152 0 V
stroke

 /TransparentPatterns true def
2042 1654 152 0 80 -45 0 PatternFill
2118 1654 M
stroke
2042 1654 N
152 0 V
-152 0 V
Z stroke
2042 1654 M
152 0 V
-152 0 R
152 0 V
stroke

 /TransparentPatterns true def
2801 1639 152 0 80 -45 0 PatternFill
2877 1639 M
stroke
2801 1639 N
152 0 V
-152 0 V
Z stroke
2801 1639 M
152 0 V
-152 0 R
152 0 V
stroke

 /TransparentPatterns true def
3560 1655 152 0 80 -45 0 PatternFill
3636 1655 M
stroke
3560 1655 N
152 0 V
-152 0 V
Z stroke
3560 1655 M
152 0 V
-152 0 R
152 0 V
stroke

 /TransparentPatterns true def
4318 1632 152 0 80 -45 0 PatternFill
4394 1632 M
stroke
4318 1632 N
152 0 V
-152 0 V
Z stroke
4318 1632 M
152 0 V
-152 0 R
152 0 V
stroke

 /TransparentPatterns true def
5077 1674 152 0 80 -45 0 PatternFill
5153 1674 M
stroke
5077 1674 N
152 0 V
-152 0 V
Z stroke
5077 1674 M
152 0 V
-152 0 R
152 0 V
stroke

 /TransparentPatterns true def
5836 1623 152 0 80 -45 0 PatternFill
5912 1623 M
stroke
5836 1623 N
152 0 V
-152 0 V
Z stroke
5836 1623 M
152 0 V
-152 0 R
152 0 V
stroke

 /TransparentPatterns true def
6594 1653 152 0 80 -45 0 PatternFill
6670 1653 M
stroke
6594 1653 N
152 0 V
-152 0 V
Z stroke
6594 1653 M
152 0 V
-152 0 R
152 0 V
stroke

 /TransparentPatterns true def
7353 1630 152 0 80 -45 0 PatternFill
7429 1630 M
stroke
7353 1630 N
152 0 V
-152 0 V
Z stroke
7353 1630 M
152 0 V
-152 0 R
152 0 V
stroke

 /TransparentPatterns true def
8112 1657 152 0 80 -45 0 PatternFill
8188 1657 M
stroke
8112 1657 N
152 0 V
-152 0 V
Z stroke
8112 1657 M
152 0 V
-152 0 R
152 0 V
stroke

 /TransparentPatterns true def
8870 1586 152 0 80 -45 0 PatternFill
8946 1586 M
stroke
8870 1586 N
152 0 V
-152 0 V
Z stroke
8870 1586 M
152 0 V
-152 0 R
152 0 V
stroke

 /TransparentPatterns true def
9629 1622 152 0 80 -45 0 PatternFill
9705 1622 M
stroke
9629 1622 N
152 0 V
-152 0 V
Z stroke
9629 1622 M
152 0 V
-152 0 R
152 0 V
stroke

 /TransparentPatterns true def
10388 1628 152 0 80 -45 0 PatternFill
10464 1628 M
stroke
10388 1628 N
152 0 V
-152 0 V
Z stroke
10388 1628 M
152 0 V
-152 0 R
152 0 V
stroke

 /TransparentPatterns true def
11146 1634 152 0 80 -45 0 PatternFill
11222 1634 M
stroke
11146 1634 N
152 0 V
-152 0 V
Z stroke
11146 1634 M
152 0 V
-152 0 R
152 0 V
stroke

 /TransparentPatterns true def
11905 1626 152 0 80 -45 0 PatternFill
11981 1626 M
stroke
11905 1626 N
152 0 V
-152 0 V
Z stroke
11905 1626 M
152 0 V
-152 0 R
152 0 V
stroke

 /TransparentPatterns true def
12664 1611 152 0 80 -45 0 PatternFill
12740 1611 M
stroke
12664 1611 N
152 0 V
-152 0 V
Z stroke
12664 1611 M
152 0 V
-152 0 R
152 0 V
% End plot #5
% Begin plot #6
2.000 UP
stroke
LTa
0.00 0.00 0.63 C LCb setrgbcolor
8287 153 M
[ [(Arial) 180.0 0.0 true true 0 ( )]
] -60.0 MRshow
2.000 UP
1.000 UL
LTa
0.00 0.00 0.63 C 8395 153 M
333 0 V
980 4723 M
379 0 V
759 0 V
759 0 V
758 0 V
759 0 V
759 0 V
758 0 V
759 0 V
759 0 V
759 0 V
758 0 V
759 0 V
759 0 V
758 0 V
759 0 V
759 0 V
1359 4723 Circle
2118 4723 Circle
2877 4723 Circle
3635 4723 Circle
4394 4723 Circle
5153 4723 Circle
5911 4723 Circle
6670 4723 Circle
7429 4723 Circle
8188 4723 Circle
8946 4723 Circle
9705 4723 Circle
10464 4723 Circle
11222 4723 Circle
11981 4723 Circle
12740 4723 Circle
8561 153 Circle
% End plot #6
% Begin plot #7
1.000 UL
LTb
0.00 0.38 0.82 C LCb setrgbcolor
11860 333 M
[ [(Arial) 180.0 0.0 true true 0 (per-flow)]
] -60.0 MRshow
1.000 UL
LTb
0.00 0.38 0.82 C 11968 288 333 90 40 30 0 PatternFill
11968 288 N
333 0 V
0 90 V
-333 0 V
0 -90 V
Z stroke
1.000 UL
LTb
0.00 0.38 0.82 C 1473 1352 152 1619 40 30 0 PatternFill
1549 1221 M
0 131 V
0 1619 R
0 1773 V
stroke
1473 1352 N
152 0 V
0 1619 V
-152 0 V
0 -1619 V
Z stroke
1473 4744 M
152 0 V
1473 1221 M
152 0 V
stroke
2232 1313 152 1449 40 30 0 PatternFill
2308 1212 M
0 101 V
0 1449 R
0 1604 V
stroke
2232 1313 N
152 0 V
0 1449 V
-152 0 V
0 -1449 V
Z stroke
2232 4366 M
152 0 V
2232 1212 M
152 0 V
stroke
2991 1318 152 1477 40 30 0 PatternFill
3067 1212 M
0 106 V
0 1477 R
0 1595 V
stroke
2991 1318 N
152 0 V
0 1477 V
-152 0 V
0 -1477 V
Z stroke
2991 4390 M
152 0 V
2991 1212 M
152 0 V
stroke
3749 1368 152 1584 40 30 0 PatternFill
3825 1237 M
0 131 V
0 1584 R
0 1802 V
stroke
3749 1368 N
152 0 V
0 1584 V
-152 0 V
0 -1584 V
Z stroke
3749 4754 M
152 0 V
3749 1237 M
152 0 V
stroke
4508 1330 152 1411 40 30 0 PatternFill
4584 1218 M
0 112 V
0 1411 R
0 1609 V
stroke
4508 1330 N
152 0 V
0 1411 V
-152 0 V
0 -1411 V
Z stroke
4508 4350 M
152 0 V
4508 1218 M
152 0 V
stroke
5267 1351 152 1465 40 30 0 PatternFill
5343 1221 M
0 130 V
0 1465 R
0 1680 V
stroke
5267 1351 N
152 0 V
0 1465 V
-152 0 V
0 -1465 V
Z stroke
5267 4496 M
152 0 V
5267 1221 M
152 0 V
stroke
6025 1343 152 1435 40 30 0 PatternFill
6101 1223 M
0 120 V
0 1435 R
0 1638 V
stroke
6025 1343 N
152 0 V
0 1435 V
-152 0 V
0 -1435 V
Z stroke
6025 4416 M
152 0 V
6025 1223 M
152 0 V
stroke
6784 1340 152 1465 40 30 0 PatternFill
6860 1225 M
0 115 V
0 1465 R
0 1651 V
stroke
6784 1340 N
152 0 V
0 1465 V
-152 0 V
0 -1465 V
Z stroke
6784 4456 M
152 0 V
6784 1225 M
152 0 V
stroke
7543 1341 152 1480 40 30 0 PatternFill
7619 1228 M
0 113 V
0 1480 R
0 1715 V
stroke
7543 1341 N
152 0 V
0 1480 V
-152 0 V
0 -1480 V
Z stroke
7543 4536 M
152 0 V
7543 1228 M
152 0 V
stroke
8301 1358 152 1439 40 30 0 PatternFill
8377 1230 M
0 128 V
0 1439 R
0 1489 V
stroke
8301 1358 N
152 0 V
0 1439 V
-152 0 V
0 -1439 V
Z stroke
8301 4286 M
152 0 V
8301 1230 M
152 0 V
stroke
9060 1321 152 1351 40 30 0 PatternFill
9136 1219 M
0 102 V
0 1351 R
0 1737 V
stroke
9060 1321 N
152 0 V
0 1351 V
-152 0 V
0 -1351 V
Z stroke
9060 4409 M
152 0 V
9060 1219 M
152 0 V
stroke
9819 1360 152 1466 40 30 0 PatternFill
9895 1236 M
0 124 V
0 1466 R
0 1621 V
stroke
9819 1360 N
152 0 V
0 1466 V
-152 0 V
0 -1466 V
Z stroke
9819 4447 M
152 0 V
9819 1236 M
152 0 V
stroke
10577 1324 152 1301 40 30 0 PatternFill
10653 1223 M
0 101 V
0 1301 R
0 1438 V
stroke
10577 1324 N
152 0 V
0 1301 V
-152 0 V
0 -1301 V
Z stroke
10577 4063 M
152 0 V
10577 1223 M
152 0 V
stroke
11336 1351 152 1356 40 30 0 PatternFill
11412 1241 M
0 110 V
0 1356 R
0 1514 V
stroke
11336 1351 N
152 0 V
0 1356 V
-152 0 V
0 -1356 V
Z stroke
11336 4221 M
152 0 V
11336 1241 M
152 0 V
stroke
12095 1340 152 1256 40 30 0 PatternFill
12171 1240 M
0 100 V
0 1256 R
0 1532 V
stroke
12095 1340 N
152 0 V
0 1256 V
-152 0 V
0 -1256 V
Z stroke
12095 4128 M
152 0 V
12095 1240 M
152 0 V
stroke
12853 1338 152 1281 40 30 0 PatternFill
12929 1234 M
0 104 V
0 1281 R
0 1348 V
stroke
12853 1338 N
152 0 V
0 1281 V
-152 0 V
0 -1281 V
Z stroke
12853 3967 M
152 0 V
12853 1234 M
152 0 V
% End plot #7
% Begin plot #8
stroke
LTb
LCb setrgbcolor

 /TransparentPatterns true def
1473 2229 152 0 40 -30 0 PatternFill
1549 2229 M
stroke
1473 2229 N
152 0 V
-152 0 V
Z stroke
1473 2229 M
152 0 V
-152 0 R
152 0 V
stroke

 /TransparentPatterns true def
2232 2102 152 0 40 -30 0 PatternFill
2308 2102 M
stroke
2232 2102 N
152 0 V
-152 0 V
Z stroke
2232 2102 M
152 0 V
-152 0 R
152 0 V
stroke

 /TransparentPatterns true def
2991 2115 152 0 40 -30 0 PatternFill
3067 2115 M
stroke
2991 2115 N
152 0 V
-152 0 V
Z stroke
2991 2115 M
152 0 V
-152 0 R
152 0 V
stroke

 /TransparentPatterns true def
3749 2243 152 0 40 -30 0 PatternFill
3825 2243 M
stroke
3749 2243 N
152 0 V
-152 0 V
Z stroke
3749 2243 M
152 0 V
-152 0 R
152 0 V
stroke

 /TransparentPatterns true def
4508 2075 152 0 40 -30 0 PatternFill
4584 2075 M
stroke
4508 2075 N
152 0 V
-152 0 V
Z stroke
4508 2075 M
152 0 V
-152 0 R
152 0 V
stroke

 /TransparentPatterns true def
5267 2157 152 0 40 -30 0 PatternFill
5343 2157 M
stroke
5267 2157 N
152 0 V
-152 0 V
Z stroke
5267 2157 M
152 0 V
-152 0 R
152 0 V
stroke

 /TransparentPatterns true def
6025 2126 152 0 40 -30 0 PatternFill
6101 2126 M
stroke
6025 2126 N
152 0 V
-152 0 V
Z stroke
6025 2126 M
152 0 V
-152 0 R
152 0 V
stroke

 /TransparentPatterns true def
6784 2126 152 0 40 -30 0 PatternFill
6860 2126 M
stroke
6784 2126 N
152 0 V
-152 0 V
Z stroke
6784 2126 M
152 0 V
-152 0 R
152 0 V
stroke

 /TransparentPatterns true def
7543 2135 152 0 40 -30 0 PatternFill
7619 2135 M
stroke
7543 2135 N
152 0 V
-152 0 V
Z stroke
7543 2135 M
152 0 V
-152 0 R
152 0 V
stroke

 /TransparentPatterns true def
8301 2123 152 0 40 -30 0 PatternFill
8377 2123 M
stroke
8301 2123 N
152 0 V
-152 0 V
Z stroke
8301 2123 M
152 0 V
-152 0 R
152 0 V
stroke

 /TransparentPatterns true def
9060 2063 152 0 40 -30 0 PatternFill
9136 2063 M
stroke
9060 2063 N
152 0 V
-152 0 V
Z stroke
9060 2063 M
152 0 V
-152 0 R
152 0 V
stroke

 /TransparentPatterns true def
9819 2149 152 0 40 -30 0 PatternFill
9895 2149 M
stroke
9819 2149 N
152 0 V
-152 0 V
Z stroke
9819 2149 M
152 0 V
-152 0 R
152 0 V
stroke

 /TransparentPatterns true def
10577 2006 152 0 40 -30 0 PatternFill
10653 2006 M
stroke
10577 2006 N
152 0 V
-152 0 V
Z stroke
10577 2006 M
152 0 V
-152 0 R
152 0 V
stroke

 /TransparentPatterns true def
11336 2068 152 0 40 -30 0 PatternFill
11412 2068 M
stroke
11336 2068 N
152 0 V
-152 0 V
Z stroke
11336 2068 M
152 0 V
-152 0 R
152 0 V
stroke

 /TransparentPatterns true def
12095 2027 152 0 40 -30 0 PatternFill
12171 2027 M
stroke
12095 2027 N
152 0 V
-152 0 V
Z stroke
12095 2027 M
152 0 V
-152 0 R
152 0 V
stroke

 /TransparentPatterns true def
12853 2021 152 0 40 -30 0 PatternFill
12929 2021 M
stroke
12853 2021 N
152 0 V
-152 0 V
Z stroke
12853 2021 M
152 0 V
-152 0 R
152 0 V
% End plot #8
% Begin plot #9
2.000 UP
stroke
LTa
0.00 0.38 0.82 C LCb setrgbcolor
11860 153 M
[ [(Arial) 180.0 0.0 true true 0 ( )]
] -60.0 MRshow
2.000 UP
1.000 UL
LTa
0.00 0.38 0.82 C 11968 153 M
333 0 V
980 4723 M
569 0 V
759 0 V
758 0 V
759 0 V
759 0 V
758 0 V
759 0 V
759 0 V
759 0 V
758 0 V
759 0 V
759 0 V
758 0 V
759 0 V
759 0 V
758 0 V
1549 4723 TriU
2308 4723 TriU
3066 4723 TriU
3825 4723 TriU
4584 4723 TriU
5342 4723 TriU
6101 4723 TriU
6860 4723 TriU
7619 4723 TriU
8377 4723 TriU
9136 4723 TriU
9895 4723 TriU
10653 4723 TriU
11412 4723 TriU
12171 4723 TriU
12929 4723 TriU
12134 153 TriU
% End plot #9
2.000 UL
LTb
LCb setrgbcolor
1.000 UP
1.000 UL
LTb
0.00 0.00 0.00 C stroke
grestore
end
showpage
%%Trailer
%%DocumentFonts: Arial
