%!PS-Adobe-2.0 EPSF-2.0
%%Title: TcpHybla-download-finishtime-100UE-panoramic.eps
%%Creator: gnuplot 5.0 patchlevel 3
%%CreationDate: Tue Jun  7 16:10:54 2016
%%DocumentFonts: (atend)
%%BoundingBox: 50 50 770 302
%%EndComments
%%BeginProlog
/gnudict 256 dict def
gnudict begin
%
% The following true/false flags may be edited by hand if desired.
% The unit line width and grayscale image gamma correction may also be changed.
%
/Color true def
/Blacktext false def
/Solid false def
/Dashlength 3 def
/Landscape false def
/Level1 false def
/Level3 false def
/Rounded false def
/ClipToBoundingBox false def
/SuppressPDFMark false def
/TransparentPatterns false def
/gnulinewidth 15.000 def
/userlinewidth gnulinewidth def
/Gamma 1.0 def
/BackgroundColor {-1.000 -1.000 -1.000} def
%
/vshift -66 def
/dl1 {
  10.0 Dashlength userlinewidth gnulinewidth div mul mul mul
  Rounded { currentlinewidth 0.75 mul sub dup 0 le { pop 0.01 } if } if
} def
/dl2 {
  10.0 Dashlength userlinewidth gnulinewidth div mul mul mul
  Rounded { currentlinewidth 0.75 mul add } if
} def
/hpt_ 31.5 def
/vpt_ 31.5 def
/hpt hpt_ def
/vpt vpt_ def
/doclip {
  ClipToBoundingBox {
    newpath 50 50 moveto 770 50 lineto 770 302 lineto 50 302 lineto closepath
    clip
  } if
} def
%
% Gnuplot Prolog Version 5.1 (Oct 2015)
%
%/SuppressPDFMark true def
%
/M {moveto} bind def
/L {lineto} bind def
/R {rmoveto} bind def
/V {rlineto} bind def
/N {newpath moveto} bind def
/Z {closepath} bind def
/C {setrgbcolor} bind def
/f {rlineto fill} bind def
/g {setgray} bind def
/Gshow {show} def   % May be redefined later in the file to support UTF-8
/vpt2 vpt 2 mul def
/hpt2 hpt 2 mul def
/Lshow {currentpoint stroke M 0 vshift R 
	Blacktext {gsave 0 setgray textshow grestore} {textshow} ifelse} def
/Rshow {currentpoint stroke M dup stringwidth pop neg vshift R
	Blacktext {gsave 0 setgray textshow grestore} {textshow} ifelse} def
/Cshow {currentpoint stroke M dup stringwidth pop -2 div vshift R 
	Blacktext {gsave 0 setgray textshow grestore} {textshow} ifelse} def
/UP {dup vpt_ mul /vpt exch def hpt_ mul /hpt exch def
  /hpt2 hpt 2 mul def /vpt2 vpt 2 mul def} def
/DL {Color {setrgbcolor Solid {pop []} if 0 setdash}
 {pop pop pop 0 setgray Solid {pop []} if 0 setdash} ifelse} def
/BL {stroke userlinewidth 2 mul setlinewidth
	Rounded {1 setlinejoin 1 setlinecap} if} def
/AL {stroke userlinewidth 2 div setlinewidth
	Rounded {1 setlinejoin 1 setlinecap} if} def
/UL {dup gnulinewidth mul /userlinewidth exch def
	dup 1 lt {pop 1} if 10 mul /udl exch def} def
/PL {stroke userlinewidth setlinewidth
	Rounded {1 setlinejoin 1 setlinecap} if} def
3.8 setmiterlimit
% Classic Line colors (version 5.0)
/LCw {1 1 1} def
/LCb {0 0 0} def
/LCa {0 0 0} def
/LC0 {1 0 0} def
/LC1 {0 1 0} def
/LC2 {0 0 1} def
/LC3 {1 0 1} def
/LC4 {0 1 1} def
/LC5 {1 1 0} def
/LC6 {0 0 0} def
/LC7 {1 0.3 0} def
/LC8 {0.5 0.5 0.5} def
% Default dash patterns (version 5.0)
/LTB {BL [] LCb DL} def
/LTw {PL [] 1 setgray} def
/LTb {PL [] LCb DL} def
/LTa {AL [1 udl mul 2 udl mul] 0 setdash LCa setrgbcolor} def
/LT0 {PL [] LC0 DL} def
/LT1 {PL [2 dl1 3 dl2] LC1 DL} def
/LT2 {PL [1 dl1 1.5 dl2] LC2 DL} def
/LT3 {PL [6 dl1 2 dl2 1 dl1 2 dl2] LC3 DL} def
/LT4 {PL [1 dl1 2 dl2 6 dl1 2 dl2 1 dl1 2 dl2] LC4 DL} def
/LT5 {PL [4 dl1 2 dl2] LC5 DL} def
/LT6 {PL [1.5 dl1 1.5 dl2 1.5 dl1 1.5 dl2 1.5 dl1 6 dl2] LC6 DL} def
/LT7 {PL [3 dl1 3 dl2 1 dl1 3 dl2] LC7 DL} def
/LT8 {PL [2 dl1 2 dl2 2 dl1 6 dl2] LC8 DL} def
/SL {[] 0 setdash} def
/Pnt {stroke [] 0 setdash gsave 1 setlinecap M 0 0 V stroke grestore} def
/Dia {stroke [] 0 setdash 2 copy vpt add M
  hpt neg vpt neg V hpt vpt neg V
  hpt vpt V hpt neg vpt V closepath stroke
  Pnt} def
/Pls {stroke [] 0 setdash vpt sub M 0 vpt2 V
  currentpoint stroke M
  hpt neg vpt neg R hpt2 0 V stroke
 } def
/Box {stroke [] 0 setdash 2 copy exch hpt sub exch vpt add M
  0 vpt2 neg V hpt2 0 V 0 vpt2 V
  hpt2 neg 0 V closepath stroke
  Pnt} def
/Crs {stroke [] 0 setdash exch hpt sub exch vpt add M
  hpt2 vpt2 neg V currentpoint stroke M
  hpt2 neg 0 R hpt2 vpt2 V stroke} def
/TriU {stroke [] 0 setdash 2 copy vpt 1.12 mul add M
  hpt neg vpt -1.62 mul V
  hpt 2 mul 0 V
  hpt neg vpt 1.62 mul V closepath stroke
  Pnt} def
/Star {2 copy Pls Crs} def
/BoxF {stroke [] 0 setdash exch hpt sub exch vpt add M
  0 vpt2 neg V hpt2 0 V 0 vpt2 V
  hpt2 neg 0 V closepath fill} def
/TriUF {stroke [] 0 setdash vpt 1.12 mul add M
  hpt neg vpt -1.62 mul V
  hpt 2 mul 0 V
  hpt neg vpt 1.62 mul V closepath fill} def
/TriD {stroke [] 0 setdash 2 copy vpt 1.12 mul sub M
  hpt neg vpt 1.62 mul V
  hpt 2 mul 0 V
  hpt neg vpt -1.62 mul V closepath stroke
  Pnt} def
/TriDF {stroke [] 0 setdash vpt 1.12 mul sub M
  hpt neg vpt 1.62 mul V
  hpt 2 mul 0 V
  hpt neg vpt -1.62 mul V closepath fill} def
/DiaF {stroke [] 0 setdash vpt add M
  hpt neg vpt neg V hpt vpt neg V
  hpt vpt V hpt neg vpt V closepath fill} def
/Pent {stroke [] 0 setdash 2 copy gsave
  translate 0 hpt M 4 {72 rotate 0 hpt L} repeat
  closepath stroke grestore Pnt} def
/PentF {stroke [] 0 setdash gsave
  translate 0 hpt M 4 {72 rotate 0 hpt L} repeat
  closepath fill grestore} def
/Circle {stroke [] 0 setdash 2 copy
  hpt 0 360 arc stroke Pnt} def
/CircleF {stroke [] 0 setdash hpt 0 360 arc fill} def
/C0 {BL [] 0 setdash 2 copy moveto vpt 90 450 arc} bind def
/C1 {BL [] 0 setdash 2 copy moveto
	2 copy vpt 0 90 arc closepath fill
	vpt 0 360 arc closepath} bind def
/C2 {BL [] 0 setdash 2 copy moveto
	2 copy vpt 90 180 arc closepath fill
	vpt 0 360 arc closepath} bind def
/C3 {BL [] 0 setdash 2 copy moveto
	2 copy vpt 0 180 arc closepath fill
	vpt 0 360 arc closepath} bind def
/C4 {BL [] 0 setdash 2 copy moveto
	2 copy vpt 180 270 arc closepath fill
	vpt 0 360 arc closepath} bind def
/C5 {BL [] 0 setdash 2 copy moveto
	2 copy vpt 0 90 arc
	2 copy moveto
	2 copy vpt 180 270 arc closepath fill
	vpt 0 360 arc} bind def
/C6 {BL [] 0 setdash 2 copy moveto
	2 copy vpt 90 270 arc closepath fill
	vpt 0 360 arc closepath} bind def
/C7 {BL [] 0 setdash 2 copy moveto
	2 copy vpt 0 270 arc closepath fill
	vpt 0 360 arc closepath} bind def
/C8 {BL [] 0 setdash 2 copy moveto
	2 copy vpt 270 360 arc closepath fill
	vpt 0 360 arc closepath} bind def
/C9 {BL [] 0 setdash 2 copy moveto
	2 copy vpt 270 450 arc closepath fill
	vpt 0 360 arc closepath} bind def
/C10 {BL [] 0 setdash 2 copy 2 copy moveto vpt 270 360 arc closepath fill
	2 copy moveto
	2 copy vpt 90 180 arc closepath fill
	vpt 0 360 arc closepath} bind def
/C11 {BL [] 0 setdash 2 copy moveto
	2 copy vpt 0 180 arc closepath fill
	2 copy moveto
	2 copy vpt 270 360 arc closepath fill
	vpt 0 360 arc closepath} bind def
/C12 {BL [] 0 setdash 2 copy moveto
	2 copy vpt 180 360 arc closepath fill
	vpt 0 360 arc closepath} bind def
/C13 {BL [] 0 setdash 2 copy moveto
	2 copy vpt 0 90 arc closepath fill
	2 copy moveto
	2 copy vpt 180 360 arc closepath fill
	vpt 0 360 arc closepath} bind def
/C14 {BL [] 0 setdash 2 copy moveto
	2 copy vpt 90 360 arc closepath fill
	vpt 0 360 arc} bind def
/C15 {BL [] 0 setdash 2 copy vpt 0 360 arc closepath fill
	vpt 0 360 arc closepath} bind def
/Rec {newpath 4 2 roll moveto 1 index 0 rlineto 0 exch rlineto
	neg 0 rlineto closepath} bind def
/Square {dup Rec} bind def
/Bsquare {vpt sub exch vpt sub exch vpt2 Square} bind def
/S0 {BL [] 0 setdash 2 copy moveto 0 vpt rlineto BL Bsquare} bind def
/S1 {BL [] 0 setdash 2 copy vpt Square fill Bsquare} bind def
/S2 {BL [] 0 setdash 2 copy exch vpt sub exch vpt Square fill Bsquare} bind def
/S3 {BL [] 0 setdash 2 copy exch vpt sub exch vpt2 vpt Rec fill Bsquare} bind def
/S4 {BL [] 0 setdash 2 copy exch vpt sub exch vpt sub vpt Square fill Bsquare} bind def
/S5 {BL [] 0 setdash 2 copy 2 copy vpt Square fill
	exch vpt sub exch vpt sub vpt Square fill Bsquare} bind def
/S6 {BL [] 0 setdash 2 copy exch vpt sub exch vpt sub vpt vpt2 Rec fill Bsquare} bind def
/S7 {BL [] 0 setdash 2 copy exch vpt sub exch vpt sub vpt vpt2 Rec fill
	2 copy vpt Square fill Bsquare} bind def
/S8 {BL [] 0 setdash 2 copy vpt sub vpt Square fill Bsquare} bind def
/S9 {BL [] 0 setdash 2 copy vpt sub vpt vpt2 Rec fill Bsquare} bind def
/S10 {BL [] 0 setdash 2 copy vpt sub vpt Square fill 2 copy exch vpt sub exch vpt Square fill
	Bsquare} bind def
/S11 {BL [] 0 setdash 2 copy vpt sub vpt Square fill 2 copy exch vpt sub exch vpt2 vpt Rec fill
	Bsquare} bind def
/S12 {BL [] 0 setdash 2 copy exch vpt sub exch vpt sub vpt2 vpt Rec fill Bsquare} bind def
/S13 {BL [] 0 setdash 2 copy exch vpt sub exch vpt sub vpt2 vpt Rec fill
	2 copy vpt Square fill Bsquare} bind def
/S14 {BL [] 0 setdash 2 copy exch vpt sub exch vpt sub vpt2 vpt Rec fill
	2 copy exch vpt sub exch vpt Square fill Bsquare} bind def
/S15 {BL [] 0 setdash 2 copy Bsquare fill Bsquare} bind def
/D0 {gsave translate 45 rotate 0 0 S0 stroke grestore} bind def
/D1 {gsave translate 45 rotate 0 0 S1 stroke grestore} bind def
/D2 {gsave translate 45 rotate 0 0 S2 stroke grestore} bind def
/D3 {gsave translate 45 rotate 0 0 S3 stroke grestore} bind def
/D4 {gsave translate 45 rotate 0 0 S4 stroke grestore} bind def
/D5 {gsave translate 45 rotate 0 0 S5 stroke grestore} bind def
/D6 {gsave translate 45 rotate 0 0 S6 stroke grestore} bind def
/D7 {gsave translate 45 rotate 0 0 S7 stroke grestore} bind def
/D8 {gsave translate 45 rotate 0 0 S8 stroke grestore} bind def
/D9 {gsave translate 45 rotate 0 0 S9 stroke grestore} bind def
/D10 {gsave translate 45 rotate 0 0 S10 stroke grestore} bind def
/D11 {gsave translate 45 rotate 0 0 S11 stroke grestore} bind def
/D12 {gsave translate 45 rotate 0 0 S12 stroke grestore} bind def
/D13 {gsave translate 45 rotate 0 0 S13 stroke grestore} bind def
/D14 {gsave translate 45 rotate 0 0 S14 stroke grestore} bind def
/D15 {gsave translate 45 rotate 0 0 S15 stroke grestore} bind def
/DiaE {stroke [] 0 setdash vpt add M
  hpt neg vpt neg V hpt vpt neg V
  hpt vpt V hpt neg vpt V closepath stroke} def
/BoxE {stroke [] 0 setdash exch hpt sub exch vpt add M
  0 vpt2 neg V hpt2 0 V 0 vpt2 V
  hpt2 neg 0 V closepath stroke} def
/TriUE {stroke [] 0 setdash vpt 1.12 mul add M
  hpt neg vpt -1.62 mul V
  hpt 2 mul 0 V
  hpt neg vpt 1.62 mul V closepath stroke} def
/TriDE {stroke [] 0 setdash vpt 1.12 mul sub M
  hpt neg vpt 1.62 mul V
  hpt 2 mul 0 V
  hpt neg vpt -1.62 mul V closepath stroke} def
/PentE {stroke [] 0 setdash gsave
  translate 0 hpt M 4 {72 rotate 0 hpt L} repeat
  closepath stroke grestore} def
/CircE {stroke [] 0 setdash 
  hpt 0 360 arc stroke} def
/Opaque {gsave closepath 1 setgray fill grestore 0 setgray closepath} def
/DiaW {stroke [] 0 setdash vpt add M
  hpt neg vpt neg V hpt vpt neg V
  hpt vpt V hpt neg vpt V Opaque stroke} def
/BoxW {stroke [] 0 setdash exch hpt sub exch vpt add M
  0 vpt2 neg V hpt2 0 V 0 vpt2 V
  hpt2 neg 0 V Opaque stroke} def
/TriUW {stroke [] 0 setdash vpt 1.12 mul add M
  hpt neg vpt -1.62 mul V
  hpt 2 mul 0 V
  hpt neg vpt 1.62 mul V Opaque stroke} def
/TriDW {stroke [] 0 setdash vpt 1.12 mul sub M
  hpt neg vpt 1.62 mul V
  hpt 2 mul 0 V
  hpt neg vpt -1.62 mul V Opaque stroke} def
/PentW {stroke [] 0 setdash gsave
  translate 0 hpt M 4 {72 rotate 0 hpt L} repeat
  Opaque stroke grestore} def
/CircW {stroke [] 0 setdash 
  hpt 0 360 arc Opaque stroke} def
/BoxFill {gsave Rec 1 setgray fill grestore} def
/Density {
  /Fillden exch def
  currentrgbcolor
  /ColB exch def /ColG exch def /ColR exch def
  /ColR ColR Fillden mul Fillden sub 1 add def
  /ColG ColG Fillden mul Fillden sub 1 add def
  /ColB ColB Fillden mul Fillden sub 1 add def
  ColR ColG ColB setrgbcolor} def
/BoxColFill {gsave Rec PolyFill} def
/PolyFill {gsave Density fill grestore grestore} def
/h {rlineto rlineto rlineto gsave closepath fill grestore} bind def
%
% PostScript Level 1 Pattern Fill routine for rectangles
% Usage: x y w h s a XX PatternFill
%	x,y = lower left corner of box to be filled
%	w,h = width and height of box
%	  a = angle in degrees between lines and x-axis
%	 XX = 0/1 for no/yes cross-hatch
%
/PatternFill {gsave /PFa [ 9 2 roll ] def
  PFa 0 get PFa 2 get 2 div add PFa 1 get PFa 3 get 2 div add translate
  PFa 2 get -2 div PFa 3 get -2 div PFa 2 get PFa 3 get Rec
  TransparentPatterns {} {gsave 1 setgray fill grestore} ifelse
  clip
  currentlinewidth 0.5 mul setlinewidth
  /PFs PFa 2 get dup mul PFa 3 get dup mul add sqrt def
  0 0 M PFa 5 get rotate PFs -2 div dup translate
  0 1 PFs PFa 4 get div 1 add floor cvi
	{PFa 4 get mul 0 M 0 PFs V} for
  0 PFa 6 get ne {
	0 1 PFs PFa 4 get div 1 add floor cvi
	{PFa 4 get mul 0 2 1 roll M PFs 0 V} for
 } if
  stroke grestore} def
%
/languagelevel where
 {pop languagelevel} {1} ifelse
dup 2 lt
	{/InterpretLevel1 true def
	 /InterpretLevel3 false def}
	{/InterpretLevel1 Level1 def
	 2 gt
	    {/InterpretLevel3 Level3 def}
	    {/InterpretLevel3 false def}
	 ifelse }
 ifelse
%
% PostScript level 2 pattern fill definitions
%
/Level2PatternFill {
/Tile8x8 {/PaintType 2 /PatternType 1 /TilingType 1 /BBox [0 0 8 8] /XStep 8 /YStep 8}
	bind def
/KeepColor {currentrgbcolor [/Pattern /DeviceRGB] setcolorspace} bind def
<< Tile8x8
 /PaintProc {0.5 setlinewidth pop 0 0 M 8 8 L 0 8 M 8 0 L stroke} 
>> matrix makepattern
/Pat1 exch def
<< Tile8x8
 /PaintProc {0.5 setlinewidth pop 0 0 M 8 8 L 0 8 M 8 0 L stroke
	0 4 M 4 8 L 8 4 L 4 0 L 0 4 L stroke}
>> matrix makepattern
/Pat2 exch def
<< Tile8x8
 /PaintProc {0.5 setlinewidth pop 0 0 M 0 8 L
	8 8 L 8 0 L 0 0 L fill}
>> matrix makepattern
/Pat3 exch def
<< Tile8x8
 /PaintProc {0.5 setlinewidth pop -4 8 M 8 -4 L
	0 12 M 12 0 L stroke}
>> matrix makepattern
/Pat4 exch def
<< Tile8x8
 /PaintProc {0.5 setlinewidth pop -4 0 M 8 12 L
	0 -4 M 12 8 L stroke}
>> matrix makepattern
/Pat5 exch def
<< Tile8x8
 /PaintProc {0.5 setlinewidth pop -2 8 M 4 -4 L
	0 12 M 8 -4 L 4 12 M 10 0 L stroke}
>> matrix makepattern
/Pat6 exch def
<< Tile8x8
 /PaintProc {0.5 setlinewidth pop -2 0 M 4 12 L
	0 -4 M 8 12 L 4 -4 M 10 8 L stroke}
>> matrix makepattern
/Pat7 exch def
<< Tile8x8
 /PaintProc {0.5 setlinewidth pop 8 -2 M -4 4 L
	12 0 M -4 8 L 12 4 M 0 10 L stroke}
>> matrix makepattern
/Pat8 exch def
<< Tile8x8
 /PaintProc {0.5 setlinewidth pop 0 -2 M 12 4 L
	-4 0 M 12 8 L -4 4 M 8 10 L stroke}
>> matrix makepattern
/Pat9 exch def
/Pattern1 {PatternBgnd KeepColor Pat1 setpattern} bind def
/Pattern2 {PatternBgnd KeepColor Pat2 setpattern} bind def
/Pattern3 {PatternBgnd KeepColor Pat3 setpattern} bind def
/Pattern4 {PatternBgnd KeepColor Landscape {Pat5} {Pat4} ifelse setpattern} bind def
/Pattern5 {PatternBgnd KeepColor Landscape {Pat4} {Pat5} ifelse setpattern} bind def
/Pattern6 {PatternBgnd KeepColor Landscape {Pat9} {Pat6} ifelse setpattern} bind def
/Pattern7 {PatternBgnd KeepColor Landscape {Pat8} {Pat7} ifelse setpattern} bind def
} def
%
%
%End of PostScript Level 2 code
%
/PatternBgnd {
  TransparentPatterns {} {gsave 1 setgray fill grestore} ifelse
} def
%
% Substitute for Level 2 pattern fill codes with
% grayscale if Level 2 support is not selected.
%
/Level1PatternFill {
/Pattern1 {0.250 Density} bind def
/Pattern2 {0.500 Density} bind def
/Pattern3 {0.750 Density} bind def
/Pattern4 {0.125 Density} bind def
/Pattern5 {0.375 Density} bind def
/Pattern6 {0.625 Density} bind def
/Pattern7 {0.875 Density} bind def
} def
%
% Now test for support of Level 2 code
%
Level1 {Level1PatternFill} {Level2PatternFill} ifelse
%
/Symbol-Oblique /Symbol findfont [1 0 .167 1 0 0] makefont
dup length dict begin {1 index /FID eq {pop pop} {def} ifelse} forall
currentdict end definefont pop
%
/MFshow {
   { dup 5 get 3 ge
     { 5 get 3 eq {gsave} {grestore} ifelse }
     {dup dup 0 get findfont exch 1 get scalefont setfont
     [ currentpoint ] exch dup 2 get 0 exch R dup 5 get 2 ne {dup dup 6
     get exch 4 get {textshow} {stringwidth pop 0 R} ifelse }if dup 5 get 0 eq
     {dup 3 get {2 get neg 0 exch R pop} {pop aload pop M} ifelse} {dup 5
     get 1 eq {dup 2 get exch dup 3 get exch 6 get stringwidth pop -2 div
     dup 0 R} {dup 6 get stringwidth pop -2 div 0 R 6 get
     textshow 2 index {aload pop M neg 3 -1 roll neg R pop pop} {pop pop pop
     pop aload pop M} ifelse }ifelse }ifelse }
     ifelse }
   forall} def
/Gswidth {dup type /stringtype eq {stringwidth} {pop (n) stringwidth} ifelse} def
/MFwidth {0 exch { dup 5 get 3 ge { 5 get 3 eq { 0 } { pop } ifelse }
 {dup 3 get{dup dup 0 get findfont exch 1 get scalefont setfont
     6 get Gswidth pop add} {pop} ifelse} ifelse} forall} def
/MLshow { currentpoint stroke M
  0 exch R
  Blacktext {gsave 0 setgray MFshow grestore} {MFshow} ifelse } bind def
/MRshow { currentpoint stroke M
  exch dup MFwidth neg 3 -1 roll R
  Blacktext {gsave 0 setgray MFshow grestore} {MFshow} ifelse } bind def
/MCshow { currentpoint stroke M
  exch dup MFwidth -2 div 3 -1 roll R
  Blacktext {gsave 0 setgray MFshow grestore} {MFshow} ifelse } bind def
/XYsave    { [( ) 1 2 true false 3 ()] } bind def
/XYrestore { [( ) 1 2 true false 4 ()] } bind def
Level1 SuppressPDFMark or 
{} {
/SDict 10 dict def
systemdict /pdfmark known not {
  userdict /pdfmark systemdict /cleartomark get put
} if
SDict begin [
  /Title (TcpHybla-download-finishtime-100UE-panoramic.eps)
  /Subject (gnuplot plot)
  /Creator (gnuplot 5.0 patchlevel 3)
  /Author (nat)
%  /Producer (gnuplot)
%  /Keywords ()
  /CreationDate (Tue Jun  7 16:10:54 2016)
  /DOCINFO pdfmark
end
} ifelse
%
% Support for boxed text - Ethan A Merritt May 2005
%
/InitTextBox { userdict /TBy2 3 -1 roll put userdict /TBx2 3 -1 roll put
           userdict /TBy1 3 -1 roll put userdict /TBx1 3 -1 roll put
	   /Boxing true def } def
/ExtendTextBox { Boxing
    { gsave dup false charpath pathbbox
      dup TBy2 gt {userdict /TBy2 3 -1 roll put} {pop} ifelse
      dup TBx2 gt {userdict /TBx2 3 -1 roll put} {pop} ifelse
      dup TBy1 lt {userdict /TBy1 3 -1 roll put} {pop} ifelse
      dup TBx1 lt {userdict /TBx1 3 -1 roll put} {pop} ifelse
      grestore } if } def
/PopTextBox { newpath TBx1 TBxmargin sub TBy1 TBymargin sub M
               TBx1 TBxmargin sub TBy2 TBymargin add L
	       TBx2 TBxmargin add TBy2 TBymargin add L
	       TBx2 TBxmargin add TBy1 TBymargin sub L closepath } def
/DrawTextBox { PopTextBox stroke /Boxing false def} def
/FillTextBox { gsave PopTextBox 1 1 1 setrgbcolor fill grestore /Boxing false def} def
0 0 0 0 InitTextBox
/TBxmargin 20 def
/TBymargin 20 def
/Boxing false def
/textshow { ExtendTextBox Gshow } def
%
% redundant definitions for compatibility with prologue.ps older than 5.0.2
/LTB {BL [] LCb DL} def
/LTb {PL [] LCb DL} def
end
%%EndProlog
%%Page: 1 1
gnudict begin
gsave
doclip
50 50 translate
0.050 0.050 scale
0 setgray
newpath
(Arial) findfont 200 scalefont setfont
BackgroundColor 0 lt 3 1 roll 0 lt exch 0 lt or or not {BackgroundColor C 1.000 0 0 14400.00 5040.00 BoxColFill} if
1.000 UL
LTb
0.00 0.00 0.00 C 0.500 UL
LTa
0.50 0.50 0.50 C 980 1000 M
12139 0 V
stroke
1.000 UL
LTb
0.00 0.00 0.00 C 980 1000 M
63 0 V
stroke
860 1000 M
[ [(Arial) 200.0 0.0 true true 0 ( 0)]
] -66.7 MRshow
1.000 UL
LTb
0.00 0.00 0.00 C 0.500 UL
LTa
0.50 0.50 0.50 C 980 1475 M
12139 0 V
stroke
1.000 UL
LTb
0.00 0.00 0.00 C 980 1475 M
63 0 V
stroke
860 1475 M
[ [(Arial) 200.0 0.0 true true 0 ( 20)]
] -66.7 MRshow
1.000 UL
LTb
0.00 0.00 0.00 C 0.500 UL
LTa
0.50 0.50 0.50 C 980 1950 M
12139 0 V
stroke
1.000 UL
LTb
0.00 0.00 0.00 C 980 1950 M
63 0 V
stroke
860 1950 M
[ [(Arial) 200.0 0.0 true true 0 ( 40)]
] -66.7 MRshow
1.000 UL
LTb
0.00 0.00 0.00 C 0.500 UL
LTa
0.50 0.50 0.50 C 980 2425 M
12139 0 V
stroke
1.000 UL
LTb
0.00 0.00 0.00 C 980 2425 M
63 0 V
stroke
860 2425 M
[ [(Arial) 200.0 0.0 true true 0 ( 60)]
] -66.7 MRshow
1.000 UL
LTb
0.00 0.00 0.00 C 0.500 UL
LTa
0.50 0.50 0.50 C 980 2900 M
12139 0 V
stroke
1.000 UL
LTb
0.00 0.00 0.00 C 980 2900 M
63 0 V
stroke
860 2900 M
[ [(Arial) 200.0 0.0 true true 0 ( 80)]
] -66.7 MRshow
1.000 UL
LTb
0.00 0.00 0.00 C 0.500 UL
LTa
0.50 0.50 0.50 C 980 3374 M
12139 0 V
stroke
1.000 UL
LTb
0.00 0.00 0.00 C 980 3374 M
63 0 V
stroke
860 3374 M
[ [(Arial) 200.0 0.0 true true 0 ( 100)]
] -66.7 MRshow
1.000 UL
LTb
0.00 0.00 0.00 C 0.500 UL
LTa
0.50 0.50 0.50 C 980 3849 M
12139 0 V
stroke
1.000 UL
LTb
0.00 0.00 0.00 C 980 3849 M
63 0 V
stroke
860 3849 M
[ [(Arial) 200.0 0.0 true true 0 ( 120)]
] -66.7 MRshow
1.000 UL
LTb
0.00 0.00 0.00 C 0.500 UL
LTa
0.50 0.50 0.50 C 980 4324 M
12139 0 V
stroke
1.000 UL
LTb
0.00 0.00 0.00 C 980 4324 M
63 0 V
stroke
860 4324 M
[ [(Arial) 200.0 0.0 true true 0 ( 140)]
] -66.7 MRshow
1.000 UL
LTb
0.00 0.00 0.00 C 0.500 UL
LTa
0.50 0.50 0.50 C 980 4799 M
12139 0 V
stroke
1.000 UL
LTb
0.00 0.00 0.00 C 980 4799 M
63 0 V
stroke
860 4799 M
[ [(Arial) 200.0 0.0 true true 0 ( 160)]
] -66.7 MRshow
1.000 UL
LTb
0.00 0.00 0.00 C 0.500 UL
LTa
0.50 0.50 0.50 C 1235 1000 M
0 3799 V
stroke
1.000 UL
LTb
0.00 0.00 0.00 C 1235 1000 M
0 63 V
0 3736 R
0 -63 V
stroke
1235 800 M
[ [(Arial) 200.0 0.0 true true 0 ( 60)]
] -66.7 MCshow
1.000 UL
LTb
0.00 0.00 0.00 C 0.500 UL
LTa
0.50 0.50 0.50 C 1847 1000 M
0 3799 V
stroke
1.000 UL
LTb
0.00 0.00 0.00 C 1847 1000 M
0 63 V
0 3736 R
0 -63 V
stroke
1847 800 M
[ [(Arial) 200.0 0.0 true true 0 ( 120)]
] -66.7 MCshow
1.000 UL
LTb
0.00 0.00 0.00 C 0.500 UL
LTa
0.50 0.50 0.50 C 2459 1000 M
0 3799 V
stroke
1.000 UL
LTb
0.00 0.00 0.00 C 2459 1000 M
0 63 V
0 3736 R
0 -63 V
stroke
2459 800 M
[ [(Arial) 200.0 0.0 true true 0 ( 180)]
] -66.7 MCshow
1.000 UL
LTb
0.00 0.00 0.00 C 0.500 UL
LTa
0.50 0.50 0.50 C 3071 1000 M
0 3799 V
stroke
1.000 UL
LTb
0.00 0.00 0.00 C 3071 1000 M
0 63 V
0 3736 R
0 -63 V
stroke
3071 800 M
[ [(Arial) 200.0 0.0 true true 0 ( 240)]
] -66.7 MCshow
1.000 UL
LTb
0.00 0.00 0.00 C 0.500 UL
LTa
0.50 0.50 0.50 C 3683 1000 M
0 3799 V
stroke
1.000 UL
LTb
0.00 0.00 0.00 C 3683 1000 M
0 63 V
0 3736 R
0 -63 V
stroke
3683 800 M
[ [(Arial) 200.0 0.0 true true 0 ( 300)]
] -66.7 MCshow
1.000 UL
LTb
0.00 0.00 0.00 C 0.500 UL
LTa
0.50 0.50 0.50 C 4295 1000 M
0 3799 V
stroke
1.000 UL
LTb
0.00 0.00 0.00 C 4295 1000 M
0 63 V
0 3736 R
0 -63 V
stroke
4295 800 M
[ [(Arial) 200.0 0.0 true true 0 ( 360)]
] -66.7 MCshow
1.000 UL
LTb
0.00 0.00 0.00 C 0.500 UL
LTa
0.50 0.50 0.50 C 4907 1000 M
0 3799 V
stroke
1.000 UL
LTb
0.00 0.00 0.00 C 4907 1000 M
0 63 V
0 3736 R
0 -63 V
stroke
4907 800 M
[ [(Arial) 200.0 0.0 true true 0 ( 420)]
] -66.7 MCshow
1.000 UL
LTb
0.00 0.00 0.00 C 0.500 UL
LTa
0.50 0.50 0.50 C 5519 1000 M
0 3799 V
stroke
1.000 UL
LTb
0.00 0.00 0.00 C 5519 1000 M
0 63 V
0 3736 R
0 -63 V
stroke
5519 800 M
[ [(Arial) 200.0 0.0 true true 0 ( 480)]
] -66.7 MCshow
1.000 UL
LTb
0.00 0.00 0.00 C 0.500 UL
LTa
0.50 0.50 0.50 C 6131 1000 M
0 3799 V
stroke
1.000 UL
LTb
0.00 0.00 0.00 C 6131 1000 M
0 63 V
0 3736 R
0 -63 V
stroke
6131 800 M
[ [(Arial) 200.0 0.0 true true 0 ( 540)]
] -66.7 MCshow
1.000 UL
LTb
0.00 0.00 0.00 C 0.500 UL
LTa
0.50 0.50 0.50 C 6743 1000 M
0 3799 V
stroke
1.000 UL
LTb
0.00 0.00 0.00 C 6743 1000 M
0 63 V
0 3736 R
0 -63 V
stroke
6743 800 M
[ [(Arial) 200.0 0.0 true true 0 ( 600)]
] -66.7 MCshow
1.000 UL
LTb
0.00 0.00 0.00 C 0.500 UL
LTa
0.50 0.50 0.50 C 7356 1000 M
0 3799 V
stroke
1.000 UL
LTb
0.00 0.00 0.00 C 7356 1000 M
0 63 V
0 3736 R
0 -63 V
stroke
7356 800 M
[ [(Arial) 200.0 0.0 true true 0 ( 660)]
] -66.7 MCshow
1.000 UL
LTb
0.00 0.00 0.00 C 0.500 UL
LTa
0.50 0.50 0.50 C 7968 1000 M
0 3799 V
stroke
1.000 UL
LTb
0.00 0.00 0.00 C 7968 1000 M
0 63 V
0 3736 R
0 -63 V
stroke
7968 800 M
[ [(Arial) 200.0 0.0 true true 0 ( 720)]
] -66.7 MCshow
1.000 UL
LTb
0.00 0.00 0.00 C 0.500 UL
LTa
0.50 0.50 0.50 C 8580 1000 M
0 3799 V
stroke
1.000 UL
LTb
0.00 0.00 0.00 C 8580 1000 M
0 63 V
0 3736 R
0 -63 V
stroke
8580 800 M
[ [(Arial) 200.0 0.0 true true 0 ( 780)]
] -66.7 MCshow
1.000 UL
LTb
0.00 0.00 0.00 C 0.500 UL
LTa
0.50 0.50 0.50 C 9192 1000 M
0 3799 V
stroke
1.000 UL
LTb
0.00 0.00 0.00 C 9192 1000 M
0 63 V
0 3736 R
0 -63 V
stroke
9192 800 M
[ [(Arial) 200.0 0.0 true true 0 ( 840)]
] -66.7 MCshow
1.000 UL
LTb
0.00 0.00 0.00 C 0.500 UL
LTa
0.50 0.50 0.50 C 9804 1000 M
0 3799 V
stroke
1.000 UL
LTb
0.00 0.00 0.00 C 9804 1000 M
0 63 V
0 3736 R
0 -63 V
stroke
9804 800 M
[ [(Arial) 200.0 0.0 true true 0 ( 900)]
] -66.7 MCshow
1.000 UL
LTb
0.00 0.00 0.00 C 0.500 UL
LTa
0.50 0.50 0.50 C 10416 1000 M
0 3799 V
stroke
1.000 UL
LTb
0.00 0.00 0.00 C 10416 1000 M
0 63 V
0 3736 R
0 -63 V
stroke
10416 800 M
[ [(Arial) 200.0 0.0 true true 0 ( 960)]
] -66.7 MCshow
1.000 UL
LTb
0.00 0.00 0.00 C 0.500 UL
LTa
0.50 0.50 0.50 C 11028 1000 M
0 3799 V
stroke
1.000 UL
LTb
0.00 0.00 0.00 C 11028 1000 M
0 63 V
0 3736 R
0 -63 V
stroke
11028 800 M
[ [(Arial) 200.0 0.0 true true 0 ( 1020)]
] -66.7 MCshow
1.000 UL
LTb
0.00 0.00 0.00 C 0.500 UL
LTa
0.50 0.50 0.50 C 11640 1000 M
0 3799 V
stroke
1.000 UL
LTb
0.00 0.00 0.00 C 11640 1000 M
0 63 V
0 3736 R
0 -63 V
stroke
11640 800 M
[ [(Arial) 200.0 0.0 true true 0 ( 1080)]
] -66.7 MCshow
1.000 UL
LTb
0.00 0.00 0.00 C 0.500 UL
LTa
0.50 0.50 0.50 C 12252 1000 M
0 3799 V
stroke
1.000 UL
LTb
0.00 0.00 0.00 C 12252 1000 M
0 63 V
0 3736 R
0 -63 V
stroke
12252 800 M
[ [(Arial) 200.0 0.0 true true 0 ( 1140)]
] -66.7 MCshow
1.000 UL
LTb
0.00 0.00 0.00 C 0.500 UL
LTa
0.50 0.50 0.50 C 12864 1000 M
0 3799 V
stroke
1.000 UL
LTb
0.00 0.00 0.00 C 12864 1000 M
0 63 V
0 3736 R
0 -63 V
stroke
12864 800 M
[ [(Arial) 200.0 0.0 true true 0 ( 1200)]
] -66.7 MCshow
1.000 UL
LTb
0.00 0.00 0.00 C 13119 1000 M
-63 0 V
stroke
13239 1000 M
[ [(Arial) 200.0 0.0 true true 0 ( 0)]
] -66.7 MLshow
1.000 UL
LTb
0.00 0.00 0.00 C 13119 1760 M
-63 0 V
stroke
13239 1760 M
[ [(Arial) 200.0 0.0 true true 0 ( 20)]
] -66.7 MLshow
1.000 UL
LTb
0.00 0.00 0.00 C 13119 2520 M
-63 0 V
stroke
13239 2520 M
[ [(Arial) 200.0 0.0 true true 0 ( 40)]
] -66.7 MLshow
1.000 UL
LTb
0.00 0.00 0.00 C 13119 3279 M
-63 0 V
stroke
13239 3279 M
[ [(Arial) 200.0 0.0 true true 0 ( 60)]
] -66.7 MLshow
1.000 UL
LTb
0.00 0.00 0.00 C 13119 4039 M
-63 0 V
stroke
13239 4039 M
[ [(Arial) 200.0 0.0 true true 0 ( 80)]
] -66.7 MLshow
1.000 UL
LTb
0.00 0.00 0.00 C 13119 4799 M
-63 0 V
stroke
13239 4799 M
[ [(Arial) 200.0 0.0 true true 0 ( 100)]
] -66.7 MLshow
1.000 UL
LTb
0.00 0.00 0.00 C 1.000 UL
LTB
0.00 0.00 0.00 C 980 4799 M
0 -3799 V
12139 0 V
0 3799 R
980 4799 M
1.000 UP
stroke
LTb
0.00 0.00 0.00 C LCb setrgbcolor
160 2899 M
currentpoint gsave translate -270 rotate 0 0 moveto
[ [(Arial) 200.0 0.0 true true 0 (File download time \(s\))]
] -66.7 MCshow
grestore
LTb
LCb setrgbcolor
13938 2899 M
currentpoint gsave translate -270 rotate 0 0 moveto
[ [(Arial) 200.0 0.0 true true 0 (Average UDP throughput [%])]
] -66.7 MCshow
grestore
LTb
LCb setrgbcolor
7049 500 M
[ [(Arial) 200.0 0.0 true true 0 (Local Backhaul traffic \(Mb/s\))]
] -66.7 MCshow
LTb
% Begin plot #1
1.000 UL
LTb
0.60 0.60 0.00 C LCb setrgbcolor
4714 333 M
[ [(Arial) 180.0 0.0 true true 0 (file download time    :   olsr)]
] -60.0 MRshow
1.000 UL
LTb
0.60 0.60 0.00 C 4822 288 333 90 80 -45 0 PatternFill
4822 288 N
333 0 V
0 90 V
-333 0 V
0 -90 V
Z stroke
1.000 UL
LTb
0.60 0.60 0.00 C 990 1349 154 295 80 -45 0 PatternFill
1067 1070 M
0 279 V
0 295 R
0 375 V
stroke
990 1349 N
154 0 V
0 295 V
-154 0 V
0 -295 V
Z stroke
990 2019 M
154 0 V
990 1070 M
154 0 V
stroke
1602 1325 154 350 80 -45 0 PatternFill
1679 1070 M
0 255 V
0 350 R
0 362 V
stroke
1602 1325 N
154 0 V
0 350 V
-154 0 V
0 -350 V
Z stroke
1602 2037 M
154 0 V
1602 1070 M
154 0 V
stroke
2214 1341 154 292 80 -45 0 PatternFill
2291 1070 M
0 271 V
0 292 R
0 424 V
stroke
2214 1341 N
154 0 V
0 292 V
-154 0 V
0 -292 V
Z stroke
2214 2057 M
154 0 V
2214 1070 M
154 0 V
stroke
2826 1350 154 302 80 -45 0 PatternFill
2903 1070 M
0 280 V
0 302 R
0 406 V
stroke
2826 1350 N
154 0 V
0 302 V
-154 0 V
0 -302 V
Z stroke
2826 2058 M
154 0 V
2826 1070 M
154 0 V
stroke
3438 1357 154 308 80 -45 0 PatternFill
3515 1070 M
0 287 V
0 308 R
0 341 V
stroke
3438 1357 N
154 0 V
0 308 V
-154 0 V
0 -308 V
Z stroke
3438 2006 M
154 0 V
3438 1070 M
154 0 V
stroke
4050 1327 154 314 80 -45 0 PatternFill
4127 1070 M
0 257 V
0 314 R
0 408 V
stroke
4050 1327 N
154 0 V
0 314 V
-154 0 V
0 -314 V
Z stroke
4050 2049 M
154 0 V
4050 1070 M
154 0 V
stroke
4663 1344 154 298 80 -45 0 PatternFill
4740 1070 M
0 274 V
0 298 R
0 266 V
stroke
4663 1344 N
154 0 V
0 298 V
-154 0 V
0 -298 V
Z stroke
4663 1908 M
154 0 V
4663 1070 M
154 0 V
stroke
5275 1385 154 268 80 -45 0 PatternFill
5352 1070 M
0 315 V
0 268 R
0 336 V
stroke
5275 1385 N
154 0 V
0 268 V
-154 0 V
0 -268 V
Z stroke
5275 1989 M
154 0 V
5275 1070 M
154 0 V
stroke
5887 1348 154 320 80 -45 0 PatternFill
5964 1070 M
0 278 V
0 320 R
0 310 V
stroke
5887 1348 N
154 0 V
0 320 V
-154 0 V
0 -320 V
Z stroke
5887 1978 M
154 0 V
5887 1070 M
154 0 V
stroke
6499 1335 154 333 80 -45 0 PatternFill
6576 1070 M
0 265 V
0 333 R
0 239 V
stroke
6499 1335 N
154 0 V
0 333 V
-154 0 V
0 -333 V
Z stroke
6499 1907 M
154 0 V
6499 1070 M
154 0 V
stroke
7111 1311 154 343 80 -45 0 PatternFill
7188 1070 M
0 241 V
0 343 R
0 278 V
stroke
7111 1311 N
154 0 V
0 343 V
-154 0 V
0 -343 V
Z stroke
7111 1932 M
154 0 V
7111 1070 M
154 0 V
stroke
7723 1329 154 341 80 -45 0 PatternFill
7800 1070 M
0 259 V
0 341 R
0 371 V
stroke
7723 1329 N
154 0 V
0 341 V
-154 0 V
0 -341 V
Z stroke
7723 2041 M
154 0 V
7723 1070 M
154 0 V
stroke
8335 1325 154 344 80 -45 0 PatternFill
8412 1070 M
0 255 V
0 344 R
0 318 V
stroke
8335 1325 N
154 0 V
0 344 V
-154 0 V
0 -344 V
Z stroke
8335 1987 M
154 0 V
8335 1070 M
154 0 V
stroke
8947 1344 154 301 80 -45 0 PatternFill
9024 1070 M
0 274 V
0 301 R
0 557 V
stroke
8947 1344 N
154 0 V
0 301 V
-154 0 V
0 -301 V
Z stroke
8947 2202 M
154 0 V
8947 1070 M
154 0 V
stroke
9559 1316 154 340 80 -45 0 PatternFill
9636 1070 M
0 246 V
0 340 R
0 412 V
stroke
9559 1316 N
154 0 V
0 340 V
-154 0 V
0 -340 V
Z stroke
9559 2068 M
154 0 V
9559 1070 M
154 0 V
stroke
10171 1330 154 305 80 -45 0 PatternFill
10248 1070 M
0 260 V
0 305 R
0 404 V
stroke
10171 1330 N
154 0 V
0 305 V
-154 0 V
0 -305 V
Z stroke
10171 2039 M
154 0 V
-154 -969 R
154 0 V
stroke
10783 1306 154 331 80 -45 0 PatternFill
10860 1070 M
0 236 V
0 331 R
0 301 V
stroke
10783 1306 N
154 0 V
0 331 V
-154 0 V
0 -331 V
Z stroke
10783 1938 M
154 0 V
-154 -868 R
154 0 V
stroke
11395 1326 154 320 80 -45 0 PatternFill
11472 1070 M
0 256 V
0 320 R
0 661 V
stroke
11395 1326 N
154 0 V
0 320 V
-154 0 V
0 -320 V
Z stroke
11395 2307 M
154 0 V
11395 1070 M
154 0 V
stroke
12007 1360 154 403 80 -45 0 PatternFill
12084 1070 M
0 290 V
0 403 R
0 430 V
stroke
12007 1360 N
154 0 V
0 403 V
-154 0 V
0 -403 V
Z stroke
12007 2193 M
154 0 V
12007 1070 M
154 0 V
stroke
12619 1371 154 450 80 -45 0 PatternFill
12696 1070 M
0 301 V
0 450 R
0 314 V
stroke
12619 1371 N
154 0 V
0 450 V
-154 0 V
0 -450 V
Z stroke
12619 2135 M
154 0 V
12619 1070 M
154 0 V
% End plot #1
% Begin plot #2
stroke
LTb
LCb setrgbcolor

 /TransparentPatterns true def
990 1489 154 0 40 30 0 PatternFill
1067 1489 M
stroke
990 1489 N
154 0 V
-154 0 V
Z stroke
990 1489 M
154 0 V
-154 0 R
154 0 V
stroke

 /TransparentPatterns true def
1602 1501 154 0 40 30 0 PatternFill
1679 1501 M
stroke
1602 1501 N
154 0 V
-154 0 V
Z stroke
1602 1501 M
154 0 V
-154 0 R
154 0 V
stroke

 /TransparentPatterns true def
2214 1488 154 0 40 30 0 PatternFill
2291 1488 M
stroke
2214 1488 N
154 0 V
-154 0 V
Z stroke
2214 1488 M
154 0 V
-154 0 R
154 0 V
stroke

 /TransparentPatterns true def
2826 1495 154 0 40 30 0 PatternFill
2903 1495 M
stroke
2826 1495 N
154 0 V
-154 0 V
Z stroke
2826 1495 M
154 0 V
-154 0 R
154 0 V
stroke

 /TransparentPatterns true def
3438 1504 154 0 40 30 0 PatternFill
3515 1504 M
stroke
3438 1504 N
154 0 V
-154 0 V
Z stroke
3438 1504 M
154 0 V
-154 0 R
154 0 V
stroke

 /TransparentPatterns true def
4050 1485 154 0 40 30 0 PatternFill
4127 1485 M
stroke
4050 1485 N
154 0 V
-154 0 V
Z stroke
4050 1485 M
154 0 V
-154 0 R
154 0 V
stroke

 /TransparentPatterns true def
4663 1488 154 0 40 30 0 PatternFill
4740 1488 M
stroke
4663 1488 N
154 0 V
-154 0 V
Z stroke
4663 1488 M
154 0 V
-154 0 R
154 0 V
stroke

 /TransparentPatterns true def
5275 1500 154 0 40 30 0 PatternFill
5352 1500 M
stroke
5275 1500 N
154 0 V
-154 0 V
Z stroke
5275 1500 M
154 0 V
-154 0 R
154 0 V
stroke

 /TransparentPatterns true def
5887 1499 154 0 40 30 0 PatternFill
5964 1499 M
stroke
5887 1499 N
154 0 V
-154 0 V
Z stroke
5887 1499 M
154 0 V
-154 0 R
154 0 V
stroke

 /TransparentPatterns true def
6499 1481 154 0 40 30 0 PatternFill
6576 1481 M
stroke
6499 1481 N
154 0 V
-154 0 V
Z stroke
6499 1481 M
154 0 V
-154 0 R
154 0 V
stroke

 /TransparentPatterns true def
7111 1490 154 0 40 30 0 PatternFill
7188 1490 M
stroke
7111 1490 N
154 0 V
-154 0 V
Z stroke
7111 1490 M
154 0 V
-154 0 R
154 0 V
stroke

 /TransparentPatterns true def
7723 1497 154 0 40 30 0 PatternFill
7800 1497 M
stroke
7723 1497 N
154 0 V
-154 0 V
Z stroke
7723 1497 M
154 0 V
-154 0 R
154 0 V
stroke

 /TransparentPatterns true def
8335 1501 154 0 40 30 0 PatternFill
8412 1501 M
stroke
8335 1501 N
154 0 V
-154 0 V
Z stroke
8335 1501 M
154 0 V
-154 0 R
154 0 V
stroke

 /TransparentPatterns true def
8947 1503 154 0 40 30 0 PatternFill
9024 1503 M
stroke
8947 1503 N
154 0 V
-154 0 V
Z stroke
8947 1503 M
154 0 V
-154 0 R
154 0 V
stroke

 /TransparentPatterns true def
9559 1489 154 0 40 30 0 PatternFill
9636 1489 M
stroke
9559 1489 N
154 0 V
-154 0 V
Z stroke
9559 1489 M
154 0 V
-154 0 R
154 0 V
stroke

 /TransparentPatterns true def
10171 1481 154 0 40 30 0 PatternFill
10248 1481 M
stroke
10171 1481 N
154 0 V
-154 0 V
Z stroke
10171 1481 M
154 0 V
-154 0 R
154 0 V
stroke

 /TransparentPatterns true def
10783 1479 154 0 40 30 0 PatternFill
10860 1479 M
stroke
10783 1479 N
154 0 V
-154 0 V
Z stroke
10783 1479 M
154 0 V
-154 0 R
154 0 V
stroke

 /TransparentPatterns true def
11395 1507 154 0 40 30 0 PatternFill
11472 1507 M
stroke
11395 1507 N
154 0 V
-154 0 V
Z stroke
11395 1507 M
154 0 V
-154 0 R
154 0 V
stroke

 /TransparentPatterns true def
12007 1548 154 0 40 30 0 PatternFill
12084 1548 M
stroke
12007 1548 N
154 0 V
-154 0 V
Z stroke
12007 1548 M
154 0 V
-154 0 R
154 0 V
stroke

 /TransparentPatterns true def
12619 1604 154 0 40 30 0 PatternFill
12696 1604 M
stroke
12619 1604 N
154 0 V
-154 0 V
Z stroke
12619 1604 M
154 0 V
-154 0 R
154 0 V
% End plot #2
% Begin plot #3
2.000 UP
stroke
LTa
0.60 0.60 0.00 C LCb setrgbcolor
4714 153 M
[ [(Arial) 180.0 0.0 true true 0 (avg. throughput :         )]
] -60.0 MRshow
2.000 UP
1.000 UL
LTa
0.60 0.60 0.00 C 4822 153 M
333 0 V
1067 4666 M
612 0 V
612 0 V
612 0 V
612 0 V
612 -3 V
612 0 V
612 1 V
612 2 V
612 -2 V
612 0 V
612 2 V
612 1 V
612 -1 V
612 -1 V
612 -3 V
613 2 V
612 1 V
612 1 V
612 2 V
1067 4666 Box
1679 4666 Box
2291 4666 Box
2903 4666 Box
3515 4666 Box
4127 4663 Box
4739 4663 Box
5351 4664 Box
5963 4666 Box
6575 4664 Box
7187 4664 Box
7799 4666 Box
8411 4667 Box
9023 4666 Box
9635 4665 Box
10247 4662 Box
10860 4664 Box
11472 4665 Box
12084 4666 Box
12696 4668 Box
4988 153 Box
% End plot #3
% Begin plot #4
1.000 UL
LTb
0.00 0.00 0.63 C LCb setrgbcolor
8287 333 M
[ [(Arial) 180.0 0.0 true true 0 (per-packet)]
] -60.0 MRshow
1.000 UL
LTb
0.00 0.00 0.63 C 8395 288 333 90 80 45 0 PatternFill
8395 288 N
333 0 V
0 90 V
-333 0 V
0 -90 V
Z stroke
1.000 UL
LTb
0.00 0.00 0.63 C 1159 1142 154 1296 80 45 0 PatternFill
1236 1069 M
0 73 V
0 1296 R
0 431 V
stroke
1159 1142 N
154 0 V
0 1296 V
-154 0 V
0 -1296 V
Z stroke
1159 2869 M
154 0 V
1159 1069 M
154 0 V
stroke
1771 1151 154 1267 80 45 0 PatternFill
1848 1072 M
0 79 V
0 1267 R
0 439 V
stroke
1771 1151 N
154 0 V
0 1267 V
-154 0 V
0 -1267 V
Z stroke
1771 2857 M
154 0 V
1771 1072 M
154 0 V
stroke
2383 1158 154 1244 80 45 0 PatternFill
2460 1035 M
0 123 V
0 1244 R
0 525 V
stroke
2383 1158 N
154 0 V
0 1244 V
-154 0 V
0 -1244 V
Z stroke
2383 2927 M
154 0 V
2383 1035 M
154 0 V
stroke
2995 1162 154 1243 80 45 0 PatternFill
3072 1079 M
0 83 V
0 1243 R
0 617 V
stroke
2995 1162 N
154 0 V
0 1243 V
-154 0 V
0 -1243 V
Z stroke
2995 3022 M
154 0 V
2995 1079 M
154 0 V
stroke
3607 1132 154 1314 80 45 0 PatternFill
3684 1072 M
0 60 V
0 1314 R
0 473 V
stroke
3607 1132 N
154 0 V
0 1314 V
-154 0 V
0 -1314 V
Z stroke
3607 2919 M
154 0 V
3607 1072 M
154 0 V
stroke
4219 1145 154 1306 80 45 0 PatternFill
4296 1072 M
0 73 V
0 1306 R
0 544 V
stroke
4219 1145 N
154 0 V
0 1306 V
-154 0 V
0 -1306 V
Z stroke
4219 2995 M
154 0 V
4219 1072 M
154 0 V
stroke
4831 1151 154 1274 80 45 0 PatternFill
4908 1062 M
0 89 V
0 1274 R
0 534 V
stroke
4831 1151 N
154 0 V
0 1274 V
-154 0 V
0 -1274 V
Z stroke
4831 2959 M
154 0 V
4831 1062 M
154 0 V
stroke
5443 1142 154 1322 80 45 0 PatternFill
5520 1067 M
0 75 V
0 1322 R
0 553 V
stroke
5443 1142 N
154 0 V
0 1322 V
-154 0 V
0 -1322 V
Z stroke
5443 3017 M
154 0 V
5443 1067 M
154 0 V
stroke
6055 1142 154 1241 80 45 0 PatternFill
6132 1069 M
0 73 V
0 1241 R
0 503 V
stroke
6055 1142 N
154 0 V
0 1241 V
-154 0 V
0 -1241 V
Z stroke
6055 2886 M
154 0 V
6055 1069 M
154 0 V
stroke
6667 1141 154 1277 80 45 0 PatternFill
6744 1067 M
0 74 V
0 1277 R
0 483 V
stroke
6667 1141 N
154 0 V
0 1277 V
-154 0 V
0 -1277 V
Z stroke
6667 2901 M
154 0 V
6667 1067 M
154 0 V
stroke
7279 1139 154 1300 80 45 0 PatternFill
7356 1071 M
0 68 V
0 1300 R
0 345 V
stroke
7279 1139 N
154 0 V
0 1300 V
-154 0 V
0 -1300 V
Z stroke
7279 2784 M
154 0 V
7279 1071 M
154 0 V
stroke
7891 1157 154 1254 80 45 0 PatternFill
7968 1068 M
0 89 V
0 1254 R
0 404 V
stroke
7891 1157 N
154 0 V
0 1254 V
-154 0 V
0 -1254 V
Z stroke
7891 2815 M
154 0 V
7891 1068 M
154 0 V
stroke
8503 1147 154 1230 80 45 0 PatternFill
8580 1069 M
0 78 V
0 1230 R
0 421 V
stroke
8503 1147 N
154 0 V
0 1230 V
-154 0 V
0 -1230 V
Z stroke
8503 2798 M
154 0 V
8503 1069 M
154 0 V
stroke
9115 1158 154 1186 80 45 0 PatternFill
9192 1072 M
0 86 V
0 1186 R
0 611 V
stroke
9115 1158 N
154 0 V
0 1186 V
-154 0 V
0 -1186 V
Z stroke
9115 2955 M
154 0 V
9115 1072 M
154 0 V
stroke
9727 1176 154 1203 80 45 0 PatternFill
9804 1070 M
0 106 V
0 1203 R
0 587 V
stroke
9727 1176 N
154 0 V
0 1203 V
-154 0 V
0 -1203 V
Z stroke
9727 2966 M
154 0 V
9727 1070 M
154 0 V
stroke
10339 1176 154 1212 80 45 0 PatternFill
10416 1054 M
0 122 V
0 1212 R
0 591 V
stroke
10339 1176 N
154 0 V
0 1212 V
-154 0 V
0 -1212 V
Z stroke
10339 2979 M
154 0 V
10339 1054 M
154 0 V
stroke
10951 1164 154 1242 80 45 0 PatternFill
11028 1048 M
0 116 V
0 1242 R
0 410 V
stroke
10951 1164 N
154 0 V
0 1242 V
-154 0 V
0 -1242 V
Z stroke
10951 2816 M
154 0 V
10951 1048 M
154 0 V
stroke
11563 1163 154 1206 80 45 0 PatternFill
11640 1048 M
0 115 V
0 1206 R
0 332 V
stroke
11563 1163 N
154 0 V
0 1206 V
-154 0 V
0 -1206 V
Z stroke
11563 2701 M
154 0 V
11563 1048 M
154 0 V
stroke
12175 1165 154 1191 80 45 0 PatternFill
12252 1065 M
0 100 V
0 1191 R
0 614 V
stroke
12175 1165 N
154 0 V
0 1191 V
-154 0 V
0 -1191 V
Z stroke
12175 2970 M
154 0 V
12175 1065 M
154 0 V
stroke
12787 1196 154 1197 80 45 0 PatternFill
12864 1076 M
0 120 V
0 1197 R
0 526 V
stroke
12787 1196 N
154 0 V
0 1197 V
-154 0 V
0 -1197 V
Z stroke
12787 2919 M
154 0 V
12787 1076 M
154 0 V
% End plot #4
% Begin plot #5
stroke
LTb
LCb setrgbcolor

 /TransparentPatterns true def
1159 1670 154 0 80 -45 0 PatternFill
1236 1670 M
stroke
1159 1670 N
154 0 V
-154 0 V
Z stroke
1159 1670 M
154 0 V
-154 0 R
154 0 V
stroke

 /TransparentPatterns true def
1771 1664 154 0 80 -45 0 PatternFill
1848 1664 M
stroke
1771 1664 N
154 0 V
-154 0 V
Z stroke
1771 1664 M
154 0 V
-154 0 R
154 0 V
stroke

 /TransparentPatterns true def
2383 1655 154 0 80 -45 0 PatternFill
2460 1655 M
stroke
2383 1655 N
154 0 V
-154 0 V
Z stroke
2383 1655 M
154 0 V
-154 0 R
154 0 V
stroke

 /TransparentPatterns true def
2995 1654 154 0 80 -45 0 PatternFill
3072 1654 M
stroke
2995 1654 N
154 0 V
-154 0 V
Z stroke
2995 1654 M
154 0 V
-154 0 R
154 0 V
stroke

 /TransparentPatterns true def
3607 1650 154 0 80 -45 0 PatternFill
3684 1650 M
stroke
3607 1650 N
154 0 V
-154 0 V
Z stroke
3607 1650 M
154 0 V
-154 0 R
154 0 V
stroke

 /TransparentPatterns true def
4219 1661 154 0 80 -45 0 PatternFill
4296 1661 M
stroke
4219 1661 N
154 0 V
-154 0 V
Z stroke
4219 1661 M
154 0 V
-154 0 R
154 0 V
stroke

 /TransparentPatterns true def
4831 1660 154 0 80 -45 0 PatternFill
4908 1660 M
stroke
4831 1660 N
154 0 V
-154 0 V
Z stroke
4831 1660 M
154 0 V
-154 0 R
154 0 V
stroke

 /TransparentPatterns true def
5443 1664 154 0 80 -45 0 PatternFill
5520 1664 M
stroke
5443 1664 N
154 0 V
-154 0 V
Z stroke
5443 1664 M
154 0 V
-154 0 R
154 0 V
stroke

 /TransparentPatterns true def
6055 1654 154 0 80 -45 0 PatternFill
6132 1654 M
stroke
6055 1654 N
154 0 V
-154 0 V
Z stroke
6055 1654 M
154 0 V
-154 0 R
154 0 V
stroke

 /TransparentPatterns true def
6667 1645 154 0 80 -45 0 PatternFill
6744 1645 M
stroke
6667 1645 N
154 0 V
-154 0 V
Z stroke
6667 1645 M
154 0 V
-154 0 R
154 0 V
stroke

 /TransparentPatterns true def
7279 1647 154 0 80 -45 0 PatternFill
7356 1647 M
stroke
7279 1647 N
154 0 V
-154 0 V
Z stroke
7279 1647 M
154 0 V
-154 0 R
154 0 V
stroke

 /TransparentPatterns true def
7891 1657 154 0 80 -45 0 PatternFill
7968 1657 M
stroke
7891 1657 N
154 0 V
-154 0 V
Z stroke
7891 1657 M
154 0 V
-154 0 R
154 0 V
stroke

 /TransparentPatterns true def
8503 1652 154 0 80 -45 0 PatternFill
8580 1652 M
stroke
8503 1652 N
154 0 V
-154 0 V
Z stroke
8503 1652 M
154 0 V
-154 0 R
154 0 V
stroke

 /TransparentPatterns true def
9115 1637 154 0 80 -45 0 PatternFill
9192 1637 M
stroke
9115 1637 N
154 0 V
-154 0 V
Z stroke
9115 1637 M
154 0 V
-154 0 R
154 0 V
stroke

 /TransparentPatterns true def
9727 1663 154 0 80 -45 0 PatternFill
9804 1663 M
stroke
9727 1663 N
154 0 V
-154 0 V
Z stroke
9727 1663 M
154 0 V
-154 0 R
154 0 V
stroke

 /TransparentPatterns true def
10339 1658 154 0 80 -45 0 PatternFill
10416 1658 M
stroke
10339 1658 N
154 0 V
-154 0 V
Z stroke
10339 1658 M
154 0 V
-154 0 R
154 0 V
stroke

 /TransparentPatterns true def
10951 1667 154 0 80 -45 0 PatternFill
11028 1667 M
stroke
10951 1667 N
154 0 V
-154 0 V
Z stroke
10951 1667 M
154 0 V
-154 0 R
154 0 V
stroke

 /TransparentPatterns true def
11563 1658 154 0 80 -45 0 PatternFill
11640 1658 M
stroke
11563 1658 N
154 0 V
-154 0 V
Z stroke
11563 1658 M
154 0 V
-154 0 R
154 0 V
stroke

 /TransparentPatterns true def
12175 1667 154 0 80 -45 0 PatternFill
12252 1667 M
stroke
12175 1667 N
154 0 V
-154 0 V
Z stroke
12175 1667 M
154 0 V
-154 0 R
154 0 V
stroke

 /TransparentPatterns true def
12787 1676 154 0 80 -45 0 PatternFill
12864 1676 M
stroke
12787 1676 N
154 0 V
-154 0 V
Z stroke
12787 1676 M
154 0 V
-154 0 R
154 0 V
% End plot #5
% Begin plot #6
2.000 UP
stroke
LTa
0.00 0.00 0.63 C LCb setrgbcolor
8287 153 M
[ [(Arial) 180.0 0.0 true true 0 ( )]
] -60.0 MRshow
2.000 UP
1.000 UL
LTa
0.00 0.00 0.63 C 8395 153 M
333 0 V
1235 4780 M
612 10 V
612 -4 V
612 -1 V
612 3 V
612 -2 V
612 2 V
612 -1 V
612 -1 V
612 2 V
613 -1 V
612 -1 V
612 1 V
612 0 V
612 1 V
612 -1 V
612 0 V
612 0 V
612 0 V
612 0 V
1235 4780 Circle
1847 4790 Circle
2459 4786 Circle
3071 4785 Circle
3683 4788 Circle
4295 4786 Circle
4907 4788 Circle
5519 4787 Circle
6131 4786 Circle
6743 4788 Circle
7356 4787 Circle
7968 4786 Circle
8580 4787 Circle
9192 4787 Circle
9804 4788 Circle
10416 4787 Circle
11028 4787 Circle
11640 4787 Circle
12252 4787 Circle
12864 4787 Circle
8561 153 Circle
% End plot #6
% Begin plot #7
1.000 UL
LTb
0.00 0.38 0.82 C LCb setrgbcolor
11860 333 M
[ [(Arial) 180.0 0.0 true true 0 (per-flow)]
] -60.0 MRshow
1.000 UL
LTb
0.00 0.38 0.82 C 11968 288 333 90 40 30 0 PatternFill
11968 288 N
333 0 V
0 90 V
-333 0 V
0 -90 V
Z stroke
1.000 UL
LTb
0.00 0.38 0.82 C 1327 1174 154 203 40 30 0 PatternFill
1404 1060 M
0 114 V
0 203 R
0 569 V
stroke
1327 1174 N
154 0 V
0 203 V
-154 0 V
0 -203 V
Z stroke
1327 1946 M
154 0 V
1327 1060 M
154 0 V
stroke
1939 1152 154 171 40 30 0 PatternFill
2016 1075 M
0 77 V
0 171 R
0 488 V
stroke
1939 1152 N
154 0 V
0 171 V
-154 0 V
0 -171 V
Z stroke
1939 1811 M
154 0 V
1939 1075 M
154 0 V
stroke
2551 1150 154 188 40 30 0 PatternFill
2628 1068 M
0 82 V
0 188 R
0 708 V
stroke
2551 1150 N
154 0 V
0 188 V
-154 0 V
0 -188 V
Z stroke
2551 2046 M
154 0 V
2551 1068 M
154 0 V
stroke
3163 1158 154 170 40 30 0 PatternFill
3240 1075 M
0 83 V
0 170 R
0 629 V
stroke
3163 1158 N
154 0 V
0 170 V
-154 0 V
0 -170 V
Z stroke
3163 1957 M
154 0 V
3163 1075 M
154 0 V
stroke
3775 1154 154 181 40 30 0 PatternFill
3852 1075 M
0 79 V
0 181 R
0 453 V
stroke
3775 1154 N
154 0 V
0 181 V
-154 0 V
0 -181 V
Z stroke
3775 1788 M
154 0 V
3775 1075 M
154 0 V
stroke
4387 1165 154 170 40 30 0 PatternFill
4464 1056 M
0 109 V
0 170 R
0 554 V
stroke
4387 1165 N
154 0 V
0 170 V
-154 0 V
0 -170 V
Z stroke
4387 1889 M
154 0 V
4387 1056 M
154 0 V
stroke
4999 1142 154 182 40 30 0 PatternFill
5076 1069 M
0 73 V
0 182 R
0 597 V
stroke
4999 1142 N
154 0 V
0 182 V
-154 0 V
0 -182 V
Z stroke
4999 1921 M
154 0 V
4999 1069 M
154 0 V
stroke
5611 1160 154 165 40 30 0 PatternFill
5688 1073 M
0 87 V
0 165 R
0 659 V
stroke
5611 1160 N
154 0 V
0 165 V
-154 0 V
0 -165 V
Z stroke
5611 1984 M
154 0 V
5611 1073 M
154 0 V
stroke
6223 1156 154 210 40 30 0 PatternFill
6300 1076 M
0 80 V
0 210 R
0 447 V
stroke
6223 1156 N
154 0 V
0 210 V
-154 0 V
0 -210 V
Z stroke
6223 1813 M
154 0 V
6223 1076 M
154 0 V
stroke
6835 1158 154 184 40 30 0 PatternFill
6912 1076 M
0 82 V
0 184 R
0 632 V
stroke
6835 1158 N
154 0 V
0 184 V
-154 0 V
0 -184 V
Z stroke
6835 1974 M
154 0 V
6835 1076 M
154 0 V
stroke
7447 1161 154 210 40 30 0 PatternFill
7524 1076 M
0 85 V
0 210 R
0 426 V
stroke
7447 1161 N
154 0 V
0 210 V
-154 0 V
0 -210 V
Z stroke
7447 1797 M
154 0 V
7447 1076 M
154 0 V
stroke
8059 1172 154 210 40 30 0 PatternFill
8136 1077 M
0 95 V
0 210 R
0 658 V
stroke
8059 1172 N
154 0 V
0 210 V
-154 0 V
0 -210 V
Z stroke
8059 2040 M
154 0 V
8059 1077 M
154 0 V
stroke
8671 1159 154 193 40 30 0 PatternFill
8748 1070 M
0 89 V
0 193 R
0 602 V
stroke
8671 1159 N
154 0 V
0 193 V
-154 0 V
0 -193 V
Z stroke
8671 1954 M
154 0 V
8671 1070 M
154 0 V
stroke
9283 1167 154 167 40 30 0 PatternFill
9360 1071 M
0 96 V
0 167 R
0 442 V
stroke
9283 1167 N
154 0 V
0 167 V
-154 0 V
0 -167 V
Z stroke
9283 1776 M
154 0 V
9283 1071 M
154 0 V
stroke
9896 1176 154 158 40 30 0 PatternFill
9973 1077 M
0 99 V
0 158 R
0 629 V
stroke
9896 1176 N
154 0 V
0 158 V
-154 0 V
0 -158 V
Z stroke
9896 1963 M
154 0 V
9896 1077 M
154 0 V
stroke
10508 1171 154 188 40 30 0 PatternFill
10585 1079 M
0 92 V
0 188 R
0 592 V
stroke
10508 1171 N
154 0 V
0 188 V
-154 0 V
0 -188 V
Z stroke
10508 1951 M
154 0 V
-154 -872 R
154 0 V
stroke
11120 1168 154 172 40 30 0 PatternFill
11197 1063 M
0 105 V
0 172 R
0 659 V
stroke
11120 1168 N
154 0 V
0 172 V
-154 0 V
0 -172 V
Z stroke
11120 1999 M
154 0 V
-154 -936 R
154 0 V
stroke
11732 1188 154 182 40 30 0 PatternFill
11809 1076 M
0 112 V
0 182 R
0 308 V
stroke
11732 1188 N
154 0 V
0 182 V
-154 0 V
0 -182 V
Z stroke
11732 1678 M
154 0 V
-154 -602 R
154 0 V
stroke
12344 1191 154 209 40 30 0 PatternFill
12421 1072 M
0 119 V
0 209 R
0 464 V
stroke
12344 1191 N
154 0 V
0 209 V
-154 0 V
0 -209 V
Z stroke
12344 1864 M
154 0 V
-154 -792 R
154 0 V
stroke
12956 1181 154 191 40 30 0 PatternFill
13033 1062 M
0 119 V
0 191 R
0 464 V
stroke
12956 1181 N
154 0 V
0 191 V
-154 0 V
0 -191 V
Z stroke
12956 1836 M
154 0 V
-154 -774 R
154 0 V
% End plot #7
% Begin plot #8
stroke
LTb
LCb setrgbcolor

 /TransparentPatterns true def
1327 1272 154 0 40 -30 0 PatternFill
1404 1272 M
stroke
1327 1272 N
154 0 V
-154 0 V
Z stroke
1327 1272 M
154 0 V
-154 0 R
154 0 V
stroke

 /TransparentPatterns true def
1939 1254 154 0 40 -30 0 PatternFill
2016 1254 M
stroke
1939 1254 N
154 0 V
-154 0 V
Z stroke
1939 1254 M
154 0 V
-154 0 R
154 0 V
stroke

 /TransparentPatterns true def
2551 1262 154 0 40 -30 0 PatternFill
2628 1262 M
stroke
2551 1262 N
154 0 V
-154 0 V
Z stroke
2551 1262 M
154 0 V
-154 0 R
154 0 V
stroke

 /TransparentPatterns true def
3163 1252 154 0 40 -30 0 PatternFill
3240 1252 M
stroke
3163 1252 N
154 0 V
-154 0 V
Z stroke
3163 1252 M
154 0 V
-154 0 R
154 0 V
stroke

 /TransparentPatterns true def
3775 1255 154 0 40 -30 0 PatternFill
3852 1255 M
stroke
3775 1255 N
154 0 V
-154 0 V
Z stroke
3775 1255 M
154 0 V
-154 0 R
154 0 V
stroke

 /TransparentPatterns true def
4387 1263 154 0 40 -30 0 PatternFill
4464 1263 M
stroke
4387 1263 N
154 0 V
-154 0 V
Z stroke
4387 1263 M
154 0 V
-154 0 R
154 0 V
stroke

 /TransparentPatterns true def
4999 1249 154 0 40 -30 0 PatternFill
5076 1249 M
stroke
4999 1249 N
154 0 V
-154 0 V
Z stroke
4999 1249 M
154 0 V
-154 0 R
154 0 V
stroke

 /TransparentPatterns true def
5611 1256 154 0 40 -30 0 PatternFill
5688 1256 M
stroke
5611 1256 N
154 0 V
-154 0 V
Z stroke
5611 1256 M
154 0 V
-154 0 R
154 0 V
stroke

 /TransparentPatterns true def
6223 1269 154 0 40 -30 0 PatternFill
6300 1269 M
stroke
6223 1269 N
154 0 V
-154 0 V
Z stroke
6223 1269 M
154 0 V
-154 0 R
154 0 V
stroke

 /TransparentPatterns true def
6835 1267 154 0 40 -30 0 PatternFill
6912 1267 M
stroke
6835 1267 N
154 0 V
-154 0 V
Z stroke
6835 1267 M
154 0 V
-154 0 R
154 0 V
stroke

 /TransparentPatterns true def
7447 1275 154 0 40 -30 0 PatternFill
7524 1275 M
stroke
7447 1275 N
154 0 V
-154 0 V
Z stroke
7447 1275 M
154 0 V
-154 0 R
154 0 V
stroke

 /TransparentPatterns true def
8059 1279 154 0 40 -30 0 PatternFill
8136 1279 M
stroke
8059 1279 N
154 0 V
-154 0 V
Z stroke
8059 1279 M
154 0 V
-154 0 R
154 0 V
stroke

 /TransparentPatterns true def
8671 1279 154 0 40 -30 0 PatternFill
8748 1279 M
stroke
8671 1279 N
154 0 V
-154 0 V
Z stroke
8671 1279 M
154 0 V
-154 0 R
154 0 V
stroke

 /TransparentPatterns true def
9283 1263 154 0 40 -30 0 PatternFill
9360 1263 M
stroke
9283 1263 N
154 0 V
-154 0 V
Z stroke
9283 1263 M
154 0 V
-154 0 R
154 0 V
stroke

 /TransparentPatterns true def
9896 1268 154 0 40 -30 0 PatternFill
9973 1268 M
stroke
9896 1268 N
154 0 V
-154 0 V
Z stroke
9896 1268 M
154 0 V
-154 0 R
154 0 V
stroke

 /TransparentPatterns true def
10508 1278 154 0 40 -30 0 PatternFill
10585 1278 M
stroke
10508 1278 N
154 0 V
-154 0 V
Z stroke
10508 1278 M
154 0 V
-154 0 R
154 0 V
stroke

 /TransparentPatterns true def
11120 1277 154 0 40 -30 0 PatternFill
11197 1277 M
stroke
11120 1277 N
154 0 V
-154 0 V
Z stroke
11120 1277 M
154 0 V
-154 0 R
154 0 V
stroke

 /TransparentPatterns true def
11732 1282 154 0 40 -30 0 PatternFill
11809 1282 M
stroke
11732 1282 N
154 0 V
-154 0 V
Z stroke
11732 1282 M
154 0 V
-154 0 R
154 0 V
stroke

 /TransparentPatterns true def
12344 1290 154 0 40 -30 0 PatternFill
12421 1290 M
stroke
12344 1290 N
154 0 V
-154 0 V
Z stroke
12344 1290 M
154 0 V
-154 0 R
154 0 V
stroke

 /TransparentPatterns true def
12956 1302 154 0 40 -30 0 PatternFill
13033 1302 M
stroke
12956 1302 N
154 0 V
-154 0 V
Z stroke
12956 1302 M
154 0 V
-154 0 R
154 0 V
% End plot #8
% Begin plot #9
2.000 UP
stroke
LTa
0.00 0.38 0.82 C LCb setrgbcolor
11860 153 M
[ [(Arial) 180.0 0.0 true true 0 ( )]
] -60.0 MRshow
2.000 UP
1.000 UL
LTa
0.00 0.38 0.82 C 11968 153 M
333 0 V
1403 4780 M
612 0 V
612 6 V
612 -1 V
613 -1 V
612 2 V
612 -1 V
612 0 V
612 -1 V
612 2 V
612 -1 V
612 0 V
612 -1 V
612 1 V
612 0 V
612 0 V
612 -1 V
612 0 V
612 1 V
612 0 V
1403 4780 TriU
2015 4780 TriU
2627 4786 TriU
3239 4785 TriU
3852 4784 TriU
4464 4786 TriU
5076 4785 TriU
5688 4785 TriU
6300 4784 TriU
6912 4786 TriU
7524 4785 TriU
8136 4785 TriU
8748 4784 TriU
9360 4785 TriU
9972 4785 TriU
10584 4785 TriU
11196 4784 TriU
11808 4784 TriU
12420 4785 TriU
13032 4785 TriU
12134 153 TriU
% End plot #9
2.000 UL
LTb
LCb setrgbcolor
1.000 UP
1.000 UL
LTb
0.00 0.00 0.00 C stroke
grestore
end
showpage
%%Trailer
%%DocumentFonts: Arial
