%!PS-Adobe-2.0 EPSF-2.0
%%Title: TcpScalable-download-finishtime-100UE-panoramic.eps
%%Creator: gnuplot 5.0 patchlevel 3
%%CreationDate: Tue Jun  7 16:10:53 2016
%%DocumentFonts: (atend)
%%BoundingBox: 50 50 770 302
%%EndComments
%%BeginProlog
/gnudict 256 dict def
gnudict begin
%
% The following true/false flags may be edited by hand if desired.
% The unit line width and grayscale image gamma correction may also be changed.
%
/Color true def
/Blacktext false def
/Solid false def
/Dashlength 3 def
/Landscape false def
/Level1 false def
/Level3 false def
/Rounded false def
/ClipToBoundingBox false def
/SuppressPDFMark false def
/TransparentPatterns false def
/gnulinewidth 15.000 def
/userlinewidth gnulinewidth def
/Gamma 1.0 def
/BackgroundColor {-1.000 -1.000 -1.000} def
%
/vshift -66 def
/dl1 {
  10.0 Dashlength userlinewidth gnulinewidth div mul mul mul
  Rounded { currentlinewidth 0.75 mul sub dup 0 le { pop 0.01 } if } if
} def
/dl2 {
  10.0 Dashlength userlinewidth gnulinewidth div mul mul mul
  Rounded { currentlinewidth 0.75 mul add } if
} def
/hpt_ 31.5 def
/vpt_ 31.5 def
/hpt hpt_ def
/vpt vpt_ def
/doclip {
  ClipToBoundingBox {
    newpath 50 50 moveto 770 50 lineto 770 302 lineto 50 302 lineto closepath
    clip
  } if
} def
%
% Gnuplot Prolog Version 5.1 (Oct 2015)
%
%/SuppressPDFMark true def
%
/M {moveto} bind def
/L {lineto} bind def
/R {rmoveto} bind def
/V {rlineto} bind def
/N {newpath moveto} bind def
/Z {closepath} bind def
/C {setrgbcolor} bind def
/f {rlineto fill} bind def
/g {setgray} bind def
/Gshow {show} def   % May be redefined later in the file to support UTF-8
/vpt2 vpt 2 mul def
/hpt2 hpt 2 mul def
/Lshow {currentpoint stroke M 0 vshift R 
	Blacktext {gsave 0 setgray textshow grestore} {textshow} ifelse} def
/Rshow {currentpoint stroke M dup stringwidth pop neg vshift R
	Blacktext {gsave 0 setgray textshow grestore} {textshow} ifelse} def
/Cshow {currentpoint stroke M dup stringwidth pop -2 div vshift R 
	Blacktext {gsave 0 setgray textshow grestore} {textshow} ifelse} def
/UP {dup vpt_ mul /vpt exch def hpt_ mul /hpt exch def
  /hpt2 hpt 2 mul def /vpt2 vpt 2 mul def} def
/DL {Color {setrgbcolor Solid {pop []} if 0 setdash}
 {pop pop pop 0 setgray Solid {pop []} if 0 setdash} ifelse} def
/BL {stroke userlinewidth 2 mul setlinewidth
	Rounded {1 setlinejoin 1 setlinecap} if} def
/AL {stroke userlinewidth 2 div setlinewidth
	Rounded {1 setlinejoin 1 setlinecap} if} def
/UL {dup gnulinewidth mul /userlinewidth exch def
	dup 1 lt {pop 1} if 10 mul /udl exch def} def
/PL {stroke userlinewidth setlinewidth
	Rounded {1 setlinejoin 1 setlinecap} if} def
3.8 setmiterlimit
% Classic Line colors (version 5.0)
/LCw {1 1 1} def
/LCb {0 0 0} def
/LCa {0 0 0} def
/LC0 {1 0 0} def
/LC1 {0 1 0} def
/LC2 {0 0 1} def
/LC3 {1 0 1} def
/LC4 {0 1 1} def
/LC5 {1 1 0} def
/LC6 {0 0 0} def
/LC7 {1 0.3 0} def
/LC8 {0.5 0.5 0.5} def
% Default dash patterns (version 5.0)
/LTB {BL [] LCb DL} def
/LTw {PL [] 1 setgray} def
/LTb {PL [] LCb DL} def
/LTa {AL [1 udl mul 2 udl mul] 0 setdash LCa setrgbcolor} def
/LT0 {PL [] LC0 DL} def
/LT1 {PL [2 dl1 3 dl2] LC1 DL} def
/LT2 {PL [1 dl1 1.5 dl2] LC2 DL} def
/LT3 {PL [6 dl1 2 dl2 1 dl1 2 dl2] LC3 DL} def
/LT4 {PL [1 dl1 2 dl2 6 dl1 2 dl2 1 dl1 2 dl2] LC4 DL} def
/LT5 {PL [4 dl1 2 dl2] LC5 DL} def
/LT6 {PL [1.5 dl1 1.5 dl2 1.5 dl1 1.5 dl2 1.5 dl1 6 dl2] LC6 DL} def
/LT7 {PL [3 dl1 3 dl2 1 dl1 3 dl2] LC7 DL} def
/LT8 {PL [2 dl1 2 dl2 2 dl1 6 dl2] LC8 DL} def
/SL {[] 0 setdash} def
/Pnt {stroke [] 0 setdash gsave 1 setlinecap M 0 0 V stroke grestore} def
/Dia {stroke [] 0 setdash 2 copy vpt add M
  hpt neg vpt neg V hpt vpt neg V
  hpt vpt V hpt neg vpt V closepath stroke
  Pnt} def
/Pls {stroke [] 0 setdash vpt sub M 0 vpt2 V
  currentpoint stroke M
  hpt neg vpt neg R hpt2 0 V stroke
 } def
/Box {stroke [] 0 setdash 2 copy exch hpt sub exch vpt add M
  0 vpt2 neg V hpt2 0 V 0 vpt2 V
  hpt2 neg 0 V closepath stroke
  Pnt} def
/Crs {stroke [] 0 setdash exch hpt sub exch vpt add M
  hpt2 vpt2 neg V currentpoint stroke M
  hpt2 neg 0 R hpt2 vpt2 V stroke} def
/TriU {stroke [] 0 setdash 2 copy vpt 1.12 mul add M
  hpt neg vpt -1.62 mul V
  hpt 2 mul 0 V
  hpt neg vpt 1.62 mul V closepath stroke
  Pnt} def
/Star {2 copy Pls Crs} def
/BoxF {stroke [] 0 setdash exch hpt sub exch vpt add M
  0 vpt2 neg V hpt2 0 V 0 vpt2 V
  hpt2 neg 0 V closepath fill} def
/TriUF {stroke [] 0 setdash vpt 1.12 mul add M
  hpt neg vpt -1.62 mul V
  hpt 2 mul 0 V
  hpt neg vpt 1.62 mul V closepath fill} def
/TriD {stroke [] 0 setdash 2 copy vpt 1.12 mul sub M
  hpt neg vpt 1.62 mul V
  hpt 2 mul 0 V
  hpt neg vpt -1.62 mul V closepath stroke
  Pnt} def
/TriDF {stroke [] 0 setdash vpt 1.12 mul sub M
  hpt neg vpt 1.62 mul V
  hpt 2 mul 0 V
  hpt neg vpt -1.62 mul V closepath fill} def
/DiaF {stroke [] 0 setdash vpt add M
  hpt neg vpt neg V hpt vpt neg V
  hpt vpt V hpt neg vpt V closepath fill} def
/Pent {stroke [] 0 setdash 2 copy gsave
  translate 0 hpt M 4 {72 rotate 0 hpt L} repeat
  closepath stroke grestore Pnt} def
/PentF {stroke [] 0 setdash gsave
  translate 0 hpt M 4 {72 rotate 0 hpt L} repeat
  closepath fill grestore} def
/Circle {stroke [] 0 setdash 2 copy
  hpt 0 360 arc stroke Pnt} def
/CircleF {stroke [] 0 setdash hpt 0 360 arc fill} def
/C0 {BL [] 0 setdash 2 copy moveto vpt 90 450 arc} bind def
/C1 {BL [] 0 setdash 2 copy moveto
	2 copy vpt 0 90 arc closepath fill
	vpt 0 360 arc closepath} bind def
/C2 {BL [] 0 setdash 2 copy moveto
	2 copy vpt 90 180 arc closepath fill
	vpt 0 360 arc closepath} bind def
/C3 {BL [] 0 setdash 2 copy moveto
	2 copy vpt 0 180 arc closepath fill
	vpt 0 360 arc closepath} bind def
/C4 {BL [] 0 setdash 2 copy moveto
	2 copy vpt 180 270 arc closepath fill
	vpt 0 360 arc closepath} bind def
/C5 {BL [] 0 setdash 2 copy moveto
	2 copy vpt 0 90 arc
	2 copy moveto
	2 copy vpt 180 270 arc closepath fill
	vpt 0 360 arc} bind def
/C6 {BL [] 0 setdash 2 copy moveto
	2 copy vpt 90 270 arc closepath fill
	vpt 0 360 arc closepath} bind def
/C7 {BL [] 0 setdash 2 copy moveto
	2 copy vpt 0 270 arc closepath fill
	vpt 0 360 arc closepath} bind def
/C8 {BL [] 0 setdash 2 copy moveto
	2 copy vpt 270 360 arc closepath fill
	vpt 0 360 arc closepath} bind def
/C9 {BL [] 0 setdash 2 copy moveto
	2 copy vpt 270 450 arc closepath fill
	vpt 0 360 arc closepath} bind def
/C10 {BL [] 0 setdash 2 copy 2 copy moveto vpt 270 360 arc closepath fill
	2 copy moveto
	2 copy vpt 90 180 arc closepath fill
	vpt 0 360 arc closepath} bind def
/C11 {BL [] 0 setdash 2 copy moveto
	2 copy vpt 0 180 arc closepath fill
	2 copy moveto
	2 copy vpt 270 360 arc closepath fill
	vpt 0 360 arc closepath} bind def
/C12 {BL [] 0 setdash 2 copy moveto
	2 copy vpt 180 360 arc closepath fill
	vpt 0 360 arc closepath} bind def
/C13 {BL [] 0 setdash 2 copy moveto
	2 copy vpt 0 90 arc closepath fill
	2 copy moveto
	2 copy vpt 180 360 arc closepath fill
	vpt 0 360 arc closepath} bind def
/C14 {BL [] 0 setdash 2 copy moveto
	2 copy vpt 90 360 arc closepath fill
	vpt 0 360 arc} bind def
/C15 {BL [] 0 setdash 2 copy vpt 0 360 arc closepath fill
	vpt 0 360 arc closepath} bind def
/Rec {newpath 4 2 roll moveto 1 index 0 rlineto 0 exch rlineto
	neg 0 rlineto closepath} bind def
/Square {dup Rec} bind def
/Bsquare {vpt sub exch vpt sub exch vpt2 Square} bind def
/S0 {BL [] 0 setdash 2 copy moveto 0 vpt rlineto BL Bsquare} bind def
/S1 {BL [] 0 setdash 2 copy vpt Square fill Bsquare} bind def
/S2 {BL [] 0 setdash 2 copy exch vpt sub exch vpt Square fill Bsquare} bind def
/S3 {BL [] 0 setdash 2 copy exch vpt sub exch vpt2 vpt Rec fill Bsquare} bind def
/S4 {BL [] 0 setdash 2 copy exch vpt sub exch vpt sub vpt Square fill Bsquare} bind def
/S5 {BL [] 0 setdash 2 copy 2 copy vpt Square fill
	exch vpt sub exch vpt sub vpt Square fill Bsquare} bind def
/S6 {BL [] 0 setdash 2 copy exch vpt sub exch vpt sub vpt vpt2 Rec fill Bsquare} bind def
/S7 {BL [] 0 setdash 2 copy exch vpt sub exch vpt sub vpt vpt2 Rec fill
	2 copy vpt Square fill Bsquare} bind def
/S8 {BL [] 0 setdash 2 copy vpt sub vpt Square fill Bsquare} bind def
/S9 {BL [] 0 setdash 2 copy vpt sub vpt vpt2 Rec fill Bsquare} bind def
/S10 {BL [] 0 setdash 2 copy vpt sub vpt Square fill 2 copy exch vpt sub exch vpt Square fill
	Bsquare} bind def
/S11 {BL [] 0 setdash 2 copy vpt sub vpt Square fill 2 copy exch vpt sub exch vpt2 vpt Rec fill
	Bsquare} bind def
/S12 {BL [] 0 setdash 2 copy exch vpt sub exch vpt sub vpt2 vpt Rec fill Bsquare} bind def
/S13 {BL [] 0 setdash 2 copy exch vpt sub exch vpt sub vpt2 vpt Rec fill
	2 copy vpt Square fill Bsquare} bind def
/S14 {BL [] 0 setdash 2 copy exch vpt sub exch vpt sub vpt2 vpt Rec fill
	2 copy exch vpt sub exch vpt Square fill Bsquare} bind def
/S15 {BL [] 0 setdash 2 copy Bsquare fill Bsquare} bind def
/D0 {gsave translate 45 rotate 0 0 S0 stroke grestore} bind def
/D1 {gsave translate 45 rotate 0 0 S1 stroke grestore} bind def
/D2 {gsave translate 45 rotate 0 0 S2 stroke grestore} bind def
/D3 {gsave translate 45 rotate 0 0 S3 stroke grestore} bind def
/D4 {gsave translate 45 rotate 0 0 S4 stroke grestore} bind def
/D5 {gsave translate 45 rotate 0 0 S5 stroke grestore} bind def
/D6 {gsave translate 45 rotate 0 0 S6 stroke grestore} bind def
/D7 {gsave translate 45 rotate 0 0 S7 stroke grestore} bind def
/D8 {gsave translate 45 rotate 0 0 S8 stroke grestore} bind def
/D9 {gsave translate 45 rotate 0 0 S9 stroke grestore} bind def
/D10 {gsave translate 45 rotate 0 0 S10 stroke grestore} bind def
/D11 {gsave translate 45 rotate 0 0 S11 stroke grestore} bind def
/D12 {gsave translate 45 rotate 0 0 S12 stroke grestore} bind def
/D13 {gsave translate 45 rotate 0 0 S13 stroke grestore} bind def
/D14 {gsave translate 45 rotate 0 0 S14 stroke grestore} bind def
/D15 {gsave translate 45 rotate 0 0 S15 stroke grestore} bind def
/DiaE {stroke [] 0 setdash vpt add M
  hpt neg vpt neg V hpt vpt neg V
  hpt vpt V hpt neg vpt V closepath stroke} def
/BoxE {stroke [] 0 setdash exch hpt sub exch vpt add M
  0 vpt2 neg V hpt2 0 V 0 vpt2 V
  hpt2 neg 0 V closepath stroke} def
/TriUE {stroke [] 0 setdash vpt 1.12 mul add M
  hpt neg vpt -1.62 mul V
  hpt 2 mul 0 V
  hpt neg vpt 1.62 mul V closepath stroke} def
/TriDE {stroke [] 0 setdash vpt 1.12 mul sub M
  hpt neg vpt 1.62 mul V
  hpt 2 mul 0 V
  hpt neg vpt -1.62 mul V closepath stroke} def
/PentE {stroke [] 0 setdash gsave
  translate 0 hpt M 4 {72 rotate 0 hpt L} repeat
  closepath stroke grestore} def
/CircE {stroke [] 0 setdash 
  hpt 0 360 arc stroke} def
/Opaque {gsave closepath 1 setgray fill grestore 0 setgray closepath} def
/DiaW {stroke [] 0 setdash vpt add M
  hpt neg vpt neg V hpt vpt neg V
  hpt vpt V hpt neg vpt V Opaque stroke} def
/BoxW {stroke [] 0 setdash exch hpt sub exch vpt add M
  0 vpt2 neg V hpt2 0 V 0 vpt2 V
  hpt2 neg 0 V Opaque stroke} def
/TriUW {stroke [] 0 setdash vpt 1.12 mul add M
  hpt neg vpt -1.62 mul V
  hpt 2 mul 0 V
  hpt neg vpt 1.62 mul V Opaque stroke} def
/TriDW {stroke [] 0 setdash vpt 1.12 mul sub M
  hpt neg vpt 1.62 mul V
  hpt 2 mul 0 V
  hpt neg vpt -1.62 mul V Opaque stroke} def
/PentW {stroke [] 0 setdash gsave
  translate 0 hpt M 4 {72 rotate 0 hpt L} repeat
  Opaque stroke grestore} def
/CircW {stroke [] 0 setdash 
  hpt 0 360 arc Opaque stroke} def
/BoxFill {gsave Rec 1 setgray fill grestore} def
/Density {
  /Fillden exch def
  currentrgbcolor
  /ColB exch def /ColG exch def /ColR exch def
  /ColR ColR Fillden mul Fillden sub 1 add def
  /ColG ColG Fillden mul Fillden sub 1 add def
  /ColB ColB Fillden mul Fillden sub 1 add def
  ColR ColG ColB setrgbcolor} def
/BoxColFill {gsave Rec PolyFill} def
/PolyFill {gsave Density fill grestore grestore} def
/h {rlineto rlineto rlineto gsave closepath fill grestore} bind def
%
% PostScript Level 1 Pattern Fill routine for rectangles
% Usage: x y w h s a XX PatternFill
%	x,y = lower left corner of box to be filled
%	w,h = width and height of box
%	  a = angle in degrees between lines and x-axis
%	 XX = 0/1 for no/yes cross-hatch
%
/PatternFill {gsave /PFa [ 9 2 roll ] def
  PFa 0 get PFa 2 get 2 div add PFa 1 get PFa 3 get 2 div add translate
  PFa 2 get -2 div PFa 3 get -2 div PFa 2 get PFa 3 get Rec
  TransparentPatterns {} {gsave 1 setgray fill grestore} ifelse
  clip
  currentlinewidth 0.5 mul setlinewidth
  /PFs PFa 2 get dup mul PFa 3 get dup mul add sqrt def
  0 0 M PFa 5 get rotate PFs -2 div dup translate
  0 1 PFs PFa 4 get div 1 add floor cvi
	{PFa 4 get mul 0 M 0 PFs V} for
  0 PFa 6 get ne {
	0 1 PFs PFa 4 get div 1 add floor cvi
	{PFa 4 get mul 0 2 1 roll M PFs 0 V} for
 } if
  stroke grestore} def
%
/languagelevel where
 {pop languagelevel} {1} ifelse
dup 2 lt
	{/InterpretLevel1 true def
	 /InterpretLevel3 false def}
	{/InterpretLevel1 Level1 def
	 2 gt
	    {/InterpretLevel3 Level3 def}
	    {/InterpretLevel3 false def}
	 ifelse }
 ifelse
%
% PostScript level 2 pattern fill definitions
%
/Level2PatternFill {
/Tile8x8 {/PaintType 2 /PatternType 1 /TilingType 1 /BBox [0 0 8 8] /XStep 8 /YStep 8}
	bind def
/KeepColor {currentrgbcolor [/Pattern /DeviceRGB] setcolorspace} bind def
<< Tile8x8
 /PaintProc {0.5 setlinewidth pop 0 0 M 8 8 L 0 8 M 8 0 L stroke} 
>> matrix makepattern
/Pat1 exch def
<< Tile8x8
 /PaintProc {0.5 setlinewidth pop 0 0 M 8 8 L 0 8 M 8 0 L stroke
	0 4 M 4 8 L 8 4 L 4 0 L 0 4 L stroke}
>> matrix makepattern
/Pat2 exch def
<< Tile8x8
 /PaintProc {0.5 setlinewidth pop 0 0 M 0 8 L
	8 8 L 8 0 L 0 0 L fill}
>> matrix makepattern
/Pat3 exch def
<< Tile8x8
 /PaintProc {0.5 setlinewidth pop -4 8 M 8 -4 L
	0 12 M 12 0 L stroke}
>> matrix makepattern
/Pat4 exch def
<< Tile8x8
 /PaintProc {0.5 setlinewidth pop -4 0 M 8 12 L
	0 -4 M 12 8 L stroke}
>> matrix makepattern
/Pat5 exch def
<< Tile8x8
 /PaintProc {0.5 setlinewidth pop -2 8 M 4 -4 L
	0 12 M 8 -4 L 4 12 M 10 0 L stroke}
>> matrix makepattern
/Pat6 exch def
<< Tile8x8
 /PaintProc {0.5 setlinewidth pop -2 0 M 4 12 L
	0 -4 M 8 12 L 4 -4 M 10 8 L stroke}
>> matrix makepattern
/Pat7 exch def
<< Tile8x8
 /PaintProc {0.5 setlinewidth pop 8 -2 M -4 4 L
	12 0 M -4 8 L 12 4 M 0 10 L stroke}
>> matrix makepattern
/Pat8 exch def
<< Tile8x8
 /PaintProc {0.5 setlinewidth pop 0 -2 M 12 4 L
	-4 0 M 12 8 L -4 4 M 8 10 L stroke}
>> matrix makepattern
/Pat9 exch def
/Pattern1 {PatternBgnd KeepColor Pat1 setpattern} bind def
/Pattern2 {PatternBgnd KeepColor Pat2 setpattern} bind def
/Pattern3 {PatternBgnd KeepColor Pat3 setpattern} bind def
/Pattern4 {PatternBgnd KeepColor Landscape {Pat5} {Pat4} ifelse setpattern} bind def
/Pattern5 {PatternBgnd KeepColor Landscape {Pat4} {Pat5} ifelse setpattern} bind def
/Pattern6 {PatternBgnd KeepColor Landscape {Pat9} {Pat6} ifelse setpattern} bind def
/Pattern7 {PatternBgnd KeepColor Landscape {Pat8} {Pat7} ifelse setpattern} bind def
} def
%
%
%End of PostScript Level 2 code
%
/PatternBgnd {
  TransparentPatterns {} {gsave 1 setgray fill grestore} ifelse
} def
%
% Substitute for Level 2 pattern fill codes with
% grayscale if Level 2 support is not selected.
%
/Level1PatternFill {
/Pattern1 {0.250 Density} bind def
/Pattern2 {0.500 Density} bind def
/Pattern3 {0.750 Density} bind def
/Pattern4 {0.125 Density} bind def
/Pattern5 {0.375 Density} bind def
/Pattern6 {0.625 Density} bind def
/Pattern7 {0.875 Density} bind def
} def
%
% Now test for support of Level 2 code
%
Level1 {Level1PatternFill} {Level2PatternFill} ifelse
%
/Symbol-Oblique /Symbol findfont [1 0 .167 1 0 0] makefont
dup length dict begin {1 index /FID eq {pop pop} {def} ifelse} forall
currentdict end definefont pop
%
/MFshow {
   { dup 5 get 3 ge
     { 5 get 3 eq {gsave} {grestore} ifelse }
     {dup dup 0 get findfont exch 1 get scalefont setfont
     [ currentpoint ] exch dup 2 get 0 exch R dup 5 get 2 ne {dup dup 6
     get exch 4 get {textshow} {stringwidth pop 0 R} ifelse }if dup 5 get 0 eq
     {dup 3 get {2 get neg 0 exch R pop} {pop aload pop M} ifelse} {dup 5
     get 1 eq {dup 2 get exch dup 3 get exch 6 get stringwidth pop -2 div
     dup 0 R} {dup 6 get stringwidth pop -2 div 0 R 6 get
     textshow 2 index {aload pop M neg 3 -1 roll neg R pop pop} {pop pop pop
     pop aload pop M} ifelse }ifelse }ifelse }
     ifelse }
   forall} def
/Gswidth {dup type /stringtype eq {stringwidth} {pop (n) stringwidth} ifelse} def
/MFwidth {0 exch { dup 5 get 3 ge { 5 get 3 eq { 0 } { pop } ifelse }
 {dup 3 get{dup dup 0 get findfont exch 1 get scalefont setfont
     6 get Gswidth pop add} {pop} ifelse} ifelse} forall} def
/MLshow { currentpoint stroke M
  0 exch R
  Blacktext {gsave 0 setgray MFshow grestore} {MFshow} ifelse } bind def
/MRshow { currentpoint stroke M
  exch dup MFwidth neg 3 -1 roll R
  Blacktext {gsave 0 setgray MFshow grestore} {MFshow} ifelse } bind def
/MCshow { currentpoint stroke M
  exch dup MFwidth -2 div 3 -1 roll R
  Blacktext {gsave 0 setgray MFshow grestore} {MFshow} ifelse } bind def
/XYsave    { [( ) 1 2 true false 3 ()] } bind def
/XYrestore { [( ) 1 2 true false 4 ()] } bind def
Level1 SuppressPDFMark or 
{} {
/SDict 10 dict def
systemdict /pdfmark known not {
  userdict /pdfmark systemdict /cleartomark get put
} if
SDict begin [
  /Title (TcpScalable-download-finishtime-100UE-panoramic.eps)
  /Subject (gnuplot plot)
  /Creator (gnuplot 5.0 patchlevel 3)
  /Author (nat)
%  /Producer (gnuplot)
%  /Keywords ()
  /CreationDate (Tue Jun  7 16:10:53 2016)
  /DOCINFO pdfmark
end
} ifelse
%
% Support for boxed text - Ethan A Merritt May 2005
%
/InitTextBox { userdict /TBy2 3 -1 roll put userdict /TBx2 3 -1 roll put
           userdict /TBy1 3 -1 roll put userdict /TBx1 3 -1 roll put
	   /Boxing true def } def
/ExtendTextBox { Boxing
    { gsave dup false charpath pathbbox
      dup TBy2 gt {userdict /TBy2 3 -1 roll put} {pop} ifelse
      dup TBx2 gt {userdict /TBx2 3 -1 roll put} {pop} ifelse
      dup TBy1 lt {userdict /TBy1 3 -1 roll put} {pop} ifelse
      dup TBx1 lt {userdict /TBx1 3 -1 roll put} {pop} ifelse
      grestore } if } def
/PopTextBox { newpath TBx1 TBxmargin sub TBy1 TBymargin sub M
               TBx1 TBxmargin sub TBy2 TBymargin add L
	       TBx2 TBxmargin add TBy2 TBymargin add L
	       TBx2 TBxmargin add TBy1 TBymargin sub L closepath } def
/DrawTextBox { PopTextBox stroke /Boxing false def} def
/FillTextBox { gsave PopTextBox 1 1 1 setrgbcolor fill grestore /Boxing false def} def
0 0 0 0 InitTextBox
/TBxmargin 20 def
/TBymargin 20 def
/Boxing false def
/textshow { ExtendTextBox Gshow } def
%
% redundant definitions for compatibility with prologue.ps older than 5.0.2
/LTB {BL [] LCb DL} def
/LTb {PL [] LCb DL} def
end
%%EndProlog
%%Page: 1 1
gnudict begin
gsave
doclip
50 50 translate
0.050 0.050 scale
0 setgray
newpath
(Arial) findfont 200 scalefont setfont
BackgroundColor 0 lt 3 1 roll 0 lt exch 0 lt or or not {BackgroundColor C 1.000 0 0 14400.00 5040.00 BoxColFill} if
1.000 UL
LTb
0.00 0.00 0.00 C 0.500 UL
LTa
0.50 0.50 0.50 C 980 1000 M
12139 0 V
stroke
1.000 UL
LTb
0.00 0.00 0.00 C 980 1000 M
63 0 V
stroke
860 1000 M
[ [(Arial) 200.0 0.0 true true 0 ( 0)]
] -66.7 MRshow
1.000 UL
LTb
0.00 0.00 0.00 C 0.500 UL
LTa
0.50 0.50 0.50 C 980 1475 M
12139 0 V
stroke
1.000 UL
LTb
0.00 0.00 0.00 C 980 1475 M
63 0 V
stroke
860 1475 M
[ [(Arial) 200.0 0.0 true true 0 ( 20)]
] -66.7 MRshow
1.000 UL
LTb
0.00 0.00 0.00 C 0.500 UL
LTa
0.50 0.50 0.50 C 980 1950 M
12139 0 V
stroke
1.000 UL
LTb
0.00 0.00 0.00 C 980 1950 M
63 0 V
stroke
860 1950 M
[ [(Arial) 200.0 0.0 true true 0 ( 40)]
] -66.7 MRshow
1.000 UL
LTb
0.00 0.00 0.00 C 0.500 UL
LTa
0.50 0.50 0.50 C 980 2425 M
12139 0 V
stroke
1.000 UL
LTb
0.00 0.00 0.00 C 980 2425 M
63 0 V
stroke
860 2425 M
[ [(Arial) 200.0 0.0 true true 0 ( 60)]
] -66.7 MRshow
1.000 UL
LTb
0.00 0.00 0.00 C 0.500 UL
LTa
0.50 0.50 0.50 C 980 2900 M
12139 0 V
stroke
1.000 UL
LTb
0.00 0.00 0.00 C 980 2900 M
63 0 V
stroke
860 2900 M
[ [(Arial) 200.0 0.0 true true 0 ( 80)]
] -66.7 MRshow
1.000 UL
LTb
0.00 0.00 0.00 C 0.500 UL
LTa
0.50 0.50 0.50 C 980 3374 M
12139 0 V
stroke
1.000 UL
LTb
0.00 0.00 0.00 C 980 3374 M
63 0 V
stroke
860 3374 M
[ [(Arial) 200.0 0.0 true true 0 ( 100)]
] -66.7 MRshow
1.000 UL
LTb
0.00 0.00 0.00 C 0.500 UL
LTa
0.50 0.50 0.50 C 980 3849 M
12139 0 V
stroke
1.000 UL
LTb
0.00 0.00 0.00 C 980 3849 M
63 0 V
stroke
860 3849 M
[ [(Arial) 200.0 0.0 true true 0 ( 120)]
] -66.7 MRshow
1.000 UL
LTb
0.00 0.00 0.00 C 0.500 UL
LTa
0.50 0.50 0.50 C 980 4324 M
12139 0 V
stroke
1.000 UL
LTb
0.00 0.00 0.00 C 980 4324 M
63 0 V
stroke
860 4324 M
[ [(Arial) 200.0 0.0 true true 0 ( 140)]
] -66.7 MRshow
1.000 UL
LTb
0.00 0.00 0.00 C 0.500 UL
LTa
0.50 0.50 0.50 C 980 4799 M
12139 0 V
stroke
1.000 UL
LTb
0.00 0.00 0.00 C 980 4799 M
63 0 V
stroke
860 4799 M
[ [(Arial) 200.0 0.0 true true 0 ( 160)]
] -66.7 MRshow
1.000 UL
LTb
0.00 0.00 0.00 C 0.500 UL
LTa
0.50 0.50 0.50 C 1235 1000 M
0 3799 V
stroke
1.000 UL
LTb
0.00 0.00 0.00 C 1235 1000 M
0 63 V
0 3736 R
0 -63 V
stroke
1235 800 M
[ [(Arial) 200.0 0.0 true true 0 ( 60)]
] -66.7 MCshow
1.000 UL
LTb
0.00 0.00 0.00 C 0.500 UL
LTa
0.50 0.50 0.50 C 1847 1000 M
0 3799 V
stroke
1.000 UL
LTb
0.00 0.00 0.00 C 1847 1000 M
0 63 V
0 3736 R
0 -63 V
stroke
1847 800 M
[ [(Arial) 200.0 0.0 true true 0 ( 120)]
] -66.7 MCshow
1.000 UL
LTb
0.00 0.00 0.00 C 0.500 UL
LTa
0.50 0.50 0.50 C 2459 1000 M
0 3799 V
stroke
1.000 UL
LTb
0.00 0.00 0.00 C 2459 1000 M
0 63 V
0 3736 R
0 -63 V
stroke
2459 800 M
[ [(Arial) 200.0 0.0 true true 0 ( 180)]
] -66.7 MCshow
1.000 UL
LTb
0.00 0.00 0.00 C 0.500 UL
LTa
0.50 0.50 0.50 C 3071 1000 M
0 3799 V
stroke
1.000 UL
LTb
0.00 0.00 0.00 C 3071 1000 M
0 63 V
0 3736 R
0 -63 V
stroke
3071 800 M
[ [(Arial) 200.0 0.0 true true 0 ( 240)]
] -66.7 MCshow
1.000 UL
LTb
0.00 0.00 0.00 C 0.500 UL
LTa
0.50 0.50 0.50 C 3683 1000 M
0 3799 V
stroke
1.000 UL
LTb
0.00 0.00 0.00 C 3683 1000 M
0 63 V
0 3736 R
0 -63 V
stroke
3683 800 M
[ [(Arial) 200.0 0.0 true true 0 ( 300)]
] -66.7 MCshow
1.000 UL
LTb
0.00 0.00 0.00 C 0.500 UL
LTa
0.50 0.50 0.50 C 4295 1000 M
0 3799 V
stroke
1.000 UL
LTb
0.00 0.00 0.00 C 4295 1000 M
0 63 V
0 3736 R
0 -63 V
stroke
4295 800 M
[ [(Arial) 200.0 0.0 true true 0 ( 360)]
] -66.7 MCshow
1.000 UL
LTb
0.00 0.00 0.00 C 0.500 UL
LTa
0.50 0.50 0.50 C 4907 1000 M
0 3799 V
stroke
1.000 UL
LTb
0.00 0.00 0.00 C 4907 1000 M
0 63 V
0 3736 R
0 -63 V
stroke
4907 800 M
[ [(Arial) 200.0 0.0 true true 0 ( 420)]
] -66.7 MCshow
1.000 UL
LTb
0.00 0.00 0.00 C 0.500 UL
LTa
0.50 0.50 0.50 C 5519 1000 M
0 3799 V
stroke
1.000 UL
LTb
0.00 0.00 0.00 C 5519 1000 M
0 63 V
0 3736 R
0 -63 V
stroke
5519 800 M
[ [(Arial) 200.0 0.0 true true 0 ( 480)]
] -66.7 MCshow
1.000 UL
LTb
0.00 0.00 0.00 C 0.500 UL
LTa
0.50 0.50 0.50 C 6131 1000 M
0 3799 V
stroke
1.000 UL
LTb
0.00 0.00 0.00 C 6131 1000 M
0 63 V
0 3736 R
0 -63 V
stroke
6131 800 M
[ [(Arial) 200.0 0.0 true true 0 ( 540)]
] -66.7 MCshow
1.000 UL
LTb
0.00 0.00 0.00 C 0.500 UL
LTa
0.50 0.50 0.50 C 6743 1000 M
0 3799 V
stroke
1.000 UL
LTb
0.00 0.00 0.00 C 6743 1000 M
0 63 V
0 3736 R
0 -63 V
stroke
6743 800 M
[ [(Arial) 200.0 0.0 true true 0 ( 600)]
] -66.7 MCshow
1.000 UL
LTb
0.00 0.00 0.00 C 0.500 UL
LTa
0.50 0.50 0.50 C 7356 1000 M
0 3799 V
stroke
1.000 UL
LTb
0.00 0.00 0.00 C 7356 1000 M
0 63 V
0 3736 R
0 -63 V
stroke
7356 800 M
[ [(Arial) 200.0 0.0 true true 0 ( 660)]
] -66.7 MCshow
1.000 UL
LTb
0.00 0.00 0.00 C 0.500 UL
LTa
0.50 0.50 0.50 C 7968 1000 M
0 3799 V
stroke
1.000 UL
LTb
0.00 0.00 0.00 C 7968 1000 M
0 63 V
0 3736 R
0 -63 V
stroke
7968 800 M
[ [(Arial) 200.0 0.0 true true 0 ( 720)]
] -66.7 MCshow
1.000 UL
LTb
0.00 0.00 0.00 C 0.500 UL
LTa
0.50 0.50 0.50 C 8580 1000 M
0 3799 V
stroke
1.000 UL
LTb
0.00 0.00 0.00 C 8580 1000 M
0 63 V
0 3736 R
0 -63 V
stroke
8580 800 M
[ [(Arial) 200.0 0.0 true true 0 ( 780)]
] -66.7 MCshow
1.000 UL
LTb
0.00 0.00 0.00 C 0.500 UL
LTa
0.50 0.50 0.50 C 9192 1000 M
0 3799 V
stroke
1.000 UL
LTb
0.00 0.00 0.00 C 9192 1000 M
0 63 V
0 3736 R
0 -63 V
stroke
9192 800 M
[ [(Arial) 200.0 0.0 true true 0 ( 840)]
] -66.7 MCshow
1.000 UL
LTb
0.00 0.00 0.00 C 0.500 UL
LTa
0.50 0.50 0.50 C 9804 1000 M
0 3799 V
stroke
1.000 UL
LTb
0.00 0.00 0.00 C 9804 1000 M
0 63 V
0 3736 R
0 -63 V
stroke
9804 800 M
[ [(Arial) 200.0 0.0 true true 0 ( 900)]
] -66.7 MCshow
1.000 UL
LTb
0.00 0.00 0.00 C 0.500 UL
LTa
0.50 0.50 0.50 C 10416 1000 M
0 3799 V
stroke
1.000 UL
LTb
0.00 0.00 0.00 C 10416 1000 M
0 63 V
0 3736 R
0 -63 V
stroke
10416 800 M
[ [(Arial) 200.0 0.0 true true 0 ( 960)]
] -66.7 MCshow
1.000 UL
LTb
0.00 0.00 0.00 C 0.500 UL
LTa
0.50 0.50 0.50 C 11028 1000 M
0 3799 V
stroke
1.000 UL
LTb
0.00 0.00 0.00 C 11028 1000 M
0 63 V
0 3736 R
0 -63 V
stroke
11028 800 M
[ [(Arial) 200.0 0.0 true true 0 ( 1020)]
] -66.7 MCshow
1.000 UL
LTb
0.00 0.00 0.00 C 0.500 UL
LTa
0.50 0.50 0.50 C 11640 1000 M
0 3799 V
stroke
1.000 UL
LTb
0.00 0.00 0.00 C 11640 1000 M
0 63 V
0 3736 R
0 -63 V
stroke
11640 800 M
[ [(Arial) 200.0 0.0 true true 0 ( 1080)]
] -66.7 MCshow
1.000 UL
LTb
0.00 0.00 0.00 C 0.500 UL
LTa
0.50 0.50 0.50 C 12252 1000 M
0 3799 V
stroke
1.000 UL
LTb
0.00 0.00 0.00 C 12252 1000 M
0 63 V
0 3736 R
0 -63 V
stroke
12252 800 M
[ [(Arial) 200.0 0.0 true true 0 ( 1140)]
] -66.7 MCshow
1.000 UL
LTb
0.00 0.00 0.00 C 0.500 UL
LTa
0.50 0.50 0.50 C 12864 1000 M
0 3799 V
stroke
1.000 UL
LTb
0.00 0.00 0.00 C 12864 1000 M
0 63 V
0 3736 R
0 -63 V
stroke
12864 800 M
[ [(Arial) 200.0 0.0 true true 0 ( 1200)]
] -66.7 MCshow
1.000 UL
LTb
0.00 0.00 0.00 C 13119 1000 M
-63 0 V
stroke
13239 1000 M
[ [(Arial) 200.0 0.0 true true 0 ( 0)]
] -66.7 MLshow
1.000 UL
LTb
0.00 0.00 0.00 C 13119 1760 M
-63 0 V
stroke
13239 1760 M
[ [(Arial) 200.0 0.0 true true 0 ( 20)]
] -66.7 MLshow
1.000 UL
LTb
0.00 0.00 0.00 C 13119 2520 M
-63 0 V
stroke
13239 2520 M
[ [(Arial) 200.0 0.0 true true 0 ( 40)]
] -66.7 MLshow
1.000 UL
LTb
0.00 0.00 0.00 C 13119 3279 M
-63 0 V
stroke
13239 3279 M
[ [(Arial) 200.0 0.0 true true 0 ( 60)]
] -66.7 MLshow
1.000 UL
LTb
0.00 0.00 0.00 C 13119 4039 M
-63 0 V
stroke
13239 4039 M
[ [(Arial) 200.0 0.0 true true 0 ( 80)]
] -66.7 MLshow
1.000 UL
LTb
0.00 0.00 0.00 C 13119 4799 M
-63 0 V
stroke
13239 4799 M
[ [(Arial) 200.0 0.0 true true 0 ( 100)]
] -66.7 MLshow
1.000 UL
LTb
0.00 0.00 0.00 C 1.000 UL
LTB
0.00 0.00 0.00 C 980 4799 M
0 -3799 V
12139 0 V
0 3799 R
980 4799 M
1.000 UP
stroke
LTb
0.00 0.00 0.00 C LCb setrgbcolor
160 2899 M
currentpoint gsave translate -270 rotate 0 0 moveto
[ [(Arial) 200.0 0.0 true true 0 (File download time \(s\))]
] -66.7 MCshow
grestore
LTb
LCb setrgbcolor
13938 2899 M
currentpoint gsave translate -270 rotate 0 0 moveto
[ [(Arial) 200.0 0.0 true true 0 (Average UDP throughput [%])]
] -66.7 MCshow
grestore
LTb
LCb setrgbcolor
7049 500 M
[ [(Arial) 200.0 0.0 true true 0 (Local Backhaul traffic \(Mb/s\))]
] -66.7 MCshow
LTb
% Begin plot #1
1.000 UL
LTb
0.60 0.60 0.00 C LCb setrgbcolor
4714 333 M
[ [(Arial) 180.0 0.0 true true 0 (file download time    :   olsr)]
] -60.0 MRshow
1.000 UL
LTb
0.60 0.60 0.00 C 4822 288 333 90 80 -45 0 PatternFill
4822 288 N
333 0 V
0 90 V
-333 0 V
0 -90 V
Z stroke
1.000 UL
LTb
0.60 0.60 0.00 C 990 1307 154 306 80 -45 0 PatternFill
1067 1074 M
0 233 V
0 306 R
0 269 V
stroke
990 1307 N
154 0 V
0 306 V
-154 0 V
0 -306 V
Z stroke
990 1882 M
154 0 V
990 1074 M
154 0 V
stroke
1602 1311 154 287 80 -45 0 PatternFill
1679 1074 M
0 237 V
0 287 R
0 271 V
stroke
1602 1311 N
154 0 V
0 287 V
-154 0 V
0 -287 V
Z stroke
1602 1869 M
154 0 V
1602 1074 M
154 0 V
stroke
2214 1311 154 305 80 -45 0 PatternFill
2291 1074 M
0 237 V
0 305 R
0 275 V
stroke
2214 1311 N
154 0 V
0 305 V
-154 0 V
0 -305 V
Z stroke
2214 1891 M
154 0 V
2214 1074 M
154 0 V
stroke
2826 1315 154 291 80 -45 0 PatternFill
2903 1074 M
0 241 V
0 291 R
0 230 V
stroke
2826 1315 N
154 0 V
0 291 V
-154 0 V
0 -291 V
Z stroke
2826 1836 M
154 0 V
2826 1074 M
154 0 V
stroke
3438 1320 154 276 80 -45 0 PatternFill
3515 1074 M
0 246 V
0 276 R
0 287 V
stroke
3438 1320 N
154 0 V
0 276 V
-154 0 V
0 -276 V
Z stroke
3438 1883 M
154 0 V
3438 1074 M
154 0 V
stroke
4050 1293 154 340 80 -45 0 PatternFill
4127 1074 M
0 219 V
0 340 R
0 284 V
stroke
4050 1293 N
154 0 V
0 340 V
-154 0 V
0 -340 V
Z stroke
4050 1917 M
154 0 V
4050 1074 M
154 0 V
stroke
4663 1340 154 285 80 -45 0 PatternFill
4740 1074 M
0 266 V
0 285 R
0 242 V
stroke
4663 1340 N
154 0 V
0 285 V
-154 0 V
0 -285 V
Z stroke
4663 1867 M
154 0 V
4663 1074 M
154 0 V
stroke
5275 1322 154 283 80 -45 0 PatternFill
5352 1074 M
0 248 V
0 283 R
0 217 V
stroke
5275 1322 N
154 0 V
0 283 V
-154 0 V
0 -283 V
Z stroke
5275 1822 M
154 0 V
5275 1074 M
154 0 V
stroke
5887 1291 154 321 80 -45 0 PatternFill
5964 1074 M
0 217 V
0 321 R
0 237 V
stroke
5887 1291 N
154 0 V
0 321 V
-154 0 V
0 -321 V
Z stroke
5887 1849 M
154 0 V
5887 1074 M
154 0 V
stroke
6499 1295 154 324 80 -45 0 PatternFill
6576 1074 M
0 221 V
0 324 R
0 334 V
stroke
6499 1295 N
154 0 V
0 324 V
-154 0 V
0 -324 V
Z stroke
6499 1953 M
154 0 V
6499 1074 M
154 0 V
stroke
7111 1307 154 277 80 -45 0 PatternFill
7188 1074 M
0 233 V
0 277 R
0 255 V
stroke
7111 1307 N
154 0 V
0 277 V
-154 0 V
0 -277 V
Z stroke
7111 1839 M
154 0 V
7111 1074 M
154 0 V
stroke
7723 1266 154 368 80 -45 0 PatternFill
7800 1074 M
0 192 V
0 368 R
0 229 V
stroke
7723 1266 N
154 0 V
0 368 V
-154 0 V
0 -368 V
Z stroke
7723 1863 M
154 0 V
7723 1074 M
154 0 V
stroke
8335 1296 154 308 80 -45 0 PatternFill
8412 1074 M
0 222 V
0 308 R
0 295 V
stroke
8335 1296 N
154 0 V
0 308 V
-154 0 V
0 -308 V
Z stroke
8335 1899 M
154 0 V
8335 1074 M
154 0 V
stroke
8947 1285 154 337 80 -45 0 PatternFill
9024 1074 M
0 211 V
0 337 R
0 215 V
stroke
8947 1285 N
154 0 V
0 337 V
-154 0 V
0 -337 V
Z stroke
8947 1837 M
154 0 V
8947 1074 M
154 0 V
stroke
9559 1299 154 322 80 -45 0 PatternFill
9636 1074 M
0 225 V
0 322 R
0 260 V
stroke
9559 1299 N
154 0 V
0 322 V
-154 0 V
0 -322 V
Z stroke
9559 1881 M
154 0 V
9559 1074 M
154 0 V
stroke
10171 1307 154 297 80 -45 0 PatternFill
10248 1074 M
0 233 V
0 297 R
0 247 V
stroke
10171 1307 N
154 0 V
0 297 V
-154 0 V
0 -297 V
Z stroke
10171 1851 M
154 0 V
-154 -777 R
154 0 V
stroke
10783 1279 154 349 80 -45 0 PatternFill
10860 1074 M
0 205 V
0 349 R
0 261 V
stroke
10783 1279 N
154 0 V
0 349 V
-154 0 V
0 -349 V
Z stroke
10783 1889 M
154 0 V
-154 -815 R
154 0 V
stroke
11395 1308 154 347 80 -45 0 PatternFill
11472 1074 M
0 234 V
0 347 R
0 237 V
stroke
11395 1308 N
154 0 V
0 347 V
-154 0 V
0 -347 V
Z stroke
11395 1892 M
154 0 V
-154 -818 R
154 0 V
stroke
12007 1299 154 387 80 -45 0 PatternFill
12084 1074 M
0 225 V
0 387 R
0 230 V
stroke
12007 1299 N
154 0 V
0 387 V
-154 0 V
0 -387 V
Z stroke
12007 1916 M
154 0 V
-154 -842 R
154 0 V
stroke
12619 1342 154 467 80 -45 0 PatternFill
12696 1074 M
0 268 V
0 467 R
0 267 V
stroke
12619 1342 N
154 0 V
0 467 V
-154 0 V
0 -467 V
Z stroke
12619 2076 M
154 0 V
12619 1074 M
154 0 V
% End plot #1
% Begin plot #2
stroke
LTb
LCb setrgbcolor

 /TransparentPatterns true def
990 1460 154 0 40 30 0 PatternFill
1067 1460 M
stroke
990 1460 N
154 0 V
-154 0 V
Z stroke
990 1460 M
154 0 V
-154 0 R
154 0 V
stroke

 /TransparentPatterns true def
1602 1465 154 0 40 30 0 PatternFill
1679 1465 M
stroke
1602 1465 N
154 0 V
-154 0 V
Z stroke
1602 1465 M
154 0 V
-154 0 R
154 0 V
stroke

 /TransparentPatterns true def
2214 1461 154 0 40 30 0 PatternFill
2291 1461 M
stroke
2214 1461 N
154 0 V
-154 0 V
Z stroke
2214 1461 M
154 0 V
-154 0 R
154 0 V
stroke

 /TransparentPatterns true def
2826 1461 154 0 40 30 0 PatternFill
2903 1461 M
stroke
2826 1461 N
154 0 V
-154 0 V
Z stroke
2826 1461 M
154 0 V
-154 0 R
154 0 V
stroke

 /TransparentPatterns true def
3438 1451 154 0 40 30 0 PatternFill
3515 1451 M
stroke
3438 1451 N
154 0 V
-154 0 V
Z stroke
3438 1451 M
154 0 V
-154 0 R
154 0 V
stroke

 /TransparentPatterns true def
4050 1459 154 0 40 30 0 PatternFill
4127 1459 M
stroke
4050 1459 N
154 0 V
-154 0 V
Z stroke
4050 1459 M
154 0 V
-154 0 R
154 0 V
stroke

 /TransparentPatterns true def
4663 1466 154 0 40 30 0 PatternFill
4740 1466 M
stroke
4663 1466 N
154 0 V
-154 0 V
Z stroke
4663 1466 M
154 0 V
-154 0 R
154 0 V
stroke

 /TransparentPatterns true def
5275 1454 154 0 40 30 0 PatternFill
5352 1454 M
stroke
5275 1454 N
154 0 V
-154 0 V
Z stroke
5275 1454 M
154 0 V
-154 0 R
154 0 V
stroke

 /TransparentPatterns true def
5887 1445 154 0 40 30 0 PatternFill
5964 1445 M
stroke
5887 1445 N
154 0 V
-154 0 V
Z stroke
5887 1445 M
154 0 V
-154 0 R
154 0 V
stroke

 /TransparentPatterns true def
6499 1452 154 0 40 30 0 PatternFill
6576 1452 M
stroke
6499 1452 N
154 0 V
-154 0 V
Z stroke
6499 1452 M
154 0 V
-154 0 R
154 0 V
stroke

 /TransparentPatterns true def
7111 1447 154 0 40 30 0 PatternFill
7188 1447 M
stroke
7111 1447 N
154 0 V
-154 0 V
Z stroke
7111 1447 M
154 0 V
-154 0 R
154 0 V
stroke

 /TransparentPatterns true def
7723 1446 154 0 40 30 0 PatternFill
7800 1446 M
stroke
7723 1446 N
154 0 V
-154 0 V
Z stroke
7723 1446 M
154 0 V
-154 0 R
154 0 V
stroke

 /TransparentPatterns true def
8335 1457 154 0 40 30 0 PatternFill
8412 1457 M
stroke
8335 1457 N
154 0 V
-154 0 V
Z stroke
8335 1457 M
154 0 V
-154 0 R
154 0 V
stroke

 /TransparentPatterns true def
8947 1449 154 0 40 30 0 PatternFill
9024 1449 M
stroke
8947 1449 N
154 0 V
-154 0 V
Z stroke
8947 1449 M
154 0 V
-154 0 R
154 0 V
stroke

 /TransparentPatterns true def
9559 1455 154 0 40 30 0 PatternFill
9636 1455 M
stroke
9559 1455 N
154 0 V
-154 0 V
Z stroke
9559 1455 M
154 0 V
-154 0 R
154 0 V
stroke

 /TransparentPatterns true def
10171 1459 154 0 40 30 0 PatternFill
10248 1459 M
stroke
10171 1459 N
154 0 V
-154 0 V
Z stroke
10171 1459 M
154 0 V
-154 0 R
154 0 V
stroke

 /TransparentPatterns true def
10783 1457 154 0 40 30 0 PatternFill
10860 1457 M
stroke
10783 1457 N
154 0 V
-154 0 V
Z stroke
10783 1457 M
154 0 V
-154 0 R
154 0 V
stroke

 /TransparentPatterns true def
11395 1482 154 0 40 30 0 PatternFill
11472 1482 M
stroke
11395 1482 N
154 0 V
-154 0 V
Z stroke
11395 1482 M
154 0 V
-154 0 R
154 0 V
stroke

 /TransparentPatterns true def
12007 1510 154 0 40 30 0 PatternFill
12084 1510 M
stroke
12007 1510 N
154 0 V
-154 0 V
Z stroke
12007 1510 M
154 0 V
-154 0 R
154 0 V
stroke

 /TransparentPatterns true def
12619 1592 154 0 40 30 0 PatternFill
12696 1592 M
stroke
12619 1592 N
154 0 V
-154 0 V
Z stroke
12619 1592 M
154 0 V
-154 0 R
154 0 V
% End plot #2
% Begin plot #3
2.000 UP
stroke
LTa
0.60 0.60 0.00 C LCb setrgbcolor
4714 153 M
[ [(Arial) 180.0 0.0 true true 0 (avg. throughput :         )]
] -60.0 MRshow
2.000 UP
1.000 UL
LTa
0.60 0.60 0.00 C 4822 153 M
333 0 V
1067 4666 M
612 0 V
612 -6 V
612 1 V
612 1 V
612 1 V
612 0 V
612 -2 V
612 3 V
612 0 V
612 -1 V
612 0 V
612 0 V
612 -1 V
612 2 V
612 1 V
613 -2 V
612 0 V
612 2 V
612 1 V
1067 4666 Box
1679 4666 Box
2291 4660 Box
2903 4661 Box
3515 4662 Box
4127 4663 Box
4739 4663 Box
5351 4661 Box
5963 4664 Box
6575 4664 Box
7187 4663 Box
7799 4663 Box
8411 4663 Box
9023 4662 Box
9635 4664 Box
10247 4665 Box
10860 4663 Box
11472 4663 Box
12084 4665 Box
12696 4666 Box
4988 153 Box
% End plot #3
% Begin plot #4
1.000 UL
LTb
0.00 0.00 0.63 C LCb setrgbcolor
8287 333 M
[ [(Arial) 180.0 0.0 true true 0 (per-packet)]
] -60.0 MRshow
1.000 UL
LTb
0.00 0.00 0.63 C 8395 288 333 90 80 45 0 PatternFill
8395 288 N
333 0 V
0 90 V
-333 0 V
0 -90 V
Z stroke
1.000 UL
LTb
0.00 0.00 0.63 C 1159 1100 154 1052 80 45 0 PatternFill
1236 1065 M
0 35 V
0 1052 R
0 448 V
stroke
1159 1100 N
154 0 V
0 1052 V
-154 0 V
0 -1052 V
Z stroke
1159 2600 M
154 0 V
1159 1065 M
154 0 V
stroke
1771 1103 154 1122 80 45 0 PatternFill
1848 1054 M
0 49 V
0 1122 R
0 425 V
stroke
1771 1103 N
154 0 V
0 1122 V
-154 0 V
0 -1122 V
Z stroke
1771 2650 M
154 0 V
1771 1054 M
154 0 V
stroke
2383 1107 154 1056 80 45 0 PatternFill
2460 1040 M
0 67 V
0 1056 R
0 506 V
stroke
2383 1107 N
154 0 V
0 1056 V
-154 0 V
0 -1056 V
Z stroke
2383 2669 M
154 0 V
2383 1040 M
154 0 V
stroke
2995 1106 154 1111 80 45 0 PatternFill
3072 1059 M
0 47 V
0 1111 R
0 498 V
stroke
2995 1106 N
154 0 V
0 1111 V
-154 0 V
0 -1111 V
Z stroke
2995 2715 M
154 0 V
2995 1059 M
154 0 V
stroke
3607 1112 154 1043 80 45 0 PatternFill
3684 1056 M
0 56 V
0 1043 R
0 374 V
stroke
3607 1112 N
154 0 V
0 1043 V
-154 0 V
0 -1043 V
Z stroke
3607 2529 M
154 0 V
3607 1056 M
154 0 V
stroke
4219 1117 154 1081 80 45 0 PatternFill
4296 1052 M
0 65 V
0 1081 R
0 409 V
stroke
4219 1117 N
154 0 V
0 1081 V
-154 0 V
0 -1081 V
Z stroke
4219 2607 M
154 0 V
4219 1052 M
154 0 V
stroke
4831 1098 154 1082 80 45 0 PatternFill
4908 1061 M
0 37 V
0 1082 R
0 587 V
stroke
4831 1098 N
154 0 V
0 1082 V
-154 0 V
0 -1082 V
Z stroke
4831 2767 M
154 0 V
4831 1061 M
154 0 V
stroke
5443 1100 154 1097 80 45 0 PatternFill
5520 1046 M
0 54 V
0 1097 R
0 299 V
stroke
5443 1100 N
154 0 V
0 1097 V
-154 0 V
0 -1097 V
Z stroke
5443 2496 M
154 0 V
5443 1046 M
154 0 V
stroke
6055 1110 154 1067 80 45 0 PatternFill
6132 1046 M
0 64 V
0 1067 R
0 526 V
stroke
6055 1110 N
154 0 V
0 1067 V
-154 0 V
0 -1067 V
Z stroke
6055 2703 M
154 0 V
6055 1046 M
154 0 V
stroke
6667 1101 154 1046 80 45 0 PatternFill
6744 1058 M
0 43 V
0 1046 R
0 422 V
stroke
6667 1101 N
154 0 V
0 1046 V
-154 0 V
0 -1046 V
Z stroke
6667 2569 M
154 0 V
6667 1058 M
154 0 V
stroke
7279 1107 154 1092 80 45 0 PatternFill
7356 1061 M
0 46 V
0 1092 R
0 424 V
stroke
7279 1107 N
154 0 V
0 1092 V
-154 0 V
0 -1092 V
Z stroke
7279 2623 M
154 0 V
7279 1061 M
154 0 V
stroke
7891 1110 154 1067 80 45 0 PatternFill
7968 1049 M
0 61 V
0 1067 R
0 422 V
stroke
7891 1110 N
154 0 V
0 1067 V
-154 0 V
0 -1067 V
Z stroke
7891 2599 M
154 0 V
7891 1049 M
154 0 V
stroke
8503 1106 154 1036 80 45 0 PatternFill
8580 1062 M
0 44 V
0 1036 R
0 357 V
stroke
8503 1106 N
154 0 V
0 1036 V
-154 0 V
0 -1036 V
Z stroke
8503 2499 M
154 0 V
8503 1062 M
154 0 V
stroke
9115 1108 154 1029 80 45 0 PatternFill
9192 1057 M
0 51 V
0 1029 R
0 528 V
stroke
9115 1108 N
154 0 V
0 1029 V
-154 0 V
0 -1029 V
Z stroke
9115 2665 M
154 0 V
9115 1057 M
154 0 V
stroke
9727 1105 154 1011 80 45 0 PatternFill
9804 1055 M
0 50 V
0 1011 R
0 466 V
stroke
9727 1105 N
154 0 V
0 1011 V
-154 0 V
0 -1011 V
Z stroke
9727 2582 M
154 0 V
9727 1055 M
154 0 V
stroke
10339 1098 154 1073 80 45 0 PatternFill
10416 1055 M
0 43 V
0 1073 R
0 489 V
stroke
10339 1098 N
154 0 V
0 1073 V
-154 0 V
0 -1073 V
Z stroke
10339 2660 M
154 0 V
10339 1055 M
154 0 V
stroke
10951 1129 154 1028 80 45 0 PatternFill
11028 1059 M
0 70 V
0 1028 R
0 439 V
stroke
10951 1129 N
154 0 V
0 1028 V
-154 0 V
0 -1028 V
Z stroke
10951 2596 M
154 0 V
10951 1059 M
154 0 V
stroke
11563 1119 154 1048 80 45 0 PatternFill
11640 1056 M
0 63 V
0 1048 R
0 481 V
stroke
11563 1119 N
154 0 V
0 1048 V
-154 0 V
0 -1048 V
Z stroke
11563 2648 M
154 0 V
11563 1056 M
154 0 V
stroke
12175 1118 154 988 80 45 0 PatternFill
12252 1055 M
0 63 V
0 988 R
0 485 V
stroke
12175 1118 N
154 0 V
0 988 V
-154 0 V
0 -988 V
Z stroke
12175 2591 M
154 0 V
12175 1055 M
154 0 V
stroke
12787 1127 154 1002 80 45 0 PatternFill
12864 1059 M
0 68 V
0 1002 R
0 559 V
stroke
12787 1127 N
154 0 V
0 1002 V
-154 0 V
0 -1002 V
Z stroke
12787 2688 M
154 0 V
12787 1059 M
154 0 V
% End plot #4
% Begin plot #5
stroke
LTb
LCb setrgbcolor

 /TransparentPatterns true def
1159 1546 154 0 80 -45 0 PatternFill
1236 1546 M
stroke
1159 1546 N
154 0 V
-154 0 V
Z stroke
1159 1546 M
154 0 V
-154 0 R
154 0 V
stroke

 /TransparentPatterns true def
1771 1542 154 0 80 -45 0 PatternFill
1848 1542 M
stroke
1771 1542 N
154 0 V
-154 0 V
Z stroke
1771 1542 M
154 0 V
-154 0 R
154 0 V
stroke

 /TransparentPatterns true def
2383 1522 154 0 80 -45 0 PatternFill
2460 1522 M
stroke
2383 1522 N
154 0 V
-154 0 V
Z stroke
2383 1522 M
154 0 V
-154 0 R
154 0 V
stroke

 /TransparentPatterns true def
2995 1547 154 0 80 -45 0 PatternFill
3072 1547 M
stroke
2995 1547 N
154 0 V
-154 0 V
Z stroke
2995 1547 M
154 0 V
-154 0 R
154 0 V
stroke

 /TransparentPatterns true def
3607 1536 154 0 80 -45 0 PatternFill
3684 1536 M
stroke
3607 1536 N
154 0 V
-154 0 V
Z stroke
3607 1536 M
154 0 V
-154 0 R
154 0 V
stroke

 /TransparentPatterns true def
4219 1543 154 0 80 -45 0 PatternFill
4296 1543 M
stroke
4219 1543 N
154 0 V
-154 0 V
Z stroke
4219 1543 M
154 0 V
-154 0 R
154 0 V
stroke

 /TransparentPatterns true def
4831 1541 154 0 80 -45 0 PatternFill
4908 1541 M
stroke
4831 1541 N
154 0 V
-154 0 V
Z stroke
4831 1541 M
154 0 V
-154 0 R
154 0 V
stroke

 /TransparentPatterns true def
5443 1535 154 0 80 -45 0 PatternFill
5520 1535 M
stroke
5443 1535 N
154 0 V
-154 0 V
Z stroke
5443 1535 M
154 0 V
-154 0 R
154 0 V
stroke

 /TransparentPatterns true def
6055 1538 154 0 80 -45 0 PatternFill
6132 1538 M
stroke
6055 1538 N
154 0 V
-154 0 V
Z stroke
6055 1538 M
154 0 V
-154 0 R
154 0 V
stroke

 /TransparentPatterns true def
6667 1520 154 0 80 -45 0 PatternFill
6744 1520 M
stroke
6667 1520 N
154 0 V
-154 0 V
Z stroke
6667 1520 M
154 0 V
-154 0 R
154 0 V
stroke

 /TransparentPatterns true def
7279 1540 154 0 80 -45 0 PatternFill
7356 1540 M
stroke
7279 1540 N
154 0 V
-154 0 V
Z stroke
7279 1540 M
154 0 V
-154 0 R
154 0 V
stroke

 /TransparentPatterns true def
7891 1539 154 0 80 -45 0 PatternFill
7968 1539 M
stroke
7891 1539 N
154 0 V
-154 0 V
Z stroke
7891 1539 M
154 0 V
-154 0 R
154 0 V
stroke

 /TransparentPatterns true def
8503 1537 154 0 80 -45 0 PatternFill
8580 1537 M
stroke
8503 1537 N
154 0 V
-154 0 V
Z stroke
8503 1537 M
154 0 V
-154 0 R
154 0 V
stroke

 /TransparentPatterns true def
9115 1534 154 0 80 -45 0 PatternFill
9192 1534 M
stroke
9115 1534 N
154 0 V
-154 0 V
Z stroke
9115 1534 M
154 0 V
-154 0 R
154 0 V
stroke

 /TransparentPatterns true def
9727 1537 154 0 80 -45 0 PatternFill
9804 1537 M
stroke
9727 1537 N
154 0 V
-154 0 V
Z stroke
9727 1537 M
154 0 V
-154 0 R
154 0 V
stroke

 /TransparentPatterns true def
10339 1547 154 0 80 -45 0 PatternFill
10416 1547 M
stroke
10339 1547 N
154 0 V
-154 0 V
Z stroke
10339 1547 M
154 0 V
-154 0 R
154 0 V
stroke

 /TransparentPatterns true def
10951 1537 154 0 80 -45 0 PatternFill
11028 1537 M
stroke
10951 1537 N
154 0 V
-154 0 V
Z stroke
10951 1537 M
154 0 V
-154 0 R
154 0 V
stroke

 /TransparentPatterns true def
11563 1553 154 0 80 -45 0 PatternFill
11640 1553 M
stroke
11563 1553 N
154 0 V
-154 0 V
Z stroke
11563 1553 M
154 0 V
-154 0 R
154 0 V
stroke

 /TransparentPatterns true def
12175 1526 154 0 80 -45 0 PatternFill
12252 1526 M
stroke
12175 1526 N
154 0 V
-154 0 V
Z stroke
12175 1526 M
154 0 V
-154 0 R
154 0 V
stroke

 /TransparentPatterns true def
12787 1567 154 0 80 -45 0 PatternFill
12864 1567 M
stroke
12787 1567 N
154 0 V
-154 0 V
Z stroke
12787 1567 M
154 0 V
-154 0 R
154 0 V
% End plot #5
% Begin plot #6
2.000 UP
stroke
LTa
0.00 0.00 0.63 C LCb setrgbcolor
8287 153 M
[ [(Arial) 180.0 0.0 true true 0 ( )]
] -60.0 MRshow
2.000 UP
1.000 UL
LTa
0.00 0.00 0.63 C 8395 153 M
333 0 V
1235 4780 M
612 10 V
612 -4 V
612 -1 V
612 3 V
612 -2 V
612 2 V
612 -1 V
612 -1 V
612 2 V
613 -1 V
612 -1 V
612 0 V
612 1 V
612 -1 V
612 1 V
612 0 V
612 -1 V
612 1 V
612 0 V
1235 4780 Circle
1847 4790 Circle
2459 4786 Circle
3071 4785 Circle
3683 4788 Circle
4295 4786 Circle
4907 4788 Circle
5519 4787 Circle
6131 4786 Circle
6743 4788 Circle
7356 4787 Circle
7968 4786 Circle
8580 4786 Circle
9192 4787 Circle
9804 4786 Circle
10416 4787 Circle
11028 4787 Circle
11640 4786 Circle
12252 4787 Circle
12864 4787 Circle
8561 153 Circle
% End plot #6
% Begin plot #7
1.000 UL
LTb
0.00 0.38 0.82 C LCb setrgbcolor
11860 333 M
[ [(Arial) 180.0 0.0 true true 0 (per-flow)]
] -60.0 MRshow
1.000 UL
LTb
0.00 0.38 0.82 C 11968 288 333 90 40 30 0 PatternFill
11968 288 N
333 0 V
0 90 V
-333 0 V
0 -90 V
Z stroke
1.000 UL
LTb
0.00 0.38 0.82 C 1327 1117 154 124 40 30 0 PatternFill
1404 1089 M
0 28 V
0 124 R
0 379 V
stroke
1327 1117 N
154 0 V
0 124 V
-154 0 V
0 -124 V
Z stroke
1327 1620 M
154 0 V
1327 1089 M
154 0 V
stroke
1939 1118 154 144 40 30 0 PatternFill
2016 1084 M
0 34 V
0 144 R
0 287 V
stroke
1939 1118 N
154 0 V
0 144 V
-154 0 V
0 -144 V
Z stroke
1939 1549 M
154 0 V
1939 1084 M
154 0 V
stroke
2551 1115 154 147 40 30 0 PatternFill
2628 1063 M
0 52 V
0 147 R
0 405 V
stroke
2551 1115 N
154 0 V
0 147 V
-154 0 V
0 -147 V
Z stroke
2551 1667 M
154 0 V
2551 1063 M
154 0 V
stroke
3163 1114 154 149 40 30 0 PatternFill
3240 1063 M
0 51 V
0 149 R
0 417 V
stroke
3163 1114 N
154 0 V
0 149 V
-154 0 V
0 -149 V
Z stroke
3163 1680 M
154 0 V
3163 1063 M
154 0 V
stroke
3775 1110 154 186 40 30 0 PatternFill
3852 1055 M
0 55 V
0 186 R
0 259 V
stroke
3775 1110 N
154 0 V
0 186 V
-154 0 V
0 -186 V
Z stroke
3775 1555 M
154 0 V
3775 1055 M
154 0 V
stroke
4387 1122 154 165 40 30 0 PatternFill
4464 1061 M
0 61 V
0 165 R
0 255 V
stroke
4387 1122 N
154 0 V
0 165 V
-154 0 V
0 -165 V
Z stroke
4387 1542 M
154 0 V
4387 1061 M
154 0 V
stroke
4999 1125 154 140 40 30 0 PatternFill
5076 1059 M
0 66 V
0 140 R
0 577 V
stroke
4999 1125 N
154 0 V
0 140 V
-154 0 V
0 -140 V
Z stroke
4999 1842 M
154 0 V
4999 1059 M
154 0 V
stroke
5611 1109 154 159 40 30 0 PatternFill
5688 1052 M
0 57 V
0 159 R
0 302 V
stroke
5611 1109 N
154 0 V
0 159 V
-154 0 V
0 -159 V
Z stroke
5611 1570 M
154 0 V
5611 1052 M
154 0 V
stroke
6223 1122 154 148 40 30 0 PatternFill
6300 1062 M
0 60 V
0 148 R
0 373 V
stroke
6223 1122 N
154 0 V
0 148 V
-154 0 V
0 -148 V
Z stroke
6223 1643 M
154 0 V
6223 1062 M
154 0 V
stroke
6835 1116 154 148 40 30 0 PatternFill
6912 1054 M
0 62 V
0 148 R
0 277 V
stroke
6835 1116 N
154 0 V
0 148 V
-154 0 V
0 -148 V
Z stroke
6835 1541 M
154 0 V
6835 1054 M
154 0 V
stroke
7447 1119 154 166 40 30 0 PatternFill
7524 1068 M
0 51 V
0 166 R
0 351 V
stroke
7447 1119 N
154 0 V
0 166 V
-154 0 V
0 -166 V
Z stroke
7447 1636 M
154 0 V
7447 1068 M
154 0 V
stroke
8059 1140 154 147 40 30 0 PatternFill
8136 1074 M
0 66 V
0 147 R
0 302 V
stroke
8059 1140 N
154 0 V
0 147 V
-154 0 V
0 -147 V
Z stroke
8059 1589 M
154 0 V
8059 1074 M
154 0 V
stroke
8671 1112 154 157 40 30 0 PatternFill
8748 1061 M
0 51 V
0 157 R
0 400 V
stroke
8671 1112 N
154 0 V
0 157 V
-154 0 V
0 -157 V
Z stroke
8671 1669 M
154 0 V
8671 1061 M
154 0 V
stroke
9283 1121 154 176 40 30 0 PatternFill
9360 1066 M
0 55 V
0 176 R
0 327 V
stroke
9283 1121 N
154 0 V
0 176 V
-154 0 V
0 -176 V
Z stroke
9283 1624 M
154 0 V
9283 1066 M
154 0 V
stroke
9896 1123 154 201 40 30 0 PatternFill
9973 1064 M
0 59 V
0 201 R
0 318 V
stroke
9896 1123 N
154 0 V
0 201 V
-154 0 V
0 -201 V
Z stroke
9896 1642 M
154 0 V
9896 1064 M
154 0 V
stroke
10508 1134 154 182 40 30 0 PatternFill
10585 1057 M
0 77 V
0 182 R
0 366 V
stroke
10508 1134 N
154 0 V
0 182 V
-154 0 V
0 -182 V
Z stroke
10508 1682 M
154 0 V
-154 -625 R
154 0 V
stroke
11120 1138 154 182 40 30 0 PatternFill
11197 1071 M
0 67 V
0 182 R
0 266 V
stroke
11120 1138 N
154 0 V
0 182 V
-154 0 V
0 -182 V
Z stroke
11120 1586 M
154 0 V
-154 -515 R
154 0 V
stroke
11732 1138 154 192 40 30 0 PatternFill
11809 1058 M
0 80 V
0 192 R
0 348 V
stroke
11732 1138 N
154 0 V
0 192 V
-154 0 V
0 -192 V
Z stroke
11732 1678 M
154 0 V
-154 -620 R
154 0 V
stroke
12344 1142 154 239 40 30 0 PatternFill
12421 1059 M
0 83 V
0 239 R
0 281 V
stroke
12344 1142 N
154 0 V
0 239 V
-154 0 V
0 -239 V
Z stroke
12344 1662 M
154 0 V
-154 -603 R
154 0 V
stroke
12956 1153 154 243 40 30 0 PatternFill
13033 1064 M
0 89 V
0 243 R
0 249 V
stroke
12956 1153 N
154 0 V
0 243 V
-154 0 V
0 -243 V
Z stroke
12956 1645 M
154 0 V
-154 -581 R
154 0 V
% End plot #7
% Begin plot #8
stroke
LTb
LCb setrgbcolor

 /TransparentPatterns true def
1327 1197 154 0 40 -30 0 PatternFill
1404 1197 M
stroke
1327 1197 N
154 0 V
-154 0 V
Z stroke
1327 1197 M
154 0 V
-154 0 R
154 0 V
stroke

 /TransparentPatterns true def
1939 1194 154 0 40 -30 0 PatternFill
2016 1194 M
stroke
1939 1194 N
154 0 V
-154 0 V
Z stroke
1939 1194 M
154 0 V
-154 0 R
154 0 V
stroke

 /TransparentPatterns true def
2551 1200 154 0 40 -30 0 PatternFill
2628 1200 M
stroke
2551 1200 N
154 0 V
-154 0 V
Z stroke
2551 1200 M
154 0 V
-154 0 R
154 0 V
stroke

 /TransparentPatterns true def
3163 1194 154 0 40 -30 0 PatternFill
3240 1194 M
stroke
3163 1194 N
154 0 V
-154 0 V
Z stroke
3163 1194 M
154 0 V
-154 0 R
154 0 V
stroke

 /TransparentPatterns true def
3775 1209 154 0 40 -30 0 PatternFill
3852 1209 M
stroke
3775 1209 N
154 0 V
-154 0 V
Z stroke
3775 1209 M
154 0 V
-154 0 R
154 0 V
stroke

 /TransparentPatterns true def
4387 1207 154 0 40 -30 0 PatternFill
4464 1207 M
stroke
4387 1207 N
154 0 V
-154 0 V
Z stroke
4387 1207 M
154 0 V
-154 0 R
154 0 V
stroke

 /TransparentPatterns true def
4999 1212 154 0 40 -30 0 PatternFill
5076 1212 M
stroke
4999 1212 N
154 0 V
-154 0 V
Z stroke
4999 1212 M
154 0 V
-154 0 R
154 0 V
stroke

 /TransparentPatterns true def
5611 1198 154 0 40 -30 0 PatternFill
5688 1198 M
stroke
5611 1198 N
154 0 V
-154 0 V
Z stroke
5611 1198 M
154 0 V
-154 0 R
154 0 V
stroke

 /TransparentPatterns true def
6223 1201 154 0 40 -30 0 PatternFill
6300 1201 M
stroke
6223 1201 N
154 0 V
-154 0 V
Z stroke
6223 1201 M
154 0 V
-154 0 R
154 0 V
stroke

 /TransparentPatterns true def
6835 1198 154 0 40 -30 0 PatternFill
6912 1198 M
stroke
6835 1198 N
154 0 V
-154 0 V
Z stroke
6835 1198 M
154 0 V
-154 0 R
154 0 V
stroke

 /TransparentPatterns true def
7447 1211 154 0 40 -30 0 PatternFill
7524 1211 M
stroke
7447 1211 N
154 0 V
-154 0 V
Z stroke
7447 1211 M
154 0 V
-154 0 R
154 0 V
stroke

 /TransparentPatterns true def
8059 1224 154 0 40 -30 0 PatternFill
8136 1224 M
stroke
8059 1224 N
154 0 V
-154 0 V
Z stroke
8059 1224 M
154 0 V
-154 0 R
154 0 V
stroke

 /TransparentPatterns true def
8671 1207 154 0 40 -30 0 PatternFill
8748 1207 M
stroke
8671 1207 N
154 0 V
-154 0 V
Z stroke
8671 1207 M
154 0 V
-154 0 R
154 0 V
stroke

 /TransparentPatterns true def
9283 1225 154 0 40 -30 0 PatternFill
9360 1225 M
stroke
9283 1225 N
154 0 V
-154 0 V
Z stroke
9283 1225 M
154 0 V
-154 0 R
154 0 V
stroke

 /TransparentPatterns true def
9896 1233 154 0 40 -30 0 PatternFill
9973 1233 M
stroke
9896 1233 N
154 0 V
-154 0 V
Z stroke
9896 1233 M
154 0 V
-154 0 R
154 0 V
stroke

 /TransparentPatterns true def
10508 1235 154 0 40 -30 0 PatternFill
10585 1235 M
stroke
10508 1235 N
154 0 V
-154 0 V
Z stroke
10508 1235 M
154 0 V
-154 0 R
154 0 V
stroke

 /TransparentPatterns true def
11120 1232 154 0 40 -30 0 PatternFill
11197 1232 M
stroke
11120 1232 N
154 0 V
-154 0 V
Z stroke
11120 1232 M
154 0 V
-154 0 R
154 0 V
stroke

 /TransparentPatterns true def
11732 1245 154 0 40 -30 0 PatternFill
11809 1245 M
stroke
11732 1245 N
154 0 V
-154 0 V
Z stroke
11732 1245 M
154 0 V
-154 0 R
154 0 V
stroke

 /TransparentPatterns true def
12344 1261 154 0 40 -30 0 PatternFill
12421 1261 M
stroke
12344 1261 N
154 0 V
-154 0 V
Z stroke
12344 1261 M
154 0 V
-154 0 R
154 0 V
stroke

 /TransparentPatterns true def
12956 1276 154 0 40 -30 0 PatternFill
13033 1276 M
stroke
12956 1276 N
154 0 V
-154 0 V
Z stroke
12956 1276 M
154 0 V
-154 0 R
154 0 V
% End plot #8
% Begin plot #9
2.000 UP
stroke
LTa
0.00 0.38 0.82 C LCb setrgbcolor
11860 153 M
[ [(Arial) 180.0 0.0 true true 0 ( )]
] -60.0 MRshow
2.000 UP
1.000 UL
LTa
0.00 0.38 0.82 C 11968 153 M
333 0 V
1403 4780 M
612 0 V
612 6 V
612 -1 V
613 -1 V
612 2 V
612 -1 V
612 0 V
612 -1 V
612 0 V
612 1 V
612 0 V
612 -1 V
612 0 V
612 1 V
612 0 V
612 -1 V
612 0 V
612 1 V
612 0 V
1403 4780 TriU
2015 4780 TriU
2627 4786 TriU
3239 4785 TriU
3852 4784 TriU
4464 4786 TriU
5076 4785 TriU
5688 4785 TriU
6300 4784 TriU
6912 4784 TriU
7524 4785 TriU
8136 4785 TriU
8748 4784 TriU
9360 4784 TriU
9972 4785 TriU
10584 4785 TriU
11196 4784 TriU
11808 4784 TriU
12420 4785 TriU
13032 4785 TriU
12134 153 TriU
% End plot #9
2.000 UL
LTb
LCb setrgbcolor
1.000 UP
1.000 UL
LTb
0.00 0.00 0.00 C stroke
grestore
end
showpage
%%Trailer
%%DocumentFonts: Arial
