%!PS-Adobe-2.0 EPSF-2.0
%%Title: TcpScalable-download-rtt-100UE-250-400.eps
%%Creator: gnuplot 5.0 patchlevel 3
%%CreationDate: Thu Jun  2 10:39:41 2016
%%DocumentFonts: (atend)
%%BoundingBox: 50 50 770 302
%%EndComments
%%BeginProlog
/gnudict 256 dict def
gnudict begin
%
% The following true/false flags may be edited by hand if desired.
% The unit line width and grayscale image gamma correction may also be changed.
%
/Color true def
/Blacktext false def
/Solid false def
/Dashlength 3 def
/Landscape false def
/Level1 false def
/Level3 false def
/Rounded false def
/ClipToBoundingBox false def
/SuppressPDFMark false def
/TransparentPatterns false def
/gnulinewidth 15.000 def
/userlinewidth gnulinewidth def
/Gamma 1.0 def
/BackgroundColor {-1.000 -1.000 -1.000} def
%
/vshift -66 def
/dl1 {
  10.0 Dashlength userlinewidth gnulinewidth div mul mul mul
  Rounded { currentlinewidth 0.75 mul sub dup 0 le { pop 0.01 } if } if
} def
/dl2 {
  10.0 Dashlength userlinewidth gnulinewidth div mul mul mul
  Rounded { currentlinewidth 0.75 mul add } if
} def
/hpt_ 31.5 def
/vpt_ 31.5 def
/hpt hpt_ def
/vpt vpt_ def
/doclip {
  ClipToBoundingBox {
    newpath 50 50 moveto 770 50 lineto 770 302 lineto 50 302 lineto closepath
    clip
  } if
} def
%
% Gnuplot Prolog Version 5.1 (Oct 2015)
%
%/SuppressPDFMark true def
%
/M {moveto} bind def
/L {lineto} bind def
/R {rmoveto} bind def
/V {rlineto} bind def
/N {newpath moveto} bind def
/Z {closepath} bind def
/C {setrgbcolor} bind def
/f {rlineto fill} bind def
/g {setgray} bind def
/Gshow {show} def   % May be redefined later in the file to support UTF-8
/vpt2 vpt 2 mul def
/hpt2 hpt 2 mul def
/Lshow {currentpoint stroke M 0 vshift R 
	Blacktext {gsave 0 setgray textshow grestore} {textshow} ifelse} def
/Rshow {currentpoint stroke M dup stringwidth pop neg vshift R
	Blacktext {gsave 0 setgray textshow grestore} {textshow} ifelse} def
/Cshow {currentpoint stroke M dup stringwidth pop -2 div vshift R 
	Blacktext {gsave 0 setgray textshow grestore} {textshow} ifelse} def
/UP {dup vpt_ mul /vpt exch def hpt_ mul /hpt exch def
  /hpt2 hpt 2 mul def /vpt2 vpt 2 mul def} def
/DL {Color {setrgbcolor Solid {pop []} if 0 setdash}
 {pop pop pop 0 setgray Solid {pop []} if 0 setdash} ifelse} def
/BL {stroke userlinewidth 2 mul setlinewidth
	Rounded {1 setlinejoin 1 setlinecap} if} def
/AL {stroke userlinewidth 2 div setlinewidth
	Rounded {1 setlinejoin 1 setlinecap} if} def
/UL {dup gnulinewidth mul /userlinewidth exch def
	dup 1 lt {pop 1} if 10 mul /udl exch def} def
/PL {stroke userlinewidth setlinewidth
	Rounded {1 setlinejoin 1 setlinecap} if} def
3.8 setmiterlimit
% Classic Line colors (version 5.0)
/LCw {1 1 1} def
/LCb {0 0 0} def
/LCa {0 0 0} def
/LC0 {1 0 0} def
/LC1 {0 1 0} def
/LC2 {0 0 1} def
/LC3 {1 0 1} def
/LC4 {0 1 1} def
/LC5 {1 1 0} def
/LC6 {0 0 0} def
/LC7 {1 0.3 0} def
/LC8 {0.5 0.5 0.5} def
% Default dash patterns (version 5.0)
/LTB {BL [] LCb DL} def
/LTw {PL [] 1 setgray} def
/LTb {PL [] LCb DL} def
/LTa {AL [1 udl mul 2 udl mul] 0 setdash LCa setrgbcolor} def
/LT0 {PL [] LC0 DL} def
/LT1 {PL [2 dl1 3 dl2] LC1 DL} def
/LT2 {PL [1 dl1 1.5 dl2] LC2 DL} def
/LT3 {PL [6 dl1 2 dl2 1 dl1 2 dl2] LC3 DL} def
/LT4 {PL [1 dl1 2 dl2 6 dl1 2 dl2 1 dl1 2 dl2] LC4 DL} def
/LT5 {PL [4 dl1 2 dl2] LC5 DL} def
/LT6 {PL [1.5 dl1 1.5 dl2 1.5 dl1 1.5 dl2 1.5 dl1 6 dl2] LC6 DL} def
/LT7 {PL [3 dl1 3 dl2 1 dl1 3 dl2] LC7 DL} def
/LT8 {PL [2 dl1 2 dl2 2 dl1 6 dl2] LC8 DL} def
/SL {[] 0 setdash} def
/Pnt {stroke [] 0 setdash gsave 1 setlinecap M 0 0 V stroke grestore} def
/Dia {stroke [] 0 setdash 2 copy vpt add M
  hpt neg vpt neg V hpt vpt neg V
  hpt vpt V hpt neg vpt V closepath stroke
  Pnt} def
/Pls {stroke [] 0 setdash vpt sub M 0 vpt2 V
  currentpoint stroke M
  hpt neg vpt neg R hpt2 0 V stroke
 } def
/Box {stroke [] 0 setdash 2 copy exch hpt sub exch vpt add M
  0 vpt2 neg V hpt2 0 V 0 vpt2 V
  hpt2 neg 0 V closepath stroke
  Pnt} def
/Crs {stroke [] 0 setdash exch hpt sub exch vpt add M
  hpt2 vpt2 neg V currentpoint stroke M
  hpt2 neg 0 R hpt2 vpt2 V stroke} def
/TriU {stroke [] 0 setdash 2 copy vpt 1.12 mul add M
  hpt neg vpt -1.62 mul V
  hpt 2 mul 0 V
  hpt neg vpt 1.62 mul V closepath stroke
  Pnt} def
/Star {2 copy Pls Crs} def
/BoxF {stroke [] 0 setdash exch hpt sub exch vpt add M
  0 vpt2 neg V hpt2 0 V 0 vpt2 V
  hpt2 neg 0 V closepath fill} def
/TriUF {stroke [] 0 setdash vpt 1.12 mul add M
  hpt neg vpt -1.62 mul V
  hpt 2 mul 0 V
  hpt neg vpt 1.62 mul V closepath fill} def
/TriD {stroke [] 0 setdash 2 copy vpt 1.12 mul sub M
  hpt neg vpt 1.62 mul V
  hpt 2 mul 0 V
  hpt neg vpt -1.62 mul V closepath stroke
  Pnt} def
/TriDF {stroke [] 0 setdash vpt 1.12 mul sub M
  hpt neg vpt 1.62 mul V
  hpt 2 mul 0 V
  hpt neg vpt -1.62 mul V closepath fill} def
/DiaF {stroke [] 0 setdash vpt add M
  hpt neg vpt neg V hpt vpt neg V
  hpt vpt V hpt neg vpt V closepath fill} def
/Pent {stroke [] 0 setdash 2 copy gsave
  translate 0 hpt M 4 {72 rotate 0 hpt L} repeat
  closepath stroke grestore Pnt} def
/PentF {stroke [] 0 setdash gsave
  translate 0 hpt M 4 {72 rotate 0 hpt L} repeat
  closepath fill grestore} def
/Circle {stroke [] 0 setdash 2 copy
  hpt 0 360 arc stroke Pnt} def
/CircleF {stroke [] 0 setdash hpt 0 360 arc fill} def
/C0 {BL [] 0 setdash 2 copy moveto vpt 90 450 arc} bind def
/C1 {BL [] 0 setdash 2 copy moveto
	2 copy vpt 0 90 arc closepath fill
	vpt 0 360 arc closepath} bind def
/C2 {BL [] 0 setdash 2 copy moveto
	2 copy vpt 90 180 arc closepath fill
	vpt 0 360 arc closepath} bind def
/C3 {BL [] 0 setdash 2 copy moveto
	2 copy vpt 0 180 arc closepath fill
	vpt 0 360 arc closepath} bind def
/C4 {BL [] 0 setdash 2 copy moveto
	2 copy vpt 180 270 arc closepath fill
	vpt 0 360 arc closepath} bind def
/C5 {BL [] 0 setdash 2 copy moveto
	2 copy vpt 0 90 arc
	2 copy moveto
	2 copy vpt 180 270 arc closepath fill
	vpt 0 360 arc} bind def
/C6 {BL [] 0 setdash 2 copy moveto
	2 copy vpt 90 270 arc closepath fill
	vpt 0 360 arc closepath} bind def
/C7 {BL [] 0 setdash 2 copy moveto
	2 copy vpt 0 270 arc closepath fill
	vpt 0 360 arc closepath} bind def
/C8 {BL [] 0 setdash 2 copy moveto
	2 copy vpt 270 360 arc closepath fill
	vpt 0 360 arc closepath} bind def
/C9 {BL [] 0 setdash 2 copy moveto
	2 copy vpt 270 450 arc closepath fill
	vpt 0 360 arc closepath} bind def
/C10 {BL [] 0 setdash 2 copy 2 copy moveto vpt 270 360 arc closepath fill
	2 copy moveto
	2 copy vpt 90 180 arc closepath fill
	vpt 0 360 arc closepath} bind def
/C11 {BL [] 0 setdash 2 copy moveto
	2 copy vpt 0 180 arc closepath fill
	2 copy moveto
	2 copy vpt 270 360 arc closepath fill
	vpt 0 360 arc closepath} bind def
/C12 {BL [] 0 setdash 2 copy moveto
	2 copy vpt 180 360 arc closepath fill
	vpt 0 360 arc closepath} bind def
/C13 {BL [] 0 setdash 2 copy moveto
	2 copy vpt 0 90 arc closepath fill
	2 copy moveto
	2 copy vpt 180 360 arc closepath fill
	vpt 0 360 arc closepath} bind def
/C14 {BL [] 0 setdash 2 copy moveto
	2 copy vpt 90 360 arc closepath fill
	vpt 0 360 arc} bind def
/C15 {BL [] 0 setdash 2 copy vpt 0 360 arc closepath fill
	vpt 0 360 arc closepath} bind def
/Rec {newpath 4 2 roll moveto 1 index 0 rlineto 0 exch rlineto
	neg 0 rlineto closepath} bind def
/Square {dup Rec} bind def
/Bsquare {vpt sub exch vpt sub exch vpt2 Square} bind def
/S0 {BL [] 0 setdash 2 copy moveto 0 vpt rlineto BL Bsquare} bind def
/S1 {BL [] 0 setdash 2 copy vpt Square fill Bsquare} bind def
/S2 {BL [] 0 setdash 2 copy exch vpt sub exch vpt Square fill Bsquare} bind def
/S3 {BL [] 0 setdash 2 copy exch vpt sub exch vpt2 vpt Rec fill Bsquare} bind def
/S4 {BL [] 0 setdash 2 copy exch vpt sub exch vpt sub vpt Square fill Bsquare} bind def
/S5 {BL [] 0 setdash 2 copy 2 copy vpt Square fill
	exch vpt sub exch vpt sub vpt Square fill Bsquare} bind def
/S6 {BL [] 0 setdash 2 copy exch vpt sub exch vpt sub vpt vpt2 Rec fill Bsquare} bind def
/S7 {BL [] 0 setdash 2 copy exch vpt sub exch vpt sub vpt vpt2 Rec fill
	2 copy vpt Square fill Bsquare} bind def
/S8 {BL [] 0 setdash 2 copy vpt sub vpt Square fill Bsquare} bind def
/S9 {BL [] 0 setdash 2 copy vpt sub vpt vpt2 Rec fill Bsquare} bind def
/S10 {BL [] 0 setdash 2 copy vpt sub vpt Square fill 2 copy exch vpt sub exch vpt Square fill
	Bsquare} bind def
/S11 {BL [] 0 setdash 2 copy vpt sub vpt Square fill 2 copy exch vpt sub exch vpt2 vpt Rec fill
	Bsquare} bind def
/S12 {BL [] 0 setdash 2 copy exch vpt sub exch vpt sub vpt2 vpt Rec fill Bsquare} bind def
/S13 {BL [] 0 setdash 2 copy exch vpt sub exch vpt sub vpt2 vpt Rec fill
	2 copy vpt Square fill Bsquare} bind def
/S14 {BL [] 0 setdash 2 copy exch vpt sub exch vpt sub vpt2 vpt Rec fill
	2 copy exch vpt sub exch vpt Square fill Bsquare} bind def
/S15 {BL [] 0 setdash 2 copy Bsquare fill Bsquare} bind def
/D0 {gsave translate 45 rotate 0 0 S0 stroke grestore} bind def
/D1 {gsave translate 45 rotate 0 0 S1 stroke grestore} bind def
/D2 {gsave translate 45 rotate 0 0 S2 stroke grestore} bind def
/D3 {gsave translate 45 rotate 0 0 S3 stroke grestore} bind def
/D4 {gsave translate 45 rotate 0 0 S4 stroke grestore} bind def
/D5 {gsave translate 45 rotate 0 0 S5 stroke grestore} bind def
/D6 {gsave translate 45 rotate 0 0 S6 stroke grestore} bind def
/D7 {gsave translate 45 rotate 0 0 S7 stroke grestore} bind def
/D8 {gsave translate 45 rotate 0 0 S8 stroke grestore} bind def
/D9 {gsave translate 45 rotate 0 0 S9 stroke grestore} bind def
/D10 {gsave translate 45 rotate 0 0 S10 stroke grestore} bind def
/D11 {gsave translate 45 rotate 0 0 S11 stroke grestore} bind def
/D12 {gsave translate 45 rotate 0 0 S12 stroke grestore} bind def
/D13 {gsave translate 45 rotate 0 0 S13 stroke grestore} bind def
/D14 {gsave translate 45 rotate 0 0 S14 stroke grestore} bind def
/D15 {gsave translate 45 rotate 0 0 S15 stroke grestore} bind def
/DiaE {stroke [] 0 setdash vpt add M
  hpt neg vpt neg V hpt vpt neg V
  hpt vpt V hpt neg vpt V closepath stroke} def
/BoxE {stroke [] 0 setdash exch hpt sub exch vpt add M
  0 vpt2 neg V hpt2 0 V 0 vpt2 V
  hpt2 neg 0 V closepath stroke} def
/TriUE {stroke [] 0 setdash vpt 1.12 mul add M
  hpt neg vpt -1.62 mul V
  hpt 2 mul 0 V
  hpt neg vpt 1.62 mul V closepath stroke} def
/TriDE {stroke [] 0 setdash vpt 1.12 mul sub M
  hpt neg vpt 1.62 mul V
  hpt 2 mul 0 V
  hpt neg vpt -1.62 mul V closepath stroke} def
/PentE {stroke [] 0 setdash gsave
  translate 0 hpt M 4 {72 rotate 0 hpt L} repeat
  closepath stroke grestore} def
/CircE {stroke [] 0 setdash 
  hpt 0 360 arc stroke} def
/Opaque {gsave closepath 1 setgray fill grestore 0 setgray closepath} def
/DiaW {stroke [] 0 setdash vpt add M
  hpt neg vpt neg V hpt vpt neg V
  hpt vpt V hpt neg vpt V Opaque stroke} def
/BoxW {stroke [] 0 setdash exch hpt sub exch vpt add M
  0 vpt2 neg V hpt2 0 V 0 vpt2 V
  hpt2 neg 0 V Opaque stroke} def
/TriUW {stroke [] 0 setdash vpt 1.12 mul add M
  hpt neg vpt -1.62 mul V
  hpt 2 mul 0 V
  hpt neg vpt 1.62 mul V Opaque stroke} def
/TriDW {stroke [] 0 setdash vpt 1.12 mul sub M
  hpt neg vpt 1.62 mul V
  hpt 2 mul 0 V
  hpt neg vpt -1.62 mul V Opaque stroke} def
/PentW {stroke [] 0 setdash gsave
  translate 0 hpt M 4 {72 rotate 0 hpt L} repeat
  Opaque stroke grestore} def
/CircW {stroke [] 0 setdash 
  hpt 0 360 arc Opaque stroke} def
/BoxFill {gsave Rec 1 setgray fill grestore} def
/Density {
  /Fillden exch def
  currentrgbcolor
  /ColB exch def /ColG exch def /ColR exch def
  /ColR ColR Fillden mul Fillden sub 1 add def
  /ColG ColG Fillden mul Fillden sub 1 add def
  /ColB ColB Fillden mul Fillden sub 1 add def
  ColR ColG ColB setrgbcolor} def
/BoxColFill {gsave Rec PolyFill} def
/PolyFill {gsave Density fill grestore grestore} def
/h {rlineto rlineto rlineto gsave closepath fill grestore} bind def
%
% PostScript Level 1 Pattern Fill routine for rectangles
% Usage: x y w h s a XX PatternFill
%	x,y = lower left corner of box to be filled
%	w,h = width and height of box
%	  a = angle in degrees between lines and x-axis
%	 XX = 0/1 for no/yes cross-hatch
%
/PatternFill {gsave /PFa [ 9 2 roll ] def
  PFa 0 get PFa 2 get 2 div add PFa 1 get PFa 3 get 2 div add translate
  PFa 2 get -2 div PFa 3 get -2 div PFa 2 get PFa 3 get Rec
  TransparentPatterns {} {gsave 1 setgray fill grestore} ifelse
  clip
  currentlinewidth 0.5 mul setlinewidth
  /PFs PFa 2 get dup mul PFa 3 get dup mul add sqrt def
  0 0 M PFa 5 get rotate PFs -2 div dup translate
  0 1 PFs PFa 4 get div 1 add floor cvi
	{PFa 4 get mul 0 M 0 PFs V} for
  0 PFa 6 get ne {
	0 1 PFs PFa 4 get div 1 add floor cvi
	{PFa 4 get mul 0 2 1 roll M PFs 0 V} for
 } if
  stroke grestore} def
%
/languagelevel where
 {pop languagelevel} {1} ifelse
dup 2 lt
	{/InterpretLevel1 true def
	 /InterpretLevel3 false def}
	{/InterpretLevel1 Level1 def
	 2 gt
	    {/InterpretLevel3 Level3 def}
	    {/InterpretLevel3 false def}
	 ifelse }
 ifelse
%
% PostScript level 2 pattern fill definitions
%
/Level2PatternFill {
/Tile8x8 {/PaintType 2 /PatternType 1 /TilingType 1 /BBox [0 0 8 8] /XStep 8 /YStep 8}
	bind def
/KeepColor {currentrgbcolor [/Pattern /DeviceRGB] setcolorspace} bind def
<< Tile8x8
 /PaintProc {0.5 setlinewidth pop 0 0 M 8 8 L 0 8 M 8 0 L stroke} 
>> matrix makepattern
/Pat1 exch def
<< Tile8x8
 /PaintProc {0.5 setlinewidth pop 0 0 M 8 8 L 0 8 M 8 0 L stroke
	0 4 M 4 8 L 8 4 L 4 0 L 0 4 L stroke}
>> matrix makepattern
/Pat2 exch def
<< Tile8x8
 /PaintProc {0.5 setlinewidth pop 0 0 M 0 8 L
	8 8 L 8 0 L 0 0 L fill}
>> matrix makepattern
/Pat3 exch def
<< Tile8x8
 /PaintProc {0.5 setlinewidth pop -4 8 M 8 -4 L
	0 12 M 12 0 L stroke}
>> matrix makepattern
/Pat4 exch def
<< Tile8x8
 /PaintProc {0.5 setlinewidth pop -4 0 M 8 12 L
	0 -4 M 12 8 L stroke}
>> matrix makepattern
/Pat5 exch def
<< Tile8x8
 /PaintProc {0.5 setlinewidth pop -2 8 M 4 -4 L
	0 12 M 8 -4 L 4 12 M 10 0 L stroke}
>> matrix makepattern
/Pat6 exch def
<< Tile8x8
 /PaintProc {0.5 setlinewidth pop -2 0 M 4 12 L
	0 -4 M 8 12 L 4 -4 M 10 8 L stroke}
>> matrix makepattern
/Pat7 exch def
<< Tile8x8
 /PaintProc {0.5 setlinewidth pop 8 -2 M -4 4 L
	12 0 M -4 8 L 12 4 M 0 10 L stroke}
>> matrix makepattern
/Pat8 exch def
<< Tile8x8
 /PaintProc {0.5 setlinewidth pop 0 -2 M 12 4 L
	-4 0 M 12 8 L -4 4 M 8 10 L stroke}
>> matrix makepattern
/Pat9 exch def
/Pattern1 {PatternBgnd KeepColor Pat1 setpattern} bind def
/Pattern2 {PatternBgnd KeepColor Pat2 setpattern} bind def
/Pattern3 {PatternBgnd KeepColor Pat3 setpattern} bind def
/Pattern4 {PatternBgnd KeepColor Landscape {Pat5} {Pat4} ifelse setpattern} bind def
/Pattern5 {PatternBgnd KeepColor Landscape {Pat4} {Pat5} ifelse setpattern} bind def
/Pattern6 {PatternBgnd KeepColor Landscape {Pat9} {Pat6} ifelse setpattern} bind def
/Pattern7 {PatternBgnd KeepColor Landscape {Pat8} {Pat7} ifelse setpattern} bind def
} def
%
%
%End of PostScript Level 2 code
%
/PatternBgnd {
  TransparentPatterns {} {gsave 1 setgray fill grestore} ifelse
} def
%
% Substitute for Level 2 pattern fill codes with
% grayscale if Level 2 support is not selected.
%
/Level1PatternFill {
/Pattern1 {0.250 Density} bind def
/Pattern2 {0.500 Density} bind def
/Pattern3 {0.750 Density} bind def
/Pattern4 {0.125 Density} bind def
/Pattern5 {0.375 Density} bind def
/Pattern6 {0.625 Density} bind def
/Pattern7 {0.875 Density} bind def
} def
%
% Now test for support of Level 2 code
%
Level1 {Level1PatternFill} {Level2PatternFill} ifelse
%
/Symbol-Oblique /Symbol findfont [1 0 .167 1 0 0] makefont
dup length dict begin {1 index /FID eq {pop pop} {def} ifelse} forall
currentdict end definefont pop
%
/MFshow {
   { dup 5 get 3 ge
     { 5 get 3 eq {gsave} {grestore} ifelse }
     {dup dup 0 get findfont exch 1 get scalefont setfont
     [ currentpoint ] exch dup 2 get 0 exch R dup 5 get 2 ne {dup dup 6
     get exch 4 get {textshow} {stringwidth pop 0 R} ifelse }if dup 5 get 0 eq
     {dup 3 get {2 get neg 0 exch R pop} {pop aload pop M} ifelse} {dup 5
     get 1 eq {dup 2 get exch dup 3 get exch 6 get stringwidth pop -2 div
     dup 0 R} {dup 6 get stringwidth pop -2 div 0 R 6 get
     textshow 2 index {aload pop M neg 3 -1 roll neg R pop pop} {pop pop pop
     pop aload pop M} ifelse }ifelse }ifelse }
     ifelse }
   forall} def
/Gswidth {dup type /stringtype eq {stringwidth} {pop (n) stringwidth} ifelse} def
/MFwidth {0 exch { dup 5 get 3 ge { 5 get 3 eq { 0 } { pop } ifelse }
 {dup 3 get{dup dup 0 get findfont exch 1 get scalefont setfont
     6 get Gswidth pop add} {pop} ifelse} ifelse} forall} def
/MLshow { currentpoint stroke M
  0 exch R
  Blacktext {gsave 0 setgray MFshow grestore} {MFshow} ifelse } bind def
/MRshow { currentpoint stroke M
  exch dup MFwidth neg 3 -1 roll R
  Blacktext {gsave 0 setgray MFshow grestore} {MFshow} ifelse } bind def
/MCshow { currentpoint stroke M
  exch dup MFwidth -2 div 3 -1 roll R
  Blacktext {gsave 0 setgray MFshow grestore} {MFshow} ifelse } bind def
/XYsave    { [( ) 1 2 true false 3 ()] } bind def
/XYrestore { [( ) 1 2 true false 4 ()] } bind def
Level1 SuppressPDFMark or 
{} {
/SDict 10 dict def
systemdict /pdfmark known not {
  userdict /pdfmark systemdict /cleartomark get put
} if
SDict begin [
  /Title (TcpScalable-download-rtt-100UE-250-400.eps)
  /Subject (gnuplot plot)
  /Creator (gnuplot 5.0 patchlevel 3)
  /Author (nat)
%  /Producer (gnuplot)
%  /Keywords ()
  /CreationDate (Thu Jun  2 10:39:41 2016)
  /DOCINFO pdfmark
end
} ifelse
%
% Support for boxed text - Ethan A Merritt May 2005
%
/InitTextBox { userdict /TBy2 3 -1 roll put userdict /TBx2 3 -1 roll put
           userdict /TBy1 3 -1 roll put userdict /TBx1 3 -1 roll put
	   /Boxing true def } def
/ExtendTextBox { Boxing
    { gsave dup false charpath pathbbox
      dup TBy2 gt {userdict /TBy2 3 -1 roll put} {pop} ifelse
      dup TBx2 gt {userdict /TBx2 3 -1 roll put} {pop} ifelse
      dup TBy1 lt {userdict /TBy1 3 -1 roll put} {pop} ifelse
      dup TBx1 lt {userdict /TBx1 3 -1 roll put} {pop} ifelse
      grestore } if } def
/PopTextBox { newpath TBx1 TBxmargin sub TBy1 TBymargin sub M
               TBx1 TBxmargin sub TBy2 TBymargin add L
	       TBx2 TBxmargin add TBy2 TBymargin add L
	       TBx2 TBxmargin add TBy1 TBymargin sub L closepath } def
/DrawTextBox { PopTextBox stroke /Boxing false def} def
/FillTextBox { gsave PopTextBox 1 1 1 setrgbcolor fill grestore /Boxing false def} def
0 0 0 0 InitTextBox
/TBxmargin 20 def
/TBymargin 20 def
/Boxing false def
/textshow { ExtendTextBox Gshow } def
%
% redundant definitions for compatibility with prologue.ps older than 5.0.2
/LTB {BL [] LCb DL} def
/LTb {PL [] LCb DL} def
end
%%EndProlog
%%Page: 1 1
gnudict begin
gsave
doclip
50 50 translate
0.050 0.050 scale
0 setgray
newpath
(Arial) findfont 200 scalefont setfont
BackgroundColor 0 lt 3 1 roll 0 lt exch 0 lt or or not {BackgroundColor C 1.000 0 0 14400.00 5040.00 BoxColFill} if
1.000 UL
LTb
0.00 0.00 0.00 C 0.500 UL
LTa
0.50 0.50 0.50 C 980 1000 M
12139 0 V
stroke
1.000 UL
LTb
0.00 0.00 0.00 C 980 1000 M
63 0 V
stroke
860 1000 M
[ [(Arial) 200.0 0.0 true true 0 ( 40)]
] -66.7 MRshow
1.000 UL
LTb
0.00 0.00 0.00 C 0.500 UL
LTa
0.50 0.50 0.50 C 980 1422 M
12139 0 V
stroke
1.000 UL
LTb
0.00 0.00 0.00 C 980 1422 M
63 0 V
stroke
860 1422 M
[ [(Arial) 200.0 0.0 true true 0 ( 60)]
] -66.7 MRshow
1.000 UL
LTb
0.00 0.00 0.00 C 0.500 UL
LTa
0.50 0.50 0.50 C 980 1844 M
12139 0 V
stroke
1.000 UL
LTb
0.00 0.00 0.00 C 980 1844 M
63 0 V
stroke
860 1844 M
[ [(Arial) 200.0 0.0 true true 0 ( 80)]
] -66.7 MRshow
1.000 UL
LTb
0.00 0.00 0.00 C 0.500 UL
LTa
0.50 0.50 0.50 C 980 2266 M
12139 0 V
stroke
1.000 UL
LTb
0.00 0.00 0.00 C 980 2266 M
63 0 V
stroke
860 2266 M
[ [(Arial) 200.0 0.0 true true 0 ( 100)]
] -66.7 MRshow
1.000 UL
LTb
0.00 0.00 0.00 C 0.500 UL
LTa
0.50 0.50 0.50 C 980 2688 M
12139 0 V
stroke
1.000 UL
LTb
0.00 0.00 0.00 C 980 2688 M
63 0 V
stroke
860 2688 M
[ [(Arial) 200.0 0.0 true true 0 ( 120)]
] -66.7 MRshow
1.000 UL
LTb
0.00 0.00 0.00 C 0.500 UL
LTa
0.50 0.50 0.50 C 980 3111 M
12139 0 V
stroke
1.000 UL
LTb
0.00 0.00 0.00 C 980 3111 M
63 0 V
stroke
860 3111 M
[ [(Arial) 200.0 0.0 true true 0 ( 140)]
] -66.7 MRshow
1.000 UL
LTb
0.00 0.00 0.00 C 0.500 UL
LTa
0.50 0.50 0.50 C 980 3533 M
12139 0 V
stroke
1.000 UL
LTb
0.00 0.00 0.00 C 980 3533 M
63 0 V
stroke
860 3533 M
[ [(Arial) 200.0 0.0 true true 0 ( 160)]
] -66.7 MRshow
1.000 UL
LTb
0.00 0.00 0.00 C 0.500 UL
LTa
0.50 0.50 0.50 C 980 3955 M
12139 0 V
stroke
1.000 UL
LTb
0.00 0.00 0.00 C 980 3955 M
63 0 V
stroke
860 3955 M
[ [(Arial) 200.0 0.0 true true 0 ( 180)]
] -66.7 MRshow
1.000 UL
LTb
0.00 0.00 0.00 C 0.500 UL
LTa
0.50 0.50 0.50 C 980 4377 M
12139 0 V
stroke
1.000 UL
LTb
0.00 0.00 0.00 C 980 4377 M
63 0 V
stroke
860 4377 M
[ [(Arial) 200.0 0.0 true true 0 ( 200)]
] -66.7 MRshow
1.000 UL
LTb
0.00 0.00 0.00 C 0.500 UL
LTa
0.50 0.50 0.50 C 980 4799 M
12139 0 V
stroke
1.000 UL
LTb
0.00 0.00 0.00 C 980 4799 M
63 0 V
stroke
860 4799 M
[ [(Arial) 200.0 0.0 true true 0 ( 220)]
] -66.7 MRshow
1.000 UL
LTb
0.00 0.00 0.00 C 0.500 UL
LTa
0.50 0.50 0.50 C 1359 1000 M
0 3799 V
stroke
1.000 UL
LTb
0.00 0.00 0.00 C 1359 1000 M
0 63 V
0 3736 R
0 -63 V
stroke
1359 800 M
[ [(Arial) 200.0 0.0 true true 0 ( 750)]
] -66.7 MCshow
1.000 UL
LTb
0.00 0.00 0.00 C 0.500 UL
LTa
0.50 0.50 0.50 C 2118 1000 M
0 3799 V
stroke
1.000 UL
LTb
0.00 0.00 0.00 C 2118 1000 M
0 63 V
0 3736 R
0 -63 V
stroke
2118 800 M
[ [(Arial) 200.0 0.0 true true 0 ( 780)]
] -66.7 MCshow
1.000 UL
LTb
0.00 0.00 0.00 C 0.500 UL
LTa
0.50 0.50 0.50 C 2877 1000 M
0 3799 V
stroke
1.000 UL
LTb
0.00 0.00 0.00 C 2877 1000 M
0 63 V
0 3736 R
0 -63 V
stroke
2877 800 M
[ [(Arial) 200.0 0.0 true true 0 ( 810)]
] -66.7 MCshow
1.000 UL
LTb
0.00 0.00 0.00 C 0.500 UL
LTa
0.50 0.50 0.50 C 3635 1000 M
0 3799 V
stroke
1.000 UL
LTb
0.00 0.00 0.00 C 3635 1000 M
0 63 V
0 3736 R
0 -63 V
stroke
3635 800 M
[ [(Arial) 200.0 0.0 true true 0 ( 840)]
] -66.7 MCshow
1.000 UL
LTb
0.00 0.00 0.00 C 0.500 UL
LTa
0.50 0.50 0.50 C 4394 1000 M
0 3799 V
stroke
1.000 UL
LTb
0.00 0.00 0.00 C 4394 1000 M
0 63 V
0 3736 R
0 -63 V
stroke
4394 800 M
[ [(Arial) 200.0 0.0 true true 0 ( 870)]
] -66.7 MCshow
1.000 UL
LTb
0.00 0.00 0.00 C 0.500 UL
LTa
0.50 0.50 0.50 C 5153 1000 M
0 3799 V
stroke
1.000 UL
LTb
0.00 0.00 0.00 C 5153 1000 M
0 63 V
0 3736 R
0 -63 V
stroke
5153 800 M
[ [(Arial) 200.0 0.0 true true 0 ( 900)]
] -66.7 MCshow
1.000 UL
LTb
0.00 0.00 0.00 C 0.500 UL
LTa
0.50 0.50 0.50 C 5911 1000 M
0 3799 V
stroke
1.000 UL
LTb
0.00 0.00 0.00 C 5911 1000 M
0 63 V
0 3736 R
0 -63 V
stroke
5911 800 M
[ [(Arial) 200.0 0.0 true true 0 ( 930)]
] -66.7 MCshow
1.000 UL
LTb
0.00 0.00 0.00 C 0.500 UL
LTa
0.50 0.50 0.50 C 6670 1000 M
0 3799 V
stroke
1.000 UL
LTb
0.00 0.00 0.00 C 6670 1000 M
0 63 V
0 3736 R
0 -63 V
stroke
6670 800 M
[ [(Arial) 200.0 0.0 true true 0 ( 960)]
] -66.7 MCshow
1.000 UL
LTb
0.00 0.00 0.00 C 0.500 UL
LTa
0.50 0.50 0.50 C 7429 1000 M
0 3799 V
stroke
1.000 UL
LTb
0.00 0.00 0.00 C 7429 1000 M
0 63 V
0 3736 R
0 -63 V
stroke
7429 800 M
[ [(Arial) 200.0 0.0 true true 0 ( 990)]
] -66.7 MCshow
1.000 UL
LTb
0.00 0.00 0.00 C 0.500 UL
LTa
0.50 0.50 0.50 C 8188 1000 M
0 3799 V
stroke
1.000 UL
LTb
0.00 0.00 0.00 C 8188 1000 M
0 63 V
0 3736 R
0 -63 V
stroke
8188 800 M
[ [(Arial) 200.0 0.0 true true 0 ( 1020)]
] -66.7 MCshow
1.000 UL
LTb
0.00 0.00 0.00 C 0.500 UL
LTa
0.50 0.50 0.50 C 8946 1000 M
0 3799 V
stroke
1.000 UL
LTb
0.00 0.00 0.00 C 8946 1000 M
0 63 V
0 3736 R
0 -63 V
stroke
8946 800 M
[ [(Arial) 200.0 0.0 true true 0 ( 1050)]
] -66.7 MCshow
1.000 UL
LTb
0.00 0.00 0.00 C 0.500 UL
LTa
0.50 0.50 0.50 C 9705 1000 M
0 3799 V
stroke
1.000 UL
LTb
0.00 0.00 0.00 C 9705 1000 M
0 63 V
0 3736 R
0 -63 V
stroke
9705 800 M
[ [(Arial) 200.0 0.0 true true 0 ( 1080)]
] -66.7 MCshow
1.000 UL
LTb
0.00 0.00 0.00 C 0.500 UL
LTa
0.50 0.50 0.50 C 10464 1000 M
0 3799 V
stroke
1.000 UL
LTb
0.00 0.00 0.00 C 10464 1000 M
0 63 V
0 3736 R
0 -63 V
stroke
10464 800 M
[ [(Arial) 200.0 0.0 true true 0 ( 1110)]
] -66.7 MCshow
1.000 UL
LTb
0.00 0.00 0.00 C 0.500 UL
LTa
0.50 0.50 0.50 C 11222 1000 M
0 3799 V
stroke
1.000 UL
LTb
0.00 0.00 0.00 C 11222 1000 M
0 63 V
0 3736 R
0 -63 V
stroke
11222 800 M
[ [(Arial) 200.0 0.0 true true 0 ( 1140)]
] -66.7 MCshow
1.000 UL
LTb
0.00 0.00 0.00 C 0.500 UL
LTa
0.50 0.50 0.50 C 11981 1000 M
0 3799 V
stroke
1.000 UL
LTb
0.00 0.00 0.00 C 11981 1000 M
0 63 V
0 3736 R
0 -63 V
stroke
11981 800 M
[ [(Arial) 200.0 0.0 true true 0 ( 1170)]
] -66.7 MCshow
1.000 UL
LTb
0.00 0.00 0.00 C 0.500 UL
LTa
0.50 0.50 0.50 C 12740 1000 M
0 3799 V
stroke
1.000 UL
LTb
0.00 0.00 0.00 C 12740 1000 M
0 63 V
0 3736 R
0 -63 V
stroke
12740 800 M
[ [(Arial) 200.0 0.0 true true 0 ( 1200)]
] -66.7 MCshow
1.000 UL
LTb
0.00 0.00 0.00 C 13119 1000 M
-63 0 V
stroke
13239 1000 M
[ [(Arial) 200.0 0.0 true true 0 ( 0)]
] -66.7 MLshow
1.000 UL
LTb
0.00 0.00 0.00 C 13119 1760 M
-63 0 V
stroke
13239 1760 M
[ [(Arial) 200.0 0.0 true true 0 ( 20)]
] -66.7 MLshow
1.000 UL
LTb
0.00 0.00 0.00 C 13119 2520 M
-63 0 V
stroke
13239 2520 M
[ [(Arial) 200.0 0.0 true true 0 ( 40)]
] -66.7 MLshow
1.000 UL
LTb
0.00 0.00 0.00 C 13119 3279 M
-63 0 V
stroke
13239 3279 M
[ [(Arial) 200.0 0.0 true true 0 ( 60)]
] -66.7 MLshow
1.000 UL
LTb
0.00 0.00 0.00 C 13119 4039 M
-63 0 V
stroke
13239 4039 M
[ [(Arial) 200.0 0.0 true true 0 ( 80)]
] -66.7 MLshow
1.000 UL
LTb
0.00 0.00 0.00 C 13119 4799 M
-63 0 V
stroke
13239 4799 M
[ [(Arial) 200.0 0.0 true true 0 ( 100)]
] -66.7 MLshow
1.000 UL
LTb
0.00 0.00 0.00 C 1.000 UL
LTB
0.00 0.00 0.00 C 980 4799 M
0 -3799 V
12139 0 V
0 3799 R
980 4799 M
1.000 UP
stroke
LTb
0.00 0.00 0.00 C LCb setrgbcolor
160 2899 M
currentpoint gsave translate -270 rotate 0 0 moveto
[ [(Arial) 200.0 0.0 true true 0 (RTT \(ms\))]
] -66.7 MCshow
grestore
LTb
LCb setrgbcolor
13938 2899 M
currentpoint gsave translate -270 rotate 0 0 moveto
[ [(Arial) 200.0 0.0 true true 0 (TCP delivery ratio [%])]
] -66.7 MCshow
grestore
LTb
LCb setrgbcolor
7049 500 M
[ [(Arial) 200.0 0.0 true true 0 (Local backhaul traffic traffic \(Mb/s\))]
] -66.7 MCshow
LTb
% Begin plot #1
1.000 UL
LTb
0.60 0.60 0.00 C LCb setrgbcolor
4714 333 M
[ [(Arial) 180.0 0.0 true true 0 (RTT      :   olsr)]
] -60.0 MRshow
1.000 UL
LTb
0.60 0.60 0.00 C 4822 288 333 90 80 -45 0 PatternFill
4822 288 N
333 0 V
0 90 V
-333 0 V
0 -90 V
Z stroke
1.000 UL
LTb
0.60 0.60 0.00 C 1094 1231 152 741 80 -45 0 PatternFill
1170 1177 M
0 54 V
0 741 R
0 1062 V
stroke
1094 1231 N
152 0 V
0 741 V
-152 0 V
0 -741 V
Z stroke
1094 3034 M
152 0 V
1094 1177 M
152 0 V
stroke
1852 1239 152 721 80 -45 0 PatternFill
1928 1175 M
0 64 V
0 721 R
0 1040 V
stroke
1852 1239 N
152 0 V
0 721 V
-152 0 V
0 -721 V
Z stroke
1852 3000 M
152 0 V
1852 1175 M
152 0 V
stroke
2611 1239 152 753 80 -45 0 PatternFill
2687 1175 M
0 64 V
0 753 R
0 1029 V
stroke
2611 1239 N
152 0 V
0 753 V
-152 0 V
0 -753 V
Z stroke
2611 3021 M
152 0 V
2611 1175 M
152 0 V
stroke
3370 1243 152 766 80 -45 0 PatternFill
3446 1179 M
0 64 V
0 766 R
0 1030 V
stroke
3370 1243 N
152 0 V
0 766 V
-152 0 V
0 -766 V
Z stroke
3370 3039 M
152 0 V
3370 1179 M
152 0 V
stroke
4129 1237 152 720 80 -45 0 PatternFill
4205 1174 M
0 63 V
0 720 R
0 1030 V
stroke
4129 1237 N
152 0 V
0 720 V
-152 0 V
0 -720 V
Z stroke
4129 2987 M
152 0 V
4129 1174 M
152 0 V
stroke
4887 1236 152 740 80 -45 0 PatternFill
4963 1174 M
0 62 V
0 740 R
0 1061 V
stroke
4887 1236 N
152 0 V
0 740 V
-152 0 V
0 -740 V
Z stroke
4887 3037 M
152 0 V
4887 1174 M
152 0 V
stroke
5646 1238 152 749 80 -45 0 PatternFill
5722 1180 M
0 58 V
0 749 R
0 1079 V
stroke
5646 1238 N
152 0 V
0 749 V
-152 0 V
0 -749 V
Z stroke
5646 3066 M
152 0 V
5646 1180 M
152 0 V
stroke
6405 1244 152 758 80 -45 0 PatternFill
6481 1181 M
0 63 V
0 758 R
0 1044 V
stroke
6405 1244 N
152 0 V
0 758 V
-152 0 V
0 -758 V
Z stroke
6405 3046 M
152 0 V
6405 1181 M
152 0 V
stroke
7163 1244 152 766 80 -45 0 PatternFill
7239 1179 M
0 65 V
0 766 R
0 1019 V
stroke
7163 1244 N
152 0 V
0 766 V
-152 0 V
0 -766 V
Z stroke
7163 3029 M
152 0 V
7163 1179 M
152 0 V
stroke
7922 1243 152 726 80 -45 0 PatternFill
7998 1177 M
0 66 V
0 726 R
0 1029 V
stroke
7922 1243 N
152 0 V
0 726 V
-152 0 V
0 -726 V
Z stroke
7922 2998 M
152 0 V
7922 1177 M
152 0 V
stroke
8681 1249 152 709 80 -45 0 PatternFill
8757 1185 M
0 64 V
0 709 R
0 972 V
stroke
8681 1249 N
152 0 V
0 709 V
-152 0 V
0 -709 V
Z stroke
8681 2930 M
152 0 V
8681 1185 M
152 0 V
stroke
9439 1243 152 670 80 -45 0 PatternFill
9515 1179 M
0 64 V
0 670 R
0 1005 V
stroke
9439 1243 N
152 0 V
0 670 V
-152 0 V
0 -670 V
Z stroke
9439 2918 M
152 0 V
9439 1179 M
152 0 V
stroke
10198 1237 152 591 80 -45 0 PatternFill
10274 1174 M
0 63 V
0 591 R
0 981 V
stroke
10198 1237 N
152 0 V
0 591 V
-152 0 V
0 -591 V
Z stroke
10198 2809 M
152 0 V
10198 1174 M
152 0 V
stroke
10957 1240 152 520 80 -45 0 PatternFill
11033 1179 M
0 61 V
0 520 R
0 889 V
stroke
10957 1240 N
152 0 V
0 520 V
-152 0 V
0 -520 V
Z stroke
10957 2649 M
152 0 V
10957 1179 M
152 0 V
stroke
11715 1239 152 474 80 -45 0 PatternFill
11791 1177 M
0 62 V
0 474 R
0 983 V
stroke
11715 1239 N
152 0 V
0 474 V
-152 0 V
0 -474 V
Z stroke
11715 2696 M
152 0 V
11715 1177 M
152 0 V
stroke
12474 1243 152 496 80 -45 0 PatternFill
12550 1177 M
0 66 V
0 496 R
0 871 V
stroke
12474 1243 N
152 0 V
0 496 V
-152 0 V
0 -496 V
Z stroke
12474 2610 M
152 0 V
12474 1177 M
152 0 V
% End plot #1
% Begin plot #2
stroke
LTb
LCb setrgbcolor

 /TransparentPatterns true def
1094 1657 152 0 40 30 0 PatternFill
1170 1657 M
stroke
1094 1657 N
152 0 V
-152 0 V
Z stroke
1094 1657 M
152 0 V
-152 0 R
152 0 V
stroke

 /TransparentPatterns true def
1852 1646 152 0 40 30 0 PatternFill
1928 1646 M
stroke
1852 1646 N
152 0 V
-152 0 V
Z stroke
1852 1646 M
152 0 V
-152 0 R
152 0 V
stroke

 /TransparentPatterns true def
2611 1660 152 0 40 30 0 PatternFill
2687 1660 M
stroke
2611 1660 N
152 0 V
-152 0 V
Z stroke
2611 1660 M
152 0 V
-152 0 R
152 0 V
stroke

 /TransparentPatterns true def
3370 1679 152 0 40 30 0 PatternFill
3446 1679 M
stroke
3370 1679 N
152 0 V
-152 0 V
Z stroke
3370 1679 M
152 0 V
-152 0 R
152 0 V
stroke

 /TransparentPatterns true def
4129 1651 152 0 40 30 0 PatternFill
4205 1651 M
stroke
4129 1651 N
152 0 V
-152 0 V
Z stroke
4129 1651 M
152 0 V
-152 0 R
152 0 V
stroke

 /TransparentPatterns true def
4887 1658 152 0 40 30 0 PatternFill
4963 1658 M
stroke
4887 1658 N
152 0 V
-152 0 V
Z stroke
4887 1658 M
152 0 V
-152 0 R
152 0 V
stroke

 /TransparentPatterns true def
5646 1663 152 0 40 30 0 PatternFill
5722 1663 M
stroke
5646 1663 N
152 0 V
-152 0 V
Z stroke
5646 1663 M
152 0 V
-152 0 R
152 0 V
stroke

 /TransparentPatterns true def
6405 1666 152 0 40 30 0 PatternFill
6481 1666 M
stroke
6405 1666 N
152 0 V
-152 0 V
Z stroke
6405 1666 M
152 0 V
-152 0 R
152 0 V
stroke

 /TransparentPatterns true def
7163 1669 152 0 40 30 0 PatternFill
7239 1669 M
stroke
7163 1669 N
152 0 V
-152 0 V
Z stroke
7163 1669 M
152 0 V
-152 0 R
152 0 V
stroke

 /TransparentPatterns true def
7922 1654 152 0 40 30 0 PatternFill
7998 1654 M
stroke
7922 1654 N
152 0 V
-152 0 V
Z stroke
7922 1654 M
152 0 V
-152 0 R
152 0 V
stroke

 /TransparentPatterns true def
8681 1654 152 0 40 30 0 PatternFill
8757 1654 M
stroke
8681 1654 N
152 0 V
-152 0 V
Z stroke
8681 1654 M
152 0 V
-152 0 R
152 0 V
stroke

 /TransparentPatterns true def
9439 1629 152 0 40 30 0 PatternFill
9515 1629 M
stroke
9439 1629 N
152 0 V
-152 0 V
Z stroke
9439 1629 M
152 0 V
-152 0 R
152 0 V
stroke

 /TransparentPatterns true def
10198 1596 152 0 40 30 0 PatternFill
10274 1596 M
stroke
10198 1596 N
152 0 V
-152 0 V
Z stroke
10198 1596 M
152 0 V
-152 0 R
152 0 V
stroke

 /TransparentPatterns true def
10957 1561 152 0 40 30 0 PatternFill
11033 1561 M
stroke
10957 1561 N
152 0 V
-152 0 V
Z stroke
10957 1561 M
152 0 V
-152 0 R
152 0 V
stroke

 /TransparentPatterns true def
11715 1552 152 0 40 30 0 PatternFill
11791 1552 M
stroke
11715 1552 N
152 0 V
-152 0 V
Z stroke
11715 1552 M
152 0 V
-152 0 R
152 0 V
stroke

 /TransparentPatterns true def
12474 1553 152 0 40 30 0 PatternFill
12550 1553 M
stroke
12474 1553 N
152 0 V
-152 0 V
Z stroke
12474 1553 M
152 0 V
-152 0 R
152 0 V
% End plot #2
% Begin plot #3
2.000 UP
stroke
LTa
0.60 0.60 0.00 C LCb setrgbcolor
4714 153 M
[ [(Arial) 180.0 0.0 true true 0 (app. received bytes :         )]
] -60.0 MRshow
2.000 UP
1.000 UL
LTa
0.60 0.60 0.00 C 4822 153 M
333 0 V
980 4723 M
190 0 V
758 0 V
759 0 V
759 0 V
758 0 V
759 0 V
759 0 V
758 0 V
759 0 V
759 0 V
759 0 V
758 0 V
759 0 V
759 0 V
758 0 V
759 0 V
1170 4723 Box
1928 4723 Box
2687 4723 Box
3446 4723 Box
4204 4723 Box
4963 4723 Box
5722 4723 Box
6480 4723 Box
7239 4723 Box
7998 4723 Box
8757 4723 Box
9515 4723 Box
10274 4723 Box
11033 4723 Box
11791 4723 Box
12550 4723 Box
4988 153 Box
% End plot #3
% Begin plot #4
1.000 UL
LTb
0.00 0.00 0.63 C LCb setrgbcolor
8287 333 M
[ [(Arial) 180.0 0.0 true true 0 (per-packet)]
] -60.0 MRshow
1.000 UL
LTb
0.00 0.00 0.63 C 8395 288 333 90 80 45 0 PatternFill
8395 288 N
333 0 V
0 90 V
-333 0 V
0 -90 V
Z stroke
1.000 UL
LTb
0.00 0.00 0.63 C 1283 1257 152 967 80 45 0 PatternFill
1359 1178 M
0 79 V
0 967 R
0 761 V
stroke
1283 1257 N
152 0 V
0 967 V
-152 0 V
0 -967 V
Z stroke
1283 2985 M
152 0 V
1283 1178 M
152 0 V
stroke
2042 1250 152 836 80 45 0 PatternFill
2118 1171 M
0 79 V
0 836 R
0 883 V
stroke
2042 1250 N
152 0 V
0 836 V
-152 0 V
0 -836 V
Z stroke
2042 2969 M
152 0 V
2042 1171 M
152 0 V
stroke
2801 1242 152 857 80 45 0 PatternFill
2877 1172 M
0 70 V
0 857 R
0 800 V
stroke
2801 1242 N
152 0 V
0 857 V
-152 0 V
0 -857 V
Z stroke
2801 2899 M
152 0 V
2801 1172 M
152 0 V
stroke
3560 1248 152 863 80 45 0 PatternFill
3636 1177 M
0 71 V
0 863 R
0 790 V
stroke
3560 1248 N
152 0 V
0 863 V
-152 0 V
0 -863 V
Z stroke
3560 2901 M
152 0 V
3560 1177 M
152 0 V
stroke
4318 1244 152 898 80 45 0 PatternFill
4394 1169 M
0 75 V
0 898 R
0 903 V
stroke
4318 1244 N
152 0 V
0 898 V
-152 0 V
0 -898 V
Z stroke
4318 3045 M
152 0 V
4318 1169 M
152 0 V
stroke
5077 1243 152 829 80 45 0 PatternFill
5153 1170 M
0 73 V
0 829 R
0 803 V
stroke
5077 1243 N
152 0 V
0 829 V
-152 0 V
0 -829 V
Z stroke
5077 2875 M
152 0 V
5077 1170 M
152 0 V
stroke
5836 1274 152 882 80 45 0 PatternFill
5912 1180 M
0 94 V
0 882 R
0 699 V
stroke
5836 1274 N
152 0 V
0 882 V
-152 0 V
0 -882 V
Z stroke
5836 2855 M
152 0 V
5836 1180 M
152 0 V
stroke
6594 1237 152 757 80 45 0 PatternFill
6670 1171 M
0 66 V
0 757 R
0 751 V
stroke
6594 1237 N
152 0 V
0 757 V
-152 0 V
0 -757 V
Z stroke
6594 2745 M
152 0 V
6594 1171 M
152 0 V
stroke
7353 1263 152 891 80 45 0 PatternFill
7429 1177 M
0 86 V
0 891 R
0 785 V
stroke
7353 1263 N
152 0 V
0 891 V
-152 0 V
0 -891 V
Z stroke
7353 2939 M
152 0 V
7353 1177 M
152 0 V
stroke
8112 1240 152 878 80 45 0 PatternFill
8188 1171 M
0 69 V
0 878 R
0 870 V
stroke
8112 1240 N
152 0 V
0 878 V
-152 0 V
0 -878 V
Z stroke
8112 2988 M
152 0 V
8112 1171 M
152 0 V
stroke
8870 1243 152 816 80 45 0 PatternFill
8946 1175 M
0 68 V
0 816 R
0 812 V
stroke
8870 1243 N
152 0 V
0 816 V
-152 0 V
0 -816 V
Z stroke
8870 2871 M
152 0 V
8870 1175 M
152 0 V
stroke
9629 1245 152 789 80 45 0 PatternFill
9705 1173 M
0 72 V
0 789 R
0 818 V
stroke
9629 1245 N
152 0 V
0 789 V
-152 0 V
0 -789 V
Z stroke
9629 2852 M
152 0 V
9629 1173 M
152 0 V
stroke
10388 1257 152 820 80 45 0 PatternFill
10464 1182 M
0 75 V
0 820 R
0 795 V
stroke
10388 1257 N
152 0 V
0 820 V
-152 0 V
0 -820 V
Z stroke
10388 2872 M
152 0 V
10388 1182 M
152 0 V
stroke
11146 1245 152 829 80 45 0 PatternFill
11222 1177 M
0 68 V
0 829 R
0 758 V
stroke
11146 1245 N
152 0 V
0 829 V
-152 0 V
0 -829 V
Z stroke
11146 2832 M
152 0 V
11146 1177 M
152 0 V
stroke
11905 1259 152 724 80 45 0 PatternFill
11981 1182 M
0 77 V
0 724 R
0 738 V
stroke
11905 1259 N
152 0 V
0 724 V
-152 0 V
0 -724 V
Z stroke
11905 2721 M
152 0 V
11905 1182 M
152 0 V
stroke
12664 1262 152 726 80 45 0 PatternFill
12740 1182 M
0 80 V
0 726 R
0 714 V
stroke
12664 1262 N
152 0 V
0 726 V
-152 0 V
0 -726 V
Z stroke
12664 2702 M
152 0 V
12664 1182 M
152 0 V
% End plot #4
% Begin plot #5
stroke
LTb
LCb setrgbcolor

 /TransparentPatterns true def
1283 1765 152 0 80 -45 0 PatternFill
1359 1765 M
stroke
1283 1765 N
152 0 V
-152 0 V
Z stroke
1283 1765 M
152 0 V
-152 0 R
152 0 V
stroke

 /TransparentPatterns true def
2042 1706 152 0 80 -45 0 PatternFill
2118 1706 M
stroke
2042 1706 N
152 0 V
-152 0 V
Z stroke
2042 1706 M
152 0 V
-152 0 R
152 0 V
stroke

 /TransparentPatterns true def
2801 1676 152 0 80 -45 0 PatternFill
2877 1676 M
stroke
2801 1676 N
152 0 V
-152 0 V
Z stroke
2801 1676 M
152 0 V
-152 0 R
152 0 V
stroke

 /TransparentPatterns true def
3560 1697 152 0 80 -45 0 PatternFill
3636 1697 M
stroke
3560 1697 N
152 0 V
-152 0 V
Z stroke
3560 1697 M
152 0 V
-152 0 R
152 0 V
stroke

 /TransparentPatterns true def
4318 1719 152 0 80 -45 0 PatternFill
4394 1719 M
stroke
4318 1719 N
152 0 V
-152 0 V
Z stroke
4318 1719 M
152 0 V
-152 0 R
152 0 V
stroke

 /TransparentPatterns true def
5077 1682 152 0 80 -45 0 PatternFill
5153 1682 M
stroke
5077 1682 N
152 0 V
-152 0 V
Z stroke
5077 1682 M
152 0 V
-152 0 R
152 0 V
stroke

 /TransparentPatterns true def
5836 1731 152 0 80 -45 0 PatternFill
5912 1731 M
stroke
5836 1731 N
152 0 V
-152 0 V
Z stroke
5836 1731 M
152 0 V
-152 0 R
152 0 V
stroke

 /TransparentPatterns true def
6594 1634 152 0 80 -45 0 PatternFill
6670 1634 M
stroke
6594 1634 N
152 0 V
-152 0 V
Z stroke
6594 1634 M
152 0 V
-152 0 R
152 0 V
stroke

 /TransparentPatterns true def
7353 1735 152 0 80 -45 0 PatternFill
7429 1735 M
stroke
7353 1735 N
152 0 V
-152 0 V
Z stroke
7353 1735 M
152 0 V
-152 0 R
152 0 V
stroke

 /TransparentPatterns true def
8112 1698 152 0 80 -45 0 PatternFill
8188 1698 M
stroke
8112 1698 N
152 0 V
-152 0 V
Z stroke
8112 1698 M
152 0 V
-152 0 R
152 0 V
stroke

 /TransparentPatterns true def
8870 1674 152 0 80 -45 0 PatternFill
8946 1674 M
stroke
8870 1674 N
152 0 V
-152 0 V
Z stroke
8870 1674 M
152 0 V
-152 0 R
152 0 V
stroke

 /TransparentPatterns true def
9629 1666 152 0 80 -45 0 PatternFill
9705 1666 M
stroke
9629 1666 N
152 0 V
-152 0 V
Z stroke
9629 1666 M
152 0 V
-152 0 R
152 0 V
stroke

 /TransparentPatterns true def
10388 1685 152 0 80 -45 0 PatternFill
10464 1685 M
stroke
10388 1685 N
152 0 V
-152 0 V
Z stroke
10388 1685 M
152 0 V
-152 0 R
152 0 V
stroke

 /TransparentPatterns true def
11146 1672 152 0 80 -45 0 PatternFill
11222 1672 M
stroke
11146 1672 N
152 0 V
-152 0 V
Z stroke
11146 1672 M
152 0 V
-152 0 R
152 0 V
stroke

 /TransparentPatterns true def
11905 1642 152 0 80 -45 0 PatternFill
11981 1642 M
stroke
11905 1642 N
152 0 V
-152 0 V
Z stroke
11905 1642 M
152 0 V
-152 0 R
152 0 V
stroke

 /TransparentPatterns true def
12664 1640 152 0 80 -45 0 PatternFill
12740 1640 M
stroke
12664 1640 N
152 0 V
-152 0 V
Z stroke
12664 1640 M
152 0 V
-152 0 R
152 0 V
% End plot #5
% Begin plot #6
2.000 UP
stroke
LTa
0.00 0.00 0.63 C LCb setrgbcolor
8287 153 M
[ [(Arial) 180.0 0.0 true true 0 ( )]
] -60.0 MRshow
2.000 UP
1.000 UL
LTa
0.00 0.00 0.63 C 8395 153 M
333 0 V
980 4723 M
379 0 V
759 0 V
759 0 V
758 0 V
759 0 V
759 0 V
758 0 V
759 0 V
759 0 V
759 0 V
758 0 V
759 0 V
759 0 V
758 0 V
759 0 V
759 0 V
1359 4723 Circle
2118 4723 Circle
2877 4723 Circle
3635 4723 Circle
4394 4723 Circle
5153 4723 Circle
5911 4723 Circle
6670 4723 Circle
7429 4723 Circle
8188 4723 Circle
8946 4723 Circle
9705 4723 Circle
10464 4723 Circle
11222 4723 Circle
11981 4723 Circle
12740 4723 Circle
8561 153 Circle
% End plot #6
% Begin plot #7
1.000 UL
LTb
0.00 0.38 0.82 C LCb setrgbcolor
11860 333 M
[ [(Arial) 180.0 0.0 true true 0 (per-flow)]
] -60.0 MRshow
1.000 UL
LTb
0.00 0.38 0.82 C 11968 288 333 90 40 30 0 PatternFill
11968 288 N
333 0 V
0 90 V
-333 0 V
0 -90 V
Z stroke
1.000 UL
LTb
0.00 0.38 0.82 C 1473 1378 152 1729 40 30 0 PatternFill
1549 1226 M
0 152 V
0 1729 R
0 1383 V
stroke
1473 1378 N
152 0 V
0 1729 V
-152 0 V
0 -1729 V
Z stroke
1473 4490 M
152 0 V
1473 1226 M
152 0 V
stroke
2232 1356 152 1511 40 30 0 PatternFill
2308 1209 M
0 147 V
0 1511 R
0 1518 V
stroke
2232 1356 N
152 0 V
0 1511 V
-152 0 V
0 -1511 V
Z stroke
2232 4385 M
152 0 V
2232 1209 M
152 0 V
stroke
2991 1341 152 1491 40 30 0 PatternFill
3067 1208 M
0 133 V
0 1491 R
0 1355 V
stroke
2991 1341 N
152 0 V
0 1491 V
-152 0 V
0 -1491 V
Z stroke
2991 4187 M
152 0 V
2991 1208 M
152 0 V
stroke
3749 1316 152 1680 40 30 0 PatternFill
3825 1204 M
0 112 V
0 1680 R
0 1319 V
stroke
3749 1316 N
152 0 V
0 1680 V
-152 0 V
0 -1680 V
Z stroke
3749 4315 M
152 0 V
3749 1204 M
152 0 V
stroke
4508 1383 152 1657 40 30 0 PatternFill
4584 1222 M
0 161 V
0 1657 R
0 1512 V
stroke
4508 1383 N
152 0 V
0 1657 V
-152 0 V
0 -1657 V
Z stroke
4508 4552 M
152 0 V
4508 1222 M
152 0 V
stroke
5267 1356 152 1651 40 30 0 PatternFill
5343 1219 M
0 137 V
0 1651 R
0 1435 V
stroke
5267 1356 N
152 0 V
0 1651 V
-152 0 V
0 -1651 V
Z stroke
5267 4442 M
152 0 V
5267 1219 M
152 0 V
stroke
6025 1374 152 1628 40 30 0 PatternFill
6101 1227 M
0 147 V
0 1628 R
0 1219 V
stroke
6025 1374 N
152 0 V
0 1628 V
-152 0 V
0 -1628 V
Z stroke
6025 4221 M
152 0 V
6025 1227 M
152 0 V
stroke
6784 1394 152 1680 40 30 0 PatternFill
6860 1230 M
0 164 V
0 1680 R
0 1524 V
stroke
6784 1394 N
152 0 V
0 1680 V
-152 0 V
0 -1680 V
Z stroke
6784 4598 M
152 0 V
6784 1230 M
152 0 V
stroke
7543 1394 152 1682 40 30 0 PatternFill
7619 1238 M
0 156 V
0 1682 R
0 1473 V
stroke
7543 1394 N
152 0 V
0 1682 V
-152 0 V
0 -1682 V
Z stroke
7543 4549 M
152 0 V
7543 1238 M
152 0 V
stroke
8301 1340 152 1536 40 30 0 PatternFill
8377 1221 M
0 119 V
0 1536 R
0 1362 V
stroke
8301 1340 N
152 0 V
0 1536 V
-152 0 V
0 -1536 V
Z stroke
8301 4238 M
152 0 V
8301 1221 M
152 0 V
stroke
9060 1314 152 1468 40 30 0 PatternFill
9136 1208 M
0 106 V
0 1468 R
0 1431 V
stroke
9060 1314 N
152 0 V
0 1468 V
-152 0 V
0 -1468 V
Z stroke
9060 4213 M
152 0 V
9060 1208 M
152 0 V
stroke
9819 1381 152 1571 40 30 0 PatternFill
9895 1230 M
0 151 V
0 1571 R
0 1468 V
stroke
9819 1381 N
152 0 V
0 1571 V
-152 0 V
0 -1571 V
Z stroke
9819 4420 M
152 0 V
9819 1230 M
152 0 V
stroke
10577 1337 152 1503 40 30 0 PatternFill
10653 1220 M
0 117 V
0 1503 R
0 1414 V
stroke
10577 1337 N
152 0 V
0 1503 V
-152 0 V
0 -1503 V
Z stroke
10577 4254 M
152 0 V
10577 1220 M
152 0 V
stroke
11336 1351 152 1253 40 30 0 PatternFill
11412 1221 M
0 130 V
0 1253 R
0 1309 V
stroke
11336 1351 N
152 0 V
0 1253 V
-152 0 V
0 -1253 V
Z stroke
11336 3913 M
152 0 V
11336 1221 M
152 0 V
stroke
12095 1365 152 1399 40 30 0 PatternFill
12171 1234 M
0 131 V
0 1399 R
0 1346 V
stroke
12095 1365 N
152 0 V
0 1399 V
-152 0 V
0 -1399 V
Z stroke
12095 4110 M
152 0 V
12095 1234 M
152 0 V
stroke
12853 1382 152 1168 40 30 0 PatternFill
12929 1233 M
0 149 V
0 1168 R
0 1208 V
stroke
12853 1382 N
152 0 V
0 1168 V
-152 0 V
0 -1168 V
Z stroke
12853 3758 M
152 0 V
12853 1233 M
152 0 V
% End plot #7
% Begin plot #8
stroke
LTb
LCb setrgbcolor

 /TransparentPatterns true def
1473 2290 152 0 40 -30 0 PatternFill
1549 2290 M
stroke
1473 2290 N
152 0 V
-152 0 V
Z stroke
1473 2290 M
152 0 V
-152 0 R
152 0 V
stroke

 /TransparentPatterns true def
2232 2167 152 0 40 -30 0 PatternFill
2308 2167 M
stroke
2232 2167 N
152 0 V
-152 0 V
Z stroke
2232 2167 M
152 0 V
-152 0 R
152 0 V
stroke

 /TransparentPatterns true def
2991 2135 152 0 40 -30 0 PatternFill
3067 2135 M
stroke
2991 2135 N
152 0 V
-152 0 V
Z stroke
2991 2135 M
152 0 V
-152 0 R
152 0 V
stroke

 /TransparentPatterns true def
3749 2159 152 0 40 -30 0 PatternFill
3825 2159 M
stroke
3749 2159 N
152 0 V
-152 0 V
Z stroke
3749 2159 M
152 0 V
-152 0 R
152 0 V
stroke

 /TransparentPatterns true def
4508 2250 152 0 40 -30 0 PatternFill
4584 2250 M
stroke
4508 2250 N
152 0 V
-152 0 V
Z stroke
4508 2250 M
152 0 V
-152 0 R
152 0 V
stroke

 /TransparentPatterns true def
5267 2210 152 0 40 -30 0 PatternFill
5343 2210 M
stroke
5267 2210 N
152 0 V
-152 0 V
Z stroke
5267 2210 M
152 0 V
-152 0 R
152 0 V
stroke

 /TransparentPatterns true def
6025 2214 152 0 40 -30 0 PatternFill
6101 2214 M
stroke
6025 2214 N
152 0 V
-152 0 V
Z stroke
6025 2214 M
152 0 V
-152 0 R
152 0 V
stroke

 /TransparentPatterns true def
6784 2278 152 0 40 -30 0 PatternFill
6860 2278 M
stroke
6784 2278 N
152 0 V
-152 0 V
Z stroke
6784 2278 M
152 0 V
-152 0 R
152 0 V
stroke

 /TransparentPatterns true def
7543 2257 152 0 40 -30 0 PatternFill
7619 2257 M
stroke
7543 2257 N
152 0 V
-152 0 V
Z stroke
7543 2257 M
152 0 V
-152 0 R
152 0 V
stroke

 /TransparentPatterns true def
8301 2139 152 0 40 -30 0 PatternFill
8377 2139 M
stroke
8301 2139 N
152 0 V
-152 0 V
Z stroke
8301 2139 M
152 0 V
-152 0 R
152 0 V
stroke

 /TransparentPatterns true def
9060 2076 152 0 40 -30 0 PatternFill
9136 2076 M
stroke
9060 2076 N
152 0 V
-152 0 V
Z stroke
9060 2076 M
152 0 V
-152 0 R
152 0 V
stroke

 /TransparentPatterns true def
9819 2215 152 0 40 -30 0 PatternFill
9895 2215 M
stroke
9819 2215 N
152 0 V
-152 0 V
Z stroke
9819 2215 M
152 0 V
-152 0 R
152 0 V
stroke

 /TransparentPatterns true def
10577 2114 152 0 40 -30 0 PatternFill
10653 2114 M
stroke
10577 2114 N
152 0 V
-152 0 V
Z stroke
10577 2114 M
152 0 V
-152 0 R
152 0 V
stroke

 /TransparentPatterns true def
11336 2014 152 0 40 -30 0 PatternFill
11412 2014 M
stroke
11336 2014 N
152 0 V
-152 0 V
Z stroke
11336 2014 M
152 0 V
-152 0 R
152 0 V
stroke

 /TransparentPatterns true def
12095 2099 152 0 40 -30 0 PatternFill
12171 2099 M
stroke
12095 2099 N
152 0 V
-152 0 V
Z stroke
12095 2099 M
152 0 V
-152 0 R
152 0 V
stroke

 /TransparentPatterns true def
12853 2009 152 0 40 -30 0 PatternFill
12929 2009 M
stroke
12853 2009 N
152 0 V
-152 0 V
Z stroke
12853 2009 M
152 0 V
-152 0 R
152 0 V
% End plot #8
% Begin plot #9
2.000 UP
stroke
LTa
0.00 0.38 0.82 C LCb setrgbcolor
11860 153 M
[ [(Arial) 180.0 0.0 true true 0 ( )]
] -60.0 MRshow
2.000 UP
1.000 UL
LTa
0.00 0.38 0.82 C 11968 153 M
333 0 V
980 4723 M
569 0 V
759 0 V
758 0 V
759 0 V
759 0 V
758 0 V
759 0 V
759 0 V
759 0 V
758 0 V
759 0 V
759 0 V
758 0 V
759 0 V
759 0 V
758 0 V
1549 4723 TriU
2308 4723 TriU
3066 4723 TriU
3825 4723 TriU
4584 4723 TriU
5342 4723 TriU
6101 4723 TriU
6860 4723 TriU
7619 4723 TriU
8377 4723 TriU
9136 4723 TriU
9895 4723 TriU
10653 4723 TriU
11412 4723 TriU
12171 4723 TriU
12929 4723 TriU
12134 153 TriU
% End plot #9
2.000 UL
LTb
LCb setrgbcolor
1.000 UP
1.000 UL
LTb
0.00 0.00 0.00 C stroke
grestore
end
showpage
%%Trailer
%%DocumentFonts: Arial
