%!PS-Adobe-2.0 EPSF-2.0
%%Title: TcpVegas-download-rtt-100UE-90-240.eps
%%Creator: gnuplot 5.0 patchlevel 3
%%CreationDate: Thu Jun  2 10:39:41 2016
%%DocumentFonts: (atend)
%%BoundingBox: 50 50 770 302
%%EndComments
%%BeginProlog
/gnudict 256 dict def
gnudict begin
%
% The following true/false flags may be edited by hand if desired.
% The unit line width and grayscale image gamma correction may also be changed.
%
/Color true def
/Blacktext false def
/Solid false def
/Dashlength 3 def
/Landscape false def
/Level1 false def
/Level3 false def
/Rounded false def
/ClipToBoundingBox false def
/SuppressPDFMark false def
/TransparentPatterns false def
/gnulinewidth 15.000 def
/userlinewidth gnulinewidth def
/Gamma 1.0 def
/BackgroundColor {-1.000 -1.000 -1.000} def
%
/vshift -66 def
/dl1 {
  10.0 Dashlength userlinewidth gnulinewidth div mul mul mul
  Rounded { currentlinewidth 0.75 mul sub dup 0 le { pop 0.01 } if } if
} def
/dl2 {
  10.0 Dashlength userlinewidth gnulinewidth div mul mul mul
  Rounded { currentlinewidth 0.75 mul add } if
} def
/hpt_ 31.5 def
/vpt_ 31.5 def
/hpt hpt_ def
/vpt vpt_ def
/doclip {
  ClipToBoundingBox {
    newpath 50 50 moveto 770 50 lineto 770 302 lineto 50 302 lineto closepath
    clip
  } if
} def
%
% Gnuplot Prolog Version 5.1 (Oct 2015)
%
%/SuppressPDFMark true def
%
/M {moveto} bind def
/L {lineto} bind def
/R {rmoveto} bind def
/V {rlineto} bind def
/N {newpath moveto} bind def
/Z {closepath} bind def
/C {setrgbcolor} bind def
/f {rlineto fill} bind def
/g {setgray} bind def
/Gshow {show} def   % May be redefined later in the file to support UTF-8
/vpt2 vpt 2 mul def
/hpt2 hpt 2 mul def
/Lshow {currentpoint stroke M 0 vshift R 
	Blacktext {gsave 0 setgray textshow grestore} {textshow} ifelse} def
/Rshow {currentpoint stroke M dup stringwidth pop neg vshift R
	Blacktext {gsave 0 setgray textshow grestore} {textshow} ifelse} def
/Cshow {currentpoint stroke M dup stringwidth pop -2 div vshift R 
	Blacktext {gsave 0 setgray textshow grestore} {textshow} ifelse} def
/UP {dup vpt_ mul /vpt exch def hpt_ mul /hpt exch def
  /hpt2 hpt 2 mul def /vpt2 vpt 2 mul def} def
/DL {Color {setrgbcolor Solid {pop []} if 0 setdash}
 {pop pop pop 0 setgray Solid {pop []} if 0 setdash} ifelse} def
/BL {stroke userlinewidth 2 mul setlinewidth
	Rounded {1 setlinejoin 1 setlinecap} if} def
/AL {stroke userlinewidth 2 div setlinewidth
	Rounded {1 setlinejoin 1 setlinecap} if} def
/UL {dup gnulinewidth mul /userlinewidth exch def
	dup 1 lt {pop 1} if 10 mul /udl exch def} def
/PL {stroke userlinewidth setlinewidth
	Rounded {1 setlinejoin 1 setlinecap} if} def
3.8 setmiterlimit
% Classic Line colors (version 5.0)
/LCw {1 1 1} def
/LCb {0 0 0} def
/LCa {0 0 0} def
/LC0 {1 0 0} def
/LC1 {0 1 0} def
/LC2 {0 0 1} def
/LC3 {1 0 1} def
/LC4 {0 1 1} def
/LC5 {1 1 0} def
/LC6 {0 0 0} def
/LC7 {1 0.3 0} def
/LC8 {0.5 0.5 0.5} def
% Default dash patterns (version 5.0)
/LTB {BL [] LCb DL} def
/LTw {PL [] 1 setgray} def
/LTb {PL [] LCb DL} def
/LTa {AL [1 udl mul 2 udl mul] 0 setdash LCa setrgbcolor} def
/LT0 {PL [] LC0 DL} def
/LT1 {PL [2 dl1 3 dl2] LC1 DL} def
/LT2 {PL [1 dl1 1.5 dl2] LC2 DL} def
/LT3 {PL [6 dl1 2 dl2 1 dl1 2 dl2] LC3 DL} def
/LT4 {PL [1 dl1 2 dl2 6 dl1 2 dl2 1 dl1 2 dl2] LC4 DL} def
/LT5 {PL [4 dl1 2 dl2] LC5 DL} def
/LT6 {PL [1.5 dl1 1.5 dl2 1.5 dl1 1.5 dl2 1.5 dl1 6 dl2] LC6 DL} def
/LT7 {PL [3 dl1 3 dl2 1 dl1 3 dl2] LC7 DL} def
/LT8 {PL [2 dl1 2 dl2 2 dl1 6 dl2] LC8 DL} def
/SL {[] 0 setdash} def
/Pnt {stroke [] 0 setdash gsave 1 setlinecap M 0 0 V stroke grestore} def
/Dia {stroke [] 0 setdash 2 copy vpt add M
  hpt neg vpt neg V hpt vpt neg V
  hpt vpt V hpt neg vpt V closepath stroke
  Pnt} def
/Pls {stroke [] 0 setdash vpt sub M 0 vpt2 V
  currentpoint stroke M
  hpt neg vpt neg R hpt2 0 V stroke
 } def
/Box {stroke [] 0 setdash 2 copy exch hpt sub exch vpt add M
  0 vpt2 neg V hpt2 0 V 0 vpt2 V
  hpt2 neg 0 V closepath stroke
  Pnt} def
/Crs {stroke [] 0 setdash exch hpt sub exch vpt add M
  hpt2 vpt2 neg V currentpoint stroke M
  hpt2 neg 0 R hpt2 vpt2 V stroke} def
/TriU {stroke [] 0 setdash 2 copy vpt 1.12 mul add M
  hpt neg vpt -1.62 mul V
  hpt 2 mul 0 V
  hpt neg vpt 1.62 mul V closepath stroke
  Pnt} def
/Star {2 copy Pls Crs} def
/BoxF {stroke [] 0 setdash exch hpt sub exch vpt add M
  0 vpt2 neg V hpt2 0 V 0 vpt2 V
  hpt2 neg 0 V closepath fill} def
/TriUF {stroke [] 0 setdash vpt 1.12 mul add M
  hpt neg vpt -1.62 mul V
  hpt 2 mul 0 V
  hpt neg vpt 1.62 mul V closepath fill} def
/TriD {stroke [] 0 setdash 2 copy vpt 1.12 mul sub M
  hpt neg vpt 1.62 mul V
  hpt 2 mul 0 V
  hpt neg vpt -1.62 mul V closepath stroke
  Pnt} def
/TriDF {stroke [] 0 setdash vpt 1.12 mul sub M
  hpt neg vpt 1.62 mul V
  hpt 2 mul 0 V
  hpt neg vpt -1.62 mul V closepath fill} def
/DiaF {stroke [] 0 setdash vpt add M
  hpt neg vpt neg V hpt vpt neg V
  hpt vpt V hpt neg vpt V closepath fill} def
/Pent {stroke [] 0 setdash 2 copy gsave
  translate 0 hpt M 4 {72 rotate 0 hpt L} repeat
  closepath stroke grestore Pnt} def
/PentF {stroke [] 0 setdash gsave
  translate 0 hpt M 4 {72 rotate 0 hpt L} repeat
  closepath fill grestore} def
/Circle {stroke [] 0 setdash 2 copy
  hpt 0 360 arc stroke Pnt} def
/CircleF {stroke [] 0 setdash hpt 0 360 arc fill} def
/C0 {BL [] 0 setdash 2 copy moveto vpt 90 450 arc} bind def
/C1 {BL [] 0 setdash 2 copy moveto
	2 copy vpt 0 90 arc closepath fill
	vpt 0 360 arc closepath} bind def
/C2 {BL [] 0 setdash 2 copy moveto
	2 copy vpt 90 180 arc closepath fill
	vpt 0 360 arc closepath} bind def
/C3 {BL [] 0 setdash 2 copy moveto
	2 copy vpt 0 180 arc closepath fill
	vpt 0 360 arc closepath} bind def
/C4 {BL [] 0 setdash 2 copy moveto
	2 copy vpt 180 270 arc closepath fill
	vpt 0 360 arc closepath} bind def
/C5 {BL [] 0 setdash 2 copy moveto
	2 copy vpt 0 90 arc
	2 copy moveto
	2 copy vpt 180 270 arc closepath fill
	vpt 0 360 arc} bind def
/C6 {BL [] 0 setdash 2 copy moveto
	2 copy vpt 90 270 arc closepath fill
	vpt 0 360 arc closepath} bind def
/C7 {BL [] 0 setdash 2 copy moveto
	2 copy vpt 0 270 arc closepath fill
	vpt 0 360 arc closepath} bind def
/C8 {BL [] 0 setdash 2 copy moveto
	2 copy vpt 270 360 arc closepath fill
	vpt 0 360 arc closepath} bind def
/C9 {BL [] 0 setdash 2 copy moveto
	2 copy vpt 270 450 arc closepath fill
	vpt 0 360 arc closepath} bind def
/C10 {BL [] 0 setdash 2 copy 2 copy moveto vpt 270 360 arc closepath fill
	2 copy moveto
	2 copy vpt 90 180 arc closepath fill
	vpt 0 360 arc closepath} bind def
/C11 {BL [] 0 setdash 2 copy moveto
	2 copy vpt 0 180 arc closepath fill
	2 copy moveto
	2 copy vpt 270 360 arc closepath fill
	vpt 0 360 arc closepath} bind def
/C12 {BL [] 0 setdash 2 copy moveto
	2 copy vpt 180 360 arc closepath fill
	vpt 0 360 arc closepath} bind def
/C13 {BL [] 0 setdash 2 copy moveto
	2 copy vpt 0 90 arc closepath fill
	2 copy moveto
	2 copy vpt 180 360 arc closepath fill
	vpt 0 360 arc closepath} bind def
/C14 {BL [] 0 setdash 2 copy moveto
	2 copy vpt 90 360 arc closepath fill
	vpt 0 360 arc} bind def
/C15 {BL [] 0 setdash 2 copy vpt 0 360 arc closepath fill
	vpt 0 360 arc closepath} bind def
/Rec {newpath 4 2 roll moveto 1 index 0 rlineto 0 exch rlineto
	neg 0 rlineto closepath} bind def
/Square {dup Rec} bind def
/Bsquare {vpt sub exch vpt sub exch vpt2 Square} bind def
/S0 {BL [] 0 setdash 2 copy moveto 0 vpt rlineto BL Bsquare} bind def
/S1 {BL [] 0 setdash 2 copy vpt Square fill Bsquare} bind def
/S2 {BL [] 0 setdash 2 copy exch vpt sub exch vpt Square fill Bsquare} bind def
/S3 {BL [] 0 setdash 2 copy exch vpt sub exch vpt2 vpt Rec fill Bsquare} bind def
/S4 {BL [] 0 setdash 2 copy exch vpt sub exch vpt sub vpt Square fill Bsquare} bind def
/S5 {BL [] 0 setdash 2 copy 2 copy vpt Square fill
	exch vpt sub exch vpt sub vpt Square fill Bsquare} bind def
/S6 {BL [] 0 setdash 2 copy exch vpt sub exch vpt sub vpt vpt2 Rec fill Bsquare} bind def
/S7 {BL [] 0 setdash 2 copy exch vpt sub exch vpt sub vpt vpt2 Rec fill
	2 copy vpt Square fill Bsquare} bind def
/S8 {BL [] 0 setdash 2 copy vpt sub vpt Square fill Bsquare} bind def
/S9 {BL [] 0 setdash 2 copy vpt sub vpt vpt2 Rec fill Bsquare} bind def
/S10 {BL [] 0 setdash 2 copy vpt sub vpt Square fill 2 copy exch vpt sub exch vpt Square fill
	Bsquare} bind def
/S11 {BL [] 0 setdash 2 copy vpt sub vpt Square fill 2 copy exch vpt sub exch vpt2 vpt Rec fill
	Bsquare} bind def
/S12 {BL [] 0 setdash 2 copy exch vpt sub exch vpt sub vpt2 vpt Rec fill Bsquare} bind def
/S13 {BL [] 0 setdash 2 copy exch vpt sub exch vpt sub vpt2 vpt Rec fill
	2 copy vpt Square fill Bsquare} bind def
/S14 {BL [] 0 setdash 2 copy exch vpt sub exch vpt sub vpt2 vpt Rec fill
	2 copy exch vpt sub exch vpt Square fill Bsquare} bind def
/S15 {BL [] 0 setdash 2 copy Bsquare fill Bsquare} bind def
/D0 {gsave translate 45 rotate 0 0 S0 stroke grestore} bind def
/D1 {gsave translate 45 rotate 0 0 S1 stroke grestore} bind def
/D2 {gsave translate 45 rotate 0 0 S2 stroke grestore} bind def
/D3 {gsave translate 45 rotate 0 0 S3 stroke grestore} bind def
/D4 {gsave translate 45 rotate 0 0 S4 stroke grestore} bind def
/D5 {gsave translate 45 rotate 0 0 S5 stroke grestore} bind def
/D6 {gsave translate 45 rotate 0 0 S6 stroke grestore} bind def
/D7 {gsave translate 45 rotate 0 0 S7 stroke grestore} bind def
/D8 {gsave translate 45 rotate 0 0 S8 stroke grestore} bind def
/D9 {gsave translate 45 rotate 0 0 S9 stroke grestore} bind def
/D10 {gsave translate 45 rotate 0 0 S10 stroke grestore} bind def
/D11 {gsave translate 45 rotate 0 0 S11 stroke grestore} bind def
/D12 {gsave translate 45 rotate 0 0 S12 stroke grestore} bind def
/D13 {gsave translate 45 rotate 0 0 S13 stroke grestore} bind def
/D14 {gsave translate 45 rotate 0 0 S14 stroke grestore} bind def
/D15 {gsave translate 45 rotate 0 0 S15 stroke grestore} bind def
/DiaE {stroke [] 0 setdash vpt add M
  hpt neg vpt neg V hpt vpt neg V
  hpt vpt V hpt neg vpt V closepath stroke} def
/BoxE {stroke [] 0 setdash exch hpt sub exch vpt add M
  0 vpt2 neg V hpt2 0 V 0 vpt2 V
  hpt2 neg 0 V closepath stroke} def
/TriUE {stroke [] 0 setdash vpt 1.12 mul add M
  hpt neg vpt -1.62 mul V
  hpt 2 mul 0 V
  hpt neg vpt 1.62 mul V closepath stroke} def
/TriDE {stroke [] 0 setdash vpt 1.12 mul sub M
  hpt neg vpt 1.62 mul V
  hpt 2 mul 0 V
  hpt neg vpt -1.62 mul V closepath stroke} def
/PentE {stroke [] 0 setdash gsave
  translate 0 hpt M 4 {72 rotate 0 hpt L} repeat
  closepath stroke grestore} def
/CircE {stroke [] 0 setdash 
  hpt 0 360 arc stroke} def
/Opaque {gsave closepath 1 setgray fill grestore 0 setgray closepath} def
/DiaW {stroke [] 0 setdash vpt add M
  hpt neg vpt neg V hpt vpt neg V
  hpt vpt V hpt neg vpt V Opaque stroke} def
/BoxW {stroke [] 0 setdash exch hpt sub exch vpt add M
  0 vpt2 neg V hpt2 0 V 0 vpt2 V
  hpt2 neg 0 V Opaque stroke} def
/TriUW {stroke [] 0 setdash vpt 1.12 mul add M
  hpt neg vpt -1.62 mul V
  hpt 2 mul 0 V
  hpt neg vpt 1.62 mul V Opaque stroke} def
/TriDW {stroke [] 0 setdash vpt 1.12 mul sub M
  hpt neg vpt 1.62 mul V
  hpt 2 mul 0 V
  hpt neg vpt -1.62 mul V Opaque stroke} def
/PentW {stroke [] 0 setdash gsave
  translate 0 hpt M 4 {72 rotate 0 hpt L} repeat
  Opaque stroke grestore} def
/CircW {stroke [] 0 setdash 
  hpt 0 360 arc Opaque stroke} def
/BoxFill {gsave Rec 1 setgray fill grestore} def
/Density {
  /Fillden exch def
  currentrgbcolor
  /ColB exch def /ColG exch def /ColR exch def
  /ColR ColR Fillden mul Fillden sub 1 add def
  /ColG ColG Fillden mul Fillden sub 1 add def
  /ColB ColB Fillden mul Fillden sub 1 add def
  ColR ColG ColB setrgbcolor} def
/BoxColFill {gsave Rec PolyFill} def
/PolyFill {gsave Density fill grestore grestore} def
/h {rlineto rlineto rlineto gsave closepath fill grestore} bind def
%
% PostScript Level 1 Pattern Fill routine for rectangles
% Usage: x y w h s a XX PatternFill
%	x,y = lower left corner of box to be filled
%	w,h = width and height of box
%	  a = angle in degrees between lines and x-axis
%	 XX = 0/1 for no/yes cross-hatch
%
/PatternFill {gsave /PFa [ 9 2 roll ] def
  PFa 0 get PFa 2 get 2 div add PFa 1 get PFa 3 get 2 div add translate
  PFa 2 get -2 div PFa 3 get -2 div PFa 2 get PFa 3 get Rec
  TransparentPatterns {} {gsave 1 setgray fill grestore} ifelse
  clip
  currentlinewidth 0.5 mul setlinewidth
  /PFs PFa 2 get dup mul PFa 3 get dup mul add sqrt def
  0 0 M PFa 5 get rotate PFs -2 div dup translate
  0 1 PFs PFa 4 get div 1 add floor cvi
	{PFa 4 get mul 0 M 0 PFs V} for
  0 PFa 6 get ne {
	0 1 PFs PFa 4 get div 1 add floor cvi
	{PFa 4 get mul 0 2 1 roll M PFs 0 V} for
 } if
  stroke grestore} def
%
/languagelevel where
 {pop languagelevel} {1} ifelse
dup 2 lt
	{/InterpretLevel1 true def
	 /InterpretLevel3 false def}
	{/InterpretLevel1 Level1 def
	 2 gt
	    {/InterpretLevel3 Level3 def}
	    {/InterpretLevel3 false def}
	 ifelse }
 ifelse
%
% PostScript level 2 pattern fill definitions
%
/Level2PatternFill {
/Tile8x8 {/PaintType 2 /PatternType 1 /TilingType 1 /BBox [0 0 8 8] /XStep 8 /YStep 8}
	bind def
/KeepColor {currentrgbcolor [/Pattern /DeviceRGB] setcolorspace} bind def
<< Tile8x8
 /PaintProc {0.5 setlinewidth pop 0 0 M 8 8 L 0 8 M 8 0 L stroke} 
>> matrix makepattern
/Pat1 exch def
<< Tile8x8
 /PaintProc {0.5 setlinewidth pop 0 0 M 8 8 L 0 8 M 8 0 L stroke
	0 4 M 4 8 L 8 4 L 4 0 L 0 4 L stroke}
>> matrix makepattern
/Pat2 exch def
<< Tile8x8
 /PaintProc {0.5 setlinewidth pop 0 0 M 0 8 L
	8 8 L 8 0 L 0 0 L fill}
>> matrix makepattern
/Pat3 exch def
<< Tile8x8
 /PaintProc {0.5 setlinewidth pop -4 8 M 8 -4 L
	0 12 M 12 0 L stroke}
>> matrix makepattern
/Pat4 exch def
<< Tile8x8
 /PaintProc {0.5 setlinewidth pop -4 0 M 8 12 L
	0 -4 M 12 8 L stroke}
>> matrix makepattern
/Pat5 exch def
<< Tile8x8
 /PaintProc {0.5 setlinewidth pop -2 8 M 4 -4 L
	0 12 M 8 -4 L 4 12 M 10 0 L stroke}
>> matrix makepattern
/Pat6 exch def
<< Tile8x8
 /PaintProc {0.5 setlinewidth pop -2 0 M 4 12 L
	0 -4 M 8 12 L 4 -4 M 10 8 L stroke}
>> matrix makepattern
/Pat7 exch def
<< Tile8x8
 /PaintProc {0.5 setlinewidth pop 8 -2 M -4 4 L
	12 0 M -4 8 L 12 4 M 0 10 L stroke}
>> matrix makepattern
/Pat8 exch def
<< Tile8x8
 /PaintProc {0.5 setlinewidth pop 0 -2 M 12 4 L
	-4 0 M 12 8 L -4 4 M 8 10 L stroke}
>> matrix makepattern
/Pat9 exch def
/Pattern1 {PatternBgnd KeepColor Pat1 setpattern} bind def
/Pattern2 {PatternBgnd KeepColor Pat2 setpattern} bind def
/Pattern3 {PatternBgnd KeepColor Pat3 setpattern} bind def
/Pattern4 {PatternBgnd KeepColor Landscape {Pat5} {Pat4} ifelse setpattern} bind def
/Pattern5 {PatternBgnd KeepColor Landscape {Pat4} {Pat5} ifelse setpattern} bind def
/Pattern6 {PatternBgnd KeepColor Landscape {Pat9} {Pat6} ifelse setpattern} bind def
/Pattern7 {PatternBgnd KeepColor Landscape {Pat8} {Pat7} ifelse setpattern} bind def
} def
%
%
%End of PostScript Level 2 code
%
/PatternBgnd {
  TransparentPatterns {} {gsave 1 setgray fill grestore} ifelse
} def
%
% Substitute for Level 2 pattern fill codes with
% grayscale if Level 2 support is not selected.
%
/Level1PatternFill {
/Pattern1 {0.250 Density} bind def
/Pattern2 {0.500 Density} bind def
/Pattern3 {0.750 Density} bind def
/Pattern4 {0.125 Density} bind def
/Pattern5 {0.375 Density} bind def
/Pattern6 {0.625 Density} bind def
/Pattern7 {0.875 Density} bind def
} def
%
% Now test for support of Level 2 code
%
Level1 {Level1PatternFill} {Level2PatternFill} ifelse
%
/Symbol-Oblique /Symbol findfont [1 0 .167 1 0 0] makefont
dup length dict begin {1 index /FID eq {pop pop} {def} ifelse} forall
currentdict end definefont pop
%
/MFshow {
   { dup 5 get 3 ge
     { 5 get 3 eq {gsave} {grestore} ifelse }
     {dup dup 0 get findfont exch 1 get scalefont setfont
     [ currentpoint ] exch dup 2 get 0 exch R dup 5 get 2 ne {dup dup 6
     get exch 4 get {textshow} {stringwidth pop 0 R} ifelse }if dup 5 get 0 eq
     {dup 3 get {2 get neg 0 exch R pop} {pop aload pop M} ifelse} {dup 5
     get 1 eq {dup 2 get exch dup 3 get exch 6 get stringwidth pop -2 div
     dup 0 R} {dup 6 get stringwidth pop -2 div 0 R 6 get
     textshow 2 index {aload pop M neg 3 -1 roll neg R pop pop} {pop pop pop
     pop aload pop M} ifelse }ifelse }ifelse }
     ifelse }
   forall} def
/Gswidth {dup type /stringtype eq {stringwidth} {pop (n) stringwidth} ifelse} def
/MFwidth {0 exch { dup 5 get 3 ge { 5 get 3 eq { 0 } { pop } ifelse }
 {dup 3 get{dup dup 0 get findfont exch 1 get scalefont setfont
     6 get Gswidth pop add} {pop} ifelse} ifelse} forall} def
/MLshow { currentpoint stroke M
  0 exch R
  Blacktext {gsave 0 setgray MFshow grestore} {MFshow} ifelse } bind def
/MRshow { currentpoint stroke M
  exch dup MFwidth neg 3 -1 roll R
  Blacktext {gsave 0 setgray MFshow grestore} {MFshow} ifelse } bind def
/MCshow { currentpoint stroke M
  exch dup MFwidth -2 div 3 -1 roll R
  Blacktext {gsave 0 setgray MFshow grestore} {MFshow} ifelse } bind def
/XYsave    { [( ) 1 2 true false 3 ()] } bind def
/XYrestore { [( ) 1 2 true false 4 ()] } bind def
Level1 SuppressPDFMark or 
{} {
/SDict 10 dict def
systemdict /pdfmark known not {
  userdict /pdfmark systemdict /cleartomark get put
} if
SDict begin [
  /Title (TcpVegas-download-rtt-100UE-90-240.eps)
  /Subject (gnuplot plot)
  /Creator (gnuplot 5.0 patchlevel 3)
  /Author (nat)
%  /Producer (gnuplot)
%  /Keywords ()
  /CreationDate (Thu Jun  2 10:39:41 2016)
  /DOCINFO pdfmark
end
} ifelse
%
% Support for boxed text - Ethan A Merritt May 2005
%
/InitTextBox { userdict /TBy2 3 -1 roll put userdict /TBx2 3 -1 roll put
           userdict /TBy1 3 -1 roll put userdict /TBx1 3 -1 roll put
	   /Boxing true def } def
/ExtendTextBox { Boxing
    { gsave dup false charpath pathbbox
      dup TBy2 gt {userdict /TBy2 3 -1 roll put} {pop} ifelse
      dup TBx2 gt {userdict /TBx2 3 -1 roll put} {pop} ifelse
      dup TBy1 lt {userdict /TBy1 3 -1 roll put} {pop} ifelse
      dup TBx1 lt {userdict /TBx1 3 -1 roll put} {pop} ifelse
      grestore } if } def
/PopTextBox { newpath TBx1 TBxmargin sub TBy1 TBymargin sub M
               TBx1 TBxmargin sub TBy2 TBymargin add L
	       TBx2 TBxmargin add TBy2 TBymargin add L
	       TBx2 TBxmargin add TBy1 TBymargin sub L closepath } def
/DrawTextBox { PopTextBox stroke /Boxing false def} def
/FillTextBox { gsave PopTextBox 1 1 1 setrgbcolor fill grestore /Boxing false def} def
0 0 0 0 InitTextBox
/TBxmargin 20 def
/TBymargin 20 def
/Boxing false def
/textshow { ExtendTextBox Gshow } def
%
% redundant definitions for compatibility with prologue.ps older than 5.0.2
/LTB {BL [] LCb DL} def
/LTb {PL [] LCb DL} def
end
%%EndProlog
%%Page: 1 1
gnudict begin
gsave
doclip
50 50 translate
0.050 0.050 scale
0 setgray
newpath
(Arial) findfont 200 scalefont setfont
BackgroundColor 0 lt 3 1 roll 0 lt exch 0 lt or or not {BackgroundColor C 1.000 0 0 14400.00 5040.00 BoxColFill} if
1.000 UL
LTb
0.00 0.00 0.00 C 0.500 UL
LTa
0.50 0.50 0.50 C 860 1000 M
12259 0 V
stroke
1.000 UL
LTb
0.00 0.00 0.00 C 860 1000 M
63 0 V
stroke
740 1000 M
[ [(Arial) 200.0 0.0 true true 0 ( 45)]
] -66.7 MRshow
1.000 UL
LTb
0.00 0.00 0.00 C 0.500 UL
LTa
0.50 0.50 0.50 C 860 1543 M
12259 0 V
stroke
1.000 UL
LTb
0.00 0.00 0.00 C 860 1543 M
63 0 V
stroke
740 1543 M
[ [(Arial) 200.0 0.0 true true 0 ( 50)]
] -66.7 MRshow
1.000 UL
LTb
0.00 0.00 0.00 C 0.500 UL
LTa
0.50 0.50 0.50 C 860 2085 M
12259 0 V
stroke
1.000 UL
LTb
0.00 0.00 0.00 C 860 2085 M
63 0 V
stroke
740 2085 M
[ [(Arial) 200.0 0.0 true true 0 ( 55)]
] -66.7 MRshow
1.000 UL
LTb
0.00 0.00 0.00 C 0.500 UL
LTa
0.50 0.50 0.50 C 860 2628 M
12259 0 V
stroke
1.000 UL
LTb
0.00 0.00 0.00 C 860 2628 M
63 0 V
stroke
740 2628 M
[ [(Arial) 200.0 0.0 true true 0 ( 60)]
] -66.7 MRshow
1.000 UL
LTb
0.00 0.00 0.00 C 0.500 UL
LTa
0.50 0.50 0.50 C 860 3171 M
12259 0 V
stroke
1.000 UL
LTb
0.00 0.00 0.00 C 860 3171 M
63 0 V
stroke
740 3171 M
[ [(Arial) 200.0 0.0 true true 0 ( 65)]
] -66.7 MRshow
1.000 UL
LTb
0.00 0.00 0.00 C 0.500 UL
LTa
0.50 0.50 0.50 C 860 3714 M
12259 0 V
stroke
1.000 UL
LTb
0.00 0.00 0.00 C 860 3714 M
63 0 V
stroke
740 3714 M
[ [(Arial) 200.0 0.0 true true 0 ( 70)]
] -66.7 MRshow
1.000 UL
LTb
0.00 0.00 0.00 C 0.500 UL
LTa
0.50 0.50 0.50 C 860 4256 M
12259 0 V
stroke
1.000 UL
LTb
0.00 0.00 0.00 C 860 4256 M
63 0 V
stroke
740 4256 M
[ [(Arial) 200.0 0.0 true true 0 ( 75)]
] -66.7 MRshow
1.000 UL
LTb
0.00 0.00 0.00 C 0.500 UL
LTa
0.50 0.50 0.50 C 860 4799 M
12259 0 V
stroke
1.000 UL
LTb
0.00 0.00 0.00 C 860 4799 M
63 0 V
stroke
740 4799 M
[ [(Arial) 200.0 0.0 true true 0 ( 80)]
] -66.7 MRshow
1.000 UL
LTb
0.00 0.00 0.00 C 0.500 UL
LTa
0.50 0.50 0.50 C 1243 1000 M
0 3799 V
stroke
1.000 UL
LTb
0.00 0.00 0.00 C 1243 1000 M
0 63 V
0 3736 R
0 -63 V
stroke
1243 800 M
[ [(Arial) 200.0 0.0 true true 0 ( 270)]
] -66.7 MCshow
1.000 UL
LTb
0.00 0.00 0.00 C 0.500 UL
LTa
0.50 0.50 0.50 C 2009 1000 M
0 3799 V
stroke
1.000 UL
LTb
0.00 0.00 0.00 C 2009 1000 M
0 63 V
0 3736 R
0 -63 V
stroke
2009 800 M
[ [(Arial) 200.0 0.0 true true 0 ( 300)]
] -66.7 MCshow
1.000 UL
LTb
0.00 0.00 0.00 C 0.500 UL
LTa
0.50 0.50 0.50 C 2775 1000 M
0 3799 V
stroke
1.000 UL
LTb
0.00 0.00 0.00 C 2775 1000 M
0 63 V
0 3736 R
0 -63 V
stroke
2775 800 M
[ [(Arial) 200.0 0.0 true true 0 ( 330)]
] -66.7 MCshow
1.000 UL
LTb
0.00 0.00 0.00 C 0.500 UL
LTa
0.50 0.50 0.50 C 3542 1000 M
0 3799 V
stroke
1.000 UL
LTb
0.00 0.00 0.00 C 3542 1000 M
0 63 V
0 3736 R
0 -63 V
stroke
3542 800 M
[ [(Arial) 200.0 0.0 true true 0 ( 360)]
] -66.7 MCshow
1.000 UL
LTb
0.00 0.00 0.00 C 0.500 UL
LTa
0.50 0.50 0.50 C 4308 1000 M
0 3799 V
stroke
1.000 UL
LTb
0.00 0.00 0.00 C 4308 1000 M
0 63 V
0 3736 R
0 -63 V
stroke
4308 800 M
[ [(Arial) 200.0 0.0 true true 0 ( 390)]
] -66.7 MCshow
1.000 UL
LTb
0.00 0.00 0.00 C 0.500 UL
LTa
0.50 0.50 0.50 C 5074 1000 M
0 3799 V
stroke
1.000 UL
LTb
0.00 0.00 0.00 C 5074 1000 M
0 63 V
0 3736 R
0 -63 V
stroke
5074 800 M
[ [(Arial) 200.0 0.0 true true 0 ( 420)]
] -66.7 MCshow
1.000 UL
LTb
0.00 0.00 0.00 C 0.500 UL
LTa
0.50 0.50 0.50 C 5840 1000 M
0 3799 V
stroke
1.000 UL
LTb
0.00 0.00 0.00 C 5840 1000 M
0 63 V
0 3736 R
0 -63 V
stroke
5840 800 M
[ [(Arial) 200.0 0.0 true true 0 ( 450)]
] -66.7 MCshow
1.000 UL
LTb
0.00 0.00 0.00 C 0.500 UL
LTa
0.50 0.50 0.50 C 6606 1000 M
0 3799 V
stroke
1.000 UL
LTb
0.00 0.00 0.00 C 6606 1000 M
0 63 V
0 3736 R
0 -63 V
stroke
6606 800 M
[ [(Arial) 200.0 0.0 true true 0 ( 480)]
] -66.7 MCshow
1.000 UL
LTb
0.00 0.00 0.00 C 0.500 UL
LTa
0.50 0.50 0.50 C 7373 1000 M
0 3799 V
stroke
1.000 UL
LTb
0.00 0.00 0.00 C 7373 1000 M
0 63 V
0 3736 R
0 -63 V
stroke
7373 800 M
[ [(Arial) 200.0 0.0 true true 0 ( 510)]
] -66.7 MCshow
1.000 UL
LTb
0.00 0.00 0.00 C 0.500 UL
LTa
0.50 0.50 0.50 C 8139 1000 M
0 3799 V
stroke
1.000 UL
LTb
0.00 0.00 0.00 C 8139 1000 M
0 63 V
0 3736 R
0 -63 V
stroke
8139 800 M
[ [(Arial) 200.0 0.0 true true 0 ( 540)]
] -66.7 MCshow
1.000 UL
LTb
0.00 0.00 0.00 C 0.500 UL
LTa
0.50 0.50 0.50 C 8905 1000 M
0 3799 V
stroke
1.000 UL
LTb
0.00 0.00 0.00 C 8905 1000 M
0 63 V
0 3736 R
0 -63 V
stroke
8905 800 M
[ [(Arial) 200.0 0.0 true true 0 ( 570)]
] -66.7 MCshow
1.000 UL
LTb
0.00 0.00 0.00 C 0.500 UL
LTa
0.50 0.50 0.50 C 9671 1000 M
0 3799 V
stroke
1.000 UL
LTb
0.00 0.00 0.00 C 9671 1000 M
0 63 V
0 3736 R
0 -63 V
stroke
9671 800 M
[ [(Arial) 200.0 0.0 true true 0 ( 600)]
] -66.7 MCshow
1.000 UL
LTb
0.00 0.00 0.00 C 0.500 UL
LTa
0.50 0.50 0.50 C 10437 1000 M
0 3799 V
stroke
1.000 UL
LTb
0.00 0.00 0.00 C 10437 1000 M
0 63 V
0 3736 R
0 -63 V
stroke
10437 800 M
[ [(Arial) 200.0 0.0 true true 0 ( 630)]
] -66.7 MCshow
1.000 UL
LTb
0.00 0.00 0.00 C 0.500 UL
LTa
0.50 0.50 0.50 C 11204 1000 M
0 3799 V
stroke
1.000 UL
LTb
0.00 0.00 0.00 C 11204 1000 M
0 63 V
0 3736 R
0 -63 V
stroke
11204 800 M
[ [(Arial) 200.0 0.0 true true 0 ( 660)]
] -66.7 MCshow
1.000 UL
LTb
0.00 0.00 0.00 C 0.500 UL
LTa
0.50 0.50 0.50 C 11970 1000 M
0 3799 V
stroke
1.000 UL
LTb
0.00 0.00 0.00 C 11970 1000 M
0 63 V
0 3736 R
0 -63 V
stroke
11970 800 M
[ [(Arial) 200.0 0.0 true true 0 ( 690)]
] -66.7 MCshow
1.000 UL
LTb
0.00 0.00 0.00 C 0.500 UL
LTa
0.50 0.50 0.50 C 12736 1000 M
0 3799 V
stroke
1.000 UL
LTb
0.00 0.00 0.00 C 12736 1000 M
0 63 V
0 3736 R
0 -63 V
stroke
12736 800 M
[ [(Arial) 200.0 0.0 true true 0 ( 720)]
] -66.7 MCshow
1.000 UL
LTb
0.00 0.00 0.00 C 13119 1000 M
-63 0 V
stroke
13239 1000 M
[ [(Arial) 200.0 0.0 true true 0 ( 0)]
] -66.7 MLshow
1.000 UL
LTb
0.00 0.00 0.00 C 13119 1760 M
-63 0 V
stroke
13239 1760 M
[ [(Arial) 200.0 0.0 true true 0 ( 20)]
] -66.7 MLshow
1.000 UL
LTb
0.00 0.00 0.00 C 13119 2520 M
-63 0 V
stroke
13239 2520 M
[ [(Arial) 200.0 0.0 true true 0 ( 40)]
] -66.7 MLshow
1.000 UL
LTb
0.00 0.00 0.00 C 13119 3279 M
-63 0 V
stroke
13239 3279 M
[ [(Arial) 200.0 0.0 true true 0 ( 60)]
] -66.7 MLshow
1.000 UL
LTb
0.00 0.00 0.00 C 13119 4039 M
-63 0 V
stroke
13239 4039 M
[ [(Arial) 200.0 0.0 true true 0 ( 80)]
] -66.7 MLshow
1.000 UL
LTb
0.00 0.00 0.00 C 13119 4799 M
-63 0 V
stroke
13239 4799 M
[ [(Arial) 200.0 0.0 true true 0 ( 100)]
] -66.7 MLshow
1.000 UL
LTb
0.00 0.00 0.00 C 1.000 UL
LTB
0.00 0.00 0.00 C 860 4799 M
0 -3799 V
12259 0 V
0 3799 R
860 4799 M
1.000 UP
stroke
LTb
0.00 0.00 0.00 C LCb setrgbcolor
160 2899 M
currentpoint gsave translate -270 rotate 0 0 moveto
[ [(Arial) 200.0 0.0 true true 0 (RTT \(ms\))]
] -66.7 MCshow
grestore
LTb
LCb setrgbcolor
13938 2899 M
currentpoint gsave translate -270 rotate 0 0 moveto
[ [(Arial) 200.0 0.0 true true 0 (TCP delivery ratio [%])]
] -66.7 MCshow
grestore
LTb
LCb setrgbcolor
6989 500 M
[ [(Arial) 200.0 0.0 true true 0 (Local backhaul traffic traffic \(Mb/s\))]
] -66.7 MCshow
LTb
% Begin plot #1
1.000 UL
LTb
0.60 0.60 0.00 C LCb setrgbcolor
4654 333 M
[ [(Arial) 180.0 0.0 true true 0 (RTT      :   olsr)]
] -60.0 MRshow
1.000 UL
LTb
0.60 0.60 0.00 C 4762 288 333 90 80 -45 0 PatternFill
4762 288 N
333 0 V
0 90 V
-333 0 V
0 -90 V
Z stroke
1.000 UL
LTb
0.60 0.60 0.00 C 975 1790 154 1148 80 -45 0 PatternFill
1052 1446 M
0 344 V
0 1148 R
0 1585 V
stroke
975 1790 N
154 0 V
0 1148 V
-154 0 V
0 -1148 V
Z stroke
975 4523 M
154 0 V
975 1446 M
154 0 V
stroke
1741 1754 154 1195 80 -45 0 PatternFill
1818 1435 M
0 319 V
0 1195 R
0 1608 V
stroke
1741 1754 N
154 0 V
0 1195 V
-154 0 V
0 -1195 V
Z stroke
1741 4557 M
154 0 V
1741 1435 M
154 0 V
stroke
2507 1758 154 1219 80 -45 0 PatternFill
2584 1425 M
0 333 V
0 1219 R
0 1594 V
stroke
2507 1758 N
154 0 V
0 1219 V
-154 0 V
0 -1219 V
Z stroke
2507 4571 M
154 0 V
2507 1425 M
154 0 V
stroke
3273 1797 154 1195 80 -45 0 PatternFill
3350 1455 M
0 342 V
0 1195 R
0 1626 V
stroke
3273 1797 N
154 0 V
0 1195 V
-154 0 V
0 -1195 V
Z stroke
3273 4618 M
154 0 V
3273 1455 M
154 0 V
stroke
4040 1776 154 1228 80 -45 0 PatternFill
4117 1427 M
0 349 V
0 1228 R
0 1708 V
stroke
4040 1776 N
154 0 V
0 1228 V
-154 0 V
0 -1228 V
Z stroke
4040 4712 M
154 0 V
4040 1427 M
154 0 V
stroke
4806 1800 154 1224 80 -45 0 PatternFill
4883 1456 M
0 344 V
0 1224 R
0 1620 V
stroke
4806 1800 N
154 0 V
0 1224 V
-154 0 V
0 -1224 V
Z stroke
4806 4644 M
154 0 V
4806 1456 M
154 0 V
stroke
5572 1814 154 1175 80 -45 0 PatternFill
5649 1488 M
0 326 V
0 1175 R
0 1520 V
stroke
5572 1814 N
154 0 V
0 1175 V
-154 0 V
0 -1175 V
Z stroke
5572 4509 M
154 0 V
5572 1488 M
154 0 V
stroke
6338 1791 154 1214 80 -45 0 PatternFill
6415 1452 M
0 339 V
0 1214 R
0 1604 V
stroke
6338 1791 N
154 0 V
0 1214 V
-154 0 V
0 -1214 V
Z stroke
6338 4609 M
154 0 V
6338 1452 M
154 0 V
stroke
7104 1749 154 1206 80 -45 0 PatternFill
7181 1428 M
0 321 V
0 1206 R
0 1651 V
stroke
7104 1749 N
154 0 V
0 1206 V
-154 0 V
0 -1206 V
Z stroke
7104 4606 M
154 0 V
7104 1428 M
154 0 V
stroke
7871 1772 154 1204 80 -45 0 PatternFill
7948 1416 M
0 356 V
0 1204 R
0 1693 V
stroke
7871 1772 N
154 0 V
0 1204 V
-154 0 V
0 -1204 V
Z stroke
7871 4669 M
154 0 V
7871 1416 M
154 0 V
stroke
8637 1869 154 1150 80 -45 0 PatternFill
8714 1521 M
0 348 V
0 1150 R
0 1459 V
stroke
8637 1869 N
154 0 V
0 1150 V
-154 0 V
0 -1150 V
Z stroke
8637 4478 M
154 0 V
8637 1521 M
154 0 V
stroke
9403 1842 154 1141 80 -45 0 PatternFill
9480 1512 M
0 330 V
0 1141 R
0 1522 V
stroke
9403 1842 N
154 0 V
0 1141 V
-154 0 V
0 -1141 V
Z stroke
9403 4505 M
154 0 V
9403 1512 M
154 0 V
stroke
10169 1859 154 1129 80 -45 0 PatternFill
10246 1496 M
0 363 V
0 1129 R
0 1479 V
stroke
10169 1859 N
154 0 V
0 1129 V
-154 0 V
0 -1129 V
Z stroke
10169 4467 M
154 0 V
10169 1496 M
154 0 V
stroke
10935 1793 154 1218 80 -45 0 PatternFill
11012 1442 M
0 351 V
0 1218 R
0 1529 V
stroke
10935 1793 N
154 0 V
0 1218 V
-154 0 V
0 -1218 V
Z stroke
10935 4540 M
154 0 V
10935 1442 M
154 0 V
stroke
11702 1805 154 1152 80 -45 0 PatternFill
11779 1474 M
0 331 V
0 1152 R
0 1659 V
stroke
11702 1805 N
154 0 V
0 1152 V
-154 0 V
0 -1152 V
Z stroke
11702 4616 M
154 0 V
11702 1474 M
154 0 V
stroke
12468 1785 154 1180 80 -45 0 PatternFill
12545 1438 M
0 347 V
0 1180 R
0 1597 V
stroke
12468 1785 N
154 0 V
0 1180 V
-154 0 V
0 -1180 V
Z stroke
12468 4562 M
154 0 V
12468 1438 M
154 0 V
% End plot #1
% Begin plot #2
stroke
LTb
LCb setrgbcolor

 /TransparentPatterns true def
975 2544 154 0 40 30 0 PatternFill
1052 2544 M
stroke
975 2544 N
154 0 V
-154 0 V
Z stroke
975 2544 M
154 0 V
-154 0 R
154 0 V
stroke

 /TransparentPatterns true def
1741 2537 154 0 40 30 0 PatternFill
1818 2537 M
stroke
1741 2537 N
154 0 V
-154 0 V
Z stroke
1741 2537 M
154 0 V
-154 0 R
154 0 V
stroke

 /TransparentPatterns true def
2507 2547 154 0 40 30 0 PatternFill
2584 2547 M
stroke
2507 2547 N
154 0 V
-154 0 V
Z stroke
2507 2547 M
154 0 V
-154 0 R
154 0 V
stroke

 /TransparentPatterns true def
3273 2578 154 0 40 30 0 PatternFill
3350 2578 M
stroke
3273 2578 N
154 0 V
-154 0 V
Z stroke
3273 2578 M
154 0 V
-154 0 R
154 0 V
stroke

 /TransparentPatterns true def
4040 2579 154 0 40 30 0 PatternFill
4117 2579 M
stroke
4040 2579 N
154 0 V
-154 0 V
Z stroke
4040 2579 M
154 0 V
-154 0 R
154 0 V
stroke

 /TransparentPatterns true def
4806 2595 154 0 40 30 0 PatternFill
4883 2595 M
stroke
4806 2595 N
154 0 V
-154 0 V
Z stroke
4806 2595 M
154 0 V
-154 0 R
154 0 V
stroke

 /TransparentPatterns true def
5572 2579 154 0 40 30 0 PatternFill
5649 2579 M
stroke
5572 2579 N
154 0 V
-154 0 V
Z stroke
5572 2579 M
154 0 V
-154 0 R
154 0 V
stroke

 /TransparentPatterns true def
6338 2578 154 0 40 30 0 PatternFill
6415 2578 M
stroke
6338 2578 N
154 0 V
-154 0 V
Z stroke
6338 2578 M
154 0 V
-154 0 R
154 0 V
stroke

 /TransparentPatterns true def
7104 2539 154 0 40 30 0 PatternFill
7181 2539 M
stroke
7104 2539 N
154 0 V
-154 0 V
Z stroke
7104 2539 M
154 0 V
-154 0 R
154 0 V
stroke

 /TransparentPatterns true def
7871 2569 154 0 40 30 0 PatternFill
7948 2569 M
stroke
7871 2569 N
154 0 V
-154 0 V
Z stroke
7871 2569 M
154 0 V
-154 0 R
154 0 V
stroke

 /TransparentPatterns true def
8637 2610 154 0 40 30 0 PatternFill
8714 2610 M
stroke
8637 2610 N
154 0 V
-154 0 V
Z stroke
8637 2610 M
154 0 V
-154 0 R
154 0 V
stroke

 /TransparentPatterns true def
9403 2585 154 0 40 30 0 PatternFill
9480 2585 M
stroke
9403 2585 N
154 0 V
-154 0 V
Z stroke
9403 2585 M
154 0 V
-154 0 R
154 0 V
stroke

 /TransparentPatterns true def
10169 2585 154 0 40 30 0 PatternFill
10246 2585 M
stroke
10169 2585 N
154 0 V
-154 0 V
Z stroke
10169 2585 M
154 0 V
-154 0 R
154 0 V
stroke

 /TransparentPatterns true def
10935 2576 154 0 40 30 0 PatternFill
11012 2576 M
stroke
10935 2576 N
154 0 V
-154 0 V
Z stroke
10935 2576 M
154 0 V
-154 0 R
154 0 V
stroke

 /TransparentPatterns true def
11702 2567 154 0 40 30 0 PatternFill
11779 2567 M
stroke
11702 2567 N
154 0 V
-154 0 V
Z stroke
11702 2567 M
154 0 V
-154 0 R
154 0 V
stroke

 /TransparentPatterns true def
12468 2557 154 0 40 30 0 PatternFill
12545 2557 M
stroke
12468 2557 N
154 0 V
-154 0 V
Z stroke
12468 2557 M
154 0 V
-154 0 R
154 0 V
% End plot #2
% Begin plot #3
2.000 UP
stroke
LTa
0.60 0.60 0.00 C LCb setrgbcolor
4654 153 M
[ [(Arial) 180.0 0.0 true true 0 (app. received bytes :         )]
] -60.0 MRshow
2.000 UP
1.000 UL
LTa
0.60 0.60 0.00 C 4762 153 M
333 0 V
860 4723 M
192 0 V
766 0 V
766 0 V
766 0 V
766 0 V
766 0 V
767 0 V
766 0 V
766 -4 V
766 4 V
766 0 V
767 0 V
766 0 V
766 -4 V
766 4 V
766 0 V
575 -3 V
1052 4723 Box
1818 4723 Box
2584 4723 Box
3350 4723 Box
4116 4723 Box
4882 4723 Box
5649 4723 Box
6415 4723 Box
7181 4719 Box
7947 4723 Box
8713 4723 Box
9480 4723 Box
10246 4723 Box
11012 4719 Box
11778 4723 Box
12544 4723 Box
4928 153 Box
% End plot #3
% Begin plot #4
1.000 UL
LTb
0.00 0.00 0.63 C LCb setrgbcolor
8227 333 M
[ [(Arial) 180.0 0.0 true true 0 (per-packet)]
] -60.0 MRshow
1.000 UL
LTb
0.00 0.00 0.63 C 8335 288 333 90 80 45 0 PatternFill
8335 288 N
333 0 V
0 90 V
-333 0 V
0 -90 V
Z stroke
1.000 UL
LTb
0.00 0.00 0.63 C 1166 1700 154 1102 80 45 0 PatternFill
1243 1394 M
0 306 V
0 1102 R
0 1256 V
stroke
1166 1700 N
154 0 V
0 1102 V
-154 0 V
0 -1102 V
Z stroke
1166 4058 M
154 0 V
1166 1394 M
154 0 V
stroke
1933 1709 154 1211 80 45 0 PatternFill
2010 1393 M
0 316 V
0 1211 R
0 1451 V
stroke
1933 1709 N
154 0 V
0 1211 V
-154 0 V
0 -1211 V
Z stroke
1933 4371 M
154 0 V
1933 1393 M
154 0 V
stroke
2699 1721 154 1105 80 45 0 PatternFill
2776 1419 M
0 302 V
0 1105 R
0 1212 V
stroke
2699 1721 N
154 0 V
0 1105 V
-154 0 V
0 -1105 V
Z stroke
2699 4038 M
154 0 V
2699 1419 M
154 0 V
stroke
3465 1765 154 1047 80 45 0 PatternFill
3542 1443 M
0 322 V
0 1047 R
0 1310 V
stroke
3465 1765 N
154 0 V
0 1047 V
-154 0 V
0 -1047 V
Z stroke
3465 4122 M
154 0 V
3465 1443 M
154 0 V
stroke
4231 1699 154 1127 80 45 0 PatternFill
4308 1399 M
0 300 V
0 1127 R
0 1260 V
stroke
4231 1699 N
154 0 V
0 1127 V
-154 0 V
0 -1127 V
Z stroke
4231 4086 M
154 0 V
4231 1399 M
154 0 V
stroke
4997 1719 154 1108 80 45 0 PatternFill
5074 1395 M
0 324 V
0 1108 R
0 1266 V
stroke
4997 1719 N
154 0 V
0 1108 V
-154 0 V
0 -1108 V
Z stroke
4997 4093 M
154 0 V
4997 1395 M
154 0 V
stroke
5764 1711 154 1147 80 45 0 PatternFill
5841 1406 M
0 305 V
0 1147 R
0 1309 V
stroke
5764 1711 N
154 0 V
0 1147 V
-154 0 V
0 -1147 V
Z stroke
5764 4167 M
154 0 V
5764 1406 M
154 0 V
stroke
6530 1792 154 1102 80 45 0 PatternFill
6607 1472 M
0 320 V
0 1102 R
0 1291 V
stroke
6530 1792 N
154 0 V
0 1102 V
-154 0 V
0 -1102 V
Z stroke
6530 4185 M
154 0 V
6530 1472 M
154 0 V
stroke
7296 1762 154 1180 80 45 0 PatternFill
7373 1426 M
0 336 V
0 1180 R
0 1276 V
stroke
7296 1762 N
154 0 V
0 1180 V
-154 0 V
0 -1180 V
Z stroke
7296 4218 M
154 0 V
7296 1426 M
154 0 V
stroke
8062 1748 154 1106 80 45 0 PatternFill
8139 1432 M
0 316 V
0 1106 R
0 1329 V
stroke
8062 1748 N
154 0 V
0 1106 V
-154 0 V
0 -1106 V
Z stroke
8062 4183 M
154 0 V
8062 1432 M
154 0 V
stroke
8828 1774 154 1092 80 45 0 PatternFill
8905 1431 M
0 343 V
0 1092 R
0 1214 V
stroke
8828 1774 N
154 0 V
0 1092 V
-154 0 V
0 -1092 V
Z stroke
8828 4080 M
154 0 V
8828 1431 M
154 0 V
stroke
9595 1730 154 1117 80 45 0 PatternFill
9672 1428 M
0 302 V
0 1117 R
0 1285 V
stroke
9595 1730 N
154 0 V
0 1117 V
-154 0 V
0 -1117 V
Z stroke
9595 4132 M
154 0 V
9595 1428 M
154 0 V
stroke
10361 1723 154 1132 80 45 0 PatternFill
10438 1423 M
0 300 V
0 1132 R
0 1305 V
stroke
10361 1723 N
154 0 V
0 1132 V
-154 0 V
0 -1132 V
Z stroke
10361 4160 M
154 0 V
10361 1423 M
154 0 V
stroke
11127 1715 154 1097 80 45 0 PatternFill
11204 1397 M
0 318 V
0 1097 R
0 1184 V
stroke
11127 1715 N
154 0 V
0 1097 V
-154 0 V
0 -1097 V
Z stroke
11127 3996 M
154 0 V
11127 1397 M
154 0 V
stroke
11893 1700 154 1105 80 45 0 PatternFill
11970 1398 M
0 302 V
0 1105 R
0 1327 V
stroke
11893 1700 N
154 0 V
0 1105 V
-154 0 V
0 -1105 V
Z stroke
11893 4132 M
154 0 V
11893 1398 M
154 0 V
stroke
12659 1737 154 1265 80 45 0 PatternFill
12736 1415 M
0 322 V
0 1265 R
0 1298 V
stroke
12659 1737 N
154 0 V
0 1265 V
-154 0 V
0 -1265 V
Z stroke
12659 4300 M
154 0 V
12659 1415 M
154 0 V
% End plot #4
% Begin plot #5
stroke
LTb
LCb setrgbcolor

 /TransparentPatterns true def
1166 2366 154 0 80 -45 0 PatternFill
1243 2366 M
stroke
1166 2366 N
154 0 V
-154 0 V
Z stroke
1166 2366 M
154 0 V
-154 0 R
154 0 V
stroke

 /TransparentPatterns true def
1933 2426 154 0 80 -45 0 PatternFill
2010 2426 M
stroke
1933 2426 N
154 0 V
-154 0 V
Z stroke
1933 2426 M
154 0 V
-154 0 R
154 0 V
stroke

 /TransparentPatterns true def
2699 2379 154 0 80 -45 0 PatternFill
2776 2379 M
stroke
2699 2379 N
154 0 V
-154 0 V
Z stroke
2699 2379 M
154 0 V
-154 0 R
154 0 V
stroke

 /TransparentPatterns true def
3465 2401 154 0 80 -45 0 PatternFill
3542 2401 M
stroke
3465 2401 N
154 0 V
-154 0 V
Z stroke
3465 2401 M
154 0 V
-154 0 R
154 0 V
stroke

 /TransparentPatterns true def
4231 2381 154 0 80 -45 0 PatternFill
4308 2381 M
stroke
4231 2381 N
154 0 V
-154 0 V
Z stroke
4231 2381 M
154 0 V
-154 0 R
154 0 V
stroke

 /TransparentPatterns true def
4997 2381 154 0 80 -45 0 PatternFill
5074 2381 M
stroke
4997 2381 N
154 0 V
-154 0 V
Z stroke
4997 2381 M
154 0 V
-154 0 R
154 0 V
stroke

 /TransparentPatterns true def
5764 2399 154 0 80 -45 0 PatternFill
5841 2399 M
stroke
5764 2399 N
154 0 V
-154 0 V
Z stroke
5764 2399 M
154 0 V
-154 0 R
154 0 V
stroke

 /TransparentPatterns true def
6530 2461 154 0 80 -45 0 PatternFill
6607 2461 M
stroke
6530 2461 N
154 0 V
-154 0 V
Z stroke
6530 2461 M
154 0 V
-154 0 R
154 0 V
stroke

 /TransparentPatterns true def
7296 2454 154 0 80 -45 0 PatternFill
7373 2454 M
stroke
7296 2454 N
154 0 V
-154 0 V
Z stroke
7296 2454 M
154 0 V
-154 0 R
154 0 V
stroke

 /TransparentPatterns true def
8062 2426 154 0 80 -45 0 PatternFill
8139 2426 M
stroke
8062 2426 N
154 0 V
-154 0 V
Z stroke
8062 2426 M
154 0 V
-154 0 R
154 0 V
stroke

 /TransparentPatterns true def
8828 2430 154 0 80 -45 0 PatternFill
8905 2430 M
stroke
8828 2430 N
154 0 V
-154 0 V
Z stroke
8828 2430 M
154 0 V
-154 0 R
154 0 V
stroke

 /TransparentPatterns true def
9595 2392 154 0 80 -45 0 PatternFill
9672 2392 M
stroke
9595 2392 N
154 0 V
-154 0 V
Z stroke
9595 2392 M
154 0 V
-154 0 R
154 0 V
stroke

 /TransparentPatterns true def
10361 2405 154 0 80 -45 0 PatternFill
10438 2405 M
stroke
10361 2405 N
154 0 V
-154 0 V
Z stroke
10361 2405 M
154 0 V
-154 0 R
154 0 V
stroke

 /TransparentPatterns true def
11127 2376 154 0 80 -45 0 PatternFill
11204 2376 M
stroke
11127 2376 N
154 0 V
-154 0 V
Z stroke
11127 2376 M
154 0 V
-154 0 R
154 0 V
stroke

 /TransparentPatterns true def
11893 2375 154 0 80 -45 0 PatternFill
11970 2375 M
stroke
11893 2375 N
154 0 V
-154 0 V
Z stroke
11893 2375 M
154 0 V
-154 0 R
154 0 V
stroke

 /TransparentPatterns true def
12659 2463 154 0 80 -45 0 PatternFill
12736 2463 M
stroke
12659 2463 N
154 0 V
-154 0 V
Z stroke
12659 2463 M
154 0 V
-154 0 R
154 0 V
% End plot #5
% Begin plot #6
2.000 UP
stroke
LTa
0.00 0.00 0.63 C LCb setrgbcolor
8227 153 M
[ [(Arial) 180.0 0.0 true true 0 ( )]
] -60.0 MRshow
2.000 UP
1.000 UL
LTa
0.00 0.00 0.63 C 8335 153 M
333 0 V
860 4719 M
383 0 V
766 4 V
766 0 V
767 -4 V
766 4 V
766 0 V
766 0 V
766 -4 V
767 4 V
766 0 V
766 -4 V
766 4 V
766 0 V
767 0 V
766 0 V
766 0 V
383 0 V
1243 4719 Circle
2009 4723 Circle
2775 4723 Circle
3542 4719 Circle
4308 4723 Circle
5074 4723 Circle
5840 4723 Circle
6606 4719 Circle
7373 4723 Circle
8139 4723 Circle
8905 4719 Circle
9671 4723 Circle
10437 4723 Circle
11204 4723 Circle
11970 4723 Circle
12736 4723 Circle
8501 153 Circle
% End plot #6
% Begin plot #7
1.000 UL
LTb
0.00 0.38 0.82 C LCb setrgbcolor
11800 333 M
[ [(Arial) 180.0 0.0 true true 0 (per-flow)]
] -60.0 MRshow
1.000 UL
LTb
0.00 0.38 0.82 C 11908 288 333 90 40 30 0 PatternFill
11908 288 N
333 0 V
0 90 V
-333 0 V
0 -90 V
Z stroke
1.000 UL
LTb
0.00 0.38 0.82 C 1358 1870 154 1229 40 30 0 PatternFill
1435 1516 M
0 354 V
0 1229 R
0 1325 V
stroke
1358 1870 N
154 0 V
0 1229 V
-154 0 V
0 -1229 V
Z stroke
1358 4424 M
154 0 V
1358 1516 M
154 0 V
stroke
2124 1921 154 1158 40 30 0 PatternFill
2201 1543 M
0 378 V
0 1158 R
0 1392 V
stroke
2124 1921 N
154 0 V
0 1158 V
-154 0 V
0 -1158 V
Z stroke
2124 4471 M
154 0 V
2124 1543 M
154 0 V
stroke
2890 1850 154 1237 40 30 0 PatternFill
2967 1492 M
0 358 V
0 1237 R
0 1525 V
stroke
2890 1850 N
154 0 V
0 1237 V
-154 0 V
0 -1237 V
Z stroke
2890 4612 M
154 0 V
2890 1492 M
154 0 V
stroke
3657 1809 154 1296 40 30 0 PatternFill
3734 1448 M
0 361 V
0 1296 R
0 1381 V
stroke
3657 1809 N
154 0 V
0 1296 V
-154 0 V
0 -1296 V
Z stroke
3657 4486 M
154 0 V
3657 1448 M
154 0 V
stroke
4423 1851 154 1197 40 30 0 PatternFill
4500 1476 M
0 375 V
0 1197 R
0 1315 V
stroke
4423 1851 N
154 0 V
0 1197 V
-154 0 V
0 -1197 V
Z stroke
4423 4363 M
154 0 V
4423 1476 M
154 0 V
stroke
5189 1865 154 1324 40 30 0 PatternFill
5266 1500 M
0 365 V
0 1324 R
0 1352 V
stroke
5189 1865 N
154 0 V
0 1324 V
-154 0 V
0 -1324 V
Z stroke
5189 4541 M
154 0 V
5189 1500 M
154 0 V
stroke
5955 1895 154 1245 40 30 0 PatternFill
6032 1532 M
0 363 V
0 1245 R
0 1400 V
stroke
5955 1895 N
154 0 V
0 1245 V
-154 0 V
0 -1245 V
Z stroke
5955 4540 M
154 0 V
5955 1532 M
154 0 V
stroke
6721 1819 154 1236 40 30 0 PatternFill
6798 1480 M
0 339 V
0 1236 R
0 1380 V
stroke
6721 1819 N
154 0 V
0 1236 V
-154 0 V
0 -1236 V
Z stroke
6721 4435 M
154 0 V
6721 1480 M
154 0 V
stroke
7488 1863 154 1261 40 30 0 PatternFill
7565 1506 M
0 357 V
0 1261 R
0 1369 V
stroke
7488 1863 N
154 0 V
0 1261 V
-154 0 V
0 -1261 V
Z stroke
7488 4493 M
154 0 V
7488 1506 M
154 0 V
stroke
8254 1812 154 1343 40 30 0 PatternFill
8331 1455 M
0 357 V
0 1343 R
0 1476 V
stroke
8254 1812 N
154 0 V
0 1343 V
-154 0 V
0 -1343 V
Z stroke
8254 4631 M
154 0 V
8254 1455 M
154 0 V
stroke
9020 1830 154 1188 40 30 0 PatternFill
9097 1439 M
0 391 V
0 1188 R
0 1383 V
stroke
9020 1830 N
154 0 V
0 1188 V
-154 0 V
0 -1188 V
Z stroke
9020 4401 M
154 0 V
9020 1439 M
154 0 V
stroke
9786 1818 154 1205 40 30 0 PatternFill
9863 1472 M
0 346 V
0 1205 R
0 1388 V
stroke
9786 1818 N
154 0 V
0 1205 V
-154 0 V
0 -1205 V
Z stroke
9786 4411 M
154 0 V
9786 1472 M
154 0 V
stroke
10552 1857 154 1211 40 30 0 PatternFill
10629 1500 M
0 357 V
0 1211 R
0 1324 V
stroke
10552 1857 N
154 0 V
0 1211 V
-154 0 V
0 -1211 V
Z stroke
10552 4392 M
154 0 V
10552 1500 M
154 0 V
stroke
11318 1873 154 1217 40 30 0 PatternFill
11395 1497 M
0 376 V
0 1217 R
0 1400 V
stroke
11318 1873 N
154 0 V
0 1217 V
-154 0 V
0 -1217 V
Z stroke
11318 4490 M
154 0 V
11318 1497 M
154 0 V
stroke
12085 1829 154 1163 40 30 0 PatternFill
12162 1489 M
0 340 V
0 1163 R
0 1389 V
stroke
12085 1829 N
154 0 V
0 1163 V
-154 0 V
0 -1163 V
Z stroke
12085 4381 M
154 0 V
12085 1489 M
154 0 V
stroke
12851 1824 154 1176 40 30 0 PatternFill
12928 1465 M
0 359 V
0 1176 R
0 1377 V
stroke
12851 1824 N
154 0 V
0 1176 V
-154 0 V
0 -1176 V
Z stroke
12851 4377 M
154 0 V
12851 1465 M
154 0 V
% End plot #7
% Begin plot #8
stroke
LTb
LCb setrgbcolor

 /TransparentPatterns true def
1358 2603 154 0 40 -30 0 PatternFill
1435 2603 M
stroke
1358 2603 N
154 0 V
-154 0 V
Z stroke
1358 2603 M
154 0 V
-154 0 R
154 0 V
stroke

 /TransparentPatterns true def
2124 2633 154 0 40 -30 0 PatternFill
2201 2633 M
stroke
2124 2633 N
154 0 V
-154 0 V
Z stroke
2124 2633 M
154 0 V
-154 0 R
154 0 V
stroke

 /TransparentPatterns true def
2890 2608 154 0 40 -30 0 PatternFill
2967 2608 M
stroke
2890 2608 N
154 0 V
-154 0 V
Z stroke
2890 2608 M
154 0 V
-154 0 R
154 0 V
stroke

 /TransparentPatterns true def
3657 2586 154 0 40 -30 0 PatternFill
3734 2586 M
stroke
3657 2586 N
154 0 V
-154 0 V
Z stroke
3657 2586 M
154 0 V
-154 0 R
154 0 V
stroke

 /TransparentPatterns true def
4423 2573 154 0 40 -30 0 PatternFill
4500 2573 M
stroke
4423 2573 N
154 0 V
-154 0 V
Z stroke
4423 2573 M
154 0 V
-154 0 R
154 0 V
stroke

 /TransparentPatterns true def
5189 2646 154 0 40 -30 0 PatternFill
5266 2646 M
stroke
5189 2646 N
154 0 V
-154 0 V
Z stroke
5189 2646 M
154 0 V
-154 0 R
154 0 V
stroke

 /TransparentPatterns true def
5955 2641 154 0 40 -30 0 PatternFill
6032 2641 M
stroke
5955 2641 N
154 0 V
-154 0 V
Z stroke
5955 2641 M
154 0 V
-154 0 R
154 0 V
stroke

 /TransparentPatterns true def
6721 2582 154 0 40 -30 0 PatternFill
6798 2582 M
stroke
6721 2582 N
154 0 V
-154 0 V
Z stroke
6721 2582 M
154 0 V
-154 0 R
154 0 V
stroke

 /TransparentPatterns true def
7488 2617 154 0 40 -30 0 PatternFill
7565 2617 M
stroke
7488 2617 N
154 0 V
-154 0 V
Z stroke
7488 2617 M
154 0 V
-154 0 R
154 0 V
stroke

 /TransparentPatterns true def
8254 2608 154 0 40 -30 0 PatternFill
8331 2608 M
stroke
8254 2608 N
154 0 V
-154 0 V
Z stroke
8254 2608 M
154 0 V
-154 0 R
154 0 V
stroke

 /TransparentPatterns true def
9020 2572 154 0 40 -30 0 PatternFill
9097 2572 M
stroke
9020 2572 N
154 0 V
-154 0 V
Z stroke
9020 2572 M
154 0 V
-154 0 R
154 0 V
stroke

 /TransparentPatterns true def
9786 2554 154 0 40 -30 0 PatternFill
9863 2554 M
stroke
9786 2554 N
154 0 V
-154 0 V
Z stroke
9786 2554 M
154 0 V
-154 0 R
154 0 V
stroke

 /TransparentPatterns true def
10552 2588 154 0 40 -30 0 PatternFill
10629 2588 M
stroke
10552 2588 N
154 0 V
-154 0 V
Z stroke
10552 2588 M
154 0 V
-154 0 R
154 0 V
stroke

 /TransparentPatterns true def
11318 2616 154 0 40 -30 0 PatternFill
11395 2616 M
stroke
11318 2616 N
154 0 V
-154 0 V
Z stroke
11318 2616 M
154 0 V
-154 0 R
154 0 V
stroke

 /TransparentPatterns true def
12085 2546 154 0 40 -30 0 PatternFill
12162 2546 M
stroke
12085 2546 N
154 0 V
-154 0 V
Z stroke
12085 2546 M
154 0 V
-154 0 R
154 0 V
stroke

 /TransparentPatterns true def
12851 2549 154 0 40 -30 0 PatternFill
12928 2549 M
stroke
12851 2549 N
154 0 V
-154 0 V
Z stroke
12851 2549 M
154 0 V
-154 0 R
154 0 V
% End plot #8
% Begin plot #9
2.000 UP
stroke
LTa
0.00 0.38 0.82 C LCb setrgbcolor
11800 153 M
[ [(Arial) 180.0 0.0 true true 0 ( )]
] -60.0 MRshow
2.000 UP
1.000 UL
LTa
0.00 0.38 0.82 C 11908 153 M
333 0 V
860 4723 M
575 0 V
766 0 V
766 0 V
766 0 V
766 0 V
767 0 V
766 0 V
766 0 V
766 0 V
766 0 V
767 0 V
766 0 V
766 0 V
766 0 V
766 0 V
766 0 V
192 0 V
1435 4723 TriU
2201 4723 TriU
2967 4723 TriU
3733 4723 TriU
4499 4723 TriU
5266 4723 TriU
6032 4723 TriU
6798 4723 TriU
7564 4723 TriU
8330 4723 TriU
9097 4723 TriU
9863 4723 TriU
10629 4723 TriU
11395 4723 TriU
12161 4723 TriU
12927 4723 TriU
12074 153 TriU
% End plot #9
2.000 UL
LTb
LCb setrgbcolor
1.000 UP
1.000 UL
LTb
0.00 0.00 0.00 C stroke
grestore
end
showpage
%%Trailer
%%DocumentFonts: Arial
