%!PS-Adobe-2.0 EPSF-2.0
%%Title: TcpWestwood-download-finishtime-100UE-panoramic.eps
%%Creator: gnuplot 5.0 patchlevel 3
%%CreationDate: Tue Jun  7 16:10:54 2016
%%DocumentFonts: (atend)
%%BoundingBox: 50 50 770 302
%%EndComments
%%BeginProlog
/gnudict 256 dict def
gnudict begin
%
% The following true/false flags may be edited by hand if desired.
% The unit line width and grayscale image gamma correction may also be changed.
%
/Color true def
/Blacktext false def
/Solid false def
/Dashlength 3 def
/Landscape false def
/Level1 false def
/Level3 false def
/Rounded false def
/ClipToBoundingBox false def
/SuppressPDFMark false def
/TransparentPatterns false def
/gnulinewidth 15.000 def
/userlinewidth gnulinewidth def
/Gamma 1.0 def
/BackgroundColor {-1.000 -1.000 -1.000} def
%
/vshift -66 def
/dl1 {
  10.0 Dashlength userlinewidth gnulinewidth div mul mul mul
  Rounded { currentlinewidth 0.75 mul sub dup 0 le { pop 0.01 } if } if
} def
/dl2 {
  10.0 Dashlength userlinewidth gnulinewidth div mul mul mul
  Rounded { currentlinewidth 0.75 mul add } if
} def
/hpt_ 31.5 def
/vpt_ 31.5 def
/hpt hpt_ def
/vpt vpt_ def
/doclip {
  ClipToBoundingBox {
    newpath 50 50 moveto 770 50 lineto 770 302 lineto 50 302 lineto closepath
    clip
  } if
} def
%
% Gnuplot Prolog Version 5.1 (Oct 2015)
%
%/SuppressPDFMark true def
%
/M {moveto} bind def
/L {lineto} bind def
/R {rmoveto} bind def
/V {rlineto} bind def
/N {newpath moveto} bind def
/Z {closepath} bind def
/C {setrgbcolor} bind def
/f {rlineto fill} bind def
/g {setgray} bind def
/Gshow {show} def   % May be redefined later in the file to support UTF-8
/vpt2 vpt 2 mul def
/hpt2 hpt 2 mul def
/Lshow {currentpoint stroke M 0 vshift R 
	Blacktext {gsave 0 setgray textshow grestore} {textshow} ifelse} def
/Rshow {currentpoint stroke M dup stringwidth pop neg vshift R
	Blacktext {gsave 0 setgray textshow grestore} {textshow} ifelse} def
/Cshow {currentpoint stroke M dup stringwidth pop -2 div vshift R 
	Blacktext {gsave 0 setgray textshow grestore} {textshow} ifelse} def
/UP {dup vpt_ mul /vpt exch def hpt_ mul /hpt exch def
  /hpt2 hpt 2 mul def /vpt2 vpt 2 mul def} def
/DL {Color {setrgbcolor Solid {pop []} if 0 setdash}
 {pop pop pop 0 setgray Solid {pop []} if 0 setdash} ifelse} def
/BL {stroke userlinewidth 2 mul setlinewidth
	Rounded {1 setlinejoin 1 setlinecap} if} def
/AL {stroke userlinewidth 2 div setlinewidth
	Rounded {1 setlinejoin 1 setlinecap} if} def
/UL {dup gnulinewidth mul /userlinewidth exch def
	dup 1 lt {pop 1} if 10 mul /udl exch def} def
/PL {stroke userlinewidth setlinewidth
	Rounded {1 setlinejoin 1 setlinecap} if} def
3.8 setmiterlimit
% Classic Line colors (version 5.0)
/LCw {1 1 1} def
/LCb {0 0 0} def
/LCa {0 0 0} def
/LC0 {1 0 0} def
/LC1 {0 1 0} def
/LC2 {0 0 1} def
/LC3 {1 0 1} def
/LC4 {0 1 1} def
/LC5 {1 1 0} def
/LC6 {0 0 0} def
/LC7 {1 0.3 0} def
/LC8 {0.5 0.5 0.5} def
% Default dash patterns (version 5.0)
/LTB {BL [] LCb DL} def
/LTw {PL [] 1 setgray} def
/LTb {PL [] LCb DL} def
/LTa {AL [1 udl mul 2 udl mul] 0 setdash LCa setrgbcolor} def
/LT0 {PL [] LC0 DL} def
/LT1 {PL [2 dl1 3 dl2] LC1 DL} def
/LT2 {PL [1 dl1 1.5 dl2] LC2 DL} def
/LT3 {PL [6 dl1 2 dl2 1 dl1 2 dl2] LC3 DL} def
/LT4 {PL [1 dl1 2 dl2 6 dl1 2 dl2 1 dl1 2 dl2] LC4 DL} def
/LT5 {PL [4 dl1 2 dl2] LC5 DL} def
/LT6 {PL [1.5 dl1 1.5 dl2 1.5 dl1 1.5 dl2 1.5 dl1 6 dl2] LC6 DL} def
/LT7 {PL [3 dl1 3 dl2 1 dl1 3 dl2] LC7 DL} def
/LT8 {PL [2 dl1 2 dl2 2 dl1 6 dl2] LC8 DL} def
/SL {[] 0 setdash} def
/Pnt {stroke [] 0 setdash gsave 1 setlinecap M 0 0 V stroke grestore} def
/Dia {stroke [] 0 setdash 2 copy vpt add M
  hpt neg vpt neg V hpt vpt neg V
  hpt vpt V hpt neg vpt V closepath stroke
  Pnt} def
/Pls {stroke [] 0 setdash vpt sub M 0 vpt2 V
  currentpoint stroke M
  hpt neg vpt neg R hpt2 0 V stroke
 } def
/Box {stroke [] 0 setdash 2 copy exch hpt sub exch vpt add M
  0 vpt2 neg V hpt2 0 V 0 vpt2 V
  hpt2 neg 0 V closepath stroke
  Pnt} def
/Crs {stroke [] 0 setdash exch hpt sub exch vpt add M
  hpt2 vpt2 neg V currentpoint stroke M
  hpt2 neg 0 R hpt2 vpt2 V stroke} def
/TriU {stroke [] 0 setdash 2 copy vpt 1.12 mul add M
  hpt neg vpt -1.62 mul V
  hpt 2 mul 0 V
  hpt neg vpt 1.62 mul V closepath stroke
  Pnt} def
/Star {2 copy Pls Crs} def
/BoxF {stroke [] 0 setdash exch hpt sub exch vpt add M
  0 vpt2 neg V hpt2 0 V 0 vpt2 V
  hpt2 neg 0 V closepath fill} def
/TriUF {stroke [] 0 setdash vpt 1.12 mul add M
  hpt neg vpt -1.62 mul V
  hpt 2 mul 0 V
  hpt neg vpt 1.62 mul V closepath fill} def
/TriD {stroke [] 0 setdash 2 copy vpt 1.12 mul sub M
  hpt neg vpt 1.62 mul V
  hpt 2 mul 0 V
  hpt neg vpt -1.62 mul V closepath stroke
  Pnt} def
/TriDF {stroke [] 0 setdash vpt 1.12 mul sub M
  hpt neg vpt 1.62 mul V
  hpt 2 mul 0 V
  hpt neg vpt -1.62 mul V closepath fill} def
/DiaF {stroke [] 0 setdash vpt add M
  hpt neg vpt neg V hpt vpt neg V
  hpt vpt V hpt neg vpt V closepath fill} def
/Pent {stroke [] 0 setdash 2 copy gsave
  translate 0 hpt M 4 {72 rotate 0 hpt L} repeat
  closepath stroke grestore Pnt} def
/PentF {stroke [] 0 setdash gsave
  translate 0 hpt M 4 {72 rotate 0 hpt L} repeat
  closepath fill grestore} def
/Circle {stroke [] 0 setdash 2 copy
  hpt 0 360 arc stroke Pnt} def
/CircleF {stroke [] 0 setdash hpt 0 360 arc fill} def
/C0 {BL [] 0 setdash 2 copy moveto vpt 90 450 arc} bind def
/C1 {BL [] 0 setdash 2 copy moveto
	2 copy vpt 0 90 arc closepath fill
	vpt 0 360 arc closepath} bind def
/C2 {BL [] 0 setdash 2 copy moveto
	2 copy vpt 90 180 arc closepath fill
	vpt 0 360 arc closepath} bind def
/C3 {BL [] 0 setdash 2 copy moveto
	2 copy vpt 0 180 arc closepath fill
	vpt 0 360 arc closepath} bind def
/C4 {BL [] 0 setdash 2 copy moveto
	2 copy vpt 180 270 arc closepath fill
	vpt 0 360 arc closepath} bind def
/C5 {BL [] 0 setdash 2 copy moveto
	2 copy vpt 0 90 arc
	2 copy moveto
	2 copy vpt 180 270 arc closepath fill
	vpt 0 360 arc} bind def
/C6 {BL [] 0 setdash 2 copy moveto
	2 copy vpt 90 270 arc closepath fill
	vpt 0 360 arc closepath} bind def
/C7 {BL [] 0 setdash 2 copy moveto
	2 copy vpt 0 270 arc closepath fill
	vpt 0 360 arc closepath} bind def
/C8 {BL [] 0 setdash 2 copy moveto
	2 copy vpt 270 360 arc closepath fill
	vpt 0 360 arc closepath} bind def
/C9 {BL [] 0 setdash 2 copy moveto
	2 copy vpt 270 450 arc closepath fill
	vpt 0 360 arc closepath} bind def
/C10 {BL [] 0 setdash 2 copy 2 copy moveto vpt 270 360 arc closepath fill
	2 copy moveto
	2 copy vpt 90 180 arc closepath fill
	vpt 0 360 arc closepath} bind def
/C11 {BL [] 0 setdash 2 copy moveto
	2 copy vpt 0 180 arc closepath fill
	2 copy moveto
	2 copy vpt 270 360 arc closepath fill
	vpt 0 360 arc closepath} bind def
/C12 {BL [] 0 setdash 2 copy moveto
	2 copy vpt 180 360 arc closepath fill
	vpt 0 360 arc closepath} bind def
/C13 {BL [] 0 setdash 2 copy moveto
	2 copy vpt 0 90 arc closepath fill
	2 copy moveto
	2 copy vpt 180 360 arc closepath fill
	vpt 0 360 arc closepath} bind def
/C14 {BL [] 0 setdash 2 copy moveto
	2 copy vpt 90 360 arc closepath fill
	vpt 0 360 arc} bind def
/C15 {BL [] 0 setdash 2 copy vpt 0 360 arc closepath fill
	vpt 0 360 arc closepath} bind def
/Rec {newpath 4 2 roll moveto 1 index 0 rlineto 0 exch rlineto
	neg 0 rlineto closepath} bind def
/Square {dup Rec} bind def
/Bsquare {vpt sub exch vpt sub exch vpt2 Square} bind def
/S0 {BL [] 0 setdash 2 copy moveto 0 vpt rlineto BL Bsquare} bind def
/S1 {BL [] 0 setdash 2 copy vpt Square fill Bsquare} bind def
/S2 {BL [] 0 setdash 2 copy exch vpt sub exch vpt Square fill Bsquare} bind def
/S3 {BL [] 0 setdash 2 copy exch vpt sub exch vpt2 vpt Rec fill Bsquare} bind def
/S4 {BL [] 0 setdash 2 copy exch vpt sub exch vpt sub vpt Square fill Bsquare} bind def
/S5 {BL [] 0 setdash 2 copy 2 copy vpt Square fill
	exch vpt sub exch vpt sub vpt Square fill Bsquare} bind def
/S6 {BL [] 0 setdash 2 copy exch vpt sub exch vpt sub vpt vpt2 Rec fill Bsquare} bind def
/S7 {BL [] 0 setdash 2 copy exch vpt sub exch vpt sub vpt vpt2 Rec fill
	2 copy vpt Square fill Bsquare} bind def
/S8 {BL [] 0 setdash 2 copy vpt sub vpt Square fill Bsquare} bind def
/S9 {BL [] 0 setdash 2 copy vpt sub vpt vpt2 Rec fill Bsquare} bind def
/S10 {BL [] 0 setdash 2 copy vpt sub vpt Square fill 2 copy exch vpt sub exch vpt Square fill
	Bsquare} bind def
/S11 {BL [] 0 setdash 2 copy vpt sub vpt Square fill 2 copy exch vpt sub exch vpt2 vpt Rec fill
	Bsquare} bind def
/S12 {BL [] 0 setdash 2 copy exch vpt sub exch vpt sub vpt2 vpt Rec fill Bsquare} bind def
/S13 {BL [] 0 setdash 2 copy exch vpt sub exch vpt sub vpt2 vpt Rec fill
	2 copy vpt Square fill Bsquare} bind def
/S14 {BL [] 0 setdash 2 copy exch vpt sub exch vpt sub vpt2 vpt Rec fill
	2 copy exch vpt sub exch vpt Square fill Bsquare} bind def
/S15 {BL [] 0 setdash 2 copy Bsquare fill Bsquare} bind def
/D0 {gsave translate 45 rotate 0 0 S0 stroke grestore} bind def
/D1 {gsave translate 45 rotate 0 0 S1 stroke grestore} bind def
/D2 {gsave translate 45 rotate 0 0 S2 stroke grestore} bind def
/D3 {gsave translate 45 rotate 0 0 S3 stroke grestore} bind def
/D4 {gsave translate 45 rotate 0 0 S4 stroke grestore} bind def
/D5 {gsave translate 45 rotate 0 0 S5 stroke grestore} bind def
/D6 {gsave translate 45 rotate 0 0 S6 stroke grestore} bind def
/D7 {gsave translate 45 rotate 0 0 S7 stroke grestore} bind def
/D8 {gsave translate 45 rotate 0 0 S8 stroke grestore} bind def
/D9 {gsave translate 45 rotate 0 0 S9 stroke grestore} bind def
/D10 {gsave translate 45 rotate 0 0 S10 stroke grestore} bind def
/D11 {gsave translate 45 rotate 0 0 S11 stroke grestore} bind def
/D12 {gsave translate 45 rotate 0 0 S12 stroke grestore} bind def
/D13 {gsave translate 45 rotate 0 0 S13 stroke grestore} bind def
/D14 {gsave translate 45 rotate 0 0 S14 stroke grestore} bind def
/D15 {gsave translate 45 rotate 0 0 S15 stroke grestore} bind def
/DiaE {stroke [] 0 setdash vpt add M
  hpt neg vpt neg V hpt vpt neg V
  hpt vpt V hpt neg vpt V closepath stroke} def
/BoxE {stroke [] 0 setdash exch hpt sub exch vpt add M
  0 vpt2 neg V hpt2 0 V 0 vpt2 V
  hpt2 neg 0 V closepath stroke} def
/TriUE {stroke [] 0 setdash vpt 1.12 mul add M
  hpt neg vpt -1.62 mul V
  hpt 2 mul 0 V
  hpt neg vpt 1.62 mul V closepath stroke} def
/TriDE {stroke [] 0 setdash vpt 1.12 mul sub M
  hpt neg vpt 1.62 mul V
  hpt 2 mul 0 V
  hpt neg vpt -1.62 mul V closepath stroke} def
/PentE {stroke [] 0 setdash gsave
  translate 0 hpt M 4 {72 rotate 0 hpt L} repeat
  closepath stroke grestore} def
/CircE {stroke [] 0 setdash 
  hpt 0 360 arc stroke} def
/Opaque {gsave closepath 1 setgray fill grestore 0 setgray closepath} def
/DiaW {stroke [] 0 setdash vpt add M
  hpt neg vpt neg V hpt vpt neg V
  hpt vpt V hpt neg vpt V Opaque stroke} def
/BoxW {stroke [] 0 setdash exch hpt sub exch vpt add M
  0 vpt2 neg V hpt2 0 V 0 vpt2 V
  hpt2 neg 0 V Opaque stroke} def
/TriUW {stroke [] 0 setdash vpt 1.12 mul add M
  hpt neg vpt -1.62 mul V
  hpt 2 mul 0 V
  hpt neg vpt 1.62 mul V Opaque stroke} def
/TriDW {stroke [] 0 setdash vpt 1.12 mul sub M
  hpt neg vpt 1.62 mul V
  hpt 2 mul 0 V
  hpt neg vpt -1.62 mul V Opaque stroke} def
/PentW {stroke [] 0 setdash gsave
  translate 0 hpt M 4 {72 rotate 0 hpt L} repeat
  Opaque stroke grestore} def
/CircW {stroke [] 0 setdash 
  hpt 0 360 arc Opaque stroke} def
/BoxFill {gsave Rec 1 setgray fill grestore} def
/Density {
  /Fillden exch def
  currentrgbcolor
  /ColB exch def /ColG exch def /ColR exch def
  /ColR ColR Fillden mul Fillden sub 1 add def
  /ColG ColG Fillden mul Fillden sub 1 add def
  /ColB ColB Fillden mul Fillden sub 1 add def
  ColR ColG ColB setrgbcolor} def
/BoxColFill {gsave Rec PolyFill} def
/PolyFill {gsave Density fill grestore grestore} def
/h {rlineto rlineto rlineto gsave closepath fill grestore} bind def
%
% PostScript Level 1 Pattern Fill routine for rectangles
% Usage: x y w h s a XX PatternFill
%	x,y = lower left corner of box to be filled
%	w,h = width and height of box
%	  a = angle in degrees between lines and x-axis
%	 XX = 0/1 for no/yes cross-hatch
%
/PatternFill {gsave /PFa [ 9 2 roll ] def
  PFa 0 get PFa 2 get 2 div add PFa 1 get PFa 3 get 2 div add translate
  PFa 2 get -2 div PFa 3 get -2 div PFa 2 get PFa 3 get Rec
  TransparentPatterns {} {gsave 1 setgray fill grestore} ifelse
  clip
  currentlinewidth 0.5 mul setlinewidth
  /PFs PFa 2 get dup mul PFa 3 get dup mul add sqrt def
  0 0 M PFa 5 get rotate PFs -2 div dup translate
  0 1 PFs PFa 4 get div 1 add floor cvi
	{PFa 4 get mul 0 M 0 PFs V} for
  0 PFa 6 get ne {
	0 1 PFs PFa 4 get div 1 add floor cvi
	{PFa 4 get mul 0 2 1 roll M PFs 0 V} for
 } if
  stroke grestore} def
%
/languagelevel where
 {pop languagelevel} {1} ifelse
dup 2 lt
	{/InterpretLevel1 true def
	 /InterpretLevel3 false def}
	{/InterpretLevel1 Level1 def
	 2 gt
	    {/InterpretLevel3 Level3 def}
	    {/InterpretLevel3 false def}
	 ifelse }
 ifelse
%
% PostScript level 2 pattern fill definitions
%
/Level2PatternFill {
/Tile8x8 {/PaintType 2 /PatternType 1 /TilingType 1 /BBox [0 0 8 8] /XStep 8 /YStep 8}
	bind def
/KeepColor {currentrgbcolor [/Pattern /DeviceRGB] setcolorspace} bind def
<< Tile8x8
 /PaintProc {0.5 setlinewidth pop 0 0 M 8 8 L 0 8 M 8 0 L stroke} 
>> matrix makepattern
/Pat1 exch def
<< Tile8x8
 /PaintProc {0.5 setlinewidth pop 0 0 M 8 8 L 0 8 M 8 0 L stroke
	0 4 M 4 8 L 8 4 L 4 0 L 0 4 L stroke}
>> matrix makepattern
/Pat2 exch def
<< Tile8x8
 /PaintProc {0.5 setlinewidth pop 0 0 M 0 8 L
	8 8 L 8 0 L 0 0 L fill}
>> matrix makepattern
/Pat3 exch def
<< Tile8x8
 /PaintProc {0.5 setlinewidth pop -4 8 M 8 -4 L
	0 12 M 12 0 L stroke}
>> matrix makepattern
/Pat4 exch def
<< Tile8x8
 /PaintProc {0.5 setlinewidth pop -4 0 M 8 12 L
	0 -4 M 12 8 L stroke}
>> matrix makepattern
/Pat5 exch def
<< Tile8x8
 /PaintProc {0.5 setlinewidth pop -2 8 M 4 -4 L
	0 12 M 8 -4 L 4 12 M 10 0 L stroke}
>> matrix makepattern
/Pat6 exch def
<< Tile8x8
 /PaintProc {0.5 setlinewidth pop -2 0 M 4 12 L
	0 -4 M 8 12 L 4 -4 M 10 8 L stroke}
>> matrix makepattern
/Pat7 exch def
<< Tile8x8
 /PaintProc {0.5 setlinewidth pop 8 -2 M -4 4 L
	12 0 M -4 8 L 12 4 M 0 10 L stroke}
>> matrix makepattern
/Pat8 exch def
<< Tile8x8
 /PaintProc {0.5 setlinewidth pop 0 -2 M 12 4 L
	-4 0 M 12 8 L -4 4 M 8 10 L stroke}
>> matrix makepattern
/Pat9 exch def
/Pattern1 {PatternBgnd KeepColor Pat1 setpattern} bind def
/Pattern2 {PatternBgnd KeepColor Pat2 setpattern} bind def
/Pattern3 {PatternBgnd KeepColor Pat3 setpattern} bind def
/Pattern4 {PatternBgnd KeepColor Landscape {Pat5} {Pat4} ifelse setpattern} bind def
/Pattern5 {PatternBgnd KeepColor Landscape {Pat4} {Pat5} ifelse setpattern} bind def
/Pattern6 {PatternBgnd KeepColor Landscape {Pat9} {Pat6} ifelse setpattern} bind def
/Pattern7 {PatternBgnd KeepColor Landscape {Pat8} {Pat7} ifelse setpattern} bind def
} def
%
%
%End of PostScript Level 2 code
%
/PatternBgnd {
  TransparentPatterns {} {gsave 1 setgray fill grestore} ifelse
} def
%
% Substitute for Level 2 pattern fill codes with
% grayscale if Level 2 support is not selected.
%
/Level1PatternFill {
/Pattern1 {0.250 Density} bind def
/Pattern2 {0.500 Density} bind def
/Pattern3 {0.750 Density} bind def
/Pattern4 {0.125 Density} bind def
/Pattern5 {0.375 Density} bind def
/Pattern6 {0.625 Density} bind def
/Pattern7 {0.875 Density} bind def
} def
%
% Now test for support of Level 2 code
%
Level1 {Level1PatternFill} {Level2PatternFill} ifelse
%
/Symbol-Oblique /Symbol findfont [1 0 .167 1 0 0] makefont
dup length dict begin {1 index /FID eq {pop pop} {def} ifelse} forall
currentdict end definefont pop
%
/MFshow {
   { dup 5 get 3 ge
     { 5 get 3 eq {gsave} {grestore} ifelse }
     {dup dup 0 get findfont exch 1 get scalefont setfont
     [ currentpoint ] exch dup 2 get 0 exch R dup 5 get 2 ne {dup dup 6
     get exch 4 get {textshow} {stringwidth pop 0 R} ifelse }if dup 5 get 0 eq
     {dup 3 get {2 get neg 0 exch R pop} {pop aload pop M} ifelse} {dup 5
     get 1 eq {dup 2 get exch dup 3 get exch 6 get stringwidth pop -2 div
     dup 0 R} {dup 6 get stringwidth pop -2 div 0 R 6 get
     textshow 2 index {aload pop M neg 3 -1 roll neg R pop pop} {pop pop pop
     pop aload pop M} ifelse }ifelse }ifelse }
     ifelse }
   forall} def
/Gswidth {dup type /stringtype eq {stringwidth} {pop (n) stringwidth} ifelse} def
/MFwidth {0 exch { dup 5 get 3 ge { 5 get 3 eq { 0 } { pop } ifelse }
 {dup 3 get{dup dup 0 get findfont exch 1 get scalefont setfont
     6 get Gswidth pop add} {pop} ifelse} ifelse} forall} def
/MLshow { currentpoint stroke M
  0 exch R
  Blacktext {gsave 0 setgray MFshow grestore} {MFshow} ifelse } bind def
/MRshow { currentpoint stroke M
  exch dup MFwidth neg 3 -1 roll R
  Blacktext {gsave 0 setgray MFshow grestore} {MFshow} ifelse } bind def
/MCshow { currentpoint stroke M
  exch dup MFwidth -2 div 3 -1 roll R
  Blacktext {gsave 0 setgray MFshow grestore} {MFshow} ifelse } bind def
/XYsave    { [( ) 1 2 true false 3 ()] } bind def
/XYrestore { [( ) 1 2 true false 4 ()] } bind def
Level1 SuppressPDFMark or 
{} {
/SDict 10 dict def
systemdict /pdfmark known not {
  userdict /pdfmark systemdict /cleartomark get put
} if
SDict begin [
  /Title (TcpWestwood-download-finishtime-100UE-panoramic.eps)
  /Subject (gnuplot plot)
  /Creator (gnuplot 5.0 patchlevel 3)
  /Author (nat)
%  /Producer (gnuplot)
%  /Keywords ()
  /CreationDate (Tue Jun  7 16:10:54 2016)
  /DOCINFO pdfmark
end
} ifelse
%
% Support for boxed text - Ethan A Merritt May 2005
%
/InitTextBox { userdict /TBy2 3 -1 roll put userdict /TBx2 3 -1 roll put
           userdict /TBy1 3 -1 roll put userdict /TBx1 3 -1 roll put
	   /Boxing true def } def
/ExtendTextBox { Boxing
    { gsave dup false charpath pathbbox
      dup TBy2 gt {userdict /TBy2 3 -1 roll put} {pop} ifelse
      dup TBx2 gt {userdict /TBx2 3 -1 roll put} {pop} ifelse
      dup TBy1 lt {userdict /TBy1 3 -1 roll put} {pop} ifelse
      dup TBx1 lt {userdict /TBx1 3 -1 roll put} {pop} ifelse
      grestore } if } def
/PopTextBox { newpath TBx1 TBxmargin sub TBy1 TBymargin sub M
               TBx1 TBxmargin sub TBy2 TBymargin add L
	       TBx2 TBxmargin add TBy2 TBymargin add L
	       TBx2 TBxmargin add TBy1 TBymargin sub L closepath } def
/DrawTextBox { PopTextBox stroke /Boxing false def} def
/FillTextBox { gsave PopTextBox 1 1 1 setrgbcolor fill grestore /Boxing false def} def
0 0 0 0 InitTextBox
/TBxmargin 20 def
/TBymargin 20 def
/Boxing false def
/textshow { ExtendTextBox Gshow } def
%
% redundant definitions for compatibility with prologue.ps older than 5.0.2
/LTB {BL [] LCb DL} def
/LTb {PL [] LCb DL} def
end
%%EndProlog
%%Page: 1 1
gnudict begin
gsave
doclip
50 50 translate
0.050 0.050 scale
0 setgray
newpath
(Arial) findfont 200 scalefont setfont
BackgroundColor 0 lt 3 1 roll 0 lt exch 0 lt or or not {BackgroundColor C 1.000 0 0 14400.00 5040.00 BoxColFill} if
1.000 UL
LTb
0.00 0.00 0.00 C 0.500 UL
LTa
0.50 0.50 0.50 C 980 1000 M
12139 0 V
stroke
1.000 UL
LTb
0.00 0.00 0.00 C 980 1000 M
63 0 V
stroke
860 1000 M
[ [(Arial) 200.0 0.0 true true 0 ( 0)]
] -66.7 MRshow
1.000 UL
LTb
0.00 0.00 0.00 C 0.500 UL
LTa
0.50 0.50 0.50 C 980 1475 M
12139 0 V
stroke
1.000 UL
LTb
0.00 0.00 0.00 C 980 1475 M
63 0 V
stroke
860 1475 M
[ [(Arial) 200.0 0.0 true true 0 ( 20)]
] -66.7 MRshow
1.000 UL
LTb
0.00 0.00 0.00 C 0.500 UL
LTa
0.50 0.50 0.50 C 980 1950 M
12139 0 V
stroke
1.000 UL
LTb
0.00 0.00 0.00 C 980 1950 M
63 0 V
stroke
860 1950 M
[ [(Arial) 200.0 0.0 true true 0 ( 40)]
] -66.7 MRshow
1.000 UL
LTb
0.00 0.00 0.00 C 0.500 UL
LTa
0.50 0.50 0.50 C 980 2425 M
12139 0 V
stroke
1.000 UL
LTb
0.00 0.00 0.00 C 980 2425 M
63 0 V
stroke
860 2425 M
[ [(Arial) 200.0 0.0 true true 0 ( 60)]
] -66.7 MRshow
1.000 UL
LTb
0.00 0.00 0.00 C 0.500 UL
LTa
0.50 0.50 0.50 C 980 2900 M
12139 0 V
stroke
1.000 UL
LTb
0.00 0.00 0.00 C 980 2900 M
63 0 V
stroke
860 2900 M
[ [(Arial) 200.0 0.0 true true 0 ( 80)]
] -66.7 MRshow
1.000 UL
LTb
0.00 0.00 0.00 C 0.500 UL
LTa
0.50 0.50 0.50 C 980 3374 M
12139 0 V
stroke
1.000 UL
LTb
0.00 0.00 0.00 C 980 3374 M
63 0 V
stroke
860 3374 M
[ [(Arial) 200.0 0.0 true true 0 ( 100)]
] -66.7 MRshow
1.000 UL
LTb
0.00 0.00 0.00 C 0.500 UL
LTa
0.50 0.50 0.50 C 980 3849 M
12139 0 V
stroke
1.000 UL
LTb
0.00 0.00 0.00 C 980 3849 M
63 0 V
stroke
860 3849 M
[ [(Arial) 200.0 0.0 true true 0 ( 120)]
] -66.7 MRshow
1.000 UL
LTb
0.00 0.00 0.00 C 0.500 UL
LTa
0.50 0.50 0.50 C 980 4324 M
12139 0 V
stroke
1.000 UL
LTb
0.00 0.00 0.00 C 980 4324 M
63 0 V
stroke
860 4324 M
[ [(Arial) 200.0 0.0 true true 0 ( 140)]
] -66.7 MRshow
1.000 UL
LTb
0.00 0.00 0.00 C 0.500 UL
LTa
0.50 0.50 0.50 C 980 4799 M
12139 0 V
stroke
1.000 UL
LTb
0.00 0.00 0.00 C 980 4799 M
63 0 V
stroke
860 4799 M
[ [(Arial) 200.0 0.0 true true 0 ( 160)]
] -66.7 MRshow
1.000 UL
LTb
0.00 0.00 0.00 C 0.500 UL
LTa
0.50 0.50 0.50 C 1235 1000 M
0 3799 V
stroke
1.000 UL
LTb
0.00 0.00 0.00 C 1235 1000 M
0 63 V
0 3736 R
0 -63 V
stroke
1235 800 M
[ [(Arial) 200.0 0.0 true true 0 ( 60)]
] -66.7 MCshow
1.000 UL
LTb
0.00 0.00 0.00 C 0.500 UL
LTa
0.50 0.50 0.50 C 1847 1000 M
0 3799 V
stroke
1.000 UL
LTb
0.00 0.00 0.00 C 1847 1000 M
0 63 V
0 3736 R
0 -63 V
stroke
1847 800 M
[ [(Arial) 200.0 0.0 true true 0 ( 120)]
] -66.7 MCshow
1.000 UL
LTb
0.00 0.00 0.00 C 0.500 UL
LTa
0.50 0.50 0.50 C 2459 1000 M
0 3799 V
stroke
1.000 UL
LTb
0.00 0.00 0.00 C 2459 1000 M
0 63 V
0 3736 R
0 -63 V
stroke
2459 800 M
[ [(Arial) 200.0 0.0 true true 0 ( 180)]
] -66.7 MCshow
1.000 UL
LTb
0.00 0.00 0.00 C 0.500 UL
LTa
0.50 0.50 0.50 C 3071 1000 M
0 3799 V
stroke
1.000 UL
LTb
0.00 0.00 0.00 C 3071 1000 M
0 63 V
0 3736 R
0 -63 V
stroke
3071 800 M
[ [(Arial) 200.0 0.0 true true 0 ( 240)]
] -66.7 MCshow
1.000 UL
LTb
0.00 0.00 0.00 C 0.500 UL
LTa
0.50 0.50 0.50 C 3683 1000 M
0 3799 V
stroke
1.000 UL
LTb
0.00 0.00 0.00 C 3683 1000 M
0 63 V
0 3736 R
0 -63 V
stroke
3683 800 M
[ [(Arial) 200.0 0.0 true true 0 ( 300)]
] -66.7 MCshow
1.000 UL
LTb
0.00 0.00 0.00 C 0.500 UL
LTa
0.50 0.50 0.50 C 4295 1000 M
0 3799 V
stroke
1.000 UL
LTb
0.00 0.00 0.00 C 4295 1000 M
0 63 V
0 3736 R
0 -63 V
stroke
4295 800 M
[ [(Arial) 200.0 0.0 true true 0 ( 360)]
] -66.7 MCshow
1.000 UL
LTb
0.00 0.00 0.00 C 0.500 UL
LTa
0.50 0.50 0.50 C 4907 1000 M
0 3799 V
stroke
1.000 UL
LTb
0.00 0.00 0.00 C 4907 1000 M
0 63 V
0 3736 R
0 -63 V
stroke
4907 800 M
[ [(Arial) 200.0 0.0 true true 0 ( 420)]
] -66.7 MCshow
1.000 UL
LTb
0.00 0.00 0.00 C 0.500 UL
LTa
0.50 0.50 0.50 C 5519 1000 M
0 3799 V
stroke
1.000 UL
LTb
0.00 0.00 0.00 C 5519 1000 M
0 63 V
0 3736 R
0 -63 V
stroke
5519 800 M
[ [(Arial) 200.0 0.0 true true 0 ( 480)]
] -66.7 MCshow
1.000 UL
LTb
0.00 0.00 0.00 C 0.500 UL
LTa
0.50 0.50 0.50 C 6131 1000 M
0 3799 V
stroke
1.000 UL
LTb
0.00 0.00 0.00 C 6131 1000 M
0 63 V
0 3736 R
0 -63 V
stroke
6131 800 M
[ [(Arial) 200.0 0.0 true true 0 ( 540)]
] -66.7 MCshow
1.000 UL
LTb
0.00 0.00 0.00 C 0.500 UL
LTa
0.50 0.50 0.50 C 6743 1000 M
0 3799 V
stroke
1.000 UL
LTb
0.00 0.00 0.00 C 6743 1000 M
0 63 V
0 3736 R
0 -63 V
stroke
6743 800 M
[ [(Arial) 200.0 0.0 true true 0 ( 600)]
] -66.7 MCshow
1.000 UL
LTb
0.00 0.00 0.00 C 0.500 UL
LTa
0.50 0.50 0.50 C 7356 1000 M
0 3799 V
stroke
1.000 UL
LTb
0.00 0.00 0.00 C 7356 1000 M
0 63 V
0 3736 R
0 -63 V
stroke
7356 800 M
[ [(Arial) 200.0 0.0 true true 0 ( 660)]
] -66.7 MCshow
1.000 UL
LTb
0.00 0.00 0.00 C 0.500 UL
LTa
0.50 0.50 0.50 C 7968 1000 M
0 3799 V
stroke
1.000 UL
LTb
0.00 0.00 0.00 C 7968 1000 M
0 63 V
0 3736 R
0 -63 V
stroke
7968 800 M
[ [(Arial) 200.0 0.0 true true 0 ( 720)]
] -66.7 MCshow
1.000 UL
LTb
0.00 0.00 0.00 C 0.500 UL
LTa
0.50 0.50 0.50 C 8580 1000 M
0 3799 V
stroke
1.000 UL
LTb
0.00 0.00 0.00 C 8580 1000 M
0 63 V
0 3736 R
0 -63 V
stroke
8580 800 M
[ [(Arial) 200.0 0.0 true true 0 ( 780)]
] -66.7 MCshow
1.000 UL
LTb
0.00 0.00 0.00 C 0.500 UL
LTa
0.50 0.50 0.50 C 9192 1000 M
0 3799 V
stroke
1.000 UL
LTb
0.00 0.00 0.00 C 9192 1000 M
0 63 V
0 3736 R
0 -63 V
stroke
9192 800 M
[ [(Arial) 200.0 0.0 true true 0 ( 840)]
] -66.7 MCshow
1.000 UL
LTb
0.00 0.00 0.00 C 0.500 UL
LTa
0.50 0.50 0.50 C 9804 1000 M
0 3799 V
stroke
1.000 UL
LTb
0.00 0.00 0.00 C 9804 1000 M
0 63 V
0 3736 R
0 -63 V
stroke
9804 800 M
[ [(Arial) 200.0 0.0 true true 0 ( 900)]
] -66.7 MCshow
1.000 UL
LTb
0.00 0.00 0.00 C 0.500 UL
LTa
0.50 0.50 0.50 C 10416 1000 M
0 3799 V
stroke
1.000 UL
LTb
0.00 0.00 0.00 C 10416 1000 M
0 63 V
0 3736 R
0 -63 V
stroke
10416 800 M
[ [(Arial) 200.0 0.0 true true 0 ( 960)]
] -66.7 MCshow
1.000 UL
LTb
0.00 0.00 0.00 C 0.500 UL
LTa
0.50 0.50 0.50 C 11028 1000 M
0 3799 V
stroke
1.000 UL
LTb
0.00 0.00 0.00 C 11028 1000 M
0 63 V
0 3736 R
0 -63 V
stroke
11028 800 M
[ [(Arial) 200.0 0.0 true true 0 ( 1020)]
] -66.7 MCshow
1.000 UL
LTb
0.00 0.00 0.00 C 0.500 UL
LTa
0.50 0.50 0.50 C 11640 1000 M
0 3799 V
stroke
1.000 UL
LTb
0.00 0.00 0.00 C 11640 1000 M
0 63 V
0 3736 R
0 -63 V
stroke
11640 800 M
[ [(Arial) 200.0 0.0 true true 0 ( 1080)]
] -66.7 MCshow
1.000 UL
LTb
0.00 0.00 0.00 C 0.500 UL
LTa
0.50 0.50 0.50 C 12252 1000 M
0 3799 V
stroke
1.000 UL
LTb
0.00 0.00 0.00 C 12252 1000 M
0 63 V
0 3736 R
0 -63 V
stroke
12252 800 M
[ [(Arial) 200.0 0.0 true true 0 ( 1140)]
] -66.7 MCshow
1.000 UL
LTb
0.00 0.00 0.00 C 0.500 UL
LTa
0.50 0.50 0.50 C 12864 1000 M
0 3799 V
stroke
1.000 UL
LTb
0.00 0.00 0.00 C 12864 1000 M
0 63 V
0 3736 R
0 -63 V
stroke
12864 800 M
[ [(Arial) 200.0 0.0 true true 0 ( 1200)]
] -66.7 MCshow
1.000 UL
LTb
0.00 0.00 0.00 C 13119 1000 M
-63 0 V
stroke
13239 1000 M
[ [(Arial) 200.0 0.0 true true 0 ( 0)]
] -66.7 MLshow
1.000 UL
LTb
0.00 0.00 0.00 C 13119 1760 M
-63 0 V
stroke
13239 1760 M
[ [(Arial) 200.0 0.0 true true 0 ( 20)]
] -66.7 MLshow
1.000 UL
LTb
0.00 0.00 0.00 C 13119 2520 M
-63 0 V
stroke
13239 2520 M
[ [(Arial) 200.0 0.0 true true 0 ( 40)]
] -66.7 MLshow
1.000 UL
LTb
0.00 0.00 0.00 C 13119 3279 M
-63 0 V
stroke
13239 3279 M
[ [(Arial) 200.0 0.0 true true 0 ( 60)]
] -66.7 MLshow
1.000 UL
LTb
0.00 0.00 0.00 C 13119 4039 M
-63 0 V
stroke
13239 4039 M
[ [(Arial) 200.0 0.0 true true 0 ( 80)]
] -66.7 MLshow
1.000 UL
LTb
0.00 0.00 0.00 C 13119 4799 M
-63 0 V
stroke
13239 4799 M
[ [(Arial) 200.0 0.0 true true 0 ( 100)]
] -66.7 MLshow
1.000 UL
LTb
0.00 0.00 0.00 C 1.000 UL
LTB
0.00 0.00 0.00 C 980 4799 M
0 -3799 V
12139 0 V
0 3799 R
980 4799 M
1.000 UP
stroke
LTb
0.00 0.00 0.00 C LCb setrgbcolor
160 2899 M
currentpoint gsave translate -270 rotate 0 0 moveto
[ [(Arial) 200.0 0.0 true true 0 (File download time \(s\))]
] -66.7 MCshow
grestore
LTb
LCb setrgbcolor
13938 2899 M
currentpoint gsave translate -270 rotate 0 0 moveto
[ [(Arial) 200.0 0.0 true true 0 (Average UDP throughput [%])]
] -66.7 MCshow
grestore
LTb
LCb setrgbcolor
7049 500 M
[ [(Arial) 200.0 0.0 true true 0 (Local Backhaul traffic \(Mb/s\))]
] -66.7 MCshow
LTb
% Begin plot #1
1.000 UL
LTb
0.60 0.60 0.00 C LCb setrgbcolor
4714 333 M
[ [(Arial) 180.0 0.0 true true 0 (file download time    :   olsr)]
] -60.0 MRshow
1.000 UL
LTb
0.60 0.60 0.00 C 4822 288 333 90 80 -45 0 PatternFill
4822 288 N
333 0 V
0 90 V
-333 0 V
0 -90 V
Z stroke
1.000 UL
LTb
0.60 0.60 0.00 C 990 1439 154 411 80 -45 0 PatternFill
1067 1150 M
0 289 V
0 411 R
0 709 V
stroke
990 1439 N
154 0 V
0 411 V
-154 0 V
0 -411 V
Z stroke
990 2559 M
154 0 V
990 1150 M
154 0 V
stroke
1602 1422 154 445 80 -45 0 PatternFill
1679 1149 M
0 273 V
0 445 R
0 1081 V
stroke
1602 1422 N
154 0 V
0 445 V
-154 0 V
0 -445 V
Z stroke
1602 2948 M
154 0 V
1602 1149 M
154 0 V
stroke
2214 1429 154 407 80 -45 0 PatternFill
2291 1147 M
0 282 V
0 407 R
0 1150 V
stroke
2214 1429 N
154 0 V
0 407 V
-154 0 V
0 -407 V
Z stroke
2214 2986 M
154 0 V
2214 1147 M
154 0 V
stroke
2826 1433 154 388 80 -45 0 PatternFill
2903 1150 M
0 283 V
0 388 R
0 1039 V
stroke
2826 1433 N
154 0 V
0 388 V
-154 0 V
0 -388 V
Z stroke
2826 2860 M
154 0 V
2826 1150 M
154 0 V
stroke
3438 1436 154 418 80 -45 0 PatternFill
3515 1143 M
0 293 V
0 418 R
0 844 V
stroke
3438 1436 N
154 0 V
0 418 V
-154 0 V
0 -418 V
Z stroke
3438 2698 M
154 0 V
3438 1143 M
154 0 V
stroke
4050 1452 154 372 80 -45 0 PatternFill
4127 1140 M
0 312 V
0 372 R
0 1034 V
stroke
4050 1452 N
154 0 V
0 372 V
-154 0 V
0 -372 V
Z stroke
4050 2858 M
154 0 V
4050 1140 M
154 0 V
stroke
4663 1463 154 378 80 -45 0 PatternFill
4740 1139 M
0 324 V
0 378 R
0 1056 V
stroke
4663 1463 N
154 0 V
0 378 V
-154 0 V
0 -378 V
Z stroke
4663 2897 M
154 0 V
4663 1139 M
154 0 V
stroke
5275 1463 154 385 80 -45 0 PatternFill
5352 1158 M
0 305 V
0 385 R
0 1143 V
stroke
5275 1463 N
154 0 V
0 385 V
-154 0 V
0 -385 V
Z stroke
5275 2991 M
154 0 V
5275 1158 M
154 0 V
stroke
5887 1425 154 447 80 -45 0 PatternFill
5964 1140 M
0 285 V
0 447 R
0 1245 V
stroke
5887 1425 N
154 0 V
0 447 V
-154 0 V
0 -447 V
Z stroke
5887 3117 M
154 0 V
5887 1140 M
154 0 V
stroke
6499 1511 154 362 80 -45 0 PatternFill
6576 1146 M
0 365 V
0 362 R
0 992 V
stroke
6499 1511 N
154 0 V
0 362 V
-154 0 V
0 -362 V
Z stroke
6499 2865 M
154 0 V
6499 1146 M
154 0 V
stroke
7111 1476 154 387 80 -45 0 PatternFill
7188 1150 M
0 326 V
0 387 R
0 1059 V
stroke
7111 1476 N
154 0 V
0 387 V
-154 0 V
0 -387 V
Z stroke
7111 2922 M
154 0 V
7111 1150 M
154 0 V
stroke
7723 1431 154 407 80 -45 0 PatternFill
7800 1135 M
0 296 V
0 407 R
0 1110 V
stroke
7723 1431 N
154 0 V
0 407 V
-154 0 V
0 -407 V
Z stroke
7723 2948 M
154 0 V
7723 1135 M
154 0 V
stroke
8335 1490 154 416 80 -45 0 PatternFill
8412 1215 M
0 275 V
0 416 R
0 943 V
stroke
8335 1490 N
154 0 V
0 416 V
-154 0 V
0 -416 V
Z stroke
8335 2849 M
154 0 V
8335 1215 M
154 0 V
stroke
8947 1430 154 390 80 -45 0 PatternFill
9024 1173 M
0 257 V
0 390 R
0 1087 V
stroke
8947 1430 N
154 0 V
0 390 V
-154 0 V
0 -390 V
Z stroke
8947 2907 M
154 0 V
8947 1173 M
154 0 V
stroke
9559 1423 154 394 80 -45 0 PatternFill
9636 1152 M
0 271 V
0 394 R
0 1264 V
stroke
9559 1423 N
154 0 V
0 394 V
-154 0 V
0 -394 V
Z stroke
9559 3081 M
154 0 V
9559 1152 M
154 0 V
stroke
10171 1452 154 443 80 -45 0 PatternFill
10248 1161 M
0 291 V
0 443 R
0 970 V
stroke
10171 1452 N
154 0 V
0 443 V
-154 0 V
0 -443 V
Z stroke
10171 2865 M
154 0 V
10171 1161 M
154 0 V
stroke
10783 1463 154 372 80 -45 0 PatternFill
10860 1195 M
0 268 V
0 372 R
0 1065 V
stroke
10783 1463 N
154 0 V
0 372 V
-154 0 V
0 -372 V
Z stroke
10783 2900 M
154 0 V
10783 1195 M
154 0 V
stroke
11395 1449 154 428 80 -45 0 PatternFill
11472 1155 M
0 294 V
0 428 R
0 967 V
stroke
11395 1449 N
154 0 V
0 428 V
-154 0 V
0 -428 V
Z stroke
11395 2844 M
154 0 V
11395 1155 M
154 0 V
stroke
12007 1470 154 406 80 -45 0 PatternFill
12084 1149 M
0 321 V
0 406 R
0 1004 V
stroke
12007 1470 N
154 0 V
0 406 V
-154 0 V
0 -406 V
Z stroke
12007 2880 M
154 0 V
12007 1149 M
154 0 V
stroke
12619 1507 154 449 80 -45 0 PatternFill
12696 1161 M
0 346 V
0 449 R
0 1131 V
stroke
12619 1507 N
154 0 V
0 449 V
-154 0 V
0 -449 V
Z stroke
12619 3087 M
154 0 V
12619 1161 M
154 0 V
% End plot #1
% Begin plot #2
stroke
LTb
LCb setrgbcolor

 /TransparentPatterns true def
990 1654 154 0 40 30 0 PatternFill
1067 1654 M
stroke
990 1654 N
154 0 V
-154 0 V
Z stroke
990 1654 M
154 0 V
-154 0 R
154 0 V
stroke

 /TransparentPatterns true def
1602 1671 154 0 40 30 0 PatternFill
1679 1671 M
stroke
1602 1671 N
154 0 V
-154 0 V
Z stroke
1602 1671 M
154 0 V
-154 0 R
154 0 V
stroke

 /TransparentPatterns true def
2214 1669 154 0 40 30 0 PatternFill
2291 1669 M
stroke
2214 1669 N
154 0 V
-154 0 V
Z stroke
2214 1669 M
154 0 V
-154 0 R
154 0 V
stroke

 /TransparentPatterns true def
2826 1658 154 0 40 30 0 PatternFill
2903 1658 M
stroke
2826 1658 N
154 0 V
-154 0 V
Z stroke
2826 1658 M
154 0 V
-154 0 R
154 0 V
stroke

 /TransparentPatterns true def
3438 1656 154 0 40 30 0 PatternFill
3515 1656 M
stroke
3438 1656 N
154 0 V
-154 0 V
Z stroke
3438 1656 M
154 0 V
-154 0 R
154 0 V
stroke

 /TransparentPatterns true def
4050 1658 154 0 40 30 0 PatternFill
4127 1658 M
stroke
4050 1658 N
154 0 V
-154 0 V
Z stroke
4050 1658 M
154 0 V
-154 0 R
154 0 V
stroke

 /TransparentPatterns true def
4663 1654 154 0 40 30 0 PatternFill
4740 1654 M
stroke
4663 1654 N
154 0 V
-154 0 V
Z stroke
4663 1654 M
154 0 V
-154 0 R
154 0 V
stroke

 /TransparentPatterns true def
5275 1672 154 0 40 30 0 PatternFill
5352 1672 M
stroke
5275 1672 N
154 0 V
-154 0 V
Z stroke
5275 1672 M
154 0 V
-154 0 R
154 0 V
stroke

 /TransparentPatterns true def
5887 1669 154 0 40 30 0 PatternFill
5964 1669 M
stroke
5887 1669 N
154 0 V
-154 0 V
Z stroke
5887 1669 M
154 0 V
-154 0 R
154 0 V
stroke

 /TransparentPatterns true def
6499 1691 154 0 40 30 0 PatternFill
6576 1691 M
stroke
6499 1691 N
154 0 V
-154 0 V
Z stroke
6499 1691 M
154 0 V
-154 0 R
154 0 V
stroke

 /TransparentPatterns true def
7111 1674 154 0 40 30 0 PatternFill
7188 1674 M
stroke
7111 1674 N
154 0 V
-154 0 V
Z stroke
7111 1674 M
154 0 V
-154 0 R
154 0 V
stroke

 /TransparentPatterns true def
7723 1651 154 0 40 30 0 PatternFill
7800 1651 M
stroke
7723 1651 N
154 0 V
-154 0 V
Z stroke
7723 1651 M
154 0 V
-154 0 R
154 0 V
stroke

 /TransparentPatterns true def
8335 1684 154 0 40 30 0 PatternFill
8412 1684 M
stroke
8335 1684 N
154 0 V
-154 0 V
Z stroke
8335 1684 M
154 0 V
-154 0 R
154 0 V
stroke

 /TransparentPatterns true def
8947 1652 154 0 40 30 0 PatternFill
9024 1652 M
stroke
8947 1652 N
154 0 V
-154 0 V
Z stroke
8947 1652 M
154 0 V
-154 0 R
154 0 V
stroke

 /TransparentPatterns true def
9559 1642 154 0 40 30 0 PatternFill
9636 1642 M
stroke
9559 1642 N
154 0 V
-154 0 V
Z stroke
9559 1642 M
154 0 V
-154 0 R
154 0 V
stroke

 /TransparentPatterns true def
10171 1677 154 0 40 30 0 PatternFill
10248 1677 M
stroke
10171 1677 N
154 0 V
-154 0 V
Z stroke
10171 1677 M
154 0 V
-154 0 R
154 0 V
stroke

 /TransparentPatterns true def
10783 1678 154 0 40 30 0 PatternFill
10860 1678 M
stroke
10783 1678 N
154 0 V
-154 0 V
Z stroke
10783 1678 M
154 0 V
-154 0 R
154 0 V
stroke

 /TransparentPatterns true def
11395 1674 154 0 40 30 0 PatternFill
11472 1674 M
stroke
11395 1674 N
154 0 V
-154 0 V
Z stroke
11395 1674 M
154 0 V
-154 0 R
154 0 V
stroke

 /TransparentPatterns true def
12007 1688 154 0 40 30 0 PatternFill
12084 1688 M
stroke
12007 1688 N
154 0 V
-154 0 V
Z stroke
12007 1688 M
154 0 V
-154 0 R
154 0 V
stroke

 /TransparentPatterns true def
12619 1741 154 0 40 30 0 PatternFill
12696 1741 M
stroke
12619 1741 N
154 0 V
-154 0 V
Z stroke
12619 1741 M
154 0 V
-154 0 R
154 0 V
% End plot #2
% Begin plot #3
2.000 UP
stroke
LTa
0.60 0.60 0.00 C LCb setrgbcolor
4714 153 M
[ [(Arial) 180.0 0.0 true true 0 (avg. throughput :         )]
] -60.0 MRshow
2.000 UP
1.000 UL
LTa
0.60 0.60 0.00 C 4822 153 M
333 0 V
1067 4666 M
612 10 V
612 -4 V
612 4 V
612 -2 V
612 -2 V
612 -3 V
612 2 V
612 -1 V
612 4 V
612 -3 V
612 1 V
612 1 V
612 -3 V
612 0 V
612 2 V
613 2 V
612 -4 V
612 2 V
612 1 V
1067 4666 Box
1679 4676 Box
2291 4672 Box
2903 4676 Box
3515 4674 Box
4127 4672 Box
4739 4669 Box
5351 4671 Box
5963 4670 Box
6575 4674 Box
7187 4671 Box
7799 4672 Box
8411 4673 Box
9023 4670 Box
9635 4670 Box
10247 4672 Box
10860 4674 Box
11472 4670 Box
12084 4672 Box
12696 4673 Box
4988 153 Box
% End plot #3
% Begin plot #4
1.000 UL
LTb
0.00 0.00 0.63 C LCb setrgbcolor
8287 333 M
[ [(Arial) 180.0 0.0 true true 0 (per-packet)]
] -60.0 MRshow
1.000 UL
LTb
0.00 0.00 0.63 C 8395 288 333 90 80 45 0 PatternFill
8395 288 N
333 0 V
0 90 V
-333 0 V
0 -90 V
Z stroke
1.000 UL
LTb
0.00 0.00 0.63 C 1159 1311 154 1683 80 45 0 PatternFill
1236 1174 M
0 137 V
0 1683 R
0 436 V
stroke
1159 1311 N
154 0 V
0 1683 V
-154 0 V
0 -1683 V
Z stroke
1159 3430 M
154 0 V
1159 1174 M
154 0 V
stroke
1771 1324 154 1604 80 45 0 PatternFill
1848 1137 M
0 187 V
0 1604 R
0 493 V
stroke
1771 1324 N
154 0 V
0 1604 V
-154 0 V
0 -1604 V
Z stroke
1771 3421 M
154 0 V
1771 1137 M
154 0 V
stroke
2383 1336 154 1646 80 45 0 PatternFill
2460 1178 M
0 158 V
0 1646 R
0 506 V
stroke
2383 1336 N
154 0 V
0 1646 V
-154 0 V
0 -1646 V
Z stroke
2383 3488 M
154 0 V
2383 1178 M
154 0 V
stroke
2995 1342 154 1544 80 45 0 PatternFill
3072 1156 M
0 186 V
0 1544 R
0 620 V
stroke
2995 1342 N
154 0 V
0 1544 V
-154 0 V
0 -1544 V
Z stroke
2995 3506 M
154 0 V
2995 1156 M
154 0 V
stroke
3607 1318 154 1608 80 45 0 PatternFill
3684 1151 M
0 167 V
0 1608 R
0 814 V
stroke
3607 1318 N
154 0 V
0 1608 V
-154 0 V
0 -1608 V
Z stroke
3607 3740 M
154 0 V
3607 1151 M
154 0 V
stroke
4219 1311 154 1586 80 45 0 PatternFill
4296 1160 M
0 151 V
0 1586 R
0 511 V
stroke
4219 1311 N
154 0 V
0 1586 V
-154 0 V
0 -1586 V
Z stroke
4219 3408 M
154 0 V
4219 1160 M
154 0 V
stroke
4831 1332 154 1673 80 45 0 PatternFill
4908 1148 M
0 184 V
0 1673 R
0 487 V
stroke
4831 1332 N
154 0 V
0 1673 V
-154 0 V
0 -1673 V
Z stroke
4831 3492 M
154 0 V
4831 1148 M
154 0 V
stroke
5443 1315 154 1671 80 45 0 PatternFill
5520 1154 M
0 161 V
0 1671 R
0 433 V
stroke
5443 1315 N
154 0 V
0 1671 V
-154 0 V
0 -1671 V
Z stroke
5443 3419 M
154 0 V
5443 1154 M
154 0 V
stroke
6055 1334 154 1594 80 45 0 PatternFill
6132 1182 M
0 152 V
0 1594 R
0 539 V
stroke
6055 1334 N
154 0 V
0 1594 V
-154 0 V
0 -1594 V
Z stroke
6055 3467 M
154 0 V
6055 1182 M
154 0 V
stroke
6667 1336 154 1519 80 45 0 PatternFill
6744 1173 M
0 163 V
0 1519 R
0 609 V
stroke
6667 1336 N
154 0 V
0 1519 V
-154 0 V
0 -1519 V
Z stroke
6667 3464 M
154 0 V
6667 1173 M
154 0 V
stroke
7279 1342 154 1569 80 45 0 PatternFill
7356 1167 M
0 175 V
0 1569 R
0 440 V
stroke
7279 1342 N
154 0 V
0 1569 V
-154 0 V
0 -1569 V
Z stroke
7279 3351 M
154 0 V
7279 1167 M
154 0 V
stroke
7891 1374 154 1498 80 45 0 PatternFill
7968 1092 M
0 282 V
0 1498 R
0 443 V
stroke
7891 1374 N
154 0 V
0 1498 V
-154 0 V
0 -1498 V
Z stroke
7891 3315 M
154 0 V
7891 1092 M
154 0 V
stroke
8503 1328 154 1527 80 45 0 PatternFill
8580 1100 M
0 228 V
0 1527 R
0 538 V
stroke
8503 1328 N
154 0 V
0 1527 V
-154 0 V
0 -1527 V
Z stroke
8503 3393 M
154 0 V
8503 1100 M
154 0 V
stroke
9115 1351 154 1527 80 45 0 PatternFill
9192 1145 M
0 206 V
0 1527 R
0 506 V
stroke
9115 1351 N
154 0 V
0 1527 V
-154 0 V
0 -1527 V
Z stroke
9115 3384 M
154 0 V
9115 1145 M
154 0 V
stroke
9727 1337 154 1525 80 45 0 PatternFill
9804 1072 M
0 265 V
0 1525 R
0 511 V
stroke
9727 1337 N
154 0 V
0 1525 V
-154 0 V
0 -1525 V
Z stroke
9727 3373 M
154 0 V
9727 1072 M
154 0 V
stroke
10339 1345 154 1485 80 45 0 PatternFill
10416 1158 M
0 187 V
0 1485 R
0 499 V
stroke
10339 1345 N
154 0 V
0 1485 V
-154 0 V
0 -1485 V
Z stroke
10339 3329 M
154 0 V
10339 1158 M
154 0 V
stroke
10951 1347 154 1514 80 45 0 PatternFill
11028 1095 M
0 252 V
0 1514 R
0 534 V
stroke
10951 1347 N
154 0 V
0 1514 V
-154 0 V
0 -1514 V
Z stroke
10951 3395 M
154 0 V
10951 1095 M
154 0 V
stroke
11563 1354 154 1564 80 45 0 PatternFill
11640 1164 M
0 190 V
0 1564 R
0 774 V
stroke
11563 1354 N
154 0 V
0 1564 V
-154 0 V
0 -1564 V
Z stroke
11563 3692 M
154 0 V
11563 1164 M
154 0 V
stroke
12175 1297 154 1595 80 45 0 PatternFill
12252 1150 M
0 147 V
0 1595 R
0 457 V
stroke
12175 1297 N
154 0 V
0 1595 V
-154 0 V
0 -1595 V
Z stroke
12175 3349 M
154 0 V
12175 1150 M
154 0 V
stroke
12787 1366 154 1518 80 45 0 PatternFill
12864 1154 M
0 212 V
0 1518 R
0 745 V
stroke
12787 1366 N
154 0 V
0 1518 V
-154 0 V
0 -1518 V
Z stroke
12787 3629 M
154 0 V
12787 1154 M
154 0 V
% End plot #4
% Begin plot #5
stroke
LTb
LCb setrgbcolor

 /TransparentPatterns true def
1159 1998 154 0 80 -45 0 PatternFill
1236 1998 M
stroke
1159 1998 N
154 0 V
-154 0 V
Z stroke
1159 1998 M
154 0 V
-154 0 R
154 0 V
stroke

 /TransparentPatterns true def
1771 1988 154 0 80 -45 0 PatternFill
1848 1988 M
stroke
1771 1988 N
154 0 V
-154 0 V
Z stroke
1771 1988 M
154 0 V
-154 0 R
154 0 V
stroke

 /TransparentPatterns true def
2383 2008 154 0 80 -45 0 PatternFill
2460 2008 M
stroke
2383 2008 N
154 0 V
-154 0 V
Z stroke
2383 2008 M
154 0 V
-154 0 R
154 0 V
stroke

 /TransparentPatterns true def
2995 2004 154 0 80 -45 0 PatternFill
3072 2004 M
stroke
2995 2004 N
154 0 V
-154 0 V
Z stroke
2995 2004 M
154 0 V
-154 0 R
154 0 V
stroke

 /TransparentPatterns true def
3607 1985 154 0 80 -45 0 PatternFill
3684 1985 M
stroke
3607 1985 N
154 0 V
-154 0 V
Z stroke
3607 1985 M
154 0 V
-154 0 R
154 0 V
stroke

 /TransparentPatterns true def
4219 1999 154 0 80 -45 0 PatternFill
4296 1999 M
stroke
4219 1999 N
154 0 V
-154 0 V
Z stroke
4219 1999 M
154 0 V
-154 0 R
154 0 V
stroke

 /TransparentPatterns true def
4831 2008 154 0 80 -45 0 PatternFill
4908 2008 M
stroke
4831 2008 N
154 0 V
-154 0 V
Z stroke
4831 2008 M
154 0 V
-154 0 R
154 0 V
stroke

 /TransparentPatterns true def
5443 1999 154 0 80 -45 0 PatternFill
5520 1999 M
stroke
5443 1999 N
154 0 V
-154 0 V
Z stroke
5443 1999 M
154 0 V
-154 0 R
154 0 V
stroke

 /TransparentPatterns true def
6055 1983 154 0 80 -45 0 PatternFill
6132 1983 M
stroke
6055 1983 N
154 0 V
-154 0 V
Z stroke
6055 1983 M
154 0 V
-154 0 R
154 0 V
stroke

 /TransparentPatterns true def
6667 1985 154 0 80 -45 0 PatternFill
6744 1985 M
stroke
6667 1985 N
154 0 V
-154 0 V
Z stroke
6667 1985 M
154 0 V
-154 0 R
154 0 V
stroke

 /TransparentPatterns true def
7279 2000 154 0 80 -45 0 PatternFill
7356 2000 M
stroke
7279 2000 N
154 0 V
-154 0 V
Z stroke
7279 2000 M
154 0 V
-154 0 R
154 0 V
stroke

 /TransparentPatterns true def
7891 1977 154 0 80 -45 0 PatternFill
7968 1977 M
stroke
7891 1977 N
154 0 V
-154 0 V
Z stroke
7891 1977 M
154 0 V
-154 0 R
154 0 V
stroke

 /TransparentPatterns true def
8503 1985 154 0 80 -45 0 PatternFill
8580 1985 M
stroke
8503 1985 N
154 0 V
-154 0 V
Z stroke
8503 1985 M
154 0 V
-154 0 R
154 0 V
stroke

 /TransparentPatterns true def
9115 1983 154 0 80 -45 0 PatternFill
9192 1983 M
stroke
9115 1983 N
154 0 V
-154 0 V
Z stroke
9115 1983 M
154 0 V
-154 0 R
154 0 V
stroke

 /TransparentPatterns true def
9727 1983 154 0 80 -45 0 PatternFill
9804 1983 M
stroke
9727 1983 N
154 0 V
-154 0 V
Z stroke
9727 1983 M
154 0 V
-154 0 R
154 0 V
stroke

 /TransparentPatterns true def
10339 1972 154 0 80 -45 0 PatternFill
10416 1972 M
stroke
10339 1972 N
154 0 V
-154 0 V
Z stroke
10339 1972 M
154 0 V
-154 0 R
154 0 V
stroke

 /TransparentPatterns true def
10951 1966 154 0 80 -45 0 PatternFill
11028 1966 M
stroke
10951 1966 N
154 0 V
-154 0 V
Z stroke
10951 1966 M
154 0 V
-154 0 R
154 0 V
stroke

 /TransparentPatterns true def
11563 1979 154 0 80 -45 0 PatternFill
11640 1979 M
stroke
11563 1979 N
154 0 V
-154 0 V
Z stroke
11563 1979 M
154 0 V
-154 0 R
154 0 V
stroke

 /TransparentPatterns true def
12175 1958 154 0 80 -45 0 PatternFill
12252 1958 M
stroke
12175 1958 N
154 0 V
-154 0 V
Z stroke
12175 1958 M
154 0 V
-154 0 R
154 0 V
stroke

 /TransparentPatterns true def
12787 1977 154 0 80 -45 0 PatternFill
12864 1977 M
stroke
12787 1977 N
154 0 V
-154 0 V
Z stroke
12787 1977 M
154 0 V
-154 0 R
154 0 V
% End plot #5
% Begin plot #6
2.000 UP
stroke
LTa
0.00 0.00 0.63 C LCb setrgbcolor
8287 153 M
[ [(Arial) 180.0 0.0 true true 0 ( )]
] -60.0 MRshow
2.000 UP
1.000 UL
LTa
0.00 0.00 0.63 C 8395 153 M
333 0 V
1235 4780 M
612 10 V
612 -4 V
612 4 V
612 -2 V
612 2 V
612 -2 V
612 -1 V
612 1 V
612 0 V
613 1 V
612 -1 V
612 -1 V
612 1 V
612 0 V
612 0 V
612 0 V
612 -1 V
612 1 V
612 1 V
1235 4780 Circle
1847 4790 Circle
2459 4786 Circle
3071 4790 Circle
3683 4788 Circle
4295 4790 Circle
4907 4788 Circle
5519 4787 Circle
6131 4788 Circle
6743 4788 Circle
7356 4789 Circle
7968 4788 Circle
8580 4787 Circle
9192 4788 Circle
9804 4788 Circle
10416 4788 Circle
11028 4788 Circle
11640 4787 Circle
12252 4788 Circle
12864 4789 Circle
8561 153 Circle
% End plot #6
% Begin plot #7
1.000 UL
LTb
0.00 0.38 0.82 C LCb setrgbcolor
11860 333 M
[ [(Arial) 180.0 0.0 true true 0 (per-flow)]
] -60.0 MRshow
1.000 UL
LTb
0.00 0.38 0.82 C 11968 288 333 90 40 30 0 PatternFill
11968 288 N
333 0 V
0 90 V
-333 0 V
0 -90 V
Z stroke
1.000 UL
LTb
0.00 0.38 0.82 C 1327 1322 154 302 40 30 0 PatternFill
1404 1144 M
0 178 V
0 302 R
0 1453 V
stroke
1327 1322 N
154 0 V
0 302 V
-154 0 V
0 -302 V
Z stroke
1327 3077 M
154 0 V
1327 1144 M
154 0 V
stroke
1939 1354 154 316 40 30 0 PatternFill
2016 1212 M
0 142 V
0 316 R
0 1413 V
stroke
1939 1354 N
154 0 V
0 316 V
-154 0 V
0 -316 V
Z stroke
1939 3083 M
154 0 V
1939 1212 M
154 0 V
stroke
2551 1327 154 346 40 30 0 PatternFill
2628 1154 M
0 173 V
0 346 R
0 1183 V
stroke
2551 1327 N
154 0 V
0 346 V
-154 0 V
0 -346 V
Z stroke
2551 2856 M
154 0 V
2551 1154 M
154 0 V
stroke
3163 1351 154 269 40 30 0 PatternFill
3240 1141 M
0 210 V
0 269 R
0 1188 V
stroke
3163 1351 N
154 0 V
0 269 V
-154 0 V
0 -269 V
Z stroke
3163 2808 M
154 0 V
3163 1141 M
154 0 V
stroke
3775 1298 154 375 40 30 0 PatternFill
3852 1153 M
0 145 V
0 375 R
0 1168 V
stroke
3775 1298 N
154 0 V
0 375 V
-154 0 V
0 -375 V
Z stroke
3775 2841 M
154 0 V
3775 1153 M
154 0 V
stroke
4387 1335 154 323 40 30 0 PatternFill
4464 1172 M
0 163 V
0 323 R
0 1746 V
stroke
4387 1335 N
154 0 V
0 323 V
-154 0 V
0 -323 V
Z stroke
4387 3404 M
154 0 V
4387 1172 M
154 0 V
stroke
4999 1345 154 305 40 30 0 PatternFill
5076 1173 M
0 172 V
0 305 R
0 1701 V
stroke
4999 1345 N
154 0 V
0 305 V
-154 0 V
0 -305 V
Z stroke
4999 3351 M
154 0 V
4999 1173 M
154 0 V
stroke
5611 1306 154 300 40 30 0 PatternFill
5688 1153 M
0 153 V
0 300 R
0 1422 V
stroke
5611 1306 N
154 0 V
0 300 V
-154 0 V
0 -300 V
Z stroke
5611 3028 M
154 0 V
5611 1153 M
154 0 V
stroke
6223 1336 154 369 40 30 0 PatternFill
6300 1170 M
0 166 V
0 369 R
0 1188 V
stroke
6223 1336 N
154 0 V
0 369 V
-154 0 V
0 -369 V
Z stroke
6223 2893 M
154 0 V
6223 1170 M
154 0 V
stroke
6835 1360 154 291 40 30 0 PatternFill
6912 1222 M
0 138 V
0 291 R
0 1157 V
stroke
6835 1360 N
154 0 V
0 291 V
-154 0 V
0 -291 V
Z stroke
6835 2808 M
154 0 V
6835 1222 M
154 0 V
stroke
7447 1340 154 363 40 30 0 PatternFill
7524 1165 M
0 175 V
0 363 R
0 1342 V
stroke
7447 1340 N
154 0 V
0 363 V
-154 0 V
0 -363 V
Z stroke
7447 3045 M
154 0 V
7447 1165 M
154 0 V
stroke
8059 1346 154 310 40 30 0 PatternFill
8136 1151 M
0 195 V
0 310 R
0 1229 V
stroke
8059 1346 N
154 0 V
0 310 V
-154 0 V
0 -310 V
Z stroke
8059 2885 M
154 0 V
8059 1151 M
154 0 V
stroke
8671 1339 154 358 40 30 0 PatternFill
8748 1209 M
0 130 V
0 358 R
0 1471 V
stroke
8671 1339 N
154 0 V
0 358 V
-154 0 V
0 -358 V
Z stroke
8671 3168 M
154 0 V
8671 1209 M
154 0 V
stroke
9283 1346 154 314 40 30 0 PatternFill
9360 1145 M
0 201 V
0 314 R
0 913 V
stroke
9283 1346 N
154 0 V
0 314 V
-154 0 V
0 -314 V
Z stroke
9283 2573 M
154 0 V
9283 1145 M
154 0 V
stroke
9896 1329 154 352 40 30 0 PatternFill
9973 1155 M
0 174 V
0 352 R
0 1211 V
stroke
9896 1329 N
154 0 V
0 352 V
-154 0 V
0 -352 V
Z stroke
9896 2892 M
154 0 V
9896 1155 M
154 0 V
stroke
10508 1365 154 301 40 30 0 PatternFill
10585 1173 M
0 192 V
0 301 R
0 1274 V
stroke
10508 1365 N
154 0 V
0 301 V
-154 0 V
0 -301 V
Z stroke
10508 2940 M
154 0 V
10508 1173 M
154 0 V
stroke
11120 1350 154 298 40 30 0 PatternFill
11197 1172 M
0 178 V
0 298 R
0 1248 V
stroke
11120 1350 N
154 0 V
0 298 V
-154 0 V
0 -298 V
Z stroke
11120 2896 M
154 0 V
11120 1172 M
154 0 V
stroke
11732 1383 154 301 40 30 0 PatternFill
11809 1136 M
0 247 V
0 301 R
0 1112 V
stroke
11732 1383 N
154 0 V
0 301 V
-154 0 V
0 -301 V
Z stroke
11732 2796 M
154 0 V
11732 1136 M
154 0 V
stroke
12344 1359 154 338 40 30 0 PatternFill
12421 1145 M
0 214 V
0 338 R
0 819 V
stroke
12344 1359 N
154 0 V
0 338 V
-154 0 V
0 -338 V
Z stroke
12344 2516 M
154 0 V
12344 1145 M
154 0 V
stroke
12956 1369 154 343 40 30 0 PatternFill
13033 1146 M
0 223 V
0 343 R
0 1220 V
stroke
12956 1369 N
154 0 V
0 343 V
-154 0 V
0 -343 V
Z stroke
12956 2932 M
154 0 V
12956 1146 M
154 0 V
% End plot #7
% Begin plot #8
stroke
LTb
LCb setrgbcolor

 /TransparentPatterns true def
1327 1508 154 0 40 -30 0 PatternFill
1404 1508 M
stroke
1327 1508 N
154 0 V
-154 0 V
Z stroke
1327 1508 M
154 0 V
-154 0 R
154 0 V
stroke

 /TransparentPatterns true def
1939 1529 154 0 40 -30 0 PatternFill
2016 1529 M
stroke
1939 1529 N
154 0 V
-154 0 V
Z stroke
1939 1529 M
154 0 V
-154 0 R
154 0 V
stroke

 /TransparentPatterns true def
2551 1520 154 0 40 -30 0 PatternFill
2628 1520 M
stroke
2551 1520 N
154 0 V
-154 0 V
Z stroke
2551 1520 M
154 0 V
-154 0 R
154 0 V
stroke

 /TransparentPatterns true def
3163 1518 154 0 40 -30 0 PatternFill
3240 1518 M
stroke
3163 1518 N
154 0 V
-154 0 V
Z stroke
3163 1518 M
154 0 V
-154 0 R
154 0 V
stroke

 /TransparentPatterns true def
3775 1512 154 0 40 -30 0 PatternFill
3852 1512 M
stroke
3775 1512 N
154 0 V
-154 0 V
Z stroke
3775 1512 M
154 0 V
-154 0 R
154 0 V
stroke

 /TransparentPatterns true def
4387 1529 154 0 40 -30 0 PatternFill
4464 1529 M
stroke
4387 1529 N
154 0 V
-154 0 V
Z stroke
4387 1529 M
154 0 V
-154 0 R
154 0 V
stroke

 /TransparentPatterns true def
4999 1513 154 0 40 -30 0 PatternFill
5076 1513 M
stroke
4999 1513 N
154 0 V
-154 0 V
Z stroke
4999 1513 M
154 0 V
-154 0 R
154 0 V
stroke

 /TransparentPatterns true def
5611 1484 154 0 40 -30 0 PatternFill
5688 1484 M
stroke
5611 1484 N
154 0 V
-154 0 V
Z stroke
5611 1484 M
154 0 V
-154 0 R
154 0 V
stroke

 /TransparentPatterns true def
6223 1544 154 0 40 -30 0 PatternFill
6300 1544 M
stroke
6223 1544 N
154 0 V
-154 0 V
Z stroke
6223 1544 M
154 0 V
-154 0 R
154 0 V
stroke

 /TransparentPatterns true def
6835 1524 154 0 40 -30 0 PatternFill
6912 1524 M
stroke
6835 1524 N
154 0 V
-154 0 V
Z stroke
6835 1524 M
154 0 V
-154 0 R
154 0 V
stroke

 /TransparentPatterns true def
7447 1519 154 0 40 -30 0 PatternFill
7524 1519 M
stroke
7447 1519 N
154 0 V
-154 0 V
Z stroke
7447 1519 M
154 0 V
-154 0 R
154 0 V
stroke

 /TransparentPatterns true def
8059 1519 154 0 40 -30 0 PatternFill
8136 1519 M
stroke
8059 1519 N
154 0 V
-154 0 V
Z stroke
8059 1519 M
154 0 V
-154 0 R
154 0 V
stroke

 /TransparentPatterns true def
8671 1542 154 0 40 -30 0 PatternFill
8748 1542 M
stroke
8671 1542 N
154 0 V
-154 0 V
Z stroke
8671 1542 M
154 0 V
-154 0 R
154 0 V
stroke

 /TransparentPatterns true def
9283 1512 154 0 40 -30 0 PatternFill
9360 1512 M
stroke
9283 1512 N
154 0 V
-154 0 V
Z stroke
9283 1512 M
154 0 V
-154 0 R
154 0 V
stroke

 /TransparentPatterns true def
9896 1534 154 0 40 -30 0 PatternFill
9973 1534 M
stroke
9896 1534 N
154 0 V
-154 0 V
Z stroke
9896 1534 M
154 0 V
-154 0 R
154 0 V
stroke

 /TransparentPatterns true def
10508 1539 154 0 40 -30 0 PatternFill
10585 1539 M
stroke
10508 1539 N
154 0 V
-154 0 V
Z stroke
10508 1539 M
154 0 V
-154 0 R
154 0 V
stroke

 /TransparentPatterns true def
11120 1522 154 0 40 -30 0 PatternFill
11197 1522 M
stroke
11120 1522 N
154 0 V
-154 0 V
Z stroke
11120 1522 M
154 0 V
-154 0 R
154 0 V
stroke

 /TransparentPatterns true def
11732 1534 154 0 40 -30 0 PatternFill
11809 1534 M
stroke
11732 1534 N
154 0 V
-154 0 V
Z stroke
11732 1534 M
154 0 V
-154 0 R
154 0 V
stroke

 /TransparentPatterns true def
12344 1547 154 0 40 -30 0 PatternFill
12421 1547 M
stroke
12344 1547 N
154 0 V
-154 0 V
Z stroke
12344 1547 M
154 0 V
-154 0 R
154 0 V
stroke

 /TransparentPatterns true def
12956 1546 154 0 40 -30 0 PatternFill
13033 1546 M
stroke
12956 1546 N
154 0 V
-154 0 V
Z stroke
12956 1546 M
154 0 V
-154 0 R
154 0 V
% End plot #8
% Begin plot #9
2.000 UP
stroke
LTa
0.00 0.38 0.82 C LCb setrgbcolor
11860 153 M
[ [(Arial) 180.0 0.0 true true 0 ( )]
] -60.0 MRshow
2.000 UP
1.000 UL
LTa
0.00 0.38 0.82 C 11968 153 M
333 0 V
1403 4780 M
612 10 V
612 -4 V
612 -1 V
613 3 V
612 -2 V
612 -1 V
612 0 V
612 1 V
612 0 V
612 -1 V
612 1 V
612 0 V
612 -1 V
612 1 V
612 0 V
612 0 V
612 -1 V
612 1 V
612 0 V
1403 4780 TriU
2015 4790 TriU
2627 4786 TriU
3239 4785 TriU
3852 4788 TriU
4464 4786 TriU
5076 4785 TriU
5688 4785 TriU
6300 4786 TriU
6912 4786 TriU
7524 4785 TriU
8136 4786 TriU
8748 4786 TriU
9360 4785 TriU
9972 4786 TriU
10584 4786 TriU
11196 4786 TriU
11808 4785 TriU
12420 4786 TriU
13032 4786 TriU
12134 153 TriU
% End plot #9
2.000 UL
LTb
LCb setrgbcolor
1.000 UP
1.000 UL
LTb
0.00 0.00 0.00 C stroke
grestore
end
showpage
%%Trailer
%%DocumentFonts: Arial
