%!PS-Adobe-2.0 EPSF-2.0
%%Title: TcpBic-UE-increase-download-250Mbps.eps
%%Creator: gnuplot 5.0 patchlevel 3
%%CreationDate: Thu Jun  2 09:48:52 2016
%%DocumentFonts: (atend)
%%BoundingBox: 50 50 770 302
%%EndComments
%%BeginProlog
/gnudict 256 dict def
gnudict begin
%
% The following true/false flags may be edited by hand if desired.
% The unit line width and grayscale image gamma correction may also be changed.
%
/Color true def
/Blacktext false def
/Solid false def
/Dashlength 3 def
/Landscape false def
/Level1 false def
/Level3 false def
/Rounded false def
/ClipToBoundingBox false def
/SuppressPDFMark false def
/TransparentPatterns false def
/gnulinewidth 15.000 def
/userlinewidth gnulinewidth def
/Gamma 1.0 def
/BackgroundColor {-1.000 -1.000 -1.000} def
%
/vshift -66 def
/dl1 {
  10.0 Dashlength userlinewidth gnulinewidth div mul mul mul
  Rounded { currentlinewidth 0.75 mul sub dup 0 le { pop 0.01 } if } if
} def
/dl2 {
  10.0 Dashlength userlinewidth gnulinewidth div mul mul mul
  Rounded { currentlinewidth 0.75 mul add } if
} def
/hpt_ 31.5 def
/vpt_ 31.5 def
/hpt hpt_ def
/vpt vpt_ def
/doclip {
  ClipToBoundingBox {
    newpath 50 50 moveto 770 50 lineto 770 302 lineto 50 302 lineto closepath
    clip
  } if
} def
%
% Gnuplot Prolog Version 5.1 (Oct 2015)
%
%/SuppressPDFMark true def
%
/M {moveto} bind def
/L {lineto} bind def
/R {rmoveto} bind def
/V {rlineto} bind def
/N {newpath moveto} bind def
/Z {closepath} bind def
/C {setrgbcolor} bind def
/f {rlineto fill} bind def
/g {setgray} bind def
/Gshow {show} def   % May be redefined later in the file to support UTF-8
/vpt2 vpt 2 mul def
/hpt2 hpt 2 mul def
/Lshow {currentpoint stroke M 0 vshift R 
	Blacktext {gsave 0 setgray textshow grestore} {textshow} ifelse} def
/Rshow {currentpoint stroke M dup stringwidth pop neg vshift R
	Blacktext {gsave 0 setgray textshow grestore} {textshow} ifelse} def
/Cshow {currentpoint stroke M dup stringwidth pop -2 div vshift R 
	Blacktext {gsave 0 setgray textshow grestore} {textshow} ifelse} def
/UP {dup vpt_ mul /vpt exch def hpt_ mul /hpt exch def
  /hpt2 hpt 2 mul def /vpt2 vpt 2 mul def} def
/DL {Color {setrgbcolor Solid {pop []} if 0 setdash}
 {pop pop pop 0 setgray Solid {pop []} if 0 setdash} ifelse} def
/BL {stroke userlinewidth 2 mul setlinewidth
	Rounded {1 setlinejoin 1 setlinecap} if} def
/AL {stroke userlinewidth 2 div setlinewidth
	Rounded {1 setlinejoin 1 setlinecap} if} def
/UL {dup gnulinewidth mul /userlinewidth exch def
	dup 1 lt {pop 1} if 10 mul /udl exch def} def
/PL {stroke userlinewidth setlinewidth
	Rounded {1 setlinejoin 1 setlinecap} if} def
3.8 setmiterlimit
% Classic Line colors (version 5.0)
/LCw {1 1 1} def
/LCb {0 0 0} def
/LCa {0 0 0} def
/LC0 {1 0 0} def
/LC1 {0 1 0} def
/LC2 {0 0 1} def
/LC3 {1 0 1} def
/LC4 {0 1 1} def
/LC5 {1 1 0} def
/LC6 {0 0 0} def
/LC7 {1 0.3 0} def
/LC8 {0.5 0.5 0.5} def
% Default dash patterns (version 5.0)
/LTB {BL [] LCb DL} def
/LTw {PL [] 1 setgray} def
/LTb {PL [] LCb DL} def
/LTa {AL [1 udl mul 2 udl mul] 0 setdash LCa setrgbcolor} def
/LT0 {PL [] LC0 DL} def
/LT1 {PL [2 dl1 3 dl2] LC1 DL} def
/LT2 {PL [1 dl1 1.5 dl2] LC2 DL} def
/LT3 {PL [6 dl1 2 dl2 1 dl1 2 dl2] LC3 DL} def
/LT4 {PL [1 dl1 2 dl2 6 dl1 2 dl2 1 dl1 2 dl2] LC4 DL} def
/LT5 {PL [4 dl1 2 dl2] LC5 DL} def
/LT6 {PL [1.5 dl1 1.5 dl2 1.5 dl1 1.5 dl2 1.5 dl1 6 dl2] LC6 DL} def
/LT7 {PL [3 dl1 3 dl2 1 dl1 3 dl2] LC7 DL} def
/LT8 {PL [2 dl1 2 dl2 2 dl1 6 dl2] LC8 DL} def
/SL {[] 0 setdash} def
/Pnt {stroke [] 0 setdash gsave 1 setlinecap M 0 0 V stroke grestore} def
/Dia {stroke [] 0 setdash 2 copy vpt add M
  hpt neg vpt neg V hpt vpt neg V
  hpt vpt V hpt neg vpt V closepath stroke
  Pnt} def
/Pls {stroke [] 0 setdash vpt sub M 0 vpt2 V
  currentpoint stroke M
  hpt neg vpt neg R hpt2 0 V stroke
 } def
/Box {stroke [] 0 setdash 2 copy exch hpt sub exch vpt add M
  0 vpt2 neg V hpt2 0 V 0 vpt2 V
  hpt2 neg 0 V closepath stroke
  Pnt} def
/Crs {stroke [] 0 setdash exch hpt sub exch vpt add M
  hpt2 vpt2 neg V currentpoint stroke M
  hpt2 neg 0 R hpt2 vpt2 V stroke} def
/TriU {stroke [] 0 setdash 2 copy vpt 1.12 mul add M
  hpt neg vpt -1.62 mul V
  hpt 2 mul 0 V
  hpt neg vpt 1.62 mul V closepath stroke
  Pnt} def
/Star {2 copy Pls Crs} def
/BoxF {stroke [] 0 setdash exch hpt sub exch vpt add M
  0 vpt2 neg V hpt2 0 V 0 vpt2 V
  hpt2 neg 0 V closepath fill} def
/TriUF {stroke [] 0 setdash vpt 1.12 mul add M
  hpt neg vpt -1.62 mul V
  hpt 2 mul 0 V
  hpt neg vpt 1.62 mul V closepath fill} def
/TriD {stroke [] 0 setdash 2 copy vpt 1.12 mul sub M
  hpt neg vpt 1.62 mul V
  hpt 2 mul 0 V
  hpt neg vpt -1.62 mul V closepath stroke
  Pnt} def
/TriDF {stroke [] 0 setdash vpt 1.12 mul sub M
  hpt neg vpt 1.62 mul V
  hpt 2 mul 0 V
  hpt neg vpt -1.62 mul V closepath fill} def
/DiaF {stroke [] 0 setdash vpt add M
  hpt neg vpt neg V hpt vpt neg V
  hpt vpt V hpt neg vpt V closepath fill} def
/Pent {stroke [] 0 setdash 2 copy gsave
  translate 0 hpt M 4 {72 rotate 0 hpt L} repeat
  closepath stroke grestore Pnt} def
/PentF {stroke [] 0 setdash gsave
  translate 0 hpt M 4 {72 rotate 0 hpt L} repeat
  closepath fill grestore} def
/Circle {stroke [] 0 setdash 2 copy
  hpt 0 360 arc stroke Pnt} def
/CircleF {stroke [] 0 setdash hpt 0 360 arc fill} def
/C0 {BL [] 0 setdash 2 copy moveto vpt 90 450 arc} bind def
/C1 {BL [] 0 setdash 2 copy moveto
	2 copy vpt 0 90 arc closepath fill
	vpt 0 360 arc closepath} bind def
/C2 {BL [] 0 setdash 2 copy moveto
	2 copy vpt 90 180 arc closepath fill
	vpt 0 360 arc closepath} bind def
/C3 {BL [] 0 setdash 2 copy moveto
	2 copy vpt 0 180 arc closepath fill
	vpt 0 360 arc closepath} bind def
/C4 {BL [] 0 setdash 2 copy moveto
	2 copy vpt 180 270 arc closepath fill
	vpt 0 360 arc closepath} bind def
/C5 {BL [] 0 setdash 2 copy moveto
	2 copy vpt 0 90 arc
	2 copy moveto
	2 copy vpt 180 270 arc closepath fill
	vpt 0 360 arc} bind def
/C6 {BL [] 0 setdash 2 copy moveto
	2 copy vpt 90 270 arc closepath fill
	vpt 0 360 arc closepath} bind def
/C7 {BL [] 0 setdash 2 copy moveto
	2 copy vpt 0 270 arc closepath fill
	vpt 0 360 arc closepath} bind def
/C8 {BL [] 0 setdash 2 copy moveto
	2 copy vpt 270 360 arc closepath fill
	vpt 0 360 arc closepath} bind def
/C9 {BL [] 0 setdash 2 copy moveto
	2 copy vpt 270 450 arc closepath fill
	vpt 0 360 arc closepath} bind def
/C10 {BL [] 0 setdash 2 copy 2 copy moveto vpt 270 360 arc closepath fill
	2 copy moveto
	2 copy vpt 90 180 arc closepath fill
	vpt 0 360 arc closepath} bind def
/C11 {BL [] 0 setdash 2 copy moveto
	2 copy vpt 0 180 arc closepath fill
	2 copy moveto
	2 copy vpt 270 360 arc closepath fill
	vpt 0 360 arc closepath} bind def
/C12 {BL [] 0 setdash 2 copy moveto
	2 copy vpt 180 360 arc closepath fill
	vpt 0 360 arc closepath} bind def
/C13 {BL [] 0 setdash 2 copy moveto
	2 copy vpt 0 90 arc closepath fill
	2 copy moveto
	2 copy vpt 180 360 arc closepath fill
	vpt 0 360 arc closepath} bind def
/C14 {BL [] 0 setdash 2 copy moveto
	2 copy vpt 90 360 arc closepath fill
	vpt 0 360 arc} bind def
/C15 {BL [] 0 setdash 2 copy vpt 0 360 arc closepath fill
	vpt 0 360 arc closepath} bind def
/Rec {newpath 4 2 roll moveto 1 index 0 rlineto 0 exch rlineto
	neg 0 rlineto closepath} bind def
/Square {dup Rec} bind def
/Bsquare {vpt sub exch vpt sub exch vpt2 Square} bind def
/S0 {BL [] 0 setdash 2 copy moveto 0 vpt rlineto BL Bsquare} bind def
/S1 {BL [] 0 setdash 2 copy vpt Square fill Bsquare} bind def
/S2 {BL [] 0 setdash 2 copy exch vpt sub exch vpt Square fill Bsquare} bind def
/S3 {BL [] 0 setdash 2 copy exch vpt sub exch vpt2 vpt Rec fill Bsquare} bind def
/S4 {BL [] 0 setdash 2 copy exch vpt sub exch vpt sub vpt Square fill Bsquare} bind def
/S5 {BL [] 0 setdash 2 copy 2 copy vpt Square fill
	exch vpt sub exch vpt sub vpt Square fill Bsquare} bind def
/S6 {BL [] 0 setdash 2 copy exch vpt sub exch vpt sub vpt vpt2 Rec fill Bsquare} bind def
/S7 {BL [] 0 setdash 2 copy exch vpt sub exch vpt sub vpt vpt2 Rec fill
	2 copy vpt Square fill Bsquare} bind def
/S8 {BL [] 0 setdash 2 copy vpt sub vpt Square fill Bsquare} bind def
/S9 {BL [] 0 setdash 2 copy vpt sub vpt vpt2 Rec fill Bsquare} bind def
/S10 {BL [] 0 setdash 2 copy vpt sub vpt Square fill 2 copy exch vpt sub exch vpt Square fill
	Bsquare} bind def
/S11 {BL [] 0 setdash 2 copy vpt sub vpt Square fill 2 copy exch vpt sub exch vpt2 vpt Rec fill
	Bsquare} bind def
/S12 {BL [] 0 setdash 2 copy exch vpt sub exch vpt sub vpt2 vpt Rec fill Bsquare} bind def
/S13 {BL [] 0 setdash 2 copy exch vpt sub exch vpt sub vpt2 vpt Rec fill
	2 copy vpt Square fill Bsquare} bind def
/S14 {BL [] 0 setdash 2 copy exch vpt sub exch vpt sub vpt2 vpt Rec fill
	2 copy exch vpt sub exch vpt Square fill Bsquare} bind def
/S15 {BL [] 0 setdash 2 copy Bsquare fill Bsquare} bind def
/D0 {gsave translate 45 rotate 0 0 S0 stroke grestore} bind def
/D1 {gsave translate 45 rotate 0 0 S1 stroke grestore} bind def
/D2 {gsave translate 45 rotate 0 0 S2 stroke grestore} bind def
/D3 {gsave translate 45 rotate 0 0 S3 stroke grestore} bind def
/D4 {gsave translate 45 rotate 0 0 S4 stroke grestore} bind def
/D5 {gsave translate 45 rotate 0 0 S5 stroke grestore} bind def
/D6 {gsave translate 45 rotate 0 0 S6 stroke grestore} bind def
/D7 {gsave translate 45 rotate 0 0 S7 stroke grestore} bind def
/D8 {gsave translate 45 rotate 0 0 S8 stroke grestore} bind def
/D9 {gsave translate 45 rotate 0 0 S9 stroke grestore} bind def
/D10 {gsave translate 45 rotate 0 0 S10 stroke grestore} bind def
/D11 {gsave translate 45 rotate 0 0 S11 stroke grestore} bind def
/D12 {gsave translate 45 rotate 0 0 S12 stroke grestore} bind def
/D13 {gsave translate 45 rotate 0 0 S13 stroke grestore} bind def
/D14 {gsave translate 45 rotate 0 0 S14 stroke grestore} bind def
/D15 {gsave translate 45 rotate 0 0 S15 stroke grestore} bind def
/DiaE {stroke [] 0 setdash vpt add M
  hpt neg vpt neg V hpt vpt neg V
  hpt vpt V hpt neg vpt V closepath stroke} def
/BoxE {stroke [] 0 setdash exch hpt sub exch vpt add M
  0 vpt2 neg V hpt2 0 V 0 vpt2 V
  hpt2 neg 0 V closepath stroke} def
/TriUE {stroke [] 0 setdash vpt 1.12 mul add M
  hpt neg vpt -1.62 mul V
  hpt 2 mul 0 V
  hpt neg vpt 1.62 mul V closepath stroke} def
/TriDE {stroke [] 0 setdash vpt 1.12 mul sub M
  hpt neg vpt 1.62 mul V
  hpt 2 mul 0 V
  hpt neg vpt -1.62 mul V closepath stroke} def
/PentE {stroke [] 0 setdash gsave
  translate 0 hpt M 4 {72 rotate 0 hpt L} repeat
  closepath stroke grestore} def
/CircE {stroke [] 0 setdash 
  hpt 0 360 arc stroke} def
/Opaque {gsave closepath 1 setgray fill grestore 0 setgray closepath} def
/DiaW {stroke [] 0 setdash vpt add M
  hpt neg vpt neg V hpt vpt neg V
  hpt vpt V hpt neg vpt V Opaque stroke} def
/BoxW {stroke [] 0 setdash exch hpt sub exch vpt add M
  0 vpt2 neg V hpt2 0 V 0 vpt2 V
  hpt2 neg 0 V Opaque stroke} def
/TriUW {stroke [] 0 setdash vpt 1.12 mul add M
  hpt neg vpt -1.62 mul V
  hpt 2 mul 0 V
  hpt neg vpt 1.62 mul V Opaque stroke} def
/TriDW {stroke [] 0 setdash vpt 1.12 mul sub M
  hpt neg vpt 1.62 mul V
  hpt 2 mul 0 V
  hpt neg vpt -1.62 mul V Opaque stroke} def
/PentW {stroke [] 0 setdash gsave
  translate 0 hpt M 4 {72 rotate 0 hpt L} repeat
  Opaque stroke grestore} def
/CircW {stroke [] 0 setdash 
  hpt 0 360 arc Opaque stroke} def
/BoxFill {gsave Rec 1 setgray fill grestore} def
/Density {
  /Fillden exch def
  currentrgbcolor
  /ColB exch def /ColG exch def /ColR exch def
  /ColR ColR Fillden mul Fillden sub 1 add def
  /ColG ColG Fillden mul Fillden sub 1 add def
  /ColB ColB Fillden mul Fillden sub 1 add def
  ColR ColG ColB setrgbcolor} def
/BoxColFill {gsave Rec PolyFill} def
/PolyFill {gsave Density fill grestore grestore} def
/h {rlineto rlineto rlineto gsave closepath fill grestore} bind def
%
% PostScript Level 1 Pattern Fill routine for rectangles
% Usage: x y w h s a XX PatternFill
%	x,y = lower left corner of box to be filled
%	w,h = width and height of box
%	  a = angle in degrees between lines and x-axis
%	 XX = 0/1 for no/yes cross-hatch
%
/PatternFill {gsave /PFa [ 9 2 roll ] def
  PFa 0 get PFa 2 get 2 div add PFa 1 get PFa 3 get 2 div add translate
  PFa 2 get -2 div PFa 3 get -2 div PFa 2 get PFa 3 get Rec
  TransparentPatterns {} {gsave 1 setgray fill grestore} ifelse
  clip
  currentlinewidth 0.5 mul setlinewidth
  /PFs PFa 2 get dup mul PFa 3 get dup mul add sqrt def
  0 0 M PFa 5 get rotate PFs -2 div dup translate
  0 1 PFs PFa 4 get div 1 add floor cvi
	{PFa 4 get mul 0 M 0 PFs V} for
  0 PFa 6 get ne {
	0 1 PFs PFa 4 get div 1 add floor cvi
	{PFa 4 get mul 0 2 1 roll M PFs 0 V} for
 } if
  stroke grestore} def
%
/languagelevel where
 {pop languagelevel} {1} ifelse
dup 2 lt
	{/InterpretLevel1 true def
	 /InterpretLevel3 false def}
	{/InterpretLevel1 Level1 def
	 2 gt
	    {/InterpretLevel3 Level3 def}
	    {/InterpretLevel3 false def}
	 ifelse }
 ifelse
%
% PostScript level 2 pattern fill definitions
%
/Level2PatternFill {
/Tile8x8 {/PaintType 2 /PatternType 1 /TilingType 1 /BBox [0 0 8 8] /XStep 8 /YStep 8}
	bind def
/KeepColor {currentrgbcolor [/Pattern /DeviceRGB] setcolorspace} bind def
<< Tile8x8
 /PaintProc {0.5 setlinewidth pop 0 0 M 8 8 L 0 8 M 8 0 L stroke} 
>> matrix makepattern
/Pat1 exch def
<< Tile8x8
 /PaintProc {0.5 setlinewidth pop 0 0 M 8 8 L 0 8 M 8 0 L stroke
	0 4 M 4 8 L 8 4 L 4 0 L 0 4 L stroke}
>> matrix makepattern
/Pat2 exch def
<< Tile8x8
 /PaintProc {0.5 setlinewidth pop 0 0 M 0 8 L
	8 8 L 8 0 L 0 0 L fill}
>> matrix makepattern
/Pat3 exch def
<< Tile8x8
 /PaintProc {0.5 setlinewidth pop -4 8 M 8 -4 L
	0 12 M 12 0 L stroke}
>> matrix makepattern
/Pat4 exch def
<< Tile8x8
 /PaintProc {0.5 setlinewidth pop -4 0 M 8 12 L
	0 -4 M 12 8 L stroke}
>> matrix makepattern
/Pat5 exch def
<< Tile8x8
 /PaintProc {0.5 setlinewidth pop -2 8 M 4 -4 L
	0 12 M 8 -4 L 4 12 M 10 0 L stroke}
>> matrix makepattern
/Pat6 exch def
<< Tile8x8
 /PaintProc {0.5 setlinewidth pop -2 0 M 4 12 L
	0 -4 M 8 12 L 4 -4 M 10 8 L stroke}
>> matrix makepattern
/Pat7 exch def
<< Tile8x8
 /PaintProc {0.5 setlinewidth pop 8 -2 M -4 4 L
	12 0 M -4 8 L 12 4 M 0 10 L stroke}
>> matrix makepattern
/Pat8 exch def
<< Tile8x8
 /PaintProc {0.5 setlinewidth pop 0 -2 M 12 4 L
	-4 0 M 12 8 L -4 4 M 8 10 L stroke}
>> matrix makepattern
/Pat9 exch def
/Pattern1 {PatternBgnd KeepColor Pat1 setpattern} bind def
/Pattern2 {PatternBgnd KeepColor Pat2 setpattern} bind def
/Pattern3 {PatternBgnd KeepColor Pat3 setpattern} bind def
/Pattern4 {PatternBgnd KeepColor Landscape {Pat5} {Pat4} ifelse setpattern} bind def
/Pattern5 {PatternBgnd KeepColor Landscape {Pat4} {Pat5} ifelse setpattern} bind def
/Pattern6 {PatternBgnd KeepColor Landscape {Pat9} {Pat6} ifelse setpattern} bind def
/Pattern7 {PatternBgnd KeepColor Landscape {Pat8} {Pat7} ifelse setpattern} bind def
} def
%
%
%End of PostScript Level 2 code
%
/PatternBgnd {
  TransparentPatterns {} {gsave 1 setgray fill grestore} ifelse
} def
%
% Substitute for Level 2 pattern fill codes with
% grayscale if Level 2 support is not selected.
%
/Level1PatternFill {
/Pattern1 {0.250 Density} bind def
/Pattern2 {0.500 Density} bind def
/Pattern3 {0.750 Density} bind def
/Pattern4 {0.125 Density} bind def
/Pattern5 {0.375 Density} bind def
/Pattern6 {0.625 Density} bind def
/Pattern7 {0.875 Density} bind def
} def
%
% Now test for support of Level 2 code
%
Level1 {Level1PatternFill} {Level2PatternFill} ifelse
%
/Symbol-Oblique /Symbol findfont [1 0 .167 1 0 0] makefont
dup length dict begin {1 index /FID eq {pop pop} {def} ifelse} forall
currentdict end definefont pop
%
/MFshow {
   { dup 5 get 3 ge
     { 5 get 3 eq {gsave} {grestore} ifelse }
     {dup dup 0 get findfont exch 1 get scalefont setfont
     [ currentpoint ] exch dup 2 get 0 exch R dup 5 get 2 ne {dup dup 6
     get exch 4 get {textshow} {stringwidth pop 0 R} ifelse }if dup 5 get 0 eq
     {dup 3 get {2 get neg 0 exch R pop} {pop aload pop M} ifelse} {dup 5
     get 1 eq {dup 2 get exch dup 3 get exch 6 get stringwidth pop -2 div
     dup 0 R} {dup 6 get stringwidth pop -2 div 0 R 6 get
     textshow 2 index {aload pop M neg 3 -1 roll neg R pop pop} {pop pop pop
     pop aload pop M} ifelse }ifelse }ifelse }
     ifelse }
   forall} def
/Gswidth {dup type /stringtype eq {stringwidth} {pop (n) stringwidth} ifelse} def
/MFwidth {0 exch { dup 5 get 3 ge { 5 get 3 eq { 0 } { pop } ifelse }
 {dup 3 get{dup dup 0 get findfont exch 1 get scalefont setfont
     6 get Gswidth pop add} {pop} ifelse} ifelse} forall} def
/MLshow { currentpoint stroke M
  0 exch R
  Blacktext {gsave 0 setgray MFshow grestore} {MFshow} ifelse } bind def
/MRshow { currentpoint stroke M
  exch dup MFwidth neg 3 -1 roll R
  Blacktext {gsave 0 setgray MFshow grestore} {MFshow} ifelse } bind def
/MCshow { currentpoint stroke M
  exch dup MFwidth -2 div 3 -1 roll R
  Blacktext {gsave 0 setgray MFshow grestore} {MFshow} ifelse } bind def
/XYsave    { [( ) 1 2 true false 3 ()] } bind def
/XYrestore { [( ) 1 2 true false 4 ()] } bind def
Level1 SuppressPDFMark or 
{} {
/SDict 10 dict def
systemdict /pdfmark known not {
  userdict /pdfmark systemdict /cleartomark get put
} if
SDict begin [
  /Title (TcpBic-UE-increase-download-250Mbps.eps)
  /Subject (gnuplot plot)
  /Creator (gnuplot 5.0 patchlevel 3)
  /Author (nat)
%  /Producer (gnuplot)
%  /Keywords ()
  /CreationDate (Thu Jun  2 09:48:52 2016)
  /DOCINFO pdfmark
end
} ifelse
%
% Support for boxed text - Ethan A Merritt May 2005
%
/InitTextBox { userdict /TBy2 3 -1 roll put userdict /TBx2 3 -1 roll put
           userdict /TBy1 3 -1 roll put userdict /TBx1 3 -1 roll put
	   /Boxing true def } def
/ExtendTextBox { Boxing
    { gsave dup false charpath pathbbox
      dup TBy2 gt {userdict /TBy2 3 -1 roll put} {pop} ifelse
      dup TBx2 gt {userdict /TBx2 3 -1 roll put} {pop} ifelse
      dup TBy1 lt {userdict /TBy1 3 -1 roll put} {pop} ifelse
      dup TBx1 lt {userdict /TBx1 3 -1 roll put} {pop} ifelse
      grestore } if } def
/PopTextBox { newpath TBx1 TBxmargin sub TBy1 TBymargin sub M
               TBx1 TBxmargin sub TBy2 TBymargin add L
	       TBx2 TBxmargin add TBy2 TBymargin add L
	       TBx2 TBxmargin add TBy1 TBymargin sub L closepath } def
/DrawTextBox { PopTextBox stroke /Boxing false def} def
/FillTextBox { gsave PopTextBox 1 1 1 setrgbcolor fill grestore /Boxing false def} def
0 0 0 0 InitTextBox
/TBxmargin 20 def
/TBymargin 20 def
/Boxing false def
/textshow { ExtendTextBox Gshow } def
%
% redundant definitions for compatibility with prologue.ps older than 5.0.2
/LTB {BL [] LCb DL} def
/LTb {PL [] LCb DL} def
end
%%EndProlog
%%Page: 1 1
gnudict begin
gsave
doclip
50 50 translate
0.050 0.050 scale
0 setgray
newpath
(Arial) findfont 200 scalefont setfont
BackgroundColor 0 lt 3 1 roll 0 lt exch 0 lt or or not {BackgroundColor C 1.000 0 0 14400.00 5040.00 BoxColFill} if
1.000 UL
LTb
0.00 0.00 0.00 C 0.500 UL
LTa
0.50 0.50 0.50 C 980 992 M
5859 0 V
stroke
1.000 UL
LTb
0.00 0.00 0.00 C 980 992 M
63 0 V
5796 0 R
-63 0 V
stroke
860 992 M
[ [(Arial) 200.0 0.0 true true 0 ( 50)]
] -66.7 MRshow
1.000 UL
LTb
0.00 0.00 0.00 C 0.500 UL
LTa
0.50 0.50 0.50 C 980 1854 M
5859 0 V
stroke
1.000 UL
LTb
0.00 0.00 0.00 C 980 1854 M
63 0 V
5796 0 R
-63 0 V
stroke
860 1854 M
[ [(Arial) 200.0 0.0 true true 0 ( 100)]
] -66.7 MRshow
1.000 UL
LTb
0.00 0.00 0.00 C 0.500 UL
LTa
0.50 0.50 0.50 C 980 2716 M
5859 0 V
stroke
1.000 UL
LTb
0.00 0.00 0.00 C 980 2716 M
63 0 V
5796 0 R
-63 0 V
stroke
860 2716 M
[ [(Arial) 200.0 0.0 true true 0 ( 150)]
] -66.7 MRshow
1.000 UL
LTb
0.00 0.00 0.00 C 0.500 UL
LTa
0.50 0.50 0.50 C 980 3577 M
5859 0 V
stroke
1.000 UL
LTb
0.00 0.00 0.00 C 980 3577 M
63 0 V
5796 0 R
-63 0 V
stroke
860 3577 M
[ [(Arial) 200.0 0.0 true true 0 ( 200)]
] -66.7 MRshow
1.000 UL
LTb
0.00 0.00 0.00 C 0.500 UL
LTa
0.50 0.50 0.50 C 980 4439 M
5859 0 V
stroke
1.000 UL
LTb
0.00 0.00 0.00 C 980 4439 M
63 0 V
5796 0 R
-63 0 V
stroke
860 4439 M
[ [(Arial) 200.0 0.0 true true 0 ( 250)]
] -66.7 MRshow
1.000 UL
LTb
0.00 0.00 0.00 C 0.500 UL
LTa
0.50 0.50 0.50 C 1325 820 M
0 3619 V
stroke
1.000 UL
LTb
0.00 0.00 0.00 C 1325 820 M
0 63 V
0 3556 R
0 -63 V
stroke
1325 620 M
[ [(Arial) 200.0 0.0 true true 0 (25)]
] -66.7 MCshow
1.000 UL
LTb
0.00 0.00 0.00 C 0.500 UL
LTa
0.50 0.50 0.50 C 3048 820 M
0 3619 V
stroke
1.000 UL
LTb
0.00 0.00 0.00 C 3048 820 M
0 63 V
0 3556 R
0 -63 V
stroke
3048 620 M
[ [(Arial) 200.0 0.0 true true 0 (50)]
] -66.7 MCshow
1.000 UL
LTb
0.00 0.00 0.00 C 0.500 UL
LTa
0.50 0.50 0.50 C 4771 820 M
0 3619 V
stroke
1.000 UL
LTb
0.00 0.00 0.00 C 4771 820 M
0 63 V
0 3556 R
0 -63 V
stroke
4771 620 M
[ [(Arial) 200.0 0.0 true true 0 (75)]
] -66.7 MCshow
1.000 UL
LTb
0.00 0.00 0.00 C 0.500 UL
LTa
0.50 0.50 0.50 C 6494 820 M
0 3619 V
stroke
1.000 UL
LTb
0.00 0.00 0.00 C 6494 820 M
0 63 V
0 3556 R
0 -63 V
stroke
6494 620 M
[ [(Arial) 200.0 0.0 true true 0 (100)]
] -66.7 MCshow
1.000 UL
LTb
0.00 0.00 0.00 C 1.000 UL
LTB
0.00 0.00 0.00 C 980 4439 M
980 820 L
5859 0 V
0 3619 R
-5859 0 R
1.000 UP
stroke
LTb
0.00 0.00 0.00 C LCb setrgbcolor
160 2629 M
currentpoint gsave translate -270 rotate 0 0 moveto
[ [(Arial) 200.0 0.0 true true 0 (RTT \(ms\))]
] -66.7 MCshow
grestore
LTb
LCb setrgbcolor
3909 320 M
[ [(Arial) 200.0 0.0 true true 0 (Flows #)]
] -66.7 MCshow
LTb
LCb setrgbcolor
3909 4739 M
[ [(Arial) 200.0 0.0 true true 0 (a\) RTT)]
] -66.7 MCshow
% Begin plot #1
1.000 UL
LTb
0.60 0.60 0.00 C LCb setrgbcolor
2654 153 M
[ [(Arial) 180.0 0.0 true true 0 (olsr)]
] -60.0 MRshow
1.000 UL
LTb
0.60 0.60 0.00 C 2762 108 333 90 80 -45 0 PatternFill
2762 108 N
333 0 V
0 90 V
-333 0 V
0 -90 V
Z stroke
1.000 UL
LTb
0.60 0.60 0.00 C 1083 948 138 398 80 -45 0 PatternFill
1152 923 M
0 25 V
0 398 R
0 737 V
stroke
1083 948 N
138 0 V
0 398 V
-138 0 V
0 -398 V
Z stroke
1083 2083 M
138 0 V
1083 923 M
138 0 V
stroke
2807 974 138 514 80 -45 0 PatternFill
2876 936 M
0 38 V
0 514 R
0 879 V
stroke
2807 974 N
138 0 V
0 514 V
-138 0 V
0 -514 V
Z stroke
2807 2367 M
138 0 V
2807 936 M
138 0 V
stroke
4530 996 138 638 80 -45 0 PatternFill
4599 948 M
0 48 V
0 638 R
0 885 V
stroke
4530 996 N
138 0 V
0 638 V
-138 0 V
0 -638 V
Z stroke
4530 2519 M
138 0 V
4530 948 M
138 0 V
stroke
6253 1015 138 755 80 -45 0 PatternFill
6322 963 M
0 52 V
0 755 R
0 1028 V
stroke
6253 1015 N
138 0 V
0 755 V
-138 0 V
0 -755 V
Z stroke
6253 2798 M
138 0 V
6253 963 M
138 0 V
% End plot #1
% Begin plot #2
stroke
LTb
LCb setrgbcolor

 /TransparentPatterns true def
1083 1222 138 0 40 30 0 PatternFill
1152 1222 M
stroke
1083 1222 N
138 0 V
-138 0 V
Z stroke
1083 1222 M
138 0 V
-138 0 R
138 0 V
stroke

 /TransparentPatterns true def
2807 1281 138 0 40 30 0 PatternFill
2876 1281 M
stroke
2807 1281 N
138 0 V
-138 0 V
Z stroke
2807 1281 M
138 0 V
-138 0 R
138 0 V
stroke

 /TransparentPatterns true def
4530 1348 138 0 40 30 0 PatternFill
4599 1348 M
stroke
4530 1348 N
138 0 V
-138 0 V
Z stroke
4530 1348 M
138 0 V
-138 0 R
138 0 V
stroke

 /TransparentPatterns true def
6253 1429 138 0 40 30 0 PatternFill
6322 1429 M
stroke
6253 1429 N
138 0 V
-138 0 V
Z stroke
6253 1429 M
138 0 V
-138 0 R
138 0 V
% End plot #2
% Begin plot #3
stroke
LTb
0.00 0.00 0.63 C LCb setrgbcolor
4067 153 M
[ [(Arial) 180.0 0.0 true true 0 (per-packet)]
] -60.0 MRshow
1.000 UL
LTb
0.00 0.00 0.63 C 4175 108 333 90 80 45 0 PatternFill
4175 108 N
333 0 V
0 90 V
-333 0 V
0 -90 V
Z stroke
1.000 UL
LTb
0.00 0.00 0.63 C 1256 988 138 680 80 45 0 PatternFill
1325 933 M
0 55 V
0 680 R
0 567 V
stroke
1256 988 N
138 0 V
0 680 V
-138 0 V
0 -680 V
Z stroke
1256 2235 M
138 0 V
1256 933 M
138 0 V
stroke
2979 982 138 607 80 45 0 PatternFill
3048 930 M
0 52 V
0 607 R
0 583 V
stroke
2979 982 N
138 0 V
0 607 V
-138 0 V
0 -607 V
Z stroke
2979 2172 M
138 0 V
2979 930 M
138 0 V
stroke
4702 1012 138 724 80 45 0 PatternFill
4771 951 M
0 61 V
0 724 R
0 680 V
stroke
4702 1012 N
138 0 V
0 724 V
-138 0 V
0 -724 V
Z stroke
4702 2416 M
138 0 V
4702 951 M
138 0 V
stroke
6425 1043 138 831 80 45 0 PatternFill
6494 961 M
0 82 V
0 831 R
0 679 V
stroke
6425 1043 N
138 0 V
0 831 V
-138 0 V
0 -831 V
Z stroke
6425 2553 M
138 0 V
6425 961 M
138 0 V
% End plot #3
% Begin plot #4
stroke
LTb
LCb setrgbcolor

 /TransparentPatterns true def
1256 1338 138 0 80 -45 0 PatternFill
1325 1338 M
stroke
1256 1338 N
138 0 V
-138 0 V
Z stroke
1256 1338 M
138 0 V
-138 0 R
138 0 V
stroke

 /TransparentPatterns true def
2979 1295 138 0 80 -45 0 PatternFill
3048 1295 M
stroke
2979 1295 N
138 0 V
-138 0 V
Z stroke
2979 1295 M
138 0 V
-138 0 R
138 0 V
stroke

 /TransparentPatterns true def
4702 1395 138 0 80 -45 0 PatternFill
4771 1395 M
stroke
4702 1395 N
138 0 V
-138 0 V
Z stroke
4702 1395 M
138 0 V
-138 0 R
138 0 V
stroke

 /TransparentPatterns true def
6425 1489 138 0 80 -45 0 PatternFill
6494 1489 M
stroke
6425 1489 N
138 0 V
-138 0 V
Z stroke
6425 1489 M
138 0 V
-138 0 R
138 0 V
% End plot #4
% Begin plot #5
stroke
LTb
0.00 0.38 0.82 C LCb setrgbcolor
5480 153 M
[ [(Arial) 180.0 0.0 true true 0 (per-flow)]
] -60.0 MRshow
1.000 UL
LTb
0.00 0.38 0.82 C 5588 108 333 90 40 30 0 PatternFill
5588 108 N
333 0 V
0 90 V
-333 0 V
0 -90 V
Z stroke
1.000 UL
LTb
0.00 0.38 0.82 C 1428 1005 138 884 40 30 0 PatternFill
1497 942 M
0 63 V
0 884 R
0 1122 V
stroke
1428 1005 N
138 0 V
0 884 V
-138 0 V
0 -884 V
Z stroke
1428 3011 M
138 0 V
1428 942 M
138 0 V
stroke
3151 1067 138 1256 40 30 0 PatternFill
3220 971 M
0 96 V
0 1256 R
0 1142 V
stroke
3151 1067 N
138 0 V
0 1256 V
-138 0 V
0 -1256 V
Z stroke
3151 3465 M
138 0 V
3151 971 M
138 0 V
stroke
4875 1120 138 1419 40 30 0 PatternFill
4944 996 M
0 124 V
0 1419 R
0 1108 V
stroke
4875 1120 N
138 0 V
0 1419 V
-138 0 V
0 -1419 V
Z stroke
4875 3647 M
138 0 V
4875 996 M
138 0 V
stroke
6598 1180 138 1712 40 30 0 PatternFill
6667 1018 M
0 162 V
0 1712 R
0 1397 V
stroke
6598 1180 N
138 0 V
0 1712 V
-138 0 V
0 -1712 V
Z stroke
6598 4289 M
138 0 V
6598 1018 M
138 0 V
% End plot #5
% Begin plot #6
stroke
LTb
LCb setrgbcolor

 /TransparentPatterns true def
1428 1499 138 0 40 -30 0 PatternFill
1497 1499 M
stroke
1428 1499 N
138 0 V
-138 0 V
Z stroke
1428 1499 M
138 0 V
-138 0 R
138 0 V
stroke

 /TransparentPatterns true def
3151 1712 138 0 40 -30 0 PatternFill
3220 1712 M
stroke
3151 1712 N
138 0 V
-138 0 V
Z stroke
3151 1712 M
138 0 V
-138 0 R
138 0 V
stroke

 /TransparentPatterns true def
4875 1866 138 0 40 -30 0 PatternFill
4944 1866 M
stroke
4875 1866 N
138 0 V
-138 0 V
Z stroke
4875 1866 M
138 0 V
-138 0 R
138 0 V
stroke

 /TransparentPatterns true def
6598 2092 138 0 40 -30 0 PatternFill
6667 2092 M
stroke
6598 2092 N
138 0 V
-138 0 V
Z stroke
6598 2092 M
138 0 V
-138 0 R
138 0 V
% End plot #6
stroke
2.000 UL
LTb
LCb setrgbcolor
1.000 UP
1.000 UL
LTb
0.00 0.00 0.00 C 1.000 UL
LTb
0.00 0.00 0.00 C 0.500 UL
LTa
0.50 0.50 0.50 C 8180 820 M
5859 0 V
stroke
1.000 UL
LTb
0.00 0.00 0.00 C 8180 820 M
63 0 V
5796 0 R
-63 0 V
stroke
8060 820 M
[ [(Arial) 200.0 0.0 true true 0 ( 0)]
] -66.7 MRshow
1.000 UL
LTb
0.00 0.00 0.00 C 0.500 UL
LTa
0.50 0.50 0.50 C 8180 1423 M
5859 0 V
stroke
1.000 UL
LTb
0.00 0.00 0.00 C 8180 1423 M
63 0 V
5796 0 R
-63 0 V
stroke
8060 1423 M
[ [(Arial) 200.0 0.0 true true 0 ( 20)]
] -66.7 MRshow
1.000 UL
LTb
0.00 0.00 0.00 C 0.500 UL
LTa
0.50 0.50 0.50 C 8180 2026 M
5859 0 V
stroke
1.000 UL
LTb
0.00 0.00 0.00 C 8180 2026 M
63 0 V
5796 0 R
-63 0 V
stroke
8060 2026 M
[ [(Arial) 200.0 0.0 true true 0 ( 40)]
] -66.7 MRshow
1.000 UL
LTb
0.00 0.00 0.00 C 0.500 UL
LTa
0.50 0.50 0.50 C 8180 2630 M
5859 0 V
stroke
1.000 UL
LTb
0.00 0.00 0.00 C 8180 2630 M
63 0 V
5796 0 R
-63 0 V
stroke
8060 2630 M
[ [(Arial) 200.0 0.0 true true 0 ( 60)]
] -66.7 MRshow
1.000 UL
LTb
0.00 0.00 0.00 C 0.500 UL
LTa
0.50 0.50 0.50 C 8180 3233 M
5859 0 V
stroke
1.000 UL
LTb
0.00 0.00 0.00 C 8180 3233 M
63 0 V
5796 0 R
-63 0 V
stroke
8060 3233 M
[ [(Arial) 200.0 0.0 true true 0 ( 80)]
] -66.7 MRshow
1.000 UL
LTb
0.00 0.00 0.00 C 0.500 UL
LTa
0.50 0.50 0.50 C 8180 3836 M
5859 0 V
stroke
1.000 UL
LTb
0.00 0.00 0.00 C 8180 3836 M
63 0 V
5796 0 R
-63 0 V
stroke
8060 3836 M
[ [(Arial) 200.0 0.0 true true 0 ( 100)]
] -66.7 MRshow
1.000 UL
LTb
0.00 0.00 0.00 C 0.500 UL
LTa
0.50 0.50 0.50 C 8180 4439 M
5859 0 V
stroke
1.000 UL
LTb
0.00 0.00 0.00 C 8180 4439 M
63 0 V
5796 0 R
-63 0 V
stroke
8060 4439 M
[ [(Arial) 200.0 0.0 true true 0 ( 120)]
] -66.7 MRshow
1.000 UL
LTb
0.00 0.00 0.00 C 0.500 UL
LTa
0.50 0.50 0.50 C 8525 820 M
0 3619 V
stroke
1.000 UL
LTb
0.00 0.00 0.00 C 8525 820 M
0 63 V
0 3556 R
0 -63 V
stroke
8525 620 M
[ [(Arial) 200.0 0.0 true true 0 (25)]
] -66.7 MCshow
1.000 UL
LTb
0.00 0.00 0.00 C 0.500 UL
LTa
0.50 0.50 0.50 C 10248 820 M
0 3619 V
stroke
1.000 UL
LTb
0.00 0.00 0.00 C 10248 820 M
0 63 V
0 3556 R
0 -63 V
stroke
10248 620 M
[ [(Arial) 200.0 0.0 true true 0 (50)]
] -66.7 MCshow
1.000 UL
LTb
0.00 0.00 0.00 C 0.500 UL
LTa
0.50 0.50 0.50 C 11971 820 M
0 3619 V
stroke
1.000 UL
LTb
0.00 0.00 0.00 C 11971 820 M
0 63 V
0 3556 R
0 -63 V
stroke
11971 620 M
[ [(Arial) 200.0 0.0 true true 0 (75)]
] -66.7 MCshow
1.000 UL
LTb
0.00 0.00 0.00 C 0.500 UL
LTa
0.50 0.50 0.50 C 13694 820 M
0 3619 V
stroke
1.000 UL
LTb
0.00 0.00 0.00 C 13694 820 M
0 63 V
0 3556 R
0 -63 V
stroke
13694 620 M
[ [(Arial) 200.0 0.0 true true 0 (100)]
] -66.7 MCshow
1.000 UL
LTb
0.00 0.00 0.00 C 1.000 UL
LTB
0.00 0.00 0.00 C 8180 4439 M
0 -3619 V
5859 0 V
0 3619 R
-5859 0 R
1.000 UP
stroke
LTb
0.00 0.00 0.00 C LCb setrgbcolor
7360 2629 M
currentpoint gsave translate -270 rotate 0 0 moveto
[ [(Arial) 200.0 0.0 true true 0 (File download time \(s\))]
] -66.7 MCshow
grestore
LTb
LCb setrgbcolor
11109 320 M
[ [(Arial) 200.0 0.0 true true 0 (Flows #)]
] -66.7 MCshow
LTb
LCb setrgbcolor
11109 4739 M
[ [(Arial) 200.0 0.0 true true 0 (b\) File download time)]
] -66.7 MCshow
% Begin plot #1
1.000 UL
LTb
0.60 0.60 0.00 C LCb setrgbcolor
9854 153 M
[ [(Arial) 180.0 0.0 true true 0 (olsr)]
] -60.0 MRshow
1.000 UL
LTb
0.60 0.60 0.00 C 9962 108 333 90 80 -45 0 PatternFill
9962 108 N
333 0 V
0 90 V
-333 0 V
0 -90 V
Z stroke
1.000 UL
LTb
0.60 0.60 0.00 C 8283 1176 138 314 80 -45 0 PatternFill
8352 912 M
0 264 V
0 314 R
0 120 V
stroke
8283 1176 N
138 0 V
0 314 V
-138 0 V
0 -314 V
Z stroke
8283 1610 M
138 0 V
8283 912 M
138 0 V
stroke
10007 1153 138 376 80 -45 0 PatternFill
10076 912 M
0 241 V
0 376 R
0 194 V
stroke
10007 1153 N
138 0 V
0 376 V
-138 0 V
0 -376 V
Z stroke
10007 1723 M
138 0 V
10007 912 M
138 0 V
stroke
11730 1186 138 392 80 -45 0 PatternFill
11799 903 M
0 283 V
0 392 R
0 280 V
stroke
11730 1186 N
138 0 V
0 392 V
-138 0 V
0 -392 V
Z stroke
11730 1858 M
138 0 V
11730 903 M
138 0 V
stroke
13453 1188 138 438 80 -45 0 PatternFill
13522 912 M
0 276 V
0 438 R
0 495 V
stroke
13453 1188 N
138 0 V
0 438 V
-138 0 V
0 -438 V
Z stroke
13453 2121 M
138 0 V
13453 912 M
138 0 V
% End plot #1
% Begin plot #2
stroke
LTb
LCb setrgbcolor

 /TransparentPatterns true def
8283 1310 138 0 40 30 0 PatternFill
8352 1310 M
stroke
8283 1310 N
138 0 V
-138 0 V
Z stroke
8283 1310 M
138 0 V
-138 0 R
138 0 V
stroke

 /TransparentPatterns true def
10007 1321 138 0 40 30 0 PatternFill
10076 1321 M
stroke
10007 1321 N
138 0 V
-138 0 V
Z stroke
10007 1321 M
138 0 V
-138 0 R
138 0 V
stroke

 /TransparentPatterns true def
11730 1384 138 0 40 30 0 PatternFill
11799 1384 M
stroke
11730 1384 N
138 0 V
-138 0 V
Z stroke
11730 1384 M
138 0 V
-138 0 R
138 0 V
stroke

 /TransparentPatterns true def
13453 1419 138 0 40 30 0 PatternFill
13522 1419 M
stroke
13453 1419 N
138 0 V
-138 0 V
Z stroke
13453 1419 M
138 0 V
-138 0 R
138 0 V
% End plot #2
% Begin plot #3
stroke
LTb
0.00 0.00 0.63 C LCb setrgbcolor
11267 153 M
[ [(Arial) 180.0 0.0 true true 0 (per-packet)]
] -60.0 MRshow
1.000 UL
LTb
0.00 0.00 0.63 C 11375 108 333 90 80 45 0 PatternFill
11375 108 N
333 0 V
0 90 V
-333 0 V
0 -90 V
Z stroke
1.000 UL
LTb
0.00 0.00 0.63 C 8456 930 138 1342 80 45 0 PatternFill
8525 896 M
0 34 V
0 1342 R
0 476 V
stroke
8456 930 N
138 0 V
0 1342 V
-138 0 V
0 -1342 V
Z stroke
8456 2748 M
138 0 V
8456 896 M
138 0 V
stroke
10179 925 138 1498 80 45 0 PatternFill
10248 892 M
0 33 V
0 1498 R
0 533 V
stroke
10179 925 N
138 0 V
0 1498 V
-138 0 V
0 -1498 V
Z stroke
10179 2956 M
138 0 V
10179 892 M
138 0 V
stroke
11902 939 138 1524 80 45 0 PatternFill
11971 887 M
0 52 V
0 1524 R
0 429 V
stroke
11902 939 N
138 0 V
0 1524 V
-138 0 V
0 -1524 V
Z stroke
11902 2892 M
138 0 V
11902 887 M
138 0 V
stroke
13625 942 138 1483 80 45 0 PatternFill
13694 893 M
0 49 V
0 1483 R
0 831 V
stroke
13625 942 N
138 0 V
0 1483 V
-138 0 V
0 -1483 V
Z stroke
13625 3256 M
138 0 V
13625 893 M
138 0 V
% End plot #3
% Begin plot #4
stroke
LTb
LCb setrgbcolor

 /TransparentPatterns true def
8456 1406 138 0 80 -45 0 PatternFill
8525 1406 M
stroke
8456 1406 N
138 0 V
-138 0 V
Z stroke
8456 1406 M
138 0 V
-138 0 R
138 0 V
stroke

 /TransparentPatterns true def
10179 1486 138 0 80 -45 0 PatternFill
10248 1486 M
stroke
10179 1486 N
138 0 V
-138 0 V
Z stroke
10179 1486 M
138 0 V
-138 0 R
138 0 V
stroke

 /TransparentPatterns true def
11902 1529 138 0 80 -45 0 PatternFill
11971 1529 M
stroke
11902 1529 N
138 0 V
-138 0 V
Z stroke
11902 1529 M
138 0 V
-138 0 R
138 0 V
stroke

 /TransparentPatterns true def
13625 1564 138 0 80 -45 0 PatternFill
13694 1564 M
stroke
13625 1564 N
138 0 V
-138 0 V
Z stroke
13625 1564 M
138 0 V
-138 0 R
138 0 V
% End plot #4
% Begin plot #5
stroke
LTb
0.00 0.38 0.82 C LCb setrgbcolor
12680 153 M
[ [(Arial) 180.0 0.0 true true 0 (per-flow)]
] -60.0 MRshow
1.000 UL
LTb
0.00 0.38 0.82 C 12788 108 333 90 40 30 0 PatternFill
12788 108 N
333 0 V
0 90 V
-333 0 V
0 -90 V
Z stroke
1.000 UL
LTb
0.00 0.38 0.82 C 8628 949 138 76 40 30 0 PatternFill
8697 926 M
0 23 V
0 76 R
0 112 V
stroke
8628 949 N
138 0 V
0 76 V
-138 0 V
0 -76 V
Z stroke
8628 1137 M
138 0 V
8628 926 M
138 0 V
stroke
10351 957 138 151 40 30 0 PatternFill
10420 911 M
0 46 V
0 151 R
0 343 V
stroke
10351 957 N
138 0 V
0 151 V
-138 0 V
0 -151 V
Z stroke
10351 1451 M
138 0 V
10351 911 M
138 0 V
stroke
12075 944 138 200 40 30 0 PatternFill
12144 915 M
0 29 V
0 200 R
0 360 V
stroke
12075 944 N
138 0 V
0 200 V
-138 0 V
0 -200 V
Z stroke
12075 1504 M
138 0 V
12075 915 M
138 0 V
stroke
13798 971 138 195 40 30 0 PatternFill
13867 894 M
0 77 V
0 195 R
0 603 V
stroke
13798 971 N
138 0 V
0 195 V
-138 0 V
0 -195 V
Z stroke
13798 1769 M
138 0 V
13798 894 M
138 0 V
% End plot #5
% Begin plot #6
stroke
LTb
LCb setrgbcolor

 /TransparentPatterns true def
8628 990 138 0 40 -30 0 PatternFill
8697 990 M
stroke
8628 990 N
138 0 V
-138 0 V
Z stroke
8628 990 M
138 0 V
-138 0 R
138 0 V
stroke

 /TransparentPatterns true def
10351 1042 138 0 40 -30 0 PatternFill
10420 1042 M
stroke
10351 1042 N
138 0 V
-138 0 V
Z stroke
10351 1042 M
138 0 V
-138 0 R
138 0 V
stroke

 /TransparentPatterns true def
12075 1053 138 0 40 -30 0 PatternFill
12144 1053 M
stroke
12075 1053 N
138 0 V
-138 0 V
Z stroke
12075 1053 M
138 0 V
-138 0 R
138 0 V
stroke

 /TransparentPatterns true def
13798 1069 138 0 40 -30 0 PatternFill
13867 1069 M
stroke
13798 1069 N
138 0 V
-138 0 V
Z stroke
13798 1069 M
138 0 V
-138 0 R
138 0 V
% End plot #6
stroke
2.000 UL
LTb
LCb setrgbcolor
1.000 UP
1.000 UL
LTb
0.00 0.00 0.00 C stroke
grestore
end
showpage
%%Trailer
%%DocumentFonts: Arial
