%!PS-Adobe-2.0 EPSF-2.0
%%Title: TcpHighSpeed-UE-increase-download-390Mbps.eps
%%Creator: gnuplot 5.0 patchlevel 3
%%CreationDate: Thu Jun  2 09:48:55 2016
%%DocumentFonts: (atend)
%%BoundingBox: 50 50 770 302
%%EndComments
%%BeginProlog
/gnudict 256 dict def
gnudict begin
%
% The following true/false flags may be edited by hand if desired.
% The unit line width and grayscale image gamma correction may also be changed.
%
/Color true def
/Blacktext false def
/Solid false def
/Dashlength 3 def
/Landscape false def
/Level1 false def
/Level3 false def
/Rounded false def
/ClipToBoundingBox false def
/SuppressPDFMark false def
/TransparentPatterns false def
/gnulinewidth 15.000 def
/userlinewidth gnulinewidth def
/Gamma 1.0 def
/BackgroundColor {-1.000 -1.000 -1.000} def
%
/vshift -66 def
/dl1 {
  10.0 Dashlength userlinewidth gnulinewidth div mul mul mul
  Rounded { currentlinewidth 0.75 mul sub dup 0 le { pop 0.01 } if } if
} def
/dl2 {
  10.0 Dashlength userlinewidth gnulinewidth div mul mul mul
  Rounded { currentlinewidth 0.75 mul add } if
} def
/hpt_ 31.5 def
/vpt_ 31.5 def
/hpt hpt_ def
/vpt vpt_ def
/doclip {
  ClipToBoundingBox {
    newpath 50 50 moveto 770 50 lineto 770 302 lineto 50 302 lineto closepath
    clip
  } if
} def
%
% Gnuplot Prolog Version 5.1 (Oct 2015)
%
%/SuppressPDFMark true def
%
/M {moveto} bind def
/L {lineto} bind def
/R {rmoveto} bind def
/V {rlineto} bind def
/N {newpath moveto} bind def
/Z {closepath} bind def
/C {setrgbcolor} bind def
/f {rlineto fill} bind def
/g {setgray} bind def
/Gshow {show} def   % May be redefined later in the file to support UTF-8
/vpt2 vpt 2 mul def
/hpt2 hpt 2 mul def
/Lshow {currentpoint stroke M 0 vshift R 
	Blacktext {gsave 0 setgray textshow grestore} {textshow} ifelse} def
/Rshow {currentpoint stroke M dup stringwidth pop neg vshift R
	Blacktext {gsave 0 setgray textshow grestore} {textshow} ifelse} def
/Cshow {currentpoint stroke M dup stringwidth pop -2 div vshift R 
	Blacktext {gsave 0 setgray textshow grestore} {textshow} ifelse} def
/UP {dup vpt_ mul /vpt exch def hpt_ mul /hpt exch def
  /hpt2 hpt 2 mul def /vpt2 vpt 2 mul def} def
/DL {Color {setrgbcolor Solid {pop []} if 0 setdash}
 {pop pop pop 0 setgray Solid {pop []} if 0 setdash} ifelse} def
/BL {stroke userlinewidth 2 mul setlinewidth
	Rounded {1 setlinejoin 1 setlinecap} if} def
/AL {stroke userlinewidth 2 div setlinewidth
	Rounded {1 setlinejoin 1 setlinecap} if} def
/UL {dup gnulinewidth mul /userlinewidth exch def
	dup 1 lt {pop 1} if 10 mul /udl exch def} def
/PL {stroke userlinewidth setlinewidth
	Rounded {1 setlinejoin 1 setlinecap} if} def
3.8 setmiterlimit
% Classic Line colors (version 5.0)
/LCw {1 1 1} def
/LCb {0 0 0} def
/LCa {0 0 0} def
/LC0 {1 0 0} def
/LC1 {0 1 0} def
/LC2 {0 0 1} def
/LC3 {1 0 1} def
/LC4 {0 1 1} def
/LC5 {1 1 0} def
/LC6 {0 0 0} def
/LC7 {1 0.3 0} def
/LC8 {0.5 0.5 0.5} def
% Default dash patterns (version 5.0)
/LTB {BL [] LCb DL} def
/LTw {PL [] 1 setgray} def
/LTb {PL [] LCb DL} def
/LTa {AL [1 udl mul 2 udl mul] 0 setdash LCa setrgbcolor} def
/LT0 {PL [] LC0 DL} def
/LT1 {PL [2 dl1 3 dl2] LC1 DL} def
/LT2 {PL [1 dl1 1.5 dl2] LC2 DL} def
/LT3 {PL [6 dl1 2 dl2 1 dl1 2 dl2] LC3 DL} def
/LT4 {PL [1 dl1 2 dl2 6 dl1 2 dl2 1 dl1 2 dl2] LC4 DL} def
/LT5 {PL [4 dl1 2 dl2] LC5 DL} def
/LT6 {PL [1.5 dl1 1.5 dl2 1.5 dl1 1.5 dl2 1.5 dl1 6 dl2] LC6 DL} def
/LT7 {PL [3 dl1 3 dl2 1 dl1 3 dl2] LC7 DL} def
/LT8 {PL [2 dl1 2 dl2 2 dl1 6 dl2] LC8 DL} def
/SL {[] 0 setdash} def
/Pnt {stroke [] 0 setdash gsave 1 setlinecap M 0 0 V stroke grestore} def
/Dia {stroke [] 0 setdash 2 copy vpt add M
  hpt neg vpt neg V hpt vpt neg V
  hpt vpt V hpt neg vpt V closepath stroke
  Pnt} def
/Pls {stroke [] 0 setdash vpt sub M 0 vpt2 V
  currentpoint stroke M
  hpt neg vpt neg R hpt2 0 V stroke
 } def
/Box {stroke [] 0 setdash 2 copy exch hpt sub exch vpt add M
  0 vpt2 neg V hpt2 0 V 0 vpt2 V
  hpt2 neg 0 V closepath stroke
  Pnt} def
/Crs {stroke [] 0 setdash exch hpt sub exch vpt add M
  hpt2 vpt2 neg V currentpoint stroke M
  hpt2 neg 0 R hpt2 vpt2 V stroke} def
/TriU {stroke [] 0 setdash 2 copy vpt 1.12 mul add M
  hpt neg vpt -1.62 mul V
  hpt 2 mul 0 V
  hpt neg vpt 1.62 mul V closepath stroke
  Pnt} def
/Star {2 copy Pls Crs} def
/BoxF {stroke [] 0 setdash exch hpt sub exch vpt add M
  0 vpt2 neg V hpt2 0 V 0 vpt2 V
  hpt2 neg 0 V closepath fill} def
/TriUF {stroke [] 0 setdash vpt 1.12 mul add M
  hpt neg vpt -1.62 mul V
  hpt 2 mul 0 V
  hpt neg vpt 1.62 mul V closepath fill} def
/TriD {stroke [] 0 setdash 2 copy vpt 1.12 mul sub M
  hpt neg vpt 1.62 mul V
  hpt 2 mul 0 V
  hpt neg vpt -1.62 mul V closepath stroke
  Pnt} def
/TriDF {stroke [] 0 setdash vpt 1.12 mul sub M
  hpt neg vpt 1.62 mul V
  hpt 2 mul 0 V
  hpt neg vpt -1.62 mul V closepath fill} def
/DiaF {stroke [] 0 setdash vpt add M
  hpt neg vpt neg V hpt vpt neg V
  hpt vpt V hpt neg vpt V closepath fill} def
/Pent {stroke [] 0 setdash 2 copy gsave
  translate 0 hpt M 4 {72 rotate 0 hpt L} repeat
  closepath stroke grestore Pnt} def
/PentF {stroke [] 0 setdash gsave
  translate 0 hpt M 4 {72 rotate 0 hpt L} repeat
  closepath fill grestore} def
/Circle {stroke [] 0 setdash 2 copy
  hpt 0 360 arc stroke Pnt} def
/CircleF {stroke [] 0 setdash hpt 0 360 arc fill} def
/C0 {BL [] 0 setdash 2 copy moveto vpt 90 450 arc} bind def
/C1 {BL [] 0 setdash 2 copy moveto
	2 copy vpt 0 90 arc closepath fill
	vpt 0 360 arc closepath} bind def
/C2 {BL [] 0 setdash 2 copy moveto
	2 copy vpt 90 180 arc closepath fill
	vpt 0 360 arc closepath} bind def
/C3 {BL [] 0 setdash 2 copy moveto
	2 copy vpt 0 180 arc closepath fill
	vpt 0 360 arc closepath} bind def
/C4 {BL [] 0 setdash 2 copy moveto
	2 copy vpt 180 270 arc closepath fill
	vpt 0 360 arc closepath} bind def
/C5 {BL [] 0 setdash 2 copy moveto
	2 copy vpt 0 90 arc
	2 copy moveto
	2 copy vpt 180 270 arc closepath fill
	vpt 0 360 arc} bind def
/C6 {BL [] 0 setdash 2 copy moveto
	2 copy vpt 90 270 arc closepath fill
	vpt 0 360 arc closepath} bind def
/C7 {BL [] 0 setdash 2 copy moveto
	2 copy vpt 0 270 arc closepath fill
	vpt 0 360 arc closepath} bind def
/C8 {BL [] 0 setdash 2 copy moveto
	2 copy vpt 270 360 arc closepath fill
	vpt 0 360 arc closepath} bind def
/C9 {BL [] 0 setdash 2 copy moveto
	2 copy vpt 270 450 arc closepath fill
	vpt 0 360 arc closepath} bind def
/C10 {BL [] 0 setdash 2 copy 2 copy moveto vpt 270 360 arc closepath fill
	2 copy moveto
	2 copy vpt 90 180 arc closepath fill
	vpt 0 360 arc closepath} bind def
/C11 {BL [] 0 setdash 2 copy moveto
	2 copy vpt 0 180 arc closepath fill
	2 copy moveto
	2 copy vpt 270 360 arc closepath fill
	vpt 0 360 arc closepath} bind def
/C12 {BL [] 0 setdash 2 copy moveto
	2 copy vpt 180 360 arc closepath fill
	vpt 0 360 arc closepath} bind def
/C13 {BL [] 0 setdash 2 copy moveto
	2 copy vpt 0 90 arc closepath fill
	2 copy moveto
	2 copy vpt 180 360 arc closepath fill
	vpt 0 360 arc closepath} bind def
/C14 {BL [] 0 setdash 2 copy moveto
	2 copy vpt 90 360 arc closepath fill
	vpt 0 360 arc} bind def
/C15 {BL [] 0 setdash 2 copy vpt 0 360 arc closepath fill
	vpt 0 360 arc closepath} bind def
/Rec {newpath 4 2 roll moveto 1 index 0 rlineto 0 exch rlineto
	neg 0 rlineto closepath} bind def
/Square {dup Rec} bind def
/Bsquare {vpt sub exch vpt sub exch vpt2 Square} bind def
/S0 {BL [] 0 setdash 2 copy moveto 0 vpt rlineto BL Bsquare} bind def
/S1 {BL [] 0 setdash 2 copy vpt Square fill Bsquare} bind def
/S2 {BL [] 0 setdash 2 copy exch vpt sub exch vpt Square fill Bsquare} bind def
/S3 {BL [] 0 setdash 2 copy exch vpt sub exch vpt2 vpt Rec fill Bsquare} bind def
/S4 {BL [] 0 setdash 2 copy exch vpt sub exch vpt sub vpt Square fill Bsquare} bind def
/S5 {BL [] 0 setdash 2 copy 2 copy vpt Square fill
	exch vpt sub exch vpt sub vpt Square fill Bsquare} bind def
/S6 {BL [] 0 setdash 2 copy exch vpt sub exch vpt sub vpt vpt2 Rec fill Bsquare} bind def
/S7 {BL [] 0 setdash 2 copy exch vpt sub exch vpt sub vpt vpt2 Rec fill
	2 copy vpt Square fill Bsquare} bind def
/S8 {BL [] 0 setdash 2 copy vpt sub vpt Square fill Bsquare} bind def
/S9 {BL [] 0 setdash 2 copy vpt sub vpt vpt2 Rec fill Bsquare} bind def
/S10 {BL [] 0 setdash 2 copy vpt sub vpt Square fill 2 copy exch vpt sub exch vpt Square fill
	Bsquare} bind def
/S11 {BL [] 0 setdash 2 copy vpt sub vpt Square fill 2 copy exch vpt sub exch vpt2 vpt Rec fill
	Bsquare} bind def
/S12 {BL [] 0 setdash 2 copy exch vpt sub exch vpt sub vpt2 vpt Rec fill Bsquare} bind def
/S13 {BL [] 0 setdash 2 copy exch vpt sub exch vpt sub vpt2 vpt Rec fill
	2 copy vpt Square fill Bsquare} bind def
/S14 {BL [] 0 setdash 2 copy exch vpt sub exch vpt sub vpt2 vpt Rec fill
	2 copy exch vpt sub exch vpt Square fill Bsquare} bind def
/S15 {BL [] 0 setdash 2 copy Bsquare fill Bsquare} bind def
/D0 {gsave translate 45 rotate 0 0 S0 stroke grestore} bind def
/D1 {gsave translate 45 rotate 0 0 S1 stroke grestore} bind def
/D2 {gsave translate 45 rotate 0 0 S2 stroke grestore} bind def
/D3 {gsave translate 45 rotate 0 0 S3 stroke grestore} bind def
/D4 {gsave translate 45 rotate 0 0 S4 stroke grestore} bind def
/D5 {gsave translate 45 rotate 0 0 S5 stroke grestore} bind def
/D6 {gsave translate 45 rotate 0 0 S6 stroke grestore} bind def
/D7 {gsave translate 45 rotate 0 0 S7 stroke grestore} bind def
/D8 {gsave translate 45 rotate 0 0 S8 stroke grestore} bind def
/D9 {gsave translate 45 rotate 0 0 S9 stroke grestore} bind def
/D10 {gsave translate 45 rotate 0 0 S10 stroke grestore} bind def
/D11 {gsave translate 45 rotate 0 0 S11 stroke grestore} bind def
/D12 {gsave translate 45 rotate 0 0 S12 stroke grestore} bind def
/D13 {gsave translate 45 rotate 0 0 S13 stroke grestore} bind def
/D14 {gsave translate 45 rotate 0 0 S14 stroke grestore} bind def
/D15 {gsave translate 45 rotate 0 0 S15 stroke grestore} bind def
/DiaE {stroke [] 0 setdash vpt add M
  hpt neg vpt neg V hpt vpt neg V
  hpt vpt V hpt neg vpt V closepath stroke} def
/BoxE {stroke [] 0 setdash exch hpt sub exch vpt add M
  0 vpt2 neg V hpt2 0 V 0 vpt2 V
  hpt2 neg 0 V closepath stroke} def
/TriUE {stroke [] 0 setdash vpt 1.12 mul add M
  hpt neg vpt -1.62 mul V
  hpt 2 mul 0 V
  hpt neg vpt 1.62 mul V closepath stroke} def
/TriDE {stroke [] 0 setdash vpt 1.12 mul sub M
  hpt neg vpt 1.62 mul V
  hpt 2 mul 0 V
  hpt neg vpt -1.62 mul V closepath stroke} def
/PentE {stroke [] 0 setdash gsave
  translate 0 hpt M 4 {72 rotate 0 hpt L} repeat
  closepath stroke grestore} def
/CircE {stroke [] 0 setdash 
  hpt 0 360 arc stroke} def
/Opaque {gsave closepath 1 setgray fill grestore 0 setgray closepath} def
/DiaW {stroke [] 0 setdash vpt add M
  hpt neg vpt neg V hpt vpt neg V
  hpt vpt V hpt neg vpt V Opaque stroke} def
/BoxW {stroke [] 0 setdash exch hpt sub exch vpt add M
  0 vpt2 neg V hpt2 0 V 0 vpt2 V
  hpt2 neg 0 V Opaque stroke} def
/TriUW {stroke [] 0 setdash vpt 1.12 mul add M
  hpt neg vpt -1.62 mul V
  hpt 2 mul 0 V
  hpt neg vpt 1.62 mul V Opaque stroke} def
/TriDW {stroke [] 0 setdash vpt 1.12 mul sub M
  hpt neg vpt 1.62 mul V
  hpt 2 mul 0 V
  hpt neg vpt -1.62 mul V Opaque stroke} def
/PentW {stroke [] 0 setdash gsave
  translate 0 hpt M 4 {72 rotate 0 hpt L} repeat
  Opaque stroke grestore} def
/CircW {stroke [] 0 setdash 
  hpt 0 360 arc Opaque stroke} def
/BoxFill {gsave Rec 1 setgray fill grestore} def
/Density {
  /Fillden exch def
  currentrgbcolor
  /ColB exch def /ColG exch def /ColR exch def
  /ColR ColR Fillden mul Fillden sub 1 add def
  /ColG ColG Fillden mul Fillden sub 1 add def
  /ColB ColB Fillden mul Fillden sub 1 add def
  ColR ColG ColB setrgbcolor} def
/BoxColFill {gsave Rec PolyFill} def
/PolyFill {gsave Density fill grestore grestore} def
/h {rlineto rlineto rlineto gsave closepath fill grestore} bind def
%
% PostScript Level 1 Pattern Fill routine for rectangles
% Usage: x y w h s a XX PatternFill
%	x,y = lower left corner of box to be filled
%	w,h = width and height of box
%	  a = angle in degrees between lines and x-axis
%	 XX = 0/1 for no/yes cross-hatch
%
/PatternFill {gsave /PFa [ 9 2 roll ] def
  PFa 0 get PFa 2 get 2 div add PFa 1 get PFa 3 get 2 div add translate
  PFa 2 get -2 div PFa 3 get -2 div PFa 2 get PFa 3 get Rec
  TransparentPatterns {} {gsave 1 setgray fill grestore} ifelse
  clip
  currentlinewidth 0.5 mul setlinewidth
  /PFs PFa 2 get dup mul PFa 3 get dup mul add sqrt def
  0 0 M PFa 5 get rotate PFs -2 div dup translate
  0 1 PFs PFa 4 get div 1 add floor cvi
	{PFa 4 get mul 0 M 0 PFs V} for
  0 PFa 6 get ne {
	0 1 PFs PFa 4 get div 1 add floor cvi
	{PFa 4 get mul 0 2 1 roll M PFs 0 V} for
 } if
  stroke grestore} def
%
/languagelevel where
 {pop languagelevel} {1} ifelse
dup 2 lt
	{/InterpretLevel1 true def
	 /InterpretLevel3 false def}
	{/InterpretLevel1 Level1 def
	 2 gt
	    {/InterpretLevel3 Level3 def}
	    {/InterpretLevel3 false def}
	 ifelse }
 ifelse
%
% PostScript level 2 pattern fill definitions
%
/Level2PatternFill {
/Tile8x8 {/PaintType 2 /PatternType 1 /TilingType 1 /BBox [0 0 8 8] /XStep 8 /YStep 8}
	bind def
/KeepColor {currentrgbcolor [/Pattern /DeviceRGB] setcolorspace} bind def
<< Tile8x8
 /PaintProc {0.5 setlinewidth pop 0 0 M 8 8 L 0 8 M 8 0 L stroke} 
>> matrix makepattern
/Pat1 exch def
<< Tile8x8
 /PaintProc {0.5 setlinewidth pop 0 0 M 8 8 L 0 8 M 8 0 L stroke
	0 4 M 4 8 L 8 4 L 4 0 L 0 4 L stroke}
>> matrix makepattern
/Pat2 exch def
<< Tile8x8
 /PaintProc {0.5 setlinewidth pop 0 0 M 0 8 L
	8 8 L 8 0 L 0 0 L fill}
>> matrix makepattern
/Pat3 exch def
<< Tile8x8
 /PaintProc {0.5 setlinewidth pop -4 8 M 8 -4 L
	0 12 M 12 0 L stroke}
>> matrix makepattern
/Pat4 exch def
<< Tile8x8
 /PaintProc {0.5 setlinewidth pop -4 0 M 8 12 L
	0 -4 M 12 8 L stroke}
>> matrix makepattern
/Pat5 exch def
<< Tile8x8
 /PaintProc {0.5 setlinewidth pop -2 8 M 4 -4 L
	0 12 M 8 -4 L 4 12 M 10 0 L stroke}
>> matrix makepattern
/Pat6 exch def
<< Tile8x8
 /PaintProc {0.5 setlinewidth pop -2 0 M 4 12 L
	0 -4 M 8 12 L 4 -4 M 10 8 L stroke}
>> matrix makepattern
/Pat7 exch def
<< Tile8x8
 /PaintProc {0.5 setlinewidth pop 8 -2 M -4 4 L
	12 0 M -4 8 L 12 4 M 0 10 L stroke}
>> matrix makepattern
/Pat8 exch def
<< Tile8x8
 /PaintProc {0.5 setlinewidth pop 0 -2 M 12 4 L
	-4 0 M 12 8 L -4 4 M 8 10 L stroke}
>> matrix makepattern
/Pat9 exch def
/Pattern1 {PatternBgnd KeepColor Pat1 setpattern} bind def
/Pattern2 {PatternBgnd KeepColor Pat2 setpattern} bind def
/Pattern3 {PatternBgnd KeepColor Pat3 setpattern} bind def
/Pattern4 {PatternBgnd KeepColor Landscape {Pat5} {Pat4} ifelse setpattern} bind def
/Pattern5 {PatternBgnd KeepColor Landscape {Pat4} {Pat5} ifelse setpattern} bind def
/Pattern6 {PatternBgnd KeepColor Landscape {Pat9} {Pat6} ifelse setpattern} bind def
/Pattern7 {PatternBgnd KeepColor Landscape {Pat8} {Pat7} ifelse setpattern} bind def
} def
%
%
%End of PostScript Level 2 code
%
/PatternBgnd {
  TransparentPatterns {} {gsave 1 setgray fill grestore} ifelse
} def
%
% Substitute for Level 2 pattern fill codes with
% grayscale if Level 2 support is not selected.
%
/Level1PatternFill {
/Pattern1 {0.250 Density} bind def
/Pattern2 {0.500 Density} bind def
/Pattern3 {0.750 Density} bind def
/Pattern4 {0.125 Density} bind def
/Pattern5 {0.375 Density} bind def
/Pattern6 {0.625 Density} bind def
/Pattern7 {0.875 Density} bind def
} def
%
% Now test for support of Level 2 code
%
Level1 {Level1PatternFill} {Level2PatternFill} ifelse
%
/Symbol-Oblique /Symbol findfont [1 0 .167 1 0 0] makefont
dup length dict begin {1 index /FID eq {pop pop} {def} ifelse} forall
currentdict end definefont pop
%
/MFshow {
   { dup 5 get 3 ge
     { 5 get 3 eq {gsave} {grestore} ifelse }
     {dup dup 0 get findfont exch 1 get scalefont setfont
     [ currentpoint ] exch dup 2 get 0 exch R dup 5 get 2 ne {dup dup 6
     get exch 4 get {textshow} {stringwidth pop 0 R} ifelse }if dup 5 get 0 eq
     {dup 3 get {2 get neg 0 exch R pop} {pop aload pop M} ifelse} {dup 5
     get 1 eq {dup 2 get exch dup 3 get exch 6 get stringwidth pop -2 div
     dup 0 R} {dup 6 get stringwidth pop -2 div 0 R 6 get
     textshow 2 index {aload pop M neg 3 -1 roll neg R pop pop} {pop pop pop
     pop aload pop M} ifelse }ifelse }ifelse }
     ifelse }
   forall} def
/Gswidth {dup type /stringtype eq {stringwidth} {pop (n) stringwidth} ifelse} def
/MFwidth {0 exch { dup 5 get 3 ge { 5 get 3 eq { 0 } { pop } ifelse }
 {dup 3 get{dup dup 0 get findfont exch 1 get scalefont setfont
     6 get Gswidth pop add} {pop} ifelse} ifelse} forall} def
/MLshow { currentpoint stroke M
  0 exch R
  Blacktext {gsave 0 setgray MFshow grestore} {MFshow} ifelse } bind def
/MRshow { currentpoint stroke M
  exch dup MFwidth neg 3 -1 roll R
  Blacktext {gsave 0 setgray MFshow grestore} {MFshow} ifelse } bind def
/MCshow { currentpoint stroke M
  exch dup MFwidth -2 div 3 -1 roll R
  Blacktext {gsave 0 setgray MFshow grestore} {MFshow} ifelse } bind def
/XYsave    { [( ) 1 2 true false 3 ()] } bind def
/XYrestore { [( ) 1 2 true false 4 ()] } bind def
Level1 SuppressPDFMark or 
{} {
/SDict 10 dict def
systemdict /pdfmark known not {
  userdict /pdfmark systemdict /cleartomark get put
} if
SDict begin [
  /Title (TcpHighSpeed-UE-increase-download-390Mbps.eps)
  /Subject (gnuplot plot)
  /Creator (gnuplot 5.0 patchlevel 3)
  /Author (nat)
%  /Producer (gnuplot)
%  /Keywords ()
  /CreationDate (Thu Jun  2 09:48:55 2016)
  /DOCINFO pdfmark
end
} ifelse
%
% Support for boxed text - Ethan A Merritt May 2005
%
/InitTextBox { userdict /TBy2 3 -1 roll put userdict /TBx2 3 -1 roll put
           userdict /TBy1 3 -1 roll put userdict /TBx1 3 -1 roll put
	   /Boxing true def } def
/ExtendTextBox { Boxing
    { gsave dup false charpath pathbbox
      dup TBy2 gt {userdict /TBy2 3 -1 roll put} {pop} ifelse
      dup TBx2 gt {userdict /TBx2 3 -1 roll put} {pop} ifelse
      dup TBy1 lt {userdict /TBy1 3 -1 roll put} {pop} ifelse
      dup TBx1 lt {userdict /TBx1 3 -1 roll put} {pop} ifelse
      grestore } if } def
/PopTextBox { newpath TBx1 TBxmargin sub TBy1 TBymargin sub M
               TBx1 TBxmargin sub TBy2 TBymargin add L
	       TBx2 TBxmargin add TBy2 TBymargin add L
	       TBx2 TBxmargin add TBy1 TBymargin sub L closepath } def
/DrawTextBox { PopTextBox stroke /Boxing false def} def
/FillTextBox { gsave PopTextBox 1 1 1 setrgbcolor fill grestore /Boxing false def} def
0 0 0 0 InitTextBox
/TBxmargin 20 def
/TBymargin 20 def
/Boxing false def
/textshow { ExtendTextBox Gshow } def
%
% redundant definitions for compatibility with prologue.ps older than 5.0.2
/LTB {BL [] LCb DL} def
/LTb {PL [] LCb DL} def
end
%%EndProlog
%%Page: 1 1
gnudict begin
gsave
doclip
50 50 translate
0.050 0.050 scale
0 setgray
newpath
(Arial) findfont 200 scalefont setfont
BackgroundColor 0 lt 3 1 roll 0 lt exch 0 lt or or not {BackgroundColor C 1.000 0 0 14400.00 5040.00 BoxColFill} if
1.000 UL
LTb
0.00 0.00 0.00 C 0.500 UL
LTa
0.50 0.50 0.50 C 980 992 M
5859 0 V
stroke
1.000 UL
LTb
0.00 0.00 0.00 C 980 992 M
63 0 V
5796 0 R
-63 0 V
stroke
860 992 M
[ [(Arial) 200.0 0.0 true true 0 ( 50)]
] -66.7 MRshow
1.000 UL
LTb
0.00 0.00 0.00 C 0.500 UL
LTa
0.50 0.50 0.50 C 980 1854 M
5859 0 V
stroke
1.000 UL
LTb
0.00 0.00 0.00 C 980 1854 M
63 0 V
5796 0 R
-63 0 V
stroke
860 1854 M
[ [(Arial) 200.0 0.0 true true 0 ( 100)]
] -66.7 MRshow
1.000 UL
LTb
0.00 0.00 0.00 C 0.500 UL
LTa
0.50 0.50 0.50 C 980 2716 M
5859 0 V
stroke
1.000 UL
LTb
0.00 0.00 0.00 C 980 2716 M
63 0 V
5796 0 R
-63 0 V
stroke
860 2716 M
[ [(Arial) 200.0 0.0 true true 0 ( 150)]
] -66.7 MRshow
1.000 UL
LTb
0.00 0.00 0.00 C 0.500 UL
LTa
0.50 0.50 0.50 C 980 3577 M
5859 0 V
stroke
1.000 UL
LTb
0.00 0.00 0.00 C 980 3577 M
63 0 V
5796 0 R
-63 0 V
stroke
860 3577 M
[ [(Arial) 200.0 0.0 true true 0 ( 200)]
] -66.7 MRshow
1.000 UL
LTb
0.00 0.00 0.00 C 0.500 UL
LTa
0.50 0.50 0.50 C 980 4439 M
5859 0 V
stroke
1.000 UL
LTb
0.00 0.00 0.00 C 980 4439 M
63 0 V
5796 0 R
-63 0 V
stroke
860 4439 M
[ [(Arial) 200.0 0.0 true true 0 ( 250)]
] -66.7 MRshow
1.000 UL
LTb
0.00 0.00 0.00 C 0.500 UL
LTa
0.50 0.50 0.50 C 1325 820 M
0 3619 V
stroke
1.000 UL
LTb
0.00 0.00 0.00 C 1325 820 M
0 63 V
0 3556 R
0 -63 V
stroke
1325 620 M
[ [(Arial) 200.0 0.0 true true 0 (25)]
] -66.7 MCshow
1.000 UL
LTb
0.00 0.00 0.00 C 0.500 UL
LTa
0.50 0.50 0.50 C 3048 820 M
0 3619 V
stroke
1.000 UL
LTb
0.00 0.00 0.00 C 3048 820 M
0 63 V
0 3556 R
0 -63 V
stroke
3048 620 M
[ [(Arial) 200.0 0.0 true true 0 (50)]
] -66.7 MCshow
1.000 UL
LTb
0.00 0.00 0.00 C 0.500 UL
LTa
0.50 0.50 0.50 C 4771 820 M
0 3619 V
stroke
1.000 UL
LTb
0.00 0.00 0.00 C 4771 820 M
0 63 V
0 3556 R
0 -63 V
stroke
4771 620 M
[ [(Arial) 200.0 0.0 true true 0 (75)]
] -66.7 MCshow
1.000 UL
LTb
0.00 0.00 0.00 C 0.500 UL
LTa
0.50 0.50 0.50 C 6494 820 M
0 3619 V
stroke
1.000 UL
LTb
0.00 0.00 0.00 C 6494 820 M
0 63 V
0 3556 R
0 -63 V
stroke
6494 620 M
[ [(Arial) 200.0 0.0 true true 0 (100)]
] -66.7 MCshow
1.000 UL
LTb
0.00 0.00 0.00 C 1.000 UL
LTB
0.00 0.00 0.00 C 980 4439 M
980 820 L
5859 0 V
0 3619 R
-5859 0 R
1.000 UP
stroke
LTb
0.00 0.00 0.00 C LCb setrgbcolor
160 2629 M
currentpoint gsave translate -270 rotate 0 0 moveto
[ [(Arial) 200.0 0.0 true true 0 (RTT \(ms\))]
] -66.7 MCshow
grestore
LTb
LCb setrgbcolor
3909 320 M
[ [(Arial) 200.0 0.0 true true 0 (Flows #)]
] -66.7 MCshow
LTb
LCb setrgbcolor
3909 4739 M
[ [(Arial) 200.0 0.0 true true 0 (a\) RTT)]
] -66.7 MCshow
% Begin plot #1
1.000 UL
LTb
0.60 0.60 0.00 C LCb setrgbcolor
2654 153 M
[ [(Arial) 180.0 0.0 true true 0 (olsr)]
] -60.0 MRshow
1.000 UL
LTb
0.60 0.60 0.00 C 2762 108 333 90 80 -45 0 PatternFill
2762 108 N
333 0 V
0 90 V
-333 0 V
0 -90 V
Z stroke
1.000 UL
LTb
0.60 0.60 0.00 C 1083 936 138 153 80 -45 0 PatternFill
1152 920 M
0 16 V
0 153 R
0 600 V
stroke
1083 936 N
138 0 V
0 153 V
-138 0 V
0 -153 V
Z stroke
1083 1689 M
138 0 V
1083 920 M
138 0 V
stroke
2807 964 138 331 80 -45 0 PatternFill
2876 931 M
0 33 V
0 331 R
0 692 V
stroke
2807 964 N
138 0 V
0 331 V
-138 0 V
0 -331 V
Z stroke
2807 1987 M
138 0 V
2807 931 M
138 0 V
stroke
4530 985 138 336 80 -45 0 PatternFill
4599 939 M
0 46 V
0 336 R
0 765 V
stroke
4530 985 N
138 0 V
0 336 V
-138 0 V
0 -336 V
Z stroke
4530 2086 M
138 0 V
4530 939 M
138 0 V
stroke
6253 1017 138 467 80 -45 0 PatternFill
6322 969 M
0 48 V
0 467 R
0 738 V
stroke
6253 1017 N
138 0 V
0 467 V
-138 0 V
0 -467 V
Z stroke
6253 2222 M
138 0 V
6253 969 M
138 0 V
% End plot #1
% Begin plot #2
stroke
LTb
LCb setrgbcolor

 /TransparentPatterns true def
1083 1099 138 0 40 30 0 PatternFill
1152 1099 M
stroke
1083 1099 N
138 0 V
-138 0 V
Z stroke
1083 1099 M
138 0 V
-138 0 R
138 0 V
stroke

 /TransparentPatterns true def
2807 1185 138 0 40 30 0 PatternFill
2876 1185 M
stroke
2807 1185 N
138 0 V
-138 0 V
Z stroke
2807 1185 M
138 0 V
-138 0 R
138 0 V
stroke

 /TransparentPatterns true def
4530 1213 138 0 40 30 0 PatternFill
4599 1213 M
stroke
4530 1213 N
138 0 V
-138 0 V
Z stroke
4530 1213 M
138 0 V
-138 0 R
138 0 V
stroke

 /TransparentPatterns true def
6253 1291 138 0 40 30 0 PatternFill
6322 1291 M
stroke
6253 1291 N
138 0 V
-138 0 V
Z stroke
6253 1291 M
138 0 V
-138 0 R
138 0 V
% End plot #2
% Begin plot #3
stroke
LTb
0.00 0.00 0.63 C LCb setrgbcolor
4067 153 M
[ [(Arial) 180.0 0.0 true true 0 (per-packet)]
] -60.0 MRshow
1.000 UL
LTb
0.00 0.00 0.63 C 4175 108 333 90 80 45 0 PatternFill
4175 108 N
333 0 V
0 90 V
-333 0 V
0 -90 V
Z stroke
1.000 UL
LTb
0.00 0.00 0.63 C 1256 955 138 312 80 45 0 PatternFill
1325 920 M
0 35 V
0 312 R
0 658 V
stroke
1256 955 N
138 0 V
0 312 V
-138 0 V
0 -312 V
Z stroke
1256 1925 M
138 0 V
1256 920 M
138 0 V
stroke
2979 972 138 412 80 45 0 PatternFill
3048 932 M
0 40 V
0 412 R
0 620 V
stroke
2979 972 N
138 0 V
0 412 V
-138 0 V
0 -412 V
Z stroke
2979 2004 M
138 0 V
2979 932 M
138 0 V
stroke
4702 1001 138 564 80 45 0 PatternFill
4771 950 M
0 51 V
0 564 R
0 577 V
stroke
4702 1001 N
138 0 V
0 564 V
-138 0 V
0 -564 V
Z stroke
4702 2142 M
138 0 V
4702 950 M
138 0 V
stroke
6425 1008 138 597 80 45 0 PatternFill
6494 958 M
0 50 V
0 597 R
0 645 V
stroke
6425 1008 N
138 0 V
0 597 V
-138 0 V
0 -597 V
Z stroke
6425 2250 M
138 0 V
6425 958 M
138 0 V
% End plot #3
% Begin plot #4
stroke
LTb
LCb setrgbcolor

 /TransparentPatterns true def
1256 1145 138 0 80 -45 0 PatternFill
1325 1145 M
stroke
1256 1145 N
138 0 V
-138 0 V
Z stroke
1256 1145 M
138 0 V
-138 0 R
138 0 V
stroke

 /TransparentPatterns true def
2979 1202 138 0 80 -45 0 PatternFill
3048 1202 M
stroke
2979 1202 N
138 0 V
-138 0 V
Z stroke
2979 1202 M
138 0 V
-138 0 R
138 0 V
stroke

 /TransparentPatterns true def
4702 1289 138 0 80 -45 0 PatternFill
4771 1289 M
stroke
4702 1289 N
138 0 V
-138 0 V
Z stroke
4702 1289 M
138 0 V
-138 0 R
138 0 V
stroke

 /TransparentPatterns true def
6425 1320 138 0 80 -45 0 PatternFill
6494 1320 M
stroke
6425 1320 N
138 0 V
-138 0 V
Z stroke
6425 1320 M
138 0 V
-138 0 R
138 0 V
% End plot #4
% Begin plot #5
stroke
LTb
0.00 0.38 0.82 C LCb setrgbcolor
5480 153 M
[ [(Arial) 180.0 0.0 true true 0 (per-flow)]
] -60.0 MRshow
1.000 UL
LTb
0.00 0.38 0.82 C 5588 108 333 90 40 30 0 PatternFill
5588 108 N
333 0 V
0 90 V
-333 0 V
0 -90 V
Z stroke
1.000 UL
LTb
0.00 0.38 0.82 C 1428 967 138 487 40 30 0 PatternFill
1497 932 M
0 35 V
0 487 R
0 916 V
stroke
1428 967 N
138 0 V
0 487 V
-138 0 V
0 -487 V
Z stroke
1428 2370 M
138 0 V
1428 932 M
138 0 V
stroke
3151 1021 138 831 40 30 0 PatternFill
3220 959 M
0 62 V
0 831 R
0 956 V
stroke
3151 1021 N
138 0 V
0 831 V
-138 0 V
0 -831 V
Z stroke
3151 2808 M
138 0 V
3151 959 M
138 0 V
stroke
4875 1053 138 940 40 30 0 PatternFill
4944 982 M
0 71 V
0 940 R
0 954 V
stroke
4875 1053 N
138 0 V
0 940 V
-138 0 V
0 -940 V
Z stroke
4875 2947 M
138 0 V
4875 982 M
138 0 V
stroke
6598 1063 138 1007 40 30 0 PatternFill
6667 994 M
0 69 V
0 1007 R
0 1101 V
stroke
6598 1063 N
138 0 V
0 1007 V
-138 0 V
0 -1007 V
Z stroke
6598 3171 M
138 0 V
6598 994 M
138 0 V
% End plot #5
% Begin plot #6
stroke
LTb
LCb setrgbcolor

 /TransparentPatterns true def
1428 1268 138 0 40 -30 0 PatternFill
1497 1268 M
stroke
1428 1268 N
138 0 V
-138 0 V
Z stroke
1428 1268 M
138 0 V
-138 0 R
138 0 V
stroke

 /TransparentPatterns true def
3151 1470 138 0 40 -30 0 PatternFill
3220 1470 M
stroke
3151 1470 N
138 0 V
-138 0 V
Z stroke
3151 1470 M
138 0 V
-138 0 R
138 0 V
stroke

 /TransparentPatterns true def
4875 1549 138 0 40 -30 0 PatternFill
4944 1549 M
stroke
4875 1549 N
138 0 V
-138 0 V
Z stroke
4875 1549 M
138 0 V
-138 0 R
138 0 V
stroke

 /TransparentPatterns true def
6598 1598 138 0 40 -30 0 PatternFill
6667 1598 M
stroke
6598 1598 N
138 0 V
-138 0 V
Z stroke
6598 1598 M
138 0 V
-138 0 R
138 0 V
% End plot #6
stroke
2.000 UL
LTb
LCb setrgbcolor
1.000 UP
1.000 UL
LTb
0.00 0.00 0.00 C 1.000 UL
LTb
0.00 0.00 0.00 C 0.500 UL
LTa
0.50 0.50 0.50 C 8180 820 M
5859 0 V
stroke
1.000 UL
LTb
0.00 0.00 0.00 C 8180 820 M
63 0 V
5796 0 R
-63 0 V
stroke
8060 820 M
[ [(Arial) 200.0 0.0 true true 0 ( 0)]
] -66.7 MRshow
1.000 UL
LTb
0.00 0.00 0.00 C 0.500 UL
LTa
0.50 0.50 0.50 C 8180 1423 M
5859 0 V
stroke
1.000 UL
LTb
0.00 0.00 0.00 C 8180 1423 M
63 0 V
5796 0 R
-63 0 V
stroke
8060 1423 M
[ [(Arial) 200.0 0.0 true true 0 ( 20)]
] -66.7 MRshow
1.000 UL
LTb
0.00 0.00 0.00 C 0.500 UL
LTa
0.50 0.50 0.50 C 8180 2026 M
5859 0 V
stroke
1.000 UL
LTb
0.00 0.00 0.00 C 8180 2026 M
63 0 V
5796 0 R
-63 0 V
stroke
8060 2026 M
[ [(Arial) 200.0 0.0 true true 0 ( 40)]
] -66.7 MRshow
1.000 UL
LTb
0.00 0.00 0.00 C 0.500 UL
LTa
0.50 0.50 0.50 C 8180 2630 M
5859 0 V
stroke
1.000 UL
LTb
0.00 0.00 0.00 C 8180 2630 M
63 0 V
5796 0 R
-63 0 V
stroke
8060 2630 M
[ [(Arial) 200.0 0.0 true true 0 ( 60)]
] -66.7 MRshow
1.000 UL
LTb
0.00 0.00 0.00 C 0.500 UL
LTa
0.50 0.50 0.50 C 8180 3233 M
5859 0 V
stroke
1.000 UL
LTb
0.00 0.00 0.00 C 8180 3233 M
63 0 V
5796 0 R
-63 0 V
stroke
8060 3233 M
[ [(Arial) 200.0 0.0 true true 0 ( 80)]
] -66.7 MRshow
1.000 UL
LTb
0.00 0.00 0.00 C 0.500 UL
LTa
0.50 0.50 0.50 C 8180 3836 M
5859 0 V
stroke
1.000 UL
LTb
0.00 0.00 0.00 C 8180 3836 M
63 0 V
5796 0 R
-63 0 V
stroke
8060 3836 M
[ [(Arial) 200.0 0.0 true true 0 ( 100)]
] -66.7 MRshow
1.000 UL
LTb
0.00 0.00 0.00 C 0.500 UL
LTa
0.50 0.50 0.50 C 8180 4439 M
5859 0 V
stroke
1.000 UL
LTb
0.00 0.00 0.00 C 8180 4439 M
63 0 V
5796 0 R
-63 0 V
stroke
8060 4439 M
[ [(Arial) 200.0 0.0 true true 0 ( 120)]
] -66.7 MRshow
1.000 UL
LTb
0.00 0.00 0.00 C 0.500 UL
LTa
0.50 0.50 0.50 C 8525 820 M
0 3619 V
stroke
1.000 UL
LTb
0.00 0.00 0.00 C 8525 820 M
0 63 V
0 3556 R
0 -63 V
stroke
8525 620 M
[ [(Arial) 200.0 0.0 true true 0 (25)]
] -66.7 MCshow
1.000 UL
LTb
0.00 0.00 0.00 C 0.500 UL
LTa
0.50 0.50 0.50 C 10248 820 M
0 3619 V
stroke
1.000 UL
LTb
0.00 0.00 0.00 C 10248 820 M
0 63 V
0 3556 R
0 -63 V
stroke
10248 620 M
[ [(Arial) 200.0 0.0 true true 0 (50)]
] -66.7 MCshow
1.000 UL
LTb
0.00 0.00 0.00 C 0.500 UL
LTa
0.50 0.50 0.50 C 11971 820 M
0 3619 V
stroke
1.000 UL
LTb
0.00 0.00 0.00 C 11971 820 M
0 63 V
0 3556 R
0 -63 V
stroke
11971 620 M
[ [(Arial) 200.0 0.0 true true 0 (75)]
] -66.7 MCshow
1.000 UL
LTb
0.00 0.00 0.00 C 0.500 UL
LTa
0.50 0.50 0.50 C 13694 820 M
0 3619 V
stroke
1.000 UL
LTb
0.00 0.00 0.00 C 13694 820 M
0 63 V
0 3556 R
0 -63 V
stroke
13694 620 M
[ [(Arial) 200.0 0.0 true true 0 (100)]
] -66.7 MCshow
1.000 UL
LTb
0.00 0.00 0.00 C 1.000 UL
LTB
0.00 0.00 0.00 C 8180 4439 M
0 -3619 V
5859 0 V
0 3619 R
-5859 0 R
1.000 UP
stroke
LTb
0.00 0.00 0.00 C LCb setrgbcolor
7360 2629 M
currentpoint gsave translate -270 rotate 0 0 moveto
[ [(Arial) 200.0 0.0 true true 0 (File download time \(s\))]
] -66.7 MCshow
grestore
LTb
LCb setrgbcolor
11109 320 M
[ [(Arial) 200.0 0.0 true true 0 (Flows #)]
] -66.7 MCshow
LTb
LCb setrgbcolor
11109 4739 M
[ [(Arial) 200.0 0.0 true true 0 (b\) File download time)]
] -66.7 MCshow
% Begin plot #1
1.000 UL
LTb
0.60 0.60 0.00 C LCb setrgbcolor
9854 153 M
[ [(Arial) 180.0 0.0 true true 0 (olsr)]
] -60.0 MRshow
1.000 UL
LTb
0.60 0.60 0.00 C 9962 108 333 90 80 -45 0 PatternFill
9962 108 N
333 0 V
0 90 V
-333 0 V
0 -90 V
Z stroke
1.000 UL
LTb
0.60 0.60 0.00 C 8283 1219 138 245 80 -45 0 PatternFill
8352 908 M
0 311 V
0 245 R
0 197 V
stroke
8283 1219 N
138 0 V
0 245 V
-138 0 V
0 -245 V
Z stroke
8283 1661 M
138 0 V
8283 908 M
138 0 V
stroke
10007 1196 138 374 80 -45 0 PatternFill
10076 904 M
0 292 V
0 374 R
0 303 V
stroke
10007 1196 N
138 0 V
0 374 V
-138 0 V
0 -374 V
Z stroke
10007 1873 M
138 0 V
10007 904 M
138 0 V
stroke
11730 1227 138 450 80 -45 0 PatternFill
11799 908 M
0 319 V
0 450 R
0 443 V
stroke
11730 1227 N
138 0 V
0 450 V
-138 0 V
0 -450 V
Z stroke
11730 2120 M
138 0 V
11730 908 M
138 0 V
stroke
13453 1252 138 510 80 -45 0 PatternFill
13522 908 M
0 344 V
0 510 R
0 532 V
stroke
13453 1252 N
138 0 V
0 510 V
-138 0 V
0 -510 V
Z stroke
13453 2294 M
138 0 V
13453 908 M
138 0 V
% End plot #1
% Begin plot #2
stroke
LTb
LCb setrgbcolor

 /TransparentPatterns true def
8283 1335 138 0 40 30 0 PatternFill
8352 1335 M
stroke
8283 1335 N
138 0 V
-138 0 V
Z stroke
8283 1335 M
138 0 V
-138 0 R
138 0 V
stroke

 /TransparentPatterns true def
10007 1382 138 0 40 30 0 PatternFill
10076 1382 M
stroke
10007 1382 N
138 0 V
-138 0 V
Z stroke
10007 1382 M
138 0 V
-138 0 R
138 0 V
stroke

 /TransparentPatterns true def
11730 1450 138 0 40 30 0 PatternFill
11799 1450 M
stroke
11730 1450 N
138 0 V
-138 0 V
Z stroke
11730 1450 M
138 0 V
-138 0 R
138 0 V
stroke

 /TransparentPatterns true def
13453 1519 138 0 40 30 0 PatternFill
13522 1519 M
stroke
13453 1519 N
138 0 V
-138 0 V
Z stroke
13453 1519 M
138 0 V
-138 0 R
138 0 V
% End plot #2
% Begin plot #3
stroke
LTb
0.00 0.00 0.63 C LCb setrgbcolor
11267 153 M
[ [(Arial) 180.0 0.0 true true 0 (per-packet)]
] -60.0 MRshow
1.000 UL
LTb
0.00 0.00 0.63 C 11375 108 333 90 80 45 0 PatternFill
11375 108 N
333 0 V
0 90 V
-333 0 V
0 -90 V
Z stroke
1.000 UL
LTb
0.00 0.00 0.63 C 8456 971 138 1402 80 45 0 PatternFill
8525 897 M
0 74 V
0 1402 R
0 125 V
stroke
8456 971 N
138 0 V
0 1402 V
-138 0 V
0 -1402 V
Z stroke
8456 2498 M
138 0 V
8456 897 M
138 0 V
stroke
10179 975 138 1528 80 45 0 PatternFill
10248 901 M
0 74 V
0 1528 R
0 342 V
stroke
10179 975 N
138 0 V
0 1528 V
-138 0 V
0 -1528 V
Z stroke
10179 2845 M
138 0 V
10179 901 M
138 0 V
stroke
11902 1006 138 1534 80 45 0 PatternFill
11971 892 M
0 114 V
0 1534 R
0 430 V
stroke
11902 1006 N
138 0 V
0 1534 V
-138 0 V
0 -1534 V
Z stroke
11902 2970 M
138 0 V
11902 892 M
138 0 V
stroke
13625 1010 138 1592 80 45 0 PatternFill
13694 900 M
0 110 V
0 1592 R
0 701 V
stroke
13625 1010 N
138 0 V
0 1592 V
-138 0 V
0 -1592 V
Z stroke
13625 3303 M
138 0 V
13625 900 M
138 0 V
% End plot #3
% Begin plot #4
stroke
LTb
LCb setrgbcolor

 /TransparentPatterns true def
8456 1473 138 0 80 -45 0 PatternFill
8525 1473 M
stroke
8456 1473 N
138 0 V
-138 0 V
Z stroke
8456 1473 M
138 0 V
-138 0 R
138 0 V
stroke

 /TransparentPatterns true def
10179 1552 138 0 80 -45 0 PatternFill
10248 1552 M
stroke
10179 1552 N
138 0 V
-138 0 V
Z stroke
10179 1552 M
138 0 V
-138 0 R
138 0 V
stroke

 /TransparentPatterns true def
11902 1626 138 0 80 -45 0 PatternFill
11971 1626 M
stroke
11902 1626 N
138 0 V
-138 0 V
Z stroke
11902 1626 M
138 0 V
-138 0 R
138 0 V
stroke

 /TransparentPatterns true def
13625 1667 138 0 80 -45 0 PatternFill
13694 1667 M
stroke
13625 1667 N
138 0 V
-138 0 V
Z stroke
13625 1667 M
138 0 V
-138 0 R
138 0 V
% End plot #4
% Begin plot #5
stroke
LTb
0.00 0.38 0.82 C LCb setrgbcolor
12680 153 M
[ [(Arial) 180.0 0.0 true true 0 (per-flow)]
] -60.0 MRshow
1.000 UL
LTb
0.00 0.38 0.82 C 12788 108 333 90 40 30 0 PatternFill
12788 108 N
333 0 V
0 90 V
-333 0 V
0 -90 V
Z stroke
1.000 UL
LTb
0.00 0.38 0.82 C 8628 941 138 133 40 30 0 PatternFill
8697 904 M
0 37 V
0 133 R
0 235 V
stroke
8628 941 N
138 0 V
0 133 V
-138 0 V
0 -133 V
Z stroke
8628 1309 M
138 0 V
8628 904 M
138 0 V
stroke
10351 1000 138 187 40 30 0 PatternFill
10420 930 M
0 70 V
0 187 R
0 397 V
stroke
10351 1000 N
138 0 V
0 187 V
-138 0 V
0 -187 V
Z stroke
10351 1584 M
138 0 V
10351 930 M
138 0 V
stroke
12075 1026 138 316 40 30 0 PatternFill
12144 889 M
0 137 V
0 316 R
0 345 V
stroke
12075 1026 N
138 0 V
0 316 V
-138 0 V
0 -316 V
Z stroke
12075 1687 M
138 0 V
12075 889 M
138 0 V
stroke
13798 1049 138 282 40 30 0 PatternFill
13867 897 M
0 152 V
0 282 R
0 839 V
stroke
13798 1049 N
138 0 V
0 282 V
-138 0 V
0 -282 V
Z stroke
13798 2170 M
138 0 V
13798 897 M
138 0 V
% End plot #5
% Begin plot #6
stroke
LTb
LCb setrgbcolor

 /TransparentPatterns true def
8628 1022 138 0 40 -30 0 PatternFill
8697 1022 M
stroke
8628 1022 N
138 0 V
-138 0 V
Z stroke
8628 1022 M
138 0 V
-138 0 R
138 0 V
stroke

 /TransparentPatterns true def
10351 1100 138 0 40 -30 0 PatternFill
10420 1100 M
stroke
10351 1100 N
138 0 V
-138 0 V
Z stroke
10351 1100 M
138 0 V
-138 0 R
138 0 V
stroke

 /TransparentPatterns true def
12075 1175 138 0 40 -30 0 PatternFill
12144 1175 M
stroke
12075 1175 N
138 0 V
-138 0 V
Z stroke
12075 1175 M
138 0 V
-138 0 R
138 0 V
stroke

 /TransparentPatterns true def
13798 1204 138 0 40 -30 0 PatternFill
13867 1204 M
stroke
13798 1204 N
138 0 V
-138 0 V
Z stroke
13798 1204 M
138 0 V
-138 0 R
138 0 V
% End plot #6
stroke
2.000 UL
LTb
LCb setrgbcolor
1.000 UP
1.000 UL
LTb
0.00 0.00 0.00 C stroke
grestore
end
showpage
%%Trailer
%%DocumentFonts: Arial
