%!PS-Adobe-2.0 EPSF-2.0
%%Title: 75UE-download-40Mbps.eps
%%Creator: gnuplot 5.0 patchlevel 3
%%CreationDate: Thu Jun  2 09:48:01 2016
%%DocumentFonts: (atend)
%%BoundingBox: 50 50 770 302
%%EndComments
%%BeginProlog
/gnudict 256 dict def
gnudict begin
%
% The following true/false flags may be edited by hand if desired.
% The unit line width and grayscale image gamma correction may also be changed.
%
/Color true def
/Blacktext false def
/Solid false def
/Dashlength 3 def
/Landscape false def
/Level1 false def
/Level3 false def
/Rounded false def
/ClipToBoundingBox false def
/SuppressPDFMark false def
/TransparentPatterns false def
/gnulinewidth 15.000 def
/userlinewidth gnulinewidth def
/Gamma 1.0 def
/BackgroundColor {-1.000 -1.000 -1.000} def
%
/vshift -66 def
/dl1 {
  10.0 Dashlength userlinewidth gnulinewidth div mul mul mul
  Rounded { currentlinewidth 0.75 mul sub dup 0 le { pop 0.01 } if } if
} def
/dl2 {
  10.0 Dashlength userlinewidth gnulinewidth div mul mul mul
  Rounded { currentlinewidth 0.75 mul add } if
} def
/hpt_ 31.5 def
/vpt_ 31.5 def
/hpt hpt_ def
/vpt vpt_ def
/doclip {
  ClipToBoundingBox {
    newpath 50 50 moveto 770 50 lineto 770 302 lineto 50 302 lineto closepath
    clip
  } if
} def
%
% Gnuplot Prolog Version 5.1 (Oct 2015)
%
%/SuppressPDFMark true def
%
/M {moveto} bind def
/L {lineto} bind def
/R {rmoveto} bind def
/V {rlineto} bind def
/N {newpath moveto} bind def
/Z {closepath} bind def
/C {setrgbcolor} bind def
/f {rlineto fill} bind def
/g {setgray} bind def
/Gshow {show} def   % May be redefined later in the file to support UTF-8
/vpt2 vpt 2 mul def
/hpt2 hpt 2 mul def
/Lshow {currentpoint stroke M 0 vshift R 
	Blacktext {gsave 0 setgray textshow grestore} {textshow} ifelse} def
/Rshow {currentpoint stroke M dup stringwidth pop neg vshift R
	Blacktext {gsave 0 setgray textshow grestore} {textshow} ifelse} def
/Cshow {currentpoint stroke M dup stringwidth pop -2 div vshift R 
	Blacktext {gsave 0 setgray textshow grestore} {textshow} ifelse} def
/UP {dup vpt_ mul /vpt exch def hpt_ mul /hpt exch def
  /hpt2 hpt 2 mul def /vpt2 vpt 2 mul def} def
/DL {Color {setrgbcolor Solid {pop []} if 0 setdash}
 {pop pop pop 0 setgray Solid {pop []} if 0 setdash} ifelse} def
/BL {stroke userlinewidth 2 mul setlinewidth
	Rounded {1 setlinejoin 1 setlinecap} if} def
/AL {stroke userlinewidth 2 div setlinewidth
	Rounded {1 setlinejoin 1 setlinecap} if} def
/UL {dup gnulinewidth mul /userlinewidth exch def
	dup 1 lt {pop 1} if 10 mul /udl exch def} def
/PL {stroke userlinewidth setlinewidth
	Rounded {1 setlinejoin 1 setlinecap} if} def
3.8 setmiterlimit
% Classic Line colors (version 5.0)
/LCw {1 1 1} def
/LCb {0 0 0} def
/LCa {0 0 0} def
/LC0 {1 0 0} def
/LC1 {0 1 0} def
/LC2 {0 0 1} def
/LC3 {1 0 1} def
/LC4 {0 1 1} def
/LC5 {1 1 0} def
/LC6 {0 0 0} def
/LC7 {1 0.3 0} def
/LC8 {0.5 0.5 0.5} def
% Default dash patterns (version 5.0)
/LTB {BL [] LCb DL} def
/LTw {PL [] 1 setgray} def
/LTb {PL [] LCb DL} def
/LTa {AL [1 udl mul 2 udl mul] 0 setdash LCa setrgbcolor} def
/LT0 {PL [] LC0 DL} def
/LT1 {PL [2 dl1 3 dl2] LC1 DL} def
/LT2 {PL [1 dl1 1.5 dl2] LC2 DL} def
/LT3 {PL [6 dl1 2 dl2 1 dl1 2 dl2] LC3 DL} def
/LT4 {PL [1 dl1 2 dl2 6 dl1 2 dl2 1 dl1 2 dl2] LC4 DL} def
/LT5 {PL [4 dl1 2 dl2] LC5 DL} def
/LT6 {PL [1.5 dl1 1.5 dl2 1.5 dl1 1.5 dl2 1.5 dl1 6 dl2] LC6 DL} def
/LT7 {PL [3 dl1 3 dl2 1 dl1 3 dl2] LC7 DL} def
/LT8 {PL [2 dl1 2 dl2 2 dl1 6 dl2] LC8 DL} def
/SL {[] 0 setdash} def
/Pnt {stroke [] 0 setdash gsave 1 setlinecap M 0 0 V stroke grestore} def
/Dia {stroke [] 0 setdash 2 copy vpt add M
  hpt neg vpt neg V hpt vpt neg V
  hpt vpt V hpt neg vpt V closepath stroke
  Pnt} def
/Pls {stroke [] 0 setdash vpt sub M 0 vpt2 V
  currentpoint stroke M
  hpt neg vpt neg R hpt2 0 V stroke
 } def
/Box {stroke [] 0 setdash 2 copy exch hpt sub exch vpt add M
  0 vpt2 neg V hpt2 0 V 0 vpt2 V
  hpt2 neg 0 V closepath stroke
  Pnt} def
/Crs {stroke [] 0 setdash exch hpt sub exch vpt add M
  hpt2 vpt2 neg V currentpoint stroke M
  hpt2 neg 0 R hpt2 vpt2 V stroke} def
/TriU {stroke [] 0 setdash 2 copy vpt 1.12 mul add M
  hpt neg vpt -1.62 mul V
  hpt 2 mul 0 V
  hpt neg vpt 1.62 mul V closepath stroke
  Pnt} def
/Star {2 copy Pls Crs} def
/BoxF {stroke [] 0 setdash exch hpt sub exch vpt add M
  0 vpt2 neg V hpt2 0 V 0 vpt2 V
  hpt2 neg 0 V closepath fill} def
/TriUF {stroke [] 0 setdash vpt 1.12 mul add M
  hpt neg vpt -1.62 mul V
  hpt 2 mul 0 V
  hpt neg vpt 1.62 mul V closepath fill} def
/TriD {stroke [] 0 setdash 2 copy vpt 1.12 mul sub M
  hpt neg vpt 1.62 mul V
  hpt 2 mul 0 V
  hpt neg vpt -1.62 mul V closepath stroke
  Pnt} def
/TriDF {stroke [] 0 setdash vpt 1.12 mul sub M
  hpt neg vpt 1.62 mul V
  hpt 2 mul 0 V
  hpt neg vpt -1.62 mul V closepath fill} def
/DiaF {stroke [] 0 setdash vpt add M
  hpt neg vpt neg V hpt vpt neg V
  hpt vpt V hpt neg vpt V closepath fill} def
/Pent {stroke [] 0 setdash 2 copy gsave
  translate 0 hpt M 4 {72 rotate 0 hpt L} repeat
  closepath stroke grestore Pnt} def
/PentF {stroke [] 0 setdash gsave
  translate 0 hpt M 4 {72 rotate 0 hpt L} repeat
  closepath fill grestore} def
/Circle {stroke [] 0 setdash 2 copy
  hpt 0 360 arc stroke Pnt} def
/CircleF {stroke [] 0 setdash hpt 0 360 arc fill} def
/C0 {BL [] 0 setdash 2 copy moveto vpt 90 450 arc} bind def
/C1 {BL [] 0 setdash 2 copy moveto
	2 copy vpt 0 90 arc closepath fill
	vpt 0 360 arc closepath} bind def
/C2 {BL [] 0 setdash 2 copy moveto
	2 copy vpt 90 180 arc closepath fill
	vpt 0 360 arc closepath} bind def
/C3 {BL [] 0 setdash 2 copy moveto
	2 copy vpt 0 180 arc closepath fill
	vpt 0 360 arc closepath} bind def
/C4 {BL [] 0 setdash 2 copy moveto
	2 copy vpt 180 270 arc closepath fill
	vpt 0 360 arc closepath} bind def
/C5 {BL [] 0 setdash 2 copy moveto
	2 copy vpt 0 90 arc
	2 copy moveto
	2 copy vpt 180 270 arc closepath fill
	vpt 0 360 arc} bind def
/C6 {BL [] 0 setdash 2 copy moveto
	2 copy vpt 90 270 arc closepath fill
	vpt 0 360 arc closepath} bind def
/C7 {BL [] 0 setdash 2 copy moveto
	2 copy vpt 0 270 arc closepath fill
	vpt 0 360 arc closepath} bind def
/C8 {BL [] 0 setdash 2 copy moveto
	2 copy vpt 270 360 arc closepath fill
	vpt 0 360 arc closepath} bind def
/C9 {BL [] 0 setdash 2 copy moveto
	2 copy vpt 270 450 arc closepath fill
	vpt 0 360 arc closepath} bind def
/C10 {BL [] 0 setdash 2 copy 2 copy moveto vpt 270 360 arc closepath fill
	2 copy moveto
	2 copy vpt 90 180 arc closepath fill
	vpt 0 360 arc closepath} bind def
/C11 {BL [] 0 setdash 2 copy moveto
	2 copy vpt 0 180 arc closepath fill
	2 copy moveto
	2 copy vpt 270 360 arc closepath fill
	vpt 0 360 arc closepath} bind def
/C12 {BL [] 0 setdash 2 copy moveto
	2 copy vpt 180 360 arc closepath fill
	vpt 0 360 arc closepath} bind def
/C13 {BL [] 0 setdash 2 copy moveto
	2 copy vpt 0 90 arc closepath fill
	2 copy moveto
	2 copy vpt 180 360 arc closepath fill
	vpt 0 360 arc closepath} bind def
/C14 {BL [] 0 setdash 2 copy moveto
	2 copy vpt 90 360 arc closepath fill
	vpt 0 360 arc} bind def
/C15 {BL [] 0 setdash 2 copy vpt 0 360 arc closepath fill
	vpt 0 360 arc closepath} bind def
/Rec {newpath 4 2 roll moveto 1 index 0 rlineto 0 exch rlineto
	neg 0 rlineto closepath} bind def
/Square {dup Rec} bind def
/Bsquare {vpt sub exch vpt sub exch vpt2 Square} bind def
/S0 {BL [] 0 setdash 2 copy moveto 0 vpt rlineto BL Bsquare} bind def
/S1 {BL [] 0 setdash 2 copy vpt Square fill Bsquare} bind def
/S2 {BL [] 0 setdash 2 copy exch vpt sub exch vpt Square fill Bsquare} bind def
/S3 {BL [] 0 setdash 2 copy exch vpt sub exch vpt2 vpt Rec fill Bsquare} bind def
/S4 {BL [] 0 setdash 2 copy exch vpt sub exch vpt sub vpt Square fill Bsquare} bind def
/S5 {BL [] 0 setdash 2 copy 2 copy vpt Square fill
	exch vpt sub exch vpt sub vpt Square fill Bsquare} bind def
/S6 {BL [] 0 setdash 2 copy exch vpt sub exch vpt sub vpt vpt2 Rec fill Bsquare} bind def
/S7 {BL [] 0 setdash 2 copy exch vpt sub exch vpt sub vpt vpt2 Rec fill
	2 copy vpt Square fill Bsquare} bind def
/S8 {BL [] 0 setdash 2 copy vpt sub vpt Square fill Bsquare} bind def
/S9 {BL [] 0 setdash 2 copy vpt sub vpt vpt2 Rec fill Bsquare} bind def
/S10 {BL [] 0 setdash 2 copy vpt sub vpt Square fill 2 copy exch vpt sub exch vpt Square fill
	Bsquare} bind def
/S11 {BL [] 0 setdash 2 copy vpt sub vpt Square fill 2 copy exch vpt sub exch vpt2 vpt Rec fill
	Bsquare} bind def
/S12 {BL [] 0 setdash 2 copy exch vpt sub exch vpt sub vpt2 vpt Rec fill Bsquare} bind def
/S13 {BL [] 0 setdash 2 copy exch vpt sub exch vpt sub vpt2 vpt Rec fill
	2 copy vpt Square fill Bsquare} bind def
/S14 {BL [] 0 setdash 2 copy exch vpt sub exch vpt sub vpt2 vpt Rec fill
	2 copy exch vpt sub exch vpt Square fill Bsquare} bind def
/S15 {BL [] 0 setdash 2 copy Bsquare fill Bsquare} bind def
/D0 {gsave translate 45 rotate 0 0 S0 stroke grestore} bind def
/D1 {gsave translate 45 rotate 0 0 S1 stroke grestore} bind def
/D2 {gsave translate 45 rotate 0 0 S2 stroke grestore} bind def
/D3 {gsave translate 45 rotate 0 0 S3 stroke grestore} bind def
/D4 {gsave translate 45 rotate 0 0 S4 stroke grestore} bind def
/D5 {gsave translate 45 rotate 0 0 S5 stroke grestore} bind def
/D6 {gsave translate 45 rotate 0 0 S6 stroke grestore} bind def
/D7 {gsave translate 45 rotate 0 0 S7 stroke grestore} bind def
/D8 {gsave translate 45 rotate 0 0 S8 stroke grestore} bind def
/D9 {gsave translate 45 rotate 0 0 S9 stroke grestore} bind def
/D10 {gsave translate 45 rotate 0 0 S10 stroke grestore} bind def
/D11 {gsave translate 45 rotate 0 0 S11 stroke grestore} bind def
/D12 {gsave translate 45 rotate 0 0 S12 stroke grestore} bind def
/D13 {gsave translate 45 rotate 0 0 S13 stroke grestore} bind def
/D14 {gsave translate 45 rotate 0 0 S14 stroke grestore} bind def
/D15 {gsave translate 45 rotate 0 0 S15 stroke grestore} bind def
/DiaE {stroke [] 0 setdash vpt add M
  hpt neg vpt neg V hpt vpt neg V
  hpt vpt V hpt neg vpt V closepath stroke} def
/BoxE {stroke [] 0 setdash exch hpt sub exch vpt add M
  0 vpt2 neg V hpt2 0 V 0 vpt2 V
  hpt2 neg 0 V closepath stroke} def
/TriUE {stroke [] 0 setdash vpt 1.12 mul add M
  hpt neg vpt -1.62 mul V
  hpt 2 mul 0 V
  hpt neg vpt 1.62 mul V closepath stroke} def
/TriDE {stroke [] 0 setdash vpt 1.12 mul sub M
  hpt neg vpt 1.62 mul V
  hpt 2 mul 0 V
  hpt neg vpt -1.62 mul V closepath stroke} def
/PentE {stroke [] 0 setdash gsave
  translate 0 hpt M 4 {72 rotate 0 hpt L} repeat
  closepath stroke grestore} def
/CircE {stroke [] 0 setdash 
  hpt 0 360 arc stroke} def
/Opaque {gsave closepath 1 setgray fill grestore 0 setgray closepath} def
/DiaW {stroke [] 0 setdash vpt add M
  hpt neg vpt neg V hpt vpt neg V
  hpt vpt V hpt neg vpt V Opaque stroke} def
/BoxW {stroke [] 0 setdash exch hpt sub exch vpt add M
  0 vpt2 neg V hpt2 0 V 0 vpt2 V
  hpt2 neg 0 V Opaque stroke} def
/TriUW {stroke [] 0 setdash vpt 1.12 mul add M
  hpt neg vpt -1.62 mul V
  hpt 2 mul 0 V
  hpt neg vpt 1.62 mul V Opaque stroke} def
/TriDW {stroke [] 0 setdash vpt 1.12 mul sub M
  hpt neg vpt 1.62 mul V
  hpt 2 mul 0 V
  hpt neg vpt -1.62 mul V Opaque stroke} def
/PentW {stroke [] 0 setdash gsave
  translate 0 hpt M 4 {72 rotate 0 hpt L} repeat
  Opaque stroke grestore} def
/CircW {stroke [] 0 setdash 
  hpt 0 360 arc Opaque stroke} def
/BoxFill {gsave Rec 1 setgray fill grestore} def
/Density {
  /Fillden exch def
  currentrgbcolor
  /ColB exch def /ColG exch def /ColR exch def
  /ColR ColR Fillden mul Fillden sub 1 add def
  /ColG ColG Fillden mul Fillden sub 1 add def
  /ColB ColB Fillden mul Fillden sub 1 add def
  ColR ColG ColB setrgbcolor} def
/BoxColFill {gsave Rec PolyFill} def
/PolyFill {gsave Density fill grestore grestore} def
/h {rlineto rlineto rlineto gsave closepath fill grestore} bind def
%
% PostScript Level 1 Pattern Fill routine for rectangles
% Usage: x y w h s a XX PatternFill
%	x,y = lower left corner of box to be filled
%	w,h = width and height of box
%	  a = angle in degrees between lines and x-axis
%	 XX = 0/1 for no/yes cross-hatch
%
/PatternFill {gsave /PFa [ 9 2 roll ] def
  PFa 0 get PFa 2 get 2 div add PFa 1 get PFa 3 get 2 div add translate
  PFa 2 get -2 div PFa 3 get -2 div PFa 2 get PFa 3 get Rec
  TransparentPatterns {} {gsave 1 setgray fill grestore} ifelse
  clip
  currentlinewidth 0.5 mul setlinewidth
  /PFs PFa 2 get dup mul PFa 3 get dup mul add sqrt def
  0 0 M PFa 5 get rotate PFs -2 div dup translate
  0 1 PFs PFa 4 get div 1 add floor cvi
	{PFa 4 get mul 0 M 0 PFs V} for
  0 PFa 6 get ne {
	0 1 PFs PFa 4 get div 1 add floor cvi
	{PFa 4 get mul 0 2 1 roll M PFs 0 V} for
 } if
  stroke grestore} def
%
/languagelevel where
 {pop languagelevel} {1} ifelse
dup 2 lt
	{/InterpretLevel1 true def
	 /InterpretLevel3 false def}
	{/InterpretLevel1 Level1 def
	 2 gt
	    {/InterpretLevel3 Level3 def}
	    {/InterpretLevel3 false def}
	 ifelse }
 ifelse
%
% PostScript level 2 pattern fill definitions
%
/Level2PatternFill {
/Tile8x8 {/PaintType 2 /PatternType 1 /TilingType 1 /BBox [0 0 8 8] /XStep 8 /YStep 8}
	bind def
/KeepColor {currentrgbcolor [/Pattern /DeviceRGB] setcolorspace} bind def
<< Tile8x8
 /PaintProc {0.5 setlinewidth pop 0 0 M 8 8 L 0 8 M 8 0 L stroke} 
>> matrix makepattern
/Pat1 exch def
<< Tile8x8
 /PaintProc {0.5 setlinewidth pop 0 0 M 8 8 L 0 8 M 8 0 L stroke
	0 4 M 4 8 L 8 4 L 4 0 L 0 4 L stroke}
>> matrix makepattern
/Pat2 exch def
<< Tile8x8
 /PaintProc {0.5 setlinewidth pop 0 0 M 0 8 L
	8 8 L 8 0 L 0 0 L fill}
>> matrix makepattern
/Pat3 exch def
<< Tile8x8
 /PaintProc {0.5 setlinewidth pop -4 8 M 8 -4 L
	0 12 M 12 0 L stroke}
>> matrix makepattern
/Pat4 exch def
<< Tile8x8
 /PaintProc {0.5 setlinewidth pop -4 0 M 8 12 L
	0 -4 M 12 8 L stroke}
>> matrix makepattern
/Pat5 exch def
<< Tile8x8
 /PaintProc {0.5 setlinewidth pop -2 8 M 4 -4 L
	0 12 M 8 -4 L 4 12 M 10 0 L stroke}
>> matrix makepattern
/Pat6 exch def
<< Tile8x8
 /PaintProc {0.5 setlinewidth pop -2 0 M 4 12 L
	0 -4 M 8 12 L 4 -4 M 10 8 L stroke}
>> matrix makepattern
/Pat7 exch def
<< Tile8x8
 /PaintProc {0.5 setlinewidth pop 8 -2 M -4 4 L
	12 0 M -4 8 L 12 4 M 0 10 L stroke}
>> matrix makepattern
/Pat8 exch def
<< Tile8x8
 /PaintProc {0.5 setlinewidth pop 0 -2 M 12 4 L
	-4 0 M 12 8 L -4 4 M 8 10 L stroke}
>> matrix makepattern
/Pat9 exch def
/Pattern1 {PatternBgnd KeepColor Pat1 setpattern} bind def
/Pattern2 {PatternBgnd KeepColor Pat2 setpattern} bind def
/Pattern3 {PatternBgnd KeepColor Pat3 setpattern} bind def
/Pattern4 {PatternBgnd KeepColor Landscape {Pat5} {Pat4} ifelse setpattern} bind def
/Pattern5 {PatternBgnd KeepColor Landscape {Pat4} {Pat5} ifelse setpattern} bind def
/Pattern6 {PatternBgnd KeepColor Landscape {Pat9} {Pat6} ifelse setpattern} bind def
/Pattern7 {PatternBgnd KeepColor Landscape {Pat8} {Pat7} ifelse setpattern} bind def
} def
%
%
%End of PostScript Level 2 code
%
/PatternBgnd {
  TransparentPatterns {} {gsave 1 setgray fill grestore} ifelse
} def
%
% Substitute for Level 2 pattern fill codes with
% grayscale if Level 2 support is not selected.
%
/Level1PatternFill {
/Pattern1 {0.250 Density} bind def
/Pattern2 {0.500 Density} bind def
/Pattern3 {0.750 Density} bind def
/Pattern4 {0.125 Density} bind def
/Pattern5 {0.375 Density} bind def
/Pattern6 {0.625 Density} bind def
/Pattern7 {0.875 Density} bind def
} def
%
% Now test for support of Level 2 code
%
Level1 {Level1PatternFill} {Level2PatternFill} ifelse
%
/Symbol-Oblique /Symbol findfont [1 0 .167 1 0 0] makefont
dup length dict begin {1 index /FID eq {pop pop} {def} ifelse} forall
currentdict end definefont pop
%
/MFshow {
   { dup 5 get 3 ge
     { 5 get 3 eq {gsave} {grestore} ifelse }
     {dup dup 0 get findfont exch 1 get scalefont setfont
     [ currentpoint ] exch dup 2 get 0 exch R dup 5 get 2 ne {dup dup 6
     get exch 4 get {textshow} {stringwidth pop 0 R} ifelse }if dup 5 get 0 eq
     {dup 3 get {2 get neg 0 exch R pop} {pop aload pop M} ifelse} {dup 5
     get 1 eq {dup 2 get exch dup 3 get exch 6 get stringwidth pop -2 div
     dup 0 R} {dup 6 get stringwidth pop -2 div 0 R 6 get
     textshow 2 index {aload pop M neg 3 -1 roll neg R pop pop} {pop pop pop
     pop aload pop M} ifelse }ifelse }ifelse }
     ifelse }
   forall} def
/Gswidth {dup type /stringtype eq {stringwidth} {pop (n) stringwidth} ifelse} def
/MFwidth {0 exch { dup 5 get 3 ge { 5 get 3 eq { 0 } { pop } ifelse }
 {dup 3 get{dup dup 0 get findfont exch 1 get scalefont setfont
     6 get Gswidth pop add} {pop} ifelse} ifelse} forall} def
/MLshow { currentpoint stroke M
  0 exch R
  Blacktext {gsave 0 setgray MFshow grestore} {MFshow} ifelse } bind def
/MRshow { currentpoint stroke M
  exch dup MFwidth neg 3 -1 roll R
  Blacktext {gsave 0 setgray MFshow grestore} {MFshow} ifelse } bind def
/MCshow { currentpoint stroke M
  exch dup MFwidth -2 div 3 -1 roll R
  Blacktext {gsave 0 setgray MFshow grestore} {MFshow} ifelse } bind def
/XYsave    { [( ) 1 2 true false 3 ()] } bind def
/XYrestore { [( ) 1 2 true false 4 ()] } bind def
Level1 SuppressPDFMark or 
{} {
/SDict 10 dict def
systemdict /pdfmark known not {
  userdict /pdfmark systemdict /cleartomark get put
} if
SDict begin [
  /Title (75UE-download-40Mbps.eps)
  /Subject (gnuplot plot)
  /Creator (gnuplot 5.0 patchlevel 3)
  /Author (nat)
%  /Producer (gnuplot)
%  /Keywords ()
  /CreationDate (Thu Jun  2 09:48:01 2016)
  /DOCINFO pdfmark
end
} ifelse
%
% Support for boxed text - Ethan A Merritt May 2005
%
/InitTextBox { userdict /TBy2 3 -1 roll put userdict /TBx2 3 -1 roll put
           userdict /TBy1 3 -1 roll put userdict /TBx1 3 -1 roll put
	   /Boxing true def } def
/ExtendTextBox { Boxing
    { gsave dup false charpath pathbbox
      dup TBy2 gt {userdict /TBy2 3 -1 roll put} {pop} ifelse
      dup TBx2 gt {userdict /TBx2 3 -1 roll put} {pop} ifelse
      dup TBy1 lt {userdict /TBy1 3 -1 roll put} {pop} ifelse
      dup TBx1 lt {userdict /TBx1 3 -1 roll put} {pop} ifelse
      grestore } if } def
/PopTextBox { newpath TBx1 TBxmargin sub TBy1 TBymargin sub M
               TBx1 TBxmargin sub TBy2 TBymargin add L
	       TBx2 TBxmargin add TBy2 TBymargin add L
	       TBx2 TBxmargin add TBy1 TBymargin sub L closepath } def
/DrawTextBox { PopTextBox stroke /Boxing false def} def
/FillTextBox { gsave PopTextBox 1 1 1 setrgbcolor fill grestore /Boxing false def} def
0 0 0 0 InitTextBox
/TBxmargin 20 def
/TBymargin 20 def
/Boxing false def
/textshow { ExtendTextBox Gshow } def
%
% redundant definitions for compatibility with prologue.ps older than 5.0.2
/LTB {BL [] LCb DL} def
/LTb {PL [] LCb DL} def
end
%%EndProlog
%%Page: 1 1
gnudict begin
gsave
doclip
50 50 translate
0.050 0.050 scale
0 setgray
newpath
(Arial) findfont 200 scalefont setfont
BackgroundColor 0 lt 3 1 roll 0 lt exch 0 lt or or not {BackgroundColor C 1.000 0 0 14400.00 5040.00 BoxColFill} if
1.000 UL
LTb
0.00 0.00 0.00 C 0.500 UL
LTa
0.50 0.50 0.50 C 980 992 M
5859 0 V
stroke
1.000 UL
LTb
0.00 0.00 0.00 C 980 992 M
63 0 V
5796 0 R
-63 0 V
stroke
860 992 M
[ [(Arial) 200.0 0.0 true true 0 ( 50)]
] -66.7 MRshow
1.000 UL
LTb
0.00 0.00 0.00 C 0.500 UL
LTa
0.50 0.50 0.50 C 980 1854 M
5859 0 V
stroke
1.000 UL
LTb
0.00 0.00 0.00 C 980 1854 M
63 0 V
5796 0 R
-63 0 V
stroke
860 1854 M
[ [(Arial) 200.0 0.0 true true 0 ( 100)]
] -66.7 MRshow
1.000 UL
LTb
0.00 0.00 0.00 C 0.500 UL
LTa
0.50 0.50 0.50 C 980 2716 M
5859 0 V
stroke
1.000 UL
LTb
0.00 0.00 0.00 C 980 2716 M
63 0 V
5796 0 R
-63 0 V
stroke
860 2716 M
[ [(Arial) 200.0 0.0 true true 0 ( 150)]
] -66.7 MRshow
1.000 UL
LTb
0.00 0.00 0.00 C 0.500 UL
LTa
0.50 0.50 0.50 C 980 3577 M
5859 0 V
stroke
1.000 UL
LTb
0.00 0.00 0.00 C 980 3577 M
63 0 V
5796 0 R
-63 0 V
stroke
860 3577 M
[ [(Arial) 200.0 0.0 true true 0 ( 200)]
] -66.7 MRshow
1.000 UL
LTb
0.00 0.00 0.00 C 0.500 UL
LTa
0.50 0.50 0.50 C 980 4439 M
5859 0 V
stroke
1.000 UL
LTb
0.00 0.00 0.00 C 980 4439 M
63 0 V
5796 0 R
-63 0 V
stroke
860 4439 M
[ [(Arial) 200.0 0.0 true true 0 ( 250)]
] -66.7 MRshow
1.000 UL
LTb
0.00 0.00 0.00 C 0.500 UL
LTa
0.50 0.50 0.50 C 1273 820 M
0 3619 V
stroke
1.000 UL
LTb
0.00 0.00 0.00 C 1273 820 M
0 63 V
0 3556 R
0 -63 V
stroke
1273 620 M
[ [(Arial) 200.0 0.0 true true 0 (NewReno)]
] -66.7 MCshow
1.000 UL
LTb
0.00 0.00 0.00 C 0.500 UL
LTa
0.50 0.50 0.50 C 2152 820 M
0 3619 V
stroke
1.000 UL
LTb
0.00 0.00 0.00 C 2152 820 M
0 63 V
0 3556 R
0 -63 V
stroke
2152 620 M
[ [(Arial) 200.0 0.0 true true 0 (Cubic)]
] -66.7 MCshow
1.000 UL
LTb
0.00 0.00 0.00 C 0.500 UL
LTa
0.50 0.50 0.50 C 3031 820 M
0 3619 V
stroke
1.000 UL
LTb
0.00 0.00 0.00 C 3031 820 M
0 63 V
0 3556 R
0 -63 V
stroke
3031 620 M
[ [(Arial) 200.0 0.0 true true 0 (HighSpeed)]
] -66.7 MCshow
1.000 UL
LTb
0.00 0.00 0.00 C 0.500 UL
LTa
0.50 0.50 0.50 C 3910 820 M
0 3619 V
stroke
1.000 UL
LTb
0.00 0.00 0.00 C 3910 820 M
0 63 V
0 3556 R
0 -63 V
stroke
3910 620 M
[ [(Arial) 200.0 0.0 true true 0 (Westwood)]
] -66.7 MCshow
1.000 UL
LTb
0.00 0.00 0.00 C 0.500 UL
LTa
0.50 0.50 0.50 C 4788 820 M
0 3619 V
stroke
1.000 UL
LTb
0.00 0.00 0.00 C 4788 820 M
0 63 V
0 3556 R
0 -63 V
stroke
4788 620 M
[ [(Arial) 200.0 0.0 true true 0 (Hybla)]
] -66.7 MCshow
1.000 UL
LTb
0.00 0.00 0.00 C 0.500 UL
LTa
0.50 0.50 0.50 C 5667 820 M
0 3619 V
stroke
1.000 UL
LTb
0.00 0.00 0.00 C 5667 820 M
0 63 V
0 3556 R
0 -63 V
stroke
5667 620 M
[ [(Arial) 200.0 0.0 true true 0 (Vegas)]
] -66.7 MCshow
1.000 UL
LTb
0.00 0.00 0.00 C 0.500 UL
LTa
0.50 0.50 0.50 C 6546 820 M
0 3619 V
stroke
1.000 UL
LTb
0.00 0.00 0.00 C 6546 820 M
0 63 V
0 3556 R
0 -63 V
stroke
6546 620 M
[ [(Arial) 200.0 0.0 true true 0 (Scalable)]
] -66.7 MCshow
1.000 UL
LTb
0.00 0.00 0.00 C 1.000 UL
LTB
0.00 0.00 0.00 C 980 4439 M
980 820 L
5859 0 V
0 3619 R
-5859 0 R
1.000 UP
stroke
LTb
0.00 0.00 0.00 C LCb setrgbcolor
160 2629 M
currentpoint gsave translate -270 rotate 0 0 moveto
[ [(Arial) 200.0 0.0 true true 0 (RTT \(ms\))]
] -66.7 MCshow
grestore
LTb
LCb setrgbcolor
3909 320 M
[ [(Arial) 200.0 0.0 true true 0 (TCP)]
] -66.7 MCshow
LTb
LCb setrgbcolor
3909 4739 M
[ [(Arial) 200.0 0.0 true true 0 (a\) RTT)]
] -66.7 MCshow
% Begin plot #1
1.000 UL
LTb
0.60 0.60 0.00 C LCb setrgbcolor
2654 153 M
[ [(Arial) 180.0 0.0 true true 0 (olsr)]
] -60.0 MRshow
1.000 UL
LTb
0.60 0.60 0.00 C 2762 108 333 90 80 -45 0 PatternFill
2762 108 N
333 0 V
0 90 V
-333 0 V
0 -90 V
Z stroke
1.000 UL
LTb
0.60 0.60 0.00 C 1068 975 118 249 80 -45 0 PatternFill
1127 937 M
0 38 V
0 249 R
0 670 V
stroke
1068 975 N
118 0 V
0 249 V
-118 0 V
0 -249 V
Z stroke
1068 1894 M
118 0 V
1068 937 M
118 0 V
stroke
1947 971 118 283 80 -45 0 PatternFill
2006 934 M
0 37 V
0 283 R
0 727 V
stroke
1947 971 N
118 0 V
0 283 V
-118 0 V
0 -283 V
Z stroke
1947 1981 M
118 0 V
1947 934 M
118 0 V
stroke
2826 988 118 496 80 -45 0 PatternFill
2885 945 M
0 43 V
0 496 R
0 858 V
stroke
2826 988 N
118 0 V
0 496 V
-118 0 V
0 -496 V
Z stroke
2826 2342 M
118 0 V
2826 945 M
118 0 V
stroke
3704 969 118 223 80 -45 0 PatternFill
3763 935 M
0 34 V
0 223 R
0 640 V
stroke
3704 969 N
118 0 V
0 223 V
-118 0 V
0 -223 V
Z stroke
3704 1832 M
118 0 V
3704 935 M
118 0 V
stroke
4583 985 118 414 80 -45 0 PatternFill
4642 943 M
0 42 V
0 414 R
0 828 V
stroke
4583 985 N
118 0 V
0 414 V
-118 0 V
0 -414 V
Z stroke
4583 2227 M
118 0 V
4583 943 M
118 0 V
stroke
5462 1022 118 166 80 -45 0 PatternFill
5521 971 M
0 51 V
0 166 R
0 230 V
stroke
5462 1022 N
118 0 V
0 166 V
-118 0 V
0 -166 V
Z stroke
5462 1418 M
118 0 V
5462 971 M
118 0 V
stroke
6341 1000 118 532 80 -45 0 PatternFill
6400 952 M
0 48 V
0 532 R
0 848 V
stroke
6341 1000 N
118 0 V
0 532 V
-118 0 V
0 -532 V
Z stroke
6341 2380 M
118 0 V
6341 952 M
118 0 V
% End plot #1
% Begin plot #2
stroke
LTb
LCb setrgbcolor

 /TransparentPatterns true def
1068 1159 118 0 40 30 0 PatternFill
1127 1159 M
stroke
1068 1159 N
118 0 V
-118 0 V
Z stroke
1068 1159 M
118 0 V
-118 0 R
118 0 V
stroke

 /TransparentPatterns true def
1947 1172 118 0 40 30 0 PatternFill
2006 1172 M
stroke
1947 1172 N
118 0 V
-118 0 V
Z stroke
1947 1172 M
118 0 V
-118 0 R
118 0 V
stroke

 /TransparentPatterns true def
2826 1283 118 0 40 30 0 PatternFill
2885 1283 M
stroke
2826 1283 N
118 0 V
-118 0 V
Z stroke
2826 1283 M
118 0 V
-118 0 R
118 0 V
stroke

 /TransparentPatterns true def
3704 1141 118 0 40 30 0 PatternFill
3763 1141 M
stroke
3704 1141 N
118 0 V
-118 0 V
Z stroke
3704 1141 M
118 0 V
-118 0 R
118 0 V
stroke

 /TransparentPatterns true def
4583 1248 118 0 40 30 0 PatternFill
4642 1248 M
stroke
4583 1248 N
118 0 V
-118 0 V
Z stroke
4583 1248 M
118 0 V
-118 0 R
118 0 V
stroke

 /TransparentPatterns true def
5462 1131 118 0 40 30 0 PatternFill
5521 1131 M
stroke
5462 1131 N
118 0 V
-118 0 V
Z stroke
5462 1131 M
118 0 V
-118 0 R
118 0 V
stroke

 /TransparentPatterns true def
6341 1310 118 0 40 30 0 PatternFill
6400 1310 M
stroke
6341 1310 N
118 0 V
-118 0 V
Z stroke
6341 1310 M
118 0 V
-118 0 R
118 0 V
% End plot #2
% Begin plot #3
stroke
LTb
0.00 0.00 0.63 C LCb setrgbcolor
4067 153 M
[ [(Arial) 180.0 0.0 true true 0 (per-packet)]
] -60.0 MRshow
1.000 UL
LTb
0.00 0.00 0.63 C 4175 108 333 90 80 45 0 PatternFill
4175 108 N
333 0 V
0 90 V
-333 0 V
0 -90 V
Z stroke
1.000 UL
LTb
0.00 0.00 0.63 C 1214 986 118 504 80 45 0 PatternFill
1273 940 M
0 46 V
0 504 R
0 680 V
stroke
1214 986 N
118 0 V
0 504 V
-118 0 V
0 -504 V
Z stroke
1214 2170 M
118 0 V
1214 940 M
118 0 V
stroke
2093 998 118 664 80 45 0 PatternFill
2152 949 M
0 49 V
0 664 R
0 687 V
stroke
2093 998 N
118 0 V
0 664 V
-118 0 V
0 -664 V
Z stroke
2093 2349 M
118 0 V
2093 949 M
118 0 V
stroke
2972 990 118 557 80 45 0 PatternFill
3031 943 M
0 47 V
0 557 R
0 658 V
stroke
2972 990 N
118 0 V
0 557 V
-118 0 V
0 -557 V
Z stroke
2972 2205 M
118 0 V
2972 943 M
118 0 V
stroke
3851 982 118 299 80 45 0 PatternFill
3910 944 M
0 38 V
0 299 R
0 677 V
stroke
3851 982 N
118 0 V
0 299 V
-118 0 V
0 -299 V
Z stroke
3851 1958 M
118 0 V
3851 944 M
118 0 V
stroke
4730 991 118 544 80 45 0 PatternFill
4789 938 M
0 53 V
0 544 R
0 610 V
stroke
4730 991 N
118 0 V
0 544 V
-118 0 V
0 -544 V
Z stroke
4730 2145 M
118 0 V
4730 938 M
118 0 V
stroke
5609 1001 118 165 80 45 0 PatternFill
5668 956 M
0 45 V
0 165 R
0 188 V
stroke
5609 1001 N
118 0 V
0 165 V
-118 0 V
0 -165 V
Z stroke
5609 1354 M
118 0 V
5609 956 M
118 0 V
stroke
6487 1018 118 682 80 45 0 PatternFill
6546 957 M
0 61 V
0 682 R
0 567 V
stroke
6487 1018 N
118 0 V
0 682 V
-118 0 V
0 -682 V
Z stroke
6487 2267 M
118 0 V
6487 957 M
118 0 V
% End plot #3
% Begin plot #4
stroke
LTb
LCb setrgbcolor

 /TransparentPatterns true def
1214 1268 118 0 80 -45 0 PatternFill
1273 1268 M
stroke
1214 1268 N
118 0 V
-118 0 V
Z stroke
1214 1268 M
118 0 V
-118 0 R
118 0 V
stroke

 /TransparentPatterns true def
2093 1355 118 0 80 -45 0 PatternFill
2152 1355 M
stroke
2093 1355 N
118 0 V
-118 0 V
Z stroke
2093 1355 M
118 0 V
-118 0 R
118 0 V
stroke

 /TransparentPatterns true def
2972 1286 118 0 80 -45 0 PatternFill
3031 1286 M
stroke
2972 1286 N
118 0 V
-118 0 V
Z stroke
2972 1286 M
118 0 V
-118 0 R
118 0 V
stroke

 /TransparentPatterns true def
3851 1182 118 0 80 -45 0 PatternFill
3910 1182 M
stroke
3851 1182 N
118 0 V
-118 0 V
Z stroke
3851 1182 M
118 0 V
-118 0 R
118 0 V
stroke

 /TransparentPatterns true def
4730 1276 118 0 80 -45 0 PatternFill
4789 1276 M
stroke
4730 1276 N
118 0 V
-118 0 V
Z stroke
4730 1276 M
118 0 V
-118 0 R
118 0 V
stroke

 /TransparentPatterns true def
5609 1101 118 0 80 -45 0 PatternFill
5668 1101 M
stroke
5609 1101 N
118 0 V
-118 0 V
Z stroke
5609 1101 M
118 0 V
-118 0 R
118 0 V
stroke

 /TransparentPatterns true def
6487 1369 118 0 80 -45 0 PatternFill
6546 1369 M
stroke
6487 1369 N
118 0 V
-118 0 V
Z stroke
6487 1369 M
118 0 V
-118 0 R
118 0 V
% End plot #4
% Begin plot #5
stroke
LTb
0.00 0.38 0.82 C LCb setrgbcolor
5480 153 M
[ [(Arial) 180.0 0.0 true true 0 (per-flow)]
] -60.0 MRshow
1.000 UL
LTb
0.00 0.38 0.82 C 5588 108 333 90 40 30 0 PatternFill
5588 108 N
333 0 V
0 90 V
-333 0 V
0 -90 V
Z stroke
1.000 UL
LTb
0.00 0.38 0.82 C 1361 1009 118 879 40 30 0 PatternFill
1420 953 M
0 56 V
0 879 R
0 1265 V
stroke
1361 1009 N
118 0 V
0 879 V
-118 0 V
0 -879 V
Z stroke
1361 3153 M
118 0 V
1361 953 M
118 0 V
stroke
2240 1047 118 1099 40 30 0 PatternFill
2299 966 M
0 81 V
0 1099 R
0 968 V
stroke
2240 1047 N
118 0 V
0 1099 V
-118 0 V
0 -1099 V
Z stroke
2240 3114 M
118 0 V
2240 966 M
118 0 V
stroke
3119 1054 118 1205 40 30 0 PatternFill
3178 971 M
0 83 V
0 1205 R
0 1081 V
stroke
3119 1054 N
118 0 V
0 1205 V
-118 0 V
0 -1205 V
Z stroke
3119 3340 M
118 0 V
3119 971 M
118 0 V
stroke
3997 978 118 401 40 30 0 PatternFill
4056 940 M
0 38 V
0 401 R
0 1116 V
stroke
3997 978 N
118 0 V
0 401 V
-118 0 V
0 -401 V
Z stroke
3997 2495 M
118 0 V
3997 940 M
118 0 V
stroke
4876 1021 118 926 40 30 0 PatternFill
4935 958 M
0 63 V
0 926 R
0 1071 V
stroke
4876 1021 N
118 0 V
0 926 V
-118 0 V
0 -926 V
Z stroke
4876 3018 M
118 0 V
4876 958 M
118 0 V
stroke
5755 1018 118 189 40 30 0 PatternFill
5814 963 M
0 55 V
0 189 R
0 225 V
stroke
5755 1018 N
118 0 V
0 189 V
-118 0 V
0 -189 V
Z stroke
5755 1432 M
118 0 V
5755 963 M
118 0 V
stroke
6634 1166 118 1394 40 30 0 PatternFill
6693 1007 M
0 159 V
0 1394 R
0 1201 V
stroke
6634 1166 N
118 0 V
0 1394 V
-118 0 V
0 -1394 V
Z stroke
6634 3761 M
118 0 V
6634 1007 M
118 0 V
% End plot #5
% Begin plot #6
stroke
LTb
LCb setrgbcolor

 /TransparentPatterns true def
1361 1502 118 0 40 -30 0 PatternFill
1420 1502 M
stroke
1361 1502 N
118 0 V
-118 0 V
Z stroke
1361 1502 M
118 0 V
-118 0 R
118 0 V
stroke

 /TransparentPatterns true def
2240 1613 118 0 40 -30 0 PatternFill
2299 1613 M
stroke
2240 1613 N
118 0 V
-118 0 V
Z stroke
2240 1613 M
118 0 V
-118 0 R
118 0 V
stroke

 /TransparentPatterns true def
3119 1672 118 0 40 -30 0 PatternFill
3178 1672 M
stroke
3119 1672 N
118 0 V
-118 0 V
Z stroke
3119 1672 M
118 0 V
-118 0 R
118 0 V
stroke

 /TransparentPatterns true def
3997 1266 118 0 40 -30 0 PatternFill
4056 1266 M
stroke
3997 1266 N
118 0 V
-118 0 V
Z stroke
3997 1266 M
118 0 V
-118 0 R
118 0 V
stroke

 /TransparentPatterns true def
4876 1520 118 0 40 -30 0 PatternFill
4935 1520 M
stroke
4876 1520 N
118 0 V
-118 0 V
Z stroke
4876 1520 M
118 0 V
-118 0 R
118 0 V
stroke

 /TransparentPatterns true def
5755 1133 118 0 40 -30 0 PatternFill
5814 1133 M
stroke
5755 1133 N
118 0 V
-118 0 V
Z stroke
5755 1133 M
118 0 V
-118 0 R
118 0 V
stroke

 /TransparentPatterns true def
6634 1896 118 0 40 -30 0 PatternFill
6693 1896 M
stroke
6634 1896 N
118 0 V
-118 0 V
Z stroke
6634 1896 M
118 0 V
-118 0 R
118 0 V
% End plot #6
stroke
2.000 UL
LTb
LCb setrgbcolor
1.000 UP
1.000 UL
LTb
0.00 0.00 0.00 C 1.000 UL
LTb
0.00 0.00 0.00 C 0.500 UL
LTa
0.50 0.50 0.50 C 8180 820 M
5859 0 V
stroke
1.000 UL
LTb
0.00 0.00 0.00 C 8180 820 M
63 0 V
5796 0 R
-63 0 V
stroke
8060 820 M
[ [(Arial) 200.0 0.0 true true 0 ( 0)]
] -66.7 MRshow
1.000 UL
LTb
0.00 0.00 0.00 C 0.500 UL
LTa
0.50 0.50 0.50 C 8180 1423 M
5859 0 V
stroke
1.000 UL
LTb
0.00 0.00 0.00 C 8180 1423 M
63 0 V
5796 0 R
-63 0 V
stroke
8060 1423 M
[ [(Arial) 200.0 0.0 true true 0 ( 20)]
] -66.7 MRshow
1.000 UL
LTb
0.00 0.00 0.00 C 0.500 UL
LTa
0.50 0.50 0.50 C 8180 2026 M
5859 0 V
stroke
1.000 UL
LTb
0.00 0.00 0.00 C 8180 2026 M
63 0 V
5796 0 R
-63 0 V
stroke
8060 2026 M
[ [(Arial) 200.0 0.0 true true 0 ( 40)]
] -66.7 MRshow
1.000 UL
LTb
0.00 0.00 0.00 C 0.500 UL
LTa
0.50 0.50 0.50 C 8180 2630 M
5859 0 V
stroke
1.000 UL
LTb
0.00 0.00 0.00 C 8180 2630 M
63 0 V
5796 0 R
-63 0 V
stroke
8060 2630 M
[ [(Arial) 200.0 0.0 true true 0 ( 60)]
] -66.7 MRshow
1.000 UL
LTb
0.00 0.00 0.00 C 0.500 UL
LTa
0.50 0.50 0.50 C 8180 3233 M
5859 0 V
stroke
1.000 UL
LTb
0.00 0.00 0.00 C 8180 3233 M
63 0 V
5796 0 R
-63 0 V
stroke
8060 3233 M
[ [(Arial) 200.0 0.0 true true 0 ( 80)]
] -66.7 MRshow
1.000 UL
LTb
0.00 0.00 0.00 C 0.500 UL
LTa
0.50 0.50 0.50 C 8180 3836 M
5859 0 V
stroke
1.000 UL
LTb
0.00 0.00 0.00 C 8180 3836 M
63 0 V
5796 0 R
-63 0 V
stroke
8060 3836 M
[ [(Arial) 200.0 0.0 true true 0 ( 100)]
] -66.7 MRshow
1.000 UL
LTb
0.00 0.00 0.00 C 0.500 UL
LTa
0.50 0.50 0.50 C 8180 4439 M
5859 0 V
stroke
1.000 UL
LTb
0.00 0.00 0.00 C 8180 4439 M
63 0 V
5796 0 R
-63 0 V
stroke
8060 4439 M
[ [(Arial) 200.0 0.0 true true 0 ( 120)]
] -66.7 MRshow
1.000 UL
LTb
0.00 0.00 0.00 C 0.500 UL
LTa
0.50 0.50 0.50 C 8473 820 M
0 3619 V
stroke
1.000 UL
LTb
0.00 0.00 0.00 C 8473 820 M
0 63 V
0 3556 R
0 -63 V
stroke
8473 620 M
[ [(Arial) 200.0 0.0 true true 0 (NewReno)]
] -66.7 MCshow
1.000 UL
LTb
0.00 0.00 0.00 C 0.500 UL
LTa
0.50 0.50 0.50 C 9352 820 M
0 3619 V
stroke
1.000 UL
LTb
0.00 0.00 0.00 C 9352 820 M
0 63 V
0 3556 R
0 -63 V
stroke
9352 620 M
[ [(Arial) 200.0 0.0 true true 0 (Cubic)]
] -66.7 MCshow
1.000 UL
LTb
0.00 0.00 0.00 C 0.500 UL
LTa
0.50 0.50 0.50 C 10231 820 M
0 3619 V
stroke
1.000 UL
LTb
0.00 0.00 0.00 C 10231 820 M
0 63 V
0 3556 R
0 -63 V
stroke
10231 620 M
[ [(Arial) 200.0 0.0 true true 0 (HighSpeed)]
] -66.7 MCshow
1.000 UL
LTb
0.00 0.00 0.00 C 0.500 UL
LTa
0.50 0.50 0.50 C 11110 820 M
0 3619 V
stroke
1.000 UL
LTb
0.00 0.00 0.00 C 11110 820 M
0 63 V
0 3556 R
0 -63 V
stroke
11110 620 M
[ [(Arial) 200.0 0.0 true true 0 (Westwood)]
] -66.7 MCshow
1.000 UL
LTb
0.00 0.00 0.00 C 0.500 UL
LTa
0.50 0.50 0.50 C 11988 820 M
0 3619 V
stroke
1.000 UL
LTb
0.00 0.00 0.00 C 11988 820 M
0 63 V
0 3556 R
0 -63 V
stroke
11988 620 M
[ [(Arial) 200.0 0.0 true true 0 (Hybla)]
] -66.7 MCshow
1.000 UL
LTb
0.00 0.00 0.00 C 0.500 UL
LTa
0.50 0.50 0.50 C 12867 820 M
0 3619 V
stroke
1.000 UL
LTb
0.00 0.00 0.00 C 12867 820 M
0 63 V
0 3556 R
0 -63 V
stroke
12867 620 M
[ [(Arial) 200.0 0.0 true true 0 (Vegas)]
] -66.7 MCshow
1.000 UL
LTb
0.00 0.00 0.00 C 0.500 UL
LTa
0.50 0.50 0.50 C 13746 820 M
0 3619 V
stroke
1.000 UL
LTb
0.00 0.00 0.00 C 13746 820 M
0 63 V
0 3556 R
0 -63 V
stroke
13746 620 M
[ [(Arial) 200.0 0.0 true true 0 (Scalable)]
] -66.7 MCshow
1.000 UL
LTb
0.00 0.00 0.00 C 1.000 UL
LTB
0.00 0.00 0.00 C 8180 4439 M
0 -3619 V
5859 0 V
0 3619 R
-5859 0 R
1.000 UP
stroke
LTb
0.00 0.00 0.00 C LCb setrgbcolor
7360 2629 M
currentpoint gsave translate -270 rotate 0 0 moveto
[ [(Arial) 200.0 0.0 true true 0 (File download time \(s\))]
] -66.7 MCshow
grestore
LTb
LCb setrgbcolor
11109 320 M
[ [(Arial) 200.0 0.0 true true 0 (TCP)]
] -66.7 MCshow
LTb
LCb setrgbcolor
11109 4739 M
[ [(Arial) 200.0 0.0 true true 0 (b\) File download time)]
] -66.7 MCshow
% Begin plot #1
1.000 UL
LTb
0.60 0.60 0.00 C LCb setrgbcolor
9854 153 M
[ [(Arial) 180.0 0.0 true true 0 (olsr)]
] -60.0 MRshow
1.000 UL
LTb
0.60 0.60 0.00 C 9962 108 333 90 80 -45 0 PatternFill
9962 108 N
333 0 V
0 90 V
-333 0 V
0 -90 V
Z stroke
1.000 UL
LTb
0.60 0.60 0.00 C 8268 1322 118 426 80 -45 0 PatternFill
8327 929 M
0 393 V
0 426 R
0 756 V
stroke
8268 1322 N
118 0 V
0 426 V
-118 0 V
0 -426 V
Z stroke
8268 2504 M
118 0 V
8268 929 M
118 0 V
stroke
9147 1322 118 447 80 -45 0 PatternFill
9206 910 M
0 412 V
0 447 R
0 1702 V
stroke
9147 1322 N
118 0 V
0 447 V
-118 0 V
0 -447 V
Z stroke
9147 3471 M
118 0 V
9147 910 M
118 0 V
stroke
10026 1234 118 372 80 -45 0 PatternFill
10085 908 M
0 326 V
0 372 R
0 627 V
stroke
10026 1234 N
118 0 V
0 372 V
-118 0 V
0 -372 V
Z stroke
10026 2233 M
118 0 V
10026 908 M
118 0 V
stroke
10904 1315 118 502 80 -45 0 PatternFill
10963 1001 M
0 314 V
0 502 R
0 1257 V
stroke
10904 1315 N
118 0 V
0 502 V
-118 0 V
0 -502 V
Z stroke
10904 3074 M
118 0 V
10904 1001 M
118 0 V
stroke
11783 1233 118 393 80 -45 0 PatternFill
11842 909 M
0 324 V
0 393 R
0 383 V
stroke
11783 1233 N
118 0 V
0 393 V
-118 0 V
0 -393 V
Z stroke
11783 2009 M
118 0 V
11783 909 M
118 0 V
stroke
12662 1642 118 856 80 -45 0 PatternFill
12721 907 M
0 735 V
0 856 R
0 660 V
stroke
12662 1642 N
118 0 V
0 856 V
-118 0 V
0 -856 V
Z stroke
12662 3158 M
118 0 V
12662 907 M
118 0 V
stroke
13541 1192 118 374 80 -45 0 PatternFill
13600 910 M
0 282 V
0 374 R
0 249 V
stroke
13541 1192 N
118 0 V
0 374 V
-118 0 V
0 -374 V
Z stroke
13541 1815 M
118 0 V
13541 910 M
118 0 V
% End plot #1
% Begin plot #2
stroke
LTb
LCb setrgbcolor

 /TransparentPatterns true def
8268 1502 118 0 40 30 0 PatternFill
8327 1502 M
stroke
8268 1502 N
118 0 V
-118 0 V
Z stroke
8268 1502 M
118 0 V
-118 0 R
118 0 V
stroke

 /TransparentPatterns true def
9147 1565 118 0 40 30 0 PatternFill
9206 1565 M
stroke
9147 1565 N
118 0 V
-118 0 V
Z stroke
9147 1565 M
118 0 V
-118 0 R
118 0 V
stroke

 /TransparentPatterns true def
10026 1419 118 0 40 30 0 PatternFill
10085 1419 M
stroke
10026 1419 N
118 0 V
-118 0 V
Z stroke
10026 1419 M
118 0 V
-118 0 R
118 0 V
stroke

 /TransparentPatterns true def
10904 1605 118 0 40 30 0 PatternFill
10963 1605 M
stroke
10904 1605 N
118 0 V
-118 0 V
Z stroke
10904 1605 M
118 0 V
-118 0 R
118 0 V
stroke

 /TransparentPatterns true def
11783 1413 118 0 40 30 0 PatternFill
11842 1413 M
stroke
11783 1413 N
118 0 V
-118 0 V
Z stroke
11783 1413 M
118 0 V
-118 0 R
118 0 V
stroke

 /TransparentPatterns true def
12662 2061 118 0 40 30 0 PatternFill
12721 2061 M
stroke
12662 2061 N
118 0 V
-118 0 V
Z stroke
12662 2061 M
118 0 V
-118 0 R
118 0 V
stroke

 /TransparentPatterns true def
13541 1374 118 0 40 30 0 PatternFill
13600 1374 M
stroke
13541 1374 N
118 0 V
-118 0 V
Z stroke
13541 1374 M
118 0 V
-118 0 R
118 0 V
% End plot #2
% Begin plot #3
stroke
LTb
0.00 0.00 0.63 C LCb setrgbcolor
11267 153 M
[ [(Arial) 180.0 0.0 true true 0 (per-packet)]
] -60.0 MRshow
1.000 UL
LTb
0.00 0.00 0.63 C 11375 108 333 90 80 45 0 PatternFill
11375 108 N
333 0 V
0 90 V
-333 0 V
0 -90 V
Z stroke
1.000 UL
LTb
0.00 0.00 0.63 C 8414 1000 118 2004 80 45 0 PatternFill
8473 922 M
0 78 V
0 2004 R
0 684 V
stroke
8414 1000 N
118 0 V
0 2004 V
-118 0 V
0 -2004 V
Z stroke
8414 3688 M
118 0 V
8414 922 M
118 0 V
stroke
9293 950 118 2179 80 45 0 PatternFill
9352 890 M
0 60 V
0 2179 R
0 823 V
stroke
9293 950 N
118 0 V
0 2179 V
-118 0 V
0 -2179 V
Z stroke
9293 3952 M
118 0 V
9293 890 M
118 0 V
stroke
10172 957 118 1688 80 45 0 PatternFill
10231 892 M
0 65 V
0 1688 R
0 458 V
stroke
10172 957 N
118 0 V
0 1688 V
-118 0 V
0 -1688 V
Z stroke
10172 3103 M
118 0 V
10172 892 M
118 0 V
stroke
11051 1244 118 2000 80 45 0 PatternFill
11110 1003 M
0 241 V
0 2000 R
0 658 V
stroke
11051 1244 N
118 0 V
0 2000 V
-118 0 V
0 -2000 V
Z stroke
11051 3902 M
118 0 V
11051 1003 M
118 0 V
stroke
11930 987 118 1546 80 45 0 PatternFill
11989 901 M
0 86 V
0 1546 R
0 761 V
stroke
11930 987 N
118 0 V
0 1546 V
-118 0 V
0 -1546 V
Z stroke
11930 3294 M
118 0 V
11930 901 M
118 0 V
stroke
12809 1732 118 1053 80 45 0 PatternFill
12868 991 M
0 741 V
0 1053 R
0 680 V
stroke
12809 1732 N
118 0 V
0 1053 V
-118 0 V
0 -1053 V
Z stroke
12809 3465 M
118 0 V
12809 991 M
118 0 V
stroke
13687 941 118 1376 80 45 0 PatternFill
13746 893 M
0 48 V
0 1376 R
0 480 V
stroke
13687 941 N
118 0 V
0 1376 V
-118 0 V
0 -1376 V
Z stroke
13687 2797 M
118 0 V
13687 893 M
118 0 V
% End plot #3
% Begin plot #4
stroke
LTb
LCb setrgbcolor

 /TransparentPatterns true def
8414 1843 118 0 80 -45 0 PatternFill
8473 1843 M
stroke
8414 1843 N
118 0 V
-118 0 V
Z stroke
8414 1843 M
118 0 V
-118 0 R
118 0 V
stroke

 /TransparentPatterns true def
9293 1832 118 0 80 -45 0 PatternFill
9352 1832 M
stroke
9293 1832 N
118 0 V
-118 0 V
Z stroke
9293 1832 M
118 0 V
-118 0 R
118 0 V
stroke

 /TransparentPatterns true def
10172 1629 118 0 80 -45 0 PatternFill
10231 1629 M
stroke
10172 1629 N
118 0 V
-118 0 V
Z stroke
10172 1629 M
118 0 V
-118 0 R
118 0 V
stroke

 /TransparentPatterns true def
11051 2021 118 0 80 -45 0 PatternFill
11110 2021 M
stroke
11051 2021 N
118 0 V
-118 0 V
Z stroke
11051 2021 M
118 0 V
-118 0 R
118 0 V
stroke

 /TransparentPatterns true def
11930 1625 118 0 80 -45 0 PatternFill
11989 1625 M
stroke
11930 1625 N
118 0 V
-118 0 V
Z stroke
11930 1625 M
118 0 V
-118 0 R
118 0 V
stroke

 /TransparentPatterns true def
12809 2237 118 0 80 -45 0 PatternFill
12868 2237 M
stroke
12809 2237 N
118 0 V
-118 0 V
Z stroke
12809 2237 M
118 0 V
-118 0 R
118 0 V
stroke

 /TransparentPatterns true def
13687 1489 118 0 80 -45 0 PatternFill
13746 1489 M
stroke
13687 1489 N
118 0 V
-118 0 V
Z stroke
13687 1489 M
118 0 V
-118 0 R
118 0 V
% End plot #4
% Begin plot #5
stroke
LTb
0.00 0.38 0.82 C LCb setrgbcolor
12680 153 M
[ [(Arial) 180.0 0.0 true true 0 (per-flow)]
] -60.0 MRshow
1.000 UL
LTb
0.00 0.38 0.82 C 12788 108 333 90 40 30 0 PatternFill
12788 108 N
333 0 V
0 90 V
-333 0 V
0 -90 V
Z stroke
1.000 UL
LTb
0.00 0.38 0.82 C 8561 1014 118 298 40 30 0 PatternFill
8620 912 M
0 102 V
0 298 R
0 1049 V
stroke
8561 1014 N
118 0 V
0 298 V
-118 0 V
0 -298 V
Z stroke
8561 2361 M
118 0 V
8561 912 M
118 0 V
stroke
9440 966 118 298 40 30 0 PatternFill
9499 914 M
0 52 V
0 298 R
0 1255 V
stroke
9440 966 N
118 0 V
0 298 V
-118 0 V
0 -298 V
Z stroke
9440 2519 M
118 0 V
9440 914 M
118 0 V
stroke
10319 953 118 210 40 30 0 PatternFill
10378 908 M
0 45 V
0 210 R
0 586 V
stroke
10319 953 N
118 0 V
0 210 V
-118 0 V
0 -210 V
Z stroke
10319 1749 M
118 0 V
10319 908 M
118 0 V
stroke
11197 1185 118 341 40 30 0 PatternFill
11256 1015 M
0 170 V
0 341 R
0 1207 V
stroke
11197 1185 N
118 0 V
0 341 V
-118 0 V
0 -341 V
Z stroke
11197 2733 M
118 0 V
11197 1015 M
118 0 V
stroke
12076 1011 118 203 40 30 0 PatternFill
12135 924 M
0 87 V
0 203 R
0 479 V
stroke
12076 1011 N
118 0 V
0 203 V
-118 0 V
0 -203 V
Z stroke
12076 1693 M
118 0 V
12076 924 M
118 0 V
stroke
12955 1416 118 949 40 30 0 PatternFill
13014 976 M
0 440 V
0 949 R
0 402 V
stroke
12955 1416 N
118 0 V
0 949 V
-118 0 V
0 -949 V
Z stroke
12955 2767 M
118 0 V
12955 976 M
118 0 V
stroke
13834 955 118 172 40 30 0 PatternFill
13893 904 M
0 51 V
0 172 R
0 356 V
stroke
13834 955 N
118 0 V
0 172 V
-118 0 V
0 -172 V
Z stroke
13834 1483 M
118 0 V
13834 904 M
118 0 V
% End plot #5
% Begin plot #6
stroke
LTb
LCb setrgbcolor

 /TransparentPatterns true def
8561 1168 118 0 40 -30 0 PatternFill
8620 1168 M
stroke
8561 1168 N
118 0 V
-118 0 V
Z stroke
8561 1168 M
118 0 V
-118 0 R
118 0 V
stroke

 /TransparentPatterns true def
9440 1163 118 0 40 -30 0 PatternFill
9499 1163 M
stroke
9440 1163 N
118 0 V
-118 0 V
Z stroke
9440 1163 M
118 0 V
-118 0 R
118 0 V
stroke

 /TransparentPatterns true def
10319 1086 118 0 40 -30 0 PatternFill
10378 1086 M
stroke
10319 1086 N
118 0 V
-118 0 V
Z stroke
10319 1086 M
118 0 V
-118 0 R
118 0 V
stroke

 /TransparentPatterns true def
11197 1406 118 0 40 -30 0 PatternFill
11256 1406 M
stroke
11197 1406 N
118 0 V
-118 0 V
Z stroke
11197 1406 M
118 0 V
-118 0 R
118 0 V
stroke

 /TransparentPatterns true def
12076 1131 118 0 40 -30 0 PatternFill
12135 1131 M
stroke
12076 1131 N
118 0 V
-118 0 V
Z stroke
12076 1131 M
118 0 V
-118 0 R
118 0 V
stroke

 /TransparentPatterns true def
12955 1914 118 0 40 -30 0 PatternFill
13014 1914 M
stroke
12955 1914 N
118 0 V
-118 0 V
Z stroke
12955 1914 M
118 0 V
-118 0 R
118 0 V
stroke

 /TransparentPatterns true def
13834 1060 118 0 40 -30 0 PatternFill
13893 1060 M
stroke
13834 1060 N
118 0 V
-118 0 V
Z stroke
13834 1060 M
118 0 V
-118 0 R
118 0 V
% End plot #6
stroke
2.000 UL
LTb
LCb setrgbcolor
1.000 UP
1.000 UL
LTb
0.00 0.00 0.00 C stroke
grestore
end
showpage
%%Trailer
%%DocumentFonts: Arial
