%!PS-Adobe-2.0 EPSF-2.0
%%Title: 75UE-download-20Mbps.eps
%%Creator: gnuplot 5.0 patchlevel 3
%%CreationDate: Thu Jun  2 09:48:01 2016
%%DocumentFonts: (atend)
%%BoundingBox: 50 50 770 302
%%EndComments
%%BeginProlog
/gnudict 256 dict def
gnudict begin
%
% The following true/false flags may be edited by hand if desired.
% The unit line width and grayscale image gamma correction may also be changed.
%
/Color true def
/Blacktext false def
/Solid false def
/Dashlength 3 def
/Landscape false def
/Level1 false def
/Level3 false def
/Rounded false def
/ClipToBoundingBox false def
/SuppressPDFMark false def
/TransparentPatterns false def
/gnulinewidth 15.000 def
/userlinewidth gnulinewidth def
/Gamma 1.0 def
/BackgroundColor {-1.000 -1.000 -1.000} def
%
/vshift -66 def
/dl1 {
  10.0 Dashlength userlinewidth gnulinewidth div mul mul mul
  Rounded { currentlinewidth 0.75 mul sub dup 0 le { pop 0.01 } if } if
} def
/dl2 {
  10.0 Dashlength userlinewidth gnulinewidth div mul mul mul
  Rounded { currentlinewidth 0.75 mul add } if
} def
/hpt_ 31.5 def
/vpt_ 31.5 def
/hpt hpt_ def
/vpt vpt_ def
/doclip {
  ClipToBoundingBox {
    newpath 50 50 moveto 770 50 lineto 770 302 lineto 50 302 lineto closepath
    clip
  } if
} def
%
% Gnuplot Prolog Version 5.1 (Oct 2015)
%
%/SuppressPDFMark true def
%
/M {moveto} bind def
/L {lineto} bind def
/R {rmoveto} bind def
/V {rlineto} bind def
/N {newpath moveto} bind def
/Z {closepath} bind def
/C {setrgbcolor} bind def
/f {rlineto fill} bind def
/g {setgray} bind def
/Gshow {show} def   % May be redefined later in the file to support UTF-8
/vpt2 vpt 2 mul def
/hpt2 hpt 2 mul def
/Lshow {currentpoint stroke M 0 vshift R 
	Blacktext {gsave 0 setgray textshow grestore} {textshow} ifelse} def
/Rshow {currentpoint stroke M dup stringwidth pop neg vshift R
	Blacktext {gsave 0 setgray textshow grestore} {textshow} ifelse} def
/Cshow {currentpoint stroke M dup stringwidth pop -2 div vshift R 
	Blacktext {gsave 0 setgray textshow grestore} {textshow} ifelse} def
/UP {dup vpt_ mul /vpt exch def hpt_ mul /hpt exch def
  /hpt2 hpt 2 mul def /vpt2 vpt 2 mul def} def
/DL {Color {setrgbcolor Solid {pop []} if 0 setdash}
 {pop pop pop 0 setgray Solid {pop []} if 0 setdash} ifelse} def
/BL {stroke userlinewidth 2 mul setlinewidth
	Rounded {1 setlinejoin 1 setlinecap} if} def
/AL {stroke userlinewidth 2 div setlinewidth
	Rounded {1 setlinejoin 1 setlinecap} if} def
/UL {dup gnulinewidth mul /userlinewidth exch def
	dup 1 lt {pop 1} if 10 mul /udl exch def} def
/PL {stroke userlinewidth setlinewidth
	Rounded {1 setlinejoin 1 setlinecap} if} def
3.8 setmiterlimit
% Classic Line colors (version 5.0)
/LCw {1 1 1} def
/LCb {0 0 0} def
/LCa {0 0 0} def
/LC0 {1 0 0} def
/LC1 {0 1 0} def
/LC2 {0 0 1} def
/LC3 {1 0 1} def
/LC4 {0 1 1} def
/LC5 {1 1 0} def
/LC6 {0 0 0} def
/LC7 {1 0.3 0} def
/LC8 {0.5 0.5 0.5} def
% Default dash patterns (version 5.0)
/LTB {BL [] LCb DL} def
/LTw {PL [] 1 setgray} def
/LTb {PL [] LCb DL} def
/LTa {AL [1 udl mul 2 udl mul] 0 setdash LCa setrgbcolor} def
/LT0 {PL [] LC0 DL} def
/LT1 {PL [2 dl1 3 dl2] LC1 DL} def
/LT2 {PL [1 dl1 1.5 dl2] LC2 DL} def
/LT3 {PL [6 dl1 2 dl2 1 dl1 2 dl2] LC3 DL} def
/LT4 {PL [1 dl1 2 dl2 6 dl1 2 dl2 1 dl1 2 dl2] LC4 DL} def
/LT5 {PL [4 dl1 2 dl2] LC5 DL} def
/LT6 {PL [1.5 dl1 1.5 dl2 1.5 dl1 1.5 dl2 1.5 dl1 6 dl2] LC6 DL} def
/LT7 {PL [3 dl1 3 dl2 1 dl1 3 dl2] LC7 DL} def
/LT8 {PL [2 dl1 2 dl2 2 dl1 6 dl2] LC8 DL} def
/SL {[] 0 setdash} def
/Pnt {stroke [] 0 setdash gsave 1 setlinecap M 0 0 V stroke grestore} def
/Dia {stroke [] 0 setdash 2 copy vpt add M
  hpt neg vpt neg V hpt vpt neg V
  hpt vpt V hpt neg vpt V closepath stroke
  Pnt} def
/Pls {stroke [] 0 setdash vpt sub M 0 vpt2 V
  currentpoint stroke M
  hpt neg vpt neg R hpt2 0 V stroke
 } def
/Box {stroke [] 0 setdash 2 copy exch hpt sub exch vpt add M
  0 vpt2 neg V hpt2 0 V 0 vpt2 V
  hpt2 neg 0 V closepath stroke
  Pnt} def
/Crs {stroke [] 0 setdash exch hpt sub exch vpt add M
  hpt2 vpt2 neg V currentpoint stroke M
  hpt2 neg 0 R hpt2 vpt2 V stroke} def
/TriU {stroke [] 0 setdash 2 copy vpt 1.12 mul add M
  hpt neg vpt -1.62 mul V
  hpt 2 mul 0 V
  hpt neg vpt 1.62 mul V closepath stroke
  Pnt} def
/Star {2 copy Pls Crs} def
/BoxF {stroke [] 0 setdash exch hpt sub exch vpt add M
  0 vpt2 neg V hpt2 0 V 0 vpt2 V
  hpt2 neg 0 V closepath fill} def
/TriUF {stroke [] 0 setdash vpt 1.12 mul add M
  hpt neg vpt -1.62 mul V
  hpt 2 mul 0 V
  hpt neg vpt 1.62 mul V closepath fill} def
/TriD {stroke [] 0 setdash 2 copy vpt 1.12 mul sub M
  hpt neg vpt 1.62 mul V
  hpt 2 mul 0 V
  hpt neg vpt -1.62 mul V closepath stroke
  Pnt} def
/TriDF {stroke [] 0 setdash vpt 1.12 mul sub M
  hpt neg vpt 1.62 mul V
  hpt 2 mul 0 V
  hpt neg vpt -1.62 mul V closepath fill} def
/DiaF {stroke [] 0 setdash vpt add M
  hpt neg vpt neg V hpt vpt neg V
  hpt vpt V hpt neg vpt V closepath fill} def
/Pent {stroke [] 0 setdash 2 copy gsave
  translate 0 hpt M 4 {72 rotate 0 hpt L} repeat
  closepath stroke grestore Pnt} def
/PentF {stroke [] 0 setdash gsave
  translate 0 hpt M 4 {72 rotate 0 hpt L} repeat
  closepath fill grestore} def
/Circle {stroke [] 0 setdash 2 copy
  hpt 0 360 arc stroke Pnt} def
/CircleF {stroke [] 0 setdash hpt 0 360 arc fill} def
/C0 {BL [] 0 setdash 2 copy moveto vpt 90 450 arc} bind def
/C1 {BL [] 0 setdash 2 copy moveto
	2 copy vpt 0 90 arc closepath fill
	vpt 0 360 arc closepath} bind def
/C2 {BL [] 0 setdash 2 copy moveto
	2 copy vpt 90 180 arc closepath fill
	vpt 0 360 arc closepath} bind def
/C3 {BL [] 0 setdash 2 copy moveto
	2 copy vpt 0 180 arc closepath fill
	vpt 0 360 arc closepath} bind def
/C4 {BL [] 0 setdash 2 copy moveto
	2 copy vpt 180 270 arc closepath fill
	vpt 0 360 arc closepath} bind def
/C5 {BL [] 0 setdash 2 copy moveto
	2 copy vpt 0 90 arc
	2 copy moveto
	2 copy vpt 180 270 arc closepath fill
	vpt 0 360 arc} bind def
/C6 {BL [] 0 setdash 2 copy moveto
	2 copy vpt 90 270 arc closepath fill
	vpt 0 360 arc closepath} bind def
/C7 {BL [] 0 setdash 2 copy moveto
	2 copy vpt 0 270 arc closepath fill
	vpt 0 360 arc closepath} bind def
/C8 {BL [] 0 setdash 2 copy moveto
	2 copy vpt 270 360 arc closepath fill
	vpt 0 360 arc closepath} bind def
/C9 {BL [] 0 setdash 2 copy moveto
	2 copy vpt 270 450 arc closepath fill
	vpt 0 360 arc closepath} bind def
/C10 {BL [] 0 setdash 2 copy 2 copy moveto vpt 270 360 arc closepath fill
	2 copy moveto
	2 copy vpt 90 180 arc closepath fill
	vpt 0 360 arc closepath} bind def
/C11 {BL [] 0 setdash 2 copy moveto
	2 copy vpt 0 180 arc closepath fill
	2 copy moveto
	2 copy vpt 270 360 arc closepath fill
	vpt 0 360 arc closepath} bind def
/C12 {BL [] 0 setdash 2 copy moveto
	2 copy vpt 180 360 arc closepath fill
	vpt 0 360 arc closepath} bind def
/C13 {BL [] 0 setdash 2 copy moveto
	2 copy vpt 0 90 arc closepath fill
	2 copy moveto
	2 copy vpt 180 360 arc closepath fill
	vpt 0 360 arc closepath} bind def
/C14 {BL [] 0 setdash 2 copy moveto
	2 copy vpt 90 360 arc closepath fill
	vpt 0 360 arc} bind def
/C15 {BL [] 0 setdash 2 copy vpt 0 360 arc closepath fill
	vpt 0 360 arc closepath} bind def
/Rec {newpath 4 2 roll moveto 1 index 0 rlineto 0 exch rlineto
	neg 0 rlineto closepath} bind def
/Square {dup Rec} bind def
/Bsquare {vpt sub exch vpt sub exch vpt2 Square} bind def
/S0 {BL [] 0 setdash 2 copy moveto 0 vpt rlineto BL Bsquare} bind def
/S1 {BL [] 0 setdash 2 copy vpt Square fill Bsquare} bind def
/S2 {BL [] 0 setdash 2 copy exch vpt sub exch vpt Square fill Bsquare} bind def
/S3 {BL [] 0 setdash 2 copy exch vpt sub exch vpt2 vpt Rec fill Bsquare} bind def
/S4 {BL [] 0 setdash 2 copy exch vpt sub exch vpt sub vpt Square fill Bsquare} bind def
/S5 {BL [] 0 setdash 2 copy 2 copy vpt Square fill
	exch vpt sub exch vpt sub vpt Square fill Bsquare} bind def
/S6 {BL [] 0 setdash 2 copy exch vpt sub exch vpt sub vpt vpt2 Rec fill Bsquare} bind def
/S7 {BL [] 0 setdash 2 copy exch vpt sub exch vpt sub vpt vpt2 Rec fill
	2 copy vpt Square fill Bsquare} bind def
/S8 {BL [] 0 setdash 2 copy vpt sub vpt Square fill Bsquare} bind def
/S9 {BL [] 0 setdash 2 copy vpt sub vpt vpt2 Rec fill Bsquare} bind def
/S10 {BL [] 0 setdash 2 copy vpt sub vpt Square fill 2 copy exch vpt sub exch vpt Square fill
	Bsquare} bind def
/S11 {BL [] 0 setdash 2 copy vpt sub vpt Square fill 2 copy exch vpt sub exch vpt2 vpt Rec fill
	Bsquare} bind def
/S12 {BL [] 0 setdash 2 copy exch vpt sub exch vpt sub vpt2 vpt Rec fill Bsquare} bind def
/S13 {BL [] 0 setdash 2 copy exch vpt sub exch vpt sub vpt2 vpt Rec fill
	2 copy vpt Square fill Bsquare} bind def
/S14 {BL [] 0 setdash 2 copy exch vpt sub exch vpt sub vpt2 vpt Rec fill
	2 copy exch vpt sub exch vpt Square fill Bsquare} bind def
/S15 {BL [] 0 setdash 2 copy Bsquare fill Bsquare} bind def
/D0 {gsave translate 45 rotate 0 0 S0 stroke grestore} bind def
/D1 {gsave translate 45 rotate 0 0 S1 stroke grestore} bind def
/D2 {gsave translate 45 rotate 0 0 S2 stroke grestore} bind def
/D3 {gsave translate 45 rotate 0 0 S3 stroke grestore} bind def
/D4 {gsave translate 45 rotate 0 0 S4 stroke grestore} bind def
/D5 {gsave translate 45 rotate 0 0 S5 stroke grestore} bind def
/D6 {gsave translate 45 rotate 0 0 S6 stroke grestore} bind def
/D7 {gsave translate 45 rotate 0 0 S7 stroke grestore} bind def
/D8 {gsave translate 45 rotate 0 0 S8 stroke grestore} bind def
/D9 {gsave translate 45 rotate 0 0 S9 stroke grestore} bind def
/D10 {gsave translate 45 rotate 0 0 S10 stroke grestore} bind def
/D11 {gsave translate 45 rotate 0 0 S11 stroke grestore} bind def
/D12 {gsave translate 45 rotate 0 0 S12 stroke grestore} bind def
/D13 {gsave translate 45 rotate 0 0 S13 stroke grestore} bind def
/D14 {gsave translate 45 rotate 0 0 S14 stroke grestore} bind def
/D15 {gsave translate 45 rotate 0 0 S15 stroke grestore} bind def
/DiaE {stroke [] 0 setdash vpt add M
  hpt neg vpt neg V hpt vpt neg V
  hpt vpt V hpt neg vpt V closepath stroke} def
/BoxE {stroke [] 0 setdash exch hpt sub exch vpt add M
  0 vpt2 neg V hpt2 0 V 0 vpt2 V
  hpt2 neg 0 V closepath stroke} def
/TriUE {stroke [] 0 setdash vpt 1.12 mul add M
  hpt neg vpt -1.62 mul V
  hpt 2 mul 0 V
  hpt neg vpt 1.62 mul V closepath stroke} def
/TriDE {stroke [] 0 setdash vpt 1.12 mul sub M
  hpt neg vpt 1.62 mul V
  hpt 2 mul 0 V
  hpt neg vpt -1.62 mul V closepath stroke} def
/PentE {stroke [] 0 setdash gsave
  translate 0 hpt M 4 {72 rotate 0 hpt L} repeat
  closepath stroke grestore} def
/CircE {stroke [] 0 setdash 
  hpt 0 360 arc stroke} def
/Opaque {gsave closepath 1 setgray fill grestore 0 setgray closepath} def
/DiaW {stroke [] 0 setdash vpt add M
  hpt neg vpt neg V hpt vpt neg V
  hpt vpt V hpt neg vpt V Opaque stroke} def
/BoxW {stroke [] 0 setdash exch hpt sub exch vpt add M
  0 vpt2 neg V hpt2 0 V 0 vpt2 V
  hpt2 neg 0 V Opaque stroke} def
/TriUW {stroke [] 0 setdash vpt 1.12 mul add M
  hpt neg vpt -1.62 mul V
  hpt 2 mul 0 V
  hpt neg vpt 1.62 mul V Opaque stroke} def
/TriDW {stroke [] 0 setdash vpt 1.12 mul sub M
  hpt neg vpt 1.62 mul V
  hpt 2 mul 0 V
  hpt neg vpt -1.62 mul V Opaque stroke} def
/PentW {stroke [] 0 setdash gsave
  translate 0 hpt M 4 {72 rotate 0 hpt L} repeat
  Opaque stroke grestore} def
/CircW {stroke [] 0 setdash 
  hpt 0 360 arc Opaque stroke} def
/BoxFill {gsave Rec 1 setgray fill grestore} def
/Density {
  /Fillden exch def
  currentrgbcolor
  /ColB exch def /ColG exch def /ColR exch def
  /ColR ColR Fillden mul Fillden sub 1 add def
  /ColG ColG Fillden mul Fillden sub 1 add def
  /ColB ColB Fillden mul Fillden sub 1 add def
  ColR ColG ColB setrgbcolor} def
/BoxColFill {gsave Rec PolyFill} def
/PolyFill {gsave Density fill grestore grestore} def
/h {rlineto rlineto rlineto gsave closepath fill grestore} bind def
%
% PostScript Level 1 Pattern Fill routine for rectangles
% Usage: x y w h s a XX PatternFill
%	x,y = lower left corner of box to be filled
%	w,h = width and height of box
%	  a = angle in degrees between lines and x-axis
%	 XX = 0/1 for no/yes cross-hatch
%
/PatternFill {gsave /PFa [ 9 2 roll ] def
  PFa 0 get PFa 2 get 2 div add PFa 1 get PFa 3 get 2 div add translate
  PFa 2 get -2 div PFa 3 get -2 div PFa 2 get PFa 3 get Rec
  TransparentPatterns {} {gsave 1 setgray fill grestore} ifelse
  clip
  currentlinewidth 0.5 mul setlinewidth
  /PFs PFa 2 get dup mul PFa 3 get dup mul add sqrt def
  0 0 M PFa 5 get rotate PFs -2 div dup translate
  0 1 PFs PFa 4 get div 1 add floor cvi
	{PFa 4 get mul 0 M 0 PFs V} for
  0 PFa 6 get ne {
	0 1 PFs PFa 4 get div 1 add floor cvi
	{PFa 4 get mul 0 2 1 roll M PFs 0 V} for
 } if
  stroke grestore} def
%
/languagelevel where
 {pop languagelevel} {1} ifelse
dup 2 lt
	{/InterpretLevel1 true def
	 /InterpretLevel3 false def}
	{/InterpretLevel1 Level1 def
	 2 gt
	    {/InterpretLevel3 Level3 def}
	    {/InterpretLevel3 false def}
	 ifelse }
 ifelse
%
% PostScript level 2 pattern fill definitions
%
/Level2PatternFill {
/Tile8x8 {/PaintType 2 /PatternType 1 /TilingType 1 /BBox [0 0 8 8] /XStep 8 /YStep 8}
	bind def
/KeepColor {currentrgbcolor [/Pattern /DeviceRGB] setcolorspace} bind def
<< Tile8x8
 /PaintProc {0.5 setlinewidth pop 0 0 M 8 8 L 0 8 M 8 0 L stroke} 
>> matrix makepattern
/Pat1 exch def
<< Tile8x8
 /PaintProc {0.5 setlinewidth pop 0 0 M 8 8 L 0 8 M 8 0 L stroke
	0 4 M 4 8 L 8 4 L 4 0 L 0 4 L stroke}
>> matrix makepattern
/Pat2 exch def
<< Tile8x8
 /PaintProc {0.5 setlinewidth pop 0 0 M 0 8 L
	8 8 L 8 0 L 0 0 L fill}
>> matrix makepattern
/Pat3 exch def
<< Tile8x8
 /PaintProc {0.5 setlinewidth pop -4 8 M 8 -4 L
	0 12 M 12 0 L stroke}
>> matrix makepattern
/Pat4 exch def
<< Tile8x8
 /PaintProc {0.5 setlinewidth pop -4 0 M 8 12 L
	0 -4 M 12 8 L stroke}
>> matrix makepattern
/Pat5 exch def
<< Tile8x8
 /PaintProc {0.5 setlinewidth pop -2 8 M 4 -4 L
	0 12 M 8 -4 L 4 12 M 10 0 L stroke}
>> matrix makepattern
/Pat6 exch def
<< Tile8x8
 /PaintProc {0.5 setlinewidth pop -2 0 M 4 12 L
	0 -4 M 8 12 L 4 -4 M 10 8 L stroke}
>> matrix makepattern
/Pat7 exch def
<< Tile8x8
 /PaintProc {0.5 setlinewidth pop 8 -2 M -4 4 L
	12 0 M -4 8 L 12 4 M 0 10 L stroke}
>> matrix makepattern
/Pat8 exch def
<< Tile8x8
 /PaintProc {0.5 setlinewidth pop 0 -2 M 12 4 L
	-4 0 M 12 8 L -4 4 M 8 10 L stroke}
>> matrix makepattern
/Pat9 exch def
/Pattern1 {PatternBgnd KeepColor Pat1 setpattern} bind def
/Pattern2 {PatternBgnd KeepColor Pat2 setpattern} bind def
/Pattern3 {PatternBgnd KeepColor Pat3 setpattern} bind def
/Pattern4 {PatternBgnd KeepColor Landscape {Pat5} {Pat4} ifelse setpattern} bind def
/Pattern5 {PatternBgnd KeepColor Landscape {Pat4} {Pat5} ifelse setpattern} bind def
/Pattern6 {PatternBgnd KeepColor Landscape {Pat9} {Pat6} ifelse setpattern} bind def
/Pattern7 {PatternBgnd KeepColor Landscape {Pat8} {Pat7} ifelse setpattern} bind def
} def
%
%
%End of PostScript Level 2 code
%
/PatternBgnd {
  TransparentPatterns {} {gsave 1 setgray fill grestore} ifelse
} def
%
% Substitute for Level 2 pattern fill codes with
% grayscale if Level 2 support is not selected.
%
/Level1PatternFill {
/Pattern1 {0.250 Density} bind def
/Pattern2 {0.500 Density} bind def
/Pattern3 {0.750 Density} bind def
/Pattern4 {0.125 Density} bind def
/Pattern5 {0.375 Density} bind def
/Pattern6 {0.625 Density} bind def
/Pattern7 {0.875 Density} bind def
} def
%
% Now test for support of Level 2 code
%
Level1 {Level1PatternFill} {Level2PatternFill} ifelse
%
/Symbol-Oblique /Symbol findfont [1 0 .167 1 0 0] makefont
dup length dict begin {1 index /FID eq {pop pop} {def} ifelse} forall
currentdict end definefont pop
%
/MFshow {
   { dup 5 get 3 ge
     { 5 get 3 eq {gsave} {grestore} ifelse }
     {dup dup 0 get findfont exch 1 get scalefont setfont
     [ currentpoint ] exch dup 2 get 0 exch R dup 5 get 2 ne {dup dup 6
     get exch 4 get {textshow} {stringwidth pop 0 R} ifelse }if dup 5 get 0 eq
     {dup 3 get {2 get neg 0 exch R pop} {pop aload pop M} ifelse} {dup 5
     get 1 eq {dup 2 get exch dup 3 get exch 6 get stringwidth pop -2 div
     dup 0 R} {dup 6 get stringwidth pop -2 div 0 R 6 get
     textshow 2 index {aload pop M neg 3 -1 roll neg R pop pop} {pop pop pop
     pop aload pop M} ifelse }ifelse }ifelse }
     ifelse }
   forall} def
/Gswidth {dup type /stringtype eq {stringwidth} {pop (n) stringwidth} ifelse} def
/MFwidth {0 exch { dup 5 get 3 ge { 5 get 3 eq { 0 } { pop } ifelse }
 {dup 3 get{dup dup 0 get findfont exch 1 get scalefont setfont
     6 get Gswidth pop add} {pop} ifelse} ifelse} forall} def
/MLshow { currentpoint stroke M
  0 exch R
  Blacktext {gsave 0 setgray MFshow grestore} {MFshow} ifelse } bind def
/MRshow { currentpoint stroke M
  exch dup MFwidth neg 3 -1 roll R
  Blacktext {gsave 0 setgray MFshow grestore} {MFshow} ifelse } bind def
/MCshow { currentpoint stroke M
  exch dup MFwidth -2 div 3 -1 roll R
  Blacktext {gsave 0 setgray MFshow grestore} {MFshow} ifelse } bind def
/XYsave    { [( ) 1 2 true false 3 ()] } bind def
/XYrestore { [( ) 1 2 true false 4 ()] } bind def
Level1 SuppressPDFMark or 
{} {
/SDict 10 dict def
systemdict /pdfmark known not {
  userdict /pdfmark systemdict /cleartomark get put
} if
SDict begin [
  /Title (75UE-download-20Mbps.eps)
  /Subject (gnuplot plot)
  /Creator (gnuplot 5.0 patchlevel 3)
  /Author (nat)
%  /Producer (gnuplot)
%  /Keywords ()
  /CreationDate (Thu Jun  2 09:48:01 2016)
  /DOCINFO pdfmark
end
} ifelse
%
% Support for boxed text - Ethan A Merritt May 2005
%
/InitTextBox { userdict /TBy2 3 -1 roll put userdict /TBx2 3 -1 roll put
           userdict /TBy1 3 -1 roll put userdict /TBx1 3 -1 roll put
	   /Boxing true def } def
/ExtendTextBox { Boxing
    { gsave dup false charpath pathbbox
      dup TBy2 gt {userdict /TBy2 3 -1 roll put} {pop} ifelse
      dup TBx2 gt {userdict /TBx2 3 -1 roll put} {pop} ifelse
      dup TBy1 lt {userdict /TBy1 3 -1 roll put} {pop} ifelse
      dup TBx1 lt {userdict /TBx1 3 -1 roll put} {pop} ifelse
      grestore } if } def
/PopTextBox { newpath TBx1 TBxmargin sub TBy1 TBymargin sub M
               TBx1 TBxmargin sub TBy2 TBymargin add L
	       TBx2 TBxmargin add TBy2 TBymargin add L
	       TBx2 TBxmargin add TBy1 TBymargin sub L closepath } def
/DrawTextBox { PopTextBox stroke /Boxing false def} def
/FillTextBox { gsave PopTextBox 1 1 1 setrgbcolor fill grestore /Boxing false def} def
0 0 0 0 InitTextBox
/TBxmargin 20 def
/TBymargin 20 def
/Boxing false def
/textshow { ExtendTextBox Gshow } def
%
% redundant definitions for compatibility with prologue.ps older than 5.0.2
/LTB {BL [] LCb DL} def
/LTb {PL [] LCb DL} def
end
%%EndProlog
%%Page: 1 1
gnudict begin
gsave
doclip
50 50 translate
0.050 0.050 scale
0 setgray
newpath
(Arial) findfont 200 scalefont setfont
BackgroundColor 0 lt 3 1 roll 0 lt exch 0 lt or or not {BackgroundColor C 1.000 0 0 14400.00 5040.00 BoxColFill} if
1.000 UL
LTb
0.00 0.00 0.00 C 0.500 UL
LTa
0.50 0.50 0.50 C 980 992 M
5859 0 V
stroke
1.000 UL
LTb
0.00 0.00 0.00 C 980 992 M
63 0 V
5796 0 R
-63 0 V
stroke
860 992 M
[ [(Arial) 200.0 0.0 true true 0 ( 50)]
] -66.7 MRshow
1.000 UL
LTb
0.00 0.00 0.00 C 0.500 UL
LTa
0.50 0.50 0.50 C 980 1854 M
5859 0 V
stroke
1.000 UL
LTb
0.00 0.00 0.00 C 980 1854 M
63 0 V
5796 0 R
-63 0 V
stroke
860 1854 M
[ [(Arial) 200.0 0.0 true true 0 ( 100)]
] -66.7 MRshow
1.000 UL
LTb
0.00 0.00 0.00 C 0.500 UL
LTa
0.50 0.50 0.50 C 980 2716 M
5859 0 V
stroke
1.000 UL
LTb
0.00 0.00 0.00 C 980 2716 M
63 0 V
5796 0 R
-63 0 V
stroke
860 2716 M
[ [(Arial) 200.0 0.0 true true 0 ( 150)]
] -66.7 MRshow
1.000 UL
LTb
0.00 0.00 0.00 C 0.500 UL
LTa
0.50 0.50 0.50 C 980 3577 M
5859 0 V
stroke
1.000 UL
LTb
0.00 0.00 0.00 C 980 3577 M
63 0 V
5796 0 R
-63 0 V
stroke
860 3577 M
[ [(Arial) 200.0 0.0 true true 0 ( 200)]
] -66.7 MRshow
1.000 UL
LTb
0.00 0.00 0.00 C 0.500 UL
LTa
0.50 0.50 0.50 C 980 4439 M
5859 0 V
stroke
1.000 UL
LTb
0.00 0.00 0.00 C 980 4439 M
63 0 V
5796 0 R
-63 0 V
stroke
860 4439 M
[ [(Arial) 200.0 0.0 true true 0 ( 250)]
] -66.7 MRshow
1.000 UL
LTb
0.00 0.00 0.00 C 0.500 UL
LTa
0.50 0.50 0.50 C 1273 820 M
0 3619 V
stroke
1.000 UL
LTb
0.00 0.00 0.00 C 1273 820 M
0 63 V
0 3556 R
0 -63 V
stroke
1273 620 M
[ [(Arial) 200.0 0.0 true true 0 (NewReno)]
] -66.7 MCshow
1.000 UL
LTb
0.00 0.00 0.00 C 0.500 UL
LTa
0.50 0.50 0.50 C 2152 820 M
0 3619 V
stroke
1.000 UL
LTb
0.00 0.00 0.00 C 2152 820 M
0 63 V
0 3556 R
0 -63 V
stroke
2152 620 M
[ [(Arial) 200.0 0.0 true true 0 (Cubic)]
] -66.7 MCshow
1.000 UL
LTb
0.00 0.00 0.00 C 0.500 UL
LTa
0.50 0.50 0.50 C 3031 820 M
0 3619 V
stroke
1.000 UL
LTb
0.00 0.00 0.00 C 3031 820 M
0 63 V
0 3556 R
0 -63 V
stroke
3031 620 M
[ [(Arial) 200.0 0.0 true true 0 (HighSpeed)]
] -66.7 MCshow
1.000 UL
LTb
0.00 0.00 0.00 C 0.500 UL
LTa
0.50 0.50 0.50 C 3910 820 M
0 3619 V
stroke
1.000 UL
LTb
0.00 0.00 0.00 C 3910 820 M
0 63 V
0 3556 R
0 -63 V
stroke
3910 620 M
[ [(Arial) 200.0 0.0 true true 0 (Westwood)]
] -66.7 MCshow
1.000 UL
LTb
0.00 0.00 0.00 C 0.500 UL
LTa
0.50 0.50 0.50 C 4788 820 M
0 3619 V
stroke
1.000 UL
LTb
0.00 0.00 0.00 C 4788 820 M
0 63 V
0 3556 R
0 -63 V
stroke
4788 620 M
[ [(Arial) 200.0 0.0 true true 0 (Hybla)]
] -66.7 MCshow
1.000 UL
LTb
0.00 0.00 0.00 C 0.500 UL
LTa
0.50 0.50 0.50 C 5667 820 M
0 3619 V
stroke
1.000 UL
LTb
0.00 0.00 0.00 C 5667 820 M
0 63 V
0 3556 R
0 -63 V
stroke
5667 620 M
[ [(Arial) 200.0 0.0 true true 0 (Vegas)]
] -66.7 MCshow
1.000 UL
LTb
0.00 0.00 0.00 C 0.500 UL
LTa
0.50 0.50 0.50 C 6546 820 M
0 3619 V
stroke
1.000 UL
LTb
0.00 0.00 0.00 C 6546 820 M
0 63 V
0 3556 R
0 -63 V
stroke
6546 620 M
[ [(Arial) 200.0 0.0 true true 0 (Scalable)]
] -66.7 MCshow
1.000 UL
LTb
0.00 0.00 0.00 C 1.000 UL
LTB
0.00 0.00 0.00 C 980 4439 M
980 820 L
5859 0 V
0 3619 R
-5859 0 R
1.000 UP
stroke
LTb
0.00 0.00 0.00 C LCb setrgbcolor
160 2629 M
currentpoint gsave translate -270 rotate 0 0 moveto
[ [(Arial) 200.0 0.0 true true 0 (RTT \(ms\))]
] -66.7 MCshow
grestore
LTb
LCb setrgbcolor
3909 320 M
[ [(Arial) 200.0 0.0 true true 0 (TCP)]
] -66.7 MCshow
LTb
LCb setrgbcolor
3909 4739 M
[ [(Arial) 200.0 0.0 true true 0 (a\) RTT)]
] -66.7 MCshow
% Begin plot #1
1.000 UL
LTb
0.60 0.60 0.00 C LCb setrgbcolor
2654 153 M
[ [(Arial) 180.0 0.0 true true 0 (olsr)]
] -60.0 MRshow
1.000 UL
LTb
0.60 0.60 0.00 C 2762 108 333 90 80 -45 0 PatternFill
2762 108 N
333 0 V
0 90 V
-333 0 V
0 -90 V
Z stroke
1.000 UL
LTb
0.60 0.60 0.00 C 1068 974 118 220 80 -45 0 PatternFill
1127 937 M
0 37 V
0 220 R
0 665 V
stroke
1068 974 N
118 0 V
0 220 V
-118 0 V
0 -220 V
Z stroke
1068 1859 M
118 0 V
1068 937 M
118 0 V
stroke
1947 972 118 305 80 -45 0 PatternFill
2006 938 M
0 34 V
0 305 R
0 711 V
stroke
1947 972 N
118 0 V
0 305 V
-118 0 V
0 -305 V
Z stroke
1947 1988 M
118 0 V
1947 938 M
118 0 V
stroke
2826 994 118 492 80 -45 0 PatternFill
2885 947 M
0 47 V
0 492 R
0 883 V
stroke
2826 994 N
118 0 V
0 492 V
-118 0 V
0 -492 V
Z stroke
2826 2369 M
118 0 V
2826 947 M
118 0 V
stroke
3704 970 118 233 80 -45 0 PatternFill
3763 937 M
0 33 V
0 233 R
0 621 V
stroke
3704 970 N
118 0 V
0 233 V
-118 0 V
0 -233 V
Z stroke
3704 1824 M
118 0 V
3704 937 M
118 0 V
stroke
4583 984 118 402 80 -45 0 PatternFill
4642 946 M
0 38 V
0 402 R
0 877 V
stroke
4583 984 N
118 0 V
0 402 V
-118 0 V
0 -402 V
Z stroke
4583 2263 M
118 0 V
4583 946 M
118 0 V
stroke
5462 1011 118 171 80 -45 0 PatternFill
5521 962 M
0 49 V
0 171 R
0 225 V
stroke
5462 1011 N
118 0 V
0 171 V
-118 0 V
0 -171 V
Z stroke
5462 1407 M
118 0 V
5462 962 M
118 0 V
stroke
6341 989 118 480 80 -45 0 PatternFill
6400 945 M
0 44 V
0 480 R
0 832 V
stroke
6341 989 N
118 0 V
0 480 V
-118 0 V
0 -480 V
Z stroke
6341 2301 M
118 0 V
6341 945 M
118 0 V
% End plot #1
% Begin plot #2
stroke
LTb
LCb setrgbcolor

 /TransparentPatterns true def
1068 1149 118 0 40 30 0 PatternFill
1127 1149 M
stroke
1068 1149 N
118 0 V
-118 0 V
Z stroke
1068 1149 M
118 0 V
-118 0 R
118 0 V
stroke

 /TransparentPatterns true def
1947 1180 118 0 40 30 0 PatternFill
2006 1180 M
stroke
1947 1180 N
118 0 V
-118 0 V
Z stroke
1947 1180 M
118 0 V
-118 0 R
118 0 V
stroke

 /TransparentPatterns true def
2826 1292 118 0 40 30 0 PatternFill
2885 1292 M
stroke
2826 1292 N
118 0 V
-118 0 V
Z stroke
2826 1292 M
118 0 V
-118 0 R
118 0 V
stroke

 /TransparentPatterns true def
3704 1142 118 0 40 30 0 PatternFill
3763 1142 M
stroke
3704 1142 N
118 0 V
-118 0 V
Z stroke
3704 1142 M
118 0 V
-118 0 R
118 0 V
stroke

 /TransparentPatterns true def
4583 1250 118 0 40 30 0 PatternFill
4642 1250 M
stroke
4583 1250 N
118 0 V
-118 0 V
Z stroke
4583 1250 M
118 0 V
-118 0 R
118 0 V
stroke

 /TransparentPatterns true def
5462 1124 118 0 40 30 0 PatternFill
5521 1124 M
stroke
5462 1124 N
118 0 V
-118 0 V
Z stroke
5462 1124 M
118 0 V
-118 0 R
118 0 V
stroke

 /TransparentPatterns true def
6341 1278 118 0 40 30 0 PatternFill
6400 1278 M
stroke
6341 1278 N
118 0 V
-118 0 V
Z stroke
6341 1278 M
118 0 V
-118 0 R
118 0 V
% End plot #2
% Begin plot #3
stroke
LTb
0.00 0.00 0.63 C LCb setrgbcolor
4067 153 M
[ [(Arial) 180.0 0.0 true true 0 (per-packet)]
] -60.0 MRshow
1.000 UL
LTb
0.00 0.00 0.63 C 4175 108 333 90 80 45 0 PatternFill
4175 108 N
333 0 V
0 90 V
-333 0 V
0 -90 V
Z stroke
1.000 UL
LTb
0.00 0.00 0.63 C 1214 983 118 389 80 45 0 PatternFill
1273 940 M
0 43 V
0 389 R
0 666 V
stroke
1214 983 N
118 0 V
0 389 V
-118 0 V
0 -389 V
Z stroke
1214 2038 M
118 0 V
1214 940 M
118 0 V
stroke
2093 1000 118 690 80 45 0 PatternFill
2152 946 M
0 54 V
0 690 R
0 620 V
stroke
2093 1000 N
118 0 V
0 690 V
-118 0 V
0 -690 V
Z stroke
2093 2310 M
118 0 V
2093 946 M
118 0 V
stroke
2972 987 118 618 80 45 0 PatternFill
3031 940 M
0 47 V
0 618 R
0 596 V
stroke
2972 987 N
118 0 V
0 618 V
-118 0 V
0 -618 V
Z stroke
2972 2201 M
118 0 V
2972 940 M
118 0 V
stroke
3851 982 118 293 80 45 0 PatternFill
3910 942 M
0 40 V
0 293 R
0 656 V
stroke
3851 982 N
118 0 V
0 293 V
-118 0 V
0 -293 V
Z stroke
3851 1931 M
118 0 V
3851 942 M
118 0 V
stroke
4730 991 118 509 80 45 0 PatternFill
4789 939 M
0 52 V
0 509 R
0 652 V
stroke
4730 991 N
118 0 V
0 509 V
-118 0 V
0 -509 V
Z stroke
4730 2152 M
118 0 V
4730 939 M
118 0 V
stroke
5609 1008 118 164 80 45 0 PatternFill
5668 963 M
0 45 V
0 164 R
0 181 V
stroke
5609 1008 N
118 0 V
0 164 V
-118 0 V
0 -164 V
Z stroke
5609 1353 M
118 0 V
5609 963 M
118 0 V
stroke
6487 1015 118 688 80 45 0 PatternFill
6546 956 M
0 59 V
0 688 R
0 670 V
stroke
6487 1015 N
118 0 V
0 688 V
-118 0 V
0 -688 V
Z stroke
6487 2373 M
118 0 V
6487 956 M
118 0 V
% End plot #3
% Begin plot #4
stroke
LTb
LCb setrgbcolor

 /TransparentPatterns true def
1214 1210 118 0 80 -45 0 PatternFill
1273 1210 M
stroke
1214 1210 N
118 0 V
-118 0 V
Z stroke
1214 1210 M
118 0 V
-118 0 R
118 0 V
stroke

 /TransparentPatterns true def
2093 1363 118 0 80 -45 0 PatternFill
2152 1363 M
stroke
2093 1363 N
118 0 V
-118 0 V
Z stroke
2093 1363 M
118 0 V
-118 0 R
118 0 V
stroke

 /TransparentPatterns true def
2972 1296 118 0 80 -45 0 PatternFill
3031 1296 M
stroke
2972 1296 N
118 0 V
-118 0 V
Z stroke
2972 1296 M
118 0 V
-118 0 R
118 0 V
stroke

 /TransparentPatterns true def
3851 1174 118 0 80 -45 0 PatternFill
3910 1174 M
stroke
3851 1174 N
118 0 V
-118 0 V
Z stroke
3851 1174 M
118 0 V
-118 0 R
118 0 V
stroke

 /TransparentPatterns true def
4730 1265 118 0 80 -45 0 PatternFill
4789 1265 M
stroke
4730 1265 N
118 0 V
-118 0 V
Z stroke
4730 1265 M
118 0 V
-118 0 R
118 0 V
stroke

 /TransparentPatterns true def
5609 1106 118 0 80 -45 0 PatternFill
5668 1106 M
stroke
5609 1106 N
118 0 V
-118 0 V
Z stroke
5609 1106 M
118 0 V
-118 0 R
118 0 V
stroke

 /TransparentPatterns true def
6487 1392 118 0 80 -45 0 PatternFill
6546 1392 M
stroke
6487 1392 N
118 0 V
-118 0 V
Z stroke
6487 1392 M
118 0 V
-118 0 R
118 0 V
% End plot #4
% Begin plot #5
stroke
LTb
0.00 0.38 0.82 C LCb setrgbcolor
5480 153 M
[ [(Arial) 180.0 0.0 true true 0 (per-flow)]
] -60.0 MRshow
1.000 UL
LTb
0.00 0.38 0.82 C 5588 108 333 90 40 30 0 PatternFill
5588 108 N
333 0 V
0 90 V
-333 0 V
0 -90 V
Z stroke
1.000 UL
LTb
0.00 0.38 0.82 C 1361 990 118 616 40 30 0 PatternFill
1420 942 M
0 48 V
0 616 R
0 1179 V
stroke
1361 990 N
118 0 V
0 616 V
-118 0 V
0 -616 V
Z stroke
1361 2785 M
118 0 V
1361 942 M
118 0 V
stroke
2240 1030 118 1047 40 30 0 PatternFill
2299 965 M
0 65 V
0 1047 R
0 1246 V
stroke
2240 1030 N
118 0 V
0 1047 V
-118 0 V
0 -1047 V
Z stroke
2240 3323 M
118 0 V
2240 965 M
118 0 V
stroke
3119 1033 118 1118 40 30 0 PatternFill
3178 959 M
0 74 V
0 1118 R
0 1215 V
stroke
3119 1033 N
118 0 V
0 1118 V
-118 0 V
0 -1118 V
Z stroke
3119 3366 M
118 0 V
3119 959 M
118 0 V
stroke
3997 982 118 434 40 30 0 PatternFill
4056 941 M
0 41 V
0 434 R
0 1275 V
stroke
3997 982 N
118 0 V
0 434 V
-118 0 V
0 -434 V
Z stroke
3997 2691 M
118 0 V
3997 941 M
118 0 V
stroke
4876 1035 118 1035 40 30 0 PatternFill
4935 967 M
0 68 V
0 1035 R
0 1220 V
stroke
4876 1035 N
118 0 V
0 1035 V
-118 0 V
0 -1035 V
Z stroke
4876 3290 M
118 0 V
4876 967 M
118 0 V
stroke
5755 1024 118 186 40 30 0 PatternFill
5814 970 M
0 54 V
0 186 R
0 200 V
stroke
5755 1024 N
118 0 V
0 186 V
-118 0 V
0 -186 V
Z stroke
5755 1410 M
118 0 V
5755 970 M
118 0 V
stroke
6634 1098 118 1323 40 30 0 PatternFill
6693 992 M
0 106 V
0 1323 R
0 1115 V
stroke
6634 1098 N
118 0 V
0 1323 V
-118 0 V
0 -1323 V
Z stroke
6634 3536 M
118 0 V
6634 992 M
118 0 V
% End plot #5
% Begin plot #6
stroke
LTb
LCb setrgbcolor

 /TransparentPatterns true def
1361 1361 118 0 40 -30 0 PatternFill
1420 1361 M
stroke
1361 1361 N
118 0 V
-118 0 V
Z stroke
1361 1361 M
118 0 V
-118 0 R
118 0 V
stroke

 /TransparentPatterns true def
2240 1611 118 0 40 -30 0 PatternFill
2299 1611 M
stroke
2240 1611 N
118 0 V
-118 0 V
Z stroke
2240 1611 M
118 0 V
-118 0 R
118 0 V
stroke

 /TransparentPatterns true def
3119 1619 118 0 40 -30 0 PatternFill
3178 1619 M
stroke
3119 1619 N
118 0 V
-118 0 V
Z stroke
3119 1619 M
118 0 V
-118 0 R
118 0 V
stroke

 /TransparentPatterns true def
3997 1294 118 0 40 -30 0 PatternFill
4056 1294 M
stroke
3997 1294 N
118 0 V
-118 0 V
Z stroke
3997 1294 M
118 0 V
-118 0 R
118 0 V
stroke

 /TransparentPatterns true def
4876 1592 118 0 40 -30 0 PatternFill
4935 1592 M
stroke
4876 1592 N
118 0 V
-118 0 V
Z stroke
4876 1592 M
118 0 V
-118 0 R
118 0 V
stroke

 /TransparentPatterns true def
5755 1136 118 0 40 -30 0 PatternFill
5814 1136 M
stroke
5755 1136 N
118 0 V
-118 0 V
Z stroke
5755 1136 M
118 0 V
-118 0 R
118 0 V
stroke

 /TransparentPatterns true def
6634 1788 118 0 40 -30 0 PatternFill
6693 1788 M
stroke
6634 1788 N
118 0 V
-118 0 V
Z stroke
6634 1788 M
118 0 V
-118 0 R
118 0 V
% End plot #6
stroke
2.000 UL
LTb
LCb setrgbcolor
1.000 UP
1.000 UL
LTb
0.00 0.00 0.00 C 1.000 UL
LTb
0.00 0.00 0.00 C 0.500 UL
LTa
0.50 0.50 0.50 C 8180 820 M
5859 0 V
stroke
1.000 UL
LTb
0.00 0.00 0.00 C 8180 820 M
63 0 V
5796 0 R
-63 0 V
stroke
8060 820 M
[ [(Arial) 200.0 0.0 true true 0 ( 0)]
] -66.7 MRshow
1.000 UL
LTb
0.00 0.00 0.00 C 0.500 UL
LTa
0.50 0.50 0.50 C 8180 1423 M
5859 0 V
stroke
1.000 UL
LTb
0.00 0.00 0.00 C 8180 1423 M
63 0 V
5796 0 R
-63 0 V
stroke
8060 1423 M
[ [(Arial) 200.0 0.0 true true 0 ( 20)]
] -66.7 MRshow
1.000 UL
LTb
0.00 0.00 0.00 C 0.500 UL
LTa
0.50 0.50 0.50 C 8180 2026 M
5859 0 V
stroke
1.000 UL
LTb
0.00 0.00 0.00 C 8180 2026 M
63 0 V
5796 0 R
-63 0 V
stroke
8060 2026 M
[ [(Arial) 200.0 0.0 true true 0 ( 40)]
] -66.7 MRshow
1.000 UL
LTb
0.00 0.00 0.00 C 0.500 UL
LTa
0.50 0.50 0.50 C 8180 2630 M
5859 0 V
stroke
1.000 UL
LTb
0.00 0.00 0.00 C 8180 2630 M
63 0 V
5796 0 R
-63 0 V
stroke
8060 2630 M
[ [(Arial) 200.0 0.0 true true 0 ( 60)]
] -66.7 MRshow
1.000 UL
LTb
0.00 0.00 0.00 C 0.500 UL
LTa
0.50 0.50 0.50 C 8180 3233 M
5859 0 V
stroke
1.000 UL
LTb
0.00 0.00 0.00 C 8180 3233 M
63 0 V
5796 0 R
-63 0 V
stroke
8060 3233 M
[ [(Arial) 200.0 0.0 true true 0 ( 80)]
] -66.7 MRshow
1.000 UL
LTb
0.00 0.00 0.00 C 0.500 UL
LTa
0.50 0.50 0.50 C 8180 3836 M
5859 0 V
stroke
1.000 UL
LTb
0.00 0.00 0.00 C 8180 3836 M
63 0 V
5796 0 R
-63 0 V
stroke
8060 3836 M
[ [(Arial) 200.0 0.0 true true 0 ( 100)]
] -66.7 MRshow
1.000 UL
LTb
0.00 0.00 0.00 C 0.500 UL
LTa
0.50 0.50 0.50 C 8180 4439 M
5859 0 V
stroke
1.000 UL
LTb
0.00 0.00 0.00 C 8180 4439 M
63 0 V
5796 0 R
-63 0 V
stroke
8060 4439 M
[ [(Arial) 200.0 0.0 true true 0 ( 120)]
] -66.7 MRshow
1.000 UL
LTb
0.00 0.00 0.00 C 0.500 UL
LTa
0.50 0.50 0.50 C 8473 820 M
0 3619 V
stroke
1.000 UL
LTb
0.00 0.00 0.00 C 8473 820 M
0 63 V
0 3556 R
0 -63 V
stroke
8473 620 M
[ [(Arial) 200.0 0.0 true true 0 (NewReno)]
] -66.7 MCshow
1.000 UL
LTb
0.00 0.00 0.00 C 0.500 UL
LTa
0.50 0.50 0.50 C 9352 820 M
0 3619 V
stroke
1.000 UL
LTb
0.00 0.00 0.00 C 9352 820 M
0 63 V
0 3556 R
0 -63 V
stroke
9352 620 M
[ [(Arial) 200.0 0.0 true true 0 (Cubic)]
] -66.7 MCshow
1.000 UL
LTb
0.00 0.00 0.00 C 0.500 UL
LTa
0.50 0.50 0.50 C 10231 820 M
0 3619 V
stroke
1.000 UL
LTb
0.00 0.00 0.00 C 10231 820 M
0 63 V
0 3556 R
0 -63 V
stroke
10231 620 M
[ [(Arial) 200.0 0.0 true true 0 (HighSpeed)]
] -66.7 MCshow
1.000 UL
LTb
0.00 0.00 0.00 C 0.500 UL
LTa
0.50 0.50 0.50 C 11110 820 M
0 3619 V
stroke
1.000 UL
LTb
0.00 0.00 0.00 C 11110 820 M
0 63 V
0 3556 R
0 -63 V
stroke
11110 620 M
[ [(Arial) 200.0 0.0 true true 0 (Westwood)]
] -66.7 MCshow
1.000 UL
LTb
0.00 0.00 0.00 C 0.500 UL
LTa
0.50 0.50 0.50 C 11988 820 M
0 3619 V
stroke
1.000 UL
LTb
0.00 0.00 0.00 C 11988 820 M
0 63 V
0 3556 R
0 -63 V
stroke
11988 620 M
[ [(Arial) 200.0 0.0 true true 0 (Hybla)]
] -66.7 MCshow
1.000 UL
LTb
0.00 0.00 0.00 C 0.500 UL
LTa
0.50 0.50 0.50 C 12867 820 M
0 3619 V
stroke
1.000 UL
LTb
0.00 0.00 0.00 C 12867 820 M
0 63 V
0 3556 R
0 -63 V
stroke
12867 620 M
[ [(Arial) 200.0 0.0 true true 0 (Vegas)]
] -66.7 MCshow
1.000 UL
LTb
0.00 0.00 0.00 C 0.500 UL
LTa
0.50 0.50 0.50 C 13746 820 M
0 3619 V
stroke
1.000 UL
LTb
0.00 0.00 0.00 C 13746 820 M
0 63 V
0 3556 R
0 -63 V
stroke
13746 620 M
[ [(Arial) 200.0 0.0 true true 0 (Scalable)]
] -66.7 MCshow
1.000 UL
LTb
0.00 0.00 0.00 C 1.000 UL
LTB
0.00 0.00 0.00 C 8180 4439 M
0 -3619 V
5859 0 V
0 3619 R
-5859 0 R
1.000 UP
stroke
LTb
0.00 0.00 0.00 C LCb setrgbcolor
7360 2629 M
currentpoint gsave translate -270 rotate 0 0 moveto
[ [(Arial) 200.0 0.0 true true 0 (File download time \(s\))]
] -66.7 MCshow
grestore
LTb
LCb setrgbcolor
11109 320 M
[ [(Arial) 200.0 0.0 true true 0 (TCP)]
] -66.7 MCshow
LTb
LCb setrgbcolor
11109 4739 M
[ [(Arial) 200.0 0.0 true true 0 (b\) File download time)]
] -66.7 MCshow
% Begin plot #1
1.000 UL
LTb
0.60 0.60 0.00 C LCb setrgbcolor
9854 153 M
[ [(Arial) 180.0 0.0 true true 0 (olsr)]
] -60.0 MRshow
1.000 UL
LTb
0.60 0.60 0.00 C 9962 108 333 90 80 -45 0 PatternFill
9962 108 N
333 0 V
0 90 V
-333 0 V
0 -90 V
Z stroke
1.000 UL
LTb
0.60 0.60 0.00 C 8268 1287 118 407 80 -45 0 PatternFill
8327 929 M
0 358 V
0 407 R
0 559 V
stroke
8268 1287 N
118 0 V
0 407 V
-118 0 V
0 -407 V
Z stroke
8268 2253 M
118 0 V
8268 929 M
118 0 V
stroke
9147 1295 118 503 80 -45 0 PatternFill
9206 910 M
0 385 V
0 503 R
0 722 V
stroke
9147 1295 N
118 0 V
0 503 V
-118 0 V
0 -503 V
Z stroke
9147 2520 M
118 0 V
9147 910 M
118 0 V
stroke
10026 1205 118 411 80 -45 0 PatternFill
10085 908 M
0 297 V
0 411 R
0 296 V
stroke
10026 1205 N
118 0 V
0 411 V
-118 0 V
0 -411 V
Z stroke
10026 1912 M
118 0 V
10026 908 M
118 0 V
stroke
10904 1390 118 501 80 -45 0 PatternFill
10963 1012 M
0 378 V
0 501 R
0 1151 V
stroke
10904 1390 N
118 0 V
0 501 V
-118 0 V
0 -501 V
Z stroke
10904 3042 M
118 0 V
10904 1012 M
118 0 V
stroke
11783 1228 118 369 80 -45 0 PatternFill
11842 909 M
0 319 V
0 369 R
0 278 V
stroke
11783 1228 N
118 0 V
0 369 V
-118 0 V
0 -369 V
Z stroke
11783 1875 M
118 0 V
11783 909 M
118 0 V
stroke
12662 1519 118 986 80 -45 0 PatternFill
12721 907 M
0 612 V
0 986 R
0 599 V
stroke
12662 1519 N
118 0 V
0 986 V
-118 0 V
0 -986 V
Z stroke
12662 3104 M
118 0 V
12662 907 M
118 0 V
stroke
13541 1177 118 378 80 -45 0 PatternFill
13600 910 M
0 267 V
0 378 R
0 282 V
stroke
13541 1177 N
118 0 V
0 378 V
-118 0 V
0 -378 V
Z stroke
13541 1837 M
118 0 V
13541 910 M
118 0 V
% End plot #1
% Begin plot #2
stroke
LTb
LCb setrgbcolor

 /TransparentPatterns true def
8268 1480 118 0 40 30 0 PatternFill
8327 1480 M
stroke
8268 1480 N
118 0 V
-118 0 V
Z stroke
8268 1480 M
118 0 V
-118 0 R
118 0 V
stroke

 /TransparentPatterns true def
9147 1530 118 0 40 30 0 PatternFill
9206 1530 M
stroke
9147 1530 N
118 0 V
-118 0 V
Z stroke
9147 1530 M
118 0 V
-118 0 R
118 0 V
stroke

 /TransparentPatterns true def
10026 1414 118 0 40 30 0 PatternFill
10085 1414 M
stroke
10026 1414 N
118 0 V
-118 0 V
Z stroke
10026 1414 M
118 0 V
-118 0 R
118 0 V
stroke

 /TransparentPatterns true def
10904 1645 118 0 40 30 0 PatternFill
10963 1645 M
stroke
10904 1645 N
118 0 V
-118 0 V
Z stroke
10904 1645 M
118 0 V
-118 0 R
118 0 V
stroke

 /TransparentPatterns true def
11783 1410 118 0 40 30 0 PatternFill
11842 1410 M
stroke
11783 1410 N
118 0 V
-118 0 V
Z stroke
11783 1410 M
118 0 V
-118 0 R
118 0 V
stroke

 /TransparentPatterns true def
12662 2035 118 0 40 30 0 PatternFill
12721 2035 M
stroke
12662 2035 N
118 0 V
-118 0 V
Z stroke
12662 2035 M
118 0 V
-118 0 R
118 0 V
stroke

 /TransparentPatterns true def
13541 1365 118 0 40 30 0 PatternFill
13600 1365 M
stroke
13541 1365 N
118 0 V
-118 0 V
Z stroke
13541 1365 M
118 0 V
-118 0 R
118 0 V
% End plot #2
% Begin plot #3
stroke
LTb
0.00 0.00 0.63 C LCb setrgbcolor
11267 153 M
[ [(Arial) 180.0 0.0 true true 0 (per-packet)]
] -60.0 MRshow
1.000 UL
LTb
0.00 0.00 0.63 C 11375 108 333 90 80 45 0 PatternFill
11375 108 N
333 0 V
0 90 V
-333 0 V
0 -90 V
Z stroke
1.000 UL
LTb
0.00 0.00 0.63 C 8414 1007 118 2232 80 45 0 PatternFill
8473 916 M
0 91 V
0 2232 R
0 497 V
stroke
8414 1007 N
118 0 V
0 2232 V
-118 0 V
0 -2232 V
Z stroke
8414 3736 M
118 0 V
8414 916 M
118 0 V
stroke
9293 954 118 2129 80 45 0 PatternFill
9352 893 M
0 61 V
0 2129 R
0 868 V
stroke
9293 954 N
118 0 V
0 2129 V
-118 0 V
0 -2129 V
Z stroke
9293 3951 M
118 0 V
9293 893 M
118 0 V
stroke
10172 962 118 1733 80 45 0 PatternFill
10231 898 M
0 64 V
0 1733 R
0 612 V
stroke
10172 962 N
118 0 V
0 1733 V
-118 0 V
0 -1733 V
Z stroke
10172 3307 M
118 0 V
10172 898 M
118 0 V
stroke
11051 1207 118 2126 80 45 0 PatternFill
11110 1020 M
0 187 V
0 2126 R
0 598 V
stroke
11051 1207 N
118 0 V
0 2126 V
-118 0 V
0 -2126 V
Z stroke
11051 3931 M
118 0 V
11051 1020 M
118 0 V
stroke
11930 979 118 1690 80 45 0 PatternFill
11989 911 M
0 68 V
0 1690 R
0 611 V
stroke
11930 979 N
118 0 V
0 1690 V
-118 0 V
0 -1690 V
Z stroke
11930 3280 M
118 0 V
11930 911 M
118 0 V
stroke
12809 1710 118 1081 80 45 0 PatternFill
12868 997 M
0 713 V
0 1081 R
0 709 V
stroke
12809 1710 N
118 0 V
0 1081 V
-118 0 V
0 -1081 V
Z stroke
12809 3500 M
118 0 V
12809 997 M
118 0 V
stroke
13687 961 118 1335 80 45 0 PatternFill
13746 892 M
0 69 V
0 1335 R
0 634 V
stroke
13687 961 N
118 0 V
0 1335 V
-118 0 V
0 -1335 V
Z stroke
13687 2930 M
118 0 V
13687 892 M
118 0 V
% End plot #3
% Begin plot #4
stroke
LTb
LCb setrgbcolor

 /TransparentPatterns true def
8414 1874 118 0 80 -45 0 PatternFill
8473 1874 M
stroke
8414 1874 N
118 0 V
-118 0 V
Z stroke
8414 1874 M
118 0 V
-118 0 R
118 0 V
stroke

 /TransparentPatterns true def
9293 1834 118 0 80 -45 0 PatternFill
9352 1834 M
stroke
9293 1834 N
118 0 V
-118 0 V
Z stroke
9293 1834 M
118 0 V
-118 0 R
118 0 V
stroke

 /TransparentPatterns true def
10172 1629 118 0 80 -45 0 PatternFill
10231 1629 M
stroke
10172 1629 N
118 0 V
-118 0 V
Z stroke
10172 1629 M
118 0 V
-118 0 R
118 0 V
stroke

 /TransparentPatterns true def
11051 2029 118 0 80 -45 0 PatternFill
11110 2029 M
stroke
11051 2029 N
118 0 V
-118 0 V
Z stroke
11051 2029 M
118 0 V
-118 0 R
118 0 V
stroke

 /TransparentPatterns true def
11930 1648 118 0 80 -45 0 PatternFill
11989 1648 M
stroke
11930 1648 N
118 0 V
-118 0 V
Z stroke
11930 1648 M
118 0 V
-118 0 R
118 0 V
stroke

 /TransparentPatterns true def
12809 2245 118 0 80 -45 0 PatternFill
12868 2245 M
stroke
12809 2245 N
118 0 V
-118 0 V
Z stroke
12809 2245 M
118 0 V
-118 0 R
118 0 V
stroke

 /TransparentPatterns true def
13687 1500 118 0 80 -45 0 PatternFill
13746 1500 M
stroke
13687 1500 N
118 0 V
-118 0 V
Z stroke
13687 1500 M
118 0 V
-118 0 R
118 0 V
% End plot #4
% Begin plot #5
stroke
LTb
0.00 0.38 0.82 C LCb setrgbcolor
12680 153 M
[ [(Arial) 180.0 0.0 true true 0 (per-flow)]
] -60.0 MRshow
1.000 UL
LTb
0.00 0.38 0.82 C 12788 108 333 90 40 30 0 PatternFill
12788 108 N
333 0 V
0 90 V
-333 0 V
0 -90 V
Z stroke
1.000 UL
LTb
0.00 0.38 0.82 C 8561 1013 118 387 40 30 0 PatternFill
8620 924 M
0 89 V
0 387 R
0 974 V
stroke
8561 1013 N
118 0 V
0 387 V
-118 0 V
0 -387 V
Z stroke
8561 2374 M
118 0 V
8561 924 M
118 0 V
stroke
9440 956 118 310 40 30 0 PatternFill
9499 904 M
0 52 V
0 310 R
0 1916 V
stroke
9440 956 N
118 0 V
0 310 V
-118 0 V
0 -310 V
Z stroke
9440 3182 M
118 0 V
9440 904 M
118 0 V
stroke
10319 969 118 197 40 30 0 PatternFill
10378 894 M
0 75 V
0 197 R
0 667 V
stroke
10319 969 N
118 0 V
0 197 V
-118 0 V
0 -197 V
Z stroke
10319 1833 M
118 0 V
10319 894 M
118 0 V
stroke
11197 1240 118 342 40 30 0 PatternFill
11256 1031 M
0 209 V
0 342 R
0 1274 V
stroke
11197 1240 N
118 0 V
0 342 V
-118 0 V
0 -342 V
Z stroke
11197 2856 M
118 0 V
11197 1031 M
118 0 V
stroke
12076 995 118 203 40 30 0 PatternFill
12135 926 M
0 69 V
0 203 R
0 517 V
stroke
12076 995 N
118 0 V
0 203 V
-118 0 V
0 -203 V
Z stroke
12076 1715 M
118 0 V
12076 926 M
118 0 V
stroke
12955 1569 118 860 40 30 0 PatternFill
13014 927 M
0 642 V
0 860 R
0 609 V
stroke
12955 1569 N
118 0 V
0 860 V
-118 0 V
0 -860 V
Z stroke
12955 3038 M
118 0 V
12955 927 M
118 0 V
stroke
13834 951 118 209 40 30 0 PatternFill
13893 908 M
0 43 V
0 209 R
0 375 V
stroke
13834 951 N
118 0 V
0 209 V
-118 0 V
0 -209 V
Z stroke
13834 1535 M
118 0 V
13834 908 M
118 0 V
% End plot #5
% Begin plot #6
stroke
LTb
LCb setrgbcolor

 /TransparentPatterns true def
8561 1233 118 0 40 -30 0 PatternFill
8620 1233 M
stroke
8561 1233 N
118 0 V
-118 0 V
Z stroke
8561 1233 M
118 0 V
-118 0 R
118 0 V
stroke

 /TransparentPatterns true def
9440 1157 118 0 40 -30 0 PatternFill
9499 1157 M
stroke
9440 1157 N
118 0 V
-118 0 V
Z stroke
9440 1157 M
118 0 V
-118 0 R
118 0 V
stroke

 /TransparentPatterns true def
10319 1092 118 0 40 -30 0 PatternFill
10378 1092 M
stroke
10319 1092 N
118 0 V
-118 0 V
Z stroke
10319 1092 M
118 0 V
-118 0 R
118 0 V
stroke

 /TransparentPatterns true def
11197 1433 118 0 40 -30 0 PatternFill
11256 1433 M
stroke
11197 1433 N
118 0 V
-118 0 V
Z stroke
11197 1433 M
118 0 V
-118 0 R
118 0 V
stroke

 /TransparentPatterns true def
12076 1116 118 0 40 -30 0 PatternFill
12135 1116 M
stroke
12076 1116 N
118 0 V
-118 0 V
Z stroke
12076 1116 M
118 0 V
-118 0 R
118 0 V
stroke

 /TransparentPatterns true def
12955 2011 118 0 40 -30 0 PatternFill
13014 2011 M
stroke
12955 2011 N
118 0 V
-118 0 V
Z stroke
12955 2011 M
118 0 V
-118 0 R
118 0 V
stroke

 /TransparentPatterns true def
13834 1063 118 0 40 -30 0 PatternFill
13893 1063 M
stroke
13834 1063 N
118 0 V
-118 0 V
Z stroke
13834 1063 M
118 0 V
-118 0 R
118 0 V
% End plot #6
stroke
2.000 UL
LTb
LCb setrgbcolor
1.000 UP
1.000 UL
LTb
0.00 0.00 0.00 C stroke
grestore
end
showpage
%%Trailer
%%DocumentFonts: Arial
