%!PS-Adobe-2.0 EPSF-2.0
%%Title: TcpCubic-download-finishtime-75UE-panoramic.eps
%%Creator: gnuplot 5.0 patchlevel 3
%%CreationDate: Tue Jun  7 16:10:53 2016
%%DocumentFonts: (atend)
%%BoundingBox: 50 50 770 302
%%EndComments
%%BeginProlog
/gnudict 256 dict def
gnudict begin
%
% The following true/false flags may be edited by hand if desired.
% The unit line width and grayscale image gamma correction may also be changed.
%
/Color true def
/Blacktext false def
/Solid false def
/Dashlength 3 def
/Landscape false def
/Level1 false def
/Level3 false def
/Rounded false def
/ClipToBoundingBox false def
/SuppressPDFMark false def
/TransparentPatterns false def
/gnulinewidth 15.000 def
/userlinewidth gnulinewidth def
/Gamma 1.0 def
/BackgroundColor {-1.000 -1.000 -1.000} def
%
/vshift -66 def
/dl1 {
  10.0 Dashlength userlinewidth gnulinewidth div mul mul mul
  Rounded { currentlinewidth 0.75 mul sub dup 0 le { pop 0.01 } if } if
} def
/dl2 {
  10.0 Dashlength userlinewidth gnulinewidth div mul mul mul
  Rounded { currentlinewidth 0.75 mul add } if
} def
/hpt_ 31.5 def
/vpt_ 31.5 def
/hpt hpt_ def
/vpt vpt_ def
/doclip {
  ClipToBoundingBox {
    newpath 50 50 moveto 770 50 lineto 770 302 lineto 50 302 lineto closepath
    clip
  } if
} def
%
% Gnuplot Prolog Version 5.1 (Oct 2015)
%
%/SuppressPDFMark true def
%
/M {moveto} bind def
/L {lineto} bind def
/R {rmoveto} bind def
/V {rlineto} bind def
/N {newpath moveto} bind def
/Z {closepath} bind def
/C {setrgbcolor} bind def
/f {rlineto fill} bind def
/g {setgray} bind def
/Gshow {show} def   % May be redefined later in the file to support UTF-8
/vpt2 vpt 2 mul def
/hpt2 hpt 2 mul def
/Lshow {currentpoint stroke M 0 vshift R 
	Blacktext {gsave 0 setgray textshow grestore} {textshow} ifelse} def
/Rshow {currentpoint stroke M dup stringwidth pop neg vshift R
	Blacktext {gsave 0 setgray textshow grestore} {textshow} ifelse} def
/Cshow {currentpoint stroke M dup stringwidth pop -2 div vshift R 
	Blacktext {gsave 0 setgray textshow grestore} {textshow} ifelse} def
/UP {dup vpt_ mul /vpt exch def hpt_ mul /hpt exch def
  /hpt2 hpt 2 mul def /vpt2 vpt 2 mul def} def
/DL {Color {setrgbcolor Solid {pop []} if 0 setdash}
 {pop pop pop 0 setgray Solid {pop []} if 0 setdash} ifelse} def
/BL {stroke userlinewidth 2 mul setlinewidth
	Rounded {1 setlinejoin 1 setlinecap} if} def
/AL {stroke userlinewidth 2 div setlinewidth
	Rounded {1 setlinejoin 1 setlinecap} if} def
/UL {dup gnulinewidth mul /userlinewidth exch def
	dup 1 lt {pop 1} if 10 mul /udl exch def} def
/PL {stroke userlinewidth setlinewidth
	Rounded {1 setlinejoin 1 setlinecap} if} def
3.8 setmiterlimit
% Classic Line colors (version 5.0)
/LCw {1 1 1} def
/LCb {0 0 0} def
/LCa {0 0 0} def
/LC0 {1 0 0} def
/LC1 {0 1 0} def
/LC2 {0 0 1} def
/LC3 {1 0 1} def
/LC4 {0 1 1} def
/LC5 {1 1 0} def
/LC6 {0 0 0} def
/LC7 {1 0.3 0} def
/LC8 {0.5 0.5 0.5} def
% Default dash patterns (version 5.0)
/LTB {BL [] LCb DL} def
/LTw {PL [] 1 setgray} def
/LTb {PL [] LCb DL} def
/LTa {AL [1 udl mul 2 udl mul] 0 setdash LCa setrgbcolor} def
/LT0 {PL [] LC0 DL} def
/LT1 {PL [2 dl1 3 dl2] LC1 DL} def
/LT2 {PL [1 dl1 1.5 dl2] LC2 DL} def
/LT3 {PL [6 dl1 2 dl2 1 dl1 2 dl2] LC3 DL} def
/LT4 {PL [1 dl1 2 dl2 6 dl1 2 dl2 1 dl1 2 dl2] LC4 DL} def
/LT5 {PL [4 dl1 2 dl2] LC5 DL} def
/LT6 {PL [1.5 dl1 1.5 dl2 1.5 dl1 1.5 dl2 1.5 dl1 6 dl2] LC6 DL} def
/LT7 {PL [3 dl1 3 dl2 1 dl1 3 dl2] LC7 DL} def
/LT8 {PL [2 dl1 2 dl2 2 dl1 6 dl2] LC8 DL} def
/SL {[] 0 setdash} def
/Pnt {stroke [] 0 setdash gsave 1 setlinecap M 0 0 V stroke grestore} def
/Dia {stroke [] 0 setdash 2 copy vpt add M
  hpt neg vpt neg V hpt vpt neg V
  hpt vpt V hpt neg vpt V closepath stroke
  Pnt} def
/Pls {stroke [] 0 setdash vpt sub M 0 vpt2 V
  currentpoint stroke M
  hpt neg vpt neg R hpt2 0 V stroke
 } def
/Box {stroke [] 0 setdash 2 copy exch hpt sub exch vpt add M
  0 vpt2 neg V hpt2 0 V 0 vpt2 V
  hpt2 neg 0 V closepath stroke
  Pnt} def
/Crs {stroke [] 0 setdash exch hpt sub exch vpt add M
  hpt2 vpt2 neg V currentpoint stroke M
  hpt2 neg 0 R hpt2 vpt2 V stroke} def
/TriU {stroke [] 0 setdash 2 copy vpt 1.12 mul add M
  hpt neg vpt -1.62 mul V
  hpt 2 mul 0 V
  hpt neg vpt 1.62 mul V closepath stroke
  Pnt} def
/Star {2 copy Pls Crs} def
/BoxF {stroke [] 0 setdash exch hpt sub exch vpt add M
  0 vpt2 neg V hpt2 0 V 0 vpt2 V
  hpt2 neg 0 V closepath fill} def
/TriUF {stroke [] 0 setdash vpt 1.12 mul add M
  hpt neg vpt -1.62 mul V
  hpt 2 mul 0 V
  hpt neg vpt 1.62 mul V closepath fill} def
/TriD {stroke [] 0 setdash 2 copy vpt 1.12 mul sub M
  hpt neg vpt 1.62 mul V
  hpt 2 mul 0 V
  hpt neg vpt -1.62 mul V closepath stroke
  Pnt} def
/TriDF {stroke [] 0 setdash vpt 1.12 mul sub M
  hpt neg vpt 1.62 mul V
  hpt 2 mul 0 V
  hpt neg vpt -1.62 mul V closepath fill} def
/DiaF {stroke [] 0 setdash vpt add M
  hpt neg vpt neg V hpt vpt neg V
  hpt vpt V hpt neg vpt V closepath fill} def
/Pent {stroke [] 0 setdash 2 copy gsave
  translate 0 hpt M 4 {72 rotate 0 hpt L} repeat
  closepath stroke grestore Pnt} def
/PentF {stroke [] 0 setdash gsave
  translate 0 hpt M 4 {72 rotate 0 hpt L} repeat
  closepath fill grestore} def
/Circle {stroke [] 0 setdash 2 copy
  hpt 0 360 arc stroke Pnt} def
/CircleF {stroke [] 0 setdash hpt 0 360 arc fill} def
/C0 {BL [] 0 setdash 2 copy moveto vpt 90 450 arc} bind def
/C1 {BL [] 0 setdash 2 copy moveto
	2 copy vpt 0 90 arc closepath fill
	vpt 0 360 arc closepath} bind def
/C2 {BL [] 0 setdash 2 copy moveto
	2 copy vpt 90 180 arc closepath fill
	vpt 0 360 arc closepath} bind def
/C3 {BL [] 0 setdash 2 copy moveto
	2 copy vpt 0 180 arc closepath fill
	vpt 0 360 arc closepath} bind def
/C4 {BL [] 0 setdash 2 copy moveto
	2 copy vpt 180 270 arc closepath fill
	vpt 0 360 arc closepath} bind def
/C5 {BL [] 0 setdash 2 copy moveto
	2 copy vpt 0 90 arc
	2 copy moveto
	2 copy vpt 180 270 arc closepath fill
	vpt 0 360 arc} bind def
/C6 {BL [] 0 setdash 2 copy moveto
	2 copy vpt 90 270 arc closepath fill
	vpt 0 360 arc closepath} bind def
/C7 {BL [] 0 setdash 2 copy moveto
	2 copy vpt 0 270 arc closepath fill
	vpt 0 360 arc closepath} bind def
/C8 {BL [] 0 setdash 2 copy moveto
	2 copy vpt 270 360 arc closepath fill
	vpt 0 360 arc closepath} bind def
/C9 {BL [] 0 setdash 2 copy moveto
	2 copy vpt 270 450 arc closepath fill
	vpt 0 360 arc closepath} bind def
/C10 {BL [] 0 setdash 2 copy 2 copy moveto vpt 270 360 arc closepath fill
	2 copy moveto
	2 copy vpt 90 180 arc closepath fill
	vpt 0 360 arc closepath} bind def
/C11 {BL [] 0 setdash 2 copy moveto
	2 copy vpt 0 180 arc closepath fill
	2 copy moveto
	2 copy vpt 270 360 arc closepath fill
	vpt 0 360 arc closepath} bind def
/C12 {BL [] 0 setdash 2 copy moveto
	2 copy vpt 180 360 arc closepath fill
	vpt 0 360 arc closepath} bind def
/C13 {BL [] 0 setdash 2 copy moveto
	2 copy vpt 0 90 arc closepath fill
	2 copy moveto
	2 copy vpt 180 360 arc closepath fill
	vpt 0 360 arc closepath} bind def
/C14 {BL [] 0 setdash 2 copy moveto
	2 copy vpt 90 360 arc closepath fill
	vpt 0 360 arc} bind def
/C15 {BL [] 0 setdash 2 copy vpt 0 360 arc closepath fill
	vpt 0 360 arc closepath} bind def
/Rec {newpath 4 2 roll moveto 1 index 0 rlineto 0 exch rlineto
	neg 0 rlineto closepath} bind def
/Square {dup Rec} bind def
/Bsquare {vpt sub exch vpt sub exch vpt2 Square} bind def
/S0 {BL [] 0 setdash 2 copy moveto 0 vpt rlineto BL Bsquare} bind def
/S1 {BL [] 0 setdash 2 copy vpt Square fill Bsquare} bind def
/S2 {BL [] 0 setdash 2 copy exch vpt sub exch vpt Square fill Bsquare} bind def
/S3 {BL [] 0 setdash 2 copy exch vpt sub exch vpt2 vpt Rec fill Bsquare} bind def
/S4 {BL [] 0 setdash 2 copy exch vpt sub exch vpt sub vpt Square fill Bsquare} bind def
/S5 {BL [] 0 setdash 2 copy 2 copy vpt Square fill
	exch vpt sub exch vpt sub vpt Square fill Bsquare} bind def
/S6 {BL [] 0 setdash 2 copy exch vpt sub exch vpt sub vpt vpt2 Rec fill Bsquare} bind def
/S7 {BL [] 0 setdash 2 copy exch vpt sub exch vpt sub vpt vpt2 Rec fill
	2 copy vpt Square fill Bsquare} bind def
/S8 {BL [] 0 setdash 2 copy vpt sub vpt Square fill Bsquare} bind def
/S9 {BL [] 0 setdash 2 copy vpt sub vpt vpt2 Rec fill Bsquare} bind def
/S10 {BL [] 0 setdash 2 copy vpt sub vpt Square fill 2 copy exch vpt sub exch vpt Square fill
	Bsquare} bind def
/S11 {BL [] 0 setdash 2 copy vpt sub vpt Square fill 2 copy exch vpt sub exch vpt2 vpt Rec fill
	Bsquare} bind def
/S12 {BL [] 0 setdash 2 copy exch vpt sub exch vpt sub vpt2 vpt Rec fill Bsquare} bind def
/S13 {BL [] 0 setdash 2 copy exch vpt sub exch vpt sub vpt2 vpt Rec fill
	2 copy vpt Square fill Bsquare} bind def
/S14 {BL [] 0 setdash 2 copy exch vpt sub exch vpt sub vpt2 vpt Rec fill
	2 copy exch vpt sub exch vpt Square fill Bsquare} bind def
/S15 {BL [] 0 setdash 2 copy Bsquare fill Bsquare} bind def
/D0 {gsave translate 45 rotate 0 0 S0 stroke grestore} bind def
/D1 {gsave translate 45 rotate 0 0 S1 stroke grestore} bind def
/D2 {gsave translate 45 rotate 0 0 S2 stroke grestore} bind def
/D3 {gsave translate 45 rotate 0 0 S3 stroke grestore} bind def
/D4 {gsave translate 45 rotate 0 0 S4 stroke grestore} bind def
/D5 {gsave translate 45 rotate 0 0 S5 stroke grestore} bind def
/D6 {gsave translate 45 rotate 0 0 S6 stroke grestore} bind def
/D7 {gsave translate 45 rotate 0 0 S7 stroke grestore} bind def
/D8 {gsave translate 45 rotate 0 0 S8 stroke grestore} bind def
/D9 {gsave translate 45 rotate 0 0 S9 stroke grestore} bind def
/D10 {gsave translate 45 rotate 0 0 S10 stroke grestore} bind def
/D11 {gsave translate 45 rotate 0 0 S11 stroke grestore} bind def
/D12 {gsave translate 45 rotate 0 0 S12 stroke grestore} bind def
/D13 {gsave translate 45 rotate 0 0 S13 stroke grestore} bind def
/D14 {gsave translate 45 rotate 0 0 S14 stroke grestore} bind def
/D15 {gsave translate 45 rotate 0 0 S15 stroke grestore} bind def
/DiaE {stroke [] 0 setdash vpt add M
  hpt neg vpt neg V hpt vpt neg V
  hpt vpt V hpt neg vpt V closepath stroke} def
/BoxE {stroke [] 0 setdash exch hpt sub exch vpt add M
  0 vpt2 neg V hpt2 0 V 0 vpt2 V
  hpt2 neg 0 V closepath stroke} def
/TriUE {stroke [] 0 setdash vpt 1.12 mul add M
  hpt neg vpt -1.62 mul V
  hpt 2 mul 0 V
  hpt neg vpt 1.62 mul V closepath stroke} def
/TriDE {stroke [] 0 setdash vpt 1.12 mul sub M
  hpt neg vpt 1.62 mul V
  hpt 2 mul 0 V
  hpt neg vpt -1.62 mul V closepath stroke} def
/PentE {stroke [] 0 setdash gsave
  translate 0 hpt M 4 {72 rotate 0 hpt L} repeat
  closepath stroke grestore} def
/CircE {stroke [] 0 setdash 
  hpt 0 360 arc stroke} def
/Opaque {gsave closepath 1 setgray fill grestore 0 setgray closepath} def
/DiaW {stroke [] 0 setdash vpt add M
  hpt neg vpt neg V hpt vpt neg V
  hpt vpt V hpt neg vpt V Opaque stroke} def
/BoxW {stroke [] 0 setdash exch hpt sub exch vpt add M
  0 vpt2 neg V hpt2 0 V 0 vpt2 V
  hpt2 neg 0 V Opaque stroke} def
/TriUW {stroke [] 0 setdash vpt 1.12 mul add M
  hpt neg vpt -1.62 mul V
  hpt 2 mul 0 V
  hpt neg vpt 1.62 mul V Opaque stroke} def
/TriDW {stroke [] 0 setdash vpt 1.12 mul sub M
  hpt neg vpt 1.62 mul V
  hpt 2 mul 0 V
  hpt neg vpt -1.62 mul V Opaque stroke} def
/PentW {stroke [] 0 setdash gsave
  translate 0 hpt M 4 {72 rotate 0 hpt L} repeat
  Opaque stroke grestore} def
/CircW {stroke [] 0 setdash 
  hpt 0 360 arc Opaque stroke} def
/BoxFill {gsave Rec 1 setgray fill grestore} def
/Density {
  /Fillden exch def
  currentrgbcolor
  /ColB exch def /ColG exch def /ColR exch def
  /ColR ColR Fillden mul Fillden sub 1 add def
  /ColG ColG Fillden mul Fillden sub 1 add def
  /ColB ColB Fillden mul Fillden sub 1 add def
  ColR ColG ColB setrgbcolor} def
/BoxColFill {gsave Rec PolyFill} def
/PolyFill {gsave Density fill grestore grestore} def
/h {rlineto rlineto rlineto gsave closepath fill grestore} bind def
%
% PostScript Level 1 Pattern Fill routine for rectangles
% Usage: x y w h s a XX PatternFill
%	x,y = lower left corner of box to be filled
%	w,h = width and height of box
%	  a = angle in degrees between lines and x-axis
%	 XX = 0/1 for no/yes cross-hatch
%
/PatternFill {gsave /PFa [ 9 2 roll ] def
  PFa 0 get PFa 2 get 2 div add PFa 1 get PFa 3 get 2 div add translate
  PFa 2 get -2 div PFa 3 get -2 div PFa 2 get PFa 3 get Rec
  TransparentPatterns {} {gsave 1 setgray fill grestore} ifelse
  clip
  currentlinewidth 0.5 mul setlinewidth
  /PFs PFa 2 get dup mul PFa 3 get dup mul add sqrt def
  0 0 M PFa 5 get rotate PFs -2 div dup translate
  0 1 PFs PFa 4 get div 1 add floor cvi
	{PFa 4 get mul 0 M 0 PFs V} for
  0 PFa 6 get ne {
	0 1 PFs PFa 4 get div 1 add floor cvi
	{PFa 4 get mul 0 2 1 roll M PFs 0 V} for
 } if
  stroke grestore} def
%
/languagelevel where
 {pop languagelevel} {1} ifelse
dup 2 lt
	{/InterpretLevel1 true def
	 /InterpretLevel3 false def}
	{/InterpretLevel1 Level1 def
	 2 gt
	    {/InterpretLevel3 Level3 def}
	    {/InterpretLevel3 false def}
	 ifelse }
 ifelse
%
% PostScript level 2 pattern fill definitions
%
/Level2PatternFill {
/Tile8x8 {/PaintType 2 /PatternType 1 /TilingType 1 /BBox [0 0 8 8] /XStep 8 /YStep 8}
	bind def
/KeepColor {currentrgbcolor [/Pattern /DeviceRGB] setcolorspace} bind def
<< Tile8x8
 /PaintProc {0.5 setlinewidth pop 0 0 M 8 8 L 0 8 M 8 0 L stroke} 
>> matrix makepattern
/Pat1 exch def
<< Tile8x8
 /PaintProc {0.5 setlinewidth pop 0 0 M 8 8 L 0 8 M 8 0 L stroke
	0 4 M 4 8 L 8 4 L 4 0 L 0 4 L stroke}
>> matrix makepattern
/Pat2 exch def
<< Tile8x8
 /PaintProc {0.5 setlinewidth pop 0 0 M 0 8 L
	8 8 L 8 0 L 0 0 L fill}
>> matrix makepattern
/Pat3 exch def
<< Tile8x8
 /PaintProc {0.5 setlinewidth pop -4 8 M 8 -4 L
	0 12 M 12 0 L stroke}
>> matrix makepattern
/Pat4 exch def
<< Tile8x8
 /PaintProc {0.5 setlinewidth pop -4 0 M 8 12 L
	0 -4 M 12 8 L stroke}
>> matrix makepattern
/Pat5 exch def
<< Tile8x8
 /PaintProc {0.5 setlinewidth pop -2 8 M 4 -4 L
	0 12 M 8 -4 L 4 12 M 10 0 L stroke}
>> matrix makepattern
/Pat6 exch def
<< Tile8x8
 /PaintProc {0.5 setlinewidth pop -2 0 M 4 12 L
	0 -4 M 8 12 L 4 -4 M 10 8 L stroke}
>> matrix makepattern
/Pat7 exch def
<< Tile8x8
 /PaintProc {0.5 setlinewidth pop 8 -2 M -4 4 L
	12 0 M -4 8 L 12 4 M 0 10 L stroke}
>> matrix makepattern
/Pat8 exch def
<< Tile8x8
 /PaintProc {0.5 setlinewidth pop 0 -2 M 12 4 L
	-4 0 M 12 8 L -4 4 M 8 10 L stroke}
>> matrix makepattern
/Pat9 exch def
/Pattern1 {PatternBgnd KeepColor Pat1 setpattern} bind def
/Pattern2 {PatternBgnd KeepColor Pat2 setpattern} bind def
/Pattern3 {PatternBgnd KeepColor Pat3 setpattern} bind def
/Pattern4 {PatternBgnd KeepColor Landscape {Pat5} {Pat4} ifelse setpattern} bind def
/Pattern5 {PatternBgnd KeepColor Landscape {Pat4} {Pat5} ifelse setpattern} bind def
/Pattern6 {PatternBgnd KeepColor Landscape {Pat9} {Pat6} ifelse setpattern} bind def
/Pattern7 {PatternBgnd KeepColor Landscape {Pat8} {Pat7} ifelse setpattern} bind def
} def
%
%
%End of PostScript Level 2 code
%
/PatternBgnd {
  TransparentPatterns {} {gsave 1 setgray fill grestore} ifelse
} def
%
% Substitute for Level 2 pattern fill codes with
% grayscale if Level 2 support is not selected.
%
/Level1PatternFill {
/Pattern1 {0.250 Density} bind def
/Pattern2 {0.500 Density} bind def
/Pattern3 {0.750 Density} bind def
/Pattern4 {0.125 Density} bind def
/Pattern5 {0.375 Density} bind def
/Pattern6 {0.625 Density} bind def
/Pattern7 {0.875 Density} bind def
} def
%
% Now test for support of Level 2 code
%
Level1 {Level1PatternFill} {Level2PatternFill} ifelse
%
/Symbol-Oblique /Symbol findfont [1 0 .167 1 0 0] makefont
dup length dict begin {1 index /FID eq {pop pop} {def} ifelse} forall
currentdict end definefont pop
%
/MFshow {
   { dup 5 get 3 ge
     { 5 get 3 eq {gsave} {grestore} ifelse }
     {dup dup 0 get findfont exch 1 get scalefont setfont
     [ currentpoint ] exch dup 2 get 0 exch R dup 5 get 2 ne {dup dup 6
     get exch 4 get {textshow} {stringwidth pop 0 R} ifelse }if dup 5 get 0 eq
     {dup 3 get {2 get neg 0 exch R pop} {pop aload pop M} ifelse} {dup 5
     get 1 eq {dup 2 get exch dup 3 get exch 6 get stringwidth pop -2 div
     dup 0 R} {dup 6 get stringwidth pop -2 div 0 R 6 get
     textshow 2 index {aload pop M neg 3 -1 roll neg R pop pop} {pop pop pop
     pop aload pop M} ifelse }ifelse }ifelse }
     ifelse }
   forall} def
/Gswidth {dup type /stringtype eq {stringwidth} {pop (n) stringwidth} ifelse} def
/MFwidth {0 exch { dup 5 get 3 ge { 5 get 3 eq { 0 } { pop } ifelse }
 {dup 3 get{dup dup 0 get findfont exch 1 get scalefont setfont
     6 get Gswidth pop add} {pop} ifelse} ifelse} forall} def
/MLshow { currentpoint stroke M
  0 exch R
  Blacktext {gsave 0 setgray MFshow grestore} {MFshow} ifelse } bind def
/MRshow { currentpoint stroke M
  exch dup MFwidth neg 3 -1 roll R
  Blacktext {gsave 0 setgray MFshow grestore} {MFshow} ifelse } bind def
/MCshow { currentpoint stroke M
  exch dup MFwidth -2 div 3 -1 roll R
  Blacktext {gsave 0 setgray MFshow grestore} {MFshow} ifelse } bind def
/XYsave    { [( ) 1 2 true false 3 ()] } bind def
/XYrestore { [( ) 1 2 true false 4 ()] } bind def
Level1 SuppressPDFMark or 
{} {
/SDict 10 dict def
systemdict /pdfmark known not {
  userdict /pdfmark systemdict /cleartomark get put
} if
SDict begin [
  /Title (TcpCubic-download-finishtime-75UE-panoramic.eps)
  /Subject (gnuplot plot)
  /Creator (gnuplot 5.0 patchlevel 3)
  /Author (nat)
%  /Producer (gnuplot)
%  /Keywords ()
  /CreationDate (Tue Jun  7 16:10:53 2016)
  /DOCINFO pdfmark
end
} ifelse
%
% Support for boxed text - Ethan A Merritt May 2005
%
/InitTextBox { userdict /TBy2 3 -1 roll put userdict /TBx2 3 -1 roll put
           userdict /TBy1 3 -1 roll put userdict /TBx1 3 -1 roll put
	   /Boxing true def } def
/ExtendTextBox { Boxing
    { gsave dup false charpath pathbbox
      dup TBy2 gt {userdict /TBy2 3 -1 roll put} {pop} ifelse
      dup TBx2 gt {userdict /TBx2 3 -1 roll put} {pop} ifelse
      dup TBy1 lt {userdict /TBy1 3 -1 roll put} {pop} ifelse
      dup TBx1 lt {userdict /TBx1 3 -1 roll put} {pop} ifelse
      grestore } if } def
/PopTextBox { newpath TBx1 TBxmargin sub TBy1 TBymargin sub M
               TBx1 TBxmargin sub TBy2 TBymargin add L
	       TBx2 TBxmargin add TBy2 TBymargin add L
	       TBx2 TBxmargin add TBy1 TBymargin sub L closepath } def
/DrawTextBox { PopTextBox stroke /Boxing false def} def
/FillTextBox { gsave PopTextBox 1 1 1 setrgbcolor fill grestore /Boxing false def} def
0 0 0 0 InitTextBox
/TBxmargin 20 def
/TBymargin 20 def
/Boxing false def
/textshow { ExtendTextBox Gshow } def
%
% redundant definitions for compatibility with prologue.ps older than 5.0.2
/LTB {BL [] LCb DL} def
/LTb {PL [] LCb DL} def
end
%%EndProlog
%%Page: 1 1
gnudict begin
gsave
doclip
50 50 translate
0.050 0.050 scale
0 setgray
newpath
(Arial) findfont 200 scalefont setfont
BackgroundColor 0 lt 3 1 roll 0 lt exch 0 lt or or not {BackgroundColor C 1.000 0 0 14400.00 5040.00 BoxColFill} if
1.000 UL
LTb
0.00 0.00 0.00 C 0.500 UL
LTa
0.50 0.50 0.50 C 980 1000 M
12139 0 V
stroke
1.000 UL
LTb
0.00 0.00 0.00 C 980 1000 M
63 0 V
stroke
860 1000 M
[ [(Arial) 200.0 0.0 true true 0 ( 0)]
] -66.7 MRshow
1.000 UL
LTb
0.00 0.00 0.00 C 0.500 UL
LTa
0.50 0.50 0.50 C 980 1475 M
12139 0 V
stroke
1.000 UL
LTb
0.00 0.00 0.00 C 980 1475 M
63 0 V
stroke
860 1475 M
[ [(Arial) 200.0 0.0 true true 0 ( 20)]
] -66.7 MRshow
1.000 UL
LTb
0.00 0.00 0.00 C 0.500 UL
LTa
0.50 0.50 0.50 C 980 1950 M
12139 0 V
stroke
1.000 UL
LTb
0.00 0.00 0.00 C 980 1950 M
63 0 V
stroke
860 1950 M
[ [(Arial) 200.0 0.0 true true 0 ( 40)]
] -66.7 MRshow
1.000 UL
LTb
0.00 0.00 0.00 C 0.500 UL
LTa
0.50 0.50 0.50 C 980 2425 M
12139 0 V
stroke
1.000 UL
LTb
0.00 0.00 0.00 C 980 2425 M
63 0 V
stroke
860 2425 M
[ [(Arial) 200.0 0.0 true true 0 ( 60)]
] -66.7 MRshow
1.000 UL
LTb
0.00 0.00 0.00 C 0.500 UL
LTa
0.50 0.50 0.50 C 980 2900 M
12139 0 V
stroke
1.000 UL
LTb
0.00 0.00 0.00 C 980 2900 M
63 0 V
stroke
860 2900 M
[ [(Arial) 200.0 0.0 true true 0 ( 80)]
] -66.7 MRshow
1.000 UL
LTb
0.00 0.00 0.00 C 0.500 UL
LTa
0.50 0.50 0.50 C 980 3374 M
12139 0 V
stroke
1.000 UL
LTb
0.00 0.00 0.00 C 980 3374 M
63 0 V
stroke
860 3374 M
[ [(Arial) 200.0 0.0 true true 0 ( 100)]
] -66.7 MRshow
1.000 UL
LTb
0.00 0.00 0.00 C 0.500 UL
LTa
0.50 0.50 0.50 C 980 3849 M
12139 0 V
stroke
1.000 UL
LTb
0.00 0.00 0.00 C 980 3849 M
63 0 V
stroke
860 3849 M
[ [(Arial) 200.0 0.0 true true 0 ( 120)]
] -66.7 MRshow
1.000 UL
LTb
0.00 0.00 0.00 C 0.500 UL
LTa
0.50 0.50 0.50 C 980 4324 M
12139 0 V
stroke
1.000 UL
LTb
0.00 0.00 0.00 C 980 4324 M
63 0 V
stroke
860 4324 M
[ [(Arial) 200.0 0.0 true true 0 ( 140)]
] -66.7 MRshow
1.000 UL
LTb
0.00 0.00 0.00 C 0.500 UL
LTa
0.50 0.50 0.50 C 980 4799 M
12139 0 V
stroke
1.000 UL
LTb
0.00 0.00 0.00 C 980 4799 M
63 0 V
stroke
860 4799 M
[ [(Arial) 200.0 0.0 true true 0 ( 160)]
] -66.7 MRshow
1.000 UL
LTb
0.00 0.00 0.00 C 0.500 UL
LTa
0.50 0.50 0.50 C 1235 1000 M
0 3799 V
stroke
1.000 UL
LTb
0.00 0.00 0.00 C 1235 1000 M
0 63 V
0 3736 R
0 -63 V
stroke
1235 800 M
[ [(Arial) 200.0 0.0 true true 0 ( 60)]
] -66.7 MCshow
1.000 UL
LTb
0.00 0.00 0.00 C 0.500 UL
LTa
0.50 0.50 0.50 C 1847 1000 M
0 3799 V
stroke
1.000 UL
LTb
0.00 0.00 0.00 C 1847 1000 M
0 63 V
0 3736 R
0 -63 V
stroke
1847 800 M
[ [(Arial) 200.0 0.0 true true 0 ( 120)]
] -66.7 MCshow
1.000 UL
LTb
0.00 0.00 0.00 C 0.500 UL
LTa
0.50 0.50 0.50 C 2459 1000 M
0 3799 V
stroke
1.000 UL
LTb
0.00 0.00 0.00 C 2459 1000 M
0 63 V
0 3736 R
0 -63 V
stroke
2459 800 M
[ [(Arial) 200.0 0.0 true true 0 ( 180)]
] -66.7 MCshow
1.000 UL
LTb
0.00 0.00 0.00 C 0.500 UL
LTa
0.50 0.50 0.50 C 3071 1000 M
0 3799 V
stroke
1.000 UL
LTb
0.00 0.00 0.00 C 3071 1000 M
0 63 V
0 3736 R
0 -63 V
stroke
3071 800 M
[ [(Arial) 200.0 0.0 true true 0 ( 240)]
] -66.7 MCshow
1.000 UL
LTb
0.00 0.00 0.00 C 0.500 UL
LTa
0.50 0.50 0.50 C 3683 1000 M
0 3799 V
stroke
1.000 UL
LTb
0.00 0.00 0.00 C 3683 1000 M
0 63 V
0 3736 R
0 -63 V
stroke
3683 800 M
[ [(Arial) 200.0 0.0 true true 0 ( 300)]
] -66.7 MCshow
1.000 UL
LTb
0.00 0.00 0.00 C 0.500 UL
LTa
0.50 0.50 0.50 C 4295 1000 M
0 3799 V
stroke
1.000 UL
LTb
0.00 0.00 0.00 C 4295 1000 M
0 63 V
0 3736 R
0 -63 V
stroke
4295 800 M
[ [(Arial) 200.0 0.0 true true 0 ( 360)]
] -66.7 MCshow
1.000 UL
LTb
0.00 0.00 0.00 C 0.500 UL
LTa
0.50 0.50 0.50 C 4907 1000 M
0 3799 V
stroke
1.000 UL
LTb
0.00 0.00 0.00 C 4907 1000 M
0 63 V
0 3736 R
0 -63 V
stroke
4907 800 M
[ [(Arial) 200.0 0.0 true true 0 ( 420)]
] -66.7 MCshow
1.000 UL
LTb
0.00 0.00 0.00 C 0.500 UL
LTa
0.50 0.50 0.50 C 5519 1000 M
0 3799 V
stroke
1.000 UL
LTb
0.00 0.00 0.00 C 5519 1000 M
0 63 V
0 3736 R
0 -63 V
stroke
5519 800 M
[ [(Arial) 200.0 0.0 true true 0 ( 480)]
] -66.7 MCshow
1.000 UL
LTb
0.00 0.00 0.00 C 0.500 UL
LTa
0.50 0.50 0.50 C 6131 1000 M
0 3799 V
stroke
1.000 UL
LTb
0.00 0.00 0.00 C 6131 1000 M
0 63 V
0 3736 R
0 -63 V
stroke
6131 800 M
[ [(Arial) 200.0 0.0 true true 0 ( 540)]
] -66.7 MCshow
1.000 UL
LTb
0.00 0.00 0.00 C 0.500 UL
LTa
0.50 0.50 0.50 C 6743 1000 M
0 3799 V
stroke
1.000 UL
LTb
0.00 0.00 0.00 C 6743 1000 M
0 63 V
0 3736 R
0 -63 V
stroke
6743 800 M
[ [(Arial) 200.0 0.0 true true 0 ( 600)]
] -66.7 MCshow
1.000 UL
LTb
0.00 0.00 0.00 C 0.500 UL
LTa
0.50 0.50 0.50 C 7356 1000 M
0 3799 V
stroke
1.000 UL
LTb
0.00 0.00 0.00 C 7356 1000 M
0 63 V
0 3736 R
0 -63 V
stroke
7356 800 M
[ [(Arial) 200.0 0.0 true true 0 ( 660)]
] -66.7 MCshow
1.000 UL
LTb
0.00 0.00 0.00 C 0.500 UL
LTa
0.50 0.50 0.50 C 7968 1000 M
0 3799 V
stroke
1.000 UL
LTb
0.00 0.00 0.00 C 7968 1000 M
0 63 V
0 3736 R
0 -63 V
stroke
7968 800 M
[ [(Arial) 200.0 0.0 true true 0 ( 720)]
] -66.7 MCshow
1.000 UL
LTb
0.00 0.00 0.00 C 0.500 UL
LTa
0.50 0.50 0.50 C 8580 1000 M
0 3799 V
stroke
1.000 UL
LTb
0.00 0.00 0.00 C 8580 1000 M
0 63 V
0 3736 R
0 -63 V
stroke
8580 800 M
[ [(Arial) 200.0 0.0 true true 0 ( 780)]
] -66.7 MCshow
1.000 UL
LTb
0.00 0.00 0.00 C 0.500 UL
LTa
0.50 0.50 0.50 C 9192 1000 M
0 3799 V
stroke
1.000 UL
LTb
0.00 0.00 0.00 C 9192 1000 M
0 63 V
0 3736 R
0 -63 V
stroke
9192 800 M
[ [(Arial) 200.0 0.0 true true 0 ( 840)]
] -66.7 MCshow
1.000 UL
LTb
0.00 0.00 0.00 C 0.500 UL
LTa
0.50 0.50 0.50 C 9804 1000 M
0 3799 V
stroke
1.000 UL
LTb
0.00 0.00 0.00 C 9804 1000 M
0 63 V
0 3736 R
0 -63 V
stroke
9804 800 M
[ [(Arial) 200.0 0.0 true true 0 ( 900)]
] -66.7 MCshow
1.000 UL
LTb
0.00 0.00 0.00 C 0.500 UL
LTa
0.50 0.50 0.50 C 10416 1000 M
0 3799 V
stroke
1.000 UL
LTb
0.00 0.00 0.00 C 10416 1000 M
0 63 V
0 3736 R
0 -63 V
stroke
10416 800 M
[ [(Arial) 200.0 0.0 true true 0 ( 960)]
] -66.7 MCshow
1.000 UL
LTb
0.00 0.00 0.00 C 0.500 UL
LTa
0.50 0.50 0.50 C 11028 1000 M
0 3799 V
stroke
1.000 UL
LTb
0.00 0.00 0.00 C 11028 1000 M
0 63 V
0 3736 R
0 -63 V
stroke
11028 800 M
[ [(Arial) 200.0 0.0 true true 0 ( 1020)]
] -66.7 MCshow
1.000 UL
LTb
0.00 0.00 0.00 C 0.500 UL
LTa
0.50 0.50 0.50 C 11640 1000 M
0 3799 V
stroke
1.000 UL
LTb
0.00 0.00 0.00 C 11640 1000 M
0 63 V
0 3736 R
0 -63 V
stroke
11640 800 M
[ [(Arial) 200.0 0.0 true true 0 ( 1080)]
] -66.7 MCshow
1.000 UL
LTb
0.00 0.00 0.00 C 0.500 UL
LTa
0.50 0.50 0.50 C 12252 1000 M
0 3799 V
stroke
1.000 UL
LTb
0.00 0.00 0.00 C 12252 1000 M
0 63 V
0 3736 R
0 -63 V
stroke
12252 800 M
[ [(Arial) 200.0 0.0 true true 0 ( 1140)]
] -66.7 MCshow
1.000 UL
LTb
0.00 0.00 0.00 C 0.500 UL
LTa
0.50 0.50 0.50 C 12864 1000 M
0 3799 V
stroke
1.000 UL
LTb
0.00 0.00 0.00 C 12864 1000 M
0 63 V
0 3736 R
0 -63 V
stroke
12864 800 M
[ [(Arial) 200.0 0.0 true true 0 ( 1200)]
] -66.7 MCshow
1.000 UL
LTb
0.00 0.00 0.00 C 13119 1000 M
-63 0 V
stroke
13239 1000 M
[ [(Arial) 200.0 0.0 true true 0 ( 0)]
] -66.7 MLshow
1.000 UL
LTb
0.00 0.00 0.00 C 13119 1760 M
-63 0 V
stroke
13239 1760 M
[ [(Arial) 200.0 0.0 true true 0 ( 20)]
] -66.7 MLshow
1.000 UL
LTb
0.00 0.00 0.00 C 13119 2520 M
-63 0 V
stroke
13239 2520 M
[ [(Arial) 200.0 0.0 true true 0 ( 40)]
] -66.7 MLshow
1.000 UL
LTb
0.00 0.00 0.00 C 13119 3279 M
-63 0 V
stroke
13239 3279 M
[ [(Arial) 200.0 0.0 true true 0 ( 60)]
] -66.7 MLshow
1.000 UL
LTb
0.00 0.00 0.00 C 13119 4039 M
-63 0 V
stroke
13239 4039 M
[ [(Arial) 200.0 0.0 true true 0 ( 80)]
] -66.7 MLshow
1.000 UL
LTb
0.00 0.00 0.00 C 13119 4799 M
-63 0 V
stroke
13239 4799 M
[ [(Arial) 200.0 0.0 true true 0 ( 100)]
] -66.7 MLshow
1.000 UL
LTb
0.00 0.00 0.00 C 1.000 UL
LTB
0.00 0.00 0.00 C 980 4799 M
0 -3799 V
12139 0 V
0 3799 R
980 4799 M
1.000 UP
stroke
LTb
0.00 0.00 0.00 C LCb setrgbcolor
160 2899 M
currentpoint gsave translate -270 rotate 0 0 moveto
[ [(Arial) 200.0 0.0 true true 0 (File download time \(s\))]
] -66.7 MCshow
grestore
LTb
LCb setrgbcolor
13938 2899 M
currentpoint gsave translate -270 rotate 0 0 moveto
[ [(Arial) 200.0 0.0 true true 0 (Average UDP throughput [%])]
] -66.7 MCshow
grestore
LTb
LCb setrgbcolor
7049 500 M
[ [(Arial) 200.0 0.0 true true 0 (Local Backhaul traffic \(Mb/s\))]
] -66.7 MCshow
LTb
% Begin plot #1
1.000 UL
LTb
0.60 0.60 0.00 C LCb setrgbcolor
4714 333 M
[ [(Arial) 180.0 0.0 true true 0 (file download time    :   olsr)]
] -60.0 MRshow
1.000 UL
LTb
0.60 0.60 0.00 C 4822 288 333 90 80 -45 0 PatternFill
4822 288 N
333 0 V
0 90 V
-333 0 V
0 -90 V
Z stroke
1.000 UL
LTb
0.60 0.60 0.00 C 990 1374 154 396 80 -45 0 PatternFill
1067 1071 M
0 303 V
0 396 R
0 568 V
stroke
990 1374 N
154 0 V
0 396 V
-154 0 V
0 -396 V
Z stroke
990 2338 M
154 0 V
990 1071 M
154 0 V
stroke
1602 1395 154 352 80 -45 0 PatternFill
1679 1071 M
0 324 V
0 352 R
0 1340 V
stroke
1602 1395 N
154 0 V
0 352 V
-154 0 V
0 -352 V
Z stroke
1602 3087 M
154 0 V
1602 1071 M
154 0 V
stroke
2214 1300 154 447 80 -45 0 PatternFill
2291 1071 M
0 229 V
0 447 R
0 1466 V
stroke
2214 1300 N
154 0 V
0 447 V
-154 0 V
0 -447 V
Z stroke
2214 3213 M
154 0 V
2214 1071 M
154 0 V
stroke
2826 1378 154 381 80 -45 0 PatternFill
2903 1071 M
0 307 V
0 381 R
0 919 V
stroke
2826 1378 N
154 0 V
0 381 V
-154 0 V
0 -381 V
Z stroke
2826 2678 M
154 0 V
2826 1071 M
154 0 V
stroke
3438 1369 154 373 80 -45 0 PatternFill
3515 1071 M
0 298 V
0 373 R
0 713 V
stroke
3438 1369 N
154 0 V
0 373 V
-154 0 V
0 -373 V
Z stroke
3438 2455 M
154 0 V
3438 1071 M
154 0 V
stroke
4050 1371 154 427 80 -45 0 PatternFill
4127 1071 M
0 300 V
0 427 R
0 684 V
stroke
4050 1371 N
154 0 V
0 427 V
-154 0 V
0 -427 V
Z stroke
4050 2482 M
154 0 V
4050 1071 M
154 0 V
stroke
4663 1336 154 428 80 -45 0 PatternFill
4740 1071 M
0 265 V
0 428 R
0 897 V
stroke
4663 1336 N
154 0 V
0 428 V
-154 0 V
0 -428 V
Z stroke
4663 2661 M
154 0 V
4663 1071 M
154 0 V
stroke
5275 1418 154 294 80 -45 0 PatternFill
5352 1071 M
0 347 V
0 294 R
0 1066 V
stroke
5275 1418 N
154 0 V
0 294 V
-154 0 V
0 -294 V
Z stroke
5275 2778 M
154 0 V
5275 1071 M
154 0 V
stroke
5887 1393 154 378 80 -45 0 PatternFill
5964 1071 M
0 322 V
0 378 R
0 1021 V
stroke
5887 1393 N
154 0 V
0 378 V
-154 0 V
0 -378 V
Z stroke
5887 2792 M
154 0 V
5887 1071 M
154 0 V
stroke
6499 1371 154 371 80 -45 0 PatternFill
6576 1071 M
0 300 V
0 371 R
0 680 V
stroke
6499 1371 N
154 0 V
0 371 V
-154 0 V
0 -371 V
Z stroke
6499 2422 M
154 0 V
6499 1071 M
154 0 V
stroke
7111 1342 154 412 80 -45 0 PatternFill
7188 1071 M
0 271 V
0 412 R
0 529 V
stroke
7111 1342 N
154 0 V
0 412 V
-154 0 V
0 -412 V
Z stroke
7111 2283 M
154 0 V
7111 1071 M
154 0 V
stroke
7723 1408 154 398 80 -45 0 PatternFill
7800 1071 M
0 337 V
0 398 R
0 911 V
stroke
7723 1408 N
154 0 V
0 398 V
-154 0 V
0 -398 V
Z stroke
7723 2717 M
154 0 V
7723 1071 M
154 0 V
stroke
8335 1316 154 440 80 -45 0 PatternFill
8412 1071 M
0 245 V
0 440 R
0 757 V
stroke
8335 1316 N
154 0 V
0 440 V
-154 0 V
0 -440 V
Z stroke
8335 2513 M
154 0 V
8335 1071 M
154 0 V
stroke
8947 1398 154 336 80 -45 0 PatternFill
9024 1071 M
0 327 V
0 336 R
0 879 V
stroke
8947 1398 N
154 0 V
0 336 V
-154 0 V
0 -336 V
Z stroke
8947 2613 M
154 0 V
8947 1071 M
154 0 V
stroke
9559 1325 154 501 80 -45 0 PatternFill
9636 1071 M
0 254 V
0 501 R
0 1548 V
stroke
9559 1325 N
154 0 V
0 501 V
-154 0 V
0 -501 V
Z stroke
9559 3374 M
154 0 V
9559 1071 M
154 0 V
stroke
10171 1378 154 396 80 -45 0 PatternFill
10248 1071 M
0 307 V
0 396 R
0 1353 V
stroke
10171 1378 N
154 0 V
0 396 V
-154 0 V
0 -396 V
Z stroke
10171 3127 M
154 0 V
10171 1071 M
154 0 V
stroke
10783 1399 154 428 80 -45 0 PatternFill
10860 1071 M
0 328 V
0 428 R
0 656 V
stroke
10783 1399 N
154 0 V
0 428 V
-154 0 V
0 -428 V
Z stroke
10783 2483 M
154 0 V
10783 1071 M
154 0 V
stroke
11395 1365 154 440 80 -45 0 PatternFill
11472 1071 M
0 294 V
0 440 R
0 437 V
stroke
11395 1365 N
154 0 V
0 440 V
-154 0 V
0 -440 V
Z stroke
11395 2242 M
154 0 V
11395 1071 M
154 0 V
stroke
12007 1389 154 410 80 -45 0 PatternFill
12084 1071 M
0 318 V
0 410 R
0 857 V
stroke
12007 1389 N
154 0 V
0 410 V
-154 0 V
0 -410 V
Z stroke
12007 2656 M
154 0 V
12007 1071 M
154 0 V
stroke
12619 1378 154 532 80 -45 0 PatternFill
12696 1071 M
0 307 V
0 532 R
0 589 V
stroke
12619 1378 N
154 0 V
0 532 V
-154 0 V
0 -532 V
Z stroke
12619 2499 M
154 0 V
12619 1071 M
154 0 V
% End plot #1
% Begin plot #2
stroke
LTb
LCb setrgbcolor

 /TransparentPatterns true def
990 1559 154 0 40 30 0 PatternFill
1067 1559 M
stroke
990 1559 N
154 0 V
-154 0 V
Z stroke
990 1559 M
154 0 V
-154 0 R
154 0 V
stroke

 /TransparentPatterns true def
1602 1587 154 0 40 30 0 PatternFill
1679 1587 M
stroke
1602 1587 N
154 0 V
-154 0 V
Z stroke
1602 1587 M
154 0 V
-154 0 R
154 0 V
stroke

 /TransparentPatterns true def
2214 1570 154 0 40 30 0 PatternFill
2291 1570 M
stroke
2214 1570 N
154 0 V
-154 0 V
Z stroke
2214 1570 M
154 0 V
-154 0 R
154 0 V
stroke

 /TransparentPatterns true def
2826 1577 154 0 40 30 0 PatternFill
2903 1577 M
stroke
2826 1577 N
154 0 V
-154 0 V
Z stroke
2826 1577 M
154 0 V
-154 0 R
154 0 V
stroke

 /TransparentPatterns true def
3438 1557 154 0 40 30 0 PatternFill
3515 1557 M
stroke
3438 1557 N
154 0 V
-154 0 V
Z stroke
3438 1557 M
154 0 V
-154 0 R
154 0 V
stroke

 /TransparentPatterns true def
4050 1592 154 0 40 30 0 PatternFill
4127 1592 M
stroke
4050 1592 N
154 0 V
-154 0 V
Z stroke
4050 1592 M
154 0 V
-154 0 R
154 0 V
stroke

 /TransparentPatterns true def
4663 1578 154 0 40 30 0 PatternFill
4740 1578 M
stroke
4663 1578 N
154 0 V
-154 0 V
Z stroke
4663 1578 M
154 0 V
-154 0 R
154 0 V
stroke

 /TransparentPatterns true def
5275 1575 154 0 40 30 0 PatternFill
5352 1575 M
stroke
5275 1575 N
154 0 V
-154 0 V
Z stroke
5275 1575 M
154 0 V
-154 0 R
154 0 V
stroke

 /TransparentPatterns true def
5887 1576 154 0 40 30 0 PatternFill
5964 1576 M
stroke
5887 1576 N
154 0 V
-154 0 V
Z stroke
5887 1576 M
154 0 V
-154 0 R
154 0 V
stroke

 /TransparentPatterns true def
6499 1592 154 0 40 30 0 PatternFill
6576 1592 M
stroke
6499 1592 N
154 0 V
-154 0 V
Z stroke
6499 1592 M
154 0 V
-154 0 R
154 0 V
stroke

 /TransparentPatterns true def
7111 1566 154 0 40 30 0 PatternFill
7188 1566 M
stroke
7111 1566 N
154 0 V
-154 0 V
Z stroke
7111 1566 M
154 0 V
-154 0 R
154 0 V
stroke

 /TransparentPatterns true def
7723 1600 154 0 40 30 0 PatternFill
7800 1600 M
stroke
7723 1600 N
154 0 V
-154 0 V
Z stroke
7723 1600 M
154 0 V
-154 0 R
154 0 V
stroke

 /TransparentPatterns true def
8335 1545 154 0 40 30 0 PatternFill
8412 1545 M
stroke
8335 1545 N
154 0 V
-154 0 V
Z stroke
8335 1545 M
154 0 V
-154 0 R
154 0 V
stroke

 /TransparentPatterns true def
8947 1558 154 0 40 30 0 PatternFill
9024 1558 M
stroke
8947 1558 N
154 0 V
-154 0 V
Z stroke
8947 1558 M
154 0 V
-154 0 R
154 0 V
stroke

 /TransparentPatterns true def
9559 1591 154 0 40 30 0 PatternFill
9636 1591 M
stroke
9559 1591 N
154 0 V
-154 0 V
Z stroke
9559 1591 M
154 0 V
-154 0 R
154 0 V
stroke

 /TransparentPatterns true def
10171 1604 154 0 40 30 0 PatternFill
10248 1604 M
stroke
10171 1604 N
154 0 V
-154 0 V
Z stroke
10171 1604 M
154 0 V
-154 0 R
154 0 V
stroke

 /TransparentPatterns true def
10783 1587 154 0 40 30 0 PatternFill
10860 1587 M
stroke
10783 1587 N
154 0 V
-154 0 V
Z stroke
10783 1587 M
154 0 V
-154 0 R
154 0 V
stroke

 /TransparentPatterns true def
11395 1571 154 0 40 30 0 PatternFill
11472 1571 M
stroke
11395 1571 N
154 0 V
-154 0 V
Z stroke
11395 1571 M
154 0 V
-154 0 R
154 0 V
stroke

 /TransparentPatterns true def
12007 1592 154 0 40 30 0 PatternFill
12084 1592 M
stroke
12007 1592 N
154 0 V
-154 0 V
Z stroke
12007 1592 M
154 0 V
-154 0 R
154 0 V
stroke

 /TransparentPatterns true def
12619 1627 154 0 40 30 0 PatternFill
12696 1627 M
stroke
12619 1627 N
154 0 V
-154 0 V
Z stroke
12619 1627 M
154 0 V
-154 0 R
154 0 V
% End plot #2
% Begin plot #3
2.000 UP
stroke
LTa
0.60 0.60 0.00 C LCb setrgbcolor
4714 153 M
[ [(Arial) 180.0 0.0 true true 0 (avg. throughput :         )]
] -60.0 MRshow
2.000 UP
1.000 UL
LTa
0.60 0.60 0.00 C 4822 153 M
333 0 V
1067 4666 M
612 10 V
612 -4 V
612 4 V
612 -2 V
612 -2 V
612 5 V
612 3 V
612 -12 V
612 4 V
612 -3 V
612 0 V
612 0 V
612 1 V
612 6 V
612 -4 V
613 0 V
612 -3 V
612 0 V
612 2 V
1067 4666 Box
1679 4676 Box
2291 4672 Box
2903 4676 Box
3515 4674 Box
4127 4672 Box
4739 4677 Box
5351 4680 Box
5963 4668 Box
6575 4672 Box
7187 4669 Box
7799 4669 Box
8411 4669 Box
9023 4670 Box
9635 4676 Box
10247 4672 Box
10860 4672 Box
11472 4669 Box
12084 4669 Box
12696 4671 Box
4988 153 Box
% End plot #3
% Begin plot #4
1.000 UL
LTb
0.00 0.00 0.63 C LCb setrgbcolor
8287 333 M
[ [(Arial) 180.0 0.0 true true 0 (per-packet)]
] -60.0 MRshow
1.000 UL
LTb
0.00 0.00 0.63 C 8395 288 333 90 80 45 0 PatternFill
8395 288 N
333 0 V
0 90 V
-333 0 V
0 -90 V
Z stroke
1.000 UL
LTb
0.00 0.00 0.63 C 1159 1106 154 1675 80 45 0 PatternFill
1236 1058 M
0 48 V
0 1675 R
0 684 V
stroke
1159 1106 N
154 0 V
0 1675 V
-154 0 V
0 -1675 V
Z stroke
1159 3465 M
154 0 V
1159 1058 M
154 0 V
stroke
1771 1102 154 1716 80 45 0 PatternFill
1848 1055 M
0 47 V
0 1716 R
0 648 V
stroke
1771 1102 N
154 0 V
0 1716 V
-154 0 V
0 -1716 V
Z stroke
1771 3466 M
154 0 V
1771 1055 M
154 0 V
stroke
2383 1106 154 1762 80 45 0 PatternFill
2460 1059 M
0 47 V
0 1762 R
0 953 V
stroke
2383 1106 N
154 0 V
0 1762 V
-154 0 V
0 -1762 V
Z stroke
2383 3821 M
154 0 V
2383 1059 M
154 0 V
stroke
2995 1098 154 1711 80 45 0 PatternFill
3072 1059 M
0 39 V
0 1711 R
0 607 V
stroke
2995 1098 N
154 0 V
0 1711 V
-154 0 V
0 -1711 V
Z stroke
2995 3416 M
154 0 V
2995 1059 M
154 0 V
stroke
3607 1095 154 1746 80 45 0 PatternFill
3684 1053 M
0 42 V
0 1746 R
0 811 V
stroke
3607 1095 N
154 0 V
0 1746 V
-154 0 V
0 -1746 V
Z stroke
3607 3652 M
154 0 V
3607 1053 M
154 0 V
stroke
4219 1109 154 1785 80 45 0 PatternFill
4296 1071 M
0 38 V
0 1785 R
0 582 V
stroke
4219 1109 N
154 0 V
0 1785 V
-154 0 V
0 -1785 V
Z stroke
4219 3476 M
154 0 V
4219 1071 M
154 0 V
stroke
4831 1108 154 1728 80 45 0 PatternFill
4908 1055 M
0 53 V
0 1728 R
0 777 V
stroke
4831 1108 N
154 0 V
0 1728 V
-154 0 V
0 -1728 V
Z stroke
4831 3613 M
154 0 V
4831 1055 M
154 0 V
stroke
5443 1098 154 1716 80 45 0 PatternFill
5520 1060 M
0 38 V
0 1716 R
0 689 V
stroke
5443 1098 N
154 0 V
0 1716 V
-154 0 V
0 -1716 V
Z stroke
5443 3503 M
154 0 V
5443 1060 M
154 0 V
stroke
6055 1098 154 1737 80 45 0 PatternFill
6132 1045 M
0 53 V
0 1737 R
0 841 V
stroke
6055 1098 N
154 0 V
0 1737 V
-154 0 V
0 -1737 V
Z stroke
6055 3676 M
154 0 V
6055 1045 M
154 0 V
stroke
6667 1100 154 1691 80 45 0 PatternFill
6744 1060 M
0 40 V
0 1691 R
0 740 V
stroke
6667 1100 N
154 0 V
0 1691 V
-154 0 V
0 -1691 V
Z stroke
6667 3531 M
154 0 V
6667 1060 M
154 0 V
stroke
7279 1103 154 1615 80 45 0 PatternFill
7356 1060 M
0 43 V
0 1615 R
0 923 V
stroke
7279 1103 N
154 0 V
0 1615 V
-154 0 V
0 -1615 V
Z stroke
7279 3641 M
154 0 V
7279 1060 M
154 0 V
stroke
7891 1096 154 1711 80 45 0 PatternFill
7968 1068 M
0 28 V
0 1711 R
0 948 V
stroke
7891 1096 N
154 0 V
0 1711 V
-154 0 V
0 -1711 V
Z stroke
7891 3755 M
154 0 V
7891 1068 M
154 0 V
stroke
8503 1129 154 1624 80 45 0 PatternFill
8580 1054 M
0 75 V
0 1624 R
0 772 V
stroke
8503 1129 N
154 0 V
0 1624 V
-154 0 V
0 -1624 V
Z stroke
8503 3525 M
154 0 V
8503 1054 M
154 0 V
stroke
9115 1113 154 1682 80 45 0 PatternFill
9192 1060 M
0 53 V
0 1682 R
0 607 V
stroke
9115 1113 N
154 0 V
0 1682 V
-154 0 V
0 -1682 V
Z stroke
9115 3402 M
154 0 V
9115 1060 M
154 0 V
stroke
9727 1127 154 1579 80 45 0 PatternFill
9804 1062 M
0 65 V
0 1579 R
0 878 V
stroke
9727 1127 N
154 0 V
0 1579 V
-154 0 V
0 -1579 V
Z stroke
9727 3584 M
154 0 V
9727 1062 M
154 0 V
stroke
10339 1131 154 1651 80 45 0 PatternFill
10416 1059 M
0 72 V
0 1651 R
0 626 V
stroke
10339 1131 N
154 0 V
0 1651 V
-154 0 V
0 -1651 V
Z stroke
10339 3408 M
154 0 V
10339 1059 M
154 0 V
stroke
10951 1144 154 1705 80 45 0 PatternFill
11028 1059 M
0 85 V
0 1705 R
0 581 V
stroke
10951 1144 N
154 0 V
0 1705 V
-154 0 V
0 -1705 V
Z stroke
10951 3430 M
154 0 V
10951 1059 M
154 0 V
stroke
11563 1134 154 1640 80 45 0 PatternFill
11640 1053 M
0 81 V
0 1640 R
0 1096 V
stroke
11563 1134 N
154 0 V
0 1640 V
-154 0 V
0 -1640 V
Z stroke
11563 3870 M
154 0 V
11563 1053 M
154 0 V
stroke
12175 1156 154 1613 80 45 0 PatternFill
12252 1068 M
0 88 V
0 1613 R
0 528 V
stroke
12175 1156 N
154 0 V
0 1613 V
-154 0 V
0 -1613 V
Z stroke
12175 3297 M
154 0 V
12175 1068 M
154 0 V
stroke
12787 1200 154 1484 80 45 0 PatternFill
12864 1041 M
0 159 V
0 1484 R
0 738 V
stroke
12787 1200 N
154 0 V
0 1484 V
-154 0 V
0 -1484 V
Z stroke
12787 3422 M
154 0 V
12787 1041 M
154 0 V
% End plot #4
% Begin plot #5
stroke
LTb
LCb setrgbcolor

 /TransparentPatterns true def
1159 1798 154 0 80 -45 0 PatternFill
1236 1798 M
stroke
1159 1798 N
154 0 V
-154 0 V
Z stroke
1159 1798 M
154 0 V
-154 0 R
154 0 V
stroke

 /TransparentPatterns true def
1771 1797 154 0 80 -45 0 PatternFill
1848 1797 M
stroke
1771 1797 N
154 0 V
-154 0 V
Z stroke
1771 1797 M
154 0 V
-154 0 R
154 0 V
stroke

 /TransparentPatterns true def
2383 1825 154 0 80 -45 0 PatternFill
2460 1825 M
stroke
2383 1825 N
154 0 V
-154 0 V
Z stroke
2383 1825 M
154 0 V
-154 0 R
154 0 V
stroke

 /TransparentPatterns true def
2995 1796 154 0 80 -45 0 PatternFill
3072 1796 M
stroke
2995 1796 N
154 0 V
-154 0 V
Z stroke
2995 1796 M
154 0 V
-154 0 R
154 0 V
stroke

 /TransparentPatterns true def
3607 1836 154 0 80 -45 0 PatternFill
3684 1836 M
stroke
3607 1836 N
154 0 V
-154 0 V
Z stroke
3607 1836 M
154 0 V
-154 0 R
154 0 V
stroke

 /TransparentPatterns true def
4219 1813 154 0 80 -45 0 PatternFill
4296 1813 M
stroke
4219 1813 N
154 0 V
-154 0 V
Z stroke
4219 1813 M
154 0 V
-154 0 R
154 0 V
stroke

 /TransparentPatterns true def
4831 1805 154 0 80 -45 0 PatternFill
4908 1805 M
stroke
4831 1805 N
154 0 V
-154 0 V
Z stroke
4831 1805 M
154 0 V
-154 0 R
154 0 V
stroke

 /TransparentPatterns true def
5443 1788 154 0 80 -45 0 PatternFill
5520 1788 M
stroke
5443 1788 N
154 0 V
-154 0 V
Z stroke
5443 1788 M
154 0 V
-154 0 R
154 0 V
stroke

 /TransparentPatterns true def
6055 1818 154 0 80 -45 0 PatternFill
6132 1818 M
stroke
6055 1818 N
154 0 V
-154 0 V
Z stroke
6055 1818 M
154 0 V
-154 0 R
154 0 V
stroke

 /TransparentPatterns true def
6667 1817 154 0 80 -45 0 PatternFill
6744 1817 M
stroke
6667 1817 N
154 0 V
-154 0 V
Z stroke
6667 1817 M
154 0 V
-154 0 R
154 0 V
stroke

 /TransparentPatterns true def
7279 1785 154 0 80 -45 0 PatternFill
7356 1785 M
stroke
7279 1785 N
154 0 V
-154 0 V
Z stroke
7279 1785 M
154 0 V
-154 0 R
154 0 V
stroke

 /TransparentPatterns true def
7891 1791 154 0 80 -45 0 PatternFill
7968 1791 M
stroke
7891 1791 N
154 0 V
-154 0 V
Z stroke
7891 1791 M
154 0 V
-154 0 R
154 0 V
stroke

 /TransparentPatterns true def
8503 1811 154 0 80 -45 0 PatternFill
8580 1811 M
stroke
8503 1811 N
154 0 V
-154 0 V
Z stroke
8503 1811 M
154 0 V
-154 0 R
154 0 V
stroke

 /TransparentPatterns true def
9115 1801 154 0 80 -45 0 PatternFill
9192 1801 M
stroke
9115 1801 N
154 0 V
-154 0 V
Z stroke
9115 1801 M
154 0 V
-154 0 R
154 0 V
stroke

 /TransparentPatterns true def
9727 1808 154 0 80 -45 0 PatternFill
9804 1808 M
stroke
9727 1808 N
154 0 V
-154 0 V
Z stroke
9727 1808 M
154 0 V
-154 0 R
154 0 V
stroke

 /TransparentPatterns true def
10339 1815 154 0 80 -45 0 PatternFill
10416 1815 M
stroke
10339 1815 N
154 0 V
-154 0 V
Z stroke
10339 1815 M
154 0 V
-154 0 R
154 0 V
stroke

 /TransparentPatterns true def
10951 1839 154 0 80 -45 0 PatternFill
11028 1839 M
stroke
10951 1839 N
154 0 V
-154 0 V
Z stroke
10951 1839 M
154 0 V
-154 0 R
154 0 V
stroke

 /TransparentPatterns true def
11563 1817 154 0 80 -45 0 PatternFill
11640 1817 M
stroke
11563 1817 N
154 0 V
-154 0 V
Z stroke
11563 1817 M
154 0 V
-154 0 R
154 0 V
stroke

 /TransparentPatterns true def
12175 1865 154 0 80 -45 0 PatternFill
12252 1865 M
stroke
12175 1865 N
154 0 V
-154 0 V
Z stroke
12175 1865 M
154 0 V
-154 0 R
154 0 V
stroke

 /TransparentPatterns true def
12787 1843 154 0 80 -45 0 PatternFill
12864 1843 M
stroke
12787 1843 N
154 0 V
-154 0 V
Z stroke
12787 1843 M
154 0 V
-154 0 R
154 0 V
% End plot #5
% Begin plot #6
2.000 UP
stroke
LTa
0.00 0.00 0.63 C LCb setrgbcolor
8287 153 M
[ [(Arial) 180.0 0.0 true true 0 ( )]
] -60.0 MRshow
2.000 UP
1.000 UL
LTa
0.00 0.00 0.63 C 8395 153 M
333 0 V
1235 4780 M
612 10 V
612 -4 V
612 4 V
612 -2 V
612 -2 V
612 2 V
612 -1 V
612 1 V
612 0 V
613 -1 V
612 1 V
612 -1 V
612 1 V
612 0 V
612 -1 V
612 1 V
612 -1 V
612 1 V
612 0 V
1235 4780 Circle
1847 4790 Circle
2459 4786 Circle
3071 4790 Circle
3683 4788 Circle
4295 4786 Circle
4907 4788 Circle
5519 4787 Circle
6131 4788 Circle
6743 4788 Circle
7356 4787 Circle
7968 4788 Circle
8580 4787 Circle
9192 4788 Circle
9804 4788 Circle
10416 4787 Circle
11028 4788 Circle
11640 4787 Circle
12252 4788 Circle
12864 4788 Circle
8561 153 Circle
% End plot #6
% Begin plot #7
1.000 UL
LTb
0.00 0.38 0.82 C LCb setrgbcolor
11860 333 M
[ [(Arial) 180.0 0.0 true true 0 (per-flow)]
] -60.0 MRshow
1.000 UL
LTb
0.00 0.38 0.82 C 11968 288 333 90 40 30 0 PatternFill
11968 288 N
333 0 V
0 90 V
-333 0 V
0 -90 V
Z stroke
1.000 UL
LTb
0.00 0.38 0.82 C 1327 1107 154 244 40 30 0 PatternFill
1404 1066 M
0 41 V
0 244 R
0 1509 V
stroke
1327 1107 N
154 0 V
0 244 V
-154 0 V
0 -244 V
Z stroke
1327 2860 M
154 0 V
1327 1066 M
154 0 V
stroke
1939 1115 154 234 40 30 0 PatternFill
2016 1074 M
0 41 V
0 234 R
0 989 V
stroke
1939 1115 N
154 0 V
0 234 V
-154 0 V
0 -234 V
Z stroke
1939 2338 M
154 0 V
1939 1074 M
154 0 V
stroke
2551 1110 154 357 40 30 0 PatternFill
2628 1052 M
0 58 V
0 357 R
0 1113 V
stroke
2551 1110 N
154 0 V
0 357 V
-154 0 V
0 -357 V
Z stroke
2551 2580 M
154 0 V
2551 1052 M
154 0 V
stroke
3163 1110 154 325 40 30 0 PatternFill
3240 1079 M
0 31 V
0 325 R
0 1198 V
stroke
3163 1110 N
154 0 V
0 325 V
-154 0 V
0 -325 V
Z stroke
3163 2633 M
154 0 V
3163 1079 M
154 0 V
stroke
3775 1102 154 217 40 30 0 PatternFill
3852 1066 M
0 36 V
0 217 R
0 962 V
stroke
3775 1102 N
154 0 V
0 217 V
-154 0 V
0 -217 V
Z stroke
3775 2281 M
154 0 V
3775 1066 M
154 0 V
stroke
4387 1109 154 282 40 30 0 PatternFill
4464 1066 M
0 43 V
0 282 R
0 1156 V
stroke
4387 1109 N
154 0 V
0 282 V
-154 0 V
0 -282 V
Z stroke
4387 2547 M
154 0 V
4387 1066 M
154 0 V
stroke
4999 1126 154 261 40 30 0 PatternFill
5076 1074 M
0 52 V
0 261 R
0 626 V
stroke
4999 1126 N
154 0 V
0 261 V
-154 0 V
0 -261 V
Z stroke
4999 2013 M
154 0 V
4999 1074 M
154 0 V
stroke
5611 1119 154 293 40 30 0 PatternFill
5688 1059 M
0 60 V
0 293 R
0 1505 V
stroke
5611 1119 N
154 0 V
0 293 V
-154 0 V
0 -293 V
Z stroke
5611 2917 M
154 0 V
5611 1059 M
154 0 V
stroke
6223 1106 154 332 40 30 0 PatternFill
6300 1058 M
0 48 V
0 332 R
0 1022 V
stroke
6223 1106 N
154 0 V
0 332 V
-154 0 V
0 -332 V
Z stroke
6223 2460 M
154 0 V
6223 1058 M
154 0 V
stroke
6835 1115 154 235 40 30 0 PatternFill
6912 1056 M
0 59 V
0 235 R
0 1477 V
stroke
6835 1115 N
154 0 V
0 235 V
-154 0 V
0 -235 V
Z stroke
6835 2827 M
154 0 V
6835 1056 M
154 0 V
stroke
7447 1125 154 272 40 30 0 PatternFill
7524 1076 M
0 49 V
0 272 R
0 1113 V
stroke
7447 1125 N
154 0 V
0 272 V
-154 0 V
0 -272 V
Z stroke
7447 2510 M
154 0 V
7447 1076 M
154 0 V
stroke
8059 1115 154 336 40 30 0 PatternFill
8136 1068 M
0 47 V
0 336 R
0 1780 V
stroke
8059 1115 N
154 0 V
0 336 V
-154 0 V
0 -336 V
Z stroke
8059 3231 M
154 0 V
8059 1068 M
154 0 V
stroke
8671 1118 154 339 40 30 0 PatternFill
8748 1074 M
0 44 V
0 339 R
0 948 V
stroke
8671 1118 N
154 0 V
0 339 V
-154 0 V
0 -339 V
Z stroke
8671 2405 M
154 0 V
8671 1074 M
154 0 V
stroke
9283 1122 154 266 40 30 0 PatternFill
9360 1056 M
0 66 V
0 266 R
0 861 V
stroke
9283 1122 N
154 0 V
0 266 V
-154 0 V
0 -266 V
Z stroke
9283 2249 M
154 0 V
9283 1056 M
154 0 V
stroke
9896 1124 154 293 40 30 0 PatternFill
9973 1077 M
0 47 V
0 293 R
0 710 V
stroke
9896 1124 N
154 0 V
0 293 V
-154 0 V
0 -293 V
Z stroke
9896 2127 M
154 0 V
9896 1077 M
154 0 V
stroke
10508 1140 154 339 40 30 0 PatternFill
10585 1040 M
0 100 V
0 339 R
0 1106 V
stroke
10508 1140 N
154 0 V
0 339 V
-154 0 V
0 -339 V
Z stroke
10508 2585 M
154 0 V
10508 1040 M
154 0 V
stroke
11120 1152 154 307 40 30 0 PatternFill
11197 1055 M
0 97 V
0 307 R
0 1089 V
stroke
11120 1152 N
154 0 V
0 307 V
-154 0 V
0 -307 V
Z stroke
11120 2548 M
154 0 V
11120 1055 M
154 0 V
stroke
11732 1158 154 320 40 30 0 PatternFill
11809 1076 M
0 82 V
0 320 R
0 1046 V
stroke
11732 1158 N
154 0 V
0 320 V
-154 0 V
0 -320 V
Z stroke
11732 2524 M
154 0 V
11732 1076 M
154 0 V
stroke
12344 1142 154 448 40 30 0 PatternFill
12421 1060 M
0 82 V
0 448 R
0 1211 V
stroke
12344 1142 N
154 0 V
0 448 V
-154 0 V
0 -448 V
Z stroke
12344 2801 M
154 0 V
12344 1060 M
154 0 V
stroke
12956 1132 154 377 40 30 0 PatternFill
13033 1059 M
0 73 V
0 377 R
0 1008 V
stroke
12956 1132 N
154 0 V
0 377 V
-154 0 V
0 -377 V
Z stroke
12956 2517 M
154 0 V
12956 1059 M
154 0 V
% End plot #7
% Begin plot #8
stroke
LTb
LCb setrgbcolor

 /TransparentPatterns true def
1327 1265 154 0 40 -30 0 PatternFill
1404 1265 M
stroke
1327 1265 N
154 0 V
-154 0 V
Z stroke
1327 1265 M
154 0 V
-154 0 R
154 0 V
stroke

 /TransparentPatterns true def
1939 1270 154 0 40 -30 0 PatternFill
2016 1270 M
stroke
1939 1270 N
154 0 V
-154 0 V
Z stroke
1939 1270 M
154 0 V
-154 0 R
154 0 V
stroke

 /TransparentPatterns true def
2551 1285 154 0 40 -30 0 PatternFill
2628 1285 M
stroke
2551 1285 N
154 0 V
-154 0 V
Z stroke
2551 1285 M
154 0 V
-154 0 R
154 0 V
stroke

 /TransparentPatterns true def
3163 1272 154 0 40 -30 0 PatternFill
3240 1272 M
stroke
3163 1272 N
154 0 V
-154 0 V
Z stroke
3163 1272 M
154 0 V
-154 0 R
154 0 V
stroke

 /TransparentPatterns true def
3775 1243 154 0 40 -30 0 PatternFill
3852 1243 M
stroke
3775 1243 N
154 0 V
-154 0 V
Z stroke
3775 1243 M
154 0 V
-154 0 R
154 0 V
stroke

 /TransparentPatterns true def
4387 1264 154 0 40 -30 0 PatternFill
4464 1264 M
stroke
4387 1264 N
154 0 V
-154 0 V
Z stroke
4387 1264 M
154 0 V
-154 0 R
154 0 V
stroke

 /TransparentPatterns true def
4999 1266 154 0 40 -30 0 PatternFill
5076 1266 M
stroke
4999 1266 N
154 0 V
-154 0 V
Z stroke
4999 1266 M
154 0 V
-154 0 R
154 0 V
stroke

 /TransparentPatterns true def
5611 1302 154 0 40 -30 0 PatternFill
5688 1302 M
stroke
5611 1302 N
154 0 V
-154 0 V
Z stroke
5611 1302 M
154 0 V
-154 0 R
154 0 V
stroke

 /TransparentPatterns true def
6223 1274 154 0 40 -30 0 PatternFill
6300 1274 M
stroke
6223 1274 N
154 0 V
-154 0 V
Z stroke
6223 1274 M
154 0 V
-154 0 R
154 0 V
stroke

 /TransparentPatterns true def
6835 1253 154 0 40 -30 0 PatternFill
6912 1253 M
stroke
6835 1253 N
154 0 V
-154 0 V
Z stroke
6835 1253 M
154 0 V
-154 0 R
154 0 V
stroke

 /TransparentPatterns true def
7447 1289 154 0 40 -30 0 PatternFill
7524 1289 M
stroke
7447 1289 N
154 0 V
-154 0 V
Z stroke
7447 1289 M
154 0 V
-154 0 R
154 0 V
stroke

 /TransparentPatterns true def
8059 1307 154 0 40 -30 0 PatternFill
8136 1307 M
stroke
8059 1307 N
154 0 V
-154 0 V
Z stroke
8059 1307 M
154 0 V
-154 0 R
154 0 V
stroke

 /TransparentPatterns true def
8671 1281 154 0 40 -30 0 PatternFill
8748 1281 M
stroke
8671 1281 N
154 0 V
-154 0 V
Z stroke
8671 1281 M
154 0 V
-154 0 R
154 0 V
stroke

 /TransparentPatterns true def
9283 1278 154 0 40 -30 0 PatternFill
9360 1278 M
stroke
9283 1278 N
154 0 V
-154 0 V
Z stroke
9283 1278 M
154 0 V
-154 0 R
154 0 V
stroke

 /TransparentPatterns true def
9896 1299 154 0 40 -30 0 PatternFill
9973 1299 M
stroke
9896 1299 N
154 0 V
-154 0 V
Z stroke
9896 1299 M
154 0 V
-154 0 R
154 0 V
stroke

 /TransparentPatterns true def
10508 1315 154 0 40 -30 0 PatternFill
10585 1315 M
stroke
10508 1315 N
154 0 V
-154 0 V
Z stroke
10508 1315 M
154 0 V
-154 0 R
154 0 V
stroke

 /TransparentPatterns true def
11120 1315 154 0 40 -30 0 PatternFill
11197 1315 M
stroke
11120 1315 N
154 0 V
-154 0 V
Z stroke
11120 1315 M
154 0 V
-154 0 R
154 0 V
stroke

 /TransparentPatterns true def
11732 1333 154 0 40 -30 0 PatternFill
11809 1333 M
stroke
11732 1333 N
154 0 V
-154 0 V
Z stroke
11732 1333 M
154 0 V
-154 0 R
154 0 V
stroke

 /TransparentPatterns true def
12344 1356 154 0 40 -30 0 PatternFill
12421 1356 M
stroke
12344 1356 N
154 0 V
-154 0 V
Z stroke
12344 1356 M
154 0 V
-154 0 R
154 0 V
stroke

 /TransparentPatterns true def
12956 1355 154 0 40 -30 0 PatternFill
13033 1355 M
stroke
12956 1355 N
154 0 V
-154 0 V
Z stroke
12956 1355 M
154 0 V
-154 0 R
154 0 V
% End plot #8
% Begin plot #9
2.000 UP
stroke
LTa
0.00 0.38 0.82 C LCb setrgbcolor
11860 153 M
[ [(Arial) 180.0 0.0 true true 0 ( )]
] -60.0 MRshow
2.000 UP
1.000 UL
LTa
0.00 0.38 0.82 C 11968 153 M
333 0 V
1403 4780 M
612 10 V
612 -4 V
612 -1 V
613 -1 V
612 2 V
612 -1 V
612 2 V
612 -1 V
612 0 V
612 1 V
612 -1 V
612 0 V
612 -1 V
612 0 V
612 1 V
612 0 V
612 -1 V
612 1 V
612 0 V
1403 4780 TriU
2015 4790 TriU
2627 4786 TriU
3239 4785 TriU
3852 4784 TriU
4464 4786 TriU
5076 4785 TriU
5688 4787 TriU
6300 4786 TriU
6912 4786 TriU
7524 4787 TriU
8136 4786 TriU
8748 4786 TriU
9360 4785 TriU
9972 4785 TriU
10584 4786 TriU
11196 4786 TriU
11808 4785 TriU
12420 4786 TriU
13032 4786 TriU
12134 153 TriU
% End plot #9
2.000 UL
LTb
LCb setrgbcolor
1.000 UP
1.000 UL
LTb
0.00 0.00 0.00 C stroke
grestore
end
showpage
%%Trailer
%%DocumentFonts: Arial
