%!PS-Adobe-2.0 EPSF-2.0
%%Title: TcpHighSpeed-download-rtt-75UE-250-400.eps
%%Creator: gnuplot 5.0 patchlevel 3
%%CreationDate: Thu Jun  2 10:39:42 2016
%%DocumentFonts: (atend)
%%BoundingBox: 50 50 770 302
%%EndComments
%%BeginProlog
/gnudict 256 dict def
gnudict begin
%
% The following true/false flags may be edited by hand if desired.
% The unit line width and grayscale image gamma correction may also be changed.
%
/Color true def
/Blacktext false def
/Solid false def
/Dashlength 3 def
/Landscape false def
/Level1 false def
/Level3 false def
/Rounded false def
/ClipToBoundingBox false def
/SuppressPDFMark false def
/TransparentPatterns false def
/gnulinewidth 15.000 def
/userlinewidth gnulinewidth def
/Gamma 1.0 def
/BackgroundColor {-1.000 -1.000 -1.000} def
%
/vshift -66 def
/dl1 {
  10.0 Dashlength userlinewidth gnulinewidth div mul mul mul
  Rounded { currentlinewidth 0.75 mul sub dup 0 le { pop 0.01 } if } if
} def
/dl2 {
  10.0 Dashlength userlinewidth gnulinewidth div mul mul mul
  Rounded { currentlinewidth 0.75 mul add } if
} def
/hpt_ 31.5 def
/vpt_ 31.5 def
/hpt hpt_ def
/vpt vpt_ def
/doclip {
  ClipToBoundingBox {
    newpath 50 50 moveto 770 50 lineto 770 302 lineto 50 302 lineto closepath
    clip
  } if
} def
%
% Gnuplot Prolog Version 5.1 (Oct 2015)
%
%/SuppressPDFMark true def
%
/M {moveto} bind def
/L {lineto} bind def
/R {rmoveto} bind def
/V {rlineto} bind def
/N {newpath moveto} bind def
/Z {closepath} bind def
/C {setrgbcolor} bind def
/f {rlineto fill} bind def
/g {setgray} bind def
/Gshow {show} def   % May be redefined later in the file to support UTF-8
/vpt2 vpt 2 mul def
/hpt2 hpt 2 mul def
/Lshow {currentpoint stroke M 0 vshift R 
	Blacktext {gsave 0 setgray textshow grestore} {textshow} ifelse} def
/Rshow {currentpoint stroke M dup stringwidth pop neg vshift R
	Blacktext {gsave 0 setgray textshow grestore} {textshow} ifelse} def
/Cshow {currentpoint stroke M dup stringwidth pop -2 div vshift R 
	Blacktext {gsave 0 setgray textshow grestore} {textshow} ifelse} def
/UP {dup vpt_ mul /vpt exch def hpt_ mul /hpt exch def
  /hpt2 hpt 2 mul def /vpt2 vpt 2 mul def} def
/DL {Color {setrgbcolor Solid {pop []} if 0 setdash}
 {pop pop pop 0 setgray Solid {pop []} if 0 setdash} ifelse} def
/BL {stroke userlinewidth 2 mul setlinewidth
	Rounded {1 setlinejoin 1 setlinecap} if} def
/AL {stroke userlinewidth 2 div setlinewidth
	Rounded {1 setlinejoin 1 setlinecap} if} def
/UL {dup gnulinewidth mul /userlinewidth exch def
	dup 1 lt {pop 1} if 10 mul /udl exch def} def
/PL {stroke userlinewidth setlinewidth
	Rounded {1 setlinejoin 1 setlinecap} if} def
3.8 setmiterlimit
% Classic Line colors (version 5.0)
/LCw {1 1 1} def
/LCb {0 0 0} def
/LCa {0 0 0} def
/LC0 {1 0 0} def
/LC1 {0 1 0} def
/LC2 {0 0 1} def
/LC3 {1 0 1} def
/LC4 {0 1 1} def
/LC5 {1 1 0} def
/LC6 {0 0 0} def
/LC7 {1 0.3 0} def
/LC8 {0.5 0.5 0.5} def
% Default dash patterns (version 5.0)
/LTB {BL [] LCb DL} def
/LTw {PL [] 1 setgray} def
/LTb {PL [] LCb DL} def
/LTa {AL [1 udl mul 2 udl mul] 0 setdash LCa setrgbcolor} def
/LT0 {PL [] LC0 DL} def
/LT1 {PL [2 dl1 3 dl2] LC1 DL} def
/LT2 {PL [1 dl1 1.5 dl2] LC2 DL} def
/LT3 {PL [6 dl1 2 dl2 1 dl1 2 dl2] LC3 DL} def
/LT4 {PL [1 dl1 2 dl2 6 dl1 2 dl2 1 dl1 2 dl2] LC4 DL} def
/LT5 {PL [4 dl1 2 dl2] LC5 DL} def
/LT6 {PL [1.5 dl1 1.5 dl2 1.5 dl1 1.5 dl2 1.5 dl1 6 dl2] LC6 DL} def
/LT7 {PL [3 dl1 3 dl2 1 dl1 3 dl2] LC7 DL} def
/LT8 {PL [2 dl1 2 dl2 2 dl1 6 dl2] LC8 DL} def
/SL {[] 0 setdash} def
/Pnt {stroke [] 0 setdash gsave 1 setlinecap M 0 0 V stroke grestore} def
/Dia {stroke [] 0 setdash 2 copy vpt add M
  hpt neg vpt neg V hpt vpt neg V
  hpt vpt V hpt neg vpt V closepath stroke
  Pnt} def
/Pls {stroke [] 0 setdash vpt sub M 0 vpt2 V
  currentpoint stroke M
  hpt neg vpt neg R hpt2 0 V stroke
 } def
/Box {stroke [] 0 setdash 2 copy exch hpt sub exch vpt add M
  0 vpt2 neg V hpt2 0 V 0 vpt2 V
  hpt2 neg 0 V closepath stroke
  Pnt} def
/Crs {stroke [] 0 setdash exch hpt sub exch vpt add M
  hpt2 vpt2 neg V currentpoint stroke M
  hpt2 neg 0 R hpt2 vpt2 V stroke} def
/TriU {stroke [] 0 setdash 2 copy vpt 1.12 mul add M
  hpt neg vpt -1.62 mul V
  hpt 2 mul 0 V
  hpt neg vpt 1.62 mul V closepath stroke
  Pnt} def
/Star {2 copy Pls Crs} def
/BoxF {stroke [] 0 setdash exch hpt sub exch vpt add M
  0 vpt2 neg V hpt2 0 V 0 vpt2 V
  hpt2 neg 0 V closepath fill} def
/TriUF {stroke [] 0 setdash vpt 1.12 mul add M
  hpt neg vpt -1.62 mul V
  hpt 2 mul 0 V
  hpt neg vpt 1.62 mul V closepath fill} def
/TriD {stroke [] 0 setdash 2 copy vpt 1.12 mul sub M
  hpt neg vpt 1.62 mul V
  hpt 2 mul 0 V
  hpt neg vpt -1.62 mul V closepath stroke
  Pnt} def
/TriDF {stroke [] 0 setdash vpt 1.12 mul sub M
  hpt neg vpt 1.62 mul V
  hpt 2 mul 0 V
  hpt neg vpt -1.62 mul V closepath fill} def
/DiaF {stroke [] 0 setdash vpt add M
  hpt neg vpt neg V hpt vpt neg V
  hpt vpt V hpt neg vpt V closepath fill} def
/Pent {stroke [] 0 setdash 2 copy gsave
  translate 0 hpt M 4 {72 rotate 0 hpt L} repeat
  closepath stroke grestore Pnt} def
/PentF {stroke [] 0 setdash gsave
  translate 0 hpt M 4 {72 rotate 0 hpt L} repeat
  closepath fill grestore} def
/Circle {stroke [] 0 setdash 2 copy
  hpt 0 360 arc stroke Pnt} def
/CircleF {stroke [] 0 setdash hpt 0 360 arc fill} def
/C0 {BL [] 0 setdash 2 copy moveto vpt 90 450 arc} bind def
/C1 {BL [] 0 setdash 2 copy moveto
	2 copy vpt 0 90 arc closepath fill
	vpt 0 360 arc closepath} bind def
/C2 {BL [] 0 setdash 2 copy moveto
	2 copy vpt 90 180 arc closepath fill
	vpt 0 360 arc closepath} bind def
/C3 {BL [] 0 setdash 2 copy moveto
	2 copy vpt 0 180 arc closepath fill
	vpt 0 360 arc closepath} bind def
/C4 {BL [] 0 setdash 2 copy moveto
	2 copy vpt 180 270 arc closepath fill
	vpt 0 360 arc closepath} bind def
/C5 {BL [] 0 setdash 2 copy moveto
	2 copy vpt 0 90 arc
	2 copy moveto
	2 copy vpt 180 270 arc closepath fill
	vpt 0 360 arc} bind def
/C6 {BL [] 0 setdash 2 copy moveto
	2 copy vpt 90 270 arc closepath fill
	vpt 0 360 arc closepath} bind def
/C7 {BL [] 0 setdash 2 copy moveto
	2 copy vpt 0 270 arc closepath fill
	vpt 0 360 arc closepath} bind def
/C8 {BL [] 0 setdash 2 copy moveto
	2 copy vpt 270 360 arc closepath fill
	vpt 0 360 arc closepath} bind def
/C9 {BL [] 0 setdash 2 copy moveto
	2 copy vpt 270 450 arc closepath fill
	vpt 0 360 arc closepath} bind def
/C10 {BL [] 0 setdash 2 copy 2 copy moveto vpt 270 360 arc closepath fill
	2 copy moveto
	2 copy vpt 90 180 arc closepath fill
	vpt 0 360 arc closepath} bind def
/C11 {BL [] 0 setdash 2 copy moveto
	2 copy vpt 0 180 arc closepath fill
	2 copy moveto
	2 copy vpt 270 360 arc closepath fill
	vpt 0 360 arc closepath} bind def
/C12 {BL [] 0 setdash 2 copy moveto
	2 copy vpt 180 360 arc closepath fill
	vpt 0 360 arc closepath} bind def
/C13 {BL [] 0 setdash 2 copy moveto
	2 copy vpt 0 90 arc closepath fill
	2 copy moveto
	2 copy vpt 180 360 arc closepath fill
	vpt 0 360 arc closepath} bind def
/C14 {BL [] 0 setdash 2 copy moveto
	2 copy vpt 90 360 arc closepath fill
	vpt 0 360 arc} bind def
/C15 {BL [] 0 setdash 2 copy vpt 0 360 arc closepath fill
	vpt 0 360 arc closepath} bind def
/Rec {newpath 4 2 roll moveto 1 index 0 rlineto 0 exch rlineto
	neg 0 rlineto closepath} bind def
/Square {dup Rec} bind def
/Bsquare {vpt sub exch vpt sub exch vpt2 Square} bind def
/S0 {BL [] 0 setdash 2 copy moveto 0 vpt rlineto BL Bsquare} bind def
/S1 {BL [] 0 setdash 2 copy vpt Square fill Bsquare} bind def
/S2 {BL [] 0 setdash 2 copy exch vpt sub exch vpt Square fill Bsquare} bind def
/S3 {BL [] 0 setdash 2 copy exch vpt sub exch vpt2 vpt Rec fill Bsquare} bind def
/S4 {BL [] 0 setdash 2 copy exch vpt sub exch vpt sub vpt Square fill Bsquare} bind def
/S5 {BL [] 0 setdash 2 copy 2 copy vpt Square fill
	exch vpt sub exch vpt sub vpt Square fill Bsquare} bind def
/S6 {BL [] 0 setdash 2 copy exch vpt sub exch vpt sub vpt vpt2 Rec fill Bsquare} bind def
/S7 {BL [] 0 setdash 2 copy exch vpt sub exch vpt sub vpt vpt2 Rec fill
	2 copy vpt Square fill Bsquare} bind def
/S8 {BL [] 0 setdash 2 copy vpt sub vpt Square fill Bsquare} bind def
/S9 {BL [] 0 setdash 2 copy vpt sub vpt vpt2 Rec fill Bsquare} bind def
/S10 {BL [] 0 setdash 2 copy vpt sub vpt Square fill 2 copy exch vpt sub exch vpt Square fill
	Bsquare} bind def
/S11 {BL [] 0 setdash 2 copy vpt sub vpt Square fill 2 copy exch vpt sub exch vpt2 vpt Rec fill
	Bsquare} bind def
/S12 {BL [] 0 setdash 2 copy exch vpt sub exch vpt sub vpt2 vpt Rec fill Bsquare} bind def
/S13 {BL [] 0 setdash 2 copy exch vpt sub exch vpt sub vpt2 vpt Rec fill
	2 copy vpt Square fill Bsquare} bind def
/S14 {BL [] 0 setdash 2 copy exch vpt sub exch vpt sub vpt2 vpt Rec fill
	2 copy exch vpt sub exch vpt Square fill Bsquare} bind def
/S15 {BL [] 0 setdash 2 copy Bsquare fill Bsquare} bind def
/D0 {gsave translate 45 rotate 0 0 S0 stroke grestore} bind def
/D1 {gsave translate 45 rotate 0 0 S1 stroke grestore} bind def
/D2 {gsave translate 45 rotate 0 0 S2 stroke grestore} bind def
/D3 {gsave translate 45 rotate 0 0 S3 stroke grestore} bind def
/D4 {gsave translate 45 rotate 0 0 S4 stroke grestore} bind def
/D5 {gsave translate 45 rotate 0 0 S5 stroke grestore} bind def
/D6 {gsave translate 45 rotate 0 0 S6 stroke grestore} bind def
/D7 {gsave translate 45 rotate 0 0 S7 stroke grestore} bind def
/D8 {gsave translate 45 rotate 0 0 S8 stroke grestore} bind def
/D9 {gsave translate 45 rotate 0 0 S9 stroke grestore} bind def
/D10 {gsave translate 45 rotate 0 0 S10 stroke grestore} bind def
/D11 {gsave translate 45 rotate 0 0 S11 stroke grestore} bind def
/D12 {gsave translate 45 rotate 0 0 S12 stroke grestore} bind def
/D13 {gsave translate 45 rotate 0 0 S13 stroke grestore} bind def
/D14 {gsave translate 45 rotate 0 0 S14 stroke grestore} bind def
/D15 {gsave translate 45 rotate 0 0 S15 stroke grestore} bind def
/DiaE {stroke [] 0 setdash vpt add M
  hpt neg vpt neg V hpt vpt neg V
  hpt vpt V hpt neg vpt V closepath stroke} def
/BoxE {stroke [] 0 setdash exch hpt sub exch vpt add M
  0 vpt2 neg V hpt2 0 V 0 vpt2 V
  hpt2 neg 0 V closepath stroke} def
/TriUE {stroke [] 0 setdash vpt 1.12 mul add M
  hpt neg vpt -1.62 mul V
  hpt 2 mul 0 V
  hpt neg vpt 1.62 mul V closepath stroke} def
/TriDE {stroke [] 0 setdash vpt 1.12 mul sub M
  hpt neg vpt 1.62 mul V
  hpt 2 mul 0 V
  hpt neg vpt -1.62 mul V closepath stroke} def
/PentE {stroke [] 0 setdash gsave
  translate 0 hpt M 4 {72 rotate 0 hpt L} repeat
  closepath stroke grestore} def
/CircE {stroke [] 0 setdash 
  hpt 0 360 arc stroke} def
/Opaque {gsave closepath 1 setgray fill grestore 0 setgray closepath} def
/DiaW {stroke [] 0 setdash vpt add M
  hpt neg vpt neg V hpt vpt neg V
  hpt vpt V hpt neg vpt V Opaque stroke} def
/BoxW {stroke [] 0 setdash exch hpt sub exch vpt add M
  0 vpt2 neg V hpt2 0 V 0 vpt2 V
  hpt2 neg 0 V Opaque stroke} def
/TriUW {stroke [] 0 setdash vpt 1.12 mul add M
  hpt neg vpt -1.62 mul V
  hpt 2 mul 0 V
  hpt neg vpt 1.62 mul V Opaque stroke} def
/TriDW {stroke [] 0 setdash vpt 1.12 mul sub M
  hpt neg vpt 1.62 mul V
  hpt 2 mul 0 V
  hpt neg vpt -1.62 mul V Opaque stroke} def
/PentW {stroke [] 0 setdash gsave
  translate 0 hpt M 4 {72 rotate 0 hpt L} repeat
  Opaque stroke grestore} def
/CircW {stroke [] 0 setdash 
  hpt 0 360 arc Opaque stroke} def
/BoxFill {gsave Rec 1 setgray fill grestore} def
/Density {
  /Fillden exch def
  currentrgbcolor
  /ColB exch def /ColG exch def /ColR exch def
  /ColR ColR Fillden mul Fillden sub 1 add def
  /ColG ColG Fillden mul Fillden sub 1 add def
  /ColB ColB Fillden mul Fillden sub 1 add def
  ColR ColG ColB setrgbcolor} def
/BoxColFill {gsave Rec PolyFill} def
/PolyFill {gsave Density fill grestore grestore} def
/h {rlineto rlineto rlineto gsave closepath fill grestore} bind def
%
% PostScript Level 1 Pattern Fill routine for rectangles
% Usage: x y w h s a XX PatternFill
%	x,y = lower left corner of box to be filled
%	w,h = width and height of box
%	  a = angle in degrees between lines and x-axis
%	 XX = 0/1 for no/yes cross-hatch
%
/PatternFill {gsave /PFa [ 9 2 roll ] def
  PFa 0 get PFa 2 get 2 div add PFa 1 get PFa 3 get 2 div add translate
  PFa 2 get -2 div PFa 3 get -2 div PFa 2 get PFa 3 get Rec
  TransparentPatterns {} {gsave 1 setgray fill grestore} ifelse
  clip
  currentlinewidth 0.5 mul setlinewidth
  /PFs PFa 2 get dup mul PFa 3 get dup mul add sqrt def
  0 0 M PFa 5 get rotate PFs -2 div dup translate
  0 1 PFs PFa 4 get div 1 add floor cvi
	{PFa 4 get mul 0 M 0 PFs V} for
  0 PFa 6 get ne {
	0 1 PFs PFa 4 get div 1 add floor cvi
	{PFa 4 get mul 0 2 1 roll M PFs 0 V} for
 } if
  stroke grestore} def
%
/languagelevel where
 {pop languagelevel} {1} ifelse
dup 2 lt
	{/InterpretLevel1 true def
	 /InterpretLevel3 false def}
	{/InterpretLevel1 Level1 def
	 2 gt
	    {/InterpretLevel3 Level3 def}
	    {/InterpretLevel3 false def}
	 ifelse }
 ifelse
%
% PostScript level 2 pattern fill definitions
%
/Level2PatternFill {
/Tile8x8 {/PaintType 2 /PatternType 1 /TilingType 1 /BBox [0 0 8 8] /XStep 8 /YStep 8}
	bind def
/KeepColor {currentrgbcolor [/Pattern /DeviceRGB] setcolorspace} bind def
<< Tile8x8
 /PaintProc {0.5 setlinewidth pop 0 0 M 8 8 L 0 8 M 8 0 L stroke} 
>> matrix makepattern
/Pat1 exch def
<< Tile8x8
 /PaintProc {0.5 setlinewidth pop 0 0 M 8 8 L 0 8 M 8 0 L stroke
	0 4 M 4 8 L 8 4 L 4 0 L 0 4 L stroke}
>> matrix makepattern
/Pat2 exch def
<< Tile8x8
 /PaintProc {0.5 setlinewidth pop 0 0 M 0 8 L
	8 8 L 8 0 L 0 0 L fill}
>> matrix makepattern
/Pat3 exch def
<< Tile8x8
 /PaintProc {0.5 setlinewidth pop -4 8 M 8 -4 L
	0 12 M 12 0 L stroke}
>> matrix makepattern
/Pat4 exch def
<< Tile8x8
 /PaintProc {0.5 setlinewidth pop -4 0 M 8 12 L
	0 -4 M 12 8 L stroke}
>> matrix makepattern
/Pat5 exch def
<< Tile8x8
 /PaintProc {0.5 setlinewidth pop -2 8 M 4 -4 L
	0 12 M 8 -4 L 4 12 M 10 0 L stroke}
>> matrix makepattern
/Pat6 exch def
<< Tile8x8
 /PaintProc {0.5 setlinewidth pop -2 0 M 4 12 L
	0 -4 M 8 12 L 4 -4 M 10 8 L stroke}
>> matrix makepattern
/Pat7 exch def
<< Tile8x8
 /PaintProc {0.5 setlinewidth pop 8 -2 M -4 4 L
	12 0 M -4 8 L 12 4 M 0 10 L stroke}
>> matrix makepattern
/Pat8 exch def
<< Tile8x8
 /PaintProc {0.5 setlinewidth pop 0 -2 M 12 4 L
	-4 0 M 12 8 L -4 4 M 8 10 L stroke}
>> matrix makepattern
/Pat9 exch def
/Pattern1 {PatternBgnd KeepColor Pat1 setpattern} bind def
/Pattern2 {PatternBgnd KeepColor Pat2 setpattern} bind def
/Pattern3 {PatternBgnd KeepColor Pat3 setpattern} bind def
/Pattern4 {PatternBgnd KeepColor Landscape {Pat5} {Pat4} ifelse setpattern} bind def
/Pattern5 {PatternBgnd KeepColor Landscape {Pat4} {Pat5} ifelse setpattern} bind def
/Pattern6 {PatternBgnd KeepColor Landscape {Pat9} {Pat6} ifelse setpattern} bind def
/Pattern7 {PatternBgnd KeepColor Landscape {Pat8} {Pat7} ifelse setpattern} bind def
} def
%
%
%End of PostScript Level 2 code
%
/PatternBgnd {
  TransparentPatterns {} {gsave 1 setgray fill grestore} ifelse
} def
%
% Substitute for Level 2 pattern fill codes with
% grayscale if Level 2 support is not selected.
%
/Level1PatternFill {
/Pattern1 {0.250 Density} bind def
/Pattern2 {0.500 Density} bind def
/Pattern3 {0.750 Density} bind def
/Pattern4 {0.125 Density} bind def
/Pattern5 {0.375 Density} bind def
/Pattern6 {0.625 Density} bind def
/Pattern7 {0.875 Density} bind def
} def
%
% Now test for support of Level 2 code
%
Level1 {Level1PatternFill} {Level2PatternFill} ifelse
%
/Symbol-Oblique /Symbol findfont [1 0 .167 1 0 0] makefont
dup length dict begin {1 index /FID eq {pop pop} {def} ifelse} forall
currentdict end definefont pop
%
/MFshow {
   { dup 5 get 3 ge
     { 5 get 3 eq {gsave} {grestore} ifelse }
     {dup dup 0 get findfont exch 1 get scalefont setfont
     [ currentpoint ] exch dup 2 get 0 exch R dup 5 get 2 ne {dup dup 6
     get exch 4 get {textshow} {stringwidth pop 0 R} ifelse }if dup 5 get 0 eq
     {dup 3 get {2 get neg 0 exch R pop} {pop aload pop M} ifelse} {dup 5
     get 1 eq {dup 2 get exch dup 3 get exch 6 get stringwidth pop -2 div
     dup 0 R} {dup 6 get stringwidth pop -2 div 0 R 6 get
     textshow 2 index {aload pop M neg 3 -1 roll neg R pop pop} {pop pop pop
     pop aload pop M} ifelse }ifelse }ifelse }
     ifelse }
   forall} def
/Gswidth {dup type /stringtype eq {stringwidth} {pop (n) stringwidth} ifelse} def
/MFwidth {0 exch { dup 5 get 3 ge { 5 get 3 eq { 0 } { pop } ifelse }
 {dup 3 get{dup dup 0 get findfont exch 1 get scalefont setfont
     6 get Gswidth pop add} {pop} ifelse} ifelse} forall} def
/MLshow { currentpoint stroke M
  0 exch R
  Blacktext {gsave 0 setgray MFshow grestore} {MFshow} ifelse } bind def
/MRshow { currentpoint stroke M
  exch dup MFwidth neg 3 -1 roll R
  Blacktext {gsave 0 setgray MFshow grestore} {MFshow} ifelse } bind def
/MCshow { currentpoint stroke M
  exch dup MFwidth -2 div 3 -1 roll R
  Blacktext {gsave 0 setgray MFshow grestore} {MFshow} ifelse } bind def
/XYsave    { [( ) 1 2 true false 3 ()] } bind def
/XYrestore { [( ) 1 2 true false 4 ()] } bind def
Level1 SuppressPDFMark or 
{} {
/SDict 10 dict def
systemdict /pdfmark known not {
  userdict /pdfmark systemdict /cleartomark get put
} if
SDict begin [
  /Title (TcpHighSpeed-download-rtt-75UE-250-400.eps)
  /Subject (gnuplot plot)
  /Creator (gnuplot 5.0 patchlevel 3)
  /Author (nat)
%  /Producer (gnuplot)
%  /Keywords ()
  /CreationDate (Thu Jun  2 10:39:42 2016)
  /DOCINFO pdfmark
end
} ifelse
%
% Support for boxed text - Ethan A Merritt May 2005
%
/InitTextBox { userdict /TBy2 3 -1 roll put userdict /TBx2 3 -1 roll put
           userdict /TBy1 3 -1 roll put userdict /TBx1 3 -1 roll put
	   /Boxing true def } def
/ExtendTextBox { Boxing
    { gsave dup false charpath pathbbox
      dup TBy2 gt {userdict /TBy2 3 -1 roll put} {pop} ifelse
      dup TBx2 gt {userdict /TBx2 3 -1 roll put} {pop} ifelse
      dup TBy1 lt {userdict /TBy1 3 -1 roll put} {pop} ifelse
      dup TBx1 lt {userdict /TBx1 3 -1 roll put} {pop} ifelse
      grestore } if } def
/PopTextBox { newpath TBx1 TBxmargin sub TBy1 TBymargin sub M
               TBx1 TBxmargin sub TBy2 TBymargin add L
	       TBx2 TBxmargin add TBy2 TBymargin add L
	       TBx2 TBxmargin add TBy1 TBymargin sub L closepath } def
/DrawTextBox { PopTextBox stroke /Boxing false def} def
/FillTextBox { gsave PopTextBox 1 1 1 setrgbcolor fill grestore /Boxing false def} def
0 0 0 0 InitTextBox
/TBxmargin 20 def
/TBymargin 20 def
/Boxing false def
/textshow { ExtendTextBox Gshow } def
%
% redundant definitions for compatibility with prologue.ps older than 5.0.2
/LTB {BL [] LCb DL} def
/LTb {PL [] LCb DL} def
end
%%EndProlog
%%Page: 1 1
gnudict begin
gsave
doclip
50 50 translate
0.050 0.050 scale
0 setgray
newpath
(Arial) findfont 200 scalefont setfont
BackgroundColor 0 lt 3 1 roll 0 lt exch 0 lt or or not {BackgroundColor C 1.000 0 0 14400.00 5040.00 BoxColFill} if
1.000 UL
LTb
0.00 0.00 0.00 C 0.500 UL
LTa
0.50 0.50 0.50 C 980 1000 M
12139 0 V
stroke
1.000 UL
LTb
0.00 0.00 0.00 C 980 1000 M
63 0 V
stroke
860 1000 M
[ [(Arial) 200.0 0.0 true true 0 ( 40)]
] -66.7 MRshow
1.000 UL
LTb
0.00 0.00 0.00 C 0.500 UL
LTa
0.50 0.50 0.50 C 980 1475 M
12139 0 V
stroke
1.000 UL
LTb
0.00 0.00 0.00 C 980 1475 M
63 0 V
stroke
860 1475 M
[ [(Arial) 200.0 0.0 true true 0 ( 60)]
] -66.7 MRshow
1.000 UL
LTb
0.00 0.00 0.00 C 0.500 UL
LTa
0.50 0.50 0.50 C 980 1950 M
12139 0 V
stroke
1.000 UL
LTb
0.00 0.00 0.00 C 980 1950 M
63 0 V
stroke
860 1950 M
[ [(Arial) 200.0 0.0 true true 0 ( 80)]
] -66.7 MRshow
1.000 UL
LTb
0.00 0.00 0.00 C 0.500 UL
LTa
0.50 0.50 0.50 C 980 2425 M
12139 0 V
stroke
1.000 UL
LTb
0.00 0.00 0.00 C 980 2425 M
63 0 V
stroke
860 2425 M
[ [(Arial) 200.0 0.0 true true 0 ( 100)]
] -66.7 MRshow
1.000 UL
LTb
0.00 0.00 0.00 C 0.500 UL
LTa
0.50 0.50 0.50 C 980 2900 M
12139 0 V
stroke
1.000 UL
LTb
0.00 0.00 0.00 C 980 2900 M
63 0 V
stroke
860 2900 M
[ [(Arial) 200.0 0.0 true true 0 ( 120)]
] -66.7 MRshow
1.000 UL
LTb
0.00 0.00 0.00 C 0.500 UL
LTa
0.50 0.50 0.50 C 980 3374 M
12139 0 V
stroke
1.000 UL
LTb
0.00 0.00 0.00 C 980 3374 M
63 0 V
stroke
860 3374 M
[ [(Arial) 200.0 0.0 true true 0 ( 140)]
] -66.7 MRshow
1.000 UL
LTb
0.00 0.00 0.00 C 0.500 UL
LTa
0.50 0.50 0.50 C 980 3849 M
12139 0 V
stroke
1.000 UL
LTb
0.00 0.00 0.00 C 980 3849 M
63 0 V
stroke
860 3849 M
[ [(Arial) 200.0 0.0 true true 0 ( 160)]
] -66.7 MRshow
1.000 UL
LTb
0.00 0.00 0.00 C 0.500 UL
LTa
0.50 0.50 0.50 C 980 4324 M
12139 0 V
stroke
1.000 UL
LTb
0.00 0.00 0.00 C 980 4324 M
63 0 V
stroke
860 4324 M
[ [(Arial) 200.0 0.0 true true 0 ( 180)]
] -66.7 MRshow
1.000 UL
LTb
0.00 0.00 0.00 C 0.500 UL
LTa
0.50 0.50 0.50 C 980 4799 M
12139 0 V
stroke
1.000 UL
LTb
0.00 0.00 0.00 C 980 4799 M
63 0 V
stroke
860 4799 M
[ [(Arial) 200.0 0.0 true true 0 ( 200)]
] -66.7 MRshow
1.000 UL
LTb
0.00 0.00 0.00 C 0.500 UL
LTa
0.50 0.50 0.50 C 1359 1000 M
0 3799 V
stroke
1.000 UL
LTb
0.00 0.00 0.00 C 1359 1000 M
0 63 V
0 3736 R
0 -63 V
stroke
1359 800 M
[ [(Arial) 200.0 0.0 true true 0 ( 750)]
] -66.7 MCshow
1.000 UL
LTb
0.00 0.00 0.00 C 0.500 UL
LTa
0.50 0.50 0.50 C 2118 1000 M
0 3799 V
stroke
1.000 UL
LTb
0.00 0.00 0.00 C 2118 1000 M
0 63 V
0 3736 R
0 -63 V
stroke
2118 800 M
[ [(Arial) 200.0 0.0 true true 0 ( 780)]
] -66.7 MCshow
1.000 UL
LTb
0.00 0.00 0.00 C 0.500 UL
LTa
0.50 0.50 0.50 C 2877 1000 M
0 3799 V
stroke
1.000 UL
LTb
0.00 0.00 0.00 C 2877 1000 M
0 63 V
0 3736 R
0 -63 V
stroke
2877 800 M
[ [(Arial) 200.0 0.0 true true 0 ( 810)]
] -66.7 MCshow
1.000 UL
LTb
0.00 0.00 0.00 C 0.500 UL
LTa
0.50 0.50 0.50 C 3635 1000 M
0 3799 V
stroke
1.000 UL
LTb
0.00 0.00 0.00 C 3635 1000 M
0 63 V
0 3736 R
0 -63 V
stroke
3635 800 M
[ [(Arial) 200.0 0.0 true true 0 ( 840)]
] -66.7 MCshow
1.000 UL
LTb
0.00 0.00 0.00 C 0.500 UL
LTa
0.50 0.50 0.50 C 4394 1000 M
0 3799 V
stroke
1.000 UL
LTb
0.00 0.00 0.00 C 4394 1000 M
0 63 V
0 3736 R
0 -63 V
stroke
4394 800 M
[ [(Arial) 200.0 0.0 true true 0 ( 870)]
] -66.7 MCshow
1.000 UL
LTb
0.00 0.00 0.00 C 0.500 UL
LTa
0.50 0.50 0.50 C 5153 1000 M
0 3799 V
stroke
1.000 UL
LTb
0.00 0.00 0.00 C 5153 1000 M
0 63 V
0 3736 R
0 -63 V
stroke
5153 800 M
[ [(Arial) 200.0 0.0 true true 0 ( 900)]
] -66.7 MCshow
1.000 UL
LTb
0.00 0.00 0.00 C 0.500 UL
LTa
0.50 0.50 0.50 C 5911 1000 M
0 3799 V
stroke
1.000 UL
LTb
0.00 0.00 0.00 C 5911 1000 M
0 63 V
0 3736 R
0 -63 V
stroke
5911 800 M
[ [(Arial) 200.0 0.0 true true 0 ( 930)]
] -66.7 MCshow
1.000 UL
LTb
0.00 0.00 0.00 C 0.500 UL
LTa
0.50 0.50 0.50 C 6670 1000 M
0 3799 V
stroke
1.000 UL
LTb
0.00 0.00 0.00 C 6670 1000 M
0 63 V
0 3736 R
0 -63 V
stroke
6670 800 M
[ [(Arial) 200.0 0.0 true true 0 ( 960)]
] -66.7 MCshow
1.000 UL
LTb
0.00 0.00 0.00 C 0.500 UL
LTa
0.50 0.50 0.50 C 7429 1000 M
0 3799 V
stroke
1.000 UL
LTb
0.00 0.00 0.00 C 7429 1000 M
0 63 V
0 3736 R
0 -63 V
stroke
7429 800 M
[ [(Arial) 200.0 0.0 true true 0 ( 990)]
] -66.7 MCshow
1.000 UL
LTb
0.00 0.00 0.00 C 0.500 UL
LTa
0.50 0.50 0.50 C 8188 1000 M
0 3799 V
stroke
1.000 UL
LTb
0.00 0.00 0.00 C 8188 1000 M
0 63 V
0 3736 R
0 -63 V
stroke
8188 800 M
[ [(Arial) 200.0 0.0 true true 0 ( 1020)]
] -66.7 MCshow
1.000 UL
LTb
0.00 0.00 0.00 C 0.500 UL
LTa
0.50 0.50 0.50 C 8946 1000 M
0 3799 V
stroke
1.000 UL
LTb
0.00 0.00 0.00 C 8946 1000 M
0 63 V
0 3736 R
0 -63 V
stroke
8946 800 M
[ [(Arial) 200.0 0.0 true true 0 ( 1050)]
] -66.7 MCshow
1.000 UL
LTb
0.00 0.00 0.00 C 0.500 UL
LTa
0.50 0.50 0.50 C 9705 1000 M
0 3799 V
stroke
1.000 UL
LTb
0.00 0.00 0.00 C 9705 1000 M
0 63 V
0 3736 R
0 -63 V
stroke
9705 800 M
[ [(Arial) 200.0 0.0 true true 0 ( 1080)]
] -66.7 MCshow
1.000 UL
LTb
0.00 0.00 0.00 C 0.500 UL
LTa
0.50 0.50 0.50 C 10464 1000 M
0 3799 V
stroke
1.000 UL
LTb
0.00 0.00 0.00 C 10464 1000 M
0 63 V
0 3736 R
0 -63 V
stroke
10464 800 M
[ [(Arial) 200.0 0.0 true true 0 ( 1110)]
] -66.7 MCshow
1.000 UL
LTb
0.00 0.00 0.00 C 0.500 UL
LTa
0.50 0.50 0.50 C 11222 1000 M
0 3799 V
stroke
1.000 UL
LTb
0.00 0.00 0.00 C 11222 1000 M
0 63 V
0 3736 R
0 -63 V
stroke
11222 800 M
[ [(Arial) 200.0 0.0 true true 0 ( 1140)]
] -66.7 MCshow
1.000 UL
LTb
0.00 0.00 0.00 C 0.500 UL
LTa
0.50 0.50 0.50 C 11981 1000 M
0 3799 V
stroke
1.000 UL
LTb
0.00 0.00 0.00 C 11981 1000 M
0 63 V
0 3736 R
0 -63 V
stroke
11981 800 M
[ [(Arial) 200.0 0.0 true true 0 ( 1170)]
] -66.7 MCshow
1.000 UL
LTb
0.00 0.00 0.00 C 0.500 UL
LTa
0.50 0.50 0.50 C 12740 1000 M
0 3799 V
stroke
1.000 UL
LTb
0.00 0.00 0.00 C 12740 1000 M
0 63 V
0 3736 R
0 -63 V
stroke
12740 800 M
[ [(Arial) 200.0 0.0 true true 0 ( 1200)]
] -66.7 MCshow
1.000 UL
LTb
0.00 0.00 0.00 C 13119 1000 M
-63 0 V
stroke
13239 1000 M
[ [(Arial) 200.0 0.0 true true 0 ( 0)]
] -66.7 MLshow
1.000 UL
LTb
0.00 0.00 0.00 C 13119 1760 M
-63 0 V
stroke
13239 1760 M
[ [(Arial) 200.0 0.0 true true 0 ( 20)]
] -66.7 MLshow
1.000 UL
LTb
0.00 0.00 0.00 C 13119 2520 M
-63 0 V
stroke
13239 2520 M
[ [(Arial) 200.0 0.0 true true 0 ( 40)]
] -66.7 MLshow
1.000 UL
LTb
0.00 0.00 0.00 C 13119 3279 M
-63 0 V
stroke
13239 3279 M
[ [(Arial) 200.0 0.0 true true 0 ( 60)]
] -66.7 MLshow
1.000 UL
LTb
0.00 0.00 0.00 C 13119 4039 M
-63 0 V
stroke
13239 4039 M
[ [(Arial) 200.0 0.0 true true 0 ( 80)]
] -66.7 MLshow
1.000 UL
LTb
0.00 0.00 0.00 C 13119 4799 M
-63 0 V
stroke
13239 4799 M
[ [(Arial) 200.0 0.0 true true 0 ( 100)]
] -66.7 MLshow
1.000 UL
LTb
0.00 0.00 0.00 C 1.000 UL
LTB
0.00 0.00 0.00 C 980 4799 M
0 -3799 V
12139 0 V
0 3799 R
980 4799 M
1.000 UP
stroke
LTb
0.00 0.00 0.00 C LCb setrgbcolor
160 2899 M
currentpoint gsave translate -270 rotate 0 0 moveto
[ [(Arial) 200.0 0.0 true true 0 (RTT \(ms\))]
] -66.7 MCshow
grestore
LTb
LCb setrgbcolor
13938 2899 M
currentpoint gsave translate -270 rotate 0 0 moveto
[ [(Arial) 200.0 0.0 true true 0 (TCP delivery ratio [%])]
] -66.7 MCshow
grestore
LTb
LCb setrgbcolor
7049 500 M
[ [(Arial) 200.0 0.0 true true 0 (Local backhaul traffic traffic \(Mb/s\))]
] -66.7 MCshow
LTb
% Begin plot #1
1.000 UL
LTb
0.60 0.60 0.00 C LCb setrgbcolor
4714 333 M
[ [(Arial) 180.0 0.0 true true 0 (RTT      :   olsr)]
] -60.0 MRshow
1.000 UL
LTb
0.60 0.60 0.00 C 4822 288 333 90 80 -45 0 PatternFill
4822 288 N
333 0 V
0 90 V
-333 0 V
0 -90 V
Z stroke
1.000 UL
LTb
0.60 0.60 0.00 C 1094 1231 152 617 80 -45 0 PatternFill
1170 1173 M
0 58 V
0 617 R
0 1176 V
stroke
1094 1231 N
152 0 V
0 617 V
-152 0 V
0 -617 V
Z stroke
1094 3024 M
152 0 V
1094 1173 M
152 0 V
stroke
1852 1234 152 677 80 -45 0 PatternFill
1928 1173 M
0 61 V
0 677 R
0 1140 V
stroke
1852 1234 N
152 0 V
0 677 V
-152 0 V
0 -677 V
Z stroke
1852 3051 M
152 0 V
1852 1173 M
152 0 V
stroke
2611 1224 152 543 80 -45 0 PatternFill
2687 1169 M
0 55 V
0 543 R
0 1154 V
stroke
2611 1224 N
152 0 V
0 543 V
-152 0 V
0 -543 V
Z stroke
2611 2921 M
152 0 V
2611 1169 M
152 0 V
stroke
3370 1229 152 652 80 -45 0 PatternFill
3446 1174 M
0 55 V
0 652 R
0 1203 V
stroke
3370 1229 N
152 0 V
0 652 V
-152 0 V
0 -652 V
Z stroke
3370 3084 M
152 0 V
3370 1174 M
152 0 V
stroke
4129 1226 152 548 80 -45 0 PatternFill
4205 1171 M
0 55 V
0 548 R
0 1189 V
stroke
4129 1226 N
152 0 V
0 548 V
-152 0 V
0 -548 V
Z stroke
4129 2963 M
152 0 V
4129 1171 M
152 0 V
stroke
4887 1224 152 600 80 -45 0 PatternFill
4963 1165 M
0 59 V
0 600 R
0 1161 V
stroke
4887 1224 N
152 0 V
0 600 V
-152 0 V
0 -600 V
Z stroke
4887 2985 M
152 0 V
4887 1165 M
152 0 V
stroke
5646 1234 152 650 80 -45 0 PatternFill
5722 1174 M
0 60 V
0 650 R
0 1232 V
stroke
5646 1234 N
152 0 V
0 650 V
-152 0 V
0 -650 V
Z stroke
5646 3116 M
152 0 V
5646 1174 M
152 0 V
stroke
6405 1232 152 655 80 -45 0 PatternFill
6481 1168 M
0 64 V
0 655 R
0 1268 V
stroke
6405 1232 N
152 0 V
0 655 V
-152 0 V
0 -655 V
Z stroke
6405 3155 M
152 0 V
6405 1168 M
152 0 V
stroke
7163 1236 152 614 80 -45 0 PatternFill
7239 1174 M
0 62 V
0 614 R
0 1233 V
stroke
7163 1236 N
152 0 V
0 614 V
-152 0 V
0 -614 V
Z stroke
7163 3083 M
152 0 V
7163 1174 M
152 0 V
stroke
7922 1229 152 617 80 -45 0 PatternFill
7998 1168 M
0 61 V
0 617 R
0 1223 V
stroke
7922 1229 N
152 0 V
0 617 V
-152 0 V
0 -617 V
Z stroke
7922 3069 M
152 0 V
7922 1168 M
152 0 V
stroke
8681 1234 152 606 80 -45 0 PatternFill
8757 1173 M
0 61 V
0 606 R
0 1099 V
stroke
8681 1234 N
152 0 V
0 606 V
-152 0 V
0 -606 V
Z stroke
8681 2939 M
152 0 V
8681 1173 M
152 0 V
stroke
9439 1226 152 518 80 -45 0 PatternFill
9515 1171 M
0 55 V
0 518 R
0 1107 V
stroke
9439 1226 N
152 0 V
0 518 V
-152 0 V
0 -518 V
Z stroke
9439 2851 M
152 0 V
9439 1171 M
152 0 V
stroke
10198 1232 152 595 80 -45 0 PatternFill
10274 1171 M
0 61 V
0 595 R
0 1120 V
stroke
10198 1232 N
152 0 V
0 595 V
-152 0 V
0 -595 V
Z stroke
10198 2947 M
152 0 V
10198 1171 M
152 0 V
stroke
10957 1236 152 560 80 -45 0 PatternFill
11033 1176 M
0 60 V
0 560 R
0 1069 V
stroke
10957 1236 N
152 0 V
0 560 V
-152 0 V
0 -560 V
Z stroke
10957 2865 M
152 0 V
10957 1176 M
152 0 V
stroke
11715 1228 152 462 80 -45 0 PatternFill
11791 1163 M
0 65 V
0 462 R
0 1055 V
stroke
11715 1228 N
152 0 V
0 462 V
-152 0 V
0 -462 V
Z stroke
11715 2745 M
152 0 V
11715 1163 M
152 0 V
stroke
12474 1238 152 441 80 -45 0 PatternFill
12550 1173 M
0 65 V
0 441 R
0 1014 V
stroke
12474 1238 N
152 0 V
0 441 V
-152 0 V
0 -441 V
Z stroke
12474 2693 M
152 0 V
12474 1173 M
152 0 V
% End plot #1
% Begin plot #2
stroke
LTb
LCb setrgbcolor

 /TransparentPatterns true def
1094 1612 152 0 40 30 0 PatternFill
1170 1612 M
stroke
1094 1612 N
152 0 V
-152 0 V
Z stroke
1094 1612 M
152 0 V
-152 0 R
152 0 V
stroke

 /TransparentPatterns true def
1852 1628 152 0 40 30 0 PatternFill
1928 1628 M
stroke
1852 1628 N
152 0 V
-152 0 V
Z stroke
1852 1628 M
152 0 V
-152 0 R
152 0 V
stroke

 /TransparentPatterns true def
2611 1574 152 0 40 30 0 PatternFill
2687 1574 M
stroke
2611 1574 N
152 0 V
-152 0 V
Z stroke
2611 1574 M
152 0 V
-152 0 R
152 0 V
stroke

 /TransparentPatterns true def
3370 1621 152 0 40 30 0 PatternFill
3446 1621 M
stroke
3370 1621 N
152 0 V
-152 0 V
Z stroke
3370 1621 M
152 0 V
-152 0 R
152 0 V
stroke

 /TransparentPatterns true def
4129 1583 152 0 40 30 0 PatternFill
4205 1583 M
stroke
4129 1583 N
152 0 V
-152 0 V
Z stroke
4129 1583 M
152 0 V
-152 0 R
152 0 V
stroke

 /TransparentPatterns true def
4887 1590 152 0 40 30 0 PatternFill
4963 1590 M
stroke
4887 1590 N
152 0 V
-152 0 V
Z stroke
4887 1590 M
152 0 V
-152 0 R
152 0 V
stroke

 /TransparentPatterns true def
5646 1629 152 0 40 30 0 PatternFill
5722 1629 M
stroke
5646 1629 N
152 0 V
-152 0 V
Z stroke
5646 1629 M
152 0 V
-152 0 R
152 0 V
stroke

 /TransparentPatterns true def
6405 1631 152 0 40 30 0 PatternFill
6481 1631 M
stroke
6405 1631 N
152 0 V
-152 0 V
Z stroke
6405 1631 M
152 0 V
-152 0 R
152 0 V
stroke

 /TransparentPatterns true def
7163 1612 152 0 40 30 0 PatternFill
7239 1612 M
stroke
7163 1612 N
152 0 V
-152 0 V
Z stroke
7163 1612 M
152 0 V
-152 0 R
152 0 V
stroke

 /TransparentPatterns true def
7922 1614 152 0 40 30 0 PatternFill
7998 1614 M
stroke
7922 1614 N
152 0 V
-152 0 V
Z stroke
7922 1614 M
152 0 V
-152 0 R
152 0 V
stroke

 /TransparentPatterns true def
8681 1600 152 0 40 30 0 PatternFill
8757 1600 M
stroke
8681 1600 N
152 0 V
-152 0 V
Z stroke
8681 1600 M
152 0 V
-152 0 R
152 0 V
stroke

 /TransparentPatterns true def
9439 1561 152 0 40 30 0 PatternFill
9515 1561 M
stroke
9439 1561 N
152 0 V
-152 0 V
Z stroke
9439 1561 M
152 0 V
-152 0 R
152 0 V
stroke

 /TransparentPatterns true def
10198 1594 152 0 40 30 0 PatternFill
10274 1594 M
stroke
10198 1594 N
152 0 V
-152 0 V
Z stroke
10198 1594 M
152 0 V
-152 0 R
152 0 V
stroke

 /TransparentPatterns true def
10957 1584 152 0 40 30 0 PatternFill
11033 1584 M
stroke
10957 1584 N
152 0 V
-152 0 V
Z stroke
10957 1584 M
152 0 V
-152 0 R
152 0 V
stroke

 /TransparentPatterns true def
11715 1542 152 0 40 30 0 PatternFill
11791 1542 M
stroke
11715 1542 N
152 0 V
-152 0 V
Z stroke
11715 1542 M
152 0 V
-152 0 R
152 0 V
stroke

 /TransparentPatterns true def
12474 1535 152 0 40 30 0 PatternFill
12550 1535 M
stroke
12474 1535 N
152 0 V
-152 0 V
Z stroke
12474 1535 M
152 0 V
-152 0 R
152 0 V
% End plot #2
% Begin plot #3
2.000 UP
stroke
LTa
0.60 0.60 0.00 C LCb setrgbcolor
4714 153 M
[ [(Arial) 180.0 0.0 true true 0 (app. received bytes :         )]
] -60.0 MRshow
2.000 UP
1.000 UL
LTa
0.60 0.60 0.00 C 4822 153 M
333 0 V
980 4750 M
190 0 V
758 0 V
759 0 V
759 0 V
758 0 V
759 0 V
759 0 V
758 0 V
759 0 V
759 0 V
759 0 V
758 0 V
759 0 V
759 0 V
758 0 V
759 0 V
1170 4750 Box
1928 4750 Box
2687 4750 Box
3446 4750 Box
4204 4750 Box
4963 4750 Box
5722 4750 Box
6480 4750 Box
7239 4750 Box
7998 4750 Box
8757 4750 Box
9515 4750 Box
10274 4750 Box
11033 4750 Box
11791 4750 Box
12550 4750 Box
4988 153 Box
% End plot #3
% Begin plot #4
1.000 UL
LTb
0.00 0.00 0.63 C LCb setrgbcolor
8287 333 M
[ [(Arial) 180.0 0.0 true true 0 (per-packet)]
] -60.0 MRshow
1.000 UL
LTb
0.00 0.00 0.63 C 8395 288 333 90 80 45 0 PatternFill
8395 288 N
333 0 V
0 90 V
-333 0 V
0 -90 V
Z stroke
1.000 UL
LTb
0.00 0.00 0.63 C 1283 1247 152 858 80 45 0 PatternFill
1359 1172 M
0 75 V
0 858 R
0 826 V
stroke
1283 1247 N
152 0 V
0 858 V
-152 0 V
0 -858 V
Z stroke
1283 2931 M
152 0 V
1283 1172 M
152 0 V
stroke
2042 1240 152 786 80 45 0 PatternFill
2118 1168 M
0 72 V
0 786 R
0 904 V
stroke
2042 1240 N
152 0 V
0 786 V
-152 0 V
0 -786 V
Z stroke
2042 2930 M
152 0 V
2042 1168 M
152 0 V
stroke
2801 1226 152 783 80 45 0 PatternFill
2877 1165 M
0 61 V
0 783 R
0 852 V
stroke
2801 1226 N
152 0 V
0 783 V
-152 0 V
0 -783 V
Z stroke
2801 2861 M
152 0 V
2801 1165 M
152 0 V
stroke
3560 1236 152 728 80 45 0 PatternFill
3636 1166 M
0 70 V
0 728 R
0 884 V
stroke
3560 1236 N
152 0 V
0 728 V
-152 0 V
0 -728 V
Z stroke
3560 2848 M
152 0 V
3560 1166 M
152 0 V
stroke
4318 1230 152 750 80 45 0 PatternFill
4394 1169 M
0 61 V
0 750 R
0 830 V
stroke
4318 1230 N
152 0 V
0 750 V
-152 0 V
0 -750 V
Z stroke
4318 2810 M
152 0 V
4318 1169 M
152 0 V
stroke
5077 1238 152 788 80 45 0 PatternFill
5153 1172 M
0 66 V
0 788 R
0 785 V
stroke
5077 1238 N
152 0 V
0 788 V
-152 0 V
0 -788 V
Z stroke
5077 2811 M
152 0 V
5077 1172 M
152 0 V
stroke
5836 1238 152 770 80 45 0 PatternFill
5912 1169 M
0 69 V
0 770 R
0 884 V
stroke
5836 1238 N
152 0 V
0 770 V
-152 0 V
0 -770 V
Z stroke
5836 2892 M
152 0 V
5836 1169 M
152 0 V
stroke
6594 1239 152 727 80 45 0 PatternFill
6670 1172 M
0 67 V
0 727 R
0 911 V
stroke
6594 1239 N
152 0 V
0 727 V
-152 0 V
0 -727 V
Z stroke
6594 2877 M
152 0 V
6594 1172 M
152 0 V
stroke
7353 1258 152 800 80 45 0 PatternFill
7429 1173 M
0 85 V
0 800 R
0 900 V
stroke
7353 1258 N
152 0 V
0 800 V
-152 0 V
0 -800 V
Z stroke
7353 2958 M
152 0 V
7353 1173 M
152 0 V
stroke
8112 1238 152 735 80 45 0 PatternFill
8188 1174 M
0 64 V
0 735 R
0 862 V
stroke
8112 1238 N
152 0 V
0 735 V
-152 0 V
0 -735 V
Z stroke
8112 2835 M
152 0 V
8112 1174 M
152 0 V
stroke
8870 1237 152 723 80 45 0 PatternFill
8946 1174 M
0 63 V
0 723 R
0 898 V
stroke
8870 1237 N
152 0 V
0 723 V
-152 0 V
0 -723 V
Z stroke
8870 2858 M
152 0 V
8870 1174 M
152 0 V
stroke
9629 1245 152 752 80 45 0 PatternFill
9705 1179 M
0 66 V
0 752 R
0 819 V
stroke
9629 1245 N
152 0 V
0 752 V
-152 0 V
0 -752 V
Z stroke
9629 2816 M
152 0 V
9629 1179 M
152 0 V
stroke
10388 1237 152 776 80 45 0 PatternFill
10464 1170 M
0 67 V
0 776 R
0 901 V
stroke
10388 1237 N
152 0 V
0 776 V
-152 0 V
0 -776 V
Z stroke
10388 2914 M
152 0 V
10388 1170 M
152 0 V
stroke
11146 1245 152 745 80 45 0 PatternFill
11222 1169 M
0 76 V
0 745 R
0 831 V
stroke
11146 1245 N
152 0 V
0 745 V
-152 0 V
0 -745 V
Z stroke
11146 2821 M
152 0 V
11146 1169 M
152 0 V
stroke
11905 1249 152 778 80 45 0 PatternFill
11981 1179 M
0 70 V
0 778 R
0 794 V
stroke
11905 1249 N
152 0 V
0 778 V
-152 0 V
0 -778 V
Z stroke
11905 2821 M
152 0 V
11905 1179 M
152 0 V
stroke
12664 1244 152 712 80 45 0 PatternFill
12740 1175 M
0 69 V
0 712 R
0 833 V
stroke
12664 1244 N
152 0 V
0 712 V
-152 0 V
0 -712 V
Z stroke
12664 2789 M
152 0 V
12664 1175 M
152 0 V
% End plot #4
% Begin plot #5
stroke
LTb
LCb setrgbcolor

 /TransparentPatterns true def
1283 1691 152 0 80 -45 0 PatternFill
1359 1691 M
stroke
1283 1691 N
152 0 V
-152 0 V
Z stroke
1283 1691 M
152 0 V
-152 0 R
152 0 V
stroke

 /TransparentPatterns true def
2042 1659 152 0 80 -45 0 PatternFill
2118 1659 M
stroke
2042 1659 N
152 0 V
-152 0 V
Z stroke
2042 1659 M
152 0 V
-152 0 R
152 0 V
stroke

 /TransparentPatterns true def
2801 1632 152 0 80 -45 0 PatternFill
2877 1632 M
stroke
2801 1632 N
152 0 V
-152 0 V
Z stroke
2801 1632 M
152 0 V
-152 0 R
152 0 V
stroke

 /TransparentPatterns true def
3560 1634 152 0 80 -45 0 PatternFill
3636 1634 M
stroke
3560 1634 N
152 0 V
-152 0 V
Z stroke
3560 1634 M
152 0 V
-152 0 R
152 0 V
stroke

 /TransparentPatterns true def
4318 1616 152 0 80 -45 0 PatternFill
4394 1616 M
stroke
4318 1616 N
152 0 V
-152 0 V
Z stroke
4318 1616 M
152 0 V
-152 0 R
152 0 V
stroke

 /TransparentPatterns true def
5077 1636 152 0 80 -45 0 PatternFill
5153 1636 M
stroke
5077 1636 N
152 0 V
-152 0 V
Z stroke
5077 1636 M
152 0 V
-152 0 R
152 0 V
stroke

 /TransparentPatterns true def
5836 1652 152 0 80 -45 0 PatternFill
5912 1652 M
stroke
5836 1652 N
152 0 V
-152 0 V
Z stroke
5836 1652 M
152 0 V
-152 0 R
152 0 V
stroke

 /TransparentPatterns true def
6594 1631 152 0 80 -45 0 PatternFill
6670 1631 M
stroke
6594 1631 N
152 0 V
-152 0 V
Z stroke
6594 1631 M
152 0 V
-152 0 R
152 0 V
stroke

 /TransparentPatterns true def
7353 1677 152 0 80 -45 0 PatternFill
7429 1677 M
stroke
7353 1677 N
152 0 V
-152 0 V
Z stroke
7353 1677 M
152 0 V
-152 0 R
152 0 V
stroke

 /TransparentPatterns true def
8112 1632 152 0 80 -45 0 PatternFill
8188 1632 M
stroke
8112 1632 N
152 0 V
-152 0 V
Z stroke
8112 1632 M
152 0 V
-152 0 R
152 0 V
stroke

 /TransparentPatterns true def
8870 1622 152 0 80 -45 0 PatternFill
8946 1622 M
stroke
8870 1622 N
152 0 V
-152 0 V
Z stroke
8870 1622 M
152 0 V
-152 0 R
152 0 V
stroke

 /TransparentPatterns true def
9629 1639 152 0 80 -45 0 PatternFill
9705 1639 M
stroke
9629 1639 N
152 0 V
-152 0 V
Z stroke
9629 1639 M
152 0 V
-152 0 R
152 0 V
stroke

 /TransparentPatterns true def
10388 1649 152 0 80 -45 0 PatternFill
10464 1649 M
stroke
10388 1649 N
152 0 V
-152 0 V
Z stroke
10388 1649 M
152 0 V
-152 0 R
152 0 V
stroke

 /TransparentPatterns true def
11146 1630 152 0 80 -45 0 PatternFill
11222 1630 M
stroke
11146 1630 N
152 0 V
-152 0 V
Z stroke
11146 1630 M
152 0 V
-152 0 R
152 0 V
stroke

 /TransparentPatterns true def
11905 1646 152 0 80 -45 0 PatternFill
11981 1646 M
stroke
11905 1646 N
152 0 V
-152 0 V
Z stroke
11905 1646 M
152 0 V
-152 0 R
152 0 V
stroke

 /TransparentPatterns true def
12664 1620 152 0 80 -45 0 PatternFill
12740 1620 M
stroke
12664 1620 N
152 0 V
-152 0 V
Z stroke
12664 1620 M
152 0 V
-152 0 R
152 0 V
% End plot #5
% Begin plot #6
2.000 UP
stroke
LTa
0.00 0.00 0.63 C LCb setrgbcolor
8287 153 M
[ [(Arial) 180.0 0.0 true true 0 ( )]
] -60.0 MRshow
2.000 UP
1.000 UL
LTa
0.00 0.00 0.63 C 8395 153 M
333 0 V
980 4750 M
379 0 V
759 0 V
759 0 V
758 0 V
759 0 V
759 0 V
758 0 V
759 0 V
759 0 V
759 0 V
758 0 V
759 0 V
759 0 V
758 0 V
759 0 V
759 0 V
1359 4750 Circle
2118 4750 Circle
2877 4750 Circle
3635 4750 Circle
4394 4750 Circle
5153 4750 Circle
5911 4750 Circle
6670 4750 Circle
7429 4750 Circle
8188 4750 Circle
8946 4750 Circle
9705 4750 Circle
10464 4750 Circle
11222 4750 Circle
11981 4750 Circle
12740 4750 Circle
8561 153 Circle
% End plot #6
% Begin plot #7
1.000 UL
LTb
0.00 0.38 0.82 C LCb setrgbcolor
11860 333 M
[ [(Arial) 180.0 0.0 true true 0 (per-flow)]
] -60.0 MRshow
1.000 UL
LTb
0.00 0.38 0.82 C 11968 288 333 90 40 30 0 PatternFill
11968 288 N
333 0 V
0 90 V
-333 0 V
0 -90 V
Z stroke
1.000 UL
LTb
0.00 0.38 0.82 C 1473 1303 152 1404 40 30 0 PatternFill
1549 1200 M
0 103 V
0 1404 R
0 1588 V
stroke
1473 1303 N
152 0 V
0 1404 V
-152 0 V
0 -1404 V
Z stroke
1473 4295 M
152 0 V
1473 1200 M
152 0 V
stroke
2232 1334 152 1421 40 30 0 PatternFill
2308 1211 M
0 123 V
0 1421 R
0 1617 V
stroke
2232 1334 N
152 0 V
0 1421 V
-152 0 V
0 -1421 V
Z stroke
2232 4372 M
152 0 V
2232 1211 M
152 0 V
stroke
2991 1319 152 1515 40 30 0 PatternFill
3067 1209 M
0 110 V
0 1515 R
0 1557 V
stroke
2991 1319 N
152 0 V
0 1515 V
-152 0 V
0 -1515 V
Z stroke
2991 4391 M
152 0 V
2991 1209 M
152 0 V
stroke
3749 1304 152 1354 40 30 0 PatternFill
3825 1205 M
0 99 V
0 1354 R
0 1562 V
stroke
3749 1304 N
152 0 V
0 1354 V
-152 0 V
0 -1354 V
Z stroke
3749 4220 M
152 0 V
3749 1205 M
152 0 V
stroke
4508 1283 152 1395 40 30 0 PatternFill
4584 1193 M
0 90 V
0 1395 R
0 1489 V
stroke
4508 1283 N
152 0 V
0 1395 V
-152 0 V
0 -1395 V
Z stroke
4508 4167 M
152 0 V
4508 1193 M
152 0 V
stroke
5267 1302 152 1540 40 30 0 PatternFill
5343 1201 M
0 101 V
0 1540 R
0 1557 V
stroke
5267 1302 N
152 0 V
0 1540 V
-152 0 V
0 -1540 V
Z stroke
5267 4399 M
152 0 V
5267 1201 M
152 0 V
stroke
6025 1302 152 1419 40 30 0 PatternFill
6101 1207 M
0 95 V
0 1419 R
0 1538 V
stroke
6025 1302 N
152 0 V
0 1419 V
-152 0 V
0 -1419 V
Z stroke
6025 4259 M
152 0 V
6025 1207 M
152 0 V
stroke
6784 1313 152 1447 40 30 0 PatternFill
6860 1210 M
0 103 V
0 1447 R
0 1476 V
stroke
6784 1313 N
152 0 V
0 1447 V
-152 0 V
0 -1447 V
Z stroke
6784 4236 M
152 0 V
6784 1210 M
152 0 V
stroke
7543 1295 152 1411 40 30 0 PatternFill
7619 1208 M
0 87 V
0 1411 R
0 1513 V
stroke
7543 1295 N
152 0 V
0 1411 V
-152 0 V
0 -1411 V
Z stroke
7543 4219 M
152 0 V
7543 1208 M
152 0 V
stroke
8301 1305 152 1328 40 30 0 PatternFill
8377 1193 M
0 112 V
0 1328 R
0 1514 V
stroke
8301 1305 N
152 0 V
0 1328 V
-152 0 V
0 -1328 V
Z stroke
8301 4147 M
152 0 V
8301 1193 M
152 0 V
stroke
9060 1345 152 1475 40 30 0 PatternFill
9136 1220 M
0 125 V
0 1475 R
0 1443 V
stroke
9060 1345 N
152 0 V
0 1475 V
-152 0 V
0 -1475 V
Z stroke
9060 4263 M
152 0 V
9060 1220 M
152 0 V
stroke
9819 1324 152 1422 40 30 0 PatternFill
9895 1219 M
0 105 V
0 1422 R
0 1638 V
stroke
9819 1324 N
152 0 V
0 1422 V
-152 0 V
0 -1422 V
Z stroke
9819 4384 M
152 0 V
9819 1219 M
152 0 V
stroke
10577 1318 152 1284 40 30 0 PatternFill
10653 1216 M
0 102 V
0 1284 R
0 1570 V
stroke
10577 1318 N
152 0 V
0 1284 V
-152 0 V
0 -1284 V
Z stroke
10577 4172 M
152 0 V
10577 1216 M
152 0 V
stroke
11336 1312 152 1358 40 30 0 PatternFill
11412 1217 M
0 95 V
0 1358 R
0 1443 V
stroke
11336 1312 N
152 0 V
0 1358 V
-152 0 V
0 -1358 V
Z stroke
11336 4113 M
152 0 V
11336 1217 M
152 0 V
stroke
12095 1321 152 1295 40 30 0 PatternFill
12171 1224 M
0 97 V
0 1295 R
0 1315 V
stroke
12095 1321 N
152 0 V
0 1295 V
-152 0 V
0 -1295 V
Z stroke
12095 3931 M
152 0 V
12095 1224 M
152 0 V
stroke
12853 1305 152 1275 40 30 0 PatternFill
12929 1216 M
0 89 V
0 1275 R
0 1398 V
stroke
12853 1305 N
152 0 V
0 1275 V
-152 0 V
0 -1275 V
Z stroke
12853 3978 M
152 0 V
12853 1216 M
152 0 V
% End plot #7
% Begin plot #8
stroke
LTb
LCb setrgbcolor

 /TransparentPatterns true def
1473 2060 152 0 40 -30 0 PatternFill
1549 2060 M
stroke
1473 2060 N
152 0 V
-152 0 V
Z stroke
1473 2060 M
152 0 V
-152 0 R
152 0 V
stroke

 /TransparentPatterns true def
2232 2088 152 0 40 -30 0 PatternFill
2308 2088 M
stroke
2232 2088 N
152 0 V
-152 0 V
Z stroke
2232 2088 M
152 0 V
-152 0 R
152 0 V
stroke

 /TransparentPatterns true def
2991 2128 152 0 40 -30 0 PatternFill
3067 2128 M
stroke
2991 2128 N
152 0 V
-152 0 V
Z stroke
2991 2128 M
152 0 V
-152 0 R
152 0 V
stroke

 /TransparentPatterns true def
3749 2034 152 0 40 -30 0 PatternFill
3825 2034 M
stroke
3749 2034 N
152 0 V
-152 0 V
Z stroke
3749 2034 M
152 0 V
-152 0 R
152 0 V
stroke

 /TransparentPatterns true def
4508 2016 152 0 40 -30 0 PatternFill
4584 2016 M
stroke
4508 2016 N
152 0 V
-152 0 V
Z stroke
4508 2016 M
152 0 V
-152 0 R
152 0 V
stroke

 /TransparentPatterns true def
5267 2088 152 0 40 -30 0 PatternFill
5343 2088 M
stroke
5267 2088 N
152 0 V
-152 0 V
Z stroke
5267 2088 M
152 0 V
-152 0 R
152 0 V
stroke

 /TransparentPatterns true def
6025 2047 152 0 40 -30 0 PatternFill
6101 2047 M
stroke
6025 2047 N
152 0 V
-152 0 V
Z stroke
6025 2047 M
152 0 V
-152 0 R
152 0 V
stroke

 /TransparentPatterns true def
6784 2053 152 0 40 -30 0 PatternFill
6860 2053 M
stroke
6784 2053 N
152 0 V
-152 0 V
Z stroke
6784 2053 M
152 0 V
-152 0 R
152 0 V
stroke

 /TransparentPatterns true def
7543 2045 152 0 40 -30 0 PatternFill
7619 2045 M
stroke
7543 2045 N
152 0 V
-152 0 V
Z stroke
7543 2045 M
152 0 V
-152 0 R
152 0 V
stroke

 /TransparentPatterns true def
8301 2004 152 0 40 -30 0 PatternFill
8377 2004 M
stroke
8301 2004 N
152 0 V
-152 0 V
Z stroke
8301 2004 M
152 0 V
-152 0 R
152 0 V
stroke

 /TransparentPatterns true def
9060 2121 152 0 40 -30 0 PatternFill
9136 2121 M
stroke
9060 2121 N
152 0 V
-152 0 V
Z stroke
9060 2121 M
152 0 V
-152 0 R
152 0 V
stroke

 /TransparentPatterns true def
9819 2084 152 0 40 -30 0 PatternFill
9895 2084 M
stroke
9819 2084 N
152 0 V
-152 0 V
Z stroke
9819 2084 M
152 0 V
-152 0 R
152 0 V
stroke

 /TransparentPatterns true def
10577 2024 152 0 40 -30 0 PatternFill
10653 2024 M
stroke
10577 2024 N
152 0 V
-152 0 V
Z stroke
10577 2024 M
152 0 V
-152 0 R
152 0 V
stroke

 /TransparentPatterns true def
11336 2030 152 0 40 -30 0 PatternFill
11412 2030 M
stroke
11336 2030 N
152 0 V
-152 0 V
Z stroke
11336 2030 M
152 0 V
-152 0 R
152 0 V
stroke

 /TransparentPatterns true def
12095 2005 152 0 40 -30 0 PatternFill
12171 2005 M
stroke
12095 2005 N
152 0 V
-152 0 V
Z stroke
12095 2005 M
152 0 V
-152 0 R
152 0 V
stroke

 /TransparentPatterns true def
12853 1975 152 0 40 -30 0 PatternFill
12929 1975 M
stroke
12853 1975 N
152 0 V
-152 0 V
Z stroke
12853 1975 M
152 0 V
-152 0 R
152 0 V
% End plot #8
% Begin plot #9
2.000 UP
stroke
LTa
0.00 0.38 0.82 C LCb setrgbcolor
11860 153 M
[ [(Arial) 180.0 0.0 true true 0 ( )]
] -60.0 MRshow
2.000 UP
1.000 UL
LTa
0.00 0.38 0.82 C 11968 153 M
333 0 V
980 4750 M
569 0 V
759 0 V
758 0 V
759 0 V
759 0 V
758 0 V
759 0 V
759 0 V
759 0 V
758 0 V
759 0 V
759 0 V
758 0 V
759 0 V
759 0 V
758 0 V
1549 4750 TriU
2308 4750 TriU
3066 4750 TriU
3825 4750 TriU
4584 4750 TriU
5342 4750 TriU
6101 4750 TriU
6860 4750 TriU
7619 4750 TriU
8377 4750 TriU
9136 4750 TriU
9895 4750 TriU
10653 4750 TriU
11412 4750 TriU
12171 4750 TriU
12929 4750 TriU
12134 153 TriU
% End plot #9
2.000 UL
LTb
LCb setrgbcolor
1.000 UP
1.000 UL
LTb
0.00 0.00 0.00 C stroke
grestore
end
showpage
%%Trailer
%%DocumentFonts: Arial
