%!PS-Adobe-2.0 EPSF-2.0
%%Title: TcpHybla-download-finishtime-75UE-panoramic.eps
%%Creator: gnuplot 5.0 patchlevel 3
%%CreationDate: Tue Jun  7 16:10:54 2016
%%DocumentFonts: (atend)
%%BoundingBox: 50 50 770 302
%%EndComments
%%BeginProlog
/gnudict 256 dict def
gnudict begin
%
% The following true/false flags may be edited by hand if desired.
% The unit line width and grayscale image gamma correction may also be changed.
%
/Color true def
/Blacktext false def
/Solid false def
/Dashlength 3 def
/Landscape false def
/Level1 false def
/Level3 false def
/Rounded false def
/ClipToBoundingBox false def
/SuppressPDFMark false def
/TransparentPatterns false def
/gnulinewidth 15.000 def
/userlinewidth gnulinewidth def
/Gamma 1.0 def
/BackgroundColor {-1.000 -1.000 -1.000} def
%
/vshift -66 def
/dl1 {
  10.0 Dashlength userlinewidth gnulinewidth div mul mul mul
  Rounded { currentlinewidth 0.75 mul sub dup 0 le { pop 0.01 } if } if
} def
/dl2 {
  10.0 Dashlength userlinewidth gnulinewidth div mul mul mul
  Rounded { currentlinewidth 0.75 mul add } if
} def
/hpt_ 31.5 def
/vpt_ 31.5 def
/hpt hpt_ def
/vpt vpt_ def
/doclip {
  ClipToBoundingBox {
    newpath 50 50 moveto 770 50 lineto 770 302 lineto 50 302 lineto closepath
    clip
  } if
} def
%
% Gnuplot Prolog Version 5.1 (Oct 2015)
%
%/SuppressPDFMark true def
%
/M {moveto} bind def
/L {lineto} bind def
/R {rmoveto} bind def
/V {rlineto} bind def
/N {newpath moveto} bind def
/Z {closepath} bind def
/C {setrgbcolor} bind def
/f {rlineto fill} bind def
/g {setgray} bind def
/Gshow {show} def   % May be redefined later in the file to support UTF-8
/vpt2 vpt 2 mul def
/hpt2 hpt 2 mul def
/Lshow {currentpoint stroke M 0 vshift R 
	Blacktext {gsave 0 setgray textshow grestore} {textshow} ifelse} def
/Rshow {currentpoint stroke M dup stringwidth pop neg vshift R
	Blacktext {gsave 0 setgray textshow grestore} {textshow} ifelse} def
/Cshow {currentpoint stroke M dup stringwidth pop -2 div vshift R 
	Blacktext {gsave 0 setgray textshow grestore} {textshow} ifelse} def
/UP {dup vpt_ mul /vpt exch def hpt_ mul /hpt exch def
  /hpt2 hpt 2 mul def /vpt2 vpt 2 mul def} def
/DL {Color {setrgbcolor Solid {pop []} if 0 setdash}
 {pop pop pop 0 setgray Solid {pop []} if 0 setdash} ifelse} def
/BL {stroke userlinewidth 2 mul setlinewidth
	Rounded {1 setlinejoin 1 setlinecap} if} def
/AL {stroke userlinewidth 2 div setlinewidth
	Rounded {1 setlinejoin 1 setlinecap} if} def
/UL {dup gnulinewidth mul /userlinewidth exch def
	dup 1 lt {pop 1} if 10 mul /udl exch def} def
/PL {stroke userlinewidth setlinewidth
	Rounded {1 setlinejoin 1 setlinecap} if} def
3.8 setmiterlimit
% Classic Line colors (version 5.0)
/LCw {1 1 1} def
/LCb {0 0 0} def
/LCa {0 0 0} def
/LC0 {1 0 0} def
/LC1 {0 1 0} def
/LC2 {0 0 1} def
/LC3 {1 0 1} def
/LC4 {0 1 1} def
/LC5 {1 1 0} def
/LC6 {0 0 0} def
/LC7 {1 0.3 0} def
/LC8 {0.5 0.5 0.5} def
% Default dash patterns (version 5.0)
/LTB {BL [] LCb DL} def
/LTw {PL [] 1 setgray} def
/LTb {PL [] LCb DL} def
/LTa {AL [1 udl mul 2 udl mul] 0 setdash LCa setrgbcolor} def
/LT0 {PL [] LC0 DL} def
/LT1 {PL [2 dl1 3 dl2] LC1 DL} def
/LT2 {PL [1 dl1 1.5 dl2] LC2 DL} def
/LT3 {PL [6 dl1 2 dl2 1 dl1 2 dl2] LC3 DL} def
/LT4 {PL [1 dl1 2 dl2 6 dl1 2 dl2 1 dl1 2 dl2] LC4 DL} def
/LT5 {PL [4 dl1 2 dl2] LC5 DL} def
/LT6 {PL [1.5 dl1 1.5 dl2 1.5 dl1 1.5 dl2 1.5 dl1 6 dl2] LC6 DL} def
/LT7 {PL [3 dl1 3 dl2 1 dl1 3 dl2] LC7 DL} def
/LT8 {PL [2 dl1 2 dl2 2 dl1 6 dl2] LC8 DL} def
/SL {[] 0 setdash} def
/Pnt {stroke [] 0 setdash gsave 1 setlinecap M 0 0 V stroke grestore} def
/Dia {stroke [] 0 setdash 2 copy vpt add M
  hpt neg vpt neg V hpt vpt neg V
  hpt vpt V hpt neg vpt V closepath stroke
  Pnt} def
/Pls {stroke [] 0 setdash vpt sub M 0 vpt2 V
  currentpoint stroke M
  hpt neg vpt neg R hpt2 0 V stroke
 } def
/Box {stroke [] 0 setdash 2 copy exch hpt sub exch vpt add M
  0 vpt2 neg V hpt2 0 V 0 vpt2 V
  hpt2 neg 0 V closepath stroke
  Pnt} def
/Crs {stroke [] 0 setdash exch hpt sub exch vpt add M
  hpt2 vpt2 neg V currentpoint stroke M
  hpt2 neg 0 R hpt2 vpt2 V stroke} def
/TriU {stroke [] 0 setdash 2 copy vpt 1.12 mul add M
  hpt neg vpt -1.62 mul V
  hpt 2 mul 0 V
  hpt neg vpt 1.62 mul V closepath stroke
  Pnt} def
/Star {2 copy Pls Crs} def
/BoxF {stroke [] 0 setdash exch hpt sub exch vpt add M
  0 vpt2 neg V hpt2 0 V 0 vpt2 V
  hpt2 neg 0 V closepath fill} def
/TriUF {stroke [] 0 setdash vpt 1.12 mul add M
  hpt neg vpt -1.62 mul V
  hpt 2 mul 0 V
  hpt neg vpt 1.62 mul V closepath fill} def
/TriD {stroke [] 0 setdash 2 copy vpt 1.12 mul sub M
  hpt neg vpt 1.62 mul V
  hpt 2 mul 0 V
  hpt neg vpt -1.62 mul V closepath stroke
  Pnt} def
/TriDF {stroke [] 0 setdash vpt 1.12 mul sub M
  hpt neg vpt 1.62 mul V
  hpt 2 mul 0 V
  hpt neg vpt -1.62 mul V closepath fill} def
/DiaF {stroke [] 0 setdash vpt add M
  hpt neg vpt neg V hpt vpt neg V
  hpt vpt V hpt neg vpt V closepath fill} def
/Pent {stroke [] 0 setdash 2 copy gsave
  translate 0 hpt M 4 {72 rotate 0 hpt L} repeat
  closepath stroke grestore Pnt} def
/PentF {stroke [] 0 setdash gsave
  translate 0 hpt M 4 {72 rotate 0 hpt L} repeat
  closepath fill grestore} def
/Circle {stroke [] 0 setdash 2 copy
  hpt 0 360 arc stroke Pnt} def
/CircleF {stroke [] 0 setdash hpt 0 360 arc fill} def
/C0 {BL [] 0 setdash 2 copy moveto vpt 90 450 arc} bind def
/C1 {BL [] 0 setdash 2 copy moveto
	2 copy vpt 0 90 arc closepath fill
	vpt 0 360 arc closepath} bind def
/C2 {BL [] 0 setdash 2 copy moveto
	2 copy vpt 90 180 arc closepath fill
	vpt 0 360 arc closepath} bind def
/C3 {BL [] 0 setdash 2 copy moveto
	2 copy vpt 0 180 arc closepath fill
	vpt 0 360 arc closepath} bind def
/C4 {BL [] 0 setdash 2 copy moveto
	2 copy vpt 180 270 arc closepath fill
	vpt 0 360 arc closepath} bind def
/C5 {BL [] 0 setdash 2 copy moveto
	2 copy vpt 0 90 arc
	2 copy moveto
	2 copy vpt 180 270 arc closepath fill
	vpt 0 360 arc} bind def
/C6 {BL [] 0 setdash 2 copy moveto
	2 copy vpt 90 270 arc closepath fill
	vpt 0 360 arc closepath} bind def
/C7 {BL [] 0 setdash 2 copy moveto
	2 copy vpt 0 270 arc closepath fill
	vpt 0 360 arc closepath} bind def
/C8 {BL [] 0 setdash 2 copy moveto
	2 copy vpt 270 360 arc closepath fill
	vpt 0 360 arc closepath} bind def
/C9 {BL [] 0 setdash 2 copy moveto
	2 copy vpt 270 450 arc closepath fill
	vpt 0 360 arc closepath} bind def
/C10 {BL [] 0 setdash 2 copy 2 copy moveto vpt 270 360 arc closepath fill
	2 copy moveto
	2 copy vpt 90 180 arc closepath fill
	vpt 0 360 arc closepath} bind def
/C11 {BL [] 0 setdash 2 copy moveto
	2 copy vpt 0 180 arc closepath fill
	2 copy moveto
	2 copy vpt 270 360 arc closepath fill
	vpt 0 360 arc closepath} bind def
/C12 {BL [] 0 setdash 2 copy moveto
	2 copy vpt 180 360 arc closepath fill
	vpt 0 360 arc closepath} bind def
/C13 {BL [] 0 setdash 2 copy moveto
	2 copy vpt 0 90 arc closepath fill
	2 copy moveto
	2 copy vpt 180 360 arc closepath fill
	vpt 0 360 arc closepath} bind def
/C14 {BL [] 0 setdash 2 copy moveto
	2 copy vpt 90 360 arc closepath fill
	vpt 0 360 arc} bind def
/C15 {BL [] 0 setdash 2 copy vpt 0 360 arc closepath fill
	vpt 0 360 arc closepath} bind def
/Rec {newpath 4 2 roll moveto 1 index 0 rlineto 0 exch rlineto
	neg 0 rlineto closepath} bind def
/Square {dup Rec} bind def
/Bsquare {vpt sub exch vpt sub exch vpt2 Square} bind def
/S0 {BL [] 0 setdash 2 copy moveto 0 vpt rlineto BL Bsquare} bind def
/S1 {BL [] 0 setdash 2 copy vpt Square fill Bsquare} bind def
/S2 {BL [] 0 setdash 2 copy exch vpt sub exch vpt Square fill Bsquare} bind def
/S3 {BL [] 0 setdash 2 copy exch vpt sub exch vpt2 vpt Rec fill Bsquare} bind def
/S4 {BL [] 0 setdash 2 copy exch vpt sub exch vpt sub vpt Square fill Bsquare} bind def
/S5 {BL [] 0 setdash 2 copy 2 copy vpt Square fill
	exch vpt sub exch vpt sub vpt Square fill Bsquare} bind def
/S6 {BL [] 0 setdash 2 copy exch vpt sub exch vpt sub vpt vpt2 Rec fill Bsquare} bind def
/S7 {BL [] 0 setdash 2 copy exch vpt sub exch vpt sub vpt vpt2 Rec fill
	2 copy vpt Square fill Bsquare} bind def
/S8 {BL [] 0 setdash 2 copy vpt sub vpt Square fill Bsquare} bind def
/S9 {BL [] 0 setdash 2 copy vpt sub vpt vpt2 Rec fill Bsquare} bind def
/S10 {BL [] 0 setdash 2 copy vpt sub vpt Square fill 2 copy exch vpt sub exch vpt Square fill
	Bsquare} bind def
/S11 {BL [] 0 setdash 2 copy vpt sub vpt Square fill 2 copy exch vpt sub exch vpt2 vpt Rec fill
	Bsquare} bind def
/S12 {BL [] 0 setdash 2 copy exch vpt sub exch vpt sub vpt2 vpt Rec fill Bsquare} bind def
/S13 {BL [] 0 setdash 2 copy exch vpt sub exch vpt sub vpt2 vpt Rec fill
	2 copy vpt Square fill Bsquare} bind def
/S14 {BL [] 0 setdash 2 copy exch vpt sub exch vpt sub vpt2 vpt Rec fill
	2 copy exch vpt sub exch vpt Square fill Bsquare} bind def
/S15 {BL [] 0 setdash 2 copy Bsquare fill Bsquare} bind def
/D0 {gsave translate 45 rotate 0 0 S0 stroke grestore} bind def
/D1 {gsave translate 45 rotate 0 0 S1 stroke grestore} bind def
/D2 {gsave translate 45 rotate 0 0 S2 stroke grestore} bind def
/D3 {gsave translate 45 rotate 0 0 S3 stroke grestore} bind def
/D4 {gsave translate 45 rotate 0 0 S4 stroke grestore} bind def
/D5 {gsave translate 45 rotate 0 0 S5 stroke grestore} bind def
/D6 {gsave translate 45 rotate 0 0 S6 stroke grestore} bind def
/D7 {gsave translate 45 rotate 0 0 S7 stroke grestore} bind def
/D8 {gsave translate 45 rotate 0 0 S8 stroke grestore} bind def
/D9 {gsave translate 45 rotate 0 0 S9 stroke grestore} bind def
/D10 {gsave translate 45 rotate 0 0 S10 stroke grestore} bind def
/D11 {gsave translate 45 rotate 0 0 S11 stroke grestore} bind def
/D12 {gsave translate 45 rotate 0 0 S12 stroke grestore} bind def
/D13 {gsave translate 45 rotate 0 0 S13 stroke grestore} bind def
/D14 {gsave translate 45 rotate 0 0 S14 stroke grestore} bind def
/D15 {gsave translate 45 rotate 0 0 S15 stroke grestore} bind def
/DiaE {stroke [] 0 setdash vpt add M
  hpt neg vpt neg V hpt vpt neg V
  hpt vpt V hpt neg vpt V closepath stroke} def
/BoxE {stroke [] 0 setdash exch hpt sub exch vpt add M
  0 vpt2 neg V hpt2 0 V 0 vpt2 V
  hpt2 neg 0 V closepath stroke} def
/TriUE {stroke [] 0 setdash vpt 1.12 mul add M
  hpt neg vpt -1.62 mul V
  hpt 2 mul 0 V
  hpt neg vpt 1.62 mul V closepath stroke} def
/TriDE {stroke [] 0 setdash vpt 1.12 mul sub M
  hpt neg vpt 1.62 mul V
  hpt 2 mul 0 V
  hpt neg vpt -1.62 mul V closepath stroke} def
/PentE {stroke [] 0 setdash gsave
  translate 0 hpt M 4 {72 rotate 0 hpt L} repeat
  closepath stroke grestore} def
/CircE {stroke [] 0 setdash 
  hpt 0 360 arc stroke} def
/Opaque {gsave closepath 1 setgray fill grestore 0 setgray closepath} def
/DiaW {stroke [] 0 setdash vpt add M
  hpt neg vpt neg V hpt vpt neg V
  hpt vpt V hpt neg vpt V Opaque stroke} def
/BoxW {stroke [] 0 setdash exch hpt sub exch vpt add M
  0 vpt2 neg V hpt2 0 V 0 vpt2 V
  hpt2 neg 0 V Opaque stroke} def
/TriUW {stroke [] 0 setdash vpt 1.12 mul add M
  hpt neg vpt -1.62 mul V
  hpt 2 mul 0 V
  hpt neg vpt 1.62 mul V Opaque stroke} def
/TriDW {stroke [] 0 setdash vpt 1.12 mul sub M
  hpt neg vpt 1.62 mul V
  hpt 2 mul 0 V
  hpt neg vpt -1.62 mul V Opaque stroke} def
/PentW {stroke [] 0 setdash gsave
  translate 0 hpt M 4 {72 rotate 0 hpt L} repeat
  Opaque stroke grestore} def
/CircW {stroke [] 0 setdash 
  hpt 0 360 arc Opaque stroke} def
/BoxFill {gsave Rec 1 setgray fill grestore} def
/Density {
  /Fillden exch def
  currentrgbcolor
  /ColB exch def /ColG exch def /ColR exch def
  /ColR ColR Fillden mul Fillden sub 1 add def
  /ColG ColG Fillden mul Fillden sub 1 add def
  /ColB ColB Fillden mul Fillden sub 1 add def
  ColR ColG ColB setrgbcolor} def
/BoxColFill {gsave Rec PolyFill} def
/PolyFill {gsave Density fill grestore grestore} def
/h {rlineto rlineto rlineto gsave closepath fill grestore} bind def
%
% PostScript Level 1 Pattern Fill routine for rectangles
% Usage: x y w h s a XX PatternFill
%	x,y = lower left corner of box to be filled
%	w,h = width and height of box
%	  a = angle in degrees between lines and x-axis
%	 XX = 0/1 for no/yes cross-hatch
%
/PatternFill {gsave /PFa [ 9 2 roll ] def
  PFa 0 get PFa 2 get 2 div add PFa 1 get PFa 3 get 2 div add translate
  PFa 2 get -2 div PFa 3 get -2 div PFa 2 get PFa 3 get Rec
  TransparentPatterns {} {gsave 1 setgray fill grestore} ifelse
  clip
  currentlinewidth 0.5 mul setlinewidth
  /PFs PFa 2 get dup mul PFa 3 get dup mul add sqrt def
  0 0 M PFa 5 get rotate PFs -2 div dup translate
  0 1 PFs PFa 4 get div 1 add floor cvi
	{PFa 4 get mul 0 M 0 PFs V} for
  0 PFa 6 get ne {
	0 1 PFs PFa 4 get div 1 add floor cvi
	{PFa 4 get mul 0 2 1 roll M PFs 0 V} for
 } if
  stroke grestore} def
%
/languagelevel where
 {pop languagelevel} {1} ifelse
dup 2 lt
	{/InterpretLevel1 true def
	 /InterpretLevel3 false def}
	{/InterpretLevel1 Level1 def
	 2 gt
	    {/InterpretLevel3 Level3 def}
	    {/InterpretLevel3 false def}
	 ifelse }
 ifelse
%
% PostScript level 2 pattern fill definitions
%
/Level2PatternFill {
/Tile8x8 {/PaintType 2 /PatternType 1 /TilingType 1 /BBox [0 0 8 8] /XStep 8 /YStep 8}
	bind def
/KeepColor {currentrgbcolor [/Pattern /DeviceRGB] setcolorspace} bind def
<< Tile8x8
 /PaintProc {0.5 setlinewidth pop 0 0 M 8 8 L 0 8 M 8 0 L stroke} 
>> matrix makepattern
/Pat1 exch def
<< Tile8x8
 /PaintProc {0.5 setlinewidth pop 0 0 M 8 8 L 0 8 M 8 0 L stroke
	0 4 M 4 8 L 8 4 L 4 0 L 0 4 L stroke}
>> matrix makepattern
/Pat2 exch def
<< Tile8x8
 /PaintProc {0.5 setlinewidth pop 0 0 M 0 8 L
	8 8 L 8 0 L 0 0 L fill}
>> matrix makepattern
/Pat3 exch def
<< Tile8x8
 /PaintProc {0.5 setlinewidth pop -4 8 M 8 -4 L
	0 12 M 12 0 L stroke}
>> matrix makepattern
/Pat4 exch def
<< Tile8x8
 /PaintProc {0.5 setlinewidth pop -4 0 M 8 12 L
	0 -4 M 12 8 L stroke}
>> matrix makepattern
/Pat5 exch def
<< Tile8x8
 /PaintProc {0.5 setlinewidth pop -2 8 M 4 -4 L
	0 12 M 8 -4 L 4 12 M 10 0 L stroke}
>> matrix makepattern
/Pat6 exch def
<< Tile8x8
 /PaintProc {0.5 setlinewidth pop -2 0 M 4 12 L
	0 -4 M 8 12 L 4 -4 M 10 8 L stroke}
>> matrix makepattern
/Pat7 exch def
<< Tile8x8
 /PaintProc {0.5 setlinewidth pop 8 -2 M -4 4 L
	12 0 M -4 8 L 12 4 M 0 10 L stroke}
>> matrix makepattern
/Pat8 exch def
<< Tile8x8
 /PaintProc {0.5 setlinewidth pop 0 -2 M 12 4 L
	-4 0 M 12 8 L -4 4 M 8 10 L stroke}
>> matrix makepattern
/Pat9 exch def
/Pattern1 {PatternBgnd KeepColor Pat1 setpattern} bind def
/Pattern2 {PatternBgnd KeepColor Pat2 setpattern} bind def
/Pattern3 {PatternBgnd KeepColor Pat3 setpattern} bind def
/Pattern4 {PatternBgnd KeepColor Landscape {Pat5} {Pat4} ifelse setpattern} bind def
/Pattern5 {PatternBgnd KeepColor Landscape {Pat4} {Pat5} ifelse setpattern} bind def
/Pattern6 {PatternBgnd KeepColor Landscape {Pat9} {Pat6} ifelse setpattern} bind def
/Pattern7 {PatternBgnd KeepColor Landscape {Pat8} {Pat7} ifelse setpattern} bind def
} def
%
%
%End of PostScript Level 2 code
%
/PatternBgnd {
  TransparentPatterns {} {gsave 1 setgray fill grestore} ifelse
} def
%
% Substitute for Level 2 pattern fill codes with
% grayscale if Level 2 support is not selected.
%
/Level1PatternFill {
/Pattern1 {0.250 Density} bind def
/Pattern2 {0.500 Density} bind def
/Pattern3 {0.750 Density} bind def
/Pattern4 {0.125 Density} bind def
/Pattern5 {0.375 Density} bind def
/Pattern6 {0.625 Density} bind def
/Pattern7 {0.875 Density} bind def
} def
%
% Now test for support of Level 2 code
%
Level1 {Level1PatternFill} {Level2PatternFill} ifelse
%
/Symbol-Oblique /Symbol findfont [1 0 .167 1 0 0] makefont
dup length dict begin {1 index /FID eq {pop pop} {def} ifelse} forall
currentdict end definefont pop
%
/MFshow {
   { dup 5 get 3 ge
     { 5 get 3 eq {gsave} {grestore} ifelse }
     {dup dup 0 get findfont exch 1 get scalefont setfont
     [ currentpoint ] exch dup 2 get 0 exch R dup 5 get 2 ne {dup dup 6
     get exch 4 get {textshow} {stringwidth pop 0 R} ifelse }if dup 5 get 0 eq
     {dup 3 get {2 get neg 0 exch R pop} {pop aload pop M} ifelse} {dup 5
     get 1 eq {dup 2 get exch dup 3 get exch 6 get stringwidth pop -2 div
     dup 0 R} {dup 6 get stringwidth pop -2 div 0 R 6 get
     textshow 2 index {aload pop M neg 3 -1 roll neg R pop pop} {pop pop pop
     pop aload pop M} ifelse }ifelse }ifelse }
     ifelse }
   forall} def
/Gswidth {dup type /stringtype eq {stringwidth} {pop (n) stringwidth} ifelse} def
/MFwidth {0 exch { dup 5 get 3 ge { 5 get 3 eq { 0 } { pop } ifelse }
 {dup 3 get{dup dup 0 get findfont exch 1 get scalefont setfont
     6 get Gswidth pop add} {pop} ifelse} ifelse} forall} def
/MLshow { currentpoint stroke M
  0 exch R
  Blacktext {gsave 0 setgray MFshow grestore} {MFshow} ifelse } bind def
/MRshow { currentpoint stroke M
  exch dup MFwidth neg 3 -1 roll R
  Blacktext {gsave 0 setgray MFshow grestore} {MFshow} ifelse } bind def
/MCshow { currentpoint stroke M
  exch dup MFwidth -2 div 3 -1 roll R
  Blacktext {gsave 0 setgray MFshow grestore} {MFshow} ifelse } bind def
/XYsave    { [( ) 1 2 true false 3 ()] } bind def
/XYrestore { [( ) 1 2 true false 4 ()] } bind def
Level1 SuppressPDFMark or 
{} {
/SDict 10 dict def
systemdict /pdfmark known not {
  userdict /pdfmark systemdict /cleartomark get put
} if
SDict begin [
  /Title (TcpHybla-download-finishtime-75UE-panoramic.eps)
  /Subject (gnuplot plot)
  /Creator (gnuplot 5.0 patchlevel 3)
  /Author (nat)
%  /Producer (gnuplot)
%  /Keywords ()
  /CreationDate (Tue Jun  7 16:10:54 2016)
  /DOCINFO pdfmark
end
} ifelse
%
% Support for boxed text - Ethan A Merritt May 2005
%
/InitTextBox { userdict /TBy2 3 -1 roll put userdict /TBx2 3 -1 roll put
           userdict /TBy1 3 -1 roll put userdict /TBx1 3 -1 roll put
	   /Boxing true def } def
/ExtendTextBox { Boxing
    { gsave dup false charpath pathbbox
      dup TBy2 gt {userdict /TBy2 3 -1 roll put} {pop} ifelse
      dup TBx2 gt {userdict /TBx2 3 -1 roll put} {pop} ifelse
      dup TBy1 lt {userdict /TBy1 3 -1 roll put} {pop} ifelse
      dup TBx1 lt {userdict /TBx1 3 -1 roll put} {pop} ifelse
      grestore } if } def
/PopTextBox { newpath TBx1 TBxmargin sub TBy1 TBymargin sub M
               TBx1 TBxmargin sub TBy2 TBymargin add L
	       TBx2 TBxmargin add TBy2 TBymargin add L
	       TBx2 TBxmargin add TBy1 TBymargin sub L closepath } def
/DrawTextBox { PopTextBox stroke /Boxing false def} def
/FillTextBox { gsave PopTextBox 1 1 1 setrgbcolor fill grestore /Boxing false def} def
0 0 0 0 InitTextBox
/TBxmargin 20 def
/TBymargin 20 def
/Boxing false def
/textshow { ExtendTextBox Gshow } def
%
% redundant definitions for compatibility with prologue.ps older than 5.0.2
/LTB {BL [] LCb DL} def
/LTb {PL [] LCb DL} def
end
%%EndProlog
%%Page: 1 1
gnudict begin
gsave
doclip
50 50 translate
0.050 0.050 scale
0 setgray
newpath
(Arial) findfont 200 scalefont setfont
BackgroundColor 0 lt 3 1 roll 0 lt exch 0 lt or or not {BackgroundColor C 1.000 0 0 14400.00 5040.00 BoxColFill} if
1.000 UL
LTb
0.00 0.00 0.00 C 0.500 UL
LTa
0.50 0.50 0.50 C 980 1000 M
12139 0 V
stroke
1.000 UL
LTb
0.00 0.00 0.00 C 980 1000 M
63 0 V
stroke
860 1000 M
[ [(Arial) 200.0 0.0 true true 0 ( 0)]
] -66.7 MRshow
1.000 UL
LTb
0.00 0.00 0.00 C 0.500 UL
LTa
0.50 0.50 0.50 C 980 1475 M
12139 0 V
stroke
1.000 UL
LTb
0.00 0.00 0.00 C 980 1475 M
63 0 V
stroke
860 1475 M
[ [(Arial) 200.0 0.0 true true 0 ( 20)]
] -66.7 MRshow
1.000 UL
LTb
0.00 0.00 0.00 C 0.500 UL
LTa
0.50 0.50 0.50 C 980 1950 M
12139 0 V
stroke
1.000 UL
LTb
0.00 0.00 0.00 C 980 1950 M
63 0 V
stroke
860 1950 M
[ [(Arial) 200.0 0.0 true true 0 ( 40)]
] -66.7 MRshow
1.000 UL
LTb
0.00 0.00 0.00 C 0.500 UL
LTa
0.50 0.50 0.50 C 980 2425 M
12139 0 V
stroke
1.000 UL
LTb
0.00 0.00 0.00 C 980 2425 M
63 0 V
stroke
860 2425 M
[ [(Arial) 200.0 0.0 true true 0 ( 60)]
] -66.7 MRshow
1.000 UL
LTb
0.00 0.00 0.00 C 0.500 UL
LTa
0.50 0.50 0.50 C 980 2900 M
12139 0 V
stroke
1.000 UL
LTb
0.00 0.00 0.00 C 980 2900 M
63 0 V
stroke
860 2900 M
[ [(Arial) 200.0 0.0 true true 0 ( 80)]
] -66.7 MRshow
1.000 UL
LTb
0.00 0.00 0.00 C 0.500 UL
LTa
0.50 0.50 0.50 C 980 3374 M
12139 0 V
stroke
1.000 UL
LTb
0.00 0.00 0.00 C 980 3374 M
63 0 V
stroke
860 3374 M
[ [(Arial) 200.0 0.0 true true 0 ( 100)]
] -66.7 MRshow
1.000 UL
LTb
0.00 0.00 0.00 C 0.500 UL
LTa
0.50 0.50 0.50 C 980 3849 M
12139 0 V
stroke
1.000 UL
LTb
0.00 0.00 0.00 C 980 3849 M
63 0 V
stroke
860 3849 M
[ [(Arial) 200.0 0.0 true true 0 ( 120)]
] -66.7 MRshow
1.000 UL
LTb
0.00 0.00 0.00 C 0.500 UL
LTa
0.50 0.50 0.50 C 980 4324 M
12139 0 V
stroke
1.000 UL
LTb
0.00 0.00 0.00 C 980 4324 M
63 0 V
stroke
860 4324 M
[ [(Arial) 200.0 0.0 true true 0 ( 140)]
] -66.7 MRshow
1.000 UL
LTb
0.00 0.00 0.00 C 0.500 UL
LTa
0.50 0.50 0.50 C 980 4799 M
12139 0 V
stroke
1.000 UL
LTb
0.00 0.00 0.00 C 980 4799 M
63 0 V
stroke
860 4799 M
[ [(Arial) 200.0 0.0 true true 0 ( 160)]
] -66.7 MRshow
1.000 UL
LTb
0.00 0.00 0.00 C 0.500 UL
LTa
0.50 0.50 0.50 C 1235 1000 M
0 3799 V
stroke
1.000 UL
LTb
0.00 0.00 0.00 C 1235 1000 M
0 63 V
0 3736 R
0 -63 V
stroke
1235 800 M
[ [(Arial) 200.0 0.0 true true 0 ( 60)]
] -66.7 MCshow
1.000 UL
LTb
0.00 0.00 0.00 C 0.500 UL
LTa
0.50 0.50 0.50 C 1847 1000 M
0 3799 V
stroke
1.000 UL
LTb
0.00 0.00 0.00 C 1847 1000 M
0 63 V
0 3736 R
0 -63 V
stroke
1847 800 M
[ [(Arial) 200.0 0.0 true true 0 ( 120)]
] -66.7 MCshow
1.000 UL
LTb
0.00 0.00 0.00 C 0.500 UL
LTa
0.50 0.50 0.50 C 2459 1000 M
0 3799 V
stroke
1.000 UL
LTb
0.00 0.00 0.00 C 2459 1000 M
0 63 V
0 3736 R
0 -63 V
stroke
2459 800 M
[ [(Arial) 200.0 0.0 true true 0 ( 180)]
] -66.7 MCshow
1.000 UL
LTb
0.00 0.00 0.00 C 0.500 UL
LTa
0.50 0.50 0.50 C 3071 1000 M
0 3799 V
stroke
1.000 UL
LTb
0.00 0.00 0.00 C 3071 1000 M
0 63 V
0 3736 R
0 -63 V
stroke
3071 800 M
[ [(Arial) 200.0 0.0 true true 0 ( 240)]
] -66.7 MCshow
1.000 UL
LTb
0.00 0.00 0.00 C 0.500 UL
LTa
0.50 0.50 0.50 C 3683 1000 M
0 3799 V
stroke
1.000 UL
LTb
0.00 0.00 0.00 C 3683 1000 M
0 63 V
0 3736 R
0 -63 V
stroke
3683 800 M
[ [(Arial) 200.0 0.0 true true 0 ( 300)]
] -66.7 MCshow
1.000 UL
LTb
0.00 0.00 0.00 C 0.500 UL
LTa
0.50 0.50 0.50 C 4295 1000 M
0 3799 V
stroke
1.000 UL
LTb
0.00 0.00 0.00 C 4295 1000 M
0 63 V
0 3736 R
0 -63 V
stroke
4295 800 M
[ [(Arial) 200.0 0.0 true true 0 ( 360)]
] -66.7 MCshow
1.000 UL
LTb
0.00 0.00 0.00 C 0.500 UL
LTa
0.50 0.50 0.50 C 4907 1000 M
0 3799 V
stroke
1.000 UL
LTb
0.00 0.00 0.00 C 4907 1000 M
0 63 V
0 3736 R
0 -63 V
stroke
4907 800 M
[ [(Arial) 200.0 0.0 true true 0 ( 420)]
] -66.7 MCshow
1.000 UL
LTb
0.00 0.00 0.00 C 0.500 UL
LTa
0.50 0.50 0.50 C 5519 1000 M
0 3799 V
stroke
1.000 UL
LTb
0.00 0.00 0.00 C 5519 1000 M
0 63 V
0 3736 R
0 -63 V
stroke
5519 800 M
[ [(Arial) 200.0 0.0 true true 0 ( 480)]
] -66.7 MCshow
1.000 UL
LTb
0.00 0.00 0.00 C 0.500 UL
LTa
0.50 0.50 0.50 C 6131 1000 M
0 3799 V
stroke
1.000 UL
LTb
0.00 0.00 0.00 C 6131 1000 M
0 63 V
0 3736 R
0 -63 V
stroke
6131 800 M
[ [(Arial) 200.0 0.0 true true 0 ( 540)]
] -66.7 MCshow
1.000 UL
LTb
0.00 0.00 0.00 C 0.500 UL
LTa
0.50 0.50 0.50 C 6743 1000 M
0 3799 V
stroke
1.000 UL
LTb
0.00 0.00 0.00 C 6743 1000 M
0 63 V
0 3736 R
0 -63 V
stroke
6743 800 M
[ [(Arial) 200.0 0.0 true true 0 ( 600)]
] -66.7 MCshow
1.000 UL
LTb
0.00 0.00 0.00 C 0.500 UL
LTa
0.50 0.50 0.50 C 7356 1000 M
0 3799 V
stroke
1.000 UL
LTb
0.00 0.00 0.00 C 7356 1000 M
0 63 V
0 3736 R
0 -63 V
stroke
7356 800 M
[ [(Arial) 200.0 0.0 true true 0 ( 660)]
] -66.7 MCshow
1.000 UL
LTb
0.00 0.00 0.00 C 0.500 UL
LTa
0.50 0.50 0.50 C 7968 1000 M
0 3799 V
stroke
1.000 UL
LTb
0.00 0.00 0.00 C 7968 1000 M
0 63 V
0 3736 R
0 -63 V
stroke
7968 800 M
[ [(Arial) 200.0 0.0 true true 0 ( 720)]
] -66.7 MCshow
1.000 UL
LTb
0.00 0.00 0.00 C 0.500 UL
LTa
0.50 0.50 0.50 C 8580 1000 M
0 3799 V
stroke
1.000 UL
LTb
0.00 0.00 0.00 C 8580 1000 M
0 63 V
0 3736 R
0 -63 V
stroke
8580 800 M
[ [(Arial) 200.0 0.0 true true 0 ( 780)]
] -66.7 MCshow
1.000 UL
LTb
0.00 0.00 0.00 C 0.500 UL
LTa
0.50 0.50 0.50 C 9192 1000 M
0 3799 V
stroke
1.000 UL
LTb
0.00 0.00 0.00 C 9192 1000 M
0 63 V
0 3736 R
0 -63 V
stroke
9192 800 M
[ [(Arial) 200.0 0.0 true true 0 ( 840)]
] -66.7 MCshow
1.000 UL
LTb
0.00 0.00 0.00 C 0.500 UL
LTa
0.50 0.50 0.50 C 9804 1000 M
0 3799 V
stroke
1.000 UL
LTb
0.00 0.00 0.00 C 9804 1000 M
0 63 V
0 3736 R
0 -63 V
stroke
9804 800 M
[ [(Arial) 200.0 0.0 true true 0 ( 900)]
] -66.7 MCshow
1.000 UL
LTb
0.00 0.00 0.00 C 0.500 UL
LTa
0.50 0.50 0.50 C 10416 1000 M
0 3799 V
stroke
1.000 UL
LTb
0.00 0.00 0.00 C 10416 1000 M
0 63 V
0 3736 R
0 -63 V
stroke
10416 800 M
[ [(Arial) 200.0 0.0 true true 0 ( 960)]
] -66.7 MCshow
1.000 UL
LTb
0.00 0.00 0.00 C 0.500 UL
LTa
0.50 0.50 0.50 C 11028 1000 M
0 3799 V
stroke
1.000 UL
LTb
0.00 0.00 0.00 C 11028 1000 M
0 63 V
0 3736 R
0 -63 V
stroke
11028 800 M
[ [(Arial) 200.0 0.0 true true 0 ( 1020)]
] -66.7 MCshow
1.000 UL
LTb
0.00 0.00 0.00 C 0.500 UL
LTa
0.50 0.50 0.50 C 11640 1000 M
0 3799 V
stroke
1.000 UL
LTb
0.00 0.00 0.00 C 11640 1000 M
0 63 V
0 3736 R
0 -63 V
stroke
11640 800 M
[ [(Arial) 200.0 0.0 true true 0 ( 1080)]
] -66.7 MCshow
1.000 UL
LTb
0.00 0.00 0.00 C 0.500 UL
LTa
0.50 0.50 0.50 C 12252 1000 M
0 3799 V
stroke
1.000 UL
LTb
0.00 0.00 0.00 C 12252 1000 M
0 63 V
0 3736 R
0 -63 V
stroke
12252 800 M
[ [(Arial) 200.0 0.0 true true 0 ( 1140)]
] -66.7 MCshow
1.000 UL
LTb
0.00 0.00 0.00 C 0.500 UL
LTa
0.50 0.50 0.50 C 12864 1000 M
0 3799 V
stroke
1.000 UL
LTb
0.00 0.00 0.00 C 12864 1000 M
0 63 V
0 3736 R
0 -63 V
stroke
12864 800 M
[ [(Arial) 200.0 0.0 true true 0 ( 1200)]
] -66.7 MCshow
1.000 UL
LTb
0.00 0.00 0.00 C 13119 1000 M
-63 0 V
stroke
13239 1000 M
[ [(Arial) 200.0 0.0 true true 0 ( 0)]
] -66.7 MLshow
1.000 UL
LTb
0.00 0.00 0.00 C 13119 1760 M
-63 0 V
stroke
13239 1760 M
[ [(Arial) 200.0 0.0 true true 0 ( 20)]
] -66.7 MLshow
1.000 UL
LTb
0.00 0.00 0.00 C 13119 2520 M
-63 0 V
stroke
13239 2520 M
[ [(Arial) 200.0 0.0 true true 0 ( 40)]
] -66.7 MLshow
1.000 UL
LTb
0.00 0.00 0.00 C 13119 3279 M
-63 0 V
stroke
13239 3279 M
[ [(Arial) 200.0 0.0 true true 0 ( 60)]
] -66.7 MLshow
1.000 UL
LTb
0.00 0.00 0.00 C 13119 4039 M
-63 0 V
stroke
13239 4039 M
[ [(Arial) 200.0 0.0 true true 0 ( 80)]
] -66.7 MLshow
1.000 UL
LTb
0.00 0.00 0.00 C 13119 4799 M
-63 0 V
stroke
13239 4799 M
[ [(Arial) 200.0 0.0 true true 0 ( 100)]
] -66.7 MLshow
1.000 UL
LTb
0.00 0.00 0.00 C 1.000 UL
LTB
0.00 0.00 0.00 C 980 4799 M
0 -3799 V
12139 0 V
0 3799 R
980 4799 M
1.000 UP
stroke
LTb
0.00 0.00 0.00 C LCb setrgbcolor
160 2899 M
currentpoint gsave translate -270 rotate 0 0 moveto
[ [(Arial) 200.0 0.0 true true 0 (File download time \(s\))]
] -66.7 MCshow
grestore
LTb
LCb setrgbcolor
13938 2899 M
currentpoint gsave translate -270 rotate 0 0 moveto
[ [(Arial) 200.0 0.0 true true 0 (Average UDP throughput [%])]
] -66.7 MCshow
grestore
LTb
LCb setrgbcolor
7049 500 M
[ [(Arial) 200.0 0.0 true true 0 (Local Backhaul traffic \(Mb/s\))]
] -66.7 MCshow
LTb
% Begin plot #1
1.000 UL
LTb
0.60 0.60 0.00 C LCb setrgbcolor
4714 333 M
[ [(Arial) 180.0 0.0 true true 0 (file download time    :   olsr)]
] -60.0 MRshow
1.000 UL
LTb
0.60 0.60 0.00 C 4822 288 333 90 80 -45 0 PatternFill
4822 288 N
333 0 V
0 90 V
-333 0 V
0 -90 V
Z stroke
1.000 UL
LTb
0.60 0.60 0.00 C 990 1322 154 290 80 -45 0 PatternFill
1067 1070 M
0 252 V
0 290 R
0 218 V
stroke
990 1322 N
154 0 V
0 290 V
-154 0 V
0 -290 V
Z stroke
990 1830 M
154 0 V
990 1070 M
154 0 V
stroke
1602 1325 154 310 80 -45 0 PatternFill
1679 1070 M
0 255 V
0 310 R
0 301 V
stroke
1602 1325 N
154 0 V
0 310 V
-154 0 V
0 -310 V
Z stroke
1602 1936 M
154 0 V
1602 1070 M
154 0 V
stroke
2214 1332 154 305 80 -45 0 PatternFill
2291 1070 M
0 262 V
0 305 R
0 205 V
stroke
2214 1332 N
154 0 V
0 305 V
-154 0 V
0 -305 V
Z stroke
2214 1842 M
154 0 V
2214 1070 M
154 0 V
stroke
2826 1304 154 325 80 -45 0 PatternFill
2903 1070 M
0 234 V
0 325 R
0 488 V
stroke
2826 1304 N
154 0 V
0 325 V
-154 0 V
0 -325 V
Z stroke
2826 2117 M
154 0 V
2826 1070 M
154 0 V
stroke
3438 1338 154 268 80 -45 0 PatternFill
3515 1070 M
0 268 V
0 268 R
0 444 V
stroke
3438 1338 N
154 0 V
0 268 V
-154 0 V
0 -268 V
Z stroke
3438 2050 M
154 0 V
3438 1070 M
154 0 V
stroke
4050 1322 154 263 80 -45 0 PatternFill
4127 1070 M
0 252 V
0 263 R
0 436 V
stroke
4050 1322 N
154 0 V
0 263 V
-154 0 V
0 -263 V
Z stroke
4050 2021 M
154 0 V
4050 1070 M
154 0 V
stroke
4663 1337 154 274 80 -45 0 PatternFill
4740 1070 M
0 267 V
0 274 R
0 298 V
stroke
4663 1337 N
154 0 V
0 274 V
-154 0 V
0 -274 V
Z stroke
4663 1909 M
154 0 V
4663 1070 M
154 0 V
stroke
5275 1347 154 242 80 -45 0 PatternFill
5352 1070 M
0 277 V
0 242 R
0 446 V
stroke
5275 1347 N
154 0 V
0 242 V
-154 0 V
0 -242 V
Z stroke
5275 2035 M
154 0 V
5275 1070 M
154 0 V
stroke
5887 1324 154 297 80 -45 0 PatternFill
5964 1070 M
0 254 V
0 297 R
0 394 V
stroke
5887 1324 N
154 0 V
0 297 V
-154 0 V
0 -297 V
Z stroke
5887 2015 M
154 0 V
5887 1070 M
154 0 V
stroke
6499 1341 154 289 80 -45 0 PatternFill
6576 1070 M
0 271 V
0 289 R
0 304 V
stroke
6499 1341 N
154 0 V
0 289 V
-154 0 V
0 -289 V
Z stroke
6499 1934 M
154 0 V
6499 1070 M
154 0 V
stroke
7111 1333 154 287 80 -45 0 PatternFill
7188 1070 M
0 263 V
0 287 R
0 312 V
stroke
7111 1333 N
154 0 V
0 287 V
-154 0 V
0 -287 V
Z stroke
7111 1932 M
154 0 V
7111 1070 M
154 0 V
stroke
7723 1334 154 290 80 -45 0 PatternFill
7800 1070 M
0 264 V
0 290 R
0 270 V
stroke
7723 1334 N
154 0 V
0 290 V
-154 0 V
0 -290 V
Z stroke
7723 1894 M
154 0 V
7723 1070 M
154 0 V
stroke
8335 1329 154 257 80 -45 0 PatternFill
8412 1070 M
0 259 V
0 257 R
0 362 V
stroke
8335 1329 N
154 0 V
0 257 V
-154 0 V
0 -257 V
Z stroke
8335 1948 M
154 0 V
8335 1070 M
154 0 V
stroke
8947 1305 154 306 80 -45 0 PatternFill
9024 1070 M
0 235 V
0 306 R
0 283 V
stroke
8947 1305 N
154 0 V
0 306 V
-154 0 V
0 -306 V
Z stroke
8947 1894 M
154 0 V
8947 1070 M
154 0 V
stroke
9559 1335 154 263 80 -45 0 PatternFill
9636 1070 M
0 265 V
0 263 R
0 365 V
stroke
9559 1335 N
154 0 V
0 263 V
-154 0 V
0 -263 V
Z stroke
9559 1963 M
154 0 V
9559 1070 M
154 0 V
stroke
10171 1313 154 304 80 -45 0 PatternFill
10248 1070 M
0 243 V
0 304 R
0 358 V
stroke
10171 1313 N
154 0 V
0 304 V
-154 0 V
0 -304 V
Z stroke
10171 1975 M
154 0 V
-154 -905 R
154 0 V
stroke
10783 1326 154 283 80 -45 0 PatternFill
10860 1070 M
0 256 V
0 283 R
0 407 V
stroke
10783 1326 N
154 0 V
0 283 V
-154 0 V
0 -283 V
Z stroke
10783 2016 M
154 0 V
-154 -946 R
154 0 V
stroke
11395 1324 154 294 80 -45 0 PatternFill
11472 1070 M
0 254 V
0 294 R
0 423 V
stroke
11395 1324 N
154 0 V
0 294 V
-154 0 V
0 -294 V
Z stroke
11395 2041 M
154 0 V
-154 -971 R
154 0 V
stroke
12007 1320 154 323 80 -45 0 PatternFill
12084 1070 M
0 250 V
0 323 R
0 297 V
stroke
12007 1320 N
154 0 V
0 323 V
-154 0 V
0 -323 V
Z stroke
12007 1940 M
154 0 V
-154 -870 R
154 0 V
stroke
12619 1377 154 314 80 -45 0 PatternFill
12696 1070 M
0 307 V
0 314 R
0 305 V
stroke
12619 1377 N
154 0 V
0 314 V
-154 0 V
0 -314 V
Z stroke
12619 1996 M
154 0 V
-154 -926 R
154 0 V
% End plot #1
% Begin plot #2
stroke
LTb
LCb setrgbcolor

 /TransparentPatterns true def
990 1465 154 0 40 30 0 PatternFill
1067 1465 M
stroke
990 1465 N
154 0 V
-154 0 V
Z stroke
990 1465 M
154 0 V
-154 0 R
154 0 V
stroke

 /TransparentPatterns true def
1602 1467 154 0 40 30 0 PatternFill
1679 1467 M
stroke
1602 1467 N
154 0 V
-154 0 V
Z stroke
1602 1467 M
154 0 V
-154 0 R
154 0 V
stroke

 /TransparentPatterns true def
2214 1473 154 0 40 30 0 PatternFill
2291 1473 M
stroke
2214 1473 N
154 0 V
-154 0 V
Z stroke
2214 1473 M
154 0 V
-154 0 R
154 0 V
stroke

 /TransparentPatterns true def
2826 1469 154 0 40 30 0 PatternFill
2903 1469 M
stroke
2826 1469 N
154 0 V
-154 0 V
Z stroke
2826 1469 M
154 0 V
-154 0 R
154 0 V
stroke

 /TransparentPatterns true def
3438 1463 154 0 40 30 0 PatternFill
3515 1463 M
stroke
3438 1463 N
154 0 V
-154 0 V
Z stroke
3438 1463 M
154 0 V
-154 0 R
154 0 V
stroke

 /TransparentPatterns true def
4050 1471 154 0 40 30 0 PatternFill
4127 1471 M
stroke
4050 1471 N
154 0 V
-154 0 V
Z stroke
4050 1471 M
154 0 V
-154 0 R
154 0 V
stroke

 /TransparentPatterns true def
4663 1480 154 0 40 30 0 PatternFill
4740 1480 M
stroke
4663 1480 N
154 0 V
-154 0 V
Z stroke
4663 1480 M
154 0 V
-154 0 R
154 0 V
stroke

 /TransparentPatterns true def
5275 1469 154 0 40 30 0 PatternFill
5352 1469 M
stroke
5275 1469 N
154 0 V
-154 0 V
Z stroke
5275 1469 M
154 0 V
-154 0 R
154 0 V
stroke

 /TransparentPatterns true def
5887 1474 154 0 40 30 0 PatternFill
5964 1474 M
stroke
5887 1474 N
154 0 V
-154 0 V
Z stroke
5887 1474 M
154 0 V
-154 0 R
154 0 V
stroke

 /TransparentPatterns true def
6499 1481 154 0 40 30 0 PatternFill
6576 1481 M
stroke
6499 1481 N
154 0 V
-154 0 V
Z stroke
6499 1481 M
154 0 V
-154 0 R
154 0 V
stroke

 /TransparentPatterns true def
7111 1468 154 0 40 30 0 PatternFill
7188 1468 M
stroke
7111 1468 N
154 0 V
-154 0 V
Z stroke
7111 1468 M
154 0 V
-154 0 R
154 0 V
stroke

 /TransparentPatterns true def
7723 1479 154 0 40 30 0 PatternFill
7800 1479 M
stroke
7723 1479 N
154 0 V
-154 0 V
Z stroke
7723 1479 M
154 0 V
-154 0 R
154 0 V
stroke

 /TransparentPatterns true def
8335 1468 154 0 40 30 0 PatternFill
8412 1468 M
stroke
8335 1468 N
154 0 V
-154 0 V
Z stroke
8335 1468 M
154 0 V
-154 0 R
154 0 V
stroke

 /TransparentPatterns true def
8947 1464 154 0 40 30 0 PatternFill
9024 1464 M
stroke
8947 1464 N
154 0 V
-154 0 V
Z stroke
8947 1464 M
154 0 V
-154 0 R
154 0 V
stroke

 /TransparentPatterns true def
9559 1469 154 0 40 30 0 PatternFill
9636 1469 M
stroke
9559 1469 N
154 0 V
-154 0 V
Z stroke
9559 1469 M
154 0 V
-154 0 R
154 0 V
stroke

 /TransparentPatterns true def
10171 1472 154 0 40 30 0 PatternFill
10248 1472 M
stroke
10171 1472 N
154 0 V
-154 0 V
Z stroke
10171 1472 M
154 0 V
-154 0 R
154 0 V
stroke

 /TransparentPatterns true def
10783 1469 154 0 40 30 0 PatternFill
10860 1469 M
stroke
10783 1469 N
154 0 V
-154 0 V
Z stroke
10783 1469 M
154 0 V
-154 0 R
154 0 V
stroke

 /TransparentPatterns true def
11395 1480 154 0 40 30 0 PatternFill
11472 1480 M
stroke
11395 1480 N
154 0 V
-154 0 V
Z stroke
11395 1480 M
154 0 V
-154 0 R
154 0 V
stroke

 /TransparentPatterns true def
12007 1493 154 0 40 30 0 PatternFill
12084 1493 M
stroke
12007 1493 N
154 0 V
-154 0 V
Z stroke
12007 1493 M
154 0 V
-154 0 R
154 0 V
stroke

 /TransparentPatterns true def
12619 1530 154 0 40 30 0 PatternFill
12696 1530 M
stroke
12619 1530 N
154 0 V
-154 0 V
Z stroke
12619 1530 M
154 0 V
-154 0 R
154 0 V
% End plot #2
% Begin plot #3
2.000 UP
stroke
LTa
0.60 0.60 0.00 C LCb setrgbcolor
4714 153 M
[ [(Arial) 180.0 0.0 true true 0 (avg. throughput :         )]
] -60.0 MRshow
2.000 UP
1.000 UL
LTa
0.60 0.60 0.00 C 4822 153 M
333 0 V
1067 4666 M
612 0 V
612 0 V
612 0 V
612 -4 V
612 1 V
612 3 V
612 0 V
612 -2 V
612 2 V
612 0 V
612 -2 V
612 -1 V
612 0 V
612 1 V
612 1 V
613 0 V
612 -1 V
612 0 V
612 1 V
1067 4666 Box
1679 4666 Box
2291 4666 Box
2903 4666 Box
3515 4662 Box
4127 4663 Box
4739 4666 Box
5351 4666 Box
5963 4664 Box
6575 4666 Box
7187 4666 Box
7799 4664 Box
8411 4663 Box
9023 4663 Box
9635 4664 Box
10247 4665 Box
10860 4665 Box
11472 4664 Box
12084 4664 Box
12696 4665 Box
4988 153 Box
% End plot #3
% Begin plot #4
1.000 UL
LTb
0.00 0.00 0.63 C LCb setrgbcolor
8287 333 M
[ [(Arial) 180.0 0.0 true true 0 (per-packet)]
] -60.0 MRshow
1.000 UL
LTb
0.00 0.00 0.63 C 8395 288 333 90 80 45 0 PatternFill
8395 288 N
333 0 V
0 90 V
-333 0 V
0 -90 V
Z stroke
1.000 UL
LTb
0.00 0.00 0.63 C 1159 1125 154 1331 80 45 0 PatternFill
1236 1072 M
0 53 V
0 1331 R
0 481 V
stroke
1159 1125 N
154 0 V
0 1331 V
-154 0 V
0 -1331 V
Z stroke
1159 2937 M
154 0 V
1159 1072 M
154 0 V
stroke
1771 1132 154 1217 80 45 0 PatternFill
1848 1064 M
0 68 V
0 1217 R
0 599 V
stroke
1771 1132 N
154 0 V
0 1217 V
-154 0 V
0 -1217 V
Z stroke
1771 2948 M
154 0 V
1771 1064 M
154 0 V
stroke
2383 1129 154 1296 80 45 0 PatternFill
2460 1076 M
0 53 V
0 1296 R
0 405 V
stroke
2383 1129 N
154 0 V
0 1296 V
-154 0 V
0 -1296 V
Z stroke
2383 2830 M
154 0 V
2383 1076 M
154 0 V
stroke
2995 1125 154 1306 80 45 0 PatternFill
3072 1060 M
0 65 V
0 1306 R
0 507 V
stroke
2995 1125 N
154 0 V
0 1306 V
-154 0 V
0 -1306 V
Z stroke
2995 2938 M
154 0 V
2995 1060 M
154 0 V
stroke
3607 1131 154 1215 80 45 0 PatternFill
3684 1063 M
0 68 V
0 1215 R
0 639 V
stroke
3607 1131 N
154 0 V
0 1215 V
-154 0 V
0 -1215 V
Z stroke
3607 2985 M
154 0 V
3607 1063 M
154 0 V
stroke
4219 1152 154 1216 80 45 0 PatternFill
4296 1052 M
0 100 V
0 1216 R
0 414 V
stroke
4219 1152 N
154 0 V
0 1216 V
-154 0 V
0 -1216 V
Z stroke
4219 2782 M
154 0 V
4219 1052 M
154 0 V
stroke
4831 1126 154 1244 80 45 0 PatternFill
4908 1057 M
0 69 V
0 1244 R
0 459 V
stroke
4831 1126 N
154 0 V
0 1244 V
-154 0 V
0 -1244 V
Z stroke
4831 2829 M
154 0 V
4831 1057 M
154 0 V
stroke
5443 1128 154 1292 80 45 0 PatternFill
5520 1070 M
0 58 V
0 1292 R
0 542 V
stroke
5443 1128 N
154 0 V
0 1292 V
-154 0 V
0 -1292 V
Z stroke
5443 2962 M
154 0 V
5443 1070 M
154 0 V
stroke
6055 1128 154 1243 80 45 0 PatternFill
6132 1067 M
0 61 V
0 1243 R
0 589 V
stroke
6055 1128 N
154 0 V
0 1243 V
-154 0 V
0 -1243 V
Z stroke
6055 2960 M
154 0 V
6055 1067 M
154 0 V
stroke
6667 1136 154 1239 80 45 0 PatternFill
6744 1052 M
0 84 V
0 1239 R
0 446 V
stroke
6667 1136 N
154 0 V
0 1239 V
-154 0 V
0 -1239 V
Z stroke
6667 2821 M
154 0 V
6667 1052 M
154 0 V
stroke
7279 1140 154 1228 80 45 0 PatternFill
7356 1049 M
0 91 V
0 1228 R
0 436 V
stroke
7279 1140 N
154 0 V
0 1228 V
-154 0 V
0 -1228 V
Z stroke
7279 2804 M
154 0 V
7279 1049 M
154 0 V
stroke
7891 1158 154 1197 80 45 0 PatternFill
7968 1063 M
0 95 V
0 1197 R
0 408 V
stroke
7891 1158 N
154 0 V
0 1197 V
-154 0 V
0 -1197 V
Z stroke
7891 2763 M
154 0 V
7891 1063 M
154 0 V
stroke
8503 1142 154 1200 80 45 0 PatternFill
8580 1069 M
0 73 V
0 1200 R
0 576 V
stroke
8503 1142 N
154 0 V
0 1200 V
-154 0 V
0 -1200 V
Z stroke
8503 2918 M
154 0 V
8503 1069 M
154 0 V
stroke
9115 1132 154 1189 80 45 0 PatternFill
9192 1062 M
0 70 V
0 1189 R
0 503 V
stroke
9115 1132 N
154 0 V
0 1189 V
-154 0 V
0 -1189 V
Z stroke
9115 2824 M
154 0 V
9115 1062 M
154 0 V
stroke
9727 1144 154 1210 80 45 0 PatternFill
9804 1064 M
0 80 V
0 1210 R
0 411 V
stroke
9727 1144 N
154 0 V
0 1210 V
-154 0 V
0 -1210 V
Z stroke
9727 2765 M
154 0 V
9727 1064 M
154 0 V
stroke
10339 1149 154 1231 80 45 0 PatternFill
10416 1064 M
0 85 V
0 1231 R
0 419 V
stroke
10339 1149 N
154 0 V
0 1231 V
-154 0 V
0 -1231 V
Z stroke
10339 2799 M
154 0 V
10339 1064 M
154 0 V
stroke
10951 1145 154 1202 80 45 0 PatternFill
11028 1065 M
0 80 V
0 1202 R
0 504 V
stroke
10951 1145 N
154 0 V
0 1202 V
-154 0 V
0 -1202 V
Z stroke
10951 2851 M
154 0 V
10951 1065 M
154 0 V
stroke
11563 1169 154 1155 80 45 0 PatternFill
11640 1070 M
0 99 V
0 1155 R
0 680 V
stroke
11563 1169 N
154 0 V
0 1155 V
-154 0 V
0 -1155 V
Z stroke
11563 3004 M
154 0 V
11563 1070 M
154 0 V
stroke
12175 1170 154 1159 80 45 0 PatternFill
12252 1067 M
0 103 V
0 1159 R
0 502 V
stroke
12175 1170 N
154 0 V
0 1159 V
-154 0 V
0 -1159 V
Z stroke
12175 2831 M
154 0 V
12175 1067 M
154 0 V
stroke
12787 1188 154 1098 80 45 0 PatternFill
12864 1067 M
0 121 V
0 1098 R
0 480 V
stroke
12787 1188 N
154 0 V
0 1098 V
-154 0 V
0 -1098 V
Z stroke
12787 2766 M
154 0 V
12787 1067 M
154 0 V
% End plot #4
% Begin plot #5
stroke
LTb
LCb setrgbcolor

 /TransparentPatterns true def
1159 1652 154 0 80 -45 0 PatternFill
1236 1652 M
stroke
1159 1652 N
154 0 V
-154 0 V
Z stroke
1159 1652 M
154 0 V
-154 0 R
154 0 V
stroke

 /TransparentPatterns true def
1771 1634 154 0 80 -45 0 PatternFill
1848 1634 M
stroke
1771 1634 N
154 0 V
-154 0 V
Z stroke
1771 1634 M
154 0 V
-154 0 R
154 0 V
stroke

 /TransparentPatterns true def
2383 1644 154 0 80 -45 0 PatternFill
2460 1644 M
stroke
2383 1644 N
154 0 V
-154 0 V
Z stroke
2383 1644 M
154 0 V
-154 0 R
154 0 V
stroke

 /TransparentPatterns true def
2995 1637 154 0 80 -45 0 PatternFill
3072 1637 M
stroke
2995 1637 N
154 0 V
-154 0 V
Z stroke
2995 1637 M
154 0 V
-154 0 R
154 0 V
stroke

 /TransparentPatterns true def
3607 1638 154 0 80 -45 0 PatternFill
3684 1638 M
stroke
3607 1638 N
154 0 V
-154 0 V
Z stroke
3607 1638 M
154 0 V
-154 0 R
154 0 V
stroke

 /TransparentPatterns true def
4219 1639 154 0 80 -45 0 PatternFill
4296 1639 M
stroke
4219 1639 N
154 0 V
-154 0 V
Z stroke
4219 1639 M
154 0 V
-154 0 R
154 0 V
stroke

 /TransparentPatterns true def
4831 1635 154 0 80 -45 0 PatternFill
4908 1635 M
stroke
4831 1635 N
154 0 V
-154 0 V
Z stroke
4831 1635 M
154 0 V
-154 0 R
154 0 V
stroke

 /TransparentPatterns true def
5443 1645 154 0 80 -45 0 PatternFill
5520 1645 M
stroke
5443 1645 N
154 0 V
-154 0 V
Z stroke
5443 1645 M
154 0 V
-154 0 R
154 0 V
stroke

 /TransparentPatterns true def
6055 1645 154 0 80 -45 0 PatternFill
6132 1645 M
stroke
6055 1645 N
154 0 V
-154 0 V
Z stroke
6055 1645 M
154 0 V
-154 0 R
154 0 V
stroke

 /TransparentPatterns true def
6667 1630 154 0 80 -45 0 PatternFill
6744 1630 M
stroke
6667 1630 N
154 0 V
-154 0 V
Z stroke
6667 1630 M
154 0 V
-154 0 R
154 0 V
stroke

 /TransparentPatterns true def
7279 1633 154 0 80 -45 0 PatternFill
7356 1633 M
stroke
7279 1633 N
154 0 V
-154 0 V
Z stroke
7279 1633 M
154 0 V
-154 0 R
154 0 V
stroke

 /TransparentPatterns true def
7891 1632 154 0 80 -45 0 PatternFill
7968 1632 M
stroke
7891 1632 N
154 0 V
-154 0 V
Z stroke
7891 1632 M
154 0 V
-154 0 R
154 0 V
stroke

 /TransparentPatterns true def
8503 1644 154 0 80 -45 0 PatternFill
8580 1644 M
stroke
8503 1644 N
154 0 V
-154 0 V
Z stroke
8503 1644 M
154 0 V
-154 0 R
154 0 V
stroke

 /TransparentPatterns true def
9115 1620 154 0 80 -45 0 PatternFill
9192 1620 M
stroke
9115 1620 N
154 0 V
-154 0 V
Z stroke
9115 1620 M
154 0 V
-154 0 R
154 0 V
stroke

 /TransparentPatterns true def
9727 1630 154 0 80 -45 0 PatternFill
9804 1630 M
stroke
9727 1630 N
154 0 V
-154 0 V
Z stroke
9727 1630 M
154 0 V
-154 0 R
154 0 V
stroke

 /TransparentPatterns true def
10339 1633 154 0 80 -45 0 PatternFill
10416 1633 M
stroke
10339 1633 N
154 0 V
-154 0 V
Z stroke
10339 1633 M
154 0 V
-154 0 R
154 0 V
stroke

 /TransparentPatterns true def
10951 1624 154 0 80 -45 0 PatternFill
11028 1624 M
stroke
10951 1624 N
154 0 V
-154 0 V
Z stroke
10951 1624 M
154 0 V
-154 0 R
154 0 V
stroke

 /TransparentPatterns true def
11563 1631 154 0 80 -45 0 PatternFill
11640 1631 M
stroke
11563 1631 N
154 0 V
-154 0 V
Z stroke
11563 1631 M
154 0 V
-154 0 R
154 0 V
stroke

 /TransparentPatterns true def
12175 1640 154 0 80 -45 0 PatternFill
12252 1640 M
stroke
12175 1640 N
154 0 V
-154 0 V
Z stroke
12175 1640 M
154 0 V
-154 0 R
154 0 V
stroke

 /TransparentPatterns true def
12787 1640 154 0 80 -45 0 PatternFill
12864 1640 M
stroke
12787 1640 N
154 0 V
-154 0 V
Z stroke
12787 1640 M
154 0 V
-154 0 R
154 0 V
% End plot #5
% Begin plot #6
2.000 UP
stroke
LTa
0.00 0.00 0.63 C LCb setrgbcolor
8287 153 M
[ [(Arial) 180.0 0.0 true true 0 ( )]
] -60.0 MRshow
2.000 UP
1.000 UL
LTa
0.00 0.00 0.63 C 8395 153 M
333 0 V
1235 4780 M
612 10 V
612 -4 V
612 -1 V
612 3 V
612 -2 V
612 2 V
612 -1 V
612 -1 V
612 2 V
613 -1 V
612 -1 V
612 1 V
612 0 V
612 1 V
612 -1 V
612 0 V
612 0 V
612 0 V
612 0 V
1235 4780 Circle
1847 4790 Circle
2459 4786 Circle
3071 4785 Circle
3683 4788 Circle
4295 4786 Circle
4907 4788 Circle
5519 4787 Circle
6131 4786 Circle
6743 4788 Circle
7356 4787 Circle
7968 4786 Circle
8580 4787 Circle
9192 4787 Circle
9804 4788 Circle
10416 4787 Circle
11028 4787 Circle
11640 4787 Circle
12252 4787 Circle
12864 4787 Circle
8561 153 Circle
% End plot #6
% Begin plot #7
1.000 UL
LTb
0.00 0.38 0.82 C LCb setrgbcolor
11860 333 M
[ [(Arial) 180.0 0.0 true true 0 (per-flow)]
] -60.0 MRshow
1.000 UL
LTb
0.00 0.38 0.82 C 11968 288 333 90 40 30 0 PatternFill
11968 288 N
333 0 V
0 90 V
-333 0 V
0 -90 V
Z stroke
1.000 UL
LTb
0.00 0.38 0.82 C 1327 1138 154 159 40 30 0 PatternFill
1404 1084 M
0 54 V
0 159 R
0 408 V
stroke
1327 1138 N
154 0 V
0 159 V
-154 0 V
0 -159 V
Z stroke
1327 1705 M
154 0 V
1327 1084 M
154 0 V
stroke
1939 1151 154 159 40 30 0 PatternFill
2016 1082 M
0 69 V
0 159 R
0 377 V
stroke
1939 1151 N
154 0 V
0 159 V
-154 0 V
0 -159 V
Z stroke
1939 1687 M
154 0 V
1939 1082 M
154 0 V
stroke
2551 1139 154 171 40 30 0 PatternFill
2628 1070 M
0 69 V
0 171 R
0 374 V
stroke
2551 1139 N
154 0 V
0 171 V
-154 0 V
0 -171 V
Z stroke
2551 1684 M
154 0 V
2551 1070 M
154 0 V
stroke
3163 1148 154 163 40 30 0 PatternFill
3240 1071 M
0 77 V
0 163 R
0 536 V
stroke
3163 1148 N
154 0 V
0 163 V
-154 0 V
0 -163 V
Z stroke
3163 1847 M
154 0 V
3163 1071 M
154 0 V
stroke
3775 1138 154 218 40 30 0 PatternFill
3852 1076 M
0 62 V
0 218 R
0 444 V
stroke
3775 1138 N
154 0 V
0 218 V
-154 0 V
0 -218 V
Z stroke
3775 1800 M
154 0 V
3775 1076 M
154 0 V
stroke
4387 1151 154 170 40 30 0 PatternFill
4464 1078 M
0 73 V
0 170 R
0 328 V
stroke
4387 1151 N
154 0 V
0 170 V
-154 0 V
0 -170 V
Z stroke
4387 1649 M
154 0 V
4387 1078 M
154 0 V
stroke
4999 1144 154 182 40 30 0 PatternFill
5076 1070 M
0 74 V
0 182 R
0 394 V
stroke
4999 1144 N
154 0 V
0 182 V
-154 0 V
0 -182 V
Z stroke
4999 1720 M
154 0 V
4999 1070 M
154 0 V
stroke
5611 1154 154 183 40 30 0 PatternFill
5688 1084 M
0 70 V
0 183 R
0 362 V
stroke
5611 1154 N
154 0 V
0 183 V
-154 0 V
0 -183 V
Z stroke
5611 1699 M
154 0 V
5611 1084 M
154 0 V
stroke
6223 1156 154 195 40 30 0 PatternFill
6300 1083 M
0 73 V
0 195 R
0 599 V
stroke
6223 1156 N
154 0 V
0 195 V
-154 0 V
0 -195 V
Z stroke
6223 1950 M
154 0 V
6223 1083 M
154 0 V
stroke
6835 1141 154 213 40 30 0 PatternFill
6912 1066 M
0 75 V
0 213 R
0 464 V
stroke
6835 1141 N
154 0 V
0 213 V
-154 0 V
0 -213 V
Z stroke
6835 1818 M
154 0 V
6835 1066 M
154 0 V
stroke
7447 1152 154 185 40 30 0 PatternFill
7524 1062 M
0 90 V
0 185 R
0 370 V
stroke
7447 1152 N
154 0 V
0 185 V
-154 0 V
0 -185 V
Z stroke
7447 1707 M
154 0 V
7447 1062 M
154 0 V
stroke
8059 1156 154 219 40 30 0 PatternFill
8136 1075 M
0 81 V
0 219 R
0 309 V
stroke
8059 1156 N
154 0 V
0 219 V
-154 0 V
0 -219 V
Z stroke
8059 1684 M
154 0 V
8059 1075 M
154 0 V
stroke
8671 1148 154 225 40 30 0 PatternFill
8748 1076 M
0 72 V
0 225 R
0 343 V
stroke
8671 1148 N
154 0 V
0 225 V
-154 0 V
0 -225 V
Z stroke
8671 1716 M
154 0 V
8671 1076 M
154 0 V
stroke
9283 1169 154 166 40 30 0 PatternFill
9360 1070 M
0 99 V
0 166 R
0 514 V
stroke
9283 1169 N
154 0 V
0 166 V
-154 0 V
0 -166 V
Z stroke
9283 1849 M
154 0 V
9283 1070 M
154 0 V
stroke
9896 1177 154 161 40 30 0 PatternFill
9973 1081 M
0 96 V
0 161 R
0 374 V
stroke
9896 1177 N
154 0 V
0 161 V
-154 0 V
0 -161 V
Z stroke
9896 1712 M
154 0 V
9896 1081 M
154 0 V
stroke
10508 1169 154 181 40 30 0 PatternFill
10585 1073 M
0 96 V
0 181 R
0 366 V
stroke
10508 1169 N
154 0 V
0 181 V
-154 0 V
0 -181 V
Z stroke
10508 1716 M
154 0 V
-154 -643 R
154 0 V
stroke
11120 1167 154 177 40 30 0 PatternFill
11197 1086 M
0 81 V
0 177 R
0 403 V
stroke
11120 1167 N
154 0 V
0 177 V
-154 0 V
0 -177 V
Z stroke
11120 1747 M
154 0 V
-154 -661 R
154 0 V
stroke
11732 1182 154 164 40 30 0 PatternFill
11809 1070 M
0 112 V
0 164 R
0 286 V
stroke
11732 1182 N
154 0 V
0 164 V
-154 0 V
0 -164 V
Z stroke
11732 1632 M
154 0 V
-154 -562 R
154 0 V
stroke
12344 1180 154 193 40 30 0 PatternFill
12421 1074 M
0 106 V
0 193 R
0 473 V
stroke
12344 1180 N
154 0 V
0 193 V
-154 0 V
0 -193 V
Z stroke
12344 1846 M
154 0 V
-154 -772 R
154 0 V
stroke
12956 1176 154 216 40 30 0 PatternFill
13033 1072 M
0 104 V
0 216 R
0 319 V
stroke
12956 1176 N
154 0 V
0 216 V
-154 0 V
0 -216 V
Z stroke
12956 1711 M
154 0 V
-154 -639 R
154 0 V
% End plot #7
% Begin plot #8
stroke
LTb
LCb setrgbcolor

 /TransparentPatterns true def
1327 1233 154 0 40 -30 0 PatternFill
1404 1233 M
stroke
1327 1233 N
154 0 V
-154 0 V
Z stroke
1327 1233 M
154 0 V
-154 0 R
154 0 V
stroke

 /TransparentPatterns true def
1939 1244 154 0 40 -30 0 PatternFill
2016 1244 M
stroke
1939 1244 N
154 0 V
-154 0 V
Z stroke
1939 1244 M
154 0 V
-154 0 R
154 0 V
stroke

 /TransparentPatterns true def
2551 1236 154 0 40 -30 0 PatternFill
2628 1236 M
stroke
2551 1236 N
154 0 V
-154 0 V
Z stroke
2551 1236 M
154 0 V
-154 0 R
154 0 V
stroke

 /TransparentPatterns true def
3163 1238 154 0 40 -30 0 PatternFill
3240 1238 M
stroke
3163 1238 N
154 0 V
-154 0 V
Z stroke
3163 1238 M
154 0 V
-154 0 R
154 0 V
stroke

 /TransparentPatterns true def
3775 1257 154 0 40 -30 0 PatternFill
3852 1257 M
stroke
3775 1257 N
154 0 V
-154 0 V
Z stroke
3775 1257 M
154 0 V
-154 0 R
154 0 V
stroke

 /TransparentPatterns true def
4387 1242 154 0 40 -30 0 PatternFill
4464 1242 M
stroke
4387 1242 N
154 0 V
-154 0 V
Z stroke
4387 1242 M
154 0 V
-154 0 R
154 0 V
stroke

 /TransparentPatterns true def
4999 1249 154 0 40 -30 0 PatternFill
5076 1249 M
stroke
4999 1249 N
154 0 V
-154 0 V
Z stroke
4999 1249 M
154 0 V
-154 0 R
154 0 V
stroke

 /TransparentPatterns true def
5611 1252 154 0 40 -30 0 PatternFill
5688 1252 M
stroke
5611 1252 N
154 0 V
-154 0 V
Z stroke
5611 1252 M
154 0 V
-154 0 R
154 0 V
stroke

 /TransparentPatterns true def
6223 1263 154 0 40 -30 0 PatternFill
6300 1263 M
stroke
6223 1263 N
154 0 V
-154 0 V
Z stroke
6223 1263 M
154 0 V
-154 0 R
154 0 V
stroke

 /TransparentPatterns true def
6835 1252 154 0 40 -30 0 PatternFill
6912 1252 M
stroke
6835 1252 N
154 0 V
-154 0 V
Z stroke
6835 1252 M
154 0 V
-154 0 R
154 0 V
stroke

 /TransparentPatterns true def
7447 1259 154 0 40 -30 0 PatternFill
7524 1259 M
stroke
7447 1259 N
154 0 V
-154 0 V
Z stroke
7447 1259 M
154 0 V
-154 0 R
154 0 V
stroke

 /TransparentPatterns true def
8059 1266 154 0 40 -30 0 PatternFill
8136 1266 M
stroke
8059 1266 N
154 0 V
-154 0 V
Z stroke
8059 1266 M
154 0 V
-154 0 R
154 0 V
stroke

 /TransparentPatterns true def
8671 1260 154 0 40 -30 0 PatternFill
8748 1260 M
stroke
8671 1260 N
154 0 V
-154 0 V
Z stroke
8671 1260 M
154 0 V
-154 0 R
154 0 V
stroke

 /TransparentPatterns true def
9283 1263 154 0 40 -30 0 PatternFill
9360 1263 M
stroke
9283 1263 N
154 0 V
-154 0 V
Z stroke
9283 1263 M
154 0 V
-154 0 R
154 0 V
stroke

 /TransparentPatterns true def
9896 1267 154 0 40 -30 0 PatternFill
9973 1267 M
stroke
9896 1267 N
154 0 V
-154 0 V
Z stroke
9896 1267 M
154 0 V
-154 0 R
154 0 V
stroke

 /TransparentPatterns true def
10508 1271 154 0 40 -30 0 PatternFill
10585 1271 M
stroke
10508 1271 N
154 0 V
-154 0 V
Z stroke
10508 1271 M
154 0 V
-154 0 R
154 0 V
stroke

 /TransparentPatterns true def
11120 1266 154 0 40 -30 0 PatternFill
11197 1266 M
stroke
11120 1266 N
154 0 V
-154 0 V
Z stroke
11120 1266 M
154 0 V
-154 0 R
154 0 V
stroke

 /TransparentPatterns true def
11732 1273 154 0 40 -30 0 PatternFill
11809 1273 M
stroke
11732 1273 N
154 0 V
-154 0 V
Z stroke
11732 1273 M
154 0 V
-154 0 R
154 0 V
stroke

 /TransparentPatterns true def
12344 1292 154 0 40 -30 0 PatternFill
12421 1292 M
stroke
12344 1292 N
154 0 V
-154 0 V
Z stroke
12344 1292 M
154 0 V
-154 0 R
154 0 V
stroke

 /TransparentPatterns true def
12956 1304 154 0 40 -30 0 PatternFill
13033 1304 M
stroke
12956 1304 N
154 0 V
-154 0 V
Z stroke
12956 1304 M
154 0 V
-154 0 R
154 0 V
% End plot #8
% Begin plot #9
2.000 UP
stroke
LTa
0.00 0.38 0.82 C LCb setrgbcolor
11860 153 M
[ [(Arial) 180.0 0.0 true true 0 ( )]
] -60.0 MRshow
2.000 UP
1.000 UL
LTa
0.00 0.38 0.82 C 11968 153 M
333 0 V
1403 4780 M
612 10 V
612 -4 V
612 -1 V
613 -1 V
612 2 V
612 -1 V
612 0 V
612 -1 V
612 2 V
612 -1 V
612 0 V
612 -1 V
612 1 V
612 0 V
612 0 V
612 -1 V
612 1 V
612 0 V
612 0 V
1403 4780 TriU
2015 4790 TriU
2627 4786 TriU
3239 4785 TriU
3852 4784 TriU
4464 4786 TriU
5076 4785 TriU
5688 4785 TriU
6300 4784 TriU
6912 4786 TriU
7524 4785 TriU
8136 4785 TriU
8748 4784 TriU
9360 4785 TriU
9972 4785 TriU
10584 4785 TriU
11196 4784 TriU
11808 4785 TriU
12420 4785 TriU
13032 4785 TriU
12134 153 TriU
% End plot #9
2.000 UL
LTb
LCb setrgbcolor
1.000 UP
1.000 UL
LTb
0.00 0.00 0.00 C stroke
grestore
end
showpage
%%Trailer
%%DocumentFonts: Arial
