%!PS-Adobe-2.0 EPSF-2.0
%%Title: TcpNewReno-download-rtt-75UE-90-240.eps
%%Creator: gnuplot 5.0 patchlevel 3
%%CreationDate: Thu Jun  2 10:39:42 2016
%%DocumentFonts: (atend)
%%BoundingBox: 50 50 770 302
%%EndComments
%%BeginProlog
/gnudict 256 dict def
gnudict begin
%
% The following true/false flags may be edited by hand if desired.
% The unit line width and grayscale image gamma correction may also be changed.
%
/Color true def
/Blacktext false def
/Solid false def
/Dashlength 3 def
/Landscape false def
/Level1 false def
/Level3 false def
/Rounded false def
/ClipToBoundingBox false def
/SuppressPDFMark false def
/TransparentPatterns false def
/gnulinewidth 15.000 def
/userlinewidth gnulinewidth def
/Gamma 1.0 def
/BackgroundColor {-1.000 -1.000 -1.000} def
%
/vshift -66 def
/dl1 {
  10.0 Dashlength userlinewidth gnulinewidth div mul mul mul
  Rounded { currentlinewidth 0.75 mul sub dup 0 le { pop 0.01 } if } if
} def
/dl2 {
  10.0 Dashlength userlinewidth gnulinewidth div mul mul mul
  Rounded { currentlinewidth 0.75 mul add } if
} def
/hpt_ 31.5 def
/vpt_ 31.5 def
/hpt hpt_ def
/vpt vpt_ def
/doclip {
  ClipToBoundingBox {
    newpath 50 50 moveto 770 50 lineto 770 302 lineto 50 302 lineto closepath
    clip
  } if
} def
%
% Gnuplot Prolog Version 5.1 (Oct 2015)
%
%/SuppressPDFMark true def
%
/M {moveto} bind def
/L {lineto} bind def
/R {rmoveto} bind def
/V {rlineto} bind def
/N {newpath moveto} bind def
/Z {closepath} bind def
/C {setrgbcolor} bind def
/f {rlineto fill} bind def
/g {setgray} bind def
/Gshow {show} def   % May be redefined later in the file to support UTF-8
/vpt2 vpt 2 mul def
/hpt2 hpt 2 mul def
/Lshow {currentpoint stroke M 0 vshift R 
	Blacktext {gsave 0 setgray textshow grestore} {textshow} ifelse} def
/Rshow {currentpoint stroke M dup stringwidth pop neg vshift R
	Blacktext {gsave 0 setgray textshow grestore} {textshow} ifelse} def
/Cshow {currentpoint stroke M dup stringwidth pop -2 div vshift R 
	Blacktext {gsave 0 setgray textshow grestore} {textshow} ifelse} def
/UP {dup vpt_ mul /vpt exch def hpt_ mul /hpt exch def
  /hpt2 hpt 2 mul def /vpt2 vpt 2 mul def} def
/DL {Color {setrgbcolor Solid {pop []} if 0 setdash}
 {pop pop pop 0 setgray Solid {pop []} if 0 setdash} ifelse} def
/BL {stroke userlinewidth 2 mul setlinewidth
	Rounded {1 setlinejoin 1 setlinecap} if} def
/AL {stroke userlinewidth 2 div setlinewidth
	Rounded {1 setlinejoin 1 setlinecap} if} def
/UL {dup gnulinewidth mul /userlinewidth exch def
	dup 1 lt {pop 1} if 10 mul /udl exch def} def
/PL {stroke userlinewidth setlinewidth
	Rounded {1 setlinejoin 1 setlinecap} if} def
3.8 setmiterlimit
% Classic Line colors (version 5.0)
/LCw {1 1 1} def
/LCb {0 0 0} def
/LCa {0 0 0} def
/LC0 {1 0 0} def
/LC1 {0 1 0} def
/LC2 {0 0 1} def
/LC3 {1 0 1} def
/LC4 {0 1 1} def
/LC5 {1 1 0} def
/LC6 {0 0 0} def
/LC7 {1 0.3 0} def
/LC8 {0.5 0.5 0.5} def
% Default dash patterns (version 5.0)
/LTB {BL [] LCb DL} def
/LTw {PL [] 1 setgray} def
/LTb {PL [] LCb DL} def
/LTa {AL [1 udl mul 2 udl mul] 0 setdash LCa setrgbcolor} def
/LT0 {PL [] LC0 DL} def
/LT1 {PL [2 dl1 3 dl2] LC1 DL} def
/LT2 {PL [1 dl1 1.5 dl2] LC2 DL} def
/LT3 {PL [6 dl1 2 dl2 1 dl1 2 dl2] LC3 DL} def
/LT4 {PL [1 dl1 2 dl2 6 dl1 2 dl2 1 dl1 2 dl2] LC4 DL} def
/LT5 {PL [4 dl1 2 dl2] LC5 DL} def
/LT6 {PL [1.5 dl1 1.5 dl2 1.5 dl1 1.5 dl2 1.5 dl1 6 dl2] LC6 DL} def
/LT7 {PL [3 dl1 3 dl2 1 dl1 3 dl2] LC7 DL} def
/LT8 {PL [2 dl1 2 dl2 2 dl1 6 dl2] LC8 DL} def
/SL {[] 0 setdash} def
/Pnt {stroke [] 0 setdash gsave 1 setlinecap M 0 0 V stroke grestore} def
/Dia {stroke [] 0 setdash 2 copy vpt add M
  hpt neg vpt neg V hpt vpt neg V
  hpt vpt V hpt neg vpt V closepath stroke
  Pnt} def
/Pls {stroke [] 0 setdash vpt sub M 0 vpt2 V
  currentpoint stroke M
  hpt neg vpt neg R hpt2 0 V stroke
 } def
/Box {stroke [] 0 setdash 2 copy exch hpt sub exch vpt add M
  0 vpt2 neg V hpt2 0 V 0 vpt2 V
  hpt2 neg 0 V closepath stroke
  Pnt} def
/Crs {stroke [] 0 setdash exch hpt sub exch vpt add M
  hpt2 vpt2 neg V currentpoint stroke M
  hpt2 neg 0 R hpt2 vpt2 V stroke} def
/TriU {stroke [] 0 setdash 2 copy vpt 1.12 mul add M
  hpt neg vpt -1.62 mul V
  hpt 2 mul 0 V
  hpt neg vpt 1.62 mul V closepath stroke
  Pnt} def
/Star {2 copy Pls Crs} def
/BoxF {stroke [] 0 setdash exch hpt sub exch vpt add M
  0 vpt2 neg V hpt2 0 V 0 vpt2 V
  hpt2 neg 0 V closepath fill} def
/TriUF {stroke [] 0 setdash vpt 1.12 mul add M
  hpt neg vpt -1.62 mul V
  hpt 2 mul 0 V
  hpt neg vpt 1.62 mul V closepath fill} def
/TriD {stroke [] 0 setdash 2 copy vpt 1.12 mul sub M
  hpt neg vpt 1.62 mul V
  hpt 2 mul 0 V
  hpt neg vpt -1.62 mul V closepath stroke
  Pnt} def
/TriDF {stroke [] 0 setdash vpt 1.12 mul sub M
  hpt neg vpt 1.62 mul V
  hpt 2 mul 0 V
  hpt neg vpt -1.62 mul V closepath fill} def
/DiaF {stroke [] 0 setdash vpt add M
  hpt neg vpt neg V hpt vpt neg V
  hpt vpt V hpt neg vpt V closepath fill} def
/Pent {stroke [] 0 setdash 2 copy gsave
  translate 0 hpt M 4 {72 rotate 0 hpt L} repeat
  closepath stroke grestore Pnt} def
/PentF {stroke [] 0 setdash gsave
  translate 0 hpt M 4 {72 rotate 0 hpt L} repeat
  closepath fill grestore} def
/Circle {stroke [] 0 setdash 2 copy
  hpt 0 360 arc stroke Pnt} def
/CircleF {stroke [] 0 setdash hpt 0 360 arc fill} def
/C0 {BL [] 0 setdash 2 copy moveto vpt 90 450 arc} bind def
/C1 {BL [] 0 setdash 2 copy moveto
	2 copy vpt 0 90 arc closepath fill
	vpt 0 360 arc closepath} bind def
/C2 {BL [] 0 setdash 2 copy moveto
	2 copy vpt 90 180 arc closepath fill
	vpt 0 360 arc closepath} bind def
/C3 {BL [] 0 setdash 2 copy moveto
	2 copy vpt 0 180 arc closepath fill
	vpt 0 360 arc closepath} bind def
/C4 {BL [] 0 setdash 2 copy moveto
	2 copy vpt 180 270 arc closepath fill
	vpt 0 360 arc closepath} bind def
/C5 {BL [] 0 setdash 2 copy moveto
	2 copy vpt 0 90 arc
	2 copy moveto
	2 copy vpt 180 270 arc closepath fill
	vpt 0 360 arc} bind def
/C6 {BL [] 0 setdash 2 copy moveto
	2 copy vpt 90 270 arc closepath fill
	vpt 0 360 arc closepath} bind def
/C7 {BL [] 0 setdash 2 copy moveto
	2 copy vpt 0 270 arc closepath fill
	vpt 0 360 arc closepath} bind def
/C8 {BL [] 0 setdash 2 copy moveto
	2 copy vpt 270 360 arc closepath fill
	vpt 0 360 arc closepath} bind def
/C9 {BL [] 0 setdash 2 copy moveto
	2 copy vpt 270 450 arc closepath fill
	vpt 0 360 arc closepath} bind def
/C10 {BL [] 0 setdash 2 copy 2 copy moveto vpt 270 360 arc closepath fill
	2 copy moveto
	2 copy vpt 90 180 arc closepath fill
	vpt 0 360 arc closepath} bind def
/C11 {BL [] 0 setdash 2 copy moveto
	2 copy vpt 0 180 arc closepath fill
	2 copy moveto
	2 copy vpt 270 360 arc closepath fill
	vpt 0 360 arc closepath} bind def
/C12 {BL [] 0 setdash 2 copy moveto
	2 copy vpt 180 360 arc closepath fill
	vpt 0 360 arc closepath} bind def
/C13 {BL [] 0 setdash 2 copy moveto
	2 copy vpt 0 90 arc closepath fill
	2 copy moveto
	2 copy vpt 180 360 arc closepath fill
	vpt 0 360 arc closepath} bind def
/C14 {BL [] 0 setdash 2 copy moveto
	2 copy vpt 90 360 arc closepath fill
	vpt 0 360 arc} bind def
/C15 {BL [] 0 setdash 2 copy vpt 0 360 arc closepath fill
	vpt 0 360 arc closepath} bind def
/Rec {newpath 4 2 roll moveto 1 index 0 rlineto 0 exch rlineto
	neg 0 rlineto closepath} bind def
/Square {dup Rec} bind def
/Bsquare {vpt sub exch vpt sub exch vpt2 Square} bind def
/S0 {BL [] 0 setdash 2 copy moveto 0 vpt rlineto BL Bsquare} bind def
/S1 {BL [] 0 setdash 2 copy vpt Square fill Bsquare} bind def
/S2 {BL [] 0 setdash 2 copy exch vpt sub exch vpt Square fill Bsquare} bind def
/S3 {BL [] 0 setdash 2 copy exch vpt sub exch vpt2 vpt Rec fill Bsquare} bind def
/S4 {BL [] 0 setdash 2 copy exch vpt sub exch vpt sub vpt Square fill Bsquare} bind def
/S5 {BL [] 0 setdash 2 copy 2 copy vpt Square fill
	exch vpt sub exch vpt sub vpt Square fill Bsquare} bind def
/S6 {BL [] 0 setdash 2 copy exch vpt sub exch vpt sub vpt vpt2 Rec fill Bsquare} bind def
/S7 {BL [] 0 setdash 2 copy exch vpt sub exch vpt sub vpt vpt2 Rec fill
	2 copy vpt Square fill Bsquare} bind def
/S8 {BL [] 0 setdash 2 copy vpt sub vpt Square fill Bsquare} bind def
/S9 {BL [] 0 setdash 2 copy vpt sub vpt vpt2 Rec fill Bsquare} bind def
/S10 {BL [] 0 setdash 2 copy vpt sub vpt Square fill 2 copy exch vpt sub exch vpt Square fill
	Bsquare} bind def
/S11 {BL [] 0 setdash 2 copy vpt sub vpt Square fill 2 copy exch vpt sub exch vpt2 vpt Rec fill
	Bsquare} bind def
/S12 {BL [] 0 setdash 2 copy exch vpt sub exch vpt sub vpt2 vpt Rec fill Bsquare} bind def
/S13 {BL [] 0 setdash 2 copy exch vpt sub exch vpt sub vpt2 vpt Rec fill
	2 copy vpt Square fill Bsquare} bind def
/S14 {BL [] 0 setdash 2 copy exch vpt sub exch vpt sub vpt2 vpt Rec fill
	2 copy exch vpt sub exch vpt Square fill Bsquare} bind def
/S15 {BL [] 0 setdash 2 copy Bsquare fill Bsquare} bind def
/D0 {gsave translate 45 rotate 0 0 S0 stroke grestore} bind def
/D1 {gsave translate 45 rotate 0 0 S1 stroke grestore} bind def
/D2 {gsave translate 45 rotate 0 0 S2 stroke grestore} bind def
/D3 {gsave translate 45 rotate 0 0 S3 stroke grestore} bind def
/D4 {gsave translate 45 rotate 0 0 S4 stroke grestore} bind def
/D5 {gsave translate 45 rotate 0 0 S5 stroke grestore} bind def
/D6 {gsave translate 45 rotate 0 0 S6 stroke grestore} bind def
/D7 {gsave translate 45 rotate 0 0 S7 stroke grestore} bind def
/D8 {gsave translate 45 rotate 0 0 S8 stroke grestore} bind def
/D9 {gsave translate 45 rotate 0 0 S9 stroke grestore} bind def
/D10 {gsave translate 45 rotate 0 0 S10 stroke grestore} bind def
/D11 {gsave translate 45 rotate 0 0 S11 stroke grestore} bind def
/D12 {gsave translate 45 rotate 0 0 S12 stroke grestore} bind def
/D13 {gsave translate 45 rotate 0 0 S13 stroke grestore} bind def
/D14 {gsave translate 45 rotate 0 0 S14 stroke grestore} bind def
/D15 {gsave translate 45 rotate 0 0 S15 stroke grestore} bind def
/DiaE {stroke [] 0 setdash vpt add M
  hpt neg vpt neg V hpt vpt neg V
  hpt vpt V hpt neg vpt V closepath stroke} def
/BoxE {stroke [] 0 setdash exch hpt sub exch vpt add M
  0 vpt2 neg V hpt2 0 V 0 vpt2 V
  hpt2 neg 0 V closepath stroke} def
/TriUE {stroke [] 0 setdash vpt 1.12 mul add M
  hpt neg vpt -1.62 mul V
  hpt 2 mul 0 V
  hpt neg vpt 1.62 mul V closepath stroke} def
/TriDE {stroke [] 0 setdash vpt 1.12 mul sub M
  hpt neg vpt 1.62 mul V
  hpt 2 mul 0 V
  hpt neg vpt -1.62 mul V closepath stroke} def
/PentE {stroke [] 0 setdash gsave
  translate 0 hpt M 4 {72 rotate 0 hpt L} repeat
  closepath stroke grestore} def
/CircE {stroke [] 0 setdash 
  hpt 0 360 arc stroke} def
/Opaque {gsave closepath 1 setgray fill grestore 0 setgray closepath} def
/DiaW {stroke [] 0 setdash vpt add M
  hpt neg vpt neg V hpt vpt neg V
  hpt vpt V hpt neg vpt V Opaque stroke} def
/BoxW {stroke [] 0 setdash exch hpt sub exch vpt add M
  0 vpt2 neg V hpt2 0 V 0 vpt2 V
  hpt2 neg 0 V Opaque stroke} def
/TriUW {stroke [] 0 setdash vpt 1.12 mul add M
  hpt neg vpt -1.62 mul V
  hpt 2 mul 0 V
  hpt neg vpt 1.62 mul V Opaque stroke} def
/TriDW {stroke [] 0 setdash vpt 1.12 mul sub M
  hpt neg vpt 1.62 mul V
  hpt 2 mul 0 V
  hpt neg vpt -1.62 mul V Opaque stroke} def
/PentW {stroke [] 0 setdash gsave
  translate 0 hpt M 4 {72 rotate 0 hpt L} repeat
  Opaque stroke grestore} def
/CircW {stroke [] 0 setdash 
  hpt 0 360 arc Opaque stroke} def
/BoxFill {gsave Rec 1 setgray fill grestore} def
/Density {
  /Fillden exch def
  currentrgbcolor
  /ColB exch def /ColG exch def /ColR exch def
  /ColR ColR Fillden mul Fillden sub 1 add def
  /ColG ColG Fillden mul Fillden sub 1 add def
  /ColB ColB Fillden mul Fillden sub 1 add def
  ColR ColG ColB setrgbcolor} def
/BoxColFill {gsave Rec PolyFill} def
/PolyFill {gsave Density fill grestore grestore} def
/h {rlineto rlineto rlineto gsave closepath fill grestore} bind def
%
% PostScript Level 1 Pattern Fill routine for rectangles
% Usage: x y w h s a XX PatternFill
%	x,y = lower left corner of box to be filled
%	w,h = width and height of box
%	  a = angle in degrees between lines and x-axis
%	 XX = 0/1 for no/yes cross-hatch
%
/PatternFill {gsave /PFa [ 9 2 roll ] def
  PFa 0 get PFa 2 get 2 div add PFa 1 get PFa 3 get 2 div add translate
  PFa 2 get -2 div PFa 3 get -2 div PFa 2 get PFa 3 get Rec
  TransparentPatterns {} {gsave 1 setgray fill grestore} ifelse
  clip
  currentlinewidth 0.5 mul setlinewidth
  /PFs PFa 2 get dup mul PFa 3 get dup mul add sqrt def
  0 0 M PFa 5 get rotate PFs -2 div dup translate
  0 1 PFs PFa 4 get div 1 add floor cvi
	{PFa 4 get mul 0 M 0 PFs V} for
  0 PFa 6 get ne {
	0 1 PFs PFa 4 get div 1 add floor cvi
	{PFa 4 get mul 0 2 1 roll M PFs 0 V} for
 } if
  stroke grestore} def
%
/languagelevel where
 {pop languagelevel} {1} ifelse
dup 2 lt
	{/InterpretLevel1 true def
	 /InterpretLevel3 false def}
	{/InterpretLevel1 Level1 def
	 2 gt
	    {/InterpretLevel3 Level3 def}
	    {/InterpretLevel3 false def}
	 ifelse }
 ifelse
%
% PostScript level 2 pattern fill definitions
%
/Level2PatternFill {
/Tile8x8 {/PaintType 2 /PatternType 1 /TilingType 1 /BBox [0 0 8 8] /XStep 8 /YStep 8}
	bind def
/KeepColor {currentrgbcolor [/Pattern /DeviceRGB] setcolorspace} bind def
<< Tile8x8
 /PaintProc {0.5 setlinewidth pop 0 0 M 8 8 L 0 8 M 8 0 L stroke} 
>> matrix makepattern
/Pat1 exch def
<< Tile8x8
 /PaintProc {0.5 setlinewidth pop 0 0 M 8 8 L 0 8 M 8 0 L stroke
	0 4 M 4 8 L 8 4 L 4 0 L 0 4 L stroke}
>> matrix makepattern
/Pat2 exch def
<< Tile8x8
 /PaintProc {0.5 setlinewidth pop 0 0 M 0 8 L
	8 8 L 8 0 L 0 0 L fill}
>> matrix makepattern
/Pat3 exch def
<< Tile8x8
 /PaintProc {0.5 setlinewidth pop -4 8 M 8 -4 L
	0 12 M 12 0 L stroke}
>> matrix makepattern
/Pat4 exch def
<< Tile8x8
 /PaintProc {0.5 setlinewidth pop -4 0 M 8 12 L
	0 -4 M 12 8 L stroke}
>> matrix makepattern
/Pat5 exch def
<< Tile8x8
 /PaintProc {0.5 setlinewidth pop -2 8 M 4 -4 L
	0 12 M 8 -4 L 4 12 M 10 0 L stroke}
>> matrix makepattern
/Pat6 exch def
<< Tile8x8
 /PaintProc {0.5 setlinewidth pop -2 0 M 4 12 L
	0 -4 M 8 12 L 4 -4 M 10 8 L stroke}
>> matrix makepattern
/Pat7 exch def
<< Tile8x8
 /PaintProc {0.5 setlinewidth pop 8 -2 M -4 4 L
	12 0 M -4 8 L 12 4 M 0 10 L stroke}
>> matrix makepattern
/Pat8 exch def
<< Tile8x8
 /PaintProc {0.5 setlinewidth pop 0 -2 M 12 4 L
	-4 0 M 12 8 L -4 4 M 8 10 L stroke}
>> matrix makepattern
/Pat9 exch def
/Pattern1 {PatternBgnd KeepColor Pat1 setpattern} bind def
/Pattern2 {PatternBgnd KeepColor Pat2 setpattern} bind def
/Pattern3 {PatternBgnd KeepColor Pat3 setpattern} bind def
/Pattern4 {PatternBgnd KeepColor Landscape {Pat5} {Pat4} ifelse setpattern} bind def
/Pattern5 {PatternBgnd KeepColor Landscape {Pat4} {Pat5} ifelse setpattern} bind def
/Pattern6 {PatternBgnd KeepColor Landscape {Pat9} {Pat6} ifelse setpattern} bind def
/Pattern7 {PatternBgnd KeepColor Landscape {Pat8} {Pat7} ifelse setpattern} bind def
} def
%
%
%End of PostScript Level 2 code
%
/PatternBgnd {
  TransparentPatterns {} {gsave 1 setgray fill grestore} ifelse
} def
%
% Substitute for Level 2 pattern fill codes with
% grayscale if Level 2 support is not selected.
%
/Level1PatternFill {
/Pattern1 {0.250 Density} bind def
/Pattern2 {0.500 Density} bind def
/Pattern3 {0.750 Density} bind def
/Pattern4 {0.125 Density} bind def
/Pattern5 {0.375 Density} bind def
/Pattern6 {0.625 Density} bind def
/Pattern7 {0.875 Density} bind def
} def
%
% Now test for support of Level 2 code
%
Level1 {Level1PatternFill} {Level2PatternFill} ifelse
%
/Symbol-Oblique /Symbol findfont [1 0 .167 1 0 0] makefont
dup length dict begin {1 index /FID eq {pop pop} {def} ifelse} forall
currentdict end definefont pop
%
/MFshow {
   { dup 5 get 3 ge
     { 5 get 3 eq {gsave} {grestore} ifelse }
     {dup dup 0 get findfont exch 1 get scalefont setfont
     [ currentpoint ] exch dup 2 get 0 exch R dup 5 get 2 ne {dup dup 6
     get exch 4 get {textshow} {stringwidth pop 0 R} ifelse }if dup 5 get 0 eq
     {dup 3 get {2 get neg 0 exch R pop} {pop aload pop M} ifelse} {dup 5
     get 1 eq {dup 2 get exch dup 3 get exch 6 get stringwidth pop -2 div
     dup 0 R} {dup 6 get stringwidth pop -2 div 0 R 6 get
     textshow 2 index {aload pop M neg 3 -1 roll neg R pop pop} {pop pop pop
     pop aload pop M} ifelse }ifelse }ifelse }
     ifelse }
   forall} def
/Gswidth {dup type /stringtype eq {stringwidth} {pop (n) stringwidth} ifelse} def
/MFwidth {0 exch { dup 5 get 3 ge { 5 get 3 eq { 0 } { pop } ifelse }
 {dup 3 get{dup dup 0 get findfont exch 1 get scalefont setfont
     6 get Gswidth pop add} {pop} ifelse} ifelse} forall} def
/MLshow { currentpoint stroke M
  0 exch R
  Blacktext {gsave 0 setgray MFshow grestore} {MFshow} ifelse } bind def
/MRshow { currentpoint stroke M
  exch dup MFwidth neg 3 -1 roll R
  Blacktext {gsave 0 setgray MFshow grestore} {MFshow} ifelse } bind def
/MCshow { currentpoint stroke M
  exch dup MFwidth -2 div 3 -1 roll R
  Blacktext {gsave 0 setgray MFshow grestore} {MFshow} ifelse } bind def
/XYsave    { [( ) 1 2 true false 3 ()] } bind def
/XYrestore { [( ) 1 2 true false 4 ()] } bind def
Level1 SuppressPDFMark or 
{} {
/SDict 10 dict def
systemdict /pdfmark known not {
  userdict /pdfmark systemdict /cleartomark get put
} if
SDict begin [
  /Title (TcpNewReno-download-rtt-75UE-90-240.eps)
  /Subject (gnuplot plot)
  /Creator (gnuplot 5.0 patchlevel 3)
  /Author (nat)
%  /Producer (gnuplot)
%  /Keywords ()
  /CreationDate (Thu Jun  2 10:39:42 2016)
  /DOCINFO pdfmark
end
} ifelse
%
% Support for boxed text - Ethan A Merritt May 2005
%
/InitTextBox { userdict /TBy2 3 -1 roll put userdict /TBx2 3 -1 roll put
           userdict /TBy1 3 -1 roll put userdict /TBx1 3 -1 roll put
	   /Boxing true def } def
/ExtendTextBox { Boxing
    { gsave dup false charpath pathbbox
      dup TBy2 gt {userdict /TBy2 3 -1 roll put} {pop} ifelse
      dup TBx2 gt {userdict /TBx2 3 -1 roll put} {pop} ifelse
      dup TBy1 lt {userdict /TBy1 3 -1 roll put} {pop} ifelse
      dup TBx1 lt {userdict /TBx1 3 -1 roll put} {pop} ifelse
      grestore } if } def
/PopTextBox { newpath TBx1 TBxmargin sub TBy1 TBymargin sub M
               TBx1 TBxmargin sub TBy2 TBymargin add L
	       TBx2 TBxmargin add TBy2 TBymargin add L
	       TBx2 TBxmargin add TBy1 TBymargin sub L closepath } def
/DrawTextBox { PopTextBox stroke /Boxing false def} def
/FillTextBox { gsave PopTextBox 1 1 1 setrgbcolor fill grestore /Boxing false def} def
0 0 0 0 InitTextBox
/TBxmargin 20 def
/TBymargin 20 def
/Boxing false def
/textshow { ExtendTextBox Gshow } def
%
% redundant definitions for compatibility with prologue.ps older than 5.0.2
/LTB {BL [] LCb DL} def
/LTb {PL [] LCb DL} def
end
%%EndProlog
%%Page: 1 1
gnudict begin
gsave
doclip
50 50 translate
0.050 0.050 scale
0 setgray
newpath
(Arial) findfont 200 scalefont setfont
BackgroundColor 0 lt 3 1 roll 0 lt exch 0 lt or or not {BackgroundColor C 1.000 0 0 14400.00 5040.00 BoxColFill} if
1.000 UL
LTb
0.00 0.00 0.00 C 0.500 UL
LTa
0.50 0.50 0.50 C 980 1000 M
12139 0 V
stroke
1.000 UL
LTb
0.00 0.00 0.00 C 980 1000 M
63 0 V
stroke
860 1000 M
[ [(Arial) 200.0 0.0 true true 0 ( 40)]
] -66.7 MRshow
1.000 UL
LTb
0.00 0.00 0.00 C 0.500 UL
LTa
0.50 0.50 0.50 C 980 1543 M
12139 0 V
stroke
1.000 UL
LTb
0.00 0.00 0.00 C 980 1543 M
63 0 V
stroke
860 1543 M
[ [(Arial) 200.0 0.0 true true 0 ( 60)]
] -66.7 MRshow
1.000 UL
LTb
0.00 0.00 0.00 C 0.500 UL
LTa
0.50 0.50 0.50 C 980 2085 M
12139 0 V
stroke
1.000 UL
LTb
0.00 0.00 0.00 C 980 2085 M
63 0 V
stroke
860 2085 M
[ [(Arial) 200.0 0.0 true true 0 ( 80)]
] -66.7 MRshow
1.000 UL
LTb
0.00 0.00 0.00 C 0.500 UL
LTa
0.50 0.50 0.50 C 980 2628 M
12139 0 V
stroke
1.000 UL
LTb
0.00 0.00 0.00 C 980 2628 M
63 0 V
stroke
860 2628 M
[ [(Arial) 200.0 0.0 true true 0 ( 100)]
] -66.7 MRshow
1.000 UL
LTb
0.00 0.00 0.00 C 0.500 UL
LTa
0.50 0.50 0.50 C 980 3171 M
12139 0 V
stroke
1.000 UL
LTb
0.00 0.00 0.00 C 980 3171 M
63 0 V
stroke
860 3171 M
[ [(Arial) 200.0 0.0 true true 0 ( 120)]
] -66.7 MRshow
1.000 UL
LTb
0.00 0.00 0.00 C 0.500 UL
LTa
0.50 0.50 0.50 C 980 3714 M
12139 0 V
stroke
1.000 UL
LTb
0.00 0.00 0.00 C 980 3714 M
63 0 V
stroke
860 3714 M
[ [(Arial) 200.0 0.0 true true 0 ( 140)]
] -66.7 MRshow
1.000 UL
LTb
0.00 0.00 0.00 C 0.500 UL
LTa
0.50 0.50 0.50 C 980 4256 M
12139 0 V
stroke
1.000 UL
LTb
0.00 0.00 0.00 C 980 4256 M
63 0 V
stroke
860 4256 M
[ [(Arial) 200.0 0.0 true true 0 ( 160)]
] -66.7 MRshow
1.000 UL
LTb
0.00 0.00 0.00 C 0.500 UL
LTa
0.50 0.50 0.50 C 980 4799 M
12139 0 V
stroke
1.000 UL
LTb
0.00 0.00 0.00 C 980 4799 M
63 0 V
stroke
860 4799 M
[ [(Arial) 200.0 0.0 true true 0 ( 180)]
] -66.7 MRshow
1.000 UL
LTb
0.00 0.00 0.00 C 0.500 UL
LTa
0.50 0.50 0.50 C 1359 1000 M
0 3799 V
stroke
1.000 UL
LTb
0.00 0.00 0.00 C 1359 1000 M
0 63 V
0 3736 R
0 -63 V
stroke
1359 800 M
[ [(Arial) 200.0 0.0 true true 0 ( 270)]
] -66.7 MCshow
1.000 UL
LTb
0.00 0.00 0.00 C 0.500 UL
LTa
0.50 0.50 0.50 C 2118 1000 M
0 3799 V
stroke
1.000 UL
LTb
0.00 0.00 0.00 C 2118 1000 M
0 63 V
0 3736 R
0 -63 V
stroke
2118 800 M
[ [(Arial) 200.0 0.0 true true 0 ( 300)]
] -66.7 MCshow
1.000 UL
LTb
0.00 0.00 0.00 C 0.500 UL
LTa
0.50 0.50 0.50 C 2877 1000 M
0 3799 V
stroke
1.000 UL
LTb
0.00 0.00 0.00 C 2877 1000 M
0 63 V
0 3736 R
0 -63 V
stroke
2877 800 M
[ [(Arial) 200.0 0.0 true true 0 ( 330)]
] -66.7 MCshow
1.000 UL
LTb
0.00 0.00 0.00 C 0.500 UL
LTa
0.50 0.50 0.50 C 3635 1000 M
0 3799 V
stroke
1.000 UL
LTb
0.00 0.00 0.00 C 3635 1000 M
0 63 V
0 3736 R
0 -63 V
stroke
3635 800 M
[ [(Arial) 200.0 0.0 true true 0 ( 360)]
] -66.7 MCshow
1.000 UL
LTb
0.00 0.00 0.00 C 0.500 UL
LTa
0.50 0.50 0.50 C 4394 1000 M
0 3799 V
stroke
1.000 UL
LTb
0.00 0.00 0.00 C 4394 1000 M
0 63 V
0 3736 R
0 -63 V
stroke
4394 800 M
[ [(Arial) 200.0 0.0 true true 0 ( 390)]
] -66.7 MCshow
1.000 UL
LTb
0.00 0.00 0.00 C 0.500 UL
LTa
0.50 0.50 0.50 C 5153 1000 M
0 3799 V
stroke
1.000 UL
LTb
0.00 0.00 0.00 C 5153 1000 M
0 63 V
0 3736 R
0 -63 V
stroke
5153 800 M
[ [(Arial) 200.0 0.0 true true 0 ( 420)]
] -66.7 MCshow
1.000 UL
LTb
0.00 0.00 0.00 C 0.500 UL
LTa
0.50 0.50 0.50 C 5911 1000 M
0 3799 V
stroke
1.000 UL
LTb
0.00 0.00 0.00 C 5911 1000 M
0 63 V
0 3736 R
0 -63 V
stroke
5911 800 M
[ [(Arial) 200.0 0.0 true true 0 ( 450)]
] -66.7 MCshow
1.000 UL
LTb
0.00 0.00 0.00 C 0.500 UL
LTa
0.50 0.50 0.50 C 6670 1000 M
0 3799 V
stroke
1.000 UL
LTb
0.00 0.00 0.00 C 6670 1000 M
0 63 V
0 3736 R
0 -63 V
stroke
6670 800 M
[ [(Arial) 200.0 0.0 true true 0 ( 480)]
] -66.7 MCshow
1.000 UL
LTb
0.00 0.00 0.00 C 0.500 UL
LTa
0.50 0.50 0.50 C 7429 1000 M
0 3799 V
stroke
1.000 UL
LTb
0.00 0.00 0.00 C 7429 1000 M
0 63 V
0 3736 R
0 -63 V
stroke
7429 800 M
[ [(Arial) 200.0 0.0 true true 0 ( 510)]
] -66.7 MCshow
1.000 UL
LTb
0.00 0.00 0.00 C 0.500 UL
LTa
0.50 0.50 0.50 C 8188 1000 M
0 3799 V
stroke
1.000 UL
LTb
0.00 0.00 0.00 C 8188 1000 M
0 63 V
0 3736 R
0 -63 V
stroke
8188 800 M
[ [(Arial) 200.0 0.0 true true 0 ( 540)]
] -66.7 MCshow
1.000 UL
LTb
0.00 0.00 0.00 C 0.500 UL
LTa
0.50 0.50 0.50 C 8946 1000 M
0 3799 V
stroke
1.000 UL
LTb
0.00 0.00 0.00 C 8946 1000 M
0 63 V
0 3736 R
0 -63 V
stroke
8946 800 M
[ [(Arial) 200.0 0.0 true true 0 ( 570)]
] -66.7 MCshow
1.000 UL
LTb
0.00 0.00 0.00 C 0.500 UL
LTa
0.50 0.50 0.50 C 9705 1000 M
0 3799 V
stroke
1.000 UL
LTb
0.00 0.00 0.00 C 9705 1000 M
0 63 V
0 3736 R
0 -63 V
stroke
9705 800 M
[ [(Arial) 200.0 0.0 true true 0 ( 600)]
] -66.7 MCshow
1.000 UL
LTb
0.00 0.00 0.00 C 0.500 UL
LTa
0.50 0.50 0.50 C 10464 1000 M
0 3799 V
stroke
1.000 UL
LTb
0.00 0.00 0.00 C 10464 1000 M
0 63 V
0 3736 R
0 -63 V
stroke
10464 800 M
[ [(Arial) 200.0 0.0 true true 0 ( 630)]
] -66.7 MCshow
1.000 UL
LTb
0.00 0.00 0.00 C 0.500 UL
LTa
0.50 0.50 0.50 C 11222 1000 M
0 3799 V
stroke
1.000 UL
LTb
0.00 0.00 0.00 C 11222 1000 M
0 63 V
0 3736 R
0 -63 V
stroke
11222 800 M
[ [(Arial) 200.0 0.0 true true 0 ( 660)]
] -66.7 MCshow
1.000 UL
LTb
0.00 0.00 0.00 C 0.500 UL
LTa
0.50 0.50 0.50 C 11981 1000 M
0 3799 V
stroke
1.000 UL
LTb
0.00 0.00 0.00 C 11981 1000 M
0 63 V
0 3736 R
0 -63 V
stroke
11981 800 M
[ [(Arial) 200.0 0.0 true true 0 ( 690)]
] -66.7 MCshow
1.000 UL
LTb
0.00 0.00 0.00 C 0.500 UL
LTa
0.50 0.50 0.50 C 12740 1000 M
0 3799 V
stroke
1.000 UL
LTb
0.00 0.00 0.00 C 12740 1000 M
0 63 V
0 3736 R
0 -63 V
stroke
12740 800 M
[ [(Arial) 200.0 0.0 true true 0 ( 720)]
] -66.7 MCshow
1.000 UL
LTb
0.00 0.00 0.00 C 13119 1000 M
-63 0 V
stroke
13239 1000 M
[ [(Arial) 200.0 0.0 true true 0 ( 0)]
] -66.7 MLshow
1.000 UL
LTb
0.00 0.00 0.00 C 13119 1760 M
-63 0 V
stroke
13239 1760 M
[ [(Arial) 200.0 0.0 true true 0 ( 20)]
] -66.7 MLshow
1.000 UL
LTb
0.00 0.00 0.00 C 13119 2520 M
-63 0 V
stroke
13239 2520 M
[ [(Arial) 200.0 0.0 true true 0 ( 40)]
] -66.7 MLshow
1.000 UL
LTb
0.00 0.00 0.00 C 13119 3279 M
-63 0 V
stroke
13239 3279 M
[ [(Arial) 200.0 0.0 true true 0 ( 60)]
] -66.7 MLshow
1.000 UL
LTb
0.00 0.00 0.00 C 13119 4039 M
-63 0 V
stroke
13239 4039 M
[ [(Arial) 200.0 0.0 true true 0 ( 80)]
] -66.7 MLshow
1.000 UL
LTb
0.00 0.00 0.00 C 13119 4799 M
-63 0 V
stroke
13239 4799 M
[ [(Arial) 200.0 0.0 true true 0 ( 100)]
] -66.7 MLshow
1.000 UL
LTb
0.00 0.00 0.00 C 1.000 UL
LTB
0.00 0.00 0.00 C 980 4799 M
0 -3799 V
12139 0 V
0 3799 R
980 4799 M
1.000 UP
stroke
LTb
0.00 0.00 0.00 C LCb setrgbcolor
160 2899 M
currentpoint gsave translate -270 rotate 0 0 moveto
[ [(Arial) 200.0 0.0 true true 0 (RTT \(ms\))]
] -66.7 MCshow
grestore
LTb
LCb setrgbcolor
13938 2899 M
currentpoint gsave translate -270 rotate 0 0 moveto
[ [(Arial) 200.0 0.0 true true 0 (TCP delivery ratio [%])]
] -66.7 MCshow
grestore
LTb
LCb setrgbcolor
7049 500 M
[ [(Arial) 200.0 0.0 true true 0 (Local backhaul traffic traffic \(Mb/s\))]
] -66.7 MCshow
LTb
% Begin plot #1
1.000 UL
LTb
0.60 0.60 0.00 C LCb setrgbcolor
4714 333 M
[ [(Arial) 180.0 0.0 true true 0 (RTT      :   olsr)]
] -60.0 MRshow
1.000 UL
LTb
0.60 0.60 0.00 C 4822 288 333 90 80 -45 0 PatternFill
4822 288 N
333 0 V
0 90 V
-333 0 V
0 -90 V
Z stroke
1.000 UL
LTb
0.60 0.60 0.00 C 1094 1240 152 403 80 -45 0 PatternFill
1170 1187 M
0 53 V
0 403 R
0 1002 V
stroke
1094 1240 N
152 0 V
0 403 V
-152 0 V
0 -403 V
Z stroke
1094 2645 M
152 0 V
1094 1187 M
152 0 V
stroke
1852 1240 152 394 80 -45 0 PatternFill
1928 1185 M
0 55 V
0 394 R
0 1018 V
stroke
1852 1240 N
152 0 V
0 394 V
-152 0 V
0 -394 V
Z stroke
1852 2652 M
152 0 V
1852 1185 M
152 0 V
stroke
2611 1242 152 398 80 -45 0 PatternFill
2687 1186 M
0 56 V
0 398 R
0 1014 V
stroke
2611 1242 N
152 0 V
0 398 V
-152 0 V
0 -398 V
Z stroke
2611 2654 M
152 0 V
2611 1186 M
152 0 V
stroke
3370 1248 152 473 80 -45 0 PatternFill
3446 1190 M
0 58 V
0 473 R
0 1055 V
stroke
3370 1248 N
152 0 V
0 473 V
-152 0 V
0 -473 V
Z stroke
3370 2776 M
152 0 V
3370 1190 M
152 0 V
stroke
4129 1247 152 386 80 -45 0 PatternFill
4205 1192 M
0 55 V
0 386 R
0 1031 V
stroke
4129 1247 N
152 0 V
0 386 V
-152 0 V
0 -386 V
Z stroke
4129 2664 M
152 0 V
4129 1192 M
152 0 V
stroke
4887 1239 152 369 80 -45 0 PatternFill
4963 1182 M
0 57 V
0 369 R
0 993 V
stroke
4887 1239 N
152 0 V
0 369 V
-152 0 V
0 -369 V
Z stroke
4887 2601 M
152 0 V
4887 1182 M
152 0 V
stroke
5646 1243 152 364 80 -45 0 PatternFill
5722 1187 M
0 56 V
0 364 R
0 1007 V
stroke
5646 1243 N
152 0 V
0 364 V
-152 0 V
0 -364 V
Z stroke
5646 2614 M
152 0 V
5646 1187 M
152 0 V
stroke
6405 1244 152 412 80 -45 0 PatternFill
6481 1189 M
0 55 V
0 412 R
0 1081 V
stroke
6405 1244 N
152 0 V
0 412 V
-152 0 V
0 -412 V
Z stroke
6405 2737 M
152 0 V
6405 1189 M
152 0 V
stroke
7163 1244 152 408 80 -45 0 PatternFill
7239 1185 M
0 59 V
0 408 R
0 1091 V
stroke
7163 1244 N
152 0 V
0 408 V
-152 0 V
0 -408 V
Z stroke
7163 2743 M
152 0 V
7163 1185 M
152 0 V
stroke
7922 1244 152 373 80 -45 0 PatternFill
7998 1188 M
0 56 V
0 373 R
0 1058 V
stroke
7922 1244 N
152 0 V
0 373 V
-152 0 V
0 -373 V
Z stroke
7922 2675 M
152 0 V
7922 1188 M
152 0 V
stroke
8681 1241 152 390 80 -45 0 PatternFill
8757 1187 M
0 54 V
0 390 R
0 987 V
stroke
8681 1241 N
152 0 V
0 390 V
-152 0 V
0 -390 V
Z stroke
8681 2618 M
152 0 V
8681 1187 M
152 0 V
stroke
9439 1244 152 408 80 -45 0 PatternFill
9515 1189 M
0 55 V
0 408 R
0 1022 V
stroke
9439 1244 N
152 0 V
0 408 V
-152 0 V
0 -408 V
Z stroke
9439 2674 M
152 0 V
9439 1189 M
152 0 V
stroke
10198 1245 152 363 80 -45 0 PatternFill
10274 1186 M
0 59 V
0 363 R
0 1038 V
stroke
10198 1245 N
152 0 V
0 363 V
-152 0 V
0 -363 V
Z stroke
10198 2646 M
152 0 V
10198 1186 M
152 0 V
stroke
10957 1249 152 353 80 -45 0 PatternFill
11033 1187 M
0 62 V
0 353 R
0 1052 V
stroke
10957 1249 N
152 0 V
0 353 V
-152 0 V
0 -353 V
Z stroke
10957 2654 M
152 0 V
10957 1187 M
152 0 V
stroke
11715 1243 152 386 80 -45 0 PatternFill
11791 1184 M
0 59 V
0 386 R
0 1038 V
stroke
11715 1243 N
152 0 V
0 386 V
-152 0 V
0 -386 V
Z stroke
11715 2667 M
152 0 V
11715 1184 M
152 0 V
stroke
12474 1242 152 367 80 -45 0 PatternFill
12550 1185 M
0 57 V
0 367 R
0 932 V
stroke
12474 1242 N
152 0 V
0 367 V
-152 0 V
0 -367 V
Z stroke
12474 2541 M
152 0 V
12474 1185 M
152 0 V
% End plot #1
% Begin plot #2
stroke
LTb
LCb setrgbcolor

 /TransparentPatterns true def
1094 1531 152 0 40 30 0 PatternFill
1170 1531 M
stroke
1094 1531 N
152 0 V
-152 0 V
Z stroke
1094 1531 M
152 0 V
-152 0 R
152 0 V
stroke

 /TransparentPatterns true def
1852 1524 152 0 40 30 0 PatternFill
1928 1524 M
stroke
1852 1524 N
152 0 V
-152 0 V
Z stroke
1852 1524 M
152 0 V
-152 0 R
152 0 V
stroke

 /TransparentPatterns true def
2611 1528 152 0 40 30 0 PatternFill
2687 1528 M
stroke
2611 1528 N
152 0 V
-152 0 V
Z stroke
2611 1528 M
152 0 V
-152 0 R
152 0 V
stroke

 /TransparentPatterns true def
3370 1566 152 0 40 30 0 PatternFill
3446 1566 M
stroke
3370 1566 N
152 0 V
-152 0 V
Z stroke
3370 1566 M
152 0 V
-152 0 R
152 0 V
stroke

 /TransparentPatterns true def
4129 1534 152 0 40 30 0 PatternFill
4205 1534 M
stroke
4129 1534 N
152 0 V
-152 0 V
Z stroke
4129 1534 M
152 0 V
-152 0 R
152 0 V
stroke

 /TransparentPatterns true def
4887 1516 152 0 40 30 0 PatternFill
4963 1516 M
stroke
4887 1516 N
152 0 V
-152 0 V
Z stroke
4887 1516 M
152 0 V
-152 0 R
152 0 V
stroke

 /TransparentPatterns true def
5646 1520 152 0 40 30 0 PatternFill
5722 1520 M
stroke
5646 1520 N
152 0 V
-152 0 V
Z stroke
5646 1520 M
152 0 V
-152 0 R
152 0 V
stroke

 /TransparentPatterns true def
6405 1543 152 0 40 30 0 PatternFill
6481 1543 M
stroke
6405 1543 N
152 0 V
-152 0 V
Z stroke
6405 1543 M
152 0 V
-152 0 R
152 0 V
stroke

 /TransparentPatterns true def
7163 1541 152 0 40 30 0 PatternFill
7239 1541 M
stroke
7163 1541 N
152 0 V
-152 0 V
Z stroke
7163 1541 M
152 0 V
-152 0 R
152 0 V
stroke

 /TransparentPatterns true def
7922 1530 152 0 40 30 0 PatternFill
7998 1530 M
stroke
7922 1530 N
152 0 V
-152 0 V
Z stroke
7922 1530 M
152 0 V
-152 0 R
152 0 V
stroke

 /TransparentPatterns true def
8681 1521 152 0 40 30 0 PatternFill
8757 1521 M
stroke
8681 1521 N
152 0 V
-152 0 V
Z stroke
8681 1521 M
152 0 V
-152 0 R
152 0 V
stroke

 /TransparentPatterns true def
9439 1540 152 0 40 30 0 PatternFill
9515 1540 M
stroke
9439 1540 N
152 0 V
-152 0 V
Z stroke
9439 1540 M
152 0 V
-152 0 R
152 0 V
stroke

 /TransparentPatterns true def
10198 1520 152 0 40 30 0 PatternFill
10274 1520 M
stroke
10198 1520 N
152 0 V
-152 0 V
Z stroke
10198 1520 M
152 0 V
-152 0 R
152 0 V
stroke

 /TransparentPatterns true def
10957 1524 152 0 40 30 0 PatternFill
11033 1524 M
stroke
10957 1524 N
152 0 V
-152 0 V
Z stroke
10957 1524 M
152 0 V
-152 0 R
152 0 V
stroke

 /TransparentPatterns true def
11715 1524 152 0 40 30 0 PatternFill
11791 1524 M
stroke
11715 1524 N
152 0 V
-152 0 V
Z stroke
11715 1524 M
152 0 V
-152 0 R
152 0 V
stroke

 /TransparentPatterns true def
12474 1506 152 0 40 30 0 PatternFill
12550 1506 M
stroke
12474 1506 N
152 0 V
-152 0 V
Z stroke
12474 1506 M
152 0 V
-152 0 R
152 0 V
% End plot #2
% Begin plot #3
2.000 UP
stroke
LTa
0.60 0.60 0.00 C LCb setrgbcolor
4714 153 M
[ [(Arial) 180.0 0.0 true true 0 (app. received bytes :         )]
] -60.0 MRshow
2.000 UP
1.000 UL
LTa
0.60 0.60 0.00 C 4822 153 M
333 0 V
980 4750 M
190 0 V
758 0 V
759 0 V
759 0 V
758 0 V
759 0 V
759 0 V
758 0 V
759 0 V
759 0 V
759 0 V
758 0 V
759 0 V
759 0 V
758 0 V
759 0 V
569 0 V
1170 4750 Box
1928 4750 Box
2687 4750 Box
3446 4750 Box
4204 4750 Box
4963 4750 Box
5722 4750 Box
6480 4750 Box
7239 4750 Box
7998 4750 Box
8757 4750 Box
9515 4750 Box
10274 4750 Box
11033 4750 Box
11791 4750 Box
12550 4750 Box
4988 153 Box
% End plot #3
% Begin plot #4
1.000 UL
LTb
0.00 0.00 0.63 C LCb setrgbcolor
8287 333 M
[ [(Arial) 180.0 0.0 true true 0 (per-packet)]
] -60.0 MRshow
1.000 UL
LTb
0.00 0.00 0.63 C 8395 288 333 90 80 45 0 PatternFill
8395 288 N
333 0 V
0 90 V
-333 0 V
0 -90 V
Z stroke
1.000 UL
LTb
0.00 0.00 0.63 C 1283 1254 152 717 80 45 0 PatternFill
1359 1189 M
0 65 V
0 717 R
0 1181 V
stroke
1283 1254 N
152 0 V
0 717 V
-152 0 V
0 -717 V
Z stroke
1283 3152 M
152 0 V
1283 1189 M
152 0 V
stroke
2042 1266 152 620 80 45 0 PatternFill
2118 1190 M
0 76 V
0 620 R
0 1218 V
stroke
2042 1266 N
152 0 V
0 620 V
-152 0 V
0 -620 V
Z stroke
2042 3104 M
152 0 V
2042 1190 M
152 0 V
stroke
2801 1260 152 716 80 45 0 PatternFill
2877 1191 M
0 69 V
0 716 R
0 1145 V
stroke
2801 1260 N
152 0 V
0 716 V
-152 0 V
0 -716 V
Z stroke
2801 3121 M
152 0 V
2801 1191 M
152 0 V
stroke
3560 1259 152 709 80 45 0 PatternFill
3636 1192 M
0 67 V
0 709 R
0 1177 V
stroke
3560 1259 N
152 0 V
0 709 V
-152 0 V
0 -709 V
Z stroke
3560 3145 M
152 0 V
3560 1192 M
152 0 V
stroke
4318 1275 152 634 80 45 0 PatternFill
4394 1193 M
0 82 V
0 634 R
0 1093 V
stroke
4318 1275 N
152 0 V
0 634 V
-152 0 V
0 -634 V
Z stroke
4318 3002 M
152 0 V
4318 1193 M
152 0 V
stroke
5077 1257 152 717 80 45 0 PatternFill
5153 1191 M
0 66 V
0 717 R
0 1061 V
stroke
5077 1257 N
152 0 V
0 717 V
-152 0 V
0 -717 V
Z stroke
5077 3035 M
152 0 V
5077 1191 M
152 0 V
stroke
5836 1256 152 613 80 45 0 PatternFill
5912 1187 M
0 69 V
0 613 R
0 1037 V
stroke
5836 1256 N
152 0 V
0 613 V
-152 0 V
0 -613 V
Z stroke
5836 2906 M
152 0 V
5836 1187 M
152 0 V
stroke
6594 1251 152 610 80 45 0 PatternFill
6670 1189 M
0 62 V
0 610 R
0 1026 V
stroke
6594 1251 N
152 0 V
0 610 V
-152 0 V
0 -610 V
Z stroke
6594 2887 M
152 0 V
6594 1189 M
152 0 V
stroke
7353 1265 152 638 80 45 0 PatternFill
7429 1195 M
0 70 V
0 638 R
0 1056 V
stroke
7353 1265 N
152 0 V
0 638 V
-152 0 V
0 -638 V
Z stroke
7353 2959 M
152 0 V
7353 1195 M
152 0 V
stroke
8112 1261 152 702 80 45 0 PatternFill
8188 1195 M
0 66 V
0 702 R
0 1073 V
stroke
8112 1261 N
152 0 V
0 702 V
-152 0 V
0 -702 V
Z stroke
8112 3036 M
152 0 V
8112 1195 M
152 0 V
stroke
8870 1258 152 657 80 45 0 PatternFill
8946 1189 M
0 69 V
0 657 R
0 893 V
stroke
8870 1258 N
152 0 V
0 657 V
-152 0 V
0 -657 V
Z stroke
8870 2808 M
152 0 V
8870 1189 M
152 0 V
stroke
9629 1261 152 603 80 45 0 PatternFill
9705 1195 M
0 66 V
0 603 R
0 1011 V
stroke
9629 1261 N
152 0 V
0 603 V
-152 0 V
0 -603 V
Z stroke
9629 2875 M
152 0 V
9629 1195 M
152 0 V
stroke
10388 1253 152 649 80 45 0 PatternFill
10464 1190 M
0 63 V
0 649 R
0 1053 V
stroke
10388 1253 N
152 0 V
0 649 V
-152 0 V
0 -649 V
Z stroke
10388 2955 M
152 0 V
10388 1190 M
152 0 V
stroke
11146 1257 152 666 80 45 0 PatternFill
11222 1190 M
0 67 V
0 666 R
0 1090 V
stroke
11146 1257 N
152 0 V
0 666 V
-152 0 V
0 -666 V
Z stroke
11146 3013 M
152 0 V
11146 1190 M
152 0 V
stroke
11905 1272 152 682 80 45 0 PatternFill
11981 1197 M
0 75 V
0 682 R
0 963 V
stroke
11905 1272 N
152 0 V
0 682 V
-152 0 V
0 -682 V
Z stroke
11905 2917 M
152 0 V
11905 1197 M
152 0 V
stroke
12664 1259 152 594 80 45 0 PatternFill
12740 1193 M
0 66 V
0 594 R
0 1091 V
stroke
12664 1259 N
152 0 V
0 594 V
-152 0 V
0 -594 V
Z stroke
12664 2944 M
152 0 V
12664 1193 M
152 0 V
% End plot #4
% Begin plot #5
stroke
LTb
LCb setrgbcolor

 /TransparentPatterns true def
1283 1670 152 0 80 -45 0 PatternFill
1359 1670 M
stroke
1283 1670 N
152 0 V
-152 0 V
Z stroke
1283 1670 M
152 0 V
-152 0 R
152 0 V
stroke

 /TransparentPatterns true def
2042 1646 152 0 80 -45 0 PatternFill
2118 1646 M
stroke
2042 1646 N
152 0 V
-152 0 V
Z stroke
2042 1646 M
152 0 V
-152 0 R
152 0 V
stroke

 /TransparentPatterns true def
2801 1670 152 0 80 -45 0 PatternFill
2877 1670 M
stroke
2801 1670 N
152 0 V
-152 0 V
Z stroke
2801 1670 M
152 0 V
-152 0 R
152 0 V
stroke

 /TransparentPatterns true def
3560 1679 152 0 80 -45 0 PatternFill
3636 1679 M
stroke
3560 1679 N
152 0 V
-152 0 V
Z stroke
3560 1679 M
152 0 V
-152 0 R
152 0 V
stroke

 /TransparentPatterns true def
4318 1654 152 0 80 -45 0 PatternFill
4394 1654 M
stroke
4318 1654 N
152 0 V
-152 0 V
Z stroke
4318 1654 M
152 0 V
-152 0 R
152 0 V
stroke

 /TransparentPatterns true def
5077 1649 152 0 80 -45 0 PatternFill
5153 1649 M
stroke
5077 1649 N
152 0 V
-152 0 V
Z stroke
5077 1649 M
152 0 V
-152 0 R
152 0 V
stroke

 /TransparentPatterns true def
5836 1624 152 0 80 -45 0 PatternFill
5912 1624 M
stroke
5836 1624 N
152 0 V
-152 0 V
Z stroke
5836 1624 M
152 0 V
-152 0 R
152 0 V
stroke

 /TransparentPatterns true def
6594 1596 152 0 80 -45 0 PatternFill
6670 1596 M
stroke
6594 1596 N
152 0 V
-152 0 V
Z stroke
6594 1596 M
152 0 V
-152 0 R
152 0 V
stroke

 /TransparentPatterns true def
7353 1655 152 0 80 -45 0 PatternFill
7429 1655 M
stroke
7353 1655 N
152 0 V
-152 0 V
Z stroke
7353 1655 M
152 0 V
-152 0 R
152 0 V
stroke

 /TransparentPatterns true def
8112 1656 152 0 80 -45 0 PatternFill
8188 1656 M
stroke
8112 1656 N
152 0 V
-152 0 V
Z stroke
8112 1656 M
152 0 V
-152 0 R
152 0 V
stroke

 /TransparentPatterns true def
8870 1616 152 0 80 -45 0 PatternFill
8946 1616 M
stroke
8870 1616 N
152 0 V
-152 0 V
Z stroke
8870 1616 M
152 0 V
-152 0 R
152 0 V
stroke

 /TransparentPatterns true def
9629 1610 152 0 80 -45 0 PatternFill
9705 1610 M
stroke
9629 1610 N
152 0 V
-152 0 V
Z stroke
9629 1610 M
152 0 V
-152 0 R
152 0 V
stroke

 /TransparentPatterns true def
10388 1626 152 0 80 -45 0 PatternFill
10464 1626 M
stroke
10388 1626 N
152 0 V
-152 0 V
Z stroke
10388 1626 M
152 0 V
-152 0 R
152 0 V
stroke

 /TransparentPatterns true def
11146 1645 152 0 80 -45 0 PatternFill
11222 1645 M
stroke
11146 1645 N
152 0 V
-152 0 V
Z stroke
11146 1645 M
152 0 V
-152 0 R
152 0 V
stroke

 /TransparentPatterns true def
11905 1660 152 0 80 -45 0 PatternFill
11981 1660 M
stroke
11905 1660 N
152 0 V
-152 0 V
Z stroke
11905 1660 M
152 0 V
-152 0 R
152 0 V
stroke

 /TransparentPatterns true def
12664 1613 152 0 80 -45 0 PatternFill
12740 1613 M
stroke
12664 1613 N
152 0 V
-152 0 V
Z stroke
12664 1613 M
152 0 V
-152 0 R
152 0 V
% End plot #5
% Begin plot #6
2.000 UP
stroke
LTa
0.00 0.00 0.63 C LCb setrgbcolor
8287 153 M
[ [(Arial) 180.0 0.0 true true 0 ( )]
] -60.0 MRshow
2.000 UP
1.000 UL
LTa
0.00 0.00 0.63 C 8395 153 M
333 0 V
980 4748 M
379 2 V
759 0 V
759 -4 V
758 4 V
759 0 V
759 0 V
758 0 V
759 -4 V
759 4 V
759 0 V
758 0 V
759 0 V
759 0 V
758 0 V
759 0 V
759 0 V
379 0 V
1359 4750 Circle
2118 4750 Circle
2877 4746 Circle
3635 4750 Circle
4394 4750 Circle
5153 4750 Circle
5911 4750 Circle
6670 4746 Circle
7429 4750 Circle
8188 4750 Circle
8946 4750 Circle
9705 4750 Circle
10464 4750 Circle
11222 4750 Circle
11981 4750 Circle
12740 4750 Circle
8561 153 Circle
% End plot #6
% Begin plot #7
1.000 UL
LTb
0.00 0.38 0.82 C LCb setrgbcolor
11860 333 M
[ [(Arial) 180.0 0.0 true true 0 (per-flow)]
] -60.0 MRshow
1.000 UL
LTb
0.00 0.38 0.82 C 11968 288 333 90 40 30 0 PatternFill
11968 288 N
333 0 V
0 90 V
-333 0 V
0 -90 V
Z stroke
1.000 UL
LTb
0.00 0.38 0.82 C 1473 1284 152 1273 40 30 0 PatternFill
1549 1200 M
0 84 V
0 1273 R
0 2038 V
stroke
1473 1284 N
152 0 V
0 1273 V
-152 0 V
0 -1273 V
Z stroke
1473 4595 M
152 0 V
1473 1200 M
152 0 V
stroke
2232 1270 152 1041 40 30 0 PatternFill
2308 1200 M
0 70 V
0 1041 R
0 1642 V
stroke
2232 1270 N
152 0 V
0 1041 V
-152 0 V
0 -1041 V
Z stroke
2232 3953 M
152 0 V
2232 1200 M
152 0 V
stroke
2991 1304 152 1257 40 30 0 PatternFill
3067 1219 M
0 85 V
0 1257 R
0 1834 V
stroke
2991 1304 N
152 0 V
0 1257 V
-152 0 V
0 -1257 V
Z stroke
2991 4395 M
152 0 V
2991 1219 M
152 0 V
stroke
3749 1262 152 1062 40 30 0 PatternFill
3825 1197 M
0 65 V
0 1062 R
0 1917 V
stroke
3749 1262 N
152 0 V
0 1062 V
-152 0 V
0 -1062 V
Z stroke
3749 4241 M
152 0 V
3749 1197 M
152 0 V
stroke
4508 1300 152 1054 40 30 0 PatternFill
4584 1209 M
0 91 V
0 1054 R
0 1799 V
stroke
4508 1300 N
152 0 V
0 1054 V
-152 0 V
0 -1054 V
Z stroke
4508 4153 M
152 0 V
4508 1209 M
152 0 V
stroke
5267 1296 152 1218 40 30 0 PatternFill
5343 1210 M
0 86 V
0 1218 R
0 2268 V
stroke
5267 1296 N
152 0 V
0 1218 V
-152 0 V
0 -1218 V
Z stroke
5267 4782 M
152 0 V
5267 1210 M
152 0 V
stroke
6025 1289 152 1228 40 30 0 PatternFill
6101 1207 M
0 82 V
0 1228 R
0 1848 V
stroke
6025 1289 N
152 0 V
0 1228 V
-152 0 V
0 -1228 V
Z stroke
6025 4365 M
152 0 V
6025 1207 M
152 0 V
stroke
6784 1282 152 1230 40 30 0 PatternFill
6860 1204 M
0 78 V
0 1230 R
0 1811 V
stroke
6784 1282 N
152 0 V
0 1230 V
-152 0 V
0 -1230 V
Z stroke
6784 4323 M
152 0 V
6784 1204 M
152 0 V
stroke
7543 1307 152 1070 40 30 0 PatternFill
7619 1212 M
0 95 V
0 1070 R
0 1883 V
stroke
7543 1307 N
152 0 V
0 1070 V
-152 0 V
0 -1070 V
Z stroke
7543 4260 M
152 0 V
7543 1212 M
152 0 V
stroke
8301 1259 152 927 40 30 0 PatternFill
8377 1189 M
0 70 V
0 927 R
0 1605 V
stroke
8301 1259 N
152 0 V
0 927 V
-152 0 V
0 -927 V
Z stroke
8301 3791 M
152 0 V
8301 1189 M
152 0 V
stroke
9060 1304 152 1373 40 30 0 PatternFill
9136 1217 M
0 87 V
0 1373 R
0 1728 V
stroke
9060 1304 N
152 0 V
0 1373 V
-152 0 V
0 -1373 V
Z stroke
9060 4405 M
152 0 V
9060 1217 M
152 0 V
stroke
9819 1292 152 1191 40 30 0 PatternFill
9895 1204 M
0 88 V
0 1191 R
0 1978 V
stroke
9819 1292 N
152 0 V
0 1191 V
-152 0 V
0 -1191 V
Z stroke
9819 4461 M
152 0 V
9819 1204 M
152 0 V
stroke
10577 1295 152 1121 40 30 0 PatternFill
10653 1208 M
0 87 V
0 1121 R
0 1844 V
stroke
10577 1295 N
152 0 V
0 1121 V
-152 0 V
0 -1121 V
Z stroke
10577 4260 M
152 0 V
10577 1208 M
152 0 V
stroke
11336 1266 152 1144 40 30 0 PatternFill
11412 1190 M
0 76 V
0 1144 R
0 1850 V
stroke
11336 1266 N
152 0 V
0 1144 V
-152 0 V
0 -1144 V
Z stroke
11336 4260 M
152 0 V
11336 1190 M
152 0 V
stroke
12095 1290 152 1038 40 30 0 PatternFill
12171 1206 M
0 84 V
0 1038 R
0 1681 V
stroke
12095 1290 N
152 0 V
0 1038 V
-152 0 V
0 -1038 V
Z stroke
12095 4009 M
152 0 V
12095 1206 M
152 0 V
stroke
12853 1289 152 1022 40 30 0 PatternFill
12929 1196 M
0 93 V
0 1022 R
0 1834 V
stroke
12853 1289 N
152 0 V
0 1022 V
-152 0 V
0 -1022 V
Z stroke
12853 4145 M
152 0 V
12853 1196 M
152 0 V
% End plot #7
% Begin plot #8
stroke
LTb
LCb setrgbcolor

 /TransparentPatterns true def
1473 2023 152 0 40 -30 0 PatternFill
1549 2023 M
stroke
1473 2023 N
152 0 V
-152 0 V
Z stroke
1473 2023 M
152 0 V
-152 0 R
152 0 V
stroke

 /TransparentPatterns true def
2232 1872 152 0 40 -30 0 PatternFill
2308 1872 M
stroke
2232 1872 N
152 0 V
-152 0 V
Z stroke
2232 1872 M
152 0 V
-152 0 R
152 0 V
stroke

 /TransparentPatterns true def
2991 2007 152 0 40 -30 0 PatternFill
3067 2007 M
stroke
2991 2007 N
152 0 V
-152 0 V
Z stroke
2991 2007 M
152 0 V
-152 0 R
152 0 V
stroke

 /TransparentPatterns true def
3749 1891 152 0 40 -30 0 PatternFill
3825 1891 M
stroke
3749 1891 N
152 0 V
-152 0 V
Z stroke
3749 1891 M
152 0 V
-152 0 R
152 0 V
stroke

 /TransparentPatterns true def
4508 1923 152 0 40 -30 0 PatternFill
4584 1923 M
stroke
4508 1923 N
152 0 V
-152 0 V
Z stroke
4508 1923 M
152 0 V
-152 0 R
152 0 V
stroke

 /TransparentPatterns true def
5267 2036 152 0 40 -30 0 PatternFill
5343 2036 M
stroke
5267 2036 N
152 0 V
-152 0 V
Z stroke
5267 2036 M
152 0 V
-152 0 R
152 0 V
stroke

 /TransparentPatterns true def
6025 1968 152 0 40 -30 0 PatternFill
6101 1968 M
stroke
6025 1968 N
152 0 V
-152 0 V
Z stroke
6025 1968 M
152 0 V
-152 0 R
152 0 V
stroke

 /TransparentPatterns true def
6784 1965 152 0 40 -30 0 PatternFill
6860 1965 M
stroke
6784 1965 N
152 0 V
-152 0 V
Z stroke
6784 1965 M
152 0 V
-152 0 R
152 0 V
stroke

 /TransparentPatterns true def
7543 1950 152 0 40 -30 0 PatternFill
7619 1950 M
stroke
7543 1950 N
152 0 V
-152 0 V
Z stroke
7543 1950 M
152 0 V
-152 0 R
152 0 V
stroke

 /TransparentPatterns true def
8301 1801 152 0 40 -30 0 PatternFill
8377 1801 M
stroke
8301 1801 N
152 0 V
-152 0 V
Z stroke
8301 1801 M
152 0 V
-152 0 R
152 0 V
stroke

 /TransparentPatterns true def
9060 2066 152 0 40 -30 0 PatternFill
9136 2066 M
stroke
9060 2066 N
152 0 V
-152 0 V
Z stroke
9060 2066 M
152 0 V
-152 0 R
152 0 V
stroke

 /TransparentPatterns true def
9819 1989 152 0 40 -30 0 PatternFill
9895 1989 M
stroke
9819 1989 N
152 0 V
-152 0 V
Z stroke
9819 1989 M
152 0 V
-152 0 R
152 0 V
stroke

 /TransparentPatterns true def
10577 1944 152 0 40 -30 0 PatternFill
10653 1944 M
stroke
10577 1944 N
152 0 V
-152 0 V
Z stroke
10577 1944 M
152 0 V
-152 0 R
152 0 V
stroke

 /TransparentPatterns true def
11336 1904 152 0 40 -30 0 PatternFill
11412 1904 M
stroke
11336 1904 N
152 0 V
-152 0 V
Z stroke
11336 1904 M
152 0 V
-152 0 R
152 0 V
stroke

 /TransparentPatterns true def
12095 1899 152 0 40 -30 0 PatternFill
12171 1899 M
stroke
12095 1899 N
152 0 V
-152 0 V
Z stroke
12095 1899 M
152 0 V
-152 0 R
152 0 V
stroke

 /TransparentPatterns true def
12853 1905 152 0 40 -30 0 PatternFill
12929 1905 M
stroke
12853 1905 N
152 0 V
-152 0 V
Z stroke
12853 1905 M
152 0 V
-152 0 R
152 0 V
% End plot #8
% Begin plot #9
2.000 UP
stroke
LTa
0.00 0.38 0.82 C LCb setrgbcolor
11860 153 M
[ [(Arial) 180.0 0.0 true true 0 ( )]
] -60.0 MRshow
2.000 UP
1.000 UL
LTa
0.00 0.38 0.82 C 11968 153 M
333 0 V
980 4750 M
569 0 V
759 0 V
758 0 V
759 0 V
759 0 V
758 0 V
759 0 V
759 0 V
759 0 V
758 0 V
759 0 V
759 0 V
758 0 V
759 0 V
759 0 V
758 0 V
190 0 V
1549 4750 TriU
2308 4750 TriU
3066 4750 TriU
3825 4750 TriU
4584 4750 TriU
5342 4750 TriU
6101 4750 TriU
6860 4750 TriU
7619 4750 TriU
8377 4750 TriU
9136 4750 TriU
9895 4750 TriU
10653 4750 TriU
11412 4750 TriU
12171 4750 TriU
12929 4750 TriU
12134 153 TriU
% End plot #9
2.000 UL
LTb
LCb setrgbcolor
1.000 UP
1.000 UL
LTb
0.00 0.00 0.00 C stroke
grestore
end
showpage
%%Trailer
%%DocumentFonts: Arial
