%!PS-Adobe-2.0 EPSF-2.0
%%Title: TcpScalable-download-rtt-75UE-250-400.eps
%%Creator: gnuplot 5.0 patchlevel 3
%%CreationDate: Thu Jun  2 10:39:41 2016
%%DocumentFonts: (atend)
%%BoundingBox: 50 50 770 302
%%EndComments
%%BeginProlog
/gnudict 256 dict def
gnudict begin
%
% The following true/false flags may be edited by hand if desired.
% The unit line width and grayscale image gamma correction may also be changed.
%
/Color true def
/Blacktext false def
/Solid false def
/Dashlength 3 def
/Landscape false def
/Level1 false def
/Level3 false def
/Rounded false def
/ClipToBoundingBox false def
/SuppressPDFMark false def
/TransparentPatterns false def
/gnulinewidth 15.000 def
/userlinewidth gnulinewidth def
/Gamma 1.0 def
/BackgroundColor {-1.000 -1.000 -1.000} def
%
/vshift -66 def
/dl1 {
  10.0 Dashlength userlinewidth gnulinewidth div mul mul mul
  Rounded { currentlinewidth 0.75 mul sub dup 0 le { pop 0.01 } if } if
} def
/dl2 {
  10.0 Dashlength userlinewidth gnulinewidth div mul mul mul
  Rounded { currentlinewidth 0.75 mul add } if
} def
/hpt_ 31.5 def
/vpt_ 31.5 def
/hpt hpt_ def
/vpt vpt_ def
/doclip {
  ClipToBoundingBox {
    newpath 50 50 moveto 770 50 lineto 770 302 lineto 50 302 lineto closepath
    clip
  } if
} def
%
% Gnuplot Prolog Version 5.1 (Oct 2015)
%
%/SuppressPDFMark true def
%
/M {moveto} bind def
/L {lineto} bind def
/R {rmoveto} bind def
/V {rlineto} bind def
/N {newpath moveto} bind def
/Z {closepath} bind def
/C {setrgbcolor} bind def
/f {rlineto fill} bind def
/g {setgray} bind def
/Gshow {show} def   % May be redefined later in the file to support UTF-8
/vpt2 vpt 2 mul def
/hpt2 hpt 2 mul def
/Lshow {currentpoint stroke M 0 vshift R 
	Blacktext {gsave 0 setgray textshow grestore} {textshow} ifelse} def
/Rshow {currentpoint stroke M dup stringwidth pop neg vshift R
	Blacktext {gsave 0 setgray textshow grestore} {textshow} ifelse} def
/Cshow {currentpoint stroke M dup stringwidth pop -2 div vshift R 
	Blacktext {gsave 0 setgray textshow grestore} {textshow} ifelse} def
/UP {dup vpt_ mul /vpt exch def hpt_ mul /hpt exch def
  /hpt2 hpt 2 mul def /vpt2 vpt 2 mul def} def
/DL {Color {setrgbcolor Solid {pop []} if 0 setdash}
 {pop pop pop 0 setgray Solid {pop []} if 0 setdash} ifelse} def
/BL {stroke userlinewidth 2 mul setlinewidth
	Rounded {1 setlinejoin 1 setlinecap} if} def
/AL {stroke userlinewidth 2 div setlinewidth
	Rounded {1 setlinejoin 1 setlinecap} if} def
/UL {dup gnulinewidth mul /userlinewidth exch def
	dup 1 lt {pop 1} if 10 mul /udl exch def} def
/PL {stroke userlinewidth setlinewidth
	Rounded {1 setlinejoin 1 setlinecap} if} def
3.8 setmiterlimit
% Classic Line colors (version 5.0)
/LCw {1 1 1} def
/LCb {0 0 0} def
/LCa {0 0 0} def
/LC0 {1 0 0} def
/LC1 {0 1 0} def
/LC2 {0 0 1} def
/LC3 {1 0 1} def
/LC4 {0 1 1} def
/LC5 {1 1 0} def
/LC6 {0 0 0} def
/LC7 {1 0.3 0} def
/LC8 {0.5 0.5 0.5} def
% Default dash patterns (version 5.0)
/LTB {BL [] LCb DL} def
/LTw {PL [] 1 setgray} def
/LTb {PL [] LCb DL} def
/LTa {AL [1 udl mul 2 udl mul] 0 setdash LCa setrgbcolor} def
/LT0 {PL [] LC0 DL} def
/LT1 {PL [2 dl1 3 dl2] LC1 DL} def
/LT2 {PL [1 dl1 1.5 dl2] LC2 DL} def
/LT3 {PL [6 dl1 2 dl2 1 dl1 2 dl2] LC3 DL} def
/LT4 {PL [1 dl1 2 dl2 6 dl1 2 dl2 1 dl1 2 dl2] LC4 DL} def
/LT5 {PL [4 dl1 2 dl2] LC5 DL} def
/LT6 {PL [1.5 dl1 1.5 dl2 1.5 dl1 1.5 dl2 1.5 dl1 6 dl2] LC6 DL} def
/LT7 {PL [3 dl1 3 dl2 1 dl1 3 dl2] LC7 DL} def
/LT8 {PL [2 dl1 2 dl2 2 dl1 6 dl2] LC8 DL} def
/SL {[] 0 setdash} def
/Pnt {stroke [] 0 setdash gsave 1 setlinecap M 0 0 V stroke grestore} def
/Dia {stroke [] 0 setdash 2 copy vpt add M
  hpt neg vpt neg V hpt vpt neg V
  hpt vpt V hpt neg vpt V closepath stroke
  Pnt} def
/Pls {stroke [] 0 setdash vpt sub M 0 vpt2 V
  currentpoint stroke M
  hpt neg vpt neg R hpt2 0 V stroke
 } def
/Box {stroke [] 0 setdash 2 copy exch hpt sub exch vpt add M
  0 vpt2 neg V hpt2 0 V 0 vpt2 V
  hpt2 neg 0 V closepath stroke
  Pnt} def
/Crs {stroke [] 0 setdash exch hpt sub exch vpt add M
  hpt2 vpt2 neg V currentpoint stroke M
  hpt2 neg 0 R hpt2 vpt2 V stroke} def
/TriU {stroke [] 0 setdash 2 copy vpt 1.12 mul add M
  hpt neg vpt -1.62 mul V
  hpt 2 mul 0 V
  hpt neg vpt 1.62 mul V closepath stroke
  Pnt} def
/Star {2 copy Pls Crs} def
/BoxF {stroke [] 0 setdash exch hpt sub exch vpt add M
  0 vpt2 neg V hpt2 0 V 0 vpt2 V
  hpt2 neg 0 V closepath fill} def
/TriUF {stroke [] 0 setdash vpt 1.12 mul add M
  hpt neg vpt -1.62 mul V
  hpt 2 mul 0 V
  hpt neg vpt 1.62 mul V closepath fill} def
/TriD {stroke [] 0 setdash 2 copy vpt 1.12 mul sub M
  hpt neg vpt 1.62 mul V
  hpt 2 mul 0 V
  hpt neg vpt -1.62 mul V closepath stroke
  Pnt} def
/TriDF {stroke [] 0 setdash vpt 1.12 mul sub M
  hpt neg vpt 1.62 mul V
  hpt 2 mul 0 V
  hpt neg vpt -1.62 mul V closepath fill} def
/DiaF {stroke [] 0 setdash vpt add M
  hpt neg vpt neg V hpt vpt neg V
  hpt vpt V hpt neg vpt V closepath fill} def
/Pent {stroke [] 0 setdash 2 copy gsave
  translate 0 hpt M 4 {72 rotate 0 hpt L} repeat
  closepath stroke grestore Pnt} def
/PentF {stroke [] 0 setdash gsave
  translate 0 hpt M 4 {72 rotate 0 hpt L} repeat
  closepath fill grestore} def
/Circle {stroke [] 0 setdash 2 copy
  hpt 0 360 arc stroke Pnt} def
/CircleF {stroke [] 0 setdash hpt 0 360 arc fill} def
/C0 {BL [] 0 setdash 2 copy moveto vpt 90 450 arc} bind def
/C1 {BL [] 0 setdash 2 copy moveto
	2 copy vpt 0 90 arc closepath fill
	vpt 0 360 arc closepath} bind def
/C2 {BL [] 0 setdash 2 copy moveto
	2 copy vpt 90 180 arc closepath fill
	vpt 0 360 arc closepath} bind def
/C3 {BL [] 0 setdash 2 copy moveto
	2 copy vpt 0 180 arc closepath fill
	vpt 0 360 arc closepath} bind def
/C4 {BL [] 0 setdash 2 copy moveto
	2 copy vpt 180 270 arc closepath fill
	vpt 0 360 arc closepath} bind def
/C5 {BL [] 0 setdash 2 copy moveto
	2 copy vpt 0 90 arc
	2 copy moveto
	2 copy vpt 180 270 arc closepath fill
	vpt 0 360 arc} bind def
/C6 {BL [] 0 setdash 2 copy moveto
	2 copy vpt 90 270 arc closepath fill
	vpt 0 360 arc closepath} bind def
/C7 {BL [] 0 setdash 2 copy moveto
	2 copy vpt 0 270 arc closepath fill
	vpt 0 360 arc closepath} bind def
/C8 {BL [] 0 setdash 2 copy moveto
	2 copy vpt 270 360 arc closepath fill
	vpt 0 360 arc closepath} bind def
/C9 {BL [] 0 setdash 2 copy moveto
	2 copy vpt 270 450 arc closepath fill
	vpt 0 360 arc closepath} bind def
/C10 {BL [] 0 setdash 2 copy 2 copy moveto vpt 270 360 arc closepath fill
	2 copy moveto
	2 copy vpt 90 180 arc closepath fill
	vpt 0 360 arc closepath} bind def
/C11 {BL [] 0 setdash 2 copy moveto
	2 copy vpt 0 180 arc closepath fill
	2 copy moveto
	2 copy vpt 270 360 arc closepath fill
	vpt 0 360 arc closepath} bind def
/C12 {BL [] 0 setdash 2 copy moveto
	2 copy vpt 180 360 arc closepath fill
	vpt 0 360 arc closepath} bind def
/C13 {BL [] 0 setdash 2 copy moveto
	2 copy vpt 0 90 arc closepath fill
	2 copy moveto
	2 copy vpt 180 360 arc closepath fill
	vpt 0 360 arc closepath} bind def
/C14 {BL [] 0 setdash 2 copy moveto
	2 copy vpt 90 360 arc closepath fill
	vpt 0 360 arc} bind def
/C15 {BL [] 0 setdash 2 copy vpt 0 360 arc closepath fill
	vpt 0 360 arc closepath} bind def
/Rec {newpath 4 2 roll moveto 1 index 0 rlineto 0 exch rlineto
	neg 0 rlineto closepath} bind def
/Square {dup Rec} bind def
/Bsquare {vpt sub exch vpt sub exch vpt2 Square} bind def
/S0 {BL [] 0 setdash 2 copy moveto 0 vpt rlineto BL Bsquare} bind def
/S1 {BL [] 0 setdash 2 copy vpt Square fill Bsquare} bind def
/S2 {BL [] 0 setdash 2 copy exch vpt sub exch vpt Square fill Bsquare} bind def
/S3 {BL [] 0 setdash 2 copy exch vpt sub exch vpt2 vpt Rec fill Bsquare} bind def
/S4 {BL [] 0 setdash 2 copy exch vpt sub exch vpt sub vpt Square fill Bsquare} bind def
/S5 {BL [] 0 setdash 2 copy 2 copy vpt Square fill
	exch vpt sub exch vpt sub vpt Square fill Bsquare} bind def
/S6 {BL [] 0 setdash 2 copy exch vpt sub exch vpt sub vpt vpt2 Rec fill Bsquare} bind def
/S7 {BL [] 0 setdash 2 copy exch vpt sub exch vpt sub vpt vpt2 Rec fill
	2 copy vpt Square fill Bsquare} bind def
/S8 {BL [] 0 setdash 2 copy vpt sub vpt Square fill Bsquare} bind def
/S9 {BL [] 0 setdash 2 copy vpt sub vpt vpt2 Rec fill Bsquare} bind def
/S10 {BL [] 0 setdash 2 copy vpt sub vpt Square fill 2 copy exch vpt sub exch vpt Square fill
	Bsquare} bind def
/S11 {BL [] 0 setdash 2 copy vpt sub vpt Square fill 2 copy exch vpt sub exch vpt2 vpt Rec fill
	Bsquare} bind def
/S12 {BL [] 0 setdash 2 copy exch vpt sub exch vpt sub vpt2 vpt Rec fill Bsquare} bind def
/S13 {BL [] 0 setdash 2 copy exch vpt sub exch vpt sub vpt2 vpt Rec fill
	2 copy vpt Square fill Bsquare} bind def
/S14 {BL [] 0 setdash 2 copy exch vpt sub exch vpt sub vpt2 vpt Rec fill
	2 copy exch vpt sub exch vpt Square fill Bsquare} bind def
/S15 {BL [] 0 setdash 2 copy Bsquare fill Bsquare} bind def
/D0 {gsave translate 45 rotate 0 0 S0 stroke grestore} bind def
/D1 {gsave translate 45 rotate 0 0 S1 stroke grestore} bind def
/D2 {gsave translate 45 rotate 0 0 S2 stroke grestore} bind def
/D3 {gsave translate 45 rotate 0 0 S3 stroke grestore} bind def
/D4 {gsave translate 45 rotate 0 0 S4 stroke grestore} bind def
/D5 {gsave translate 45 rotate 0 0 S5 stroke grestore} bind def
/D6 {gsave translate 45 rotate 0 0 S6 stroke grestore} bind def
/D7 {gsave translate 45 rotate 0 0 S7 stroke grestore} bind def
/D8 {gsave translate 45 rotate 0 0 S8 stroke grestore} bind def
/D9 {gsave translate 45 rotate 0 0 S9 stroke grestore} bind def
/D10 {gsave translate 45 rotate 0 0 S10 stroke grestore} bind def
/D11 {gsave translate 45 rotate 0 0 S11 stroke grestore} bind def
/D12 {gsave translate 45 rotate 0 0 S12 stroke grestore} bind def
/D13 {gsave translate 45 rotate 0 0 S13 stroke grestore} bind def
/D14 {gsave translate 45 rotate 0 0 S14 stroke grestore} bind def
/D15 {gsave translate 45 rotate 0 0 S15 stroke grestore} bind def
/DiaE {stroke [] 0 setdash vpt add M
  hpt neg vpt neg V hpt vpt neg V
  hpt vpt V hpt neg vpt V closepath stroke} def
/BoxE {stroke [] 0 setdash exch hpt sub exch vpt add M
  0 vpt2 neg V hpt2 0 V 0 vpt2 V
  hpt2 neg 0 V closepath stroke} def
/TriUE {stroke [] 0 setdash vpt 1.12 mul add M
  hpt neg vpt -1.62 mul V
  hpt 2 mul 0 V
  hpt neg vpt 1.62 mul V closepath stroke} def
/TriDE {stroke [] 0 setdash vpt 1.12 mul sub M
  hpt neg vpt 1.62 mul V
  hpt 2 mul 0 V
  hpt neg vpt -1.62 mul V closepath stroke} def
/PentE {stroke [] 0 setdash gsave
  translate 0 hpt M 4 {72 rotate 0 hpt L} repeat
  closepath stroke grestore} def
/CircE {stroke [] 0 setdash 
  hpt 0 360 arc stroke} def
/Opaque {gsave closepath 1 setgray fill grestore 0 setgray closepath} def
/DiaW {stroke [] 0 setdash vpt add M
  hpt neg vpt neg V hpt vpt neg V
  hpt vpt V hpt neg vpt V Opaque stroke} def
/BoxW {stroke [] 0 setdash exch hpt sub exch vpt add M
  0 vpt2 neg V hpt2 0 V 0 vpt2 V
  hpt2 neg 0 V Opaque stroke} def
/TriUW {stroke [] 0 setdash vpt 1.12 mul add M
  hpt neg vpt -1.62 mul V
  hpt 2 mul 0 V
  hpt neg vpt 1.62 mul V Opaque stroke} def
/TriDW {stroke [] 0 setdash vpt 1.12 mul sub M
  hpt neg vpt 1.62 mul V
  hpt 2 mul 0 V
  hpt neg vpt -1.62 mul V Opaque stroke} def
/PentW {stroke [] 0 setdash gsave
  translate 0 hpt M 4 {72 rotate 0 hpt L} repeat
  Opaque stroke grestore} def
/CircW {stroke [] 0 setdash 
  hpt 0 360 arc Opaque stroke} def
/BoxFill {gsave Rec 1 setgray fill grestore} def
/Density {
  /Fillden exch def
  currentrgbcolor
  /ColB exch def /ColG exch def /ColR exch def
  /ColR ColR Fillden mul Fillden sub 1 add def
  /ColG ColG Fillden mul Fillden sub 1 add def
  /ColB ColB Fillden mul Fillden sub 1 add def
  ColR ColG ColB setrgbcolor} def
/BoxColFill {gsave Rec PolyFill} def
/PolyFill {gsave Density fill grestore grestore} def
/h {rlineto rlineto rlineto gsave closepath fill grestore} bind def
%
% PostScript Level 1 Pattern Fill routine for rectangles
% Usage: x y w h s a XX PatternFill
%	x,y = lower left corner of box to be filled
%	w,h = width and height of box
%	  a = angle in degrees between lines and x-axis
%	 XX = 0/1 for no/yes cross-hatch
%
/PatternFill {gsave /PFa [ 9 2 roll ] def
  PFa 0 get PFa 2 get 2 div add PFa 1 get PFa 3 get 2 div add translate
  PFa 2 get -2 div PFa 3 get -2 div PFa 2 get PFa 3 get Rec
  TransparentPatterns {} {gsave 1 setgray fill grestore} ifelse
  clip
  currentlinewidth 0.5 mul setlinewidth
  /PFs PFa 2 get dup mul PFa 3 get dup mul add sqrt def
  0 0 M PFa 5 get rotate PFs -2 div dup translate
  0 1 PFs PFa 4 get div 1 add floor cvi
	{PFa 4 get mul 0 M 0 PFs V} for
  0 PFa 6 get ne {
	0 1 PFs PFa 4 get div 1 add floor cvi
	{PFa 4 get mul 0 2 1 roll M PFs 0 V} for
 } if
  stroke grestore} def
%
/languagelevel where
 {pop languagelevel} {1} ifelse
dup 2 lt
	{/InterpretLevel1 true def
	 /InterpretLevel3 false def}
	{/InterpretLevel1 Level1 def
	 2 gt
	    {/InterpretLevel3 Level3 def}
	    {/InterpretLevel3 false def}
	 ifelse }
 ifelse
%
% PostScript level 2 pattern fill definitions
%
/Level2PatternFill {
/Tile8x8 {/PaintType 2 /PatternType 1 /TilingType 1 /BBox [0 0 8 8] /XStep 8 /YStep 8}
	bind def
/KeepColor {currentrgbcolor [/Pattern /DeviceRGB] setcolorspace} bind def
<< Tile8x8
 /PaintProc {0.5 setlinewidth pop 0 0 M 8 8 L 0 8 M 8 0 L stroke} 
>> matrix makepattern
/Pat1 exch def
<< Tile8x8
 /PaintProc {0.5 setlinewidth pop 0 0 M 8 8 L 0 8 M 8 0 L stroke
	0 4 M 4 8 L 8 4 L 4 0 L 0 4 L stroke}
>> matrix makepattern
/Pat2 exch def
<< Tile8x8
 /PaintProc {0.5 setlinewidth pop 0 0 M 0 8 L
	8 8 L 8 0 L 0 0 L fill}
>> matrix makepattern
/Pat3 exch def
<< Tile8x8
 /PaintProc {0.5 setlinewidth pop -4 8 M 8 -4 L
	0 12 M 12 0 L stroke}
>> matrix makepattern
/Pat4 exch def
<< Tile8x8
 /PaintProc {0.5 setlinewidth pop -4 0 M 8 12 L
	0 -4 M 12 8 L stroke}
>> matrix makepattern
/Pat5 exch def
<< Tile8x8
 /PaintProc {0.5 setlinewidth pop -2 8 M 4 -4 L
	0 12 M 8 -4 L 4 12 M 10 0 L stroke}
>> matrix makepattern
/Pat6 exch def
<< Tile8x8
 /PaintProc {0.5 setlinewidth pop -2 0 M 4 12 L
	0 -4 M 8 12 L 4 -4 M 10 8 L stroke}
>> matrix makepattern
/Pat7 exch def
<< Tile8x8
 /PaintProc {0.5 setlinewidth pop 8 -2 M -4 4 L
	12 0 M -4 8 L 12 4 M 0 10 L stroke}
>> matrix makepattern
/Pat8 exch def
<< Tile8x8
 /PaintProc {0.5 setlinewidth pop 0 -2 M 12 4 L
	-4 0 M 12 8 L -4 4 M 8 10 L stroke}
>> matrix makepattern
/Pat9 exch def
/Pattern1 {PatternBgnd KeepColor Pat1 setpattern} bind def
/Pattern2 {PatternBgnd KeepColor Pat2 setpattern} bind def
/Pattern3 {PatternBgnd KeepColor Pat3 setpattern} bind def
/Pattern4 {PatternBgnd KeepColor Landscape {Pat5} {Pat4} ifelse setpattern} bind def
/Pattern5 {PatternBgnd KeepColor Landscape {Pat4} {Pat5} ifelse setpattern} bind def
/Pattern6 {PatternBgnd KeepColor Landscape {Pat9} {Pat6} ifelse setpattern} bind def
/Pattern7 {PatternBgnd KeepColor Landscape {Pat8} {Pat7} ifelse setpattern} bind def
} def
%
%
%End of PostScript Level 2 code
%
/PatternBgnd {
  TransparentPatterns {} {gsave 1 setgray fill grestore} ifelse
} def
%
% Substitute for Level 2 pattern fill codes with
% grayscale if Level 2 support is not selected.
%
/Level1PatternFill {
/Pattern1 {0.250 Density} bind def
/Pattern2 {0.500 Density} bind def
/Pattern3 {0.750 Density} bind def
/Pattern4 {0.125 Density} bind def
/Pattern5 {0.375 Density} bind def
/Pattern6 {0.625 Density} bind def
/Pattern7 {0.875 Density} bind def
} def
%
% Now test for support of Level 2 code
%
Level1 {Level1PatternFill} {Level2PatternFill} ifelse
%
/Symbol-Oblique /Symbol findfont [1 0 .167 1 0 0] makefont
dup length dict begin {1 index /FID eq {pop pop} {def} ifelse} forall
currentdict end definefont pop
%
/MFshow {
   { dup 5 get 3 ge
     { 5 get 3 eq {gsave} {grestore} ifelse }
     {dup dup 0 get findfont exch 1 get scalefont setfont
     [ currentpoint ] exch dup 2 get 0 exch R dup 5 get 2 ne {dup dup 6
     get exch 4 get {textshow} {stringwidth pop 0 R} ifelse }if dup 5 get 0 eq
     {dup 3 get {2 get neg 0 exch R pop} {pop aload pop M} ifelse} {dup 5
     get 1 eq {dup 2 get exch dup 3 get exch 6 get stringwidth pop -2 div
     dup 0 R} {dup 6 get stringwidth pop -2 div 0 R 6 get
     textshow 2 index {aload pop M neg 3 -1 roll neg R pop pop} {pop pop pop
     pop aload pop M} ifelse }ifelse }ifelse }
     ifelse }
   forall} def
/Gswidth {dup type /stringtype eq {stringwidth} {pop (n) stringwidth} ifelse} def
/MFwidth {0 exch { dup 5 get 3 ge { 5 get 3 eq { 0 } { pop } ifelse }
 {dup 3 get{dup dup 0 get findfont exch 1 get scalefont setfont
     6 get Gswidth pop add} {pop} ifelse} ifelse} forall} def
/MLshow { currentpoint stroke M
  0 exch R
  Blacktext {gsave 0 setgray MFshow grestore} {MFshow} ifelse } bind def
/MRshow { currentpoint stroke M
  exch dup MFwidth neg 3 -1 roll R
  Blacktext {gsave 0 setgray MFshow grestore} {MFshow} ifelse } bind def
/MCshow { currentpoint stroke M
  exch dup MFwidth -2 div 3 -1 roll R
  Blacktext {gsave 0 setgray MFshow grestore} {MFshow} ifelse } bind def
/XYsave    { [( ) 1 2 true false 3 ()] } bind def
/XYrestore { [( ) 1 2 true false 4 ()] } bind def
Level1 SuppressPDFMark or 
{} {
/SDict 10 dict def
systemdict /pdfmark known not {
  userdict /pdfmark systemdict /cleartomark get put
} if
SDict begin [
  /Title (TcpScalable-download-rtt-75UE-250-400.eps)
  /Subject (gnuplot plot)
  /Creator (gnuplot 5.0 patchlevel 3)
  /Author (nat)
%  /Producer (gnuplot)
%  /Keywords ()
  /CreationDate (Thu Jun  2 10:39:41 2016)
  /DOCINFO pdfmark
end
} ifelse
%
% Support for boxed text - Ethan A Merritt May 2005
%
/InitTextBox { userdict /TBy2 3 -1 roll put userdict /TBx2 3 -1 roll put
           userdict /TBy1 3 -1 roll put userdict /TBx1 3 -1 roll put
	   /Boxing true def } def
/ExtendTextBox { Boxing
    { gsave dup false charpath pathbbox
      dup TBy2 gt {userdict /TBy2 3 -1 roll put} {pop} ifelse
      dup TBx2 gt {userdict /TBx2 3 -1 roll put} {pop} ifelse
      dup TBy1 lt {userdict /TBy1 3 -1 roll put} {pop} ifelse
      dup TBx1 lt {userdict /TBx1 3 -1 roll put} {pop} ifelse
      grestore } if } def
/PopTextBox { newpath TBx1 TBxmargin sub TBy1 TBymargin sub M
               TBx1 TBxmargin sub TBy2 TBymargin add L
	       TBx2 TBxmargin add TBy2 TBymargin add L
	       TBx2 TBxmargin add TBy1 TBymargin sub L closepath } def
/DrawTextBox { PopTextBox stroke /Boxing false def} def
/FillTextBox { gsave PopTextBox 1 1 1 setrgbcolor fill grestore /Boxing false def} def
0 0 0 0 InitTextBox
/TBxmargin 20 def
/TBymargin 20 def
/Boxing false def
/textshow { ExtendTextBox Gshow } def
%
% redundant definitions for compatibility with prologue.ps older than 5.0.2
/LTB {BL [] LCb DL} def
/LTb {PL [] LCb DL} def
end
%%EndProlog
%%Page: 1 1
gnudict begin
gsave
doclip
50 50 translate
0.050 0.050 scale
0 setgray
newpath
(Arial) findfont 200 scalefont setfont
BackgroundColor 0 lt 3 1 roll 0 lt exch 0 lt or or not {BackgroundColor C 1.000 0 0 14400.00 5040.00 BoxColFill} if
1.000 UL
LTb
0.00 0.00 0.00 C 0.500 UL
LTa
0.50 0.50 0.50 C 980 1000 M
12139 0 V
stroke
1.000 UL
LTb
0.00 0.00 0.00 C 980 1000 M
63 0 V
stroke
860 1000 M
[ [(Arial) 200.0 0.0 true true 0 ( 40)]
] -66.7 MRshow
1.000 UL
LTb
0.00 0.00 0.00 C 0.500 UL
LTa
0.50 0.50 0.50 C 980 1475 M
12139 0 V
stroke
1.000 UL
LTb
0.00 0.00 0.00 C 980 1475 M
63 0 V
stroke
860 1475 M
[ [(Arial) 200.0 0.0 true true 0 ( 60)]
] -66.7 MRshow
1.000 UL
LTb
0.00 0.00 0.00 C 0.500 UL
LTa
0.50 0.50 0.50 C 980 1950 M
12139 0 V
stroke
1.000 UL
LTb
0.00 0.00 0.00 C 980 1950 M
63 0 V
stroke
860 1950 M
[ [(Arial) 200.0 0.0 true true 0 ( 80)]
] -66.7 MRshow
1.000 UL
LTb
0.00 0.00 0.00 C 0.500 UL
LTa
0.50 0.50 0.50 C 980 2425 M
12139 0 V
stroke
1.000 UL
LTb
0.00 0.00 0.00 C 980 2425 M
63 0 V
stroke
860 2425 M
[ [(Arial) 200.0 0.0 true true 0 ( 100)]
] -66.7 MRshow
1.000 UL
LTb
0.00 0.00 0.00 C 0.500 UL
LTa
0.50 0.50 0.50 C 980 2900 M
12139 0 V
stroke
1.000 UL
LTb
0.00 0.00 0.00 C 980 2900 M
63 0 V
stroke
860 2900 M
[ [(Arial) 200.0 0.0 true true 0 ( 120)]
] -66.7 MRshow
1.000 UL
LTb
0.00 0.00 0.00 C 0.500 UL
LTa
0.50 0.50 0.50 C 980 3374 M
12139 0 V
stroke
1.000 UL
LTb
0.00 0.00 0.00 C 980 3374 M
63 0 V
stroke
860 3374 M
[ [(Arial) 200.0 0.0 true true 0 ( 140)]
] -66.7 MRshow
1.000 UL
LTb
0.00 0.00 0.00 C 0.500 UL
LTa
0.50 0.50 0.50 C 980 3849 M
12139 0 V
stroke
1.000 UL
LTb
0.00 0.00 0.00 C 980 3849 M
63 0 V
stroke
860 3849 M
[ [(Arial) 200.0 0.0 true true 0 ( 160)]
] -66.7 MRshow
1.000 UL
LTb
0.00 0.00 0.00 C 0.500 UL
LTa
0.50 0.50 0.50 C 980 4324 M
12139 0 V
stroke
1.000 UL
LTb
0.00 0.00 0.00 C 980 4324 M
63 0 V
stroke
860 4324 M
[ [(Arial) 200.0 0.0 true true 0 ( 180)]
] -66.7 MRshow
1.000 UL
LTb
0.00 0.00 0.00 C 0.500 UL
LTa
0.50 0.50 0.50 C 980 4799 M
12139 0 V
stroke
1.000 UL
LTb
0.00 0.00 0.00 C 980 4799 M
63 0 V
stroke
860 4799 M
[ [(Arial) 200.0 0.0 true true 0 ( 200)]
] -66.7 MRshow
1.000 UL
LTb
0.00 0.00 0.00 C 0.500 UL
LTa
0.50 0.50 0.50 C 1359 1000 M
0 3799 V
stroke
1.000 UL
LTb
0.00 0.00 0.00 C 1359 1000 M
0 63 V
0 3736 R
0 -63 V
stroke
1359 800 M
[ [(Arial) 200.0 0.0 true true 0 ( 750)]
] -66.7 MCshow
1.000 UL
LTb
0.00 0.00 0.00 C 0.500 UL
LTa
0.50 0.50 0.50 C 2118 1000 M
0 3799 V
stroke
1.000 UL
LTb
0.00 0.00 0.00 C 2118 1000 M
0 63 V
0 3736 R
0 -63 V
stroke
2118 800 M
[ [(Arial) 200.0 0.0 true true 0 ( 780)]
] -66.7 MCshow
1.000 UL
LTb
0.00 0.00 0.00 C 0.500 UL
LTa
0.50 0.50 0.50 C 2877 1000 M
0 3799 V
stroke
1.000 UL
LTb
0.00 0.00 0.00 C 2877 1000 M
0 63 V
0 3736 R
0 -63 V
stroke
2877 800 M
[ [(Arial) 200.0 0.0 true true 0 ( 810)]
] -66.7 MCshow
1.000 UL
LTb
0.00 0.00 0.00 C 0.500 UL
LTa
0.50 0.50 0.50 C 3635 1000 M
0 3799 V
stroke
1.000 UL
LTb
0.00 0.00 0.00 C 3635 1000 M
0 63 V
0 3736 R
0 -63 V
stroke
3635 800 M
[ [(Arial) 200.0 0.0 true true 0 ( 840)]
] -66.7 MCshow
1.000 UL
LTb
0.00 0.00 0.00 C 0.500 UL
LTa
0.50 0.50 0.50 C 4394 1000 M
0 3799 V
stroke
1.000 UL
LTb
0.00 0.00 0.00 C 4394 1000 M
0 63 V
0 3736 R
0 -63 V
stroke
4394 800 M
[ [(Arial) 200.0 0.0 true true 0 ( 870)]
] -66.7 MCshow
1.000 UL
LTb
0.00 0.00 0.00 C 0.500 UL
LTa
0.50 0.50 0.50 C 5153 1000 M
0 3799 V
stroke
1.000 UL
LTb
0.00 0.00 0.00 C 5153 1000 M
0 63 V
0 3736 R
0 -63 V
stroke
5153 800 M
[ [(Arial) 200.0 0.0 true true 0 ( 900)]
] -66.7 MCshow
1.000 UL
LTb
0.00 0.00 0.00 C 0.500 UL
LTa
0.50 0.50 0.50 C 5911 1000 M
0 3799 V
stroke
1.000 UL
LTb
0.00 0.00 0.00 C 5911 1000 M
0 63 V
0 3736 R
0 -63 V
stroke
5911 800 M
[ [(Arial) 200.0 0.0 true true 0 ( 930)]
] -66.7 MCshow
1.000 UL
LTb
0.00 0.00 0.00 C 0.500 UL
LTa
0.50 0.50 0.50 C 6670 1000 M
0 3799 V
stroke
1.000 UL
LTb
0.00 0.00 0.00 C 6670 1000 M
0 63 V
0 3736 R
0 -63 V
stroke
6670 800 M
[ [(Arial) 200.0 0.0 true true 0 ( 960)]
] -66.7 MCshow
1.000 UL
LTb
0.00 0.00 0.00 C 0.500 UL
LTa
0.50 0.50 0.50 C 7429 1000 M
0 3799 V
stroke
1.000 UL
LTb
0.00 0.00 0.00 C 7429 1000 M
0 63 V
0 3736 R
0 -63 V
stroke
7429 800 M
[ [(Arial) 200.0 0.0 true true 0 ( 990)]
] -66.7 MCshow
1.000 UL
LTb
0.00 0.00 0.00 C 0.500 UL
LTa
0.50 0.50 0.50 C 8188 1000 M
0 3799 V
stroke
1.000 UL
LTb
0.00 0.00 0.00 C 8188 1000 M
0 63 V
0 3736 R
0 -63 V
stroke
8188 800 M
[ [(Arial) 200.0 0.0 true true 0 ( 1020)]
] -66.7 MCshow
1.000 UL
LTb
0.00 0.00 0.00 C 0.500 UL
LTa
0.50 0.50 0.50 C 8946 1000 M
0 3799 V
stroke
1.000 UL
LTb
0.00 0.00 0.00 C 8946 1000 M
0 63 V
0 3736 R
0 -63 V
stroke
8946 800 M
[ [(Arial) 200.0 0.0 true true 0 ( 1050)]
] -66.7 MCshow
1.000 UL
LTb
0.00 0.00 0.00 C 0.500 UL
LTa
0.50 0.50 0.50 C 9705 1000 M
0 3799 V
stroke
1.000 UL
LTb
0.00 0.00 0.00 C 9705 1000 M
0 63 V
0 3736 R
0 -63 V
stroke
9705 800 M
[ [(Arial) 200.0 0.0 true true 0 ( 1080)]
] -66.7 MCshow
1.000 UL
LTb
0.00 0.00 0.00 C 0.500 UL
LTa
0.50 0.50 0.50 C 10464 1000 M
0 3799 V
stroke
1.000 UL
LTb
0.00 0.00 0.00 C 10464 1000 M
0 63 V
0 3736 R
0 -63 V
stroke
10464 800 M
[ [(Arial) 200.0 0.0 true true 0 ( 1110)]
] -66.7 MCshow
1.000 UL
LTb
0.00 0.00 0.00 C 0.500 UL
LTa
0.50 0.50 0.50 C 11222 1000 M
0 3799 V
stroke
1.000 UL
LTb
0.00 0.00 0.00 C 11222 1000 M
0 63 V
0 3736 R
0 -63 V
stroke
11222 800 M
[ [(Arial) 200.0 0.0 true true 0 ( 1140)]
] -66.7 MCshow
1.000 UL
LTb
0.00 0.00 0.00 C 0.500 UL
LTa
0.50 0.50 0.50 C 11981 1000 M
0 3799 V
stroke
1.000 UL
LTb
0.00 0.00 0.00 C 11981 1000 M
0 63 V
0 3736 R
0 -63 V
stroke
11981 800 M
[ [(Arial) 200.0 0.0 true true 0 ( 1170)]
] -66.7 MCshow
1.000 UL
LTb
0.00 0.00 0.00 C 0.500 UL
LTa
0.50 0.50 0.50 C 12740 1000 M
0 3799 V
stroke
1.000 UL
LTb
0.00 0.00 0.00 C 12740 1000 M
0 63 V
0 3736 R
0 -63 V
stroke
12740 800 M
[ [(Arial) 200.0 0.0 true true 0 ( 1200)]
] -66.7 MCshow
1.000 UL
LTb
0.00 0.00 0.00 C 13119 1000 M
-63 0 V
stroke
13239 1000 M
[ [(Arial) 200.0 0.0 true true 0 ( 0)]
] -66.7 MLshow
1.000 UL
LTb
0.00 0.00 0.00 C 13119 1760 M
-63 0 V
stroke
13239 1760 M
[ [(Arial) 200.0 0.0 true true 0 ( 20)]
] -66.7 MLshow
1.000 UL
LTb
0.00 0.00 0.00 C 13119 2520 M
-63 0 V
stroke
13239 2520 M
[ [(Arial) 200.0 0.0 true true 0 ( 40)]
] -66.7 MLshow
1.000 UL
LTb
0.00 0.00 0.00 C 13119 3279 M
-63 0 V
stroke
13239 3279 M
[ [(Arial) 200.0 0.0 true true 0 ( 60)]
] -66.7 MLshow
1.000 UL
LTb
0.00 0.00 0.00 C 13119 4039 M
-63 0 V
stroke
13239 4039 M
[ [(Arial) 200.0 0.0 true true 0 ( 80)]
] -66.7 MLshow
1.000 UL
LTb
0.00 0.00 0.00 C 13119 4799 M
-63 0 V
stroke
13239 4799 M
[ [(Arial) 200.0 0.0 true true 0 ( 100)]
] -66.7 MLshow
1.000 UL
LTb
0.00 0.00 0.00 C 1.000 UL
LTB
0.00 0.00 0.00 C 980 4799 M
0 -3799 V
12139 0 V
0 3799 R
980 4799 M
1.000 UP
stroke
LTb
0.00 0.00 0.00 C LCb setrgbcolor
160 2899 M
currentpoint gsave translate -270 rotate 0 0 moveto
[ [(Arial) 200.0 0.0 true true 0 (RTT \(ms\))]
] -66.7 MCshow
grestore
LTb
LCb setrgbcolor
13938 2899 M
currentpoint gsave translate -270 rotate 0 0 moveto
[ [(Arial) 200.0 0.0 true true 0 (TCP delivery ratio [%])]
] -66.7 MCshow
grestore
LTb
LCb setrgbcolor
7049 500 M
[ [(Arial) 200.0 0.0 true true 0 (Local backhaul traffic traffic \(Mb/s\))]
] -66.7 MCshow
LTb
% Begin plot #1
1.000 UL
LTb
0.60 0.60 0.00 C LCb setrgbcolor
4714 333 M
[ [(Arial) 180.0 0.0 true true 0 (RTT      :   olsr)]
] -60.0 MRshow
1.000 UL
LTb
0.60 0.60 0.00 C 4822 288 333 90 80 -45 0 PatternFill
4822 288 N
333 0 V
0 90 V
-333 0 V
0 -90 V
Z stroke
1.000 UL
LTb
0.60 0.60 0.00 C 1094 1229 152 695 80 -45 0 PatternFill
1170 1169 M
0 60 V
0 695 R
0 1150 V
stroke
1094 1229 N
152 0 V
0 695 V
-152 0 V
0 -695 V
Z stroke
1094 3074 M
152 0 V
1094 1169 M
152 0 V
stroke
1852 1245 152 724 80 -45 0 PatternFill
1928 1182 M
0 63 V
0 724 R
0 1174 V
stroke
1852 1245 N
152 0 V
0 724 V
-152 0 V
0 -724 V
Z stroke
1852 3143 M
152 0 V
1852 1182 M
152 0 V
stroke
2611 1239 152 727 80 -45 0 PatternFill
2687 1169 M
0 70 V
0 727 R
0 1223 V
stroke
2611 1239 N
152 0 V
0 727 V
-152 0 V
0 -727 V
Z stroke
2611 3189 M
152 0 V
2611 1169 M
152 0 V
stroke
3370 1242 152 742 80 -45 0 PatternFill
3446 1177 M
0 65 V
0 742 R
0 1122 V
stroke
3370 1242 N
152 0 V
0 742 V
-152 0 V
0 -742 V
Z stroke
3370 3106 M
152 0 V
3370 1177 M
152 0 V
stroke
4129 1239 152 712 80 -45 0 PatternFill
4205 1177 M
0 62 V
0 712 R
0 1186 V
stroke
4129 1239 N
152 0 V
0 712 V
-152 0 V
0 -712 V
Z stroke
4129 3137 M
152 0 V
4129 1177 M
152 0 V
stroke
4887 1242 152 711 80 -45 0 PatternFill
4963 1178 M
0 64 V
0 711 R
0 1164 V
stroke
4887 1242 N
152 0 V
0 711 V
-152 0 V
0 -711 V
Z stroke
4887 3117 M
152 0 V
4887 1178 M
152 0 V
stroke
5646 1241 152 677 80 -45 0 PatternFill
5722 1177 M
0 64 V
0 677 R
0 1158 V
stroke
5646 1241 N
152 0 V
0 677 V
-152 0 V
0 -677 V
Z stroke
5646 3076 M
152 0 V
5646 1177 M
152 0 V
stroke
6405 1238 152 632 80 -45 0 PatternFill
6481 1176 M
0 62 V
0 632 R
0 1154 V
stroke
6405 1238 N
152 0 V
0 632 V
-152 0 V
0 -632 V
Z stroke
6405 3024 M
152 0 V
6405 1176 M
152 0 V
stroke
7163 1240 152 665 80 -45 0 PatternFill
7239 1172 M
0 68 V
0 665 R
0 1166 V
stroke
7163 1240 N
152 0 V
0 665 V
-152 0 V
0 -665 V
Z stroke
7163 3071 M
152 0 V
7163 1172 M
152 0 V
stroke
7922 1242 152 707 80 -45 0 PatternFill
7998 1182 M
0 60 V
0 707 R
0 1175 V
stroke
7922 1242 N
152 0 V
0 707 V
-152 0 V
0 -707 V
Z stroke
7922 3124 M
152 0 V
7922 1182 M
152 0 V
stroke
8681 1242 152 661 80 -45 0 PatternFill
8757 1181 M
0 61 V
0 661 R
0 1162 V
stroke
8681 1242 N
152 0 V
0 661 V
-152 0 V
0 -661 V
Z stroke
8681 3065 M
152 0 V
8681 1181 M
152 0 V
stroke
9439 1241 152 623 80 -45 0 PatternFill
9515 1181 M
0 60 V
0 623 R
0 1134 V
stroke
9439 1241 N
152 0 V
0 623 V
-152 0 V
0 -623 V
Z stroke
9439 2998 M
152 0 V
9439 1181 M
152 0 V
stroke
10198 1233 152 571 80 -45 0 PatternFill
10274 1176 M
0 57 V
0 571 R
0 1053 V
stroke
10198 1233 N
152 0 V
0 571 V
-152 0 V
0 -571 V
Z stroke
10198 2857 M
152 0 V
10198 1176 M
152 0 V
stroke
10957 1238 152 527 80 -45 0 PatternFill
11033 1174 M
0 64 V
0 527 R
0 1026 V
stroke
10957 1238 N
152 0 V
0 527 V
-152 0 V
0 -527 V
Z stroke
10957 2791 M
152 0 V
10957 1174 M
152 0 V
stroke
11715 1238 152 530 80 -45 0 PatternFill
11791 1181 M
0 57 V
0 530 R
0 985 V
stroke
11715 1238 N
152 0 V
0 530 V
-152 0 V
0 -530 V
Z stroke
11715 2753 M
152 0 V
11715 1181 M
152 0 V
stroke
12474 1237 152 469 80 -45 0 PatternFill
12550 1172 M
0 65 V
0 469 R
0 947 V
stroke
12474 1237 N
152 0 V
0 469 V
-152 0 V
0 -469 V
Z stroke
12474 2653 M
152 0 V
12474 1172 M
152 0 V
% End plot #1
% Begin plot #2
stroke
LTb
LCb setrgbcolor

 /TransparentPatterns true def
1094 1639 152 0 40 30 0 PatternFill
1170 1639 M
stroke
1094 1639 N
152 0 V
-152 0 V
Z stroke
1094 1639 M
152 0 V
-152 0 R
152 0 V
stroke

 /TransparentPatterns true def
1852 1669 152 0 40 30 0 PatternFill
1928 1669 M
stroke
1852 1669 N
152 0 V
-152 0 V
Z stroke
1852 1669 M
152 0 V
-152 0 R
152 0 V
stroke

 /TransparentPatterns true def
2611 1665 152 0 40 30 0 PatternFill
2687 1665 M
stroke
2611 1665 N
152 0 V
-152 0 V
Z stroke
2611 1665 M
152 0 V
-152 0 R
152 0 V
stroke

 /TransparentPatterns true def
3370 1665 152 0 40 30 0 PatternFill
3446 1665 M
stroke
3370 1665 N
152 0 V
-152 0 V
Z stroke
3370 1665 M
152 0 V
-152 0 R
152 0 V
stroke

 /TransparentPatterns true def
4129 1663 152 0 40 30 0 PatternFill
4205 1663 M
stroke
4129 1663 N
152 0 V
-152 0 V
Z stroke
4129 1663 M
152 0 V
-152 0 R
152 0 V
stroke

 /TransparentPatterns true def
4887 1659 152 0 40 30 0 PatternFill
4963 1659 M
stroke
4887 1659 N
152 0 V
-152 0 V
Z stroke
4887 1659 M
152 0 V
-152 0 R
152 0 V
stroke

 /TransparentPatterns true def
5646 1638 152 0 40 30 0 PatternFill
5722 1638 M
stroke
5646 1638 N
152 0 V
-152 0 V
Z stroke
5646 1638 M
152 0 V
-152 0 R
152 0 V
stroke

 /TransparentPatterns true def
6405 1626 152 0 40 30 0 PatternFill
6481 1626 M
stroke
6405 1626 N
152 0 V
-152 0 V
Z stroke
6405 1626 M
152 0 V
-152 0 R
152 0 V
stroke

 /TransparentPatterns true def
7163 1640 152 0 40 30 0 PatternFill
7239 1640 M
stroke
7163 1640 N
152 0 V
-152 0 V
Z stroke
7163 1640 M
152 0 V
-152 0 R
152 0 V
stroke

 /TransparentPatterns true def
7922 1660 152 0 40 30 0 PatternFill
7998 1660 M
stroke
7922 1660 N
152 0 V
-152 0 V
Z stroke
7922 1660 M
152 0 V
-152 0 R
152 0 V
stroke

 /TransparentPatterns true def
8681 1640 152 0 40 30 0 PatternFill
8757 1640 M
stroke
8681 1640 N
152 0 V
-152 0 V
Z stroke
8681 1640 M
152 0 V
-152 0 R
152 0 V
stroke

 /TransparentPatterns true def
9439 1626 152 0 40 30 0 PatternFill
9515 1626 M
stroke
9439 1626 N
152 0 V
-152 0 V
Z stroke
9439 1626 M
152 0 V
-152 0 R
152 0 V
stroke

 /TransparentPatterns true def
10198 1585 152 0 40 30 0 PatternFill
10274 1585 M
stroke
10198 1585 N
152 0 V
-152 0 V
Z stroke
10198 1585 M
152 0 V
-152 0 R
152 0 V
stroke

 /TransparentPatterns true def
10957 1573 152 0 40 30 0 PatternFill
11033 1573 M
stroke
10957 1573 N
152 0 V
-152 0 V
Z stroke
10957 1573 M
152 0 V
-152 0 R
152 0 V
stroke

 /TransparentPatterns true def
11715 1569 152 0 40 30 0 PatternFill
11791 1569 M
stroke
11715 1569 N
152 0 V
-152 0 V
Z stroke
11715 1569 M
152 0 V
-152 0 R
152 0 V
stroke

 /TransparentPatterns true def
12474 1539 152 0 40 30 0 PatternFill
12550 1539 M
stroke
12474 1539 N
152 0 V
-152 0 V
Z stroke
12474 1539 M
152 0 V
-152 0 R
152 0 V
% End plot #2
% Begin plot #3
2.000 UP
stroke
LTa
0.60 0.60 0.00 C LCb setrgbcolor
4714 153 M
[ [(Arial) 180.0 0.0 true true 0 (app. received bytes :         )]
] -60.0 MRshow
2.000 UP
1.000 UL
LTa
0.60 0.60 0.00 C 4822 153 M
333 0 V
980 4750 M
190 0 V
758 0 V
759 0 V
759 0 V
758 0 V
759 0 V
759 0 V
758 0 V
759 0 V
759 0 V
759 0 V
758 0 V
759 0 V
759 0 V
758 0 V
759 0 V
1170 4750 Box
1928 4750 Box
2687 4750 Box
3446 4750 Box
4204 4750 Box
4963 4750 Box
5722 4750 Box
6480 4750 Box
7239 4750 Box
7998 4750 Box
8757 4750 Box
9515 4750 Box
10274 4750 Box
11033 4750 Box
11791 4750 Box
12550 4750 Box
4988 153 Box
% End plot #3
% Begin plot #4
1.000 UL
LTb
0.00 0.00 0.63 C LCb setrgbcolor
8287 333 M
[ [(Arial) 180.0 0.0 true true 0 (per-packet)]
] -60.0 MRshow
1.000 UL
LTb
0.00 0.00 0.63 C 8395 288 333 90 80 45 0 PatternFill
8395 288 N
333 0 V
0 90 V
-333 0 V
0 -90 V
Z stroke
1.000 UL
LTb
0.00 0.00 0.63 C 1283 1280 152 887 80 45 0 PatternFill
1359 1178 M
0 102 V
0 887 R
0 833 V
stroke
1283 1280 N
152 0 V
0 887 V
-152 0 V
0 -887 V
Z stroke
1283 3000 M
152 0 V
1283 1178 M
152 0 V
stroke
2042 1261 152 945 80 45 0 PatternFill
2118 1179 M
0 82 V
0 945 R
0 797 V
stroke
2042 1261 N
152 0 V
0 945 V
-152 0 V
0 -945 V
Z stroke
2042 3003 M
152 0 V
2042 1179 M
152 0 V
stroke
2801 1267 152 987 80 45 0 PatternFill
2877 1183 M
0 84 V
0 987 R
0 867 V
stroke
2801 1267 N
152 0 V
0 987 V
-152 0 V
0 -987 V
Z stroke
2801 3121 M
152 0 V
2801 1183 M
152 0 V
stroke
3560 1243 152 824 80 45 0 PatternFill
3636 1175 M
0 68 V
0 824 R
0 864 V
stroke
3560 1243 N
152 0 V
0 824 V
-152 0 V
0 -824 V
Z stroke
3560 2931 M
152 0 V
3560 1175 M
152 0 V
stroke
4318 1253 152 813 80 45 0 PatternFill
4394 1179 M
0 74 V
0 813 R
0 853 V
stroke
4318 1253 N
152 0 V
0 813 V
-152 0 V
0 -813 V
Z stroke
4318 2919 M
152 0 V
4318 1179 M
152 0 V
stroke
5077 1254 152 887 80 45 0 PatternFill
5153 1177 M
0 77 V
0 887 R
0 802 V
stroke
5077 1254 N
152 0 V
0 887 V
-152 0 V
0 -887 V
Z stroke
5077 2943 M
152 0 V
5077 1177 M
152 0 V
stroke
5836 1276 152 892 80 45 0 PatternFill
5912 1187 M
0 89 V
0 892 R
0 919 V
stroke
5836 1276 N
152 0 V
0 892 V
-152 0 V
0 -892 V
Z stroke
5836 3087 M
152 0 V
5836 1187 M
152 0 V
stroke
6594 1266 152 933 80 45 0 PatternFill
6670 1180 M
0 86 V
0 933 R
0 816 V
stroke
6594 1266 N
152 0 V
0 933 V
-152 0 V
0 -933 V
Z stroke
6594 3015 M
152 0 V
6594 1180 M
152 0 V
stroke
7353 1268 152 923 80 45 0 PatternFill
7429 1185 M
0 83 V
0 923 R
0 828 V
stroke
7353 1268 N
152 0 V
0 923 V
-152 0 V
0 -923 V
Z stroke
7353 3019 M
152 0 V
7353 1185 M
152 0 V
stroke
8112 1279 152 889 80 45 0 PatternFill
8188 1186 M
0 93 V
0 889 R
0 811 V
stroke
8112 1279 N
152 0 V
0 889 V
-152 0 V
0 -889 V
Z stroke
8112 2979 M
152 0 V
8112 1186 M
152 0 V
stroke
8870 1250 152 862 80 45 0 PatternFill
8946 1178 M
0 72 V
0 862 R
0 808 V
stroke
8870 1250 N
152 0 V
0 862 V
-152 0 V
0 -862 V
Z stroke
8870 2920 M
152 0 V
8870 1178 M
152 0 V
stroke
9629 1260 152 841 80 45 0 PatternFill
9705 1183 M
0 77 V
0 841 R
0 874 V
stroke
9629 1260 N
152 0 V
0 841 V
-152 0 V
0 -841 V
Z stroke
9629 2975 M
152 0 V
9629 1183 M
152 0 V
stroke
10388 1259 152 745 80 45 0 PatternFill
10464 1180 M
0 79 V
0 745 R
0 836 V
stroke
10388 1259 N
152 0 V
0 745 V
-152 0 V
0 -745 V
Z stroke
10388 2840 M
152 0 V
10388 1180 M
152 0 V
stroke
11146 1250 152 756 80 45 0 PatternFill
11222 1181 M
0 69 V
0 756 R
0 805 V
stroke
11146 1250 N
152 0 V
0 756 V
-152 0 V
0 -756 V
Z stroke
11146 2811 M
152 0 V
11146 1181 M
152 0 V
stroke
11905 1271 152 730 80 45 0 PatternFill
11981 1185 M
0 86 V
0 730 R
0 900 V
stroke
11905 1271 N
152 0 V
0 730 V
-152 0 V
0 -730 V
Z stroke
11905 2901 M
152 0 V
11905 1185 M
152 0 V
stroke
12664 1265 152 828 80 45 0 PatternFill
12740 1188 M
0 77 V
0 828 R
0 886 V
stroke
12664 1265 N
152 0 V
0 828 V
-152 0 V
0 -828 V
Z stroke
12664 2979 M
152 0 V
12664 1188 M
152 0 V
% End plot #4
% Begin plot #5
stroke
LTb
LCb setrgbcolor

 /TransparentPatterns true def
1283 1747 152 0 80 -45 0 PatternFill
1359 1747 M
stroke
1283 1747 N
152 0 V
-152 0 V
Z stroke
1283 1747 M
152 0 V
-152 0 R
152 0 V
stroke

 /TransparentPatterns true def
2042 1752 152 0 80 -45 0 PatternFill
2118 1752 M
stroke
2042 1752 N
152 0 V
-152 0 V
Z stroke
2042 1752 M
152 0 V
-152 0 R
152 0 V
stroke

 /TransparentPatterns true def
2801 1775 152 0 80 -45 0 PatternFill
2877 1775 M
stroke
2801 1775 N
152 0 V
-152 0 V
Z stroke
2801 1775 M
152 0 V
-152 0 R
152 0 V
stroke

 /TransparentPatterns true def
3560 1664 152 0 80 -45 0 PatternFill
3636 1664 M
stroke
3560 1664 N
152 0 V
-152 0 V
Z stroke
3560 1664 M
152 0 V
-152 0 R
152 0 V
stroke

 /TransparentPatterns true def
4318 1695 152 0 80 -45 0 PatternFill
4394 1695 M
stroke
4318 1695 N
152 0 V
-152 0 V
Z stroke
4318 1695 M
152 0 V
-152 0 R
152 0 V
stroke

 /TransparentPatterns true def
5077 1698 152 0 80 -45 0 PatternFill
5153 1698 M
stroke
5077 1698 N
152 0 V
-152 0 V
Z stroke
5077 1698 M
152 0 V
-152 0 R
152 0 V
stroke

 /TransparentPatterns true def
5836 1758 152 0 80 -45 0 PatternFill
5912 1758 M
stroke
5836 1758 N
152 0 V
-152 0 V
Z stroke
5836 1758 M
152 0 V
-152 0 R
152 0 V
stroke

 /TransparentPatterns true def
6594 1751 152 0 80 -45 0 PatternFill
6670 1751 M
stroke
6594 1751 N
152 0 V
-152 0 V
Z stroke
6594 1751 M
152 0 V
-152 0 R
152 0 V
stroke

 /TransparentPatterns true def
7353 1731 152 0 80 -45 0 PatternFill
7429 1731 M
stroke
7353 1731 N
152 0 V
-152 0 V
Z stroke
7353 1731 M
152 0 V
-152 0 R
152 0 V
stroke

 /TransparentPatterns true def
8112 1765 152 0 80 -45 0 PatternFill
8188 1765 M
stroke
8112 1765 N
152 0 V
-152 0 V
Z stroke
8112 1765 M
152 0 V
-152 0 R
152 0 V
stroke

 /TransparentPatterns true def
8870 1687 152 0 80 -45 0 PatternFill
8946 1687 M
stroke
8870 1687 N
152 0 V
-152 0 V
Z stroke
8870 1687 M
152 0 V
-152 0 R
152 0 V
stroke

 /TransparentPatterns true def
9629 1699 152 0 80 -45 0 PatternFill
9705 1699 M
stroke
9629 1699 N
152 0 V
-152 0 V
Z stroke
9629 1699 M
152 0 V
-152 0 R
152 0 V
stroke

 /TransparentPatterns true def
10388 1665 152 0 80 -45 0 PatternFill
10464 1665 M
stroke
10388 1665 N
152 0 V
-152 0 V
Z stroke
10388 1665 M
152 0 V
-152 0 R
152 0 V
stroke

 /TransparentPatterns true def
11146 1648 152 0 80 -45 0 PatternFill
11222 1648 M
stroke
11146 1648 N
152 0 V
-152 0 V
Z stroke
11146 1648 M
152 0 V
-152 0 R
152 0 V
stroke

 /TransparentPatterns true def
11905 1672 152 0 80 -45 0 PatternFill
11981 1672 M
stroke
11905 1672 N
152 0 V
-152 0 V
Z stroke
11905 1672 M
152 0 V
-152 0 R
152 0 V
stroke

 /TransparentPatterns true def
12664 1701 152 0 80 -45 0 PatternFill
12740 1701 M
stroke
12664 1701 N
152 0 V
-152 0 V
Z stroke
12664 1701 M
152 0 V
-152 0 R
152 0 V
% End plot #5
% Begin plot #6
2.000 UP
stroke
LTa
0.00 0.00 0.63 C LCb setrgbcolor
8287 153 M
[ [(Arial) 180.0 0.0 true true 0 ( )]
] -60.0 MRshow
2.000 UP
1.000 UL
LTa
0.00 0.00 0.63 C 8395 153 M
333 0 V
980 4750 M
379 0 V
759 0 V
759 0 V
758 0 V
759 0 V
759 0 V
758 0 V
759 0 V
759 0 V
759 0 V
758 0 V
759 0 V
759 0 V
758 0 V
759 0 V
759 0 V
1359 4750 Circle
2118 4750 Circle
2877 4750 Circle
3635 4750 Circle
4394 4750 Circle
5153 4750 Circle
5911 4750 Circle
6670 4750 Circle
7429 4750 Circle
8188 4750 Circle
8946 4750 Circle
9705 4750 Circle
10464 4750 Circle
11222 4750 Circle
11981 4750 Circle
12740 4750 Circle
8561 153 Circle
% End plot #6
% Begin plot #7
1.000 UL
LTb
0.00 0.38 0.82 C LCb setrgbcolor
11860 333 M
[ [(Arial) 180.0 0.0 true true 0 (per-flow)]
] -60.0 MRshow
1.000 UL
LTb
0.00 0.38 0.82 C 11968 288 333 90 40 30 0 PatternFill
11968 288 N
333 0 V
0 90 V
-333 0 V
0 -90 V
Z stroke
1.000 UL
LTb
0.00 0.38 0.82 C 1473 1375 152 1751 40 30 0 PatternFill
1549 1231 M
0 144 V
0 1751 R
0 1467 V
stroke
1473 1375 N
152 0 V
0 1751 V
-152 0 V
0 -1751 V
Z stroke
1473 4593 M
152 0 V
1473 1231 M
152 0 V
stroke
2232 1356 152 1688 40 30 0 PatternFill
2308 1219 M
0 137 V
0 1688 R
0 1559 V
stroke
2232 1356 N
152 0 V
0 1688 V
-152 0 V
0 -1688 V
Z stroke
2232 4603 M
152 0 V
2232 1219 M
152 0 V
stroke
2991 1407 152 1682 40 30 0 PatternFill
3067 1239 M
0 168 V
0 1682 R
0 1438 V
stroke
2991 1407 N
152 0 V
0 1682 V
-152 0 V
0 -1682 V
Z stroke
2991 4527 M
152 0 V
2991 1239 M
152 0 V
stroke
3749 1388 152 1661 40 30 0 PatternFill
3825 1240 M
0 148 V
0 1661 R
0 1400 V
stroke
3749 1388 N
152 0 V
0 1661 V
-152 0 V
0 -1661 V
Z stroke
3749 4449 M
152 0 V
3749 1240 M
152 0 V
stroke
4508 1333 152 1426 40 30 0 PatternFill
4584 1209 M
0 124 V
0 1426 R
0 1254 V
stroke
4508 1333 N
152 0 V
0 1426 V
-152 0 V
0 -1426 V
Z stroke
4508 4013 M
152 0 V
4508 1209 M
152 0 V
stroke
5267 1343 152 1529 40 30 0 PatternFill
5343 1219 M
0 124 V
0 1529 R
0 1285 V
stroke
5267 1343 N
152 0 V
0 1529 V
-152 0 V
0 -1529 V
Z stroke
5267 4157 M
152 0 V
5267 1219 M
152 0 V
stroke
6025 1401 152 1752 40 30 0 PatternFill
6101 1235 M
0 166 V
0 1752 R
0 1517 V
stroke
6025 1401 N
152 0 V
0 1752 V
-152 0 V
0 -1752 V
Z stroke
6025 4670 M
152 0 V
6025 1235 M
152 0 V
stroke
6784 1342 152 1485 40 30 0 PatternFill
6860 1215 M
0 127 V
0 1485 R
0 1245 V
stroke
6784 1342 N
152 0 V
0 1485 V
-152 0 V
0 -1485 V
Z stroke
6784 4072 M
152 0 V
6784 1215 M
152 0 V
stroke
7543 1400 152 1648 40 30 0 PatternFill
7619 1236 M
0 164 V
0 1648 R
0 1545 V
stroke
7543 1400 N
152 0 V
0 1648 V
-152 0 V
0 -1648 V
Z stroke
7543 4593 M
152 0 V
7543 1236 M
152 0 V
stroke
8301 1329 152 1430 40 30 0 PatternFill
8377 1217 M
0 112 V
0 1430 R
0 1548 V
stroke
8301 1329 N
152 0 V
0 1430 V
-152 0 V
0 -1430 V
Z stroke
8301 4307 M
152 0 V
8301 1217 M
152 0 V
stroke
9060 1362 152 1451 40 30 0 PatternFill
9136 1240 M
0 122 V
0 1451 R
0 1205 V
stroke
9060 1362 N
152 0 V
0 1451 V
-152 0 V
0 -1451 V
Z stroke
9060 4018 M
152 0 V
9060 1240 M
152 0 V
stroke
9819 1422 152 1580 40 30 0 PatternFill
9895 1245 M
0 177 V
0 1580 R
0 1375 V
stroke
9819 1422 N
152 0 V
0 1580 V
-152 0 V
0 -1580 V
Z stroke
9819 4377 M
152 0 V
9819 1245 M
152 0 V
stroke
10577 1383 152 1607 40 30 0 PatternFill
10653 1249 M
0 134 V
0 1607 R
0 1520 V
stroke
10577 1383 N
152 0 V
0 1607 V
-152 0 V
0 -1607 V
Z stroke
10577 4510 M
152 0 V
10577 1249 M
152 0 V
stroke
11336 1372 152 1417 40 30 0 PatternFill
11412 1244 M
0 128 V
0 1417 R
0 1243 V
stroke
11336 1372 N
152 0 V
0 1417 V
-152 0 V
0 -1417 V
Z stroke
11336 4032 M
152 0 V
11336 1244 M
152 0 V
stroke
12095 1385 152 1553 40 30 0 PatternFill
12171 1248 M
0 137 V
0 1553 R
0 1327 V
stroke
12095 1385 N
152 0 V
0 1553 V
-152 0 V
0 -1553 V
Z stroke
12095 4265 M
152 0 V
12095 1248 M
152 0 V
stroke
12853 1352 152 1348 40 30 0 PatternFill
12929 1238 M
0 114 V
0 1348 R
0 1402 V
stroke
12853 1352 N
152 0 V
0 1348 V
-152 0 V
0 -1348 V
Z stroke
12853 4102 M
152 0 V
12853 1238 M
152 0 V
% End plot #7
% Begin plot #8
stroke
LTb
LCb setrgbcolor

 /TransparentPatterns true def
1473 2271 152 0 40 -30 0 PatternFill
1549 2271 M
stroke
1473 2271 N
152 0 V
-152 0 V
Z stroke
1473 2271 M
152 0 V
-152 0 R
152 0 V
stroke

 /TransparentPatterns true def
2232 2249 152 0 40 -30 0 PatternFill
2308 2249 M
stroke
2232 2249 N
152 0 V
-152 0 V
Z stroke
2232 2249 M
152 0 V
-152 0 R
152 0 V
stroke

 /TransparentPatterns true def
2991 2276 152 0 40 -30 0 PatternFill
3067 2276 M
stroke
2991 2276 N
152 0 V
-152 0 V
Z stroke
2991 2276 M
152 0 V
-152 0 R
152 0 V
stroke

 /TransparentPatterns true def
3749 2235 152 0 40 -30 0 PatternFill
3825 2235 M
stroke
3749 2235 N
152 0 V
-152 0 V
Z stroke
3749 2235 M
152 0 V
-152 0 R
152 0 V
stroke

 /TransparentPatterns true def
4508 2062 152 0 40 -30 0 PatternFill
4584 2062 M
stroke
4508 2062 N
152 0 V
-152 0 V
Z stroke
4508 2062 M
152 0 V
-152 0 R
152 0 V
stroke

 /TransparentPatterns true def
5267 2121 152 0 40 -30 0 PatternFill
5343 2121 M
stroke
5267 2121 N
152 0 V
-152 0 V
Z stroke
5267 2121 M
152 0 V
-152 0 R
152 0 V
stroke

 /TransparentPatterns true def
6025 2311 152 0 40 -30 0 PatternFill
6101 2311 M
stroke
6025 2311 N
152 0 V
-152 0 V
Z stroke
6025 2311 M
152 0 V
-152 0 R
152 0 V
stroke

 /TransparentPatterns true def
6784 2090 152 0 40 -30 0 PatternFill
6860 2090 M
stroke
6784 2090 N
152 0 V
-152 0 V
Z stroke
6784 2090 M
152 0 V
-152 0 R
152 0 V
stroke

 /TransparentPatterns true def
7543 2270 152 0 40 -30 0 PatternFill
7619 2270 M
stroke
7543 2270 N
152 0 V
-152 0 V
Z stroke
7543 2270 M
152 0 V
-152 0 R
152 0 V
stroke

 /TransparentPatterns true def
8301 2095 152 0 40 -30 0 PatternFill
8377 2095 M
stroke
8301 2095 N
152 0 V
-152 0 V
Z stroke
8301 2095 M
152 0 V
-152 0 R
152 0 V
stroke

 /TransparentPatterns true def
9060 2104 152 0 40 -30 0 PatternFill
9136 2104 M
stroke
9060 2104 N
152 0 V
-152 0 V
Z stroke
9060 2104 M
152 0 V
-152 0 R
152 0 V
stroke

 /TransparentPatterns true def
9819 2246 152 0 40 -30 0 PatternFill
9895 2246 M
stroke
9819 2246 N
152 0 V
-152 0 V
Z stroke
9819 2246 M
152 0 V
-152 0 R
152 0 V
stroke

 /TransparentPatterns true def
10577 2233 152 0 40 -30 0 PatternFill
10653 2233 M
stroke
10577 2233 N
152 0 V
-152 0 V
Z stroke
10577 2233 M
152 0 V
-152 0 R
152 0 V
stroke

 /TransparentPatterns true def
11336 2104 152 0 40 -30 0 PatternFill
11412 2104 M
stroke
11336 2104 N
152 0 V
-152 0 V
Z stroke
11336 2104 M
152 0 V
-152 0 R
152 0 V
stroke

 /TransparentPatterns true def
12095 2186 152 0 40 -30 0 PatternFill
12171 2186 M
stroke
12095 2186 N
152 0 V
-152 0 V
Z stroke
12095 2186 M
152 0 V
-152 0 R
152 0 V
stroke

 /TransparentPatterns true def
12853 2085 152 0 40 -30 0 PatternFill
12929 2085 M
stroke
12853 2085 N
152 0 V
-152 0 V
Z stroke
12853 2085 M
152 0 V
-152 0 R
152 0 V
% End plot #8
% Begin plot #9
2.000 UP
stroke
LTa
0.00 0.38 0.82 C LCb setrgbcolor
11860 153 M
[ [(Arial) 180.0 0.0 true true 0 ( )]
] -60.0 MRshow
2.000 UP
1.000 UL
LTa
0.00 0.38 0.82 C 11968 153 M
333 0 V
980 4750 M
569 0 V
759 0 V
758 0 V
759 0 V
759 0 V
758 0 V
759 0 V
759 0 V
759 0 V
758 0 V
759 0 V
759 0 V
758 0 V
759 0 V
759 0 V
758 0 V
1549 4750 TriU
2308 4750 TriU
3066 4750 TriU
3825 4750 TriU
4584 4750 TriU
5342 4750 TriU
6101 4750 TriU
6860 4750 TriU
7619 4750 TriU
8377 4750 TriU
9136 4750 TriU
9895 4750 TriU
10653 4750 TriU
11412 4750 TriU
12171 4750 TriU
12929 4750 TriU
12134 153 TriU
% End plot #9
2.000 UL
LTb
LCb setrgbcolor
1.000 UP
1.000 UL
LTb
0.00 0.00 0.00 C stroke
grestore
end
showpage
%%Trailer
%%DocumentFonts: Arial
