%!PS-Adobe-2.0 EPSF-2.0
%%Title: TcpVegas-download-rtt-75UE-90-240.eps
%%Creator: gnuplot 5.0 patchlevel 3
%%CreationDate: Thu Jun  2 10:39:41 2016
%%DocumentFonts: (atend)
%%BoundingBox: 50 50 770 302
%%EndComments
%%BeginProlog
/gnudict 256 dict def
gnudict begin
%
% The following true/false flags may be edited by hand if desired.
% The unit line width and grayscale image gamma correction may also be changed.
%
/Color true def
/Blacktext false def
/Solid false def
/Dashlength 3 def
/Landscape false def
/Level1 false def
/Level3 false def
/Rounded false def
/ClipToBoundingBox false def
/SuppressPDFMark false def
/TransparentPatterns false def
/gnulinewidth 15.000 def
/userlinewidth gnulinewidth def
/Gamma 1.0 def
/BackgroundColor {-1.000 -1.000 -1.000} def
%
/vshift -66 def
/dl1 {
  10.0 Dashlength userlinewidth gnulinewidth div mul mul mul
  Rounded { currentlinewidth 0.75 mul sub dup 0 le { pop 0.01 } if } if
} def
/dl2 {
  10.0 Dashlength userlinewidth gnulinewidth div mul mul mul
  Rounded { currentlinewidth 0.75 mul add } if
} def
/hpt_ 31.5 def
/vpt_ 31.5 def
/hpt hpt_ def
/vpt vpt_ def
/doclip {
  ClipToBoundingBox {
    newpath 50 50 moveto 770 50 lineto 770 302 lineto 50 302 lineto closepath
    clip
  } if
} def
%
% Gnuplot Prolog Version 5.1 (Oct 2015)
%
%/SuppressPDFMark true def
%
/M {moveto} bind def
/L {lineto} bind def
/R {rmoveto} bind def
/V {rlineto} bind def
/N {newpath moveto} bind def
/Z {closepath} bind def
/C {setrgbcolor} bind def
/f {rlineto fill} bind def
/g {setgray} bind def
/Gshow {show} def   % May be redefined later in the file to support UTF-8
/vpt2 vpt 2 mul def
/hpt2 hpt 2 mul def
/Lshow {currentpoint stroke M 0 vshift R 
	Blacktext {gsave 0 setgray textshow grestore} {textshow} ifelse} def
/Rshow {currentpoint stroke M dup stringwidth pop neg vshift R
	Blacktext {gsave 0 setgray textshow grestore} {textshow} ifelse} def
/Cshow {currentpoint stroke M dup stringwidth pop -2 div vshift R 
	Blacktext {gsave 0 setgray textshow grestore} {textshow} ifelse} def
/UP {dup vpt_ mul /vpt exch def hpt_ mul /hpt exch def
  /hpt2 hpt 2 mul def /vpt2 vpt 2 mul def} def
/DL {Color {setrgbcolor Solid {pop []} if 0 setdash}
 {pop pop pop 0 setgray Solid {pop []} if 0 setdash} ifelse} def
/BL {stroke userlinewidth 2 mul setlinewidth
	Rounded {1 setlinejoin 1 setlinecap} if} def
/AL {stroke userlinewidth 2 div setlinewidth
	Rounded {1 setlinejoin 1 setlinecap} if} def
/UL {dup gnulinewidth mul /userlinewidth exch def
	dup 1 lt {pop 1} if 10 mul /udl exch def} def
/PL {stroke userlinewidth setlinewidth
	Rounded {1 setlinejoin 1 setlinecap} if} def
3.8 setmiterlimit
% Classic Line colors (version 5.0)
/LCw {1 1 1} def
/LCb {0 0 0} def
/LCa {0 0 0} def
/LC0 {1 0 0} def
/LC1 {0 1 0} def
/LC2 {0 0 1} def
/LC3 {1 0 1} def
/LC4 {0 1 1} def
/LC5 {1 1 0} def
/LC6 {0 0 0} def
/LC7 {1 0.3 0} def
/LC8 {0.5 0.5 0.5} def
% Default dash patterns (version 5.0)
/LTB {BL [] LCb DL} def
/LTw {PL [] 1 setgray} def
/LTb {PL [] LCb DL} def
/LTa {AL [1 udl mul 2 udl mul] 0 setdash LCa setrgbcolor} def
/LT0 {PL [] LC0 DL} def
/LT1 {PL [2 dl1 3 dl2] LC1 DL} def
/LT2 {PL [1 dl1 1.5 dl2] LC2 DL} def
/LT3 {PL [6 dl1 2 dl2 1 dl1 2 dl2] LC3 DL} def
/LT4 {PL [1 dl1 2 dl2 6 dl1 2 dl2 1 dl1 2 dl2] LC4 DL} def
/LT5 {PL [4 dl1 2 dl2] LC5 DL} def
/LT6 {PL [1.5 dl1 1.5 dl2 1.5 dl1 1.5 dl2 1.5 dl1 6 dl2] LC6 DL} def
/LT7 {PL [3 dl1 3 dl2 1 dl1 3 dl2] LC7 DL} def
/LT8 {PL [2 dl1 2 dl2 2 dl1 6 dl2] LC8 DL} def
/SL {[] 0 setdash} def
/Pnt {stroke [] 0 setdash gsave 1 setlinecap M 0 0 V stroke grestore} def
/Dia {stroke [] 0 setdash 2 copy vpt add M
  hpt neg vpt neg V hpt vpt neg V
  hpt vpt V hpt neg vpt V closepath stroke
  Pnt} def
/Pls {stroke [] 0 setdash vpt sub M 0 vpt2 V
  currentpoint stroke M
  hpt neg vpt neg R hpt2 0 V stroke
 } def
/Box {stroke [] 0 setdash 2 copy exch hpt sub exch vpt add M
  0 vpt2 neg V hpt2 0 V 0 vpt2 V
  hpt2 neg 0 V closepath stroke
  Pnt} def
/Crs {stroke [] 0 setdash exch hpt sub exch vpt add M
  hpt2 vpt2 neg V currentpoint stroke M
  hpt2 neg 0 R hpt2 vpt2 V stroke} def
/TriU {stroke [] 0 setdash 2 copy vpt 1.12 mul add M
  hpt neg vpt -1.62 mul V
  hpt 2 mul 0 V
  hpt neg vpt 1.62 mul V closepath stroke
  Pnt} def
/Star {2 copy Pls Crs} def
/BoxF {stroke [] 0 setdash exch hpt sub exch vpt add M
  0 vpt2 neg V hpt2 0 V 0 vpt2 V
  hpt2 neg 0 V closepath fill} def
/TriUF {stroke [] 0 setdash vpt 1.12 mul add M
  hpt neg vpt -1.62 mul V
  hpt 2 mul 0 V
  hpt neg vpt 1.62 mul V closepath fill} def
/TriD {stroke [] 0 setdash 2 copy vpt 1.12 mul sub M
  hpt neg vpt 1.62 mul V
  hpt 2 mul 0 V
  hpt neg vpt -1.62 mul V closepath stroke
  Pnt} def
/TriDF {stroke [] 0 setdash vpt 1.12 mul sub M
  hpt neg vpt 1.62 mul V
  hpt 2 mul 0 V
  hpt neg vpt -1.62 mul V closepath fill} def
/DiaF {stroke [] 0 setdash vpt add M
  hpt neg vpt neg V hpt vpt neg V
  hpt vpt V hpt neg vpt V closepath fill} def
/Pent {stroke [] 0 setdash 2 copy gsave
  translate 0 hpt M 4 {72 rotate 0 hpt L} repeat
  closepath stroke grestore Pnt} def
/PentF {stroke [] 0 setdash gsave
  translate 0 hpt M 4 {72 rotate 0 hpt L} repeat
  closepath fill grestore} def
/Circle {stroke [] 0 setdash 2 copy
  hpt 0 360 arc stroke Pnt} def
/CircleF {stroke [] 0 setdash hpt 0 360 arc fill} def
/C0 {BL [] 0 setdash 2 copy moveto vpt 90 450 arc} bind def
/C1 {BL [] 0 setdash 2 copy moveto
	2 copy vpt 0 90 arc closepath fill
	vpt 0 360 arc closepath} bind def
/C2 {BL [] 0 setdash 2 copy moveto
	2 copy vpt 90 180 arc closepath fill
	vpt 0 360 arc closepath} bind def
/C3 {BL [] 0 setdash 2 copy moveto
	2 copy vpt 0 180 arc closepath fill
	vpt 0 360 arc closepath} bind def
/C4 {BL [] 0 setdash 2 copy moveto
	2 copy vpt 180 270 arc closepath fill
	vpt 0 360 arc closepath} bind def
/C5 {BL [] 0 setdash 2 copy moveto
	2 copy vpt 0 90 arc
	2 copy moveto
	2 copy vpt 180 270 arc closepath fill
	vpt 0 360 arc} bind def
/C6 {BL [] 0 setdash 2 copy moveto
	2 copy vpt 90 270 arc closepath fill
	vpt 0 360 arc closepath} bind def
/C7 {BL [] 0 setdash 2 copy moveto
	2 copy vpt 0 270 arc closepath fill
	vpt 0 360 arc closepath} bind def
/C8 {BL [] 0 setdash 2 copy moveto
	2 copy vpt 270 360 arc closepath fill
	vpt 0 360 arc closepath} bind def
/C9 {BL [] 0 setdash 2 copy moveto
	2 copy vpt 270 450 arc closepath fill
	vpt 0 360 arc closepath} bind def
/C10 {BL [] 0 setdash 2 copy 2 copy moveto vpt 270 360 arc closepath fill
	2 copy moveto
	2 copy vpt 90 180 arc closepath fill
	vpt 0 360 arc closepath} bind def
/C11 {BL [] 0 setdash 2 copy moveto
	2 copy vpt 0 180 arc closepath fill
	2 copy moveto
	2 copy vpt 270 360 arc closepath fill
	vpt 0 360 arc closepath} bind def
/C12 {BL [] 0 setdash 2 copy moveto
	2 copy vpt 180 360 arc closepath fill
	vpt 0 360 arc closepath} bind def
/C13 {BL [] 0 setdash 2 copy moveto
	2 copy vpt 0 90 arc closepath fill
	2 copy moveto
	2 copy vpt 180 360 arc closepath fill
	vpt 0 360 arc closepath} bind def
/C14 {BL [] 0 setdash 2 copy moveto
	2 copy vpt 90 360 arc closepath fill
	vpt 0 360 arc} bind def
/C15 {BL [] 0 setdash 2 copy vpt 0 360 arc closepath fill
	vpt 0 360 arc closepath} bind def
/Rec {newpath 4 2 roll moveto 1 index 0 rlineto 0 exch rlineto
	neg 0 rlineto closepath} bind def
/Square {dup Rec} bind def
/Bsquare {vpt sub exch vpt sub exch vpt2 Square} bind def
/S0 {BL [] 0 setdash 2 copy moveto 0 vpt rlineto BL Bsquare} bind def
/S1 {BL [] 0 setdash 2 copy vpt Square fill Bsquare} bind def
/S2 {BL [] 0 setdash 2 copy exch vpt sub exch vpt Square fill Bsquare} bind def
/S3 {BL [] 0 setdash 2 copy exch vpt sub exch vpt2 vpt Rec fill Bsquare} bind def
/S4 {BL [] 0 setdash 2 copy exch vpt sub exch vpt sub vpt Square fill Bsquare} bind def
/S5 {BL [] 0 setdash 2 copy 2 copy vpt Square fill
	exch vpt sub exch vpt sub vpt Square fill Bsquare} bind def
/S6 {BL [] 0 setdash 2 copy exch vpt sub exch vpt sub vpt vpt2 Rec fill Bsquare} bind def
/S7 {BL [] 0 setdash 2 copy exch vpt sub exch vpt sub vpt vpt2 Rec fill
	2 copy vpt Square fill Bsquare} bind def
/S8 {BL [] 0 setdash 2 copy vpt sub vpt Square fill Bsquare} bind def
/S9 {BL [] 0 setdash 2 copy vpt sub vpt vpt2 Rec fill Bsquare} bind def
/S10 {BL [] 0 setdash 2 copy vpt sub vpt Square fill 2 copy exch vpt sub exch vpt Square fill
	Bsquare} bind def
/S11 {BL [] 0 setdash 2 copy vpt sub vpt Square fill 2 copy exch vpt sub exch vpt2 vpt Rec fill
	Bsquare} bind def
/S12 {BL [] 0 setdash 2 copy exch vpt sub exch vpt sub vpt2 vpt Rec fill Bsquare} bind def
/S13 {BL [] 0 setdash 2 copy exch vpt sub exch vpt sub vpt2 vpt Rec fill
	2 copy vpt Square fill Bsquare} bind def
/S14 {BL [] 0 setdash 2 copy exch vpt sub exch vpt sub vpt2 vpt Rec fill
	2 copy exch vpt sub exch vpt Square fill Bsquare} bind def
/S15 {BL [] 0 setdash 2 copy Bsquare fill Bsquare} bind def
/D0 {gsave translate 45 rotate 0 0 S0 stroke grestore} bind def
/D1 {gsave translate 45 rotate 0 0 S1 stroke grestore} bind def
/D2 {gsave translate 45 rotate 0 0 S2 stroke grestore} bind def
/D3 {gsave translate 45 rotate 0 0 S3 stroke grestore} bind def
/D4 {gsave translate 45 rotate 0 0 S4 stroke grestore} bind def
/D5 {gsave translate 45 rotate 0 0 S5 stroke grestore} bind def
/D6 {gsave translate 45 rotate 0 0 S6 stroke grestore} bind def
/D7 {gsave translate 45 rotate 0 0 S7 stroke grestore} bind def
/D8 {gsave translate 45 rotate 0 0 S8 stroke grestore} bind def
/D9 {gsave translate 45 rotate 0 0 S9 stroke grestore} bind def
/D10 {gsave translate 45 rotate 0 0 S10 stroke grestore} bind def
/D11 {gsave translate 45 rotate 0 0 S11 stroke grestore} bind def
/D12 {gsave translate 45 rotate 0 0 S12 stroke grestore} bind def
/D13 {gsave translate 45 rotate 0 0 S13 stroke grestore} bind def
/D14 {gsave translate 45 rotate 0 0 S14 stroke grestore} bind def
/D15 {gsave translate 45 rotate 0 0 S15 stroke grestore} bind def
/DiaE {stroke [] 0 setdash vpt add M
  hpt neg vpt neg V hpt vpt neg V
  hpt vpt V hpt neg vpt V closepath stroke} def
/BoxE {stroke [] 0 setdash exch hpt sub exch vpt add M
  0 vpt2 neg V hpt2 0 V 0 vpt2 V
  hpt2 neg 0 V closepath stroke} def
/TriUE {stroke [] 0 setdash vpt 1.12 mul add M
  hpt neg vpt -1.62 mul V
  hpt 2 mul 0 V
  hpt neg vpt 1.62 mul V closepath stroke} def
/TriDE {stroke [] 0 setdash vpt 1.12 mul sub M
  hpt neg vpt 1.62 mul V
  hpt 2 mul 0 V
  hpt neg vpt -1.62 mul V closepath stroke} def
/PentE {stroke [] 0 setdash gsave
  translate 0 hpt M 4 {72 rotate 0 hpt L} repeat
  closepath stroke grestore} def
/CircE {stroke [] 0 setdash 
  hpt 0 360 arc stroke} def
/Opaque {gsave closepath 1 setgray fill grestore 0 setgray closepath} def
/DiaW {stroke [] 0 setdash vpt add M
  hpt neg vpt neg V hpt vpt neg V
  hpt vpt V hpt neg vpt V Opaque stroke} def
/BoxW {stroke [] 0 setdash exch hpt sub exch vpt add M
  0 vpt2 neg V hpt2 0 V 0 vpt2 V
  hpt2 neg 0 V Opaque stroke} def
/TriUW {stroke [] 0 setdash vpt 1.12 mul add M
  hpt neg vpt -1.62 mul V
  hpt 2 mul 0 V
  hpt neg vpt 1.62 mul V Opaque stroke} def
/TriDW {stroke [] 0 setdash vpt 1.12 mul sub M
  hpt neg vpt 1.62 mul V
  hpt 2 mul 0 V
  hpt neg vpt -1.62 mul V Opaque stroke} def
/PentW {stroke [] 0 setdash gsave
  translate 0 hpt M 4 {72 rotate 0 hpt L} repeat
  Opaque stroke grestore} def
/CircW {stroke [] 0 setdash 
  hpt 0 360 arc Opaque stroke} def
/BoxFill {gsave Rec 1 setgray fill grestore} def
/Density {
  /Fillden exch def
  currentrgbcolor
  /ColB exch def /ColG exch def /ColR exch def
  /ColR ColR Fillden mul Fillden sub 1 add def
  /ColG ColG Fillden mul Fillden sub 1 add def
  /ColB ColB Fillden mul Fillden sub 1 add def
  ColR ColG ColB setrgbcolor} def
/BoxColFill {gsave Rec PolyFill} def
/PolyFill {gsave Density fill grestore grestore} def
/h {rlineto rlineto rlineto gsave closepath fill grestore} bind def
%
% PostScript Level 1 Pattern Fill routine for rectangles
% Usage: x y w h s a XX PatternFill
%	x,y = lower left corner of box to be filled
%	w,h = width and height of box
%	  a = angle in degrees between lines and x-axis
%	 XX = 0/1 for no/yes cross-hatch
%
/PatternFill {gsave /PFa [ 9 2 roll ] def
  PFa 0 get PFa 2 get 2 div add PFa 1 get PFa 3 get 2 div add translate
  PFa 2 get -2 div PFa 3 get -2 div PFa 2 get PFa 3 get Rec
  TransparentPatterns {} {gsave 1 setgray fill grestore} ifelse
  clip
  currentlinewidth 0.5 mul setlinewidth
  /PFs PFa 2 get dup mul PFa 3 get dup mul add sqrt def
  0 0 M PFa 5 get rotate PFs -2 div dup translate
  0 1 PFs PFa 4 get div 1 add floor cvi
	{PFa 4 get mul 0 M 0 PFs V} for
  0 PFa 6 get ne {
	0 1 PFs PFa 4 get div 1 add floor cvi
	{PFa 4 get mul 0 2 1 roll M PFs 0 V} for
 } if
  stroke grestore} def
%
/languagelevel where
 {pop languagelevel} {1} ifelse
dup 2 lt
	{/InterpretLevel1 true def
	 /InterpretLevel3 false def}
	{/InterpretLevel1 Level1 def
	 2 gt
	    {/InterpretLevel3 Level3 def}
	    {/InterpretLevel3 false def}
	 ifelse }
 ifelse
%
% PostScript level 2 pattern fill definitions
%
/Level2PatternFill {
/Tile8x8 {/PaintType 2 /PatternType 1 /TilingType 1 /BBox [0 0 8 8] /XStep 8 /YStep 8}
	bind def
/KeepColor {currentrgbcolor [/Pattern /DeviceRGB] setcolorspace} bind def
<< Tile8x8
 /PaintProc {0.5 setlinewidth pop 0 0 M 8 8 L 0 8 M 8 0 L stroke} 
>> matrix makepattern
/Pat1 exch def
<< Tile8x8
 /PaintProc {0.5 setlinewidth pop 0 0 M 8 8 L 0 8 M 8 0 L stroke
	0 4 M 4 8 L 8 4 L 4 0 L 0 4 L stroke}
>> matrix makepattern
/Pat2 exch def
<< Tile8x8
 /PaintProc {0.5 setlinewidth pop 0 0 M 0 8 L
	8 8 L 8 0 L 0 0 L fill}
>> matrix makepattern
/Pat3 exch def
<< Tile8x8
 /PaintProc {0.5 setlinewidth pop -4 8 M 8 -4 L
	0 12 M 12 0 L stroke}
>> matrix makepattern
/Pat4 exch def
<< Tile8x8
 /PaintProc {0.5 setlinewidth pop -4 0 M 8 12 L
	0 -4 M 12 8 L stroke}
>> matrix makepattern
/Pat5 exch def
<< Tile8x8
 /PaintProc {0.5 setlinewidth pop -2 8 M 4 -4 L
	0 12 M 8 -4 L 4 12 M 10 0 L stroke}
>> matrix makepattern
/Pat6 exch def
<< Tile8x8
 /PaintProc {0.5 setlinewidth pop -2 0 M 4 12 L
	0 -4 M 8 12 L 4 -4 M 10 8 L stroke}
>> matrix makepattern
/Pat7 exch def
<< Tile8x8
 /PaintProc {0.5 setlinewidth pop 8 -2 M -4 4 L
	12 0 M -4 8 L 12 4 M 0 10 L stroke}
>> matrix makepattern
/Pat8 exch def
<< Tile8x8
 /PaintProc {0.5 setlinewidth pop 0 -2 M 12 4 L
	-4 0 M 12 8 L -4 4 M 8 10 L stroke}
>> matrix makepattern
/Pat9 exch def
/Pattern1 {PatternBgnd KeepColor Pat1 setpattern} bind def
/Pattern2 {PatternBgnd KeepColor Pat2 setpattern} bind def
/Pattern3 {PatternBgnd KeepColor Pat3 setpattern} bind def
/Pattern4 {PatternBgnd KeepColor Landscape {Pat5} {Pat4} ifelse setpattern} bind def
/Pattern5 {PatternBgnd KeepColor Landscape {Pat4} {Pat5} ifelse setpattern} bind def
/Pattern6 {PatternBgnd KeepColor Landscape {Pat9} {Pat6} ifelse setpattern} bind def
/Pattern7 {PatternBgnd KeepColor Landscape {Pat8} {Pat7} ifelse setpattern} bind def
} def
%
%
%End of PostScript Level 2 code
%
/PatternBgnd {
  TransparentPatterns {} {gsave 1 setgray fill grestore} ifelse
} def
%
% Substitute for Level 2 pattern fill codes with
% grayscale if Level 2 support is not selected.
%
/Level1PatternFill {
/Pattern1 {0.250 Density} bind def
/Pattern2 {0.500 Density} bind def
/Pattern3 {0.750 Density} bind def
/Pattern4 {0.125 Density} bind def
/Pattern5 {0.375 Density} bind def
/Pattern6 {0.625 Density} bind def
/Pattern7 {0.875 Density} bind def
} def
%
% Now test for support of Level 2 code
%
Level1 {Level1PatternFill} {Level2PatternFill} ifelse
%
/Symbol-Oblique /Symbol findfont [1 0 .167 1 0 0] makefont
dup length dict begin {1 index /FID eq {pop pop} {def} ifelse} forall
currentdict end definefont pop
%
/MFshow {
   { dup 5 get 3 ge
     { 5 get 3 eq {gsave} {grestore} ifelse }
     {dup dup 0 get findfont exch 1 get scalefont setfont
     [ currentpoint ] exch dup 2 get 0 exch R dup 5 get 2 ne {dup dup 6
     get exch 4 get {textshow} {stringwidth pop 0 R} ifelse }if dup 5 get 0 eq
     {dup 3 get {2 get neg 0 exch R pop} {pop aload pop M} ifelse} {dup 5
     get 1 eq {dup 2 get exch dup 3 get exch 6 get stringwidth pop -2 div
     dup 0 R} {dup 6 get stringwidth pop -2 div 0 R 6 get
     textshow 2 index {aload pop M neg 3 -1 roll neg R pop pop} {pop pop pop
     pop aload pop M} ifelse }ifelse }ifelse }
     ifelse }
   forall} def
/Gswidth {dup type /stringtype eq {stringwidth} {pop (n) stringwidth} ifelse} def
/MFwidth {0 exch { dup 5 get 3 ge { 5 get 3 eq { 0 } { pop } ifelse }
 {dup 3 get{dup dup 0 get findfont exch 1 get scalefont setfont
     6 get Gswidth pop add} {pop} ifelse} ifelse} forall} def
/MLshow { currentpoint stroke M
  0 exch R
  Blacktext {gsave 0 setgray MFshow grestore} {MFshow} ifelse } bind def
/MRshow { currentpoint stroke M
  exch dup MFwidth neg 3 -1 roll R
  Blacktext {gsave 0 setgray MFshow grestore} {MFshow} ifelse } bind def
/MCshow { currentpoint stroke M
  exch dup MFwidth -2 div 3 -1 roll R
  Blacktext {gsave 0 setgray MFshow grestore} {MFshow} ifelse } bind def
/XYsave    { [( ) 1 2 true false 3 ()] } bind def
/XYrestore { [( ) 1 2 true false 4 ()] } bind def
Level1 SuppressPDFMark or 
{} {
/SDict 10 dict def
systemdict /pdfmark known not {
  userdict /pdfmark systemdict /cleartomark get put
} if
SDict begin [
  /Title (TcpVegas-download-rtt-75UE-90-240.eps)
  /Subject (gnuplot plot)
  /Creator (gnuplot 5.0 patchlevel 3)
  /Author (nat)
%  /Producer (gnuplot)
%  /Keywords ()
  /CreationDate (Thu Jun  2 10:39:41 2016)
  /DOCINFO pdfmark
end
} ifelse
%
% Support for boxed text - Ethan A Merritt May 2005
%
/InitTextBox { userdict /TBy2 3 -1 roll put userdict /TBx2 3 -1 roll put
           userdict /TBy1 3 -1 roll put userdict /TBx1 3 -1 roll put
	   /Boxing true def } def
/ExtendTextBox { Boxing
    { gsave dup false charpath pathbbox
      dup TBy2 gt {userdict /TBy2 3 -1 roll put} {pop} ifelse
      dup TBx2 gt {userdict /TBx2 3 -1 roll put} {pop} ifelse
      dup TBy1 lt {userdict /TBy1 3 -1 roll put} {pop} ifelse
      dup TBx1 lt {userdict /TBx1 3 -1 roll put} {pop} ifelse
      grestore } if } def
/PopTextBox { newpath TBx1 TBxmargin sub TBy1 TBymargin sub M
               TBx1 TBxmargin sub TBy2 TBymargin add L
	       TBx2 TBxmargin add TBy2 TBymargin add L
	       TBx2 TBxmargin add TBy1 TBymargin sub L closepath } def
/DrawTextBox { PopTextBox stroke /Boxing false def} def
/FillTextBox { gsave PopTextBox 1 1 1 setrgbcolor fill grestore /Boxing false def} def
0 0 0 0 InitTextBox
/TBxmargin 20 def
/TBymargin 20 def
/Boxing false def
/textshow { ExtendTextBox Gshow } def
%
% redundant definitions for compatibility with prologue.ps older than 5.0.2
/LTB {BL [] LCb DL} def
/LTb {PL [] LCb DL} def
end
%%EndProlog
%%Page: 1 1
gnudict begin
gsave
doclip
50 50 translate
0.050 0.050 scale
0 setgray
newpath
(Arial) findfont 200 scalefont setfont
BackgroundColor 0 lt 3 1 roll 0 lt exch 0 lt or or not {BackgroundColor C 1.000 0 0 14400.00 5040.00 BoxColFill} if
1.000 UL
LTb
0.00 0.00 0.00 C 0.500 UL
LTa
0.50 0.50 0.50 C 860 1000 M
12259 0 V
stroke
1.000 UL
LTb
0.00 0.00 0.00 C 860 1000 M
63 0 V
stroke
740 1000 M
[ [(Arial) 200.0 0.0 true true 0 ( 45)]
] -66.7 MRshow
1.000 UL
LTb
0.00 0.00 0.00 C 0.500 UL
LTa
0.50 0.50 0.50 C 860 1543 M
12259 0 V
stroke
1.000 UL
LTb
0.00 0.00 0.00 C 860 1543 M
63 0 V
stroke
740 1543 M
[ [(Arial) 200.0 0.0 true true 0 ( 50)]
] -66.7 MRshow
1.000 UL
LTb
0.00 0.00 0.00 C 0.500 UL
LTa
0.50 0.50 0.50 C 860 2085 M
12259 0 V
stroke
1.000 UL
LTb
0.00 0.00 0.00 C 860 2085 M
63 0 V
stroke
740 2085 M
[ [(Arial) 200.0 0.0 true true 0 ( 55)]
] -66.7 MRshow
1.000 UL
LTb
0.00 0.00 0.00 C 0.500 UL
LTa
0.50 0.50 0.50 C 860 2628 M
12259 0 V
stroke
1.000 UL
LTb
0.00 0.00 0.00 C 860 2628 M
63 0 V
stroke
740 2628 M
[ [(Arial) 200.0 0.0 true true 0 ( 60)]
] -66.7 MRshow
1.000 UL
LTb
0.00 0.00 0.00 C 0.500 UL
LTa
0.50 0.50 0.50 C 860 3171 M
12259 0 V
stroke
1.000 UL
LTb
0.00 0.00 0.00 C 860 3171 M
63 0 V
stroke
740 3171 M
[ [(Arial) 200.0 0.0 true true 0 ( 65)]
] -66.7 MRshow
1.000 UL
LTb
0.00 0.00 0.00 C 0.500 UL
LTa
0.50 0.50 0.50 C 860 3714 M
12259 0 V
stroke
1.000 UL
LTb
0.00 0.00 0.00 C 860 3714 M
63 0 V
stroke
740 3714 M
[ [(Arial) 200.0 0.0 true true 0 ( 70)]
] -66.7 MRshow
1.000 UL
LTb
0.00 0.00 0.00 C 0.500 UL
LTa
0.50 0.50 0.50 C 860 4256 M
12259 0 V
stroke
1.000 UL
LTb
0.00 0.00 0.00 C 860 4256 M
63 0 V
stroke
740 4256 M
[ [(Arial) 200.0 0.0 true true 0 ( 75)]
] -66.7 MRshow
1.000 UL
LTb
0.00 0.00 0.00 C 0.500 UL
LTa
0.50 0.50 0.50 C 860 4799 M
12259 0 V
stroke
1.000 UL
LTb
0.00 0.00 0.00 C 860 4799 M
63 0 V
stroke
740 4799 M
[ [(Arial) 200.0 0.0 true true 0 ( 80)]
] -66.7 MRshow
1.000 UL
LTb
0.00 0.00 0.00 C 0.500 UL
LTa
0.50 0.50 0.50 C 1243 1000 M
0 3799 V
stroke
1.000 UL
LTb
0.00 0.00 0.00 C 1243 1000 M
0 63 V
0 3736 R
0 -63 V
stroke
1243 800 M
[ [(Arial) 200.0 0.0 true true 0 ( 270)]
] -66.7 MCshow
1.000 UL
LTb
0.00 0.00 0.00 C 0.500 UL
LTa
0.50 0.50 0.50 C 2009 1000 M
0 3799 V
stroke
1.000 UL
LTb
0.00 0.00 0.00 C 2009 1000 M
0 63 V
0 3736 R
0 -63 V
stroke
2009 800 M
[ [(Arial) 200.0 0.0 true true 0 ( 300)]
] -66.7 MCshow
1.000 UL
LTb
0.00 0.00 0.00 C 0.500 UL
LTa
0.50 0.50 0.50 C 2775 1000 M
0 3799 V
stroke
1.000 UL
LTb
0.00 0.00 0.00 C 2775 1000 M
0 63 V
0 3736 R
0 -63 V
stroke
2775 800 M
[ [(Arial) 200.0 0.0 true true 0 ( 330)]
] -66.7 MCshow
1.000 UL
LTb
0.00 0.00 0.00 C 0.500 UL
LTa
0.50 0.50 0.50 C 3542 1000 M
0 3799 V
stroke
1.000 UL
LTb
0.00 0.00 0.00 C 3542 1000 M
0 63 V
0 3736 R
0 -63 V
stroke
3542 800 M
[ [(Arial) 200.0 0.0 true true 0 ( 360)]
] -66.7 MCshow
1.000 UL
LTb
0.00 0.00 0.00 C 0.500 UL
LTa
0.50 0.50 0.50 C 4308 1000 M
0 3799 V
stroke
1.000 UL
LTb
0.00 0.00 0.00 C 4308 1000 M
0 63 V
0 3736 R
0 -63 V
stroke
4308 800 M
[ [(Arial) 200.0 0.0 true true 0 ( 390)]
] -66.7 MCshow
1.000 UL
LTb
0.00 0.00 0.00 C 0.500 UL
LTa
0.50 0.50 0.50 C 5074 1000 M
0 3799 V
stroke
1.000 UL
LTb
0.00 0.00 0.00 C 5074 1000 M
0 63 V
0 3736 R
0 -63 V
stroke
5074 800 M
[ [(Arial) 200.0 0.0 true true 0 ( 420)]
] -66.7 MCshow
1.000 UL
LTb
0.00 0.00 0.00 C 0.500 UL
LTa
0.50 0.50 0.50 C 5840 1000 M
0 3799 V
stroke
1.000 UL
LTb
0.00 0.00 0.00 C 5840 1000 M
0 63 V
0 3736 R
0 -63 V
stroke
5840 800 M
[ [(Arial) 200.0 0.0 true true 0 ( 450)]
] -66.7 MCshow
1.000 UL
LTb
0.00 0.00 0.00 C 0.500 UL
LTa
0.50 0.50 0.50 C 6606 1000 M
0 3799 V
stroke
1.000 UL
LTb
0.00 0.00 0.00 C 6606 1000 M
0 63 V
0 3736 R
0 -63 V
stroke
6606 800 M
[ [(Arial) 200.0 0.0 true true 0 ( 480)]
] -66.7 MCshow
1.000 UL
LTb
0.00 0.00 0.00 C 0.500 UL
LTa
0.50 0.50 0.50 C 7373 1000 M
0 3799 V
stroke
1.000 UL
LTb
0.00 0.00 0.00 C 7373 1000 M
0 63 V
0 3736 R
0 -63 V
stroke
7373 800 M
[ [(Arial) 200.0 0.0 true true 0 ( 510)]
] -66.7 MCshow
1.000 UL
LTb
0.00 0.00 0.00 C 0.500 UL
LTa
0.50 0.50 0.50 C 8139 1000 M
0 3799 V
stroke
1.000 UL
LTb
0.00 0.00 0.00 C 8139 1000 M
0 63 V
0 3736 R
0 -63 V
stroke
8139 800 M
[ [(Arial) 200.0 0.0 true true 0 ( 540)]
] -66.7 MCshow
1.000 UL
LTb
0.00 0.00 0.00 C 0.500 UL
LTa
0.50 0.50 0.50 C 8905 1000 M
0 3799 V
stroke
1.000 UL
LTb
0.00 0.00 0.00 C 8905 1000 M
0 63 V
0 3736 R
0 -63 V
stroke
8905 800 M
[ [(Arial) 200.0 0.0 true true 0 ( 570)]
] -66.7 MCshow
1.000 UL
LTb
0.00 0.00 0.00 C 0.500 UL
LTa
0.50 0.50 0.50 C 9671 1000 M
0 3799 V
stroke
1.000 UL
LTb
0.00 0.00 0.00 C 9671 1000 M
0 63 V
0 3736 R
0 -63 V
stroke
9671 800 M
[ [(Arial) 200.0 0.0 true true 0 ( 600)]
] -66.7 MCshow
1.000 UL
LTb
0.00 0.00 0.00 C 0.500 UL
LTa
0.50 0.50 0.50 C 10437 1000 M
0 3799 V
stroke
1.000 UL
LTb
0.00 0.00 0.00 C 10437 1000 M
0 63 V
0 3736 R
0 -63 V
stroke
10437 800 M
[ [(Arial) 200.0 0.0 true true 0 ( 630)]
] -66.7 MCshow
1.000 UL
LTb
0.00 0.00 0.00 C 0.500 UL
LTa
0.50 0.50 0.50 C 11204 1000 M
0 3799 V
stroke
1.000 UL
LTb
0.00 0.00 0.00 C 11204 1000 M
0 63 V
0 3736 R
0 -63 V
stroke
11204 800 M
[ [(Arial) 200.0 0.0 true true 0 ( 660)]
] -66.7 MCshow
1.000 UL
LTb
0.00 0.00 0.00 C 0.500 UL
LTa
0.50 0.50 0.50 C 11970 1000 M
0 3799 V
stroke
1.000 UL
LTb
0.00 0.00 0.00 C 11970 1000 M
0 63 V
0 3736 R
0 -63 V
stroke
11970 800 M
[ [(Arial) 200.0 0.0 true true 0 ( 690)]
] -66.7 MCshow
1.000 UL
LTb
0.00 0.00 0.00 C 0.500 UL
LTa
0.50 0.50 0.50 C 12736 1000 M
0 3799 V
stroke
1.000 UL
LTb
0.00 0.00 0.00 C 12736 1000 M
0 63 V
0 3736 R
0 -63 V
stroke
12736 800 M
[ [(Arial) 200.0 0.0 true true 0 ( 720)]
] -66.7 MCshow
1.000 UL
LTb
0.00 0.00 0.00 C 13119 1000 M
-63 0 V
stroke
13239 1000 M
[ [(Arial) 200.0 0.0 true true 0 ( 0)]
] -66.7 MLshow
1.000 UL
LTb
0.00 0.00 0.00 C 13119 1760 M
-63 0 V
stroke
13239 1760 M
[ [(Arial) 200.0 0.0 true true 0 ( 20)]
] -66.7 MLshow
1.000 UL
LTb
0.00 0.00 0.00 C 13119 2520 M
-63 0 V
stroke
13239 2520 M
[ [(Arial) 200.0 0.0 true true 0 ( 40)]
] -66.7 MLshow
1.000 UL
LTb
0.00 0.00 0.00 C 13119 3279 M
-63 0 V
stroke
13239 3279 M
[ [(Arial) 200.0 0.0 true true 0 ( 60)]
] -66.7 MLshow
1.000 UL
LTb
0.00 0.00 0.00 C 13119 4039 M
-63 0 V
stroke
13239 4039 M
[ [(Arial) 200.0 0.0 true true 0 ( 80)]
] -66.7 MLshow
1.000 UL
LTb
0.00 0.00 0.00 C 13119 4799 M
-63 0 V
stroke
13239 4799 M
[ [(Arial) 200.0 0.0 true true 0 ( 100)]
] -66.7 MLshow
1.000 UL
LTb
0.00 0.00 0.00 C 1.000 UL
LTB
0.00 0.00 0.00 C 860 4799 M
0 -3799 V
12259 0 V
0 3799 R
860 4799 M
1.000 UP
stroke
LTb
0.00 0.00 0.00 C LCb setrgbcolor
160 2899 M
currentpoint gsave translate -270 rotate 0 0 moveto
[ [(Arial) 200.0 0.0 true true 0 (RTT \(ms\))]
] -66.7 MCshow
grestore
LTb
LCb setrgbcolor
13938 2899 M
currentpoint gsave translate -270 rotate 0 0 moveto
[ [(Arial) 200.0 0.0 true true 0 (TCP delivery ratio [%])]
] -66.7 MCshow
grestore
LTb
LCb setrgbcolor
6989 500 M
[ [(Arial) 200.0 0.0 true true 0 (Local backhaul traffic traffic \(Mb/s\))]
] -66.7 MCshow
LTb
% Begin plot #1
1.000 UL
LTb
0.60 0.60 0.00 C LCb setrgbcolor
4654 333 M
[ [(Arial) 180.0 0.0 true true 0 (RTT      :   olsr)]
] -60.0 MRshow
1.000 UL
LTb
0.60 0.60 0.00 C 4762 288 333 90 80 -45 0 PatternFill
4762 288 N
333 0 V
0 90 V
-333 0 V
0 -90 V
Z stroke
1.000 UL
LTb
0.60 0.60 0.00 C 975 1711 154 1078 80 -45 0 PatternFill
1052 1404 M
0 307 V
0 1078 R
0 1481 V
stroke
975 1711 N
154 0 V
0 1078 V
-154 0 V
0 -1078 V
Z stroke
975 4270 M
154 0 V
975 1404 M
154 0 V
stroke
1741 1724 154 1060 80 -45 0 PatternFill
1818 1412 M
0 312 V
0 1060 R
0 1493 V
stroke
1741 1724 N
154 0 V
0 1060 V
-154 0 V
0 -1060 V
Z stroke
1741 4277 M
154 0 V
1741 1412 M
154 0 V
stroke
2507 1742 154 1043 80 -45 0 PatternFill
2584 1431 M
0 311 V
0 1043 R
0 1439 V
stroke
2507 1742 N
154 0 V
0 1043 V
-154 0 V
0 -1043 V
Z stroke
2507 4224 M
154 0 V
2507 1431 M
154 0 V
stroke
3273 1725 154 1089 80 -45 0 PatternFill
3350 1399 M
0 326 V
0 1089 R
0 1456 V
stroke
3273 1725 N
154 0 V
0 1089 V
-154 0 V
0 -1089 V
Z stroke
3273 4270 M
154 0 V
3273 1399 M
154 0 V
stroke
4040 1695 154 1122 80 -45 0 PatternFill
4117 1379 M
0 316 V
0 1122 R
0 1530 V
stroke
4040 1695 N
154 0 V
0 1122 V
-154 0 V
0 -1122 V
Z stroke
4040 4347 M
154 0 V
4040 1379 M
154 0 V
stroke
4806 1686 154 1106 80 -45 0 PatternFill
4883 1403 M
0 283 V
0 1106 R
0 1579 V
stroke
4806 1686 N
154 0 V
0 1106 V
-154 0 V
0 -1106 V
Z stroke
4806 4371 M
154 0 V
4806 1403 M
154 0 V
stroke
5572 1689 154 1104 80 -45 0 PatternFill
5649 1372 M
0 317 V
0 1104 R
0 1572 V
stroke
5572 1689 N
154 0 V
0 1104 V
-154 0 V
0 -1104 V
Z stroke
5572 4365 M
154 0 V
5572 1372 M
154 0 V
stroke
6338 1750 154 1025 80 -45 0 PatternFill
6415 1410 M
0 340 V
0 1025 R
0 1445 V
stroke
6338 1750 N
154 0 V
0 1025 V
-154 0 V
0 -1025 V
Z stroke
6338 4220 M
154 0 V
6338 1410 M
154 0 V
stroke
7104 1734 154 1096 80 -45 0 PatternFill
7181 1400 M
0 334 V
0 1096 R
0 1380 V
stroke
7104 1734 N
154 0 V
0 1096 V
-154 0 V
0 -1096 V
Z stroke
7104 4210 M
154 0 V
7104 1400 M
154 0 V
stroke
7871 1688 154 1095 80 -45 0 PatternFill
7948 1386 M
0 302 V
0 1095 R
0 1576 V
stroke
7871 1688 N
154 0 V
0 1095 V
-154 0 V
0 -1095 V
Z stroke
7871 4359 M
154 0 V
7871 1386 M
154 0 V
stroke
8637 1760 154 1061 80 -45 0 PatternFill
8714 1430 M
0 330 V
0 1061 R
0 1480 V
stroke
8637 1760 N
154 0 V
0 1061 V
-154 0 V
0 -1061 V
Z stroke
8637 4301 M
154 0 V
8637 1430 M
154 0 V
stroke
9403 1722 154 1039 80 -45 0 PatternFill
9480 1396 M
0 326 V
0 1039 R
0 1495 V
stroke
9403 1722 N
154 0 V
0 1039 V
-154 0 V
0 -1039 V
Z stroke
9403 4256 M
154 0 V
9403 1396 M
154 0 V
stroke
10169 1649 154 1056 80 -45 0 PatternFill
10246 1358 M
0 291 V
0 1056 R
0 1427 V
stroke
10169 1649 N
154 0 V
0 1056 V
-154 0 V
0 -1056 V
Z stroke
10169 4132 M
154 0 V
10169 1358 M
154 0 V
stroke
10935 1705 154 1052 80 -45 0 PatternFill
11012 1394 M
0 311 V
0 1052 R
0 1470 V
stroke
10935 1705 N
154 0 V
0 1052 V
-154 0 V
0 -1052 V
Z stroke
10935 4227 M
154 0 V
10935 1394 M
154 0 V
stroke
11702 1724 154 1021 80 -45 0 PatternFill
11779 1401 M
0 323 V
0 1021 R
0 1448 V
stroke
11702 1724 N
154 0 V
0 1021 V
-154 0 V
0 -1021 V
Z stroke
11702 4193 M
154 0 V
11702 1401 M
154 0 V
stroke
12468 1704 154 1079 80 -45 0 PatternFill
12545 1386 M
0 318 V
0 1079 R
0 1448 V
stroke
12468 1704 N
154 0 V
0 1079 V
-154 0 V
0 -1079 V
Z stroke
12468 4231 M
154 0 V
12468 1386 M
154 0 V
% End plot #1
% Begin plot #2
stroke
LTb
LCb setrgbcolor

 /TransparentPatterns true def
975 2424 154 0 40 30 0 PatternFill
1052 2424 M
stroke
975 2424 N
154 0 V
-154 0 V
Z stroke
975 2424 M
154 0 V
-154 0 R
154 0 V
stroke

 /TransparentPatterns true def
1741 2431 154 0 40 30 0 PatternFill
1818 2431 M
stroke
1741 2431 N
154 0 V
-154 0 V
Z stroke
1741 2431 M
154 0 V
-154 0 R
154 0 V
stroke

 /TransparentPatterns true def
2507 2435 154 0 40 30 0 PatternFill
2584 2435 M
stroke
2507 2435 N
154 0 V
-154 0 V
Z stroke
2507 2435 M
154 0 V
-154 0 R
154 0 V
stroke

 /TransparentPatterns true def
3273 2443 154 0 40 30 0 PatternFill
3350 2443 M
stroke
3273 2443 N
154 0 V
-154 0 V
Z stroke
3273 2443 M
154 0 V
-154 0 R
154 0 V
stroke

 /TransparentPatterns true def
4040 2431 154 0 40 30 0 PatternFill
4117 2431 M
stroke
4040 2431 N
154 0 V
-154 0 V
Z stroke
4040 2431 M
154 0 V
-154 0 R
154 0 V
stroke

 /TransparentPatterns true def
4806 2424 154 0 40 30 0 PatternFill
4883 2424 M
stroke
4806 2424 N
154 0 V
-154 0 V
Z stroke
4806 2424 M
154 0 V
-154 0 R
154 0 V
stroke

 /TransparentPatterns true def
5572 2431 154 0 40 30 0 PatternFill
5649 2431 M
stroke
5572 2431 N
154 0 V
-154 0 V
Z stroke
5572 2431 M
154 0 V
-154 0 R
154 0 V
stroke

 /TransparentPatterns true def
6338 2428 154 0 40 30 0 PatternFill
6415 2428 M
stroke
6338 2428 N
154 0 V
-154 0 V
Z stroke
6338 2428 M
154 0 V
-154 0 R
154 0 V
stroke

 /TransparentPatterns true def
7104 2452 154 0 40 30 0 PatternFill
7181 2452 M
stroke
7104 2452 N
154 0 V
-154 0 V
Z stroke
7104 2452 M
154 0 V
-154 0 R
154 0 V
stroke

 /TransparentPatterns true def
7871 2420 154 0 40 30 0 PatternFill
7948 2420 M
stroke
7871 2420 N
154 0 V
-154 0 V
Z stroke
7871 2420 M
154 0 V
-154 0 R
154 0 V
stroke

 /TransparentPatterns true def
8637 2457 154 0 40 30 0 PatternFill
8714 2457 M
stroke
8637 2457 N
154 0 V
-154 0 V
Z stroke
8637 2457 M
154 0 V
-154 0 R
154 0 V
stroke

 /TransparentPatterns true def
9403 2419 154 0 40 30 0 PatternFill
9480 2419 M
stroke
9403 2419 N
154 0 V
-154 0 V
Z stroke
9403 2419 M
154 0 V
-154 0 R
154 0 V
stroke

 /TransparentPatterns true def
10169 2350 154 0 40 30 0 PatternFill
10246 2350 M
stroke
10169 2350 N
154 0 V
-154 0 V
Z stroke
10169 2350 M
154 0 V
-154 0 R
154 0 V
stroke

 /TransparentPatterns true def
10935 2409 154 0 40 30 0 PatternFill
11012 2409 M
stroke
10935 2409 N
154 0 V
-154 0 V
Z stroke
10935 2409 M
154 0 V
-154 0 R
154 0 V
stroke

 /TransparentPatterns true def
11702 2404 154 0 40 30 0 PatternFill
11779 2404 M
stroke
11702 2404 N
154 0 V
-154 0 V
Z stroke
11702 2404 M
154 0 V
-154 0 R
154 0 V
stroke

 /TransparentPatterns true def
12468 2417 154 0 40 30 0 PatternFill
12545 2417 M
stroke
12468 2417 N
154 0 V
-154 0 V
Z stroke
12468 2417 M
154 0 V
-154 0 R
154 0 V
% End plot #2
% Begin plot #3
2.000 UP
stroke
LTa
0.60 0.60 0.00 C LCb setrgbcolor
4654 153 M
[ [(Arial) 180.0 0.0 true true 0 (app. received bytes :         )]
] -60.0 MRshow
2.000 UP
1.000 UL
LTa
0.60 0.60 0.00 C 4762 153 M
333 0 V
860 4750 M
192 0 V
766 0 V
766 0 V
766 0 V
766 0 V
766 0 V
767 0 V
766 0 V
766 0 V
766 0 V
766 0 V
767 0 V
766 0 V
766 0 V
766 0 V
766 0 V
575 0 V
1052 4750 Box
1818 4750 Box
2584 4750 Box
3350 4750 Box
4116 4750 Box
4882 4750 Box
5649 4750 Box
6415 4750 Box
7181 4750 Box
7947 4750 Box
8713 4750 Box
9480 4750 Box
10246 4750 Box
11012 4750 Box
11778 4750 Box
12544 4750 Box
4928 153 Box
% End plot #3
% Begin plot #4
1.000 UL
LTb
0.00 0.00 0.63 C LCb setrgbcolor
8227 333 M
[ [(Arial) 180.0 0.0 true true 0 (per-packet)]
] -60.0 MRshow
1.000 UL
LTb
0.00 0.00 0.63 C 8335 288 333 90 80 45 0 PatternFill
8335 288 N
333 0 V
0 90 V
-333 0 V
0 -90 V
Z stroke
1.000 UL
LTb
0.00 0.00 0.63 C 1166 1624 154 1045 80 45 0 PatternFill
1243 1340 M
0 284 V
0 1045 R
0 1147 V
stroke
1166 1624 N
154 0 V
0 1045 V
-154 0 V
0 -1045 V
Z stroke
1166 3816 M
154 0 V
1166 1340 M
154 0 V
stroke
1933 1648 154 1005 80 45 0 PatternFill
2010 1363 M
0 285 V
0 1005 R
0 1199 V
stroke
1933 1648 N
154 0 V
0 1005 V
-154 0 V
0 -1005 V
Z stroke
1933 3852 M
154 0 V
1933 1363 M
154 0 V
stroke
2699 1643 154 1073 80 45 0 PatternFill
2776 1335 M
0 308 V
0 1073 R
0 1274 V
stroke
2699 1643 N
154 0 V
0 1073 V
-154 0 V
0 -1073 V
Z stroke
2699 3990 M
154 0 V
2699 1335 M
154 0 V
stroke
3465 1672 154 989 80 45 0 PatternFill
3542 1352 M
0 320 V
0 989 R
0 1194 V
stroke
3465 1672 N
154 0 V
0 989 V
-154 0 V
0 -989 V
Z stroke
3465 3855 M
154 0 V
3465 1352 M
154 0 V
stroke
4231 1646 154 1030 80 45 0 PatternFill
4308 1349 M
0 297 V
0 1030 R
0 1209 V
stroke
4231 1646 N
154 0 V
0 1030 V
-154 0 V
0 -1030 V
Z stroke
4231 3885 M
154 0 V
4231 1349 M
154 0 V
stroke
4997 1621 154 1026 80 45 0 PatternFill
5074 1332 M
0 289 V
0 1026 R
0 1431 V
stroke
4997 1621 N
154 0 V
0 1026 V
-154 0 V
0 -1026 V
Z stroke
4997 4078 M
154 0 V
4997 1332 M
154 0 V
stroke
5764 1616 154 1007 80 45 0 PatternFill
5841 1329 M
0 287 V
0 1007 R
0 1154 V
stroke
5764 1616 N
154 0 V
0 1007 V
-154 0 V
0 -1007 V
Z stroke
5764 3777 M
154 0 V
5764 1329 M
154 0 V
stroke
6530 1690 154 955 80 45 0 PatternFill
6607 1407 M
0 283 V
0 955 R
0 1270 V
stroke
6530 1690 N
154 0 V
0 955 V
-154 0 V
0 -955 V
Z stroke
6530 3915 M
154 0 V
6530 1407 M
154 0 V
stroke
7296 1643 154 1003 80 45 0 PatternFill
7373 1365 M
0 278 V
0 1003 R
0 1267 V
stroke
7296 1643 N
154 0 V
0 1003 V
-154 0 V
0 -1003 V
Z stroke
7296 3913 M
154 0 V
7296 1365 M
154 0 V
stroke
8062 1685 154 1000 80 45 0 PatternFill
8139 1397 M
0 288 V
0 1000 R
0 1233 V
stroke
8062 1685 N
154 0 V
0 1000 V
-154 0 V
0 -1000 V
Z stroke
8062 3918 M
154 0 V
8062 1397 M
154 0 V
stroke
8828 1653 154 1045 80 45 0 PatternFill
8905 1339 M
0 314 V
0 1045 R
0 1245 V
stroke
8828 1653 N
154 0 V
0 1045 V
-154 0 V
0 -1045 V
Z stroke
8828 3943 M
154 0 V
8828 1339 M
154 0 V
stroke
9595 1650 154 1021 80 45 0 PatternFill
9672 1361 M
0 289 V
0 1021 R
0 1149 V
stroke
9595 1650 N
154 0 V
0 1021 V
-154 0 V
0 -1021 V
Z stroke
9595 3820 M
154 0 V
9595 1361 M
154 0 V
stroke
10361 1627 154 994 80 45 0 PatternFill
10438 1328 M
0 299 V
0 994 R
0 1237 V
stroke
10361 1627 N
154 0 V
0 994 V
-154 0 V
0 -994 V
Z stroke
10361 3858 M
154 0 V
10361 1328 M
154 0 V
stroke
11127 1622 154 1017 80 45 0 PatternFill
11204 1328 M
0 294 V
0 1017 R
0 1224 V
stroke
11127 1622 N
154 0 V
0 1017 V
-154 0 V
0 -1017 V
Z stroke
11127 3863 M
154 0 V
11127 1328 M
154 0 V
stroke
11893 1665 154 998 80 45 0 PatternFill
11970 1372 M
0 293 V
0 998 R
0 1233 V
stroke
11893 1665 N
154 0 V
0 998 V
-154 0 V
0 -998 V
Z stroke
11893 3896 M
154 0 V
11893 1372 M
154 0 V
stroke
12659 1637 154 1041 80 45 0 PatternFill
12736 1355 M
0 282 V
0 1041 R
0 1176 V
stroke
12659 1637 N
154 0 V
0 1041 V
-154 0 V
0 -1041 V
Z stroke
12659 3854 M
154 0 V
12659 1355 M
154 0 V
% End plot #4
% Begin plot #5
stroke
LTb
LCb setrgbcolor

 /TransparentPatterns true def
1166 2258 154 0 80 -45 0 PatternFill
1243 2258 M
stroke
1166 2258 N
154 0 V
-154 0 V
Z stroke
1166 2258 M
154 0 V
-154 0 R
154 0 V
stroke

 /TransparentPatterns true def
1933 2266 154 0 80 -45 0 PatternFill
2010 2266 M
stroke
1933 2266 N
154 0 V
-154 0 V
Z stroke
1933 2266 M
154 0 V
-154 0 R
154 0 V
stroke

 /TransparentPatterns true def
2699 2288 154 0 80 -45 0 PatternFill
2776 2288 M
stroke
2699 2288 N
154 0 V
-154 0 V
Z stroke
2699 2288 M
154 0 V
-154 0 R
154 0 V
stroke

 /TransparentPatterns true def
3465 2273 154 0 80 -45 0 PatternFill
3542 2273 M
stroke
3465 2273 N
154 0 V
-154 0 V
Z stroke
3465 2273 M
154 0 V
-154 0 R
154 0 V
stroke

 /TransparentPatterns true def
4231 2282 154 0 80 -45 0 PatternFill
4308 2282 M
stroke
4231 2282 N
154 0 V
-154 0 V
Z stroke
4231 2282 M
154 0 V
-154 0 R
154 0 V
stroke

 /TransparentPatterns true def
4997 2257 154 0 80 -45 0 PatternFill
5074 2257 M
stroke
4997 2257 N
154 0 V
-154 0 V
Z stroke
4997 2257 M
154 0 V
-154 0 R
154 0 V
stroke

 /TransparentPatterns true def
5764 2228 154 0 80 -45 0 PatternFill
5841 2228 M
stroke
5764 2228 N
154 0 V
-154 0 V
Z stroke
5764 2228 M
154 0 V
-154 0 R
154 0 V
stroke

 /TransparentPatterns true def
6530 2285 154 0 80 -45 0 PatternFill
6607 2285 M
stroke
6530 2285 N
154 0 V
-154 0 V
Z stroke
6530 2285 M
154 0 V
-154 0 R
154 0 V
stroke

 /TransparentPatterns true def
7296 2260 154 0 80 -45 0 PatternFill
7373 2260 M
stroke
7296 2260 N
154 0 V
-154 0 V
Z stroke
7296 2260 M
154 0 V
-154 0 R
154 0 V
stroke

 /TransparentPatterns true def
8062 2294 154 0 80 -45 0 PatternFill
8139 2294 M
stroke
8062 2294 N
154 0 V
-154 0 V
Z stroke
8062 2294 M
154 0 V
-154 0 R
154 0 V
stroke

 /TransparentPatterns true def
8828 2292 154 0 80 -45 0 PatternFill
8905 2292 M
stroke
8828 2292 N
154 0 V
-154 0 V
Z stroke
8828 2292 M
154 0 V
-154 0 R
154 0 V
stroke

 /TransparentPatterns true def
9595 2269 154 0 80 -45 0 PatternFill
9672 2269 M
stroke
9595 2269 N
154 0 V
-154 0 V
Z stroke
9595 2269 M
154 0 V
-154 0 R
154 0 V
stroke

 /TransparentPatterns true def
10361 2237 154 0 80 -45 0 PatternFill
10438 2237 M
stroke
10361 2237 N
154 0 V
-154 0 V
Z stroke
10361 2237 M
154 0 V
-154 0 R
154 0 V
stroke

 /TransparentPatterns true def
11127 2251 154 0 80 -45 0 PatternFill
11204 2251 M
stroke
11127 2251 N
154 0 V
-154 0 V
Z stroke
11127 2251 M
154 0 V
-154 0 R
154 0 V
stroke

 /TransparentPatterns true def
11893 2280 154 0 80 -45 0 PatternFill
11970 2280 M
stroke
11893 2280 N
154 0 V
-154 0 V
Z stroke
11893 2280 M
154 0 V
-154 0 R
154 0 V
stroke

 /TransparentPatterns true def
12659 2260 154 0 80 -45 0 PatternFill
12736 2260 M
stroke
12659 2260 N
154 0 V
-154 0 V
Z stroke
12659 2260 M
154 0 V
-154 0 R
154 0 V
% End plot #5
% Begin plot #6
2.000 UP
stroke
LTa
0.00 0.00 0.63 C LCb setrgbcolor
8227 153 M
[ [(Arial) 180.0 0.0 true true 0 ( )]
] -60.0 MRshow
2.000 UP
1.000 UL
LTa
0.00 0.00 0.63 C 8335 153 M
333 0 V
860 4750 M
383 0 V
766 0 V
766 -4 V
767 4 V
766 -8 V
766 8 V
766 0 V
766 0 V
767 0 V
766 -4 V
766 4 V
766 0 V
766 0 V
767 -12 V
766 8 V
766 4 V
383 0 V
1243 4750 Circle
2009 4750 Circle
2775 4746 Circle
3542 4750 Circle
4308 4742 Circle
5074 4750 Circle
5840 4750 Circle
6606 4750 Circle
7373 4750 Circle
8139 4746 Circle
8905 4750 Circle
9671 4750 Circle
10437 4750 Circle
11204 4738 Circle
11970 4746 Circle
12736 4750 Circle
8501 153 Circle
% End plot #6
% Begin plot #7
1.000 UL
LTb
0.00 0.38 0.82 C LCb setrgbcolor
11800 333 M
[ [(Arial) 180.0 0.0 true true 0 (per-flow)]
] -60.0 MRshow
1.000 UL
LTb
0.00 0.38 0.82 C 11908 288 333 90 40 30 0 PatternFill
11908 288 N
333 0 V
0 90 V
-333 0 V
0 -90 V
Z stroke
1.000 UL
LTb
0.00 0.38 0.82 C 1358 1713 154 1168 40 30 0 PatternFill
1435 1390 M
0 323 V
0 1168 R
0 1374 V
stroke
1358 1713 N
154 0 V
0 1168 V
-154 0 V
0 -1168 V
Z stroke
1358 4255 M
154 0 V
1358 1390 M
154 0 V
stroke
2124 1735 154 1147 40 30 0 PatternFill
2201 1395 M
0 340 V
0 1147 R
0 1478 V
stroke
2124 1735 N
154 0 V
0 1147 V
-154 0 V
0 -1147 V
Z stroke
2124 4360 M
154 0 V
2124 1395 M
154 0 V
stroke
2890 1810 154 1149 40 30 0 PatternFill
2967 1492 M
0 318 V
0 1149 R
0 1210 V
stroke
2890 1810 N
154 0 V
0 1149 V
-154 0 V
0 -1149 V
Z stroke
2890 4169 M
154 0 V
2890 1492 M
154 0 V
stroke
3657 1805 154 1137 40 30 0 PatternFill
3734 1466 M
0 339 V
0 1137 R
0 1198 V
stroke
3657 1805 N
154 0 V
0 1137 V
-154 0 V
0 -1137 V
Z stroke
3657 4140 M
154 0 V
3657 1466 M
154 0 V
stroke
4423 1749 154 1252 40 30 0 PatternFill
4500 1410 M
0 339 V
0 1252 R
0 1392 V
stroke
4423 1749 N
154 0 V
0 1252 V
-154 0 V
0 -1252 V
Z stroke
4423 4393 M
154 0 V
4423 1410 M
154 0 V
stroke
5189 1765 154 1098 40 30 0 PatternFill
5266 1399 M
0 366 V
0 1098 R
0 1298 V
stroke
5189 1765 N
154 0 V
0 1098 V
-154 0 V
0 -1098 V
Z stroke
5189 4161 M
154 0 V
5189 1399 M
154 0 V
stroke
5955 1740 154 1161 40 30 0 PatternFill
6032 1404 M
0 336 V
0 1161 R
0 1346 V
stroke
5955 1740 N
154 0 V
0 1161 V
-154 0 V
0 -1161 V
Z stroke
5955 4247 M
154 0 V
5955 1404 M
154 0 V
stroke
6721 1760 154 1161 40 30 0 PatternFill
6798 1412 M
0 348 V
0 1161 R
0 1335 V
stroke
6721 1760 N
154 0 V
0 1161 V
-154 0 V
0 -1161 V
Z stroke
6721 4256 M
154 0 V
6721 1412 M
154 0 V
stroke
7488 1788 154 1229 40 30 0 PatternFill
7565 1456 M
0 332 V
0 1229 R
0 1401 V
stroke
7488 1788 N
154 0 V
0 1229 V
-154 0 V
0 -1229 V
Z stroke
7488 4418 M
154 0 V
7488 1456 M
154 0 V
stroke
8254 1723 154 1122 40 30 0 PatternFill
8331 1384 M
0 339 V
0 1122 R
0 1260 V
stroke
8254 1723 N
154 0 V
0 1122 V
-154 0 V
0 -1122 V
Z stroke
8254 4105 M
154 0 V
8254 1384 M
154 0 V
stroke
9020 1714 154 1133 40 30 0 PatternFill
9097 1403 M
0 311 V
0 1133 R
0 1331 V
stroke
9020 1714 N
154 0 V
0 1133 V
-154 0 V
0 -1133 V
Z stroke
9020 4178 M
154 0 V
9020 1403 M
154 0 V
stroke
9786 1711 154 1152 40 30 0 PatternFill
9863 1404 M
0 307 V
0 1152 R
0 1321 V
stroke
9786 1711 N
154 0 V
0 1152 V
-154 0 V
0 -1152 V
Z stroke
9786 4184 M
154 0 V
9786 1404 M
154 0 V
stroke
10552 1801 154 1116 40 30 0 PatternFill
10629 1454 M
0 347 V
0 1116 R
0 1246 V
stroke
10552 1801 N
154 0 V
0 1116 V
-154 0 V
0 -1116 V
Z stroke
10552 4163 M
154 0 V
10552 1454 M
154 0 V
stroke
11318 1773 154 1144 40 30 0 PatternFill
11395 1436 M
0 337 V
0 1144 R
0 1474 V
stroke
11318 1773 N
154 0 V
0 1144 V
-154 0 V
0 -1144 V
Z stroke
11318 4391 M
154 0 V
11318 1436 M
154 0 V
stroke
12085 1739 154 1137 40 30 0 PatternFill
12162 1396 M
0 343 V
0 1137 R
0 1358 V
stroke
12085 1739 N
154 0 V
0 1137 V
-154 0 V
0 -1137 V
Z stroke
12085 4234 M
154 0 V
12085 1396 M
154 0 V
stroke
12851 1760 154 1232 40 30 0 PatternFill
12928 1434 M
0 326 V
0 1232 R
0 1353 V
stroke
12851 1760 N
154 0 V
0 1232 V
-154 0 V
0 -1232 V
Z stroke
12851 4345 M
154 0 V
12851 1434 M
154 0 V
% End plot #7
% Begin plot #8
stroke
LTb
LCb setrgbcolor

 /TransparentPatterns true def
1358 2427 154 0 40 -30 0 PatternFill
1435 2427 M
stroke
1358 2427 N
154 0 V
-154 0 V
Z stroke
1358 2427 M
154 0 V
-154 0 R
154 0 V
stroke

 /TransparentPatterns true def
2124 2453 154 0 40 -30 0 PatternFill
2201 2453 M
stroke
2124 2453 N
154 0 V
-154 0 V
Z stroke
2124 2453 M
154 0 V
-154 0 R
154 0 V
stroke

 /TransparentPatterns true def
2890 2488 154 0 40 -30 0 PatternFill
2967 2488 M
stroke
2890 2488 N
154 0 V
-154 0 V
Z stroke
2890 2488 M
154 0 V
-154 0 R
154 0 V
stroke

 /TransparentPatterns true def
3657 2498 154 0 40 -30 0 PatternFill
3734 2498 M
stroke
3657 2498 N
154 0 V
-154 0 V
Z stroke
3657 2498 M
154 0 V
-154 0 R
154 0 V
stroke

 /TransparentPatterns true def
4423 2494 154 0 40 -30 0 PatternFill
4500 2494 M
stroke
4423 2494 N
154 0 V
-154 0 V
Z stroke
4423 2494 M
154 0 V
-154 0 R
154 0 V
stroke

 /TransparentPatterns true def
5189 2440 154 0 40 -30 0 PatternFill
5266 2440 M
stroke
5189 2440 N
154 0 V
-154 0 V
Z stroke
5189 2440 M
154 0 V
-154 0 R
154 0 V
stroke

 /TransparentPatterns true def
5955 2455 154 0 40 -30 0 PatternFill
6032 2455 M
stroke
5955 2455 N
154 0 V
-154 0 V
Z stroke
5955 2455 M
154 0 V
-154 0 R
154 0 V
stroke

 /TransparentPatterns true def
6721 2475 154 0 40 -30 0 PatternFill
6798 2475 M
stroke
6721 2475 N
154 0 V
-154 0 V
Z stroke
6721 2475 M
154 0 V
-154 0 R
154 0 V
stroke

 /TransparentPatterns true def
7488 2532 154 0 40 -30 0 PatternFill
7565 2532 M
stroke
7488 2532 N
154 0 V
-154 0 V
Z stroke
7488 2532 M
154 0 V
-154 0 R
154 0 V
stroke

 /TransparentPatterns true def
8254 2412 154 0 40 -30 0 PatternFill
8331 2412 M
stroke
8254 2412 N
154 0 V
-154 0 V
Z stroke
8254 2412 M
154 0 V
-154 0 R
154 0 V
stroke

 /TransparentPatterns true def
9020 2406 154 0 40 -30 0 PatternFill
9097 2406 M
stroke
9020 2406 N
154 0 V
-154 0 V
Z stroke
9020 2406 M
154 0 V
-154 0 R
154 0 V
stroke

 /TransparentPatterns true def
9786 2423 154 0 40 -30 0 PatternFill
9863 2423 M
stroke
9786 2423 N
154 0 V
-154 0 V
Z stroke
9786 2423 M
154 0 V
-154 0 R
154 0 V
stroke

 /TransparentPatterns true def
10552 2494 154 0 40 -30 0 PatternFill
10629 2494 M
stroke
10552 2494 N
154 0 V
-154 0 V
Z stroke
10552 2494 M
154 0 V
-154 0 R
154 0 V
stroke

 /TransparentPatterns true def
11318 2494 154 0 40 -30 0 PatternFill
11395 2494 M
stroke
11318 2494 N
154 0 V
-154 0 V
Z stroke
11318 2494 M
154 0 V
-154 0 R
154 0 V
stroke

 /TransparentPatterns true def
12085 2447 154 0 40 -30 0 PatternFill
12162 2447 M
stroke
12085 2447 N
154 0 V
-154 0 V
Z stroke
12085 2447 M
154 0 V
-154 0 R
154 0 V
stroke

 /TransparentPatterns true def
12851 2505 154 0 40 -30 0 PatternFill
12928 2505 M
stroke
12851 2505 N
154 0 V
-154 0 V
Z stroke
12851 2505 M
154 0 V
-154 0 R
154 0 V
% End plot #8
% Begin plot #9
2.000 UP
stroke
LTa
0.00 0.38 0.82 C LCb setrgbcolor
11800 153 M
[ [(Arial) 180.0 0.0 true true 0 ( )]
] -60.0 MRshow
2.000 UP
1.000 UL
LTa
0.00 0.38 0.82 C 11908 153 M
333 0 V
860 4750 M
575 0 V
766 0 V
766 0 V
766 0 V
766 0 V
767 0 V
766 0 V
766 0 V
766 0 V
766 0 V
767 0 V
766 0 V
766 0 V
766 0 V
766 0 V
766 0 V
192 0 V
1435 4750 TriU
2201 4750 TriU
2967 4750 TriU
3733 4750 TriU
4499 4750 TriU
5266 4750 TriU
6032 4750 TriU
6798 4750 TriU
7564 4750 TriU
8330 4750 TriU
9097 4750 TriU
9863 4750 TriU
10629 4750 TriU
11395 4750 TriU
12161 4750 TriU
12927 4750 TriU
12074 153 TriU
% End plot #9
2.000 UL
LTb
LCb setrgbcolor
1.000 UP
1.000 UL
LTb
0.00 0.00 0.00 C stroke
grestore
end
showpage
%%Trailer
%%DocumentFonts: Arial
