%!PS-Adobe-2.0 EPSF-2.0
%%Title: TcpVegas-download-finishtime-75UE-panoramic.eps
%%Creator: gnuplot 5.0 patchlevel 3
%%CreationDate: Tue Jun  7 16:10:53 2016
%%DocumentFonts: (atend)
%%BoundingBox: 50 50 770 302
%%EndComments
%%BeginProlog
/gnudict 256 dict def
gnudict begin
%
% The following true/false flags may be edited by hand if desired.
% The unit line width and grayscale image gamma correction may also be changed.
%
/Color true def
/Blacktext false def
/Solid false def
/Dashlength 3 def
/Landscape false def
/Level1 false def
/Level3 false def
/Rounded false def
/ClipToBoundingBox false def
/SuppressPDFMark false def
/TransparentPatterns false def
/gnulinewidth 15.000 def
/userlinewidth gnulinewidth def
/Gamma 1.0 def
/BackgroundColor {-1.000 -1.000 -1.000} def
%
/vshift -66 def
/dl1 {
  10.0 Dashlength userlinewidth gnulinewidth div mul mul mul
  Rounded { currentlinewidth 0.75 mul sub dup 0 le { pop 0.01 } if } if
} def
/dl2 {
  10.0 Dashlength userlinewidth gnulinewidth div mul mul mul
  Rounded { currentlinewidth 0.75 mul add } if
} def
/hpt_ 31.5 def
/vpt_ 31.5 def
/hpt hpt_ def
/vpt vpt_ def
/doclip {
  ClipToBoundingBox {
    newpath 50 50 moveto 770 50 lineto 770 302 lineto 50 302 lineto closepath
    clip
  } if
} def
%
% Gnuplot Prolog Version 5.1 (Oct 2015)
%
%/SuppressPDFMark true def
%
/M {moveto} bind def
/L {lineto} bind def
/R {rmoveto} bind def
/V {rlineto} bind def
/N {newpath moveto} bind def
/Z {closepath} bind def
/C {setrgbcolor} bind def
/f {rlineto fill} bind def
/g {setgray} bind def
/Gshow {show} def   % May be redefined later in the file to support UTF-8
/vpt2 vpt 2 mul def
/hpt2 hpt 2 mul def
/Lshow {currentpoint stroke M 0 vshift R 
	Blacktext {gsave 0 setgray textshow grestore} {textshow} ifelse} def
/Rshow {currentpoint stroke M dup stringwidth pop neg vshift R
	Blacktext {gsave 0 setgray textshow grestore} {textshow} ifelse} def
/Cshow {currentpoint stroke M dup stringwidth pop -2 div vshift R 
	Blacktext {gsave 0 setgray textshow grestore} {textshow} ifelse} def
/UP {dup vpt_ mul /vpt exch def hpt_ mul /hpt exch def
  /hpt2 hpt 2 mul def /vpt2 vpt 2 mul def} def
/DL {Color {setrgbcolor Solid {pop []} if 0 setdash}
 {pop pop pop 0 setgray Solid {pop []} if 0 setdash} ifelse} def
/BL {stroke userlinewidth 2 mul setlinewidth
	Rounded {1 setlinejoin 1 setlinecap} if} def
/AL {stroke userlinewidth 2 div setlinewidth
	Rounded {1 setlinejoin 1 setlinecap} if} def
/UL {dup gnulinewidth mul /userlinewidth exch def
	dup 1 lt {pop 1} if 10 mul /udl exch def} def
/PL {stroke userlinewidth setlinewidth
	Rounded {1 setlinejoin 1 setlinecap} if} def
3.8 setmiterlimit
% Classic Line colors (version 5.0)
/LCw {1 1 1} def
/LCb {0 0 0} def
/LCa {0 0 0} def
/LC0 {1 0 0} def
/LC1 {0 1 0} def
/LC2 {0 0 1} def
/LC3 {1 0 1} def
/LC4 {0 1 1} def
/LC5 {1 1 0} def
/LC6 {0 0 0} def
/LC7 {1 0.3 0} def
/LC8 {0.5 0.5 0.5} def
% Default dash patterns (version 5.0)
/LTB {BL [] LCb DL} def
/LTw {PL [] 1 setgray} def
/LTb {PL [] LCb DL} def
/LTa {AL [1 udl mul 2 udl mul] 0 setdash LCa setrgbcolor} def
/LT0 {PL [] LC0 DL} def
/LT1 {PL [2 dl1 3 dl2] LC1 DL} def
/LT2 {PL [1 dl1 1.5 dl2] LC2 DL} def
/LT3 {PL [6 dl1 2 dl2 1 dl1 2 dl2] LC3 DL} def
/LT4 {PL [1 dl1 2 dl2 6 dl1 2 dl2 1 dl1 2 dl2] LC4 DL} def
/LT5 {PL [4 dl1 2 dl2] LC5 DL} def
/LT6 {PL [1.5 dl1 1.5 dl2 1.5 dl1 1.5 dl2 1.5 dl1 6 dl2] LC6 DL} def
/LT7 {PL [3 dl1 3 dl2 1 dl1 3 dl2] LC7 DL} def
/LT8 {PL [2 dl1 2 dl2 2 dl1 6 dl2] LC8 DL} def
/SL {[] 0 setdash} def
/Pnt {stroke [] 0 setdash gsave 1 setlinecap M 0 0 V stroke grestore} def
/Dia {stroke [] 0 setdash 2 copy vpt add M
  hpt neg vpt neg V hpt vpt neg V
  hpt vpt V hpt neg vpt V closepath stroke
  Pnt} def
/Pls {stroke [] 0 setdash vpt sub M 0 vpt2 V
  currentpoint stroke M
  hpt neg vpt neg R hpt2 0 V stroke
 } def
/Box {stroke [] 0 setdash 2 copy exch hpt sub exch vpt add M
  0 vpt2 neg V hpt2 0 V 0 vpt2 V
  hpt2 neg 0 V closepath stroke
  Pnt} def
/Crs {stroke [] 0 setdash exch hpt sub exch vpt add M
  hpt2 vpt2 neg V currentpoint stroke M
  hpt2 neg 0 R hpt2 vpt2 V stroke} def
/TriU {stroke [] 0 setdash 2 copy vpt 1.12 mul add M
  hpt neg vpt -1.62 mul V
  hpt 2 mul 0 V
  hpt neg vpt 1.62 mul V closepath stroke
  Pnt} def
/Star {2 copy Pls Crs} def
/BoxF {stroke [] 0 setdash exch hpt sub exch vpt add M
  0 vpt2 neg V hpt2 0 V 0 vpt2 V
  hpt2 neg 0 V closepath fill} def
/TriUF {stroke [] 0 setdash vpt 1.12 mul add M
  hpt neg vpt -1.62 mul V
  hpt 2 mul 0 V
  hpt neg vpt 1.62 mul V closepath fill} def
/TriD {stroke [] 0 setdash 2 copy vpt 1.12 mul sub M
  hpt neg vpt 1.62 mul V
  hpt 2 mul 0 V
  hpt neg vpt -1.62 mul V closepath stroke
  Pnt} def
/TriDF {stroke [] 0 setdash vpt 1.12 mul sub M
  hpt neg vpt 1.62 mul V
  hpt 2 mul 0 V
  hpt neg vpt -1.62 mul V closepath fill} def
/DiaF {stroke [] 0 setdash vpt add M
  hpt neg vpt neg V hpt vpt neg V
  hpt vpt V hpt neg vpt V closepath fill} def
/Pent {stroke [] 0 setdash 2 copy gsave
  translate 0 hpt M 4 {72 rotate 0 hpt L} repeat
  closepath stroke grestore Pnt} def
/PentF {stroke [] 0 setdash gsave
  translate 0 hpt M 4 {72 rotate 0 hpt L} repeat
  closepath fill grestore} def
/Circle {stroke [] 0 setdash 2 copy
  hpt 0 360 arc stroke Pnt} def
/CircleF {stroke [] 0 setdash hpt 0 360 arc fill} def
/C0 {BL [] 0 setdash 2 copy moveto vpt 90 450 arc} bind def
/C1 {BL [] 0 setdash 2 copy moveto
	2 copy vpt 0 90 arc closepath fill
	vpt 0 360 arc closepath} bind def
/C2 {BL [] 0 setdash 2 copy moveto
	2 copy vpt 90 180 arc closepath fill
	vpt 0 360 arc closepath} bind def
/C3 {BL [] 0 setdash 2 copy moveto
	2 copy vpt 0 180 arc closepath fill
	vpt 0 360 arc closepath} bind def
/C4 {BL [] 0 setdash 2 copy moveto
	2 copy vpt 180 270 arc closepath fill
	vpt 0 360 arc closepath} bind def
/C5 {BL [] 0 setdash 2 copy moveto
	2 copy vpt 0 90 arc
	2 copy moveto
	2 copy vpt 180 270 arc closepath fill
	vpt 0 360 arc} bind def
/C6 {BL [] 0 setdash 2 copy moveto
	2 copy vpt 90 270 arc closepath fill
	vpt 0 360 arc closepath} bind def
/C7 {BL [] 0 setdash 2 copy moveto
	2 copy vpt 0 270 arc closepath fill
	vpt 0 360 arc closepath} bind def
/C8 {BL [] 0 setdash 2 copy moveto
	2 copy vpt 270 360 arc closepath fill
	vpt 0 360 arc closepath} bind def
/C9 {BL [] 0 setdash 2 copy moveto
	2 copy vpt 270 450 arc closepath fill
	vpt 0 360 arc closepath} bind def
/C10 {BL [] 0 setdash 2 copy 2 copy moveto vpt 270 360 arc closepath fill
	2 copy moveto
	2 copy vpt 90 180 arc closepath fill
	vpt 0 360 arc closepath} bind def
/C11 {BL [] 0 setdash 2 copy moveto
	2 copy vpt 0 180 arc closepath fill
	2 copy moveto
	2 copy vpt 270 360 arc closepath fill
	vpt 0 360 arc closepath} bind def
/C12 {BL [] 0 setdash 2 copy moveto
	2 copy vpt 180 360 arc closepath fill
	vpt 0 360 arc closepath} bind def
/C13 {BL [] 0 setdash 2 copy moveto
	2 copy vpt 0 90 arc closepath fill
	2 copy moveto
	2 copy vpt 180 360 arc closepath fill
	vpt 0 360 arc closepath} bind def
/C14 {BL [] 0 setdash 2 copy moveto
	2 copy vpt 90 360 arc closepath fill
	vpt 0 360 arc} bind def
/C15 {BL [] 0 setdash 2 copy vpt 0 360 arc closepath fill
	vpt 0 360 arc closepath} bind def
/Rec {newpath 4 2 roll moveto 1 index 0 rlineto 0 exch rlineto
	neg 0 rlineto closepath} bind def
/Square {dup Rec} bind def
/Bsquare {vpt sub exch vpt sub exch vpt2 Square} bind def
/S0 {BL [] 0 setdash 2 copy moveto 0 vpt rlineto BL Bsquare} bind def
/S1 {BL [] 0 setdash 2 copy vpt Square fill Bsquare} bind def
/S2 {BL [] 0 setdash 2 copy exch vpt sub exch vpt Square fill Bsquare} bind def
/S3 {BL [] 0 setdash 2 copy exch vpt sub exch vpt2 vpt Rec fill Bsquare} bind def
/S4 {BL [] 0 setdash 2 copy exch vpt sub exch vpt sub vpt Square fill Bsquare} bind def
/S5 {BL [] 0 setdash 2 copy 2 copy vpt Square fill
	exch vpt sub exch vpt sub vpt Square fill Bsquare} bind def
/S6 {BL [] 0 setdash 2 copy exch vpt sub exch vpt sub vpt vpt2 Rec fill Bsquare} bind def
/S7 {BL [] 0 setdash 2 copy exch vpt sub exch vpt sub vpt vpt2 Rec fill
	2 copy vpt Square fill Bsquare} bind def
/S8 {BL [] 0 setdash 2 copy vpt sub vpt Square fill Bsquare} bind def
/S9 {BL [] 0 setdash 2 copy vpt sub vpt vpt2 Rec fill Bsquare} bind def
/S10 {BL [] 0 setdash 2 copy vpt sub vpt Square fill 2 copy exch vpt sub exch vpt Square fill
	Bsquare} bind def
/S11 {BL [] 0 setdash 2 copy vpt sub vpt Square fill 2 copy exch vpt sub exch vpt2 vpt Rec fill
	Bsquare} bind def
/S12 {BL [] 0 setdash 2 copy exch vpt sub exch vpt sub vpt2 vpt Rec fill Bsquare} bind def
/S13 {BL [] 0 setdash 2 copy exch vpt sub exch vpt sub vpt2 vpt Rec fill
	2 copy vpt Square fill Bsquare} bind def
/S14 {BL [] 0 setdash 2 copy exch vpt sub exch vpt sub vpt2 vpt Rec fill
	2 copy exch vpt sub exch vpt Square fill Bsquare} bind def
/S15 {BL [] 0 setdash 2 copy Bsquare fill Bsquare} bind def
/D0 {gsave translate 45 rotate 0 0 S0 stroke grestore} bind def
/D1 {gsave translate 45 rotate 0 0 S1 stroke grestore} bind def
/D2 {gsave translate 45 rotate 0 0 S2 stroke grestore} bind def
/D3 {gsave translate 45 rotate 0 0 S3 stroke grestore} bind def
/D4 {gsave translate 45 rotate 0 0 S4 stroke grestore} bind def
/D5 {gsave translate 45 rotate 0 0 S5 stroke grestore} bind def
/D6 {gsave translate 45 rotate 0 0 S6 stroke grestore} bind def
/D7 {gsave translate 45 rotate 0 0 S7 stroke grestore} bind def
/D8 {gsave translate 45 rotate 0 0 S8 stroke grestore} bind def
/D9 {gsave translate 45 rotate 0 0 S9 stroke grestore} bind def
/D10 {gsave translate 45 rotate 0 0 S10 stroke grestore} bind def
/D11 {gsave translate 45 rotate 0 0 S11 stroke grestore} bind def
/D12 {gsave translate 45 rotate 0 0 S12 stroke grestore} bind def
/D13 {gsave translate 45 rotate 0 0 S13 stroke grestore} bind def
/D14 {gsave translate 45 rotate 0 0 S14 stroke grestore} bind def
/D15 {gsave translate 45 rotate 0 0 S15 stroke grestore} bind def
/DiaE {stroke [] 0 setdash vpt add M
  hpt neg vpt neg V hpt vpt neg V
  hpt vpt V hpt neg vpt V closepath stroke} def
/BoxE {stroke [] 0 setdash exch hpt sub exch vpt add M
  0 vpt2 neg V hpt2 0 V 0 vpt2 V
  hpt2 neg 0 V closepath stroke} def
/TriUE {stroke [] 0 setdash vpt 1.12 mul add M
  hpt neg vpt -1.62 mul V
  hpt 2 mul 0 V
  hpt neg vpt 1.62 mul V closepath stroke} def
/TriDE {stroke [] 0 setdash vpt 1.12 mul sub M
  hpt neg vpt 1.62 mul V
  hpt 2 mul 0 V
  hpt neg vpt -1.62 mul V closepath stroke} def
/PentE {stroke [] 0 setdash gsave
  translate 0 hpt M 4 {72 rotate 0 hpt L} repeat
  closepath stroke grestore} def
/CircE {stroke [] 0 setdash 
  hpt 0 360 arc stroke} def
/Opaque {gsave closepath 1 setgray fill grestore 0 setgray closepath} def
/DiaW {stroke [] 0 setdash vpt add M
  hpt neg vpt neg V hpt vpt neg V
  hpt vpt V hpt neg vpt V Opaque stroke} def
/BoxW {stroke [] 0 setdash exch hpt sub exch vpt add M
  0 vpt2 neg V hpt2 0 V 0 vpt2 V
  hpt2 neg 0 V Opaque stroke} def
/TriUW {stroke [] 0 setdash vpt 1.12 mul add M
  hpt neg vpt -1.62 mul V
  hpt 2 mul 0 V
  hpt neg vpt 1.62 mul V Opaque stroke} def
/TriDW {stroke [] 0 setdash vpt 1.12 mul sub M
  hpt neg vpt 1.62 mul V
  hpt 2 mul 0 V
  hpt neg vpt -1.62 mul V Opaque stroke} def
/PentW {stroke [] 0 setdash gsave
  translate 0 hpt M 4 {72 rotate 0 hpt L} repeat
  Opaque stroke grestore} def
/CircW {stroke [] 0 setdash 
  hpt 0 360 arc Opaque stroke} def
/BoxFill {gsave Rec 1 setgray fill grestore} def
/Density {
  /Fillden exch def
  currentrgbcolor
  /ColB exch def /ColG exch def /ColR exch def
  /ColR ColR Fillden mul Fillden sub 1 add def
  /ColG ColG Fillden mul Fillden sub 1 add def
  /ColB ColB Fillden mul Fillden sub 1 add def
  ColR ColG ColB setrgbcolor} def
/BoxColFill {gsave Rec PolyFill} def
/PolyFill {gsave Density fill grestore grestore} def
/h {rlineto rlineto rlineto gsave closepath fill grestore} bind def
%
% PostScript Level 1 Pattern Fill routine for rectangles
% Usage: x y w h s a XX PatternFill
%	x,y = lower left corner of box to be filled
%	w,h = width and height of box
%	  a = angle in degrees between lines and x-axis
%	 XX = 0/1 for no/yes cross-hatch
%
/PatternFill {gsave /PFa [ 9 2 roll ] def
  PFa 0 get PFa 2 get 2 div add PFa 1 get PFa 3 get 2 div add translate
  PFa 2 get -2 div PFa 3 get -2 div PFa 2 get PFa 3 get Rec
  TransparentPatterns {} {gsave 1 setgray fill grestore} ifelse
  clip
  currentlinewidth 0.5 mul setlinewidth
  /PFs PFa 2 get dup mul PFa 3 get dup mul add sqrt def
  0 0 M PFa 5 get rotate PFs -2 div dup translate
  0 1 PFs PFa 4 get div 1 add floor cvi
	{PFa 4 get mul 0 M 0 PFs V} for
  0 PFa 6 get ne {
	0 1 PFs PFa 4 get div 1 add floor cvi
	{PFa 4 get mul 0 2 1 roll M PFs 0 V} for
 } if
  stroke grestore} def
%
/languagelevel where
 {pop languagelevel} {1} ifelse
dup 2 lt
	{/InterpretLevel1 true def
	 /InterpretLevel3 false def}
	{/InterpretLevel1 Level1 def
	 2 gt
	    {/InterpretLevel3 Level3 def}
	    {/InterpretLevel3 false def}
	 ifelse }
 ifelse
%
% PostScript level 2 pattern fill definitions
%
/Level2PatternFill {
/Tile8x8 {/PaintType 2 /PatternType 1 /TilingType 1 /BBox [0 0 8 8] /XStep 8 /YStep 8}
	bind def
/KeepColor {currentrgbcolor [/Pattern /DeviceRGB] setcolorspace} bind def
<< Tile8x8
 /PaintProc {0.5 setlinewidth pop 0 0 M 8 8 L 0 8 M 8 0 L stroke} 
>> matrix makepattern
/Pat1 exch def
<< Tile8x8
 /PaintProc {0.5 setlinewidth pop 0 0 M 8 8 L 0 8 M 8 0 L stroke
	0 4 M 4 8 L 8 4 L 4 0 L 0 4 L stroke}
>> matrix makepattern
/Pat2 exch def
<< Tile8x8
 /PaintProc {0.5 setlinewidth pop 0 0 M 0 8 L
	8 8 L 8 0 L 0 0 L fill}
>> matrix makepattern
/Pat3 exch def
<< Tile8x8
 /PaintProc {0.5 setlinewidth pop -4 8 M 8 -4 L
	0 12 M 12 0 L stroke}
>> matrix makepattern
/Pat4 exch def
<< Tile8x8
 /PaintProc {0.5 setlinewidth pop -4 0 M 8 12 L
	0 -4 M 12 8 L stroke}
>> matrix makepattern
/Pat5 exch def
<< Tile8x8
 /PaintProc {0.5 setlinewidth pop -2 8 M 4 -4 L
	0 12 M 8 -4 L 4 12 M 10 0 L stroke}
>> matrix makepattern
/Pat6 exch def
<< Tile8x8
 /PaintProc {0.5 setlinewidth pop -2 0 M 4 12 L
	0 -4 M 8 12 L 4 -4 M 10 8 L stroke}
>> matrix makepattern
/Pat7 exch def
<< Tile8x8
 /PaintProc {0.5 setlinewidth pop 8 -2 M -4 4 L
	12 0 M -4 8 L 12 4 M 0 10 L stroke}
>> matrix makepattern
/Pat8 exch def
<< Tile8x8
 /PaintProc {0.5 setlinewidth pop 0 -2 M 12 4 L
	-4 0 M 12 8 L -4 4 M 8 10 L stroke}
>> matrix makepattern
/Pat9 exch def
/Pattern1 {PatternBgnd KeepColor Pat1 setpattern} bind def
/Pattern2 {PatternBgnd KeepColor Pat2 setpattern} bind def
/Pattern3 {PatternBgnd KeepColor Pat3 setpattern} bind def
/Pattern4 {PatternBgnd KeepColor Landscape {Pat5} {Pat4} ifelse setpattern} bind def
/Pattern5 {PatternBgnd KeepColor Landscape {Pat4} {Pat5} ifelse setpattern} bind def
/Pattern6 {PatternBgnd KeepColor Landscape {Pat9} {Pat6} ifelse setpattern} bind def
/Pattern7 {PatternBgnd KeepColor Landscape {Pat8} {Pat7} ifelse setpattern} bind def
} def
%
%
%End of PostScript Level 2 code
%
/PatternBgnd {
  TransparentPatterns {} {gsave 1 setgray fill grestore} ifelse
} def
%
% Substitute for Level 2 pattern fill codes with
% grayscale if Level 2 support is not selected.
%
/Level1PatternFill {
/Pattern1 {0.250 Density} bind def
/Pattern2 {0.500 Density} bind def
/Pattern3 {0.750 Density} bind def
/Pattern4 {0.125 Density} bind def
/Pattern5 {0.375 Density} bind def
/Pattern6 {0.625 Density} bind def
/Pattern7 {0.875 Density} bind def
} def
%
% Now test for support of Level 2 code
%
Level1 {Level1PatternFill} {Level2PatternFill} ifelse
%
/Symbol-Oblique /Symbol findfont [1 0 .167 1 0 0] makefont
dup length dict begin {1 index /FID eq {pop pop} {def} ifelse} forall
currentdict end definefont pop
%
/MFshow {
   { dup 5 get 3 ge
     { 5 get 3 eq {gsave} {grestore} ifelse }
     {dup dup 0 get findfont exch 1 get scalefont setfont
     [ currentpoint ] exch dup 2 get 0 exch R dup 5 get 2 ne {dup dup 6
     get exch 4 get {textshow} {stringwidth pop 0 R} ifelse }if dup 5 get 0 eq
     {dup 3 get {2 get neg 0 exch R pop} {pop aload pop M} ifelse} {dup 5
     get 1 eq {dup 2 get exch dup 3 get exch 6 get stringwidth pop -2 div
     dup 0 R} {dup 6 get stringwidth pop -2 div 0 R 6 get
     textshow 2 index {aload pop M neg 3 -1 roll neg R pop pop} {pop pop pop
     pop aload pop M} ifelse }ifelse }ifelse }
     ifelse }
   forall} def
/Gswidth {dup type /stringtype eq {stringwidth} {pop (n) stringwidth} ifelse} def
/MFwidth {0 exch { dup 5 get 3 ge { 5 get 3 eq { 0 } { pop } ifelse }
 {dup 3 get{dup dup 0 get findfont exch 1 get scalefont setfont
     6 get Gswidth pop add} {pop} ifelse} ifelse} forall} def
/MLshow { currentpoint stroke M
  0 exch R
  Blacktext {gsave 0 setgray MFshow grestore} {MFshow} ifelse } bind def
/MRshow { currentpoint stroke M
  exch dup MFwidth neg 3 -1 roll R
  Blacktext {gsave 0 setgray MFshow grestore} {MFshow} ifelse } bind def
/MCshow { currentpoint stroke M
  exch dup MFwidth -2 div 3 -1 roll R
  Blacktext {gsave 0 setgray MFshow grestore} {MFshow} ifelse } bind def
/XYsave    { [( ) 1 2 true false 3 ()] } bind def
/XYrestore { [( ) 1 2 true false 4 ()] } bind def
Level1 SuppressPDFMark or 
{} {
/SDict 10 dict def
systemdict /pdfmark known not {
  userdict /pdfmark systemdict /cleartomark get put
} if
SDict begin [
  /Title (TcpVegas-download-finishtime-75UE-panoramic.eps)
  /Subject (gnuplot plot)
  /Creator (gnuplot 5.0 patchlevel 3)
  /Author (nat)
%  /Producer (gnuplot)
%  /Keywords ()
  /CreationDate (Tue Jun  7 16:10:53 2016)
  /DOCINFO pdfmark
end
} ifelse
%
% Support for boxed text - Ethan A Merritt May 2005
%
/InitTextBox { userdict /TBy2 3 -1 roll put userdict /TBx2 3 -1 roll put
           userdict /TBy1 3 -1 roll put userdict /TBx1 3 -1 roll put
	   /Boxing true def } def
/ExtendTextBox { Boxing
    { gsave dup false charpath pathbbox
      dup TBy2 gt {userdict /TBy2 3 -1 roll put} {pop} ifelse
      dup TBx2 gt {userdict /TBx2 3 -1 roll put} {pop} ifelse
      dup TBy1 lt {userdict /TBy1 3 -1 roll put} {pop} ifelse
      dup TBx1 lt {userdict /TBx1 3 -1 roll put} {pop} ifelse
      grestore } if } def
/PopTextBox { newpath TBx1 TBxmargin sub TBy1 TBymargin sub M
               TBx1 TBxmargin sub TBy2 TBymargin add L
	       TBx2 TBxmargin add TBy2 TBymargin add L
	       TBx2 TBxmargin add TBy1 TBymargin sub L closepath } def
/DrawTextBox { PopTextBox stroke /Boxing false def} def
/FillTextBox { gsave PopTextBox 1 1 1 setrgbcolor fill grestore /Boxing false def} def
0 0 0 0 InitTextBox
/TBxmargin 20 def
/TBymargin 20 def
/Boxing false def
/textshow { ExtendTextBox Gshow } def
%
% redundant definitions for compatibility with prologue.ps older than 5.0.2
/LTB {BL [] LCb DL} def
/LTb {PL [] LCb DL} def
end
%%EndProlog
%%Page: 1 1
gnudict begin
gsave
doclip
50 50 translate
0.050 0.050 scale
0 setgray
newpath
(Arial) findfont 200 scalefont setfont
BackgroundColor 0 lt 3 1 roll 0 lt exch 0 lt or or not {BackgroundColor C 1.000 0 0 14400.00 5040.00 BoxColFill} if
1.000 UL
LTb
0.00 0.00 0.00 C 0.500 UL
LTa
0.50 0.50 0.50 C 980 1000 M
12139 0 V
stroke
1.000 UL
LTb
0.00 0.00 0.00 C 980 1000 M
63 0 V
stroke
860 1000 M
[ [(Arial) 200.0 0.0 true true 0 ( 0)]
] -66.7 MRshow
1.000 UL
LTb
0.00 0.00 0.00 C 0.500 UL
LTa
0.50 0.50 0.50 C 980 1475 M
12139 0 V
stroke
1.000 UL
LTb
0.00 0.00 0.00 C 980 1475 M
63 0 V
stroke
860 1475 M
[ [(Arial) 200.0 0.0 true true 0 ( 20)]
] -66.7 MRshow
1.000 UL
LTb
0.00 0.00 0.00 C 0.500 UL
LTa
0.50 0.50 0.50 C 980 1950 M
12139 0 V
stroke
1.000 UL
LTb
0.00 0.00 0.00 C 980 1950 M
63 0 V
stroke
860 1950 M
[ [(Arial) 200.0 0.0 true true 0 ( 40)]
] -66.7 MRshow
1.000 UL
LTb
0.00 0.00 0.00 C 0.500 UL
LTa
0.50 0.50 0.50 C 980 2425 M
12139 0 V
stroke
1.000 UL
LTb
0.00 0.00 0.00 C 980 2425 M
63 0 V
stroke
860 2425 M
[ [(Arial) 200.0 0.0 true true 0 ( 60)]
] -66.7 MRshow
1.000 UL
LTb
0.00 0.00 0.00 C 0.500 UL
LTa
0.50 0.50 0.50 C 980 2900 M
12139 0 V
stroke
1.000 UL
LTb
0.00 0.00 0.00 C 980 2900 M
63 0 V
stroke
860 2900 M
[ [(Arial) 200.0 0.0 true true 0 ( 80)]
] -66.7 MRshow
1.000 UL
LTb
0.00 0.00 0.00 C 0.500 UL
LTa
0.50 0.50 0.50 C 980 3374 M
12139 0 V
stroke
1.000 UL
LTb
0.00 0.00 0.00 C 980 3374 M
63 0 V
stroke
860 3374 M
[ [(Arial) 200.0 0.0 true true 0 ( 100)]
] -66.7 MRshow
1.000 UL
LTb
0.00 0.00 0.00 C 0.500 UL
LTa
0.50 0.50 0.50 C 980 3849 M
12139 0 V
stroke
1.000 UL
LTb
0.00 0.00 0.00 C 980 3849 M
63 0 V
stroke
860 3849 M
[ [(Arial) 200.0 0.0 true true 0 ( 120)]
] -66.7 MRshow
1.000 UL
LTb
0.00 0.00 0.00 C 0.500 UL
LTa
0.50 0.50 0.50 C 980 4324 M
12139 0 V
stroke
1.000 UL
LTb
0.00 0.00 0.00 C 980 4324 M
63 0 V
stroke
860 4324 M
[ [(Arial) 200.0 0.0 true true 0 ( 140)]
] -66.7 MRshow
1.000 UL
LTb
0.00 0.00 0.00 C 0.500 UL
LTa
0.50 0.50 0.50 C 980 4799 M
12139 0 V
stroke
1.000 UL
LTb
0.00 0.00 0.00 C 980 4799 M
63 0 V
stroke
860 4799 M
[ [(Arial) 200.0 0.0 true true 0 ( 160)]
] -66.7 MRshow
1.000 UL
LTb
0.00 0.00 0.00 C 0.500 UL
LTa
0.50 0.50 0.50 C 1235 1000 M
0 3799 V
stroke
1.000 UL
LTb
0.00 0.00 0.00 C 1235 1000 M
0 63 V
0 3736 R
0 -63 V
stroke
1235 800 M
[ [(Arial) 200.0 0.0 true true 0 ( 60)]
] -66.7 MCshow
1.000 UL
LTb
0.00 0.00 0.00 C 0.500 UL
LTa
0.50 0.50 0.50 C 1847 1000 M
0 3799 V
stroke
1.000 UL
LTb
0.00 0.00 0.00 C 1847 1000 M
0 63 V
0 3736 R
0 -63 V
stroke
1847 800 M
[ [(Arial) 200.0 0.0 true true 0 ( 120)]
] -66.7 MCshow
1.000 UL
LTb
0.00 0.00 0.00 C 0.500 UL
LTa
0.50 0.50 0.50 C 2459 1000 M
0 3799 V
stroke
1.000 UL
LTb
0.00 0.00 0.00 C 2459 1000 M
0 63 V
0 3736 R
0 -63 V
stroke
2459 800 M
[ [(Arial) 200.0 0.0 true true 0 ( 180)]
] -66.7 MCshow
1.000 UL
LTb
0.00 0.00 0.00 C 0.500 UL
LTa
0.50 0.50 0.50 C 3071 1000 M
0 3799 V
stroke
1.000 UL
LTb
0.00 0.00 0.00 C 3071 1000 M
0 63 V
0 3736 R
0 -63 V
stroke
3071 800 M
[ [(Arial) 200.0 0.0 true true 0 ( 240)]
] -66.7 MCshow
1.000 UL
LTb
0.00 0.00 0.00 C 0.500 UL
LTa
0.50 0.50 0.50 C 3683 1000 M
0 3799 V
stroke
1.000 UL
LTb
0.00 0.00 0.00 C 3683 1000 M
0 63 V
0 3736 R
0 -63 V
stroke
3683 800 M
[ [(Arial) 200.0 0.0 true true 0 ( 300)]
] -66.7 MCshow
1.000 UL
LTb
0.00 0.00 0.00 C 0.500 UL
LTa
0.50 0.50 0.50 C 4295 1000 M
0 3799 V
stroke
1.000 UL
LTb
0.00 0.00 0.00 C 4295 1000 M
0 63 V
0 3736 R
0 -63 V
stroke
4295 800 M
[ [(Arial) 200.0 0.0 true true 0 ( 360)]
] -66.7 MCshow
1.000 UL
LTb
0.00 0.00 0.00 C 0.500 UL
LTa
0.50 0.50 0.50 C 4907 1000 M
0 3799 V
stroke
1.000 UL
LTb
0.00 0.00 0.00 C 4907 1000 M
0 63 V
0 3736 R
0 -63 V
stroke
4907 800 M
[ [(Arial) 200.0 0.0 true true 0 ( 420)]
] -66.7 MCshow
1.000 UL
LTb
0.00 0.00 0.00 C 0.500 UL
LTa
0.50 0.50 0.50 C 5519 1000 M
0 3799 V
stroke
1.000 UL
LTb
0.00 0.00 0.00 C 5519 1000 M
0 63 V
0 3736 R
0 -63 V
stroke
5519 800 M
[ [(Arial) 200.0 0.0 true true 0 ( 480)]
] -66.7 MCshow
1.000 UL
LTb
0.00 0.00 0.00 C 0.500 UL
LTa
0.50 0.50 0.50 C 6131 1000 M
0 3799 V
stroke
1.000 UL
LTb
0.00 0.00 0.00 C 6131 1000 M
0 63 V
0 3736 R
0 -63 V
stroke
6131 800 M
[ [(Arial) 200.0 0.0 true true 0 ( 540)]
] -66.7 MCshow
1.000 UL
LTb
0.00 0.00 0.00 C 0.500 UL
LTa
0.50 0.50 0.50 C 6743 1000 M
0 3799 V
stroke
1.000 UL
LTb
0.00 0.00 0.00 C 6743 1000 M
0 63 V
0 3736 R
0 -63 V
stroke
6743 800 M
[ [(Arial) 200.0 0.0 true true 0 ( 600)]
] -66.7 MCshow
1.000 UL
LTb
0.00 0.00 0.00 C 0.500 UL
LTa
0.50 0.50 0.50 C 7356 1000 M
0 3799 V
stroke
1.000 UL
LTb
0.00 0.00 0.00 C 7356 1000 M
0 63 V
0 3736 R
0 -63 V
stroke
7356 800 M
[ [(Arial) 200.0 0.0 true true 0 ( 660)]
] -66.7 MCshow
1.000 UL
LTb
0.00 0.00 0.00 C 0.500 UL
LTa
0.50 0.50 0.50 C 7968 1000 M
0 3799 V
stroke
1.000 UL
LTb
0.00 0.00 0.00 C 7968 1000 M
0 63 V
0 3736 R
0 -63 V
stroke
7968 800 M
[ [(Arial) 200.0 0.0 true true 0 ( 720)]
] -66.7 MCshow
1.000 UL
LTb
0.00 0.00 0.00 C 0.500 UL
LTa
0.50 0.50 0.50 C 8580 1000 M
0 3799 V
stroke
1.000 UL
LTb
0.00 0.00 0.00 C 8580 1000 M
0 63 V
0 3736 R
0 -63 V
stroke
8580 800 M
[ [(Arial) 200.0 0.0 true true 0 ( 780)]
] -66.7 MCshow
1.000 UL
LTb
0.00 0.00 0.00 C 0.500 UL
LTa
0.50 0.50 0.50 C 9192 1000 M
0 3799 V
stroke
1.000 UL
LTb
0.00 0.00 0.00 C 9192 1000 M
0 63 V
0 3736 R
0 -63 V
stroke
9192 800 M
[ [(Arial) 200.0 0.0 true true 0 ( 840)]
] -66.7 MCshow
1.000 UL
LTb
0.00 0.00 0.00 C 0.500 UL
LTa
0.50 0.50 0.50 C 9804 1000 M
0 3799 V
stroke
1.000 UL
LTb
0.00 0.00 0.00 C 9804 1000 M
0 63 V
0 3736 R
0 -63 V
stroke
9804 800 M
[ [(Arial) 200.0 0.0 true true 0 ( 900)]
] -66.7 MCshow
1.000 UL
LTb
0.00 0.00 0.00 C 0.500 UL
LTa
0.50 0.50 0.50 C 10416 1000 M
0 3799 V
stroke
1.000 UL
LTb
0.00 0.00 0.00 C 10416 1000 M
0 63 V
0 3736 R
0 -63 V
stroke
10416 800 M
[ [(Arial) 200.0 0.0 true true 0 ( 960)]
] -66.7 MCshow
1.000 UL
LTb
0.00 0.00 0.00 C 0.500 UL
LTa
0.50 0.50 0.50 C 11028 1000 M
0 3799 V
stroke
1.000 UL
LTb
0.00 0.00 0.00 C 11028 1000 M
0 63 V
0 3736 R
0 -63 V
stroke
11028 800 M
[ [(Arial) 200.0 0.0 true true 0 ( 1020)]
] -66.7 MCshow
1.000 UL
LTb
0.00 0.00 0.00 C 0.500 UL
LTa
0.50 0.50 0.50 C 11640 1000 M
0 3799 V
stroke
1.000 UL
LTb
0.00 0.00 0.00 C 11640 1000 M
0 63 V
0 3736 R
0 -63 V
stroke
11640 800 M
[ [(Arial) 200.0 0.0 true true 0 ( 1080)]
] -66.7 MCshow
1.000 UL
LTb
0.00 0.00 0.00 C 0.500 UL
LTa
0.50 0.50 0.50 C 12252 1000 M
0 3799 V
stroke
1.000 UL
LTb
0.00 0.00 0.00 C 12252 1000 M
0 63 V
0 3736 R
0 -63 V
stroke
12252 800 M
[ [(Arial) 200.0 0.0 true true 0 ( 1140)]
] -66.7 MCshow
1.000 UL
LTb
0.00 0.00 0.00 C 0.500 UL
LTa
0.50 0.50 0.50 C 12864 1000 M
0 3799 V
stroke
1.000 UL
LTb
0.00 0.00 0.00 C 12864 1000 M
0 63 V
0 3736 R
0 -63 V
stroke
12864 800 M
[ [(Arial) 200.0 0.0 true true 0 ( 1200)]
] -66.7 MCshow
1.000 UL
LTb
0.00 0.00 0.00 C 13119 1000 M
-63 0 V
stroke
13239 1000 M
[ [(Arial) 200.0 0.0 true true 0 ( 0)]
] -66.7 MLshow
1.000 UL
LTb
0.00 0.00 0.00 C 13119 1760 M
-63 0 V
stroke
13239 1760 M
[ [(Arial) 200.0 0.0 true true 0 ( 20)]
] -66.7 MLshow
1.000 UL
LTb
0.00 0.00 0.00 C 13119 2520 M
-63 0 V
stroke
13239 2520 M
[ [(Arial) 200.0 0.0 true true 0 ( 40)]
] -66.7 MLshow
1.000 UL
LTb
0.00 0.00 0.00 C 13119 3279 M
-63 0 V
stroke
13239 3279 M
[ [(Arial) 200.0 0.0 true true 0 ( 60)]
] -66.7 MLshow
1.000 UL
LTb
0.00 0.00 0.00 C 13119 4039 M
-63 0 V
stroke
13239 4039 M
[ [(Arial) 200.0 0.0 true true 0 ( 80)]
] -66.7 MLshow
1.000 UL
LTb
0.00 0.00 0.00 C 13119 4799 M
-63 0 V
stroke
13239 4799 M
[ [(Arial) 200.0 0.0 true true 0 ( 100)]
] -66.7 MLshow
1.000 UL
LTb
0.00 0.00 0.00 C 1.000 UL
LTB
0.00 0.00 0.00 C 980 4799 M
0 -3799 V
12139 0 V
0 3799 R
980 4799 M
1.000 UP
stroke
LTb
0.00 0.00 0.00 C LCb setrgbcolor
160 2899 M
currentpoint gsave translate -270 rotate 0 0 moveto
[ [(Arial) 200.0 0.0 true true 0 (File download time \(s\))]
] -66.7 MCshow
grestore
LTb
LCb setrgbcolor
13938 2899 M
currentpoint gsave translate -270 rotate 0 0 moveto
[ [(Arial) 200.0 0.0 true true 0 (Average UDP throughput [%])]
] -66.7 MCshow
grestore
LTb
LCb setrgbcolor
7049 500 M
[ [(Arial) 200.0 0.0 true true 0 (Local Backhaul traffic \(Mb/s\))]
] -66.7 MCshow
LTb
% Begin plot #1
1.000 UL
LTb
0.60 0.60 0.00 C LCb setrgbcolor
4714 333 M
[ [(Arial) 180.0 0.0 true true 0 (file download time    :   olsr)]
] -60.0 MRshow
1.000 UL
LTb
0.60 0.60 0.00 C 4822 288 333 90 80 -45 0 PatternFill
4822 288 N
333 0 V
0 90 V
-333 0 V
0 -90 V
Z stroke
1.000 UL
LTb
0.60 0.60 0.00 C 990 1551 154 776 80 -45 0 PatternFill
1067 1069 M
0 482 V
0 776 R
0 471 V
stroke
990 1551 N
154 0 V
0 776 V
-154 0 V
0 -776 V
Z stroke
990 2798 M
154 0 V
990 1069 M
154 0 V
stroke
1602 1648 154 673 80 -45 0 PatternFill
1679 1069 M
0 579 V
0 673 R
0 520 V
stroke
1602 1648 N
154 0 V
0 673 V
-154 0 V
0 -673 V
Z stroke
1602 2841 M
154 0 V
1602 1069 M
154 0 V
stroke
2214 1640 154 703 80 -45 0 PatternFill
2291 1069 M
0 571 V
0 703 R
0 403 V
stroke
2214 1640 N
154 0 V
0 703 V
-154 0 V
0 -703 V
Z stroke
2214 2746 M
154 0 V
2214 1069 M
154 0 V
stroke
2826 1624 154 629 80 -45 0 PatternFill
2903 1069 M
0 555 V
0 629 R
0 540 V
stroke
2826 1624 N
154 0 V
0 629 V
-154 0 V
0 -629 V
Z stroke
2826 2793 M
154 0 V
2826 1069 M
154 0 V
stroke
3438 1647 154 704 80 -45 0 PatternFill
3515 1069 M
0 578 V
0 704 R
0 480 V
stroke
3438 1647 N
154 0 V
0 704 V
-154 0 V
0 -704 V
Z stroke
3438 2831 M
154 0 V
3438 1069 M
154 0 V
stroke
4050 1636 154 647 80 -45 0 PatternFill
4127 1069 M
0 567 V
0 647 R
0 374 V
stroke
4050 1636 N
154 0 V
0 647 V
-154 0 V
0 -647 V
Z stroke
4050 2657 M
154 0 V
4050 1069 M
154 0 V
stroke
4663 1602 154 636 80 -45 0 PatternFill
4740 1069 M
0 533 V
0 636 R
0 756 V
stroke
4663 1602 N
154 0 V
0 636 V
-154 0 V
0 -636 V
Z stroke
4663 2994 M
154 0 V
4663 1069 M
154 0 V
stroke
5275 1510 154 878 80 -45 0 PatternFill
5352 1069 M
0 441 V
0 878 R
0 325 V
stroke
5275 1510 N
154 0 V
0 878 V
-154 0 V
0 -878 V
Z stroke
5275 2713 M
154 0 V
5275 1069 M
154 0 V
stroke
5887 1562 154 716 80 -45 0 PatternFill
5964 1069 M
0 493 V
0 716 R
0 454 V
stroke
5887 1562 N
154 0 V
0 716 V
-154 0 V
0 -716 V
Z stroke
5887 2732 M
154 0 V
5887 1069 M
154 0 V
stroke
6499 1590 154 748 80 -45 0 PatternFill
6576 1069 M
0 521 V
0 748 R
0 537 V
stroke
6499 1590 N
154 0 V
0 748 V
-154 0 V
0 -748 V
Z stroke
6499 2875 M
154 0 V
6499 1069 M
154 0 V
stroke
7111 1696 154 660 80 -45 0 PatternFill
7188 1069 M
0 627 V
0 660 R
0 364 V
stroke
7111 1696 N
154 0 V
0 660 V
-154 0 V
0 -660 V
Z stroke
7111 2720 M
154 0 V
7111 1069 M
154 0 V
stroke
7723 1637 154 638 80 -45 0 PatternFill
7800 1069 M
0 568 V
0 638 R
0 569 V
stroke
7723 1637 N
154 0 V
0 638 V
-154 0 V
0 -638 V
Z stroke
7723 2844 M
154 0 V
7723 1069 M
154 0 V
stroke
8335 1607 154 707 80 -45 0 PatternFill
8412 1069 M
0 538 V
0 707 R
0 218 V
stroke
8335 1607 N
154 0 V
0 707 V
-154 0 V
0 -707 V
Z stroke
8335 2532 M
154 0 V
8335 1069 M
154 0 V
stroke
8947 1667 154 587 80 -45 0 PatternFill
9024 1069 M
0 598 V
0 587 R
0 584 V
stroke
8947 1667 N
154 0 V
0 587 V
-154 0 V
0 -587 V
Z stroke
8947 2838 M
154 0 V
8947 1069 M
154 0 V
stroke
9559 1534 154 802 80 -45 0 PatternFill
9636 1069 M
0 465 V
0 802 R
0 730 V
stroke
9559 1534 N
154 0 V
0 802 V
-154 0 V
0 -802 V
Z stroke
9559 3066 M
154 0 V
9559 1069 M
154 0 V
stroke
10171 1683 154 682 80 -45 0 PatternFill
10248 1069 M
0 614 V
0 682 R
0 470 V
stroke
10171 1683 N
154 0 V
0 682 V
-154 0 V
0 -682 V
Z stroke
10171 2835 M
154 0 V
10171 1069 M
154 0 V
stroke
10783 1593 154 739 80 -45 0 PatternFill
10860 1069 M
0 524 V
0 739 R
0 306 V
stroke
10783 1593 N
154 0 V
0 739 V
-154 0 V
0 -739 V
Z stroke
10783 2638 M
154 0 V
10783 1069 M
154 0 V
stroke
11395 1562 154 740 80 -45 0 PatternFill
11472 1069 M
0 493 V
0 740 R
0 582 V
stroke
11395 1562 N
154 0 V
0 740 V
-154 0 V
0 -740 V
Z stroke
11395 2884 M
154 0 V
11395 1069 M
154 0 V
stroke
12007 1575 154 807 80 -45 0 PatternFill
12084 1069 M
0 506 V
0 807 R
0 400 V
stroke
12007 1575 N
154 0 V
0 807 V
-154 0 V
0 -807 V
Z stroke
12007 2782 M
154 0 V
12007 1069 M
154 0 V
stroke
12619 1555 154 653 80 -45 0 PatternFill
12696 1069 M
0 486 V
0 653 R
0 705 V
stroke
12619 1555 N
154 0 V
0 653 V
-154 0 V
0 -653 V
Z stroke
12619 2913 M
154 0 V
12619 1069 M
154 0 V
% End plot #1
% Begin plot #2
stroke
LTb
LCb setrgbcolor

 /TransparentPatterns true def
990 1957 154 0 40 30 0 PatternFill
1067 1957 M
stroke
990 1957 N
154 0 V
-154 0 V
Z stroke
990 1957 M
154 0 V
-154 0 R
154 0 V
stroke

 /TransparentPatterns true def
1602 1977 154 0 40 30 0 PatternFill
1679 1977 M
stroke
1602 1977 N
154 0 V
-154 0 V
Z stroke
1602 1977 M
154 0 V
-154 0 R
154 0 V
stroke

 /TransparentPatterns true def
2214 1973 154 0 40 30 0 PatternFill
2291 1973 M
stroke
2214 1973 N
154 0 V
-154 0 V
Z stroke
2214 1973 M
154 0 V
-154 0 R
154 0 V
stroke

 /TransparentPatterns true def
2826 1946 154 0 40 30 0 PatternFill
2903 1946 M
stroke
2826 1946 N
154 0 V
-154 0 V
Z stroke
2826 1946 M
154 0 V
-154 0 R
154 0 V
stroke

 /TransparentPatterns true def
3438 1958 154 0 40 30 0 PatternFill
3515 1958 M
stroke
3438 1958 N
154 0 V
-154 0 V
Z stroke
3438 1958 M
154 0 V
-154 0 R
154 0 V
stroke

 /TransparentPatterns true def
4050 1980 154 0 40 30 0 PatternFill
4127 1980 M
stroke
4050 1980 N
154 0 V
-154 0 V
Z stroke
4050 1980 M
154 0 V
-154 0 R
154 0 V
stroke

 /TransparentPatterns true def
4663 1930 154 0 40 30 0 PatternFill
4740 1930 M
stroke
4663 1930 N
154 0 V
-154 0 V
Z stroke
4663 1930 M
154 0 V
-154 0 R
154 0 V
stroke

 /TransparentPatterns true def
5275 1973 154 0 40 30 0 PatternFill
5352 1973 M
stroke
5275 1973 N
154 0 V
-154 0 V
Z stroke
5275 1973 M
154 0 V
-154 0 R
154 0 V
stroke

 /TransparentPatterns true def
5887 1933 154 0 40 30 0 PatternFill
5964 1933 M
stroke
5887 1933 N
154 0 V
-154 0 V
Z stroke
5887 1933 M
154 0 V
-154 0 R
154 0 V
stroke

 /TransparentPatterns true def
6499 1960 154 0 40 30 0 PatternFill
6576 1960 M
stroke
6499 1960 N
154 0 V
-154 0 V
Z stroke
6499 1960 M
154 0 V
-154 0 R
154 0 V
stroke

 /TransparentPatterns true def
7111 1970 154 0 40 30 0 PatternFill
7188 1970 M
stroke
7111 1970 N
154 0 V
-154 0 V
Z stroke
7111 1970 M
154 0 V
-154 0 R
154 0 V
stroke

 /TransparentPatterns true def
7723 1933 154 0 40 30 0 PatternFill
7800 1933 M
stroke
7723 1933 N
154 0 V
-154 0 V
Z stroke
7723 1933 M
154 0 V
-154 0 R
154 0 V
stroke

 /TransparentPatterns true def
8335 1918 154 0 40 30 0 PatternFill
8412 1918 M
stroke
8335 1918 N
154 0 V
-154 0 V
Z stroke
8335 1918 M
154 0 V
-154 0 R
154 0 V
stroke

 /TransparentPatterns true def
8947 1955 154 0 40 30 0 PatternFill
9024 1955 M
stroke
8947 1955 N
154 0 V
-154 0 V
Z stroke
8947 1955 M
154 0 V
-154 0 R
154 0 V
stroke

 /TransparentPatterns true def
9559 1959 154 0 40 30 0 PatternFill
9636 1959 M
stroke
9559 1959 N
154 0 V
-154 0 V
Z stroke
9559 1959 M
154 0 V
-154 0 R
154 0 V
stroke

 /TransparentPatterns true def
10171 2004 154 0 40 30 0 PatternFill
10248 2004 M
stroke
10171 2004 N
154 0 V
-154 0 V
Z stroke
10171 2004 M
154 0 V
-154 0 R
154 0 V
stroke

 /TransparentPatterns true def
10783 1971 154 0 40 30 0 PatternFill
10860 1971 M
stroke
10783 1971 N
154 0 V
-154 0 V
Z stroke
10783 1971 M
154 0 V
-154 0 R
154 0 V
stroke

 /TransparentPatterns true def
11395 1927 154 0 40 30 0 PatternFill
11472 1927 M
stroke
11395 1927 N
154 0 V
-154 0 V
Z stroke
11395 1927 M
154 0 V
-154 0 R
154 0 V
stroke

 /TransparentPatterns true def
12007 1971 154 0 40 30 0 PatternFill
12084 1971 M
stroke
12007 1971 N
154 0 V
-154 0 V
Z stroke
12007 1971 M
154 0 V
-154 0 R
154 0 V
stroke

 /TransparentPatterns true def
12619 1922 154 0 40 30 0 PatternFill
12696 1922 M
stroke
12619 1922 N
154 0 V
-154 0 V
Z stroke
12619 1922 M
154 0 V
-154 0 R
154 0 V
% End plot #2
% Begin plot #3
2.000 UP
stroke
LTa
0.60 0.60 0.00 C LCb setrgbcolor
4714 153 M
[ [(Arial) 180.0 0.0 true true 0 (avg. throughput :         )]
] -60.0 MRshow
2.000 UP
1.000 UL
LTa
0.60 0.60 0.00 C 4822 153 M
333 0 V
1067 4685 M
612 -9 V
612 3 V
612 1 V
612 -3 V
612 2 V
612 1 V
612 -2 V
612 1 V
612 2 V
612 -3 V
612 2 V
612 -4 V
612 5 V
612 -2 V
612 -1 V
613 -1 V
612 4 V
612 -1 V
612 1 V
1067 4685 Box
1679 4676 Box
2291 4679 Box
2903 4680 Box
3515 4677 Box
4127 4679 Box
4739 4680 Box
5351 4678 Box
5963 4679 Box
6575 4681 Box
7187 4678 Box
7799 4680 Box
8411 4676 Box
9023 4681 Box
9635 4679 Box
10247 4678 Box
10860 4677 Box
11472 4681 Box
12084 4680 Box
12696 4681 Box
4988 153 Box
% End plot #3
% Begin plot #4
1.000 UL
LTb
0.00 0.00 0.63 C LCb setrgbcolor
8287 333 M
[ [(Arial) 180.0 0.0 true true 0 (per-packet)]
] -60.0 MRshow
1.000 UL
LTb
0.00 0.00 0.63 C 8395 288 333 90 80 45 0 PatternFill
8395 288 N
333 0 V
0 90 V
-333 0 V
0 -90 V
Z stroke
1.000 UL
LTb
0.00 0.00 0.63 C 1159 1701 154 850 80 45 0 PatternFill
1236 1139 M
0 562 V
0 850 R
0 559 V
stroke
1159 1701 N
154 0 V
0 850 V
-154 0 V
0 -850 V
Z stroke
1159 3110 M
154 0 V
1159 1139 M
154 0 V
stroke
1771 1718 154 829 80 45 0 PatternFill
1848 1135 M
0 583 V
0 829 R
0 535 V
stroke
1771 1718 N
154 0 V
0 829 V
-154 0 V
0 -829 V
Z stroke
1771 3082 M
154 0 V
1771 1135 M
154 0 V
stroke
2383 1578 154 1022 80 45 0 PatternFill
2460 1128 M
0 450 V
0 1022 R
0 452 V
stroke
2383 1578 N
154 0 V
0 1022 V
-154 0 V
0 -1022 V
Z stroke
2383 3052 M
154 0 V
2383 1128 M
154 0 V
stroke
2995 1669 154 916 80 45 0 PatternFill
3072 1041 M
0 628 V
0 916 R
0 436 V
stroke
2995 1669 N
154 0 V
0 916 V
-154 0 V
0 -916 V
Z stroke
2995 3021 M
154 0 V
2995 1041 M
154 0 V
stroke
3607 1635 154 961 80 45 0 PatternFill
3684 1200 M
0 435 V
0 961 R
0 548 V
stroke
3607 1635 N
154 0 V
0 961 V
-154 0 V
0 -961 V
Z stroke
3607 3144 M
154 0 V
3607 1200 M
154 0 V
stroke
4219 1699 154 879 80 45 0 PatternFill
4296 1219 M
0 480 V
0 879 R
0 577 V
stroke
4219 1699 N
154 0 V
0 879 V
-154 0 V
0 -879 V
Z stroke
4219 3155 M
154 0 V
4219 1219 M
154 0 V
stroke
4831 1588 154 944 80 45 0 PatternFill
4908 1116 M
0 472 V
0 944 R
0 601 V
stroke
4831 1588 N
154 0 V
0 944 V
-154 0 V
0 -944 V
Z stroke
4831 3133 M
154 0 V
4831 1116 M
154 0 V
stroke
5443 1582 154 992 80 45 0 PatternFill
5520 1188 M
0 394 V
0 992 R
0 737 V
stroke
5443 1582 N
154 0 V
0 992 V
-154 0 V
0 -992 V
Z stroke
5443 3311 M
154 0 V
5443 1188 M
154 0 V
stroke
6055 1771 154 743 80 45 0 PatternFill
6132 1192 M
0 579 V
0 743 R
0 544 V
stroke
6055 1771 N
154 0 V
0 743 V
-154 0 V
0 -743 V
Z stroke
6055 3058 M
154 0 V
6055 1192 M
154 0 V
stroke
6667 1654 154 881 80 45 0 PatternFill
6744 1197 M
0 457 V
0 881 R
0 552 V
stroke
6667 1654 N
154 0 V
0 881 V
-154 0 V
0 -881 V
Z stroke
6667 3087 M
154 0 V
6667 1197 M
154 0 V
stroke
7279 1723 154 788 80 45 0 PatternFill
7356 1118 M
0 605 V
0 788 R
0 683 V
stroke
7279 1723 N
154 0 V
0 788 V
-154 0 V
0 -788 V
Z stroke
7279 3194 M
154 0 V
7279 1118 M
154 0 V
stroke
7891 1566 154 964 80 45 0 PatternFill
7968 1118 M
0 448 V
0 964 R
0 514 V
stroke
7891 1566 N
154 0 V
0 964 V
-154 0 V
0 -964 V
Z stroke
7891 3044 M
154 0 V
7891 1118 M
154 0 V
stroke
8503 1760 154 784 80 45 0 PatternFill
8580 1134 M
0 626 V
0 784 R
0 584 V
stroke
8503 1760 N
154 0 V
0 784 V
-154 0 V
0 -784 V
Z stroke
8503 3128 M
154 0 V
8503 1134 M
154 0 V
stroke
9115 1668 154 927 80 45 0 PatternFill
9192 1076 M
0 592 V
0 927 R
0 471 V
stroke
9115 1668 N
154 0 V
0 927 V
-154 0 V
0 -927 V
Z stroke
9115 3066 M
154 0 V
9115 1076 M
154 0 V
stroke
9727 1579 154 975 80 45 0 PatternFill
9804 1102 M
0 477 V
0 975 R
0 572 V
stroke
9727 1579 N
154 0 V
0 975 V
-154 0 V
0 -975 V
Z stroke
9727 3126 M
154 0 V
9727 1102 M
154 0 V
stroke
10339 1709 154 832 80 45 0 PatternFill
10416 1042 M
0 667 V
0 832 R
0 639 V
stroke
10339 1709 N
154 0 V
0 832 V
-154 0 V
0 -832 V
Z stroke
10339 3180 M
154 0 V
10339 1042 M
154 0 V
stroke
10951 1628 154 939 80 45 0 PatternFill
11028 1078 M
0 550 V
0 939 R
0 510 V
stroke
10951 1628 N
154 0 V
0 939 V
-154 0 V
0 -939 V
Z stroke
10951 3077 M
154 0 V
10951 1078 M
154 0 V
stroke
11563 1582 154 966 80 45 0 PatternFill
11640 1042 M
0 540 V
0 966 R
0 497 V
stroke
11563 1582 N
154 0 V
0 966 V
-154 0 V
0 -966 V
Z stroke
11563 3045 M
154 0 V
11563 1042 M
154 0 V
stroke
12175 1611 154 900 80 45 0 PatternFill
12252 1116 M
0 495 V
0 900 R
0 502 V
stroke
12175 1611 N
154 0 V
0 900 V
-154 0 V
0 -900 V
Z stroke
12175 3013 M
154 0 V
12175 1116 M
154 0 V
stroke
12787 1683 154 818 80 45 0 PatternFill
12864 1122 M
0 561 V
0 818 R
0 527 V
stroke
12787 1683 N
154 0 V
0 818 V
-154 0 V
0 -818 V
Z stroke
12787 3028 M
154 0 V
12787 1122 M
154 0 V
% End plot #4
% Begin plot #5
stroke
LTb
LCb setrgbcolor

 /TransparentPatterns true def
1159 2122 154 0 80 -45 0 PatternFill
1236 2122 M
stroke
1159 2122 N
154 0 V
-154 0 V
Z stroke
1159 2122 M
154 0 V
-154 0 R
154 0 V
stroke

 /TransparentPatterns true def
1771 2116 154 0 80 -45 0 PatternFill
1848 2116 M
stroke
1771 2116 N
154 0 V
-154 0 V
Z stroke
1771 2116 M
154 0 V
-154 0 R
154 0 V
stroke

 /TransparentPatterns true def
2383 2112 154 0 80 -45 0 PatternFill
2460 2112 M
stroke
2383 2112 N
154 0 V
-154 0 V
Z stroke
2383 2112 M
154 0 V
-154 0 R
154 0 V
stroke

 /TransparentPatterns true def
2995 2118 154 0 80 -45 0 PatternFill
3072 2118 M
stroke
2995 2118 N
154 0 V
-154 0 V
Z stroke
2995 2118 M
154 0 V
-154 0 R
154 0 V
stroke

 /TransparentPatterns true def
3607 2131 154 0 80 -45 0 PatternFill
3684 2131 M
stroke
3607 2131 N
154 0 V
-154 0 V
Z stroke
3607 2131 M
154 0 V
-154 0 R
154 0 V
stroke

 /TransparentPatterns true def
4219 2147 154 0 80 -45 0 PatternFill
4296 2147 M
stroke
4219 2147 N
154 0 V
-154 0 V
Z stroke
4219 2147 M
154 0 V
-154 0 R
154 0 V
stroke

 /TransparentPatterns true def
4831 2073 154 0 80 -45 0 PatternFill
4908 2073 M
stroke
4831 2073 N
154 0 V
-154 0 V
Z stroke
4831 2073 M
154 0 V
-154 0 R
154 0 V
stroke

 /TransparentPatterns true def
5443 2123 154 0 80 -45 0 PatternFill
5520 2123 M
stroke
5443 2123 N
154 0 V
-154 0 V
Z stroke
5443 2123 M
154 0 V
-154 0 R
154 0 V
stroke

 /TransparentPatterns true def
6055 2106 154 0 80 -45 0 PatternFill
6132 2106 M
stroke
6055 2106 N
154 0 V
-154 0 V
Z stroke
6055 2106 M
154 0 V
-154 0 R
154 0 V
stroke

 /TransparentPatterns true def
6667 2115 154 0 80 -45 0 PatternFill
6744 2115 M
stroke
6667 2115 N
154 0 V
-154 0 V
Z stroke
6667 2115 M
154 0 V
-154 0 R
154 0 V
stroke

 /TransparentPatterns true def
7279 2102 154 0 80 -45 0 PatternFill
7356 2102 M
stroke
7279 2102 N
154 0 V
-154 0 V
Z stroke
7279 2102 M
154 0 V
-154 0 R
154 0 V
stroke

 /TransparentPatterns true def
7891 2089 154 0 80 -45 0 PatternFill
7968 2089 M
stroke
7891 2089 N
154 0 V
-154 0 V
Z stroke
7891 2089 M
154 0 V
-154 0 R
154 0 V
stroke

 /TransparentPatterns true def
8503 2122 154 0 80 -45 0 PatternFill
8580 2122 M
stroke
8503 2122 N
154 0 V
-154 0 V
Z stroke
8503 2122 M
154 0 V
-154 0 R
154 0 V
stroke

 /TransparentPatterns true def
9115 2141 154 0 80 -45 0 PatternFill
9192 2141 M
stroke
9115 2141 N
154 0 V
-154 0 V
Z stroke
9115 2141 M
154 0 V
-154 0 R
154 0 V
stroke

 /TransparentPatterns true def
9727 2138 154 0 80 -45 0 PatternFill
9804 2138 M
stroke
9727 2138 N
154 0 V
-154 0 V
Z stroke
9727 2138 M
154 0 V
-154 0 R
154 0 V
stroke

 /TransparentPatterns true def
10339 2115 154 0 80 -45 0 PatternFill
10416 2115 M
stroke
10339 2115 N
154 0 V
-154 0 V
Z stroke
10339 2115 M
154 0 V
-154 0 R
154 0 V
stroke

 /TransparentPatterns true def
10951 2113 154 0 80 -45 0 PatternFill
11028 2113 M
stroke
10951 2113 N
154 0 V
-154 0 V
Z stroke
10951 2113 M
154 0 V
-154 0 R
154 0 V
stroke

 /TransparentPatterns true def
11563 2080 154 0 80 -45 0 PatternFill
11640 2080 M
stroke
11563 2080 N
154 0 V
-154 0 V
Z stroke
11563 2080 M
154 0 V
-154 0 R
154 0 V
stroke

 /TransparentPatterns true def
12175 2076 154 0 80 -45 0 PatternFill
12252 2076 M
stroke
12175 2076 N
154 0 V
-154 0 V
Z stroke
12175 2076 M
154 0 V
-154 0 R
154 0 V
stroke

 /TransparentPatterns true def
12787 2074 154 0 80 -45 0 PatternFill
12864 2074 M
stroke
12787 2074 N
154 0 V
-154 0 V
Z stroke
12787 2074 M
154 0 V
-154 0 R
154 0 V
% End plot #5
% Begin plot #6
2.000 UP
stroke
LTa
0.00 0.00 0.63 C LCb setrgbcolor
8287 153 M
[ [(Arial) 180.0 0.0 true true 0 ( )]
] -60.0 MRshow
2.000 UP
1.000 UL
LTa
0.00 0.00 0.63 C 8395 153 M
333 0 V
1235 4780 M
612 10 V
612 -4 V
612 4 V
612 -2 V
612 -2 V
612 2 V
612 -1 V
612 -1 V
612 2 V
613 -1 V
612 1 V
612 -1 V
612 0 V
612 1 V
612 -1 V
612 1 V
612 -1 V
612 0 V
612 1 V
1235 4780 Circle
1847 4790 Circle
2459 4786 Circle
3071 4790 Circle
3683 4788 Circle
4295 4786 Circle
4907 4788 Circle
5519 4787 Circle
6131 4786 Circle
6743 4788 Circle
7356 4787 Circle
7968 4788 Circle
8580 4787 Circle
9192 4787 Circle
9804 4788 Circle
10416 4787 Circle
11028 4788 Circle
11640 4787 Circle
12252 4787 Circle
12864 4788 Circle
8561 153 Circle
% End plot #6
% Begin plot #7
1.000 UL
LTb
0.00 0.38 0.82 C LCb setrgbcolor
11860 333 M
[ [(Arial) 180.0 0.0 true true 0 (per-flow)]
] -60.0 MRshow
1.000 UL
LTb
0.00 0.38 0.82 C 11968 288 333 90 40 30 0 PatternFill
11968 288 N
333 0 V
0 90 V
-333 0 V
0 -90 V
Z stroke
1.000 UL
LTb
0.00 0.38 0.82 C 1327 1590 154 677 40 30 0 PatternFill
1404 1084 M
0 506 V
0 677 R
0 480 V
stroke
1327 1590 N
154 0 V
0 677 V
-154 0 V
0 -677 V
Z stroke
1327 2747 M
154 0 V
1327 1084 M
154 0 V
stroke
1939 1469 154 747 40 30 0 PatternFill
2016 1123 M
0 346 V
0 747 R
0 317 V
stroke
1939 1469 N
154 0 V
0 747 V
-154 0 V
0 -747 V
Z stroke
1939 2533 M
154 0 V
1939 1123 M
154 0 V
stroke
2551 1587 154 647 40 30 0 PatternFill
2628 1187 M
0 400 V
0 647 R
0 605 V
stroke
2551 1587 N
154 0 V
0 647 V
-154 0 V
0 -647 V
Z stroke
2551 2839 M
154 0 V
2551 1187 M
154 0 V
stroke
3163 1579 154 623 40 30 0 PatternFill
3240 1134 M
0 445 V
0 623 R
0 711 V
stroke
3163 1579 N
154 0 V
0 623 V
-154 0 V
0 -623 V
Z stroke
3163 2913 M
154 0 V
3163 1134 M
154 0 V
stroke
3775 1579 154 649 40 30 0 PatternFill
3852 1191 M
0 388 V
0 649 R
0 267 V
stroke
3775 1579 N
154 0 V
0 649 V
-154 0 V
0 -649 V
Z stroke
3775 2495 M
154 0 V
3775 1191 M
154 0 V
stroke
4387 1651 154 623 40 30 0 PatternFill
4464 1166 M
0 485 V
0 623 R
0 539 V
stroke
4387 1651 N
154 0 V
0 623 V
-154 0 V
0 -623 V
Z stroke
4387 2813 M
154 0 V
4387 1166 M
154 0 V
stroke
4999 1536 154 776 40 30 0 PatternFill
5076 1138 M
0 398 V
0 776 R
0 418 V
stroke
4999 1536 N
154 0 V
0 776 V
-154 0 V
0 -776 V
Z stroke
4999 2730 M
154 0 V
4999 1138 M
154 0 V
stroke
5611 1634 154 620 40 30 0 PatternFill
5688 1173 M
0 461 V
0 620 R
0 415 V
stroke
5611 1634 N
154 0 V
0 620 V
-154 0 V
0 -620 V
Z stroke
5611 2669 M
154 0 V
5611 1173 M
154 0 V
stroke
6223 1584 154 658 40 30 0 PatternFill
6300 1192 M
0 392 V
0 658 R
0 352 V
stroke
6223 1584 N
154 0 V
0 658 V
-154 0 V
0 -658 V
Z stroke
6223 2594 M
154 0 V
6223 1192 M
154 0 V
stroke
6835 1578 154 596 40 30 0 PatternFill
6912 1124 M
0 454 V
0 596 R
0 422 V
stroke
6835 1578 N
154 0 V
0 596 V
-154 0 V
0 -596 V
Z stroke
6835 2596 M
154 0 V
6835 1124 M
154 0 V
stroke
7447 1565 154 663 40 30 0 PatternFill
7524 1048 M
0 517 V
0 663 R
0 606 V
stroke
7447 1565 N
154 0 V
0 663 V
-154 0 V
0 -663 V
Z stroke
7447 2834 M
154 0 V
7447 1048 M
154 0 V
stroke
8059 1506 154 806 40 30 0 PatternFill
8136 1138 M
0 368 V
0 806 R
0 469 V
stroke
8059 1506 N
154 0 V
0 806 V
-154 0 V
0 -806 V
Z stroke
8059 2781 M
154 0 V
8059 1138 M
154 0 V
stroke
8671 1540 154 681 40 30 0 PatternFill
8748 1219 M
0 321 V
0 681 R
0 468 V
stroke
8671 1540 N
154 0 V
0 681 V
-154 0 V
0 -681 V
Z stroke
8671 2689 M
154 0 V
8671 1219 M
154 0 V
stroke
9283 1557 154 738 40 30 0 PatternFill
9360 1061 M
0 496 V
0 738 R
0 301 V
stroke
9283 1557 N
154 0 V
0 738 V
-154 0 V
0 -738 V
Z stroke
9283 2596 M
154 0 V
9283 1061 M
154 0 V
stroke
9896 1592 154 547 40 30 0 PatternFill
9973 1198 M
0 394 V
0 547 R
0 449 V
stroke
9896 1592 N
154 0 V
0 547 V
-154 0 V
0 -547 V
Z stroke
9896 2588 M
154 0 V
9896 1198 M
154 0 V
stroke
10508 1531 154 670 40 30 0 PatternFill
10585 1042 M
0 489 V
0 670 R
0 550 V
stroke
10508 1531 N
154 0 V
0 670 V
-154 0 V
0 -670 V
Z stroke
10508 2751 M
154 0 V
10508 1042 M
154 0 V
stroke
11120 1509 154 735 40 30 0 PatternFill
11197 1118 M
0 391 V
0 735 R
0 316 V
stroke
11120 1509 N
154 0 V
0 735 V
-154 0 V
0 -735 V
Z stroke
11120 2560 M
154 0 V
11120 1118 M
154 0 V
stroke
11732 1409 154 741 40 30 0 PatternFill
11809 1042 M
0 367 V
0 741 R
0 441 V
stroke
11732 1409 N
154 0 V
0 741 V
-154 0 V
0 -741 V
Z stroke
11732 2591 M
154 0 V
11732 1042 M
154 0 V
stroke
12344 1497 154 753 40 30 0 PatternFill
12421 1161 M
0 336 V
0 753 R
0 505 V
stroke
12344 1497 N
154 0 V
0 753 V
-154 0 V
0 -753 V
Z stroke
12344 2755 M
154 0 V
12344 1161 M
154 0 V
stroke
12956 1474 154 698 40 30 0 PatternFill
13033 1163 M
0 311 V
0 698 R
0 527 V
stroke
12956 1474 N
154 0 V
0 698 V
-154 0 V
0 -698 V
Z stroke
12956 2699 M
154 0 V
12956 1163 M
154 0 V
% End plot #7
% Begin plot #8
stroke
LTb
LCb setrgbcolor

 /TransparentPatterns true def
1327 1938 154 0 40 -30 0 PatternFill
1404 1938 M
stroke
1327 1938 N
154 0 V
-154 0 V
Z stroke
1327 1938 M
154 0 V
-154 0 R
154 0 V
stroke

 /TransparentPatterns true def
1939 1862 154 0 40 -30 0 PatternFill
2016 1862 M
stroke
1939 1862 N
154 0 V
-154 0 V
Z stroke
1939 1862 M
154 0 V
-154 0 R
154 0 V
stroke

 /TransparentPatterns true def
2551 1940 154 0 40 -30 0 PatternFill
2628 1940 M
stroke
2551 1940 N
154 0 V
-154 0 V
Z stroke
2551 1940 M
154 0 V
-154 0 R
154 0 V
stroke

 /TransparentPatterns true def
3163 1900 154 0 40 -30 0 PatternFill
3240 1900 M
stroke
3163 1900 N
154 0 V
-154 0 V
Z stroke
3163 1900 M
154 0 V
-154 0 R
154 0 V
stroke

 /TransparentPatterns true def
3775 1910 154 0 40 -30 0 PatternFill
3852 1910 M
stroke
3775 1910 N
154 0 V
-154 0 V
Z stroke
3775 1910 M
154 0 V
-154 0 R
154 0 V
stroke

 /TransparentPatterns true def
4387 1960 154 0 40 -30 0 PatternFill
4464 1960 M
stroke
4387 1960 N
154 0 V
-154 0 V
Z stroke
4387 1960 M
154 0 V
-154 0 R
154 0 V
stroke

 /TransparentPatterns true def
4999 1927 154 0 40 -30 0 PatternFill
5076 1927 M
stroke
4999 1927 N
154 0 V
-154 0 V
Z stroke
4999 1927 M
154 0 V
-154 0 R
154 0 V
stroke

 /TransparentPatterns true def
5611 1937 154 0 40 -30 0 PatternFill
5688 1937 M
stroke
5611 1937 N
154 0 V
-154 0 V
Z stroke
5611 1937 M
154 0 V
-154 0 R
154 0 V
stroke

 /TransparentPatterns true def
6223 1902 154 0 40 -30 0 PatternFill
6300 1902 M
stroke
6223 1902 N
154 0 V
-154 0 V
Z stroke
6223 1902 M
154 0 V
-154 0 R
154 0 V
stroke

 /TransparentPatterns true def
6835 1908 154 0 40 -30 0 PatternFill
6912 1908 M
stroke
6835 1908 N
154 0 V
-154 0 V
Z stroke
6835 1908 M
154 0 V
-154 0 R
154 0 V
stroke

 /TransparentPatterns true def
7447 1923 154 0 40 -30 0 PatternFill
7524 1923 M
stroke
7447 1923 N
154 0 V
-154 0 V
Z stroke
7447 1923 M
154 0 V
-154 0 R
154 0 V
stroke

 /TransparentPatterns true def
8059 1914 154 0 40 -30 0 PatternFill
8136 1914 M
stroke
8059 1914 N
154 0 V
-154 0 V
Z stroke
8059 1914 M
154 0 V
-154 0 R
154 0 V
stroke

 /TransparentPatterns true def
8671 1927 154 0 40 -30 0 PatternFill
8748 1927 M
stroke
8671 1927 N
154 0 V
-154 0 V
Z stroke
8671 1927 M
154 0 V
-154 0 R
154 0 V
stroke

 /TransparentPatterns true def
9283 1895 154 0 40 -30 0 PatternFill
9360 1895 M
stroke
9283 1895 N
154 0 V
-154 0 V
Z stroke
9283 1895 M
154 0 V
-154 0 R
154 0 V
stroke

 /TransparentPatterns true def
9896 1888 154 0 40 -30 0 PatternFill
9973 1888 M
stroke
9896 1888 N
154 0 V
-154 0 V
Z stroke
9896 1888 M
154 0 V
-154 0 R
154 0 V
stroke

 /TransparentPatterns true def
10508 1895 154 0 40 -30 0 PatternFill
10585 1895 M
stroke
10508 1895 N
154 0 V
-154 0 V
Z stroke
10508 1895 M
154 0 V
-154 0 R
154 0 V
stroke

 /TransparentPatterns true def
11120 1901 154 0 40 -30 0 PatternFill
11197 1901 M
stroke
11120 1901 N
154 0 V
-154 0 V
Z stroke
11120 1901 M
154 0 V
-154 0 R
154 0 V
stroke

 /TransparentPatterns true def
11732 1840 154 0 40 -30 0 PatternFill
11809 1840 M
stroke
11732 1840 N
154 0 V
-154 0 V
Z stroke
11732 1840 M
154 0 V
-154 0 R
154 0 V
stroke

 /TransparentPatterns true def
12344 1905 154 0 40 -30 0 PatternFill
12421 1905 M
stroke
12344 1905 N
154 0 V
-154 0 V
Z stroke
12344 1905 M
154 0 V
-154 0 R
154 0 V
stroke

 /TransparentPatterns true def
12956 1881 154 0 40 -30 0 PatternFill
13033 1881 M
stroke
12956 1881 N
154 0 V
-154 0 V
Z stroke
12956 1881 M
154 0 V
-154 0 R
154 0 V
% End plot #8
% Begin plot #9
2.000 UP
stroke
LTa
0.00 0.38 0.82 C LCb setrgbcolor
11860 153 M
[ [(Arial) 180.0 0.0 true true 0 ( )]
] -60.0 MRshow
2.000 UP
1.000 UL
LTa
0.00 0.38 0.82 C 11968 153 M
333 0 V
1403 4780 M
612 10 V
612 -4 V
612 -1 V
613 3 V
612 -2 V
612 2 V
612 -1 V
612 -1 V
612 2 V
612 -1 V
612 -1 V
612 1 V
612 0 V
612 -1 V
612 1 V
612 0 V
612 -1 V
612 1 V
612 0 V
1403 4780 TriU
2015 4790 TriU
2627 4786 TriU
3239 4785 TriU
3852 4788 TriU
4464 4786 TriU
5076 4788 TriU
5688 4787 TriU
6300 4786 TriU
6912 4788 TriU
7524 4787 TriU
8136 4786 TriU
8748 4787 TriU
9360 4787 TriU
9972 4786 TriU
10584 4787 TriU
11196 4787 TriU
11808 4786 TriU
12420 4787 TriU
13032 4787 TriU
12134 153 TriU
% End plot #9
2.000 UL
LTb
LCb setrgbcolor
1.000 UP
1.000 UL
LTb
0.00 0.00 0.00 C stroke
grestore
end
showpage
%%Trailer
%%DocumentFonts: Arial
