%!PS-Adobe-2.0 EPSF-2.0
%%Title: TcpVegas-download-finishtime-75UE-250-400.eps
%%Creator: gnuplot 5.0 patchlevel 3
%%CreationDate: Thu May 19 16:44:20 2016
%%DocumentFonts: (atend)
%%BoundingBox: 50 50 770 302
%%EndComments
%%BeginProlog
/gnudict 256 dict def
gnudict begin
%
% The following true/false flags may be edited by hand if desired.
% The unit line width and grayscale image gamma correction may also be changed.
%
/Color true def
/Blacktext false def
/Solid false def
/Dashlength 3 def
/Landscape false def
/Level1 false def
/Level3 false def
/Rounded false def
/ClipToBoundingBox false def
/SuppressPDFMark false def
/TransparentPatterns false def
/gnulinewidth 15.000 def
/userlinewidth gnulinewidth def
/Gamma 1.0 def
/BackgroundColor {-1.000 -1.000 -1.000} def
%
/vshift -66 def
/dl1 {
  10.0 Dashlength userlinewidth gnulinewidth div mul mul mul
  Rounded { currentlinewidth 0.75 mul sub dup 0 le { pop 0.01 } if } if
} def
/dl2 {
  10.0 Dashlength userlinewidth gnulinewidth div mul mul mul
  Rounded { currentlinewidth 0.75 mul add } if
} def
/hpt_ 31.5 def
/vpt_ 31.5 def
/hpt hpt_ def
/vpt vpt_ def
/doclip {
  ClipToBoundingBox {
    newpath 50 50 moveto 770 50 lineto 770 302 lineto 50 302 lineto closepath
    clip
  } if
} def
%
% Gnuplot Prolog Version 5.1 (Oct 2015)
%
%/SuppressPDFMark true def
%
/M {moveto} bind def
/L {lineto} bind def
/R {rmoveto} bind def
/V {rlineto} bind def
/N {newpath moveto} bind def
/Z {closepath} bind def
/C {setrgbcolor} bind def
/f {rlineto fill} bind def
/g {setgray} bind def
/Gshow {show} def   % May be redefined later in the file to support UTF-8
/vpt2 vpt 2 mul def
/hpt2 hpt 2 mul def
/Lshow {currentpoint stroke M 0 vshift R 
	Blacktext {gsave 0 setgray textshow grestore} {textshow} ifelse} def
/Rshow {currentpoint stroke M dup stringwidth pop neg vshift R
	Blacktext {gsave 0 setgray textshow grestore} {textshow} ifelse} def
/Cshow {currentpoint stroke M dup stringwidth pop -2 div vshift R 
	Blacktext {gsave 0 setgray textshow grestore} {textshow} ifelse} def
/UP {dup vpt_ mul /vpt exch def hpt_ mul /hpt exch def
  /hpt2 hpt 2 mul def /vpt2 vpt 2 mul def} def
/DL {Color {setrgbcolor Solid {pop []} if 0 setdash}
 {pop pop pop 0 setgray Solid {pop []} if 0 setdash} ifelse} def
/BL {stroke userlinewidth 2 mul setlinewidth
	Rounded {1 setlinejoin 1 setlinecap} if} def
/AL {stroke userlinewidth 2 div setlinewidth
	Rounded {1 setlinejoin 1 setlinecap} if} def
/UL {dup gnulinewidth mul /userlinewidth exch def
	dup 1 lt {pop 1} if 10 mul /udl exch def} def
/PL {stroke userlinewidth setlinewidth
	Rounded {1 setlinejoin 1 setlinecap} if} def
3.8 setmiterlimit
% Classic Line colors (version 5.0)
/LCw {1 1 1} def
/LCb {0 0 0} def
/LCa {0 0 0} def
/LC0 {1 0 0} def
/LC1 {0 1 0} def
/LC2 {0 0 1} def
/LC3 {1 0 1} def
/LC4 {0 1 1} def
/LC5 {1 1 0} def
/LC6 {0 0 0} def
/LC7 {1 0.3 0} def
/LC8 {0.5 0.5 0.5} def
% Default dash patterns (version 5.0)
/LTB {BL [] LCb DL} def
/LTw {PL [] 1 setgray} def
/LTb {PL [] LCb DL} def
/LTa {AL [1 udl mul 2 udl mul] 0 setdash LCa setrgbcolor} def
/LT0 {PL [] LC0 DL} def
/LT1 {PL [2 dl1 3 dl2] LC1 DL} def
/LT2 {PL [1 dl1 1.5 dl2] LC2 DL} def
/LT3 {PL [6 dl1 2 dl2 1 dl1 2 dl2] LC3 DL} def
/LT4 {PL [1 dl1 2 dl2 6 dl1 2 dl2 1 dl1 2 dl2] LC4 DL} def
/LT5 {PL [4 dl1 2 dl2] LC5 DL} def
/LT6 {PL [1.5 dl1 1.5 dl2 1.5 dl1 1.5 dl2 1.5 dl1 6 dl2] LC6 DL} def
/LT7 {PL [3 dl1 3 dl2 1 dl1 3 dl2] LC7 DL} def
/LT8 {PL [2 dl1 2 dl2 2 dl1 6 dl2] LC8 DL} def
/SL {[] 0 setdash} def
/Pnt {stroke [] 0 setdash gsave 1 setlinecap M 0 0 V stroke grestore} def
/Dia {stroke [] 0 setdash 2 copy vpt add M
  hpt neg vpt neg V hpt vpt neg V
  hpt vpt V hpt neg vpt V closepath stroke
  Pnt} def
/Pls {stroke [] 0 setdash vpt sub M 0 vpt2 V
  currentpoint stroke M
  hpt neg vpt neg R hpt2 0 V stroke
 } def
/Box {stroke [] 0 setdash 2 copy exch hpt sub exch vpt add M
  0 vpt2 neg V hpt2 0 V 0 vpt2 V
  hpt2 neg 0 V closepath stroke
  Pnt} def
/Crs {stroke [] 0 setdash exch hpt sub exch vpt add M
  hpt2 vpt2 neg V currentpoint stroke M
  hpt2 neg 0 R hpt2 vpt2 V stroke} def
/TriU {stroke [] 0 setdash 2 copy vpt 1.12 mul add M
  hpt neg vpt -1.62 mul V
  hpt 2 mul 0 V
  hpt neg vpt 1.62 mul V closepath stroke
  Pnt} def
/Star {2 copy Pls Crs} def
/BoxF {stroke [] 0 setdash exch hpt sub exch vpt add M
  0 vpt2 neg V hpt2 0 V 0 vpt2 V
  hpt2 neg 0 V closepath fill} def
/TriUF {stroke [] 0 setdash vpt 1.12 mul add M
  hpt neg vpt -1.62 mul V
  hpt 2 mul 0 V
  hpt neg vpt 1.62 mul V closepath fill} def
/TriD {stroke [] 0 setdash 2 copy vpt 1.12 mul sub M
  hpt neg vpt 1.62 mul V
  hpt 2 mul 0 V
  hpt neg vpt -1.62 mul V closepath stroke
  Pnt} def
/TriDF {stroke [] 0 setdash vpt 1.12 mul sub M
  hpt neg vpt 1.62 mul V
  hpt 2 mul 0 V
  hpt neg vpt -1.62 mul V closepath fill} def
/DiaF {stroke [] 0 setdash vpt add M
  hpt neg vpt neg V hpt vpt neg V
  hpt vpt V hpt neg vpt V closepath fill} def
/Pent {stroke [] 0 setdash 2 copy gsave
  translate 0 hpt M 4 {72 rotate 0 hpt L} repeat
  closepath stroke grestore Pnt} def
/PentF {stroke [] 0 setdash gsave
  translate 0 hpt M 4 {72 rotate 0 hpt L} repeat
  closepath fill grestore} def
/Circle {stroke [] 0 setdash 2 copy
  hpt 0 360 arc stroke Pnt} def
/CircleF {stroke [] 0 setdash hpt 0 360 arc fill} def
/C0 {BL [] 0 setdash 2 copy moveto vpt 90 450 arc} bind def
/C1 {BL [] 0 setdash 2 copy moveto
	2 copy vpt 0 90 arc closepath fill
	vpt 0 360 arc closepath} bind def
/C2 {BL [] 0 setdash 2 copy moveto
	2 copy vpt 90 180 arc closepath fill
	vpt 0 360 arc closepath} bind def
/C3 {BL [] 0 setdash 2 copy moveto
	2 copy vpt 0 180 arc closepath fill
	vpt 0 360 arc closepath} bind def
/C4 {BL [] 0 setdash 2 copy moveto
	2 copy vpt 180 270 arc closepath fill
	vpt 0 360 arc closepath} bind def
/C5 {BL [] 0 setdash 2 copy moveto
	2 copy vpt 0 90 arc
	2 copy moveto
	2 copy vpt 180 270 arc closepath fill
	vpt 0 360 arc} bind def
/C6 {BL [] 0 setdash 2 copy moveto
	2 copy vpt 90 270 arc closepath fill
	vpt 0 360 arc closepath} bind def
/C7 {BL [] 0 setdash 2 copy moveto
	2 copy vpt 0 270 arc closepath fill
	vpt 0 360 arc closepath} bind def
/C8 {BL [] 0 setdash 2 copy moveto
	2 copy vpt 270 360 arc closepath fill
	vpt 0 360 arc closepath} bind def
/C9 {BL [] 0 setdash 2 copy moveto
	2 copy vpt 270 450 arc closepath fill
	vpt 0 360 arc closepath} bind def
/C10 {BL [] 0 setdash 2 copy 2 copy moveto vpt 270 360 arc closepath fill
	2 copy moveto
	2 copy vpt 90 180 arc closepath fill
	vpt 0 360 arc closepath} bind def
/C11 {BL [] 0 setdash 2 copy moveto
	2 copy vpt 0 180 arc closepath fill
	2 copy moveto
	2 copy vpt 270 360 arc closepath fill
	vpt 0 360 arc closepath} bind def
/C12 {BL [] 0 setdash 2 copy moveto
	2 copy vpt 180 360 arc closepath fill
	vpt 0 360 arc closepath} bind def
/C13 {BL [] 0 setdash 2 copy moveto
	2 copy vpt 0 90 arc closepath fill
	2 copy moveto
	2 copy vpt 180 360 arc closepath fill
	vpt 0 360 arc closepath} bind def
/C14 {BL [] 0 setdash 2 copy moveto
	2 copy vpt 90 360 arc closepath fill
	vpt 0 360 arc} bind def
/C15 {BL [] 0 setdash 2 copy vpt 0 360 arc closepath fill
	vpt 0 360 arc closepath} bind def
/Rec {newpath 4 2 roll moveto 1 index 0 rlineto 0 exch rlineto
	neg 0 rlineto closepath} bind def
/Square {dup Rec} bind def
/Bsquare {vpt sub exch vpt sub exch vpt2 Square} bind def
/S0 {BL [] 0 setdash 2 copy moveto 0 vpt rlineto BL Bsquare} bind def
/S1 {BL [] 0 setdash 2 copy vpt Square fill Bsquare} bind def
/S2 {BL [] 0 setdash 2 copy exch vpt sub exch vpt Square fill Bsquare} bind def
/S3 {BL [] 0 setdash 2 copy exch vpt sub exch vpt2 vpt Rec fill Bsquare} bind def
/S4 {BL [] 0 setdash 2 copy exch vpt sub exch vpt sub vpt Square fill Bsquare} bind def
/S5 {BL [] 0 setdash 2 copy 2 copy vpt Square fill
	exch vpt sub exch vpt sub vpt Square fill Bsquare} bind def
/S6 {BL [] 0 setdash 2 copy exch vpt sub exch vpt sub vpt vpt2 Rec fill Bsquare} bind def
/S7 {BL [] 0 setdash 2 copy exch vpt sub exch vpt sub vpt vpt2 Rec fill
	2 copy vpt Square fill Bsquare} bind def
/S8 {BL [] 0 setdash 2 copy vpt sub vpt Square fill Bsquare} bind def
/S9 {BL [] 0 setdash 2 copy vpt sub vpt vpt2 Rec fill Bsquare} bind def
/S10 {BL [] 0 setdash 2 copy vpt sub vpt Square fill 2 copy exch vpt sub exch vpt Square fill
	Bsquare} bind def
/S11 {BL [] 0 setdash 2 copy vpt sub vpt Square fill 2 copy exch vpt sub exch vpt2 vpt Rec fill
	Bsquare} bind def
/S12 {BL [] 0 setdash 2 copy exch vpt sub exch vpt sub vpt2 vpt Rec fill Bsquare} bind def
/S13 {BL [] 0 setdash 2 copy exch vpt sub exch vpt sub vpt2 vpt Rec fill
	2 copy vpt Square fill Bsquare} bind def
/S14 {BL [] 0 setdash 2 copy exch vpt sub exch vpt sub vpt2 vpt Rec fill
	2 copy exch vpt sub exch vpt Square fill Bsquare} bind def
/S15 {BL [] 0 setdash 2 copy Bsquare fill Bsquare} bind def
/D0 {gsave translate 45 rotate 0 0 S0 stroke grestore} bind def
/D1 {gsave translate 45 rotate 0 0 S1 stroke grestore} bind def
/D2 {gsave translate 45 rotate 0 0 S2 stroke grestore} bind def
/D3 {gsave translate 45 rotate 0 0 S3 stroke grestore} bind def
/D4 {gsave translate 45 rotate 0 0 S4 stroke grestore} bind def
/D5 {gsave translate 45 rotate 0 0 S5 stroke grestore} bind def
/D6 {gsave translate 45 rotate 0 0 S6 stroke grestore} bind def
/D7 {gsave translate 45 rotate 0 0 S7 stroke grestore} bind def
/D8 {gsave translate 45 rotate 0 0 S8 stroke grestore} bind def
/D9 {gsave translate 45 rotate 0 0 S9 stroke grestore} bind def
/D10 {gsave translate 45 rotate 0 0 S10 stroke grestore} bind def
/D11 {gsave translate 45 rotate 0 0 S11 stroke grestore} bind def
/D12 {gsave translate 45 rotate 0 0 S12 stroke grestore} bind def
/D13 {gsave translate 45 rotate 0 0 S13 stroke grestore} bind def
/D14 {gsave translate 45 rotate 0 0 S14 stroke grestore} bind def
/D15 {gsave translate 45 rotate 0 0 S15 stroke grestore} bind def
/DiaE {stroke [] 0 setdash vpt add M
  hpt neg vpt neg V hpt vpt neg V
  hpt vpt V hpt neg vpt V closepath stroke} def
/BoxE {stroke [] 0 setdash exch hpt sub exch vpt add M
  0 vpt2 neg V hpt2 0 V 0 vpt2 V
  hpt2 neg 0 V closepath stroke} def
/TriUE {stroke [] 0 setdash vpt 1.12 mul add M
  hpt neg vpt -1.62 mul V
  hpt 2 mul 0 V
  hpt neg vpt 1.62 mul V closepath stroke} def
/TriDE {stroke [] 0 setdash vpt 1.12 mul sub M
  hpt neg vpt 1.62 mul V
  hpt 2 mul 0 V
  hpt neg vpt -1.62 mul V closepath stroke} def
/PentE {stroke [] 0 setdash gsave
  translate 0 hpt M 4 {72 rotate 0 hpt L} repeat
  closepath stroke grestore} def
/CircE {stroke [] 0 setdash 
  hpt 0 360 arc stroke} def
/Opaque {gsave closepath 1 setgray fill grestore 0 setgray closepath} def
/DiaW {stroke [] 0 setdash vpt add M
  hpt neg vpt neg V hpt vpt neg V
  hpt vpt V hpt neg vpt V Opaque stroke} def
/BoxW {stroke [] 0 setdash exch hpt sub exch vpt add M
  0 vpt2 neg V hpt2 0 V 0 vpt2 V
  hpt2 neg 0 V Opaque stroke} def
/TriUW {stroke [] 0 setdash vpt 1.12 mul add M
  hpt neg vpt -1.62 mul V
  hpt 2 mul 0 V
  hpt neg vpt 1.62 mul V Opaque stroke} def
/TriDW {stroke [] 0 setdash vpt 1.12 mul sub M
  hpt neg vpt 1.62 mul V
  hpt 2 mul 0 V
  hpt neg vpt -1.62 mul V Opaque stroke} def
/PentW {stroke [] 0 setdash gsave
  translate 0 hpt M 4 {72 rotate 0 hpt L} repeat
  Opaque stroke grestore} def
/CircW {stroke [] 0 setdash 
  hpt 0 360 arc Opaque stroke} def
/BoxFill {gsave Rec 1 setgray fill grestore} def
/Density {
  /Fillden exch def
  currentrgbcolor
  /ColB exch def /ColG exch def /ColR exch def
  /ColR ColR Fillden mul Fillden sub 1 add def
  /ColG ColG Fillden mul Fillden sub 1 add def
  /ColB ColB Fillden mul Fillden sub 1 add def
  ColR ColG ColB setrgbcolor} def
/BoxColFill {gsave Rec PolyFill} def
/PolyFill {gsave Density fill grestore grestore} def
/h {rlineto rlineto rlineto gsave closepath fill grestore} bind def
%
% PostScript Level 1 Pattern Fill routine for rectangles
% Usage: x y w h s a XX PatternFill
%	x,y = lower left corner of box to be filled
%	w,h = width and height of box
%	  a = angle in degrees between lines and x-axis
%	 XX = 0/1 for no/yes cross-hatch
%
/PatternFill {gsave /PFa [ 9 2 roll ] def
  PFa 0 get PFa 2 get 2 div add PFa 1 get PFa 3 get 2 div add translate
  PFa 2 get -2 div PFa 3 get -2 div PFa 2 get PFa 3 get Rec
  TransparentPatterns {} {gsave 1 setgray fill grestore} ifelse
  clip
  currentlinewidth 0.5 mul setlinewidth
  /PFs PFa 2 get dup mul PFa 3 get dup mul add sqrt def
  0 0 M PFa 5 get rotate PFs -2 div dup translate
  0 1 PFs PFa 4 get div 1 add floor cvi
	{PFa 4 get mul 0 M 0 PFs V} for
  0 PFa 6 get ne {
	0 1 PFs PFa 4 get div 1 add floor cvi
	{PFa 4 get mul 0 2 1 roll M PFs 0 V} for
 } if
  stroke grestore} def
%
/languagelevel where
 {pop languagelevel} {1} ifelse
dup 2 lt
	{/InterpretLevel1 true def
	 /InterpretLevel3 false def}
	{/InterpretLevel1 Level1 def
	 2 gt
	    {/InterpretLevel3 Level3 def}
	    {/InterpretLevel3 false def}
	 ifelse }
 ifelse
%
% PostScript level 2 pattern fill definitions
%
/Level2PatternFill {
/Tile8x8 {/PaintType 2 /PatternType 1 /TilingType 1 /BBox [0 0 8 8] /XStep 8 /YStep 8}
	bind def
/KeepColor {currentrgbcolor [/Pattern /DeviceRGB] setcolorspace} bind def
<< Tile8x8
 /PaintProc {0.5 setlinewidth pop 0 0 M 8 8 L 0 8 M 8 0 L stroke} 
>> matrix makepattern
/Pat1 exch def
<< Tile8x8
 /PaintProc {0.5 setlinewidth pop 0 0 M 8 8 L 0 8 M 8 0 L stroke
	0 4 M 4 8 L 8 4 L 4 0 L 0 4 L stroke}
>> matrix makepattern
/Pat2 exch def
<< Tile8x8
 /PaintProc {0.5 setlinewidth pop 0 0 M 0 8 L
	8 8 L 8 0 L 0 0 L fill}
>> matrix makepattern
/Pat3 exch def
<< Tile8x8
 /PaintProc {0.5 setlinewidth pop -4 8 M 8 -4 L
	0 12 M 12 0 L stroke}
>> matrix makepattern
/Pat4 exch def
<< Tile8x8
 /PaintProc {0.5 setlinewidth pop -4 0 M 8 12 L
	0 -4 M 12 8 L stroke}
>> matrix makepattern
/Pat5 exch def
<< Tile8x8
 /PaintProc {0.5 setlinewidth pop -2 8 M 4 -4 L
	0 12 M 8 -4 L 4 12 M 10 0 L stroke}
>> matrix makepattern
/Pat6 exch def
<< Tile8x8
 /PaintProc {0.5 setlinewidth pop -2 0 M 4 12 L
	0 -4 M 8 12 L 4 -4 M 10 8 L stroke}
>> matrix makepattern
/Pat7 exch def
<< Tile8x8
 /PaintProc {0.5 setlinewidth pop 8 -2 M -4 4 L
	12 0 M -4 8 L 12 4 M 0 10 L stroke}
>> matrix makepattern
/Pat8 exch def
<< Tile8x8
 /PaintProc {0.5 setlinewidth pop 0 -2 M 12 4 L
	-4 0 M 12 8 L -4 4 M 8 10 L stroke}
>> matrix makepattern
/Pat9 exch def
/Pattern1 {PatternBgnd KeepColor Pat1 setpattern} bind def
/Pattern2 {PatternBgnd KeepColor Pat2 setpattern} bind def
/Pattern3 {PatternBgnd KeepColor Pat3 setpattern} bind def
/Pattern4 {PatternBgnd KeepColor Landscape {Pat5} {Pat4} ifelse setpattern} bind def
/Pattern5 {PatternBgnd KeepColor Landscape {Pat4} {Pat5} ifelse setpattern} bind def
/Pattern6 {PatternBgnd KeepColor Landscape {Pat9} {Pat6} ifelse setpattern} bind def
/Pattern7 {PatternBgnd KeepColor Landscape {Pat8} {Pat7} ifelse setpattern} bind def
} def
%
%
%End of PostScript Level 2 code
%
/PatternBgnd {
  TransparentPatterns {} {gsave 1 setgray fill grestore} ifelse
} def
%
% Substitute for Level 2 pattern fill codes with
% grayscale if Level 2 support is not selected.
%
/Level1PatternFill {
/Pattern1 {0.250 Density} bind def
/Pattern2 {0.500 Density} bind def
/Pattern3 {0.750 Density} bind def
/Pattern4 {0.125 Density} bind def
/Pattern5 {0.375 Density} bind def
/Pattern6 {0.625 Density} bind def
/Pattern7 {0.875 Density} bind def
} def
%
% Now test for support of Level 2 code
%
Level1 {Level1PatternFill} {Level2PatternFill} ifelse
%
/Symbol-Oblique /Symbol findfont [1 0 .167 1 0 0] makefont
dup length dict begin {1 index /FID eq {pop pop} {def} ifelse} forall
currentdict end definefont pop
%
/MFshow {
   { dup 5 get 3 ge
     { 5 get 3 eq {gsave} {grestore} ifelse }
     {dup dup 0 get findfont exch 1 get scalefont setfont
     [ currentpoint ] exch dup 2 get 0 exch R dup 5 get 2 ne {dup dup 6
     get exch 4 get {textshow} {stringwidth pop 0 R} ifelse }if dup 5 get 0 eq
     {dup 3 get {2 get neg 0 exch R pop} {pop aload pop M} ifelse} {dup 5
     get 1 eq {dup 2 get exch dup 3 get exch 6 get stringwidth pop -2 div
     dup 0 R} {dup 6 get stringwidth pop -2 div 0 R 6 get
     textshow 2 index {aload pop M neg 3 -1 roll neg R pop pop} {pop pop pop
     pop aload pop M} ifelse }ifelse }ifelse }
     ifelse }
   forall} def
/Gswidth {dup type /stringtype eq {stringwidth} {pop (n) stringwidth} ifelse} def
/MFwidth {0 exch { dup 5 get 3 ge { 5 get 3 eq { 0 } { pop } ifelse }
 {dup 3 get{dup dup 0 get findfont exch 1 get scalefont setfont
     6 get Gswidth pop add} {pop} ifelse} ifelse} forall} def
/MLshow { currentpoint stroke M
  0 exch R
  Blacktext {gsave 0 setgray MFshow grestore} {MFshow} ifelse } bind def
/MRshow { currentpoint stroke M
  exch dup MFwidth neg 3 -1 roll R
  Blacktext {gsave 0 setgray MFshow grestore} {MFshow} ifelse } bind def
/MCshow { currentpoint stroke M
  exch dup MFwidth -2 div 3 -1 roll R
  Blacktext {gsave 0 setgray MFshow grestore} {MFshow} ifelse } bind def
/XYsave    { [( ) 1 2 true false 3 ()] } bind def
/XYrestore { [( ) 1 2 true false 4 ()] } bind def
Level1 SuppressPDFMark or 
{} {
/SDict 10 dict def
systemdict /pdfmark known not {
  userdict /pdfmark systemdict /cleartomark get put
} if
SDict begin [
  /Title (TcpVegas-download-finishtime-75UE-250-400.eps)
  /Subject (gnuplot plot)
  /Creator (gnuplot 5.0 patchlevel 3)
  /Author (nat)
%  /Producer (gnuplot)
%  /Keywords ()
  /CreationDate (Thu May 19 16:44:20 2016)
  /DOCINFO pdfmark
end
} ifelse
%
% Support for boxed text - Ethan A Merritt May 2005
%
/InitTextBox { userdict /TBy2 3 -1 roll put userdict /TBx2 3 -1 roll put
           userdict /TBy1 3 -1 roll put userdict /TBx1 3 -1 roll put
	   /Boxing true def } def
/ExtendTextBox { Boxing
    { gsave dup false charpath pathbbox
      dup TBy2 gt {userdict /TBy2 3 -1 roll put} {pop} ifelse
      dup TBx2 gt {userdict /TBx2 3 -1 roll put} {pop} ifelse
      dup TBy1 lt {userdict /TBy1 3 -1 roll put} {pop} ifelse
      dup TBx1 lt {userdict /TBx1 3 -1 roll put} {pop} ifelse
      grestore } if } def
/PopTextBox { newpath TBx1 TBxmargin sub TBy1 TBymargin sub M
               TBx1 TBxmargin sub TBy2 TBymargin add L
	       TBx2 TBxmargin add TBy2 TBymargin add L
	       TBx2 TBxmargin add TBy1 TBymargin sub L closepath } def
/DrawTextBox { PopTextBox stroke /Boxing false def} def
/FillTextBox { gsave PopTextBox 1 1 1 setrgbcolor fill grestore /Boxing false def} def
0 0 0 0 InitTextBox
/TBxmargin 20 def
/TBymargin 20 def
/Boxing false def
/textshow { ExtendTextBox Gshow } def
%
% redundant definitions for compatibility with prologue.ps older than 5.0.2
/LTB {BL [] LCb DL} def
/LTb {PL [] LCb DL} def
end
%%EndProlog
%%Page: 1 1
gnudict begin
gsave
doclip
50 50 translate
0.050 0.050 scale
0 setgray
newpath
(Arial) findfont 200 scalefont setfont
BackgroundColor 0 lt 3 1 roll 0 lt exch 0 lt or or not {BackgroundColor C 1.000 0 0 14400.00 5040.00 BoxColFill} if
1.000 UL
LTb
0.00 0.00 0.00 C 0.500 UL
LTa
0.50 0.50 0.50 C 980 1000 M
12139 0 V
stroke
1.000 UL
LTb
0.00 0.00 0.00 C 980 1000 M
63 0 V
stroke
860 1000 M
[ [(Arial) 200.0 0.0 true true 0 ( 0)]
] -66.7 MRshow
1.000 UL
LTb
0.00 0.00 0.00 C 0.500 UL
LTa
0.50 0.50 0.50 C 980 1760 M
12139 0 V
stroke
1.000 UL
LTb
0.00 0.00 0.00 C 980 1760 M
63 0 V
stroke
860 1760 M
[ [(Arial) 200.0 0.0 true true 0 ( 50)]
] -66.7 MRshow
1.000 UL
LTb
0.00 0.00 0.00 C 0.500 UL
LTa
0.50 0.50 0.50 C 980 2520 M
12139 0 V
stroke
1.000 UL
LTb
0.00 0.00 0.00 C 980 2520 M
63 0 V
stroke
860 2520 M
[ [(Arial) 200.0 0.0 true true 0 ( 100)]
] -66.7 MRshow
1.000 UL
LTb
0.00 0.00 0.00 C 0.500 UL
LTa
0.50 0.50 0.50 C 980 3279 M
12139 0 V
stroke
1.000 UL
LTb
0.00 0.00 0.00 C 980 3279 M
63 0 V
stroke
860 3279 M
[ [(Arial) 200.0 0.0 true true 0 ( 150)]
] -66.7 MRshow
1.000 UL
LTb
0.00 0.00 0.00 C 0.500 UL
LTa
0.50 0.50 0.50 C 980 4039 M
12139 0 V
stroke
1.000 UL
LTb
0.00 0.00 0.00 C 980 4039 M
63 0 V
stroke
860 4039 M
[ [(Arial) 200.0 0.0 true true 0 ( 200)]
] -66.7 MRshow
1.000 UL
LTb
0.00 0.00 0.00 C 0.500 UL
LTa
0.50 0.50 0.50 C 980 4799 M
12139 0 V
stroke
1.000 UL
LTb
0.00 0.00 0.00 C 980 4799 M
63 0 V
stroke
860 4799 M
[ [(Arial) 200.0 0.0 true true 0 ( 250)]
] -66.7 MRshow
1.000 UL
LTb
0.00 0.00 0.00 C 0.500 UL
LTa
0.50 0.50 0.50 C 1359 1000 M
0 3799 V
stroke
1.000 UL
LTb
0.00 0.00 0.00 C 1359 1000 M
0 63 V
0 3736 R
0 -63 V
stroke
1359 800 M
[ [(Arial) 200.0 0.0 true true 0 ( 750)]
] -66.7 MCshow
1.000 UL
LTb
0.00 0.00 0.00 C 0.500 UL
LTa
0.50 0.50 0.50 C 2118 1000 M
0 3799 V
stroke
1.000 UL
LTb
0.00 0.00 0.00 C 2118 1000 M
0 63 V
0 3736 R
0 -63 V
stroke
2118 800 M
[ [(Arial) 200.0 0.0 true true 0 ( 780)]
] -66.7 MCshow
1.000 UL
LTb
0.00 0.00 0.00 C 0.500 UL
LTa
0.50 0.50 0.50 C 2877 1000 M
0 3799 V
stroke
1.000 UL
LTb
0.00 0.00 0.00 C 2877 1000 M
0 63 V
0 3736 R
0 -63 V
stroke
2877 800 M
[ [(Arial) 200.0 0.0 true true 0 ( 810)]
] -66.7 MCshow
1.000 UL
LTb
0.00 0.00 0.00 C 0.500 UL
LTa
0.50 0.50 0.50 C 3635 1000 M
0 3799 V
stroke
1.000 UL
LTb
0.00 0.00 0.00 C 3635 1000 M
0 63 V
0 3736 R
0 -63 V
stroke
3635 800 M
[ [(Arial) 200.0 0.0 true true 0 ( 840)]
] -66.7 MCshow
1.000 UL
LTb
0.00 0.00 0.00 C 0.500 UL
LTa
0.50 0.50 0.50 C 4394 1000 M
0 3799 V
stroke
1.000 UL
LTb
0.00 0.00 0.00 C 4394 1000 M
0 63 V
0 3736 R
0 -63 V
stroke
4394 800 M
[ [(Arial) 200.0 0.0 true true 0 ( 870)]
] -66.7 MCshow
1.000 UL
LTb
0.00 0.00 0.00 C 0.500 UL
LTa
0.50 0.50 0.50 C 5153 1000 M
0 3799 V
stroke
1.000 UL
LTb
0.00 0.00 0.00 C 5153 1000 M
0 63 V
0 3736 R
0 -63 V
stroke
5153 800 M
[ [(Arial) 200.0 0.0 true true 0 ( 900)]
] -66.7 MCshow
1.000 UL
LTb
0.00 0.00 0.00 C 0.500 UL
LTa
0.50 0.50 0.50 C 5911 1000 M
0 3799 V
stroke
1.000 UL
LTb
0.00 0.00 0.00 C 5911 1000 M
0 63 V
0 3736 R
0 -63 V
stroke
5911 800 M
[ [(Arial) 200.0 0.0 true true 0 ( 930)]
] -66.7 MCshow
1.000 UL
LTb
0.00 0.00 0.00 C 0.500 UL
LTa
0.50 0.50 0.50 C 6670 1000 M
0 3799 V
stroke
1.000 UL
LTb
0.00 0.00 0.00 C 6670 1000 M
0 63 V
0 3736 R
0 -63 V
stroke
6670 800 M
[ [(Arial) 200.0 0.0 true true 0 ( 960)]
] -66.7 MCshow
1.000 UL
LTb
0.00 0.00 0.00 C 0.500 UL
LTa
0.50 0.50 0.50 C 7429 1000 M
0 3799 V
stroke
1.000 UL
LTb
0.00 0.00 0.00 C 7429 1000 M
0 63 V
0 3736 R
0 -63 V
stroke
7429 800 M
[ [(Arial) 200.0 0.0 true true 0 ( 990)]
] -66.7 MCshow
1.000 UL
LTb
0.00 0.00 0.00 C 0.500 UL
LTa
0.50 0.50 0.50 C 8188 1000 M
0 3799 V
stroke
1.000 UL
LTb
0.00 0.00 0.00 C 8188 1000 M
0 63 V
0 3736 R
0 -63 V
stroke
8188 800 M
[ [(Arial) 200.0 0.0 true true 0 ( 1020)]
] -66.7 MCshow
1.000 UL
LTb
0.00 0.00 0.00 C 0.500 UL
LTa
0.50 0.50 0.50 C 8946 1000 M
0 3799 V
stroke
1.000 UL
LTb
0.00 0.00 0.00 C 8946 1000 M
0 63 V
0 3736 R
0 -63 V
stroke
8946 800 M
[ [(Arial) 200.0 0.0 true true 0 ( 1050)]
] -66.7 MCshow
1.000 UL
LTb
0.00 0.00 0.00 C 0.500 UL
LTa
0.50 0.50 0.50 C 9705 1000 M
0 3799 V
stroke
1.000 UL
LTb
0.00 0.00 0.00 C 9705 1000 M
0 63 V
0 3736 R
0 -63 V
stroke
9705 800 M
[ [(Arial) 200.0 0.0 true true 0 ( 1080)]
] -66.7 MCshow
1.000 UL
LTb
0.00 0.00 0.00 C 0.500 UL
LTa
0.50 0.50 0.50 C 10464 1000 M
0 3799 V
stroke
1.000 UL
LTb
0.00 0.00 0.00 C 10464 1000 M
0 63 V
0 3736 R
0 -63 V
stroke
10464 800 M
[ [(Arial) 200.0 0.0 true true 0 ( 1110)]
] -66.7 MCshow
1.000 UL
LTb
0.00 0.00 0.00 C 0.500 UL
LTa
0.50 0.50 0.50 C 11222 1000 M
0 3799 V
stroke
1.000 UL
LTb
0.00 0.00 0.00 C 11222 1000 M
0 63 V
0 3736 R
0 -63 V
stroke
11222 800 M
[ [(Arial) 200.0 0.0 true true 0 ( 1140)]
] -66.7 MCshow
1.000 UL
LTb
0.00 0.00 0.00 C 0.500 UL
LTa
0.50 0.50 0.50 C 11981 1000 M
0 3799 V
stroke
1.000 UL
LTb
0.00 0.00 0.00 C 11981 1000 M
0 63 V
0 3736 R
0 -63 V
stroke
11981 800 M
[ [(Arial) 200.0 0.0 true true 0 ( 1170)]
] -66.7 MCshow
1.000 UL
LTb
0.00 0.00 0.00 C 0.500 UL
LTa
0.50 0.50 0.50 C 12740 1000 M
0 3799 V
stroke
1.000 UL
LTb
0.00 0.00 0.00 C 12740 1000 M
0 63 V
0 3736 R
0 -63 V
stroke
12740 800 M
[ [(Arial) 200.0 0.0 true true 0 ( 1200)]
] -66.7 MCshow
1.000 UL
LTb
0.00 0.00 0.00 C 13119 1000 M
-63 0 V
stroke
13239 1000 M
[ [(Arial) 200.0 0.0 true true 0 ( 0)]
] -66.7 MLshow
1.000 UL
LTb
0.00 0.00 0.00 C 13119 1760 M
-63 0 V
stroke
13239 1760 M
[ [(Arial) 200.0 0.0 true true 0 ( 20)]
] -66.7 MLshow
1.000 UL
LTb
0.00 0.00 0.00 C 13119 2520 M
-63 0 V
stroke
13239 2520 M
[ [(Arial) 200.0 0.0 true true 0 ( 40)]
] -66.7 MLshow
1.000 UL
LTb
0.00 0.00 0.00 C 13119 3279 M
-63 0 V
stroke
13239 3279 M
[ [(Arial) 200.0 0.0 true true 0 ( 60)]
] -66.7 MLshow
1.000 UL
LTb
0.00 0.00 0.00 C 13119 4039 M
-63 0 V
stroke
13239 4039 M
[ [(Arial) 200.0 0.0 true true 0 ( 80)]
] -66.7 MLshow
1.000 UL
LTb
0.00 0.00 0.00 C 13119 4799 M
-63 0 V
stroke
13239 4799 M
[ [(Arial) 200.0 0.0 true true 0 ( 100)]
] -66.7 MLshow
1.000 UL
LTb
0.00 0.00 0.00 C 1.000 UL
LTB
0.00 0.00 0.00 C 980 4799 M
0 -3799 V
12139 0 V
0 3799 R
980 4799 M
1.000 UP
stroke
LTb
0.00 0.00 0.00 C LCb setrgbcolor
160 2899 M
currentpoint gsave translate -270 rotate 0 0 moveto
[ [(Arial) 200.0 0.0 true true 0 (File download time \(s\))]
] -66.7 MCshow
grestore
LTb
LCb setrgbcolor
13938 2899 M
currentpoint gsave translate -270 rotate 0 0 moveto
[ [(Arial) 200.0 0.0 true true 0 (Average UDP throughput [%])]
] -66.7 MCshow
grestore
LTb
LCb setrgbcolor
7049 500 M
[ [(Arial) 200.0 0.0 true true 0 (Local Backhaul traffic \(Mb/s\))]
] -66.7 MCshow
LTb
% Begin plot #1
1.000 UL
LTb
0.60 0.60 0.00 C LCb setrgbcolor
4714 333 M
[ [(Arial) 180.0 0.0 true true 0 (file download time    :   olsr)]
] -60.0 MRshow
1.000 UL
LTb
0.60 0.60 0.00 C 4822 288 333 90 80 -45 0 PatternFill
4822 288 N
333 0 V
0 90 V
-333 0 V
0 -90 V
Z stroke
1.000 UL
LTb
0.60 0.60 0.00 C 1094 1388 152 490 80 -45 0 PatternFill
1170 1044 M
0 344 V
0 490 R
0 255 V
stroke
1094 1388 N
152 0 V
0 490 V
-152 0 V
0 -490 V
Z stroke
1094 2133 M
152 0 V
1094 1044 M
152 0 V
stroke
1852 1388 152 453 80 -45 0 PatternFill
1928 1044 M
0 344 V
0 453 R
0 140 V
stroke
1852 1388 N
152 0 V
0 453 V
-152 0 V
0 -453 V
Z stroke
1852 1981 M
152 0 V
1852 1044 M
152 0 V
stroke
2611 1335 152 500 80 -45 0 PatternFill
2687 1044 M
0 291 V
0 500 R
0 180 V
stroke
2611 1335 N
152 0 V
0 500 V
-152 0 V
0 -500 V
Z stroke
2611 2015 M
152 0 V
2611 1044 M
152 0 V
stroke
3370 1427 152 375 80 -45 0 PatternFill
3446 1044 M
0 383 V
0 375 R
0 374 V
stroke
3370 1427 N
152 0 V
0 375 V
-152 0 V
0 -375 V
Z stroke
3370 2176 M
152 0 V
3370 1044 M
152 0 V
stroke
4129 1364 152 524 80 -45 0 PatternFill
4205 1044 M
0 320 V
0 524 R
0 182 V
stroke
4129 1364 N
152 0 V
0 524 V
-152 0 V
0 -524 V
Z stroke
4129 2070 M
152 0 V
4129 1044 M
152 0 V
stroke
4887 1342 152 513 80 -45 0 PatternFill
4963 1044 M
0 298 V
0 513 R
0 467 V
stroke
4887 1342 N
152 0 V
0 513 V
-152 0 V
0 -513 V
Z stroke
4887 2322 M
152 0 V
4887 1044 M
152 0 V
stroke
5646 1380 152 460 80 -45 0 PatternFill
5722 1044 M
0 336 V
0 460 R
0 278 V
stroke
5646 1380 N
152 0 V
0 460 V
-152 0 V
0 -460 V
Z stroke
5646 2118 M
152 0 V
5646 1044 M
152 0 V
stroke
6405 1437 152 437 80 -45 0 PatternFill
6481 1044 M
0 393 V
0 437 R
0 300 V
stroke
6405 1437 N
152 0 V
0 437 V
-152 0 V
0 -437 V
Z stroke
6405 2174 M
152 0 V
6405 1044 M
152 0 V
stroke
7163 1321 152 511 80 -45 0 PatternFill
7239 1044 M
0 277 V
0 511 R
0 343 V
stroke
7163 1321 N
152 0 V
0 511 V
-152 0 V
0 -511 V
Z stroke
7163 2175 M
152 0 V
7163 1044 M
152 0 V
stroke
7922 1380 152 472 80 -45 0 PatternFill
7998 1044 M
0 336 V
0 472 R
0 197 V
stroke
7922 1380 N
152 0 V
0 472 V
-152 0 V
0 -472 V
Z stroke
7922 2049 M
152 0 V
7922 1044 M
152 0 V
stroke
8681 1402 152 399 80 -45 0 PatternFill
8757 1044 M
0 358 V
0 399 R
0 316 V
stroke
8681 1402 N
152 0 V
0 399 V
-152 0 V
0 -399 V
Z stroke
8681 2117 M
152 0 V
8681 1044 M
152 0 V
stroke
9439 1360 152 473 80 -45 0 PatternFill
9515 1044 M
0 316 V
0 473 R
0 373 V
stroke
9439 1360 N
152 0 V
0 473 V
-152 0 V
0 -473 V
Z stroke
9439 2206 M
152 0 V
9439 1044 M
152 0 V
stroke
10198 1319 152 534 80 -45 0 PatternFill
10274 1044 M
0 275 V
0 534 R
0 243 V
stroke
10198 1319 N
152 0 V
0 534 V
-152 0 V
0 -534 V
Z stroke
10198 2096 M
152 0 V
10198 1044 M
152 0 V
stroke
10957 1368 152 516 80 -45 0 PatternFill
11033 1044 M
0 324 V
0 516 R
0 256 V
stroke
10957 1368 N
152 0 V
0 516 V
-152 0 V
0 -516 V
Z stroke
10957 2140 M
152 0 V
10957 1044 M
152 0 V
stroke
11715 1378 152 462 80 -45 0 PatternFill
11791 1044 M
0 334 V
0 462 R
0 284 V
stroke
11715 1378 N
152 0 V
0 462 V
-152 0 V
0 -462 V
Z stroke
11715 2124 M
152 0 V
11715 1044 M
152 0 V
stroke
12474 1355 152 418 80 -45 0 PatternFill
12550 1044 M
0 311 V
0 418 R
0 451 V
stroke
12474 1355 N
152 0 V
0 418 V
-152 0 V
0 -418 V
Z stroke
12474 2224 M
152 0 V
12474 1044 M
152 0 V
% End plot #1
% Begin plot #2
stroke
LTb
LCb setrgbcolor

 /TransparentPatterns true def
1094 1625 152 0 40 30 0 PatternFill
1170 1625 M
stroke
1094 1625 N
152 0 V
-152 0 V
Z stroke
1094 1625 M
152 0 V
-152 0 R
152 0 V
stroke

 /TransparentPatterns true def
1852 1588 152 0 40 30 0 PatternFill
1928 1588 M
stroke
1852 1588 N
152 0 V
-152 0 V
Z stroke
1852 1588 M
152 0 V
-152 0 R
152 0 V
stroke

 /TransparentPatterns true def
2611 1595 152 0 40 30 0 PatternFill
2687 1595 M
stroke
2611 1595 N
152 0 V
-152 0 V
Z stroke
2611 1595 M
152 0 V
-152 0 R
152 0 V
stroke

 /TransparentPatterns true def
3370 1611 152 0 40 30 0 PatternFill
3446 1611 M
stroke
3370 1611 N
152 0 V
-152 0 V
Z stroke
3370 1611 M
152 0 V
-152 0 R
152 0 V
stroke

 /TransparentPatterns true def
4129 1614 152 0 40 30 0 PatternFill
4205 1614 M
stroke
4129 1614 N
152 0 V
-152 0 V
Z stroke
4129 1614 M
152 0 V
-152 0 R
152 0 V
stroke

 /TransparentPatterns true def
4887 1614 152 0 40 30 0 PatternFill
4963 1614 M
stroke
4887 1614 N
152 0 V
-152 0 V
Z stroke
4887 1614 M
152 0 V
-152 0 R
152 0 V
stroke

 /TransparentPatterns true def
5646 1606 152 0 40 30 0 PatternFill
5722 1606 M
stroke
5646 1606 N
152 0 V
-152 0 V
Z stroke
5646 1606 M
152 0 V
-152 0 R
152 0 V
stroke

 /TransparentPatterns true def
6405 1642 152 0 40 30 0 PatternFill
6481 1642 M
stroke
6405 1642 N
152 0 V
-152 0 V
Z stroke
6405 1642 M
152 0 V
-152 0 R
152 0 V
stroke

 /TransparentPatterns true def
7163 1587 152 0 40 30 0 PatternFill
7239 1587 M
stroke
7163 1587 N
152 0 V
-152 0 V
Z stroke
7163 1587 M
152 0 V
-152 0 R
152 0 V
stroke

 /TransparentPatterns true def
7922 1622 152 0 40 30 0 PatternFill
7998 1622 M
stroke
7922 1622 N
152 0 V
-152 0 V
Z stroke
7922 1622 M
152 0 V
-152 0 R
152 0 V
stroke

 /TransparentPatterns true def
8681 1598 152 0 40 30 0 PatternFill
8757 1598 M
stroke
8681 1598 N
152 0 V
-152 0 V
Z stroke
8681 1598 M
152 0 V
-152 0 R
152 0 V
stroke

 /TransparentPatterns true def
9439 1593 152 0 40 30 0 PatternFill
9515 1593 M
stroke
9439 1593 N
152 0 V
-152 0 V
Z stroke
9439 1593 M
152 0 V
-152 0 R
152 0 V
stroke

 /TransparentPatterns true def
10198 1607 152 0 40 30 0 PatternFill
10274 1607 M
stroke
10198 1607 N
152 0 V
-152 0 V
Z stroke
10198 1607 M
152 0 V
-152 0 R
152 0 V
stroke

 /TransparentPatterns true def
10957 1621 152 0 40 30 0 PatternFill
11033 1621 M
stroke
10957 1621 N
152 0 V
-152 0 V
Z stroke
10957 1621 M
152 0 V
-152 0 R
152 0 V
stroke

 /TransparentPatterns true def
11715 1602 152 0 40 30 0 PatternFill
11791 1602 M
stroke
11715 1602 N
152 0 V
-152 0 V
Z stroke
11715 1602 M
152 0 V
-152 0 R
152 0 V
stroke

 /TransparentPatterns true def
12474 1590 152 0 40 30 0 PatternFill
12550 1590 M
stroke
12474 1590 N
152 0 V
-152 0 V
Z stroke
12474 1590 M
152 0 V
-152 0 R
152 0 V
% End plot #2
% Begin plot #3
2.000 UP
stroke
LTa
0.60 0.60 0.00 C LCb setrgbcolor
4714 153 M
[ [(Arial) 180.0 0.0 true true 0 (avg. throughput :         )]
] -60.0 MRshow
2.000 UP
1.000 UL
LTa
0.60 0.60 0.00 C 4822 153 M
333 0 V
980 4679 M
190 0 V
758 -3 V
759 2 V
759 3 V
758 -3 V
759 1 V
759 0 V
758 -1 V
759 2 V
759 -3 V
759 0 V
758 4 V
759 -1 V
759 0 V
758 -1 V
759 2 V
1170 4679 Box
1928 4676 Box
2687 4678 Box
3446 4681 Box
4204 4678 Box
4963 4679 Box
5722 4679 Box
6480 4678 Box
7239 4680 Box
7998 4677 Box
8757 4677 Box
9515 4681 Box
10274 4680 Box
11033 4680 Box
11791 4679 Box
12550 4681 Box
4988 153 Box
% End plot #3
% Begin plot #4
1.000 UL
LTb
0.00 0.00 0.63 C LCb setrgbcolor
8287 333 M
[ [(Arial) 180.0 0.0 true true 0 (per-packet)]
] -60.0 MRshow
1.000 UL
LTb
0.00 0.00 0.63 C 8395 288 333 90 80 45 0 PatternFill
8395 288 N
333 0 V
0 90 V
-333 0 V
0 -90 V
Z stroke
1.000 UL
LTb
0.00 0.00 0.63 C 1283 1451 152 521 80 45 0 PatternFill
1359 1021 M
0 430 V
0 521 R
0 351 V
stroke
1283 1451 N
152 0 V
0 521 V
-152 0 V
0 -521 V
Z stroke
1283 2323 M
152 0 V
1283 1021 M
152 0 V
stroke
2042 1486 152 502 80 45 0 PatternFill
2118 1086 M
0 400 V
0 502 R
0 374 V
stroke
2042 1486 N
152 0 V
0 502 V
-152 0 V
0 -502 V
Z stroke
2042 2362 M
152 0 V
2042 1086 M
152 0 V
stroke
2801 1443 152 532 80 45 0 PatternFill
2877 1133 M
0 310 V
0 532 R
0 317 V
stroke
2801 1443 N
152 0 V
0 532 V
-152 0 V
0 -532 V
Z stroke
2801 2292 M
152 0 V
2801 1133 M
152 0 V
stroke
3560 1428 152 593 80 45 0 PatternFill
3636 1049 M
0 379 V
0 593 R
0 301 V
stroke
3560 1428 N
152 0 V
0 593 V
-152 0 V
0 -593 V
Z stroke
3560 2322 M
152 0 V
3560 1049 M
152 0 V
stroke
4318 1407 152 573 80 45 0 PatternFill
4394 1062 M
0 345 V
0 573 R
0 330 V
stroke
4318 1407 N
152 0 V
0 573 V
-152 0 V
0 -573 V
Z stroke
4318 2310 M
152 0 V
4318 1062 M
152 0 V
stroke
5077 1371 152 623 80 45 0 PatternFill
5153 1065 M
0 306 V
0 623 R
0 367 V
stroke
5077 1371 N
152 0 V
0 623 V
-152 0 V
0 -623 V
Z stroke
5077 2361 M
152 0 V
5077 1065 M
152 0 V
stroke
5836 1504 152 494 80 45 0 PatternFill
5912 1103 M
0 401 V
0 494 R
0 310 V
stroke
5836 1504 N
152 0 V
0 494 V
-152 0 V
0 -494 V
Z stroke
5836 2308 M
152 0 V
5836 1103 M
152 0 V
stroke
6594 1454 152 532 80 45 0 PatternFill
6670 1027 M
0 427 V
0 532 R
0 409 V
stroke
6594 1454 N
152 0 V
0 532 V
-152 0 V
0 -532 V
Z stroke
6594 2395 M
152 0 V
6594 1027 M
152 0 V
stroke
7353 1441 152 563 80 45 0 PatternFill
7429 1037 M
0 404 V
0 563 R
0 339 V
stroke
7353 1441 N
152 0 V
0 563 V
-152 0 V
0 -563 V
Z stroke
7353 2343 M
152 0 V
7353 1037 M
152 0 V
stroke
8112 1402 152 601 80 45 0 PatternFill
8188 1050 M
0 352 V
0 601 R
0 326 V
stroke
8112 1402 N
152 0 V
0 601 V
-152 0 V
0 -601 V
Z stroke
8112 2329 M
152 0 V
8112 1050 M
152 0 V
stroke
8870 1449 152 548 80 45 0 PatternFill
8946 1125 M
0 324 V
0 548 R
0 345 V
stroke
8870 1449 N
152 0 V
0 548 V
-152 0 V
0 -548 V
Z stroke
8870 2342 M
152 0 V
8870 1125 M
152 0 V
stroke
9629 1372 152 619 80 45 0 PatternFill
9705 1027 M
0 345 V
0 619 R
0 318 V
stroke
9629 1372 N
152 0 V
0 619 V
-152 0 V
0 -619 V
Z stroke
9629 2309 M
152 0 V
9629 1027 M
152 0 V
stroke
10388 1375 152 604 80 45 0 PatternFill
10464 1090 M
0 285 V
0 604 R
0 336 V
stroke
10388 1375 N
152 0 V
0 604 V
-152 0 V
0 -604 V
Z stroke
10388 2315 M
152 0 V
10388 1090 M
152 0 V
stroke
11146 1391 152 576 80 45 0 PatternFill
11222 1074 M
0 317 V
0 576 R
0 321 V
stroke
11146 1391 N
152 0 V
0 576 V
-152 0 V
0 -576 V
Z stroke
11146 2288 M
152 0 V
11146 1074 M
152 0 V
stroke
11905 1438 152 549 80 45 0 PatternFill
11981 1056 M
0 382 V
0 549 R
0 320 V
stroke
11905 1438 N
152 0 V
0 549 V
-152 0 V
0 -549 V
Z stroke
11905 2307 M
152 0 V
11905 1056 M
152 0 V
stroke
12664 1437 152 524 80 45 0 PatternFill
12740 1078 M
0 359 V
0 524 R
0 337 V
stroke
12664 1437 N
152 0 V
0 524 V
-152 0 V
0 -524 V
Z stroke
12664 2298 M
152 0 V
12664 1078 M
152 0 V
% End plot #4
% Begin plot #5
stroke
LTb
LCb setrgbcolor

 /TransparentPatterns true def
1283 1705 152 0 80 -45 0 PatternFill
1359 1705 M
stroke
1283 1705 N
152 0 V
-152 0 V
Z stroke
1283 1705 M
152 0 V
-152 0 R
152 0 V
stroke

 /TransparentPatterns true def
2042 1718 152 0 80 -45 0 PatternFill
2118 1718 M
stroke
2042 1718 N
152 0 V
-152 0 V
Z stroke
2042 1718 M
152 0 V
-152 0 R
152 0 V
stroke

 /TransparentPatterns true def
2801 1716 152 0 80 -45 0 PatternFill
2877 1716 M
stroke
2801 1716 N
152 0 V
-152 0 V
Z stroke
2801 1716 M
152 0 V
-152 0 R
152 0 V
stroke

 /TransparentPatterns true def
3560 1730 152 0 80 -45 0 PatternFill
3636 1730 M
stroke
3560 1730 N
152 0 V
-152 0 V
Z stroke
3560 1730 M
152 0 V
-152 0 R
152 0 V
stroke

 /TransparentPatterns true def
4318 1695 152 0 80 -45 0 PatternFill
4394 1695 M
stroke
4318 1695 N
152 0 V
-152 0 V
Z stroke
4318 1695 M
152 0 V
-152 0 R
152 0 V
stroke

 /TransparentPatterns true def
5077 1728 152 0 80 -45 0 PatternFill
5153 1728 M
stroke
5077 1728 N
152 0 V
-152 0 V
Z stroke
5077 1728 M
152 0 V
-152 0 R
152 0 V
stroke

 /TransparentPatterns true def
5836 1736 152 0 80 -45 0 PatternFill
5912 1736 M
stroke
5836 1736 N
152 0 V
-152 0 V
Z stroke
5836 1736 M
152 0 V
-152 0 R
152 0 V
stroke

 /TransparentPatterns true def
6594 1713 152 0 80 -45 0 PatternFill
6670 1713 M
stroke
6594 1713 N
152 0 V
-152 0 V
Z stroke
6594 1713 M
152 0 V
-152 0 R
152 0 V
stroke

 /TransparentPatterns true def
7353 1714 152 0 80 -45 0 PatternFill
7429 1714 M
stroke
7353 1714 N
152 0 V
-152 0 V
Z stroke
7353 1714 M
152 0 V
-152 0 R
152 0 V
stroke

 /TransparentPatterns true def
8112 1713 152 0 80 -45 0 PatternFill
8188 1713 M
stroke
8112 1713 N
152 0 V
-152 0 V
Z stroke
8112 1713 M
152 0 V
-152 0 R
152 0 V
stroke

 /TransparentPatterns true def
8870 1709 152 0 80 -45 0 PatternFill
8946 1709 M
stroke
8870 1709 N
152 0 V
-152 0 V
Z stroke
8870 1709 M
152 0 V
-152 0 R
152 0 V
stroke

 /TransparentPatterns true def
9629 1691 152 0 80 -45 0 PatternFill
9705 1691 M
stroke
9629 1691 N
152 0 V
-152 0 V
Z stroke
9629 1691 M
152 0 V
-152 0 R
152 0 V
stroke

 /TransparentPatterns true def
10388 1693 152 0 80 -45 0 PatternFill
10464 1693 M
stroke
10388 1693 N
152 0 V
-152 0 V
Z stroke
10388 1693 M
152 0 V
-152 0 R
152 0 V
stroke

 /TransparentPatterns true def
11146 1689 152 0 80 -45 0 PatternFill
11222 1689 M
stroke
11146 1689 N
152 0 V
-152 0 V
Z stroke
11146 1689 M
152 0 V
-152 0 R
152 0 V
stroke

 /TransparentPatterns true def
11905 1700 152 0 80 -45 0 PatternFill
11981 1700 M
stroke
11905 1700 N
152 0 V
-152 0 V
Z stroke
11905 1700 M
152 0 V
-152 0 R
152 0 V
stroke

 /TransparentPatterns true def
12664 1687 152 0 80 -45 0 PatternFill
12740 1687 M
stroke
12664 1687 N
152 0 V
-152 0 V
Z stroke
12664 1687 M
152 0 V
-152 0 R
152 0 V
% End plot #5
% Begin plot #6
2.000 UP
stroke
LTa
0.00 0.00 0.63 C LCb setrgbcolor
8287 153 M
[ [(Arial) 180.0 0.0 true true 0 ( )]
] -60.0 MRshow
2.000 UP
1.000 UL
LTa
0.00 0.00 0.63 C 8395 153 M
333 0 V
980 4787 M
379 0 V
759 0 V
759 1 V
758 -1 V
759 0 V
759 1 V
758 -1 V
759 0 V
759 0 V
759 1 V
758 -1 V
759 0 V
759 1 V
758 -1 V
759 0 V
759 1 V
1359 4787 Circle
2118 4787 Circle
2877 4788 Circle
3635 4787 Circle
4394 4787 Circle
5153 4788 Circle
5911 4787 Circle
6670 4787 Circle
7429 4787 Circle
8188 4788 Circle
8946 4787 Circle
9705 4787 Circle
10464 4788 Circle
11222 4787 Circle
11981 4787 Circle
12740 4788 Circle
8561 153 Circle
% End plot #6
% Begin plot #7
1.000 UL
LTb
0.00 0.38 0.82 C LCb setrgbcolor
11860 333 M
[ [(Arial) 180.0 0.0 true true 0 (per-flow)]
] -60.0 MRshow
1.000 UL
LTb
0.00 0.38 0.82 C 11968 288 333 90 40 30 0 PatternFill
11968 288 N
333 0 V
0 90 V
-333 0 V
0 -90 V
Z stroke
1.000 UL
LTb
0.00 0.38 0.82 C 1473 1351 152 403 40 30 0 PatternFill
1549 1069 M
0 282 V
0 403 R
0 342 V
stroke
1473 1351 N
152 0 V
0 403 V
-152 0 V
0 -403 V
Z stroke
1473 2096 M
152 0 V
1473 1069 M
152 0 V
stroke
2232 1346 152 435 40 30 0 PatternFill
2308 1140 M
0 206 V
0 435 R
0 300 V
stroke
2232 1346 N
152 0 V
0 435 V
-152 0 V
0 -435 V
Z stroke
2232 2081 M
152 0 V
2232 1140 M
152 0 V
stroke
2991 1308 152 478 40 30 0 PatternFill
3067 1100 M
0 208 V
0 478 R
0 188 V
stroke
2991 1308 N
152 0 V
0 478 V
-152 0 V
0 -478 V
Z stroke
2991 1974 M
152 0 V
2991 1100 M
152 0 V
stroke
3749 1357 152 472 40 30 0 PatternFill
3825 1039 M
0 318 V
0 472 R
0 193 V
stroke
3749 1357 N
152 0 V
0 472 V
-152 0 V
0 -472 V
Z stroke
3749 2022 M
152 0 V
3749 1039 M
152 0 V
stroke
4508 1356 152 440 40 30 0 PatternFill
4584 1086 M
0 270 V
0 440 R
0 329 V
stroke
4508 1356 N
152 0 V
0 440 V
-152 0 V
0 -440 V
Z stroke
4508 2125 M
152 0 V
4508 1086 M
152 0 V
stroke
5267 1379 152 350 40 30 0 PatternFill
5343 1126 M
0 253 V
0 350 R
0 287 V
stroke
5267 1379 N
152 0 V
0 350 V
-152 0 V
0 -350 V
Z stroke
5267 2016 M
152 0 V
5267 1126 M
152 0 V
stroke
6025 1304 152 503 40 30 0 PatternFill
6101 1107 M
0 197 V
0 503 R
0 225 V
stroke
6025 1304 N
152 0 V
0 503 V
-152 0 V
0 -503 V
Z stroke
6025 2032 M
152 0 V
6025 1107 M
152 0 V
stroke
6784 1340 152 429 40 30 0 PatternFill
6860 1027 M
0 313 V
0 429 R
0 351 V
stroke
6784 1340 N
152 0 V
0 429 V
-152 0 V
0 -429 V
Z stroke
6784 2120 M
152 0 V
6784 1027 M
152 0 V
stroke
7543 1348 152 451 40 30 0 PatternFill
7619 1062 M
0 286 V
0 451 R
0 191 V
stroke
7543 1348 N
152 0 V
0 451 V
-152 0 V
0 -451 V
Z stroke
7543 1990 M
152 0 V
7543 1062 M
152 0 V
stroke
8301 1326 152 470 40 30 0 PatternFill
8377 1075 M
0 251 V
0 470 R
0 203 V
stroke
8301 1326 N
152 0 V
0 470 V
-152 0 V
0 -470 V
Z stroke
8301 1999 M
152 0 V
8301 1075 M
152 0 V
stroke
9060 1372 152 449 40 30 0 PatternFill
9136 1069 M
0 303 V
0 449 R
0 377 V
stroke
9060 1372 N
152 0 V
0 449 V
-152 0 V
0 -449 V
Z stroke
9060 2198 M
152 0 V
9060 1069 M
152 0 V
stroke
9819 1262 152 474 40 30 0 PatternFill
9895 1027 M
0 235 V
0 474 R
0 282 V
stroke
9819 1262 N
152 0 V
0 474 V
-152 0 V
0 -474 V
Z stroke
9819 2018 M
152 0 V
9819 1027 M
152 0 V
stroke
10577 1372 152 426 40 30 0 PatternFill
10653 1115 M
0 257 V
0 426 R
0 230 V
stroke
10577 1372 N
152 0 V
0 426 V
-152 0 V
0 -426 V
Z stroke
10577 2028 M
152 0 V
-152 -913 R
152 0 V
stroke
11336 1318 152 482 40 30 0 PatternFill
11412 1103 M
0 215 V
0 482 R
0 323 V
stroke
11336 1318 N
152 0 V
0 482 V
-152 0 V
0 -482 V
Z stroke
11336 2123 M
152 0 V
11336 1103 M
152 0 V
stroke
12095 1330 152 450 40 30 0 PatternFill
12171 1102 M
0 228 V
0 450 R
0 233 V
stroke
12095 1330 N
152 0 V
0 450 V
-152 0 V
0 -450 V
Z stroke
12095 2013 M
152 0 V
-152 -911 R
152 0 V
stroke
12853 1303 152 447 40 30 0 PatternFill
12929 1104 M
0 199 V
0 447 R
0 337 V
stroke
12853 1303 N
152 0 V
0 447 V
-152 0 V
0 -447 V
Z stroke
12853 2087 M
152 0 V
-152 -983 R
152 0 V
% End plot #7
% Begin plot #8
stroke
LTb
LCb setrgbcolor

 /TransparentPatterns true def
1473 1565 152 0 40 -30 0 PatternFill
1549 1565 M
stroke
1473 1565 N
152 0 V
-152 0 V
Z stroke
1473 1565 M
152 0 V
-152 0 R
152 0 V
stroke

 /TransparentPatterns true def
2232 1594 152 0 40 -30 0 PatternFill
2308 1594 M
stroke
2232 1594 N
152 0 V
-152 0 V
Z stroke
2232 1594 M
152 0 V
-152 0 R
152 0 V
stroke

 /TransparentPatterns true def
2991 1559 152 0 40 -30 0 PatternFill
3067 1559 M
stroke
2991 1559 N
152 0 V
-152 0 V
Z stroke
2991 1559 M
152 0 V
-152 0 R
152 0 V
stroke

 /TransparentPatterns true def
3749 1573 152 0 40 -30 0 PatternFill
3825 1573 M
stroke
3749 1573 N
152 0 V
-152 0 V
Z stroke
3749 1573 M
152 0 V
-152 0 R
152 0 V
stroke

 /TransparentPatterns true def
4508 1566 152 0 40 -30 0 PatternFill
4584 1566 M
stroke
4508 1566 N
152 0 V
-152 0 V
Z stroke
4508 1566 M
152 0 V
-152 0 R
152 0 V
stroke

 /TransparentPatterns true def
5267 1568 152 0 40 -30 0 PatternFill
5343 1568 M
stroke
5267 1568 N
152 0 V
-152 0 V
Z stroke
5267 1568 M
152 0 V
-152 0 R
152 0 V
stroke

 /TransparentPatterns true def
6025 1565 152 0 40 -30 0 PatternFill
6101 1565 M
stroke
6025 1565 N
152 0 V
-152 0 V
Z stroke
6025 1565 M
152 0 V
-152 0 R
152 0 V
stroke

 /TransparentPatterns true def
6784 1573 152 0 40 -30 0 PatternFill
6860 1573 M
stroke
6784 1573 N
152 0 V
-152 0 V
Z stroke
6784 1573 M
152 0 V
-152 0 R
152 0 V
stroke

 /TransparentPatterns true def
7543 1573 152 0 40 -30 0 PatternFill
7619 1573 M
stroke
7543 1573 N
152 0 V
-152 0 V
Z stroke
7543 1573 M
152 0 V
-152 0 R
152 0 V
stroke

 /TransparentPatterns true def
8301 1577 152 0 40 -30 0 PatternFill
8377 1577 M
stroke
8301 1577 N
152 0 V
-152 0 V
Z stroke
8301 1577 M
152 0 V
-152 0 R
152 0 V
stroke

 /TransparentPatterns true def
9060 1585 152 0 40 -30 0 PatternFill
9136 1585 M
stroke
9060 1585 N
152 0 V
-152 0 V
Z stroke
9060 1585 M
152 0 V
-152 0 R
152 0 V
stroke

 /TransparentPatterns true def
9819 1538 152 0 40 -30 0 PatternFill
9895 1538 M
stroke
9819 1538 N
152 0 V
-152 0 V
Z stroke
9819 1538 M
152 0 V
-152 0 R
152 0 V
stroke

 /TransparentPatterns true def
10577 1587 152 0 40 -30 0 PatternFill
10653 1587 M
stroke
10577 1587 N
152 0 V
-152 0 V
Z stroke
10577 1587 M
152 0 V
-152 0 R
152 0 V
stroke

 /TransparentPatterns true def
11336 1579 152 0 40 -30 0 PatternFill
11412 1579 M
stroke
11336 1579 N
152 0 V
-152 0 V
Z stroke
11336 1579 M
152 0 V
-152 0 R
152 0 V
stroke

 /TransparentPatterns true def
12095 1554 152 0 40 -30 0 PatternFill
12171 1554 M
stroke
12095 1554 N
152 0 V
-152 0 V
Z stroke
12095 1554 M
152 0 V
-152 0 R
152 0 V
stroke

 /TransparentPatterns true def
12853 1564 152 0 40 -30 0 PatternFill
12929 1564 M
stroke
12853 1564 N
152 0 V
-152 0 V
Z stroke
12853 1564 M
152 0 V
-152 0 R
152 0 V
% End plot #8
% Begin plot #9
2.000 UP
stroke
LTa
0.00 0.38 0.82 C LCb setrgbcolor
11860 153 M
[ [(Arial) 180.0 0.0 true true 0 ( )]
] -60.0 MRshow
2.000 UP
1.000 UL
LTa
0.00 0.38 0.82 C 11968 153 M
333 0 V
980 4786 M
569 1 V
759 0 V
758 -1 V
759 1 V
759 0 V
758 -1 V
759 1 V
759 0 V
759 -1 V
758 1 V
759 0 V
759 -1 V
758 1 V
759 0 V
759 -1 V
758 1 V
1549 4787 TriU
2308 4787 TriU
3066 4786 TriU
3825 4787 TriU
4584 4787 TriU
5342 4786 TriU
6101 4787 TriU
6860 4787 TriU
7619 4786 TriU
8377 4787 TriU
9136 4787 TriU
9895 4786 TriU
10653 4787 TriU
11412 4787 TriU
12171 4786 TriU
12929 4787 TriU
12134 153 TriU
% End plot #9
2.000 UL
LTb
LCb setrgbcolor
1.000 UP
1.000 UL
LTb
0.00 0.00 0.00 C stroke
grestore
end
showpage
%%Trailer
%%DocumentFonts: Arial
