%!PS-Adobe-2.0 EPSF-2.0
%%Title: TcpVeno-download-rtt-75UE-250-400.eps
%%Creator: gnuplot 5.0 patchlevel 3
%%CreationDate: Thu Jun  2 10:39:41 2016
%%DocumentFonts: (atend)
%%BoundingBox: 50 50 770 302
%%EndComments
%%BeginProlog
/gnudict 256 dict def
gnudict begin
%
% The following true/false flags may be edited by hand if desired.
% The unit line width and grayscale image gamma correction may also be changed.
%
/Color true def
/Blacktext false def
/Solid false def
/Dashlength 3 def
/Landscape false def
/Level1 false def
/Level3 false def
/Rounded false def
/ClipToBoundingBox false def
/SuppressPDFMark false def
/TransparentPatterns false def
/gnulinewidth 15.000 def
/userlinewidth gnulinewidth def
/Gamma 1.0 def
/BackgroundColor {-1.000 -1.000 -1.000} def
%
/vshift -66 def
/dl1 {
  10.0 Dashlength userlinewidth gnulinewidth div mul mul mul
  Rounded { currentlinewidth 0.75 mul sub dup 0 le { pop 0.01 } if } if
} def
/dl2 {
  10.0 Dashlength userlinewidth gnulinewidth div mul mul mul
  Rounded { currentlinewidth 0.75 mul add } if
} def
/hpt_ 31.5 def
/vpt_ 31.5 def
/hpt hpt_ def
/vpt vpt_ def
/doclip {
  ClipToBoundingBox {
    newpath 50 50 moveto 770 50 lineto 770 302 lineto 50 302 lineto closepath
    clip
  } if
} def
%
% Gnuplot Prolog Version 5.1 (Oct 2015)
%
%/SuppressPDFMark true def
%
/M {moveto} bind def
/L {lineto} bind def
/R {rmoveto} bind def
/V {rlineto} bind def
/N {newpath moveto} bind def
/Z {closepath} bind def
/C {setrgbcolor} bind def
/f {rlineto fill} bind def
/g {setgray} bind def
/Gshow {show} def   % May be redefined later in the file to support UTF-8
/vpt2 vpt 2 mul def
/hpt2 hpt 2 mul def
/Lshow {currentpoint stroke M 0 vshift R 
	Blacktext {gsave 0 setgray textshow grestore} {textshow} ifelse} def
/Rshow {currentpoint stroke M dup stringwidth pop neg vshift R
	Blacktext {gsave 0 setgray textshow grestore} {textshow} ifelse} def
/Cshow {currentpoint stroke M dup stringwidth pop -2 div vshift R 
	Blacktext {gsave 0 setgray textshow grestore} {textshow} ifelse} def
/UP {dup vpt_ mul /vpt exch def hpt_ mul /hpt exch def
  /hpt2 hpt 2 mul def /vpt2 vpt 2 mul def} def
/DL {Color {setrgbcolor Solid {pop []} if 0 setdash}
 {pop pop pop 0 setgray Solid {pop []} if 0 setdash} ifelse} def
/BL {stroke userlinewidth 2 mul setlinewidth
	Rounded {1 setlinejoin 1 setlinecap} if} def
/AL {stroke userlinewidth 2 div setlinewidth
	Rounded {1 setlinejoin 1 setlinecap} if} def
/UL {dup gnulinewidth mul /userlinewidth exch def
	dup 1 lt {pop 1} if 10 mul /udl exch def} def
/PL {stroke userlinewidth setlinewidth
	Rounded {1 setlinejoin 1 setlinecap} if} def
3.8 setmiterlimit
% Classic Line colors (version 5.0)
/LCw {1 1 1} def
/LCb {0 0 0} def
/LCa {0 0 0} def
/LC0 {1 0 0} def
/LC1 {0 1 0} def
/LC2 {0 0 1} def
/LC3 {1 0 1} def
/LC4 {0 1 1} def
/LC5 {1 1 0} def
/LC6 {0 0 0} def
/LC7 {1 0.3 0} def
/LC8 {0.5 0.5 0.5} def
% Default dash patterns (version 5.0)
/LTB {BL [] LCb DL} def
/LTw {PL [] 1 setgray} def
/LTb {PL [] LCb DL} def
/LTa {AL [1 udl mul 2 udl mul] 0 setdash LCa setrgbcolor} def
/LT0 {PL [] LC0 DL} def
/LT1 {PL [2 dl1 3 dl2] LC1 DL} def
/LT2 {PL [1 dl1 1.5 dl2] LC2 DL} def
/LT3 {PL [6 dl1 2 dl2 1 dl1 2 dl2] LC3 DL} def
/LT4 {PL [1 dl1 2 dl2 6 dl1 2 dl2 1 dl1 2 dl2] LC4 DL} def
/LT5 {PL [4 dl1 2 dl2] LC5 DL} def
/LT6 {PL [1.5 dl1 1.5 dl2 1.5 dl1 1.5 dl2 1.5 dl1 6 dl2] LC6 DL} def
/LT7 {PL [3 dl1 3 dl2 1 dl1 3 dl2] LC7 DL} def
/LT8 {PL [2 dl1 2 dl2 2 dl1 6 dl2] LC8 DL} def
/SL {[] 0 setdash} def
/Pnt {stroke [] 0 setdash gsave 1 setlinecap M 0 0 V stroke grestore} def
/Dia {stroke [] 0 setdash 2 copy vpt add M
  hpt neg vpt neg V hpt vpt neg V
  hpt vpt V hpt neg vpt V closepath stroke
  Pnt} def
/Pls {stroke [] 0 setdash vpt sub M 0 vpt2 V
  currentpoint stroke M
  hpt neg vpt neg R hpt2 0 V stroke
 } def
/Box {stroke [] 0 setdash 2 copy exch hpt sub exch vpt add M
  0 vpt2 neg V hpt2 0 V 0 vpt2 V
  hpt2 neg 0 V closepath stroke
  Pnt} def
/Crs {stroke [] 0 setdash exch hpt sub exch vpt add M
  hpt2 vpt2 neg V currentpoint stroke M
  hpt2 neg 0 R hpt2 vpt2 V stroke} def
/TriU {stroke [] 0 setdash 2 copy vpt 1.12 mul add M
  hpt neg vpt -1.62 mul V
  hpt 2 mul 0 V
  hpt neg vpt 1.62 mul V closepath stroke
  Pnt} def
/Star {2 copy Pls Crs} def
/BoxF {stroke [] 0 setdash exch hpt sub exch vpt add M
  0 vpt2 neg V hpt2 0 V 0 vpt2 V
  hpt2 neg 0 V closepath fill} def
/TriUF {stroke [] 0 setdash vpt 1.12 mul add M
  hpt neg vpt -1.62 mul V
  hpt 2 mul 0 V
  hpt neg vpt 1.62 mul V closepath fill} def
/TriD {stroke [] 0 setdash 2 copy vpt 1.12 mul sub M
  hpt neg vpt 1.62 mul V
  hpt 2 mul 0 V
  hpt neg vpt -1.62 mul V closepath stroke
  Pnt} def
/TriDF {stroke [] 0 setdash vpt 1.12 mul sub M
  hpt neg vpt 1.62 mul V
  hpt 2 mul 0 V
  hpt neg vpt -1.62 mul V closepath fill} def
/DiaF {stroke [] 0 setdash vpt add M
  hpt neg vpt neg V hpt vpt neg V
  hpt vpt V hpt neg vpt V closepath fill} def
/Pent {stroke [] 0 setdash 2 copy gsave
  translate 0 hpt M 4 {72 rotate 0 hpt L} repeat
  closepath stroke grestore Pnt} def
/PentF {stroke [] 0 setdash gsave
  translate 0 hpt M 4 {72 rotate 0 hpt L} repeat
  closepath fill grestore} def
/Circle {stroke [] 0 setdash 2 copy
  hpt 0 360 arc stroke Pnt} def
/CircleF {stroke [] 0 setdash hpt 0 360 arc fill} def
/C0 {BL [] 0 setdash 2 copy moveto vpt 90 450 arc} bind def
/C1 {BL [] 0 setdash 2 copy moveto
	2 copy vpt 0 90 arc closepath fill
	vpt 0 360 arc closepath} bind def
/C2 {BL [] 0 setdash 2 copy moveto
	2 copy vpt 90 180 arc closepath fill
	vpt 0 360 arc closepath} bind def
/C3 {BL [] 0 setdash 2 copy moveto
	2 copy vpt 0 180 arc closepath fill
	vpt 0 360 arc closepath} bind def
/C4 {BL [] 0 setdash 2 copy moveto
	2 copy vpt 180 270 arc closepath fill
	vpt 0 360 arc closepath} bind def
/C5 {BL [] 0 setdash 2 copy moveto
	2 copy vpt 0 90 arc
	2 copy moveto
	2 copy vpt 180 270 arc closepath fill
	vpt 0 360 arc} bind def
/C6 {BL [] 0 setdash 2 copy moveto
	2 copy vpt 90 270 arc closepath fill
	vpt 0 360 arc closepath} bind def
/C7 {BL [] 0 setdash 2 copy moveto
	2 copy vpt 0 270 arc closepath fill
	vpt 0 360 arc closepath} bind def
/C8 {BL [] 0 setdash 2 copy moveto
	2 copy vpt 270 360 arc closepath fill
	vpt 0 360 arc closepath} bind def
/C9 {BL [] 0 setdash 2 copy moveto
	2 copy vpt 270 450 arc closepath fill
	vpt 0 360 arc closepath} bind def
/C10 {BL [] 0 setdash 2 copy 2 copy moveto vpt 270 360 arc closepath fill
	2 copy moveto
	2 copy vpt 90 180 arc closepath fill
	vpt 0 360 arc closepath} bind def
/C11 {BL [] 0 setdash 2 copy moveto
	2 copy vpt 0 180 arc closepath fill
	2 copy moveto
	2 copy vpt 270 360 arc closepath fill
	vpt 0 360 arc closepath} bind def
/C12 {BL [] 0 setdash 2 copy moveto
	2 copy vpt 180 360 arc closepath fill
	vpt 0 360 arc closepath} bind def
/C13 {BL [] 0 setdash 2 copy moveto
	2 copy vpt 0 90 arc closepath fill
	2 copy moveto
	2 copy vpt 180 360 arc closepath fill
	vpt 0 360 arc closepath} bind def
/C14 {BL [] 0 setdash 2 copy moveto
	2 copy vpt 90 360 arc closepath fill
	vpt 0 360 arc} bind def
/C15 {BL [] 0 setdash 2 copy vpt 0 360 arc closepath fill
	vpt 0 360 arc closepath} bind def
/Rec {newpath 4 2 roll moveto 1 index 0 rlineto 0 exch rlineto
	neg 0 rlineto closepath} bind def
/Square {dup Rec} bind def
/Bsquare {vpt sub exch vpt sub exch vpt2 Square} bind def
/S0 {BL [] 0 setdash 2 copy moveto 0 vpt rlineto BL Bsquare} bind def
/S1 {BL [] 0 setdash 2 copy vpt Square fill Bsquare} bind def
/S2 {BL [] 0 setdash 2 copy exch vpt sub exch vpt Square fill Bsquare} bind def
/S3 {BL [] 0 setdash 2 copy exch vpt sub exch vpt2 vpt Rec fill Bsquare} bind def
/S4 {BL [] 0 setdash 2 copy exch vpt sub exch vpt sub vpt Square fill Bsquare} bind def
/S5 {BL [] 0 setdash 2 copy 2 copy vpt Square fill
	exch vpt sub exch vpt sub vpt Square fill Bsquare} bind def
/S6 {BL [] 0 setdash 2 copy exch vpt sub exch vpt sub vpt vpt2 Rec fill Bsquare} bind def
/S7 {BL [] 0 setdash 2 copy exch vpt sub exch vpt sub vpt vpt2 Rec fill
	2 copy vpt Square fill Bsquare} bind def
/S8 {BL [] 0 setdash 2 copy vpt sub vpt Square fill Bsquare} bind def
/S9 {BL [] 0 setdash 2 copy vpt sub vpt vpt2 Rec fill Bsquare} bind def
/S10 {BL [] 0 setdash 2 copy vpt sub vpt Square fill 2 copy exch vpt sub exch vpt Square fill
	Bsquare} bind def
/S11 {BL [] 0 setdash 2 copy vpt sub vpt Square fill 2 copy exch vpt sub exch vpt2 vpt Rec fill
	Bsquare} bind def
/S12 {BL [] 0 setdash 2 copy exch vpt sub exch vpt sub vpt2 vpt Rec fill Bsquare} bind def
/S13 {BL [] 0 setdash 2 copy exch vpt sub exch vpt sub vpt2 vpt Rec fill
	2 copy vpt Square fill Bsquare} bind def
/S14 {BL [] 0 setdash 2 copy exch vpt sub exch vpt sub vpt2 vpt Rec fill
	2 copy exch vpt sub exch vpt Square fill Bsquare} bind def
/S15 {BL [] 0 setdash 2 copy Bsquare fill Bsquare} bind def
/D0 {gsave translate 45 rotate 0 0 S0 stroke grestore} bind def
/D1 {gsave translate 45 rotate 0 0 S1 stroke grestore} bind def
/D2 {gsave translate 45 rotate 0 0 S2 stroke grestore} bind def
/D3 {gsave translate 45 rotate 0 0 S3 stroke grestore} bind def
/D4 {gsave translate 45 rotate 0 0 S4 stroke grestore} bind def
/D5 {gsave translate 45 rotate 0 0 S5 stroke grestore} bind def
/D6 {gsave translate 45 rotate 0 0 S6 stroke grestore} bind def
/D7 {gsave translate 45 rotate 0 0 S7 stroke grestore} bind def
/D8 {gsave translate 45 rotate 0 0 S8 stroke grestore} bind def
/D9 {gsave translate 45 rotate 0 0 S9 stroke grestore} bind def
/D10 {gsave translate 45 rotate 0 0 S10 stroke grestore} bind def
/D11 {gsave translate 45 rotate 0 0 S11 stroke grestore} bind def
/D12 {gsave translate 45 rotate 0 0 S12 stroke grestore} bind def
/D13 {gsave translate 45 rotate 0 0 S13 stroke grestore} bind def
/D14 {gsave translate 45 rotate 0 0 S14 stroke grestore} bind def
/D15 {gsave translate 45 rotate 0 0 S15 stroke grestore} bind def
/DiaE {stroke [] 0 setdash vpt add M
  hpt neg vpt neg V hpt vpt neg V
  hpt vpt V hpt neg vpt V closepath stroke} def
/BoxE {stroke [] 0 setdash exch hpt sub exch vpt add M
  0 vpt2 neg V hpt2 0 V 0 vpt2 V
  hpt2 neg 0 V closepath stroke} def
/TriUE {stroke [] 0 setdash vpt 1.12 mul add M
  hpt neg vpt -1.62 mul V
  hpt 2 mul 0 V
  hpt neg vpt 1.62 mul V closepath stroke} def
/TriDE {stroke [] 0 setdash vpt 1.12 mul sub M
  hpt neg vpt 1.62 mul V
  hpt 2 mul 0 V
  hpt neg vpt -1.62 mul V closepath stroke} def
/PentE {stroke [] 0 setdash gsave
  translate 0 hpt M 4 {72 rotate 0 hpt L} repeat
  closepath stroke grestore} def
/CircE {stroke [] 0 setdash 
  hpt 0 360 arc stroke} def
/Opaque {gsave closepath 1 setgray fill grestore 0 setgray closepath} def
/DiaW {stroke [] 0 setdash vpt add M
  hpt neg vpt neg V hpt vpt neg V
  hpt vpt V hpt neg vpt V Opaque stroke} def
/BoxW {stroke [] 0 setdash exch hpt sub exch vpt add M
  0 vpt2 neg V hpt2 0 V 0 vpt2 V
  hpt2 neg 0 V Opaque stroke} def
/TriUW {stroke [] 0 setdash vpt 1.12 mul add M
  hpt neg vpt -1.62 mul V
  hpt 2 mul 0 V
  hpt neg vpt 1.62 mul V Opaque stroke} def
/TriDW {stroke [] 0 setdash vpt 1.12 mul sub M
  hpt neg vpt 1.62 mul V
  hpt 2 mul 0 V
  hpt neg vpt -1.62 mul V Opaque stroke} def
/PentW {stroke [] 0 setdash gsave
  translate 0 hpt M 4 {72 rotate 0 hpt L} repeat
  Opaque stroke grestore} def
/CircW {stroke [] 0 setdash 
  hpt 0 360 arc Opaque stroke} def
/BoxFill {gsave Rec 1 setgray fill grestore} def
/Density {
  /Fillden exch def
  currentrgbcolor
  /ColB exch def /ColG exch def /ColR exch def
  /ColR ColR Fillden mul Fillden sub 1 add def
  /ColG ColG Fillden mul Fillden sub 1 add def
  /ColB ColB Fillden mul Fillden sub 1 add def
  ColR ColG ColB setrgbcolor} def
/BoxColFill {gsave Rec PolyFill} def
/PolyFill {gsave Density fill grestore grestore} def
/h {rlineto rlineto rlineto gsave closepath fill grestore} bind def
%
% PostScript Level 1 Pattern Fill routine for rectangles
% Usage: x y w h s a XX PatternFill
%	x,y = lower left corner of box to be filled
%	w,h = width and height of box
%	  a = angle in degrees between lines and x-axis
%	 XX = 0/1 for no/yes cross-hatch
%
/PatternFill {gsave /PFa [ 9 2 roll ] def
  PFa 0 get PFa 2 get 2 div add PFa 1 get PFa 3 get 2 div add translate
  PFa 2 get -2 div PFa 3 get -2 div PFa 2 get PFa 3 get Rec
  TransparentPatterns {} {gsave 1 setgray fill grestore} ifelse
  clip
  currentlinewidth 0.5 mul setlinewidth
  /PFs PFa 2 get dup mul PFa 3 get dup mul add sqrt def
  0 0 M PFa 5 get rotate PFs -2 div dup translate
  0 1 PFs PFa 4 get div 1 add floor cvi
	{PFa 4 get mul 0 M 0 PFs V} for
  0 PFa 6 get ne {
	0 1 PFs PFa 4 get div 1 add floor cvi
	{PFa 4 get mul 0 2 1 roll M PFs 0 V} for
 } if
  stroke grestore} def
%
/languagelevel where
 {pop languagelevel} {1} ifelse
dup 2 lt
	{/InterpretLevel1 true def
	 /InterpretLevel3 false def}
	{/InterpretLevel1 Level1 def
	 2 gt
	    {/InterpretLevel3 Level3 def}
	    {/InterpretLevel3 false def}
	 ifelse }
 ifelse
%
% PostScript level 2 pattern fill definitions
%
/Level2PatternFill {
/Tile8x8 {/PaintType 2 /PatternType 1 /TilingType 1 /BBox [0 0 8 8] /XStep 8 /YStep 8}
	bind def
/KeepColor {currentrgbcolor [/Pattern /DeviceRGB] setcolorspace} bind def
<< Tile8x8
 /PaintProc {0.5 setlinewidth pop 0 0 M 8 8 L 0 8 M 8 0 L stroke} 
>> matrix makepattern
/Pat1 exch def
<< Tile8x8
 /PaintProc {0.5 setlinewidth pop 0 0 M 8 8 L 0 8 M 8 0 L stroke
	0 4 M 4 8 L 8 4 L 4 0 L 0 4 L stroke}
>> matrix makepattern
/Pat2 exch def
<< Tile8x8
 /PaintProc {0.5 setlinewidth pop 0 0 M 0 8 L
	8 8 L 8 0 L 0 0 L fill}
>> matrix makepattern
/Pat3 exch def
<< Tile8x8
 /PaintProc {0.5 setlinewidth pop -4 8 M 8 -4 L
	0 12 M 12 0 L stroke}
>> matrix makepattern
/Pat4 exch def
<< Tile8x8
 /PaintProc {0.5 setlinewidth pop -4 0 M 8 12 L
	0 -4 M 12 8 L stroke}
>> matrix makepattern
/Pat5 exch def
<< Tile8x8
 /PaintProc {0.5 setlinewidth pop -2 8 M 4 -4 L
	0 12 M 8 -4 L 4 12 M 10 0 L stroke}
>> matrix makepattern
/Pat6 exch def
<< Tile8x8
 /PaintProc {0.5 setlinewidth pop -2 0 M 4 12 L
	0 -4 M 8 12 L 4 -4 M 10 8 L stroke}
>> matrix makepattern
/Pat7 exch def
<< Tile8x8
 /PaintProc {0.5 setlinewidth pop 8 -2 M -4 4 L
	12 0 M -4 8 L 12 4 M 0 10 L stroke}
>> matrix makepattern
/Pat8 exch def
<< Tile8x8
 /PaintProc {0.5 setlinewidth pop 0 -2 M 12 4 L
	-4 0 M 12 8 L -4 4 M 8 10 L stroke}
>> matrix makepattern
/Pat9 exch def
/Pattern1 {PatternBgnd KeepColor Pat1 setpattern} bind def
/Pattern2 {PatternBgnd KeepColor Pat2 setpattern} bind def
/Pattern3 {PatternBgnd KeepColor Pat3 setpattern} bind def
/Pattern4 {PatternBgnd KeepColor Landscape {Pat5} {Pat4} ifelse setpattern} bind def
/Pattern5 {PatternBgnd KeepColor Landscape {Pat4} {Pat5} ifelse setpattern} bind def
/Pattern6 {PatternBgnd KeepColor Landscape {Pat9} {Pat6} ifelse setpattern} bind def
/Pattern7 {PatternBgnd KeepColor Landscape {Pat8} {Pat7} ifelse setpattern} bind def
} def
%
%
%End of PostScript Level 2 code
%
/PatternBgnd {
  TransparentPatterns {} {gsave 1 setgray fill grestore} ifelse
} def
%
% Substitute for Level 2 pattern fill codes with
% grayscale if Level 2 support is not selected.
%
/Level1PatternFill {
/Pattern1 {0.250 Density} bind def
/Pattern2 {0.500 Density} bind def
/Pattern3 {0.750 Density} bind def
/Pattern4 {0.125 Density} bind def
/Pattern5 {0.375 Density} bind def
/Pattern6 {0.625 Density} bind def
/Pattern7 {0.875 Density} bind def
} def
%
% Now test for support of Level 2 code
%
Level1 {Level1PatternFill} {Level2PatternFill} ifelse
%
/Symbol-Oblique /Symbol findfont [1 0 .167 1 0 0] makefont
dup length dict begin {1 index /FID eq {pop pop} {def} ifelse} forall
currentdict end definefont pop
%
/MFshow {
   { dup 5 get 3 ge
     { 5 get 3 eq {gsave} {grestore} ifelse }
     {dup dup 0 get findfont exch 1 get scalefont setfont
     [ currentpoint ] exch dup 2 get 0 exch R dup 5 get 2 ne {dup dup 6
     get exch 4 get {textshow} {stringwidth pop 0 R} ifelse }if dup 5 get 0 eq
     {dup 3 get {2 get neg 0 exch R pop} {pop aload pop M} ifelse} {dup 5
     get 1 eq {dup 2 get exch dup 3 get exch 6 get stringwidth pop -2 div
     dup 0 R} {dup 6 get stringwidth pop -2 div 0 R 6 get
     textshow 2 index {aload pop M neg 3 -1 roll neg R pop pop} {pop pop pop
     pop aload pop M} ifelse }ifelse }ifelse }
     ifelse }
   forall} def
/Gswidth {dup type /stringtype eq {stringwidth} {pop (n) stringwidth} ifelse} def
/MFwidth {0 exch { dup 5 get 3 ge { 5 get 3 eq { 0 } { pop } ifelse }
 {dup 3 get{dup dup 0 get findfont exch 1 get scalefont setfont
     6 get Gswidth pop add} {pop} ifelse} ifelse} forall} def
/MLshow { currentpoint stroke M
  0 exch R
  Blacktext {gsave 0 setgray MFshow grestore} {MFshow} ifelse } bind def
/MRshow { currentpoint stroke M
  exch dup MFwidth neg 3 -1 roll R
  Blacktext {gsave 0 setgray MFshow grestore} {MFshow} ifelse } bind def
/MCshow { currentpoint stroke M
  exch dup MFwidth -2 div 3 -1 roll R
  Blacktext {gsave 0 setgray MFshow grestore} {MFshow} ifelse } bind def
/XYsave    { [( ) 1 2 true false 3 ()] } bind def
/XYrestore { [( ) 1 2 true false 4 ()] } bind def
Level1 SuppressPDFMark or 
{} {
/SDict 10 dict def
systemdict /pdfmark known not {
  userdict /pdfmark systemdict /cleartomark get put
} if
SDict begin [
  /Title (TcpVeno-download-rtt-75UE-250-400.eps)
  /Subject (gnuplot plot)
  /Creator (gnuplot 5.0 patchlevel 3)
  /Author (nat)
%  /Producer (gnuplot)
%  /Keywords ()
  /CreationDate (Thu Jun  2 10:39:41 2016)
  /DOCINFO pdfmark
end
} ifelse
%
% Support for boxed text - Ethan A Merritt May 2005
%
/InitTextBox { userdict /TBy2 3 -1 roll put userdict /TBx2 3 -1 roll put
           userdict /TBy1 3 -1 roll put userdict /TBx1 3 -1 roll put
	   /Boxing true def } def
/ExtendTextBox { Boxing
    { gsave dup false charpath pathbbox
      dup TBy2 gt {userdict /TBy2 3 -1 roll put} {pop} ifelse
      dup TBx2 gt {userdict /TBx2 3 -1 roll put} {pop} ifelse
      dup TBy1 lt {userdict /TBy1 3 -1 roll put} {pop} ifelse
      dup TBx1 lt {userdict /TBx1 3 -1 roll put} {pop} ifelse
      grestore } if } def
/PopTextBox { newpath TBx1 TBxmargin sub TBy1 TBymargin sub M
               TBx1 TBxmargin sub TBy2 TBymargin add L
	       TBx2 TBxmargin add TBy2 TBymargin add L
	       TBx2 TBxmargin add TBy1 TBymargin sub L closepath } def
/DrawTextBox { PopTextBox stroke /Boxing false def} def
/FillTextBox { gsave PopTextBox 1 1 1 setrgbcolor fill grestore /Boxing false def} def
0 0 0 0 InitTextBox
/TBxmargin 20 def
/TBymargin 20 def
/Boxing false def
/textshow { ExtendTextBox Gshow } def
%
% redundant definitions for compatibility with prologue.ps older than 5.0.2
/LTB {BL [] LCb DL} def
/LTb {PL [] LCb DL} def
end
%%EndProlog
%%Page: 1 1
gnudict begin
gsave
doclip
50 50 translate
0.050 0.050 scale
0 setgray
newpath
(Arial) findfont 200 scalefont setfont
BackgroundColor 0 lt 3 1 roll 0 lt exch 0 lt or or not {BackgroundColor C 1.000 0 0 14400.00 5040.00 BoxColFill} if
1.000 UL
LTb
0.00 0.00 0.00 C 0.500 UL
LTa
0.50 0.50 0.50 C 980 1000 M
12139 0 V
stroke
1.000 UL
LTb
0.00 0.00 0.00 C 980 1000 M
63 0 V
stroke
860 1000 M
[ [(Arial) 200.0 0.0 true true 0 ( 40)]
] -66.7 MRshow
1.000 UL
LTb
0.00 0.00 0.00 C 0.500 UL
LTa
0.50 0.50 0.50 C 980 1633 M
12139 0 V
stroke
1.000 UL
LTb
0.00 0.00 0.00 C 980 1633 M
63 0 V
stroke
860 1633 M
[ [(Arial) 200.0 0.0 true true 0 ( 60)]
] -66.7 MRshow
1.000 UL
LTb
0.00 0.00 0.00 C 0.500 UL
LTa
0.50 0.50 0.50 C 980 2266 M
12139 0 V
stroke
1.000 UL
LTb
0.00 0.00 0.00 C 980 2266 M
63 0 V
stroke
860 2266 M
[ [(Arial) 200.0 0.0 true true 0 ( 80)]
] -66.7 MRshow
1.000 UL
LTb
0.00 0.00 0.00 C 0.500 UL
LTa
0.50 0.50 0.50 C 980 2900 M
12139 0 V
stroke
1.000 UL
LTb
0.00 0.00 0.00 C 980 2900 M
63 0 V
stroke
860 2900 M
[ [(Arial) 200.0 0.0 true true 0 ( 100)]
] -66.7 MRshow
1.000 UL
LTb
0.00 0.00 0.00 C 0.500 UL
LTa
0.50 0.50 0.50 C 980 3533 M
12139 0 V
stroke
1.000 UL
LTb
0.00 0.00 0.00 C 980 3533 M
63 0 V
stroke
860 3533 M
[ [(Arial) 200.0 0.0 true true 0 ( 120)]
] -66.7 MRshow
1.000 UL
LTb
0.00 0.00 0.00 C 0.500 UL
LTa
0.50 0.50 0.50 C 980 4166 M
12139 0 V
stroke
1.000 UL
LTb
0.00 0.00 0.00 C 980 4166 M
63 0 V
stroke
860 4166 M
[ [(Arial) 200.0 0.0 true true 0 ( 140)]
] -66.7 MRshow
1.000 UL
LTb
0.00 0.00 0.00 C 0.500 UL
LTa
0.50 0.50 0.50 C 980 4799 M
12139 0 V
stroke
1.000 UL
LTb
0.00 0.00 0.00 C 980 4799 M
63 0 V
stroke
860 4799 M
[ [(Arial) 200.0 0.0 true true 0 ( 160)]
] -66.7 MRshow
1.000 UL
LTb
0.00 0.00 0.00 C 0.500 UL
LTa
0.50 0.50 0.50 C 1359 1000 M
0 3799 V
stroke
1.000 UL
LTb
0.00 0.00 0.00 C 1359 1000 M
0 63 V
0 3736 R
0 -63 V
stroke
1359 800 M
[ [(Arial) 200.0 0.0 true true 0 ( 750)]
] -66.7 MCshow
1.000 UL
LTb
0.00 0.00 0.00 C 0.500 UL
LTa
0.50 0.50 0.50 C 2118 1000 M
0 3799 V
stroke
1.000 UL
LTb
0.00 0.00 0.00 C 2118 1000 M
0 63 V
0 3736 R
0 -63 V
stroke
2118 800 M
[ [(Arial) 200.0 0.0 true true 0 ( 780)]
] -66.7 MCshow
1.000 UL
LTb
0.00 0.00 0.00 C 0.500 UL
LTa
0.50 0.50 0.50 C 2877 1000 M
0 3799 V
stroke
1.000 UL
LTb
0.00 0.00 0.00 C 2877 1000 M
0 63 V
0 3736 R
0 -63 V
stroke
2877 800 M
[ [(Arial) 200.0 0.0 true true 0 ( 810)]
] -66.7 MCshow
1.000 UL
LTb
0.00 0.00 0.00 C 0.500 UL
LTa
0.50 0.50 0.50 C 3635 1000 M
0 3799 V
stroke
1.000 UL
LTb
0.00 0.00 0.00 C 3635 1000 M
0 63 V
0 3736 R
0 -63 V
stroke
3635 800 M
[ [(Arial) 200.0 0.0 true true 0 ( 840)]
] -66.7 MCshow
1.000 UL
LTb
0.00 0.00 0.00 C 0.500 UL
LTa
0.50 0.50 0.50 C 4394 1000 M
0 3799 V
stroke
1.000 UL
LTb
0.00 0.00 0.00 C 4394 1000 M
0 63 V
0 3736 R
0 -63 V
stroke
4394 800 M
[ [(Arial) 200.0 0.0 true true 0 ( 870)]
] -66.7 MCshow
1.000 UL
LTb
0.00 0.00 0.00 C 0.500 UL
LTa
0.50 0.50 0.50 C 5153 1000 M
0 3799 V
stroke
1.000 UL
LTb
0.00 0.00 0.00 C 5153 1000 M
0 63 V
0 3736 R
0 -63 V
stroke
5153 800 M
[ [(Arial) 200.0 0.0 true true 0 ( 900)]
] -66.7 MCshow
1.000 UL
LTb
0.00 0.00 0.00 C 0.500 UL
LTa
0.50 0.50 0.50 C 5911 1000 M
0 3799 V
stroke
1.000 UL
LTb
0.00 0.00 0.00 C 5911 1000 M
0 63 V
0 3736 R
0 -63 V
stroke
5911 800 M
[ [(Arial) 200.0 0.0 true true 0 ( 930)]
] -66.7 MCshow
1.000 UL
LTb
0.00 0.00 0.00 C 0.500 UL
LTa
0.50 0.50 0.50 C 6670 1000 M
0 3799 V
stroke
1.000 UL
LTb
0.00 0.00 0.00 C 6670 1000 M
0 63 V
0 3736 R
0 -63 V
stroke
6670 800 M
[ [(Arial) 200.0 0.0 true true 0 ( 960)]
] -66.7 MCshow
1.000 UL
LTb
0.00 0.00 0.00 C 0.500 UL
LTa
0.50 0.50 0.50 C 7429 1000 M
0 3799 V
stroke
1.000 UL
LTb
0.00 0.00 0.00 C 7429 1000 M
0 63 V
0 3736 R
0 -63 V
stroke
7429 800 M
[ [(Arial) 200.0 0.0 true true 0 ( 990)]
] -66.7 MCshow
1.000 UL
LTb
0.00 0.00 0.00 C 0.500 UL
LTa
0.50 0.50 0.50 C 8188 1000 M
0 3799 V
stroke
1.000 UL
LTb
0.00 0.00 0.00 C 8188 1000 M
0 63 V
0 3736 R
0 -63 V
stroke
8188 800 M
[ [(Arial) 200.0 0.0 true true 0 ( 1020)]
] -66.7 MCshow
1.000 UL
LTb
0.00 0.00 0.00 C 0.500 UL
LTa
0.50 0.50 0.50 C 8946 1000 M
0 3799 V
stroke
1.000 UL
LTb
0.00 0.00 0.00 C 8946 1000 M
0 63 V
0 3736 R
0 -63 V
stroke
8946 800 M
[ [(Arial) 200.0 0.0 true true 0 ( 1050)]
] -66.7 MCshow
1.000 UL
LTb
0.00 0.00 0.00 C 0.500 UL
LTa
0.50 0.50 0.50 C 9705 1000 M
0 3799 V
stroke
1.000 UL
LTb
0.00 0.00 0.00 C 9705 1000 M
0 63 V
0 3736 R
0 -63 V
stroke
9705 800 M
[ [(Arial) 200.0 0.0 true true 0 ( 1080)]
] -66.7 MCshow
1.000 UL
LTb
0.00 0.00 0.00 C 0.500 UL
LTa
0.50 0.50 0.50 C 10464 1000 M
0 3799 V
stroke
1.000 UL
LTb
0.00 0.00 0.00 C 10464 1000 M
0 63 V
0 3736 R
0 -63 V
stroke
10464 800 M
[ [(Arial) 200.0 0.0 true true 0 ( 1110)]
] -66.7 MCshow
1.000 UL
LTb
0.00 0.00 0.00 C 0.500 UL
LTa
0.50 0.50 0.50 C 11222 1000 M
0 3799 V
stroke
1.000 UL
LTb
0.00 0.00 0.00 C 11222 1000 M
0 63 V
0 3736 R
0 -63 V
stroke
11222 800 M
[ [(Arial) 200.0 0.0 true true 0 ( 1140)]
] -66.7 MCshow
1.000 UL
LTb
0.00 0.00 0.00 C 0.500 UL
LTa
0.50 0.50 0.50 C 11981 1000 M
0 3799 V
stroke
1.000 UL
LTb
0.00 0.00 0.00 C 11981 1000 M
0 63 V
0 3736 R
0 -63 V
stroke
11981 800 M
[ [(Arial) 200.0 0.0 true true 0 ( 1170)]
] -66.7 MCshow
1.000 UL
LTb
0.00 0.00 0.00 C 0.500 UL
LTa
0.50 0.50 0.50 C 12740 1000 M
0 3799 V
stroke
1.000 UL
LTb
0.00 0.00 0.00 C 12740 1000 M
0 63 V
0 3736 R
0 -63 V
stroke
12740 800 M
[ [(Arial) 200.0 0.0 true true 0 ( 1200)]
] -66.7 MCshow
1.000 UL
LTb
0.00 0.00 0.00 C 13119 1000 M
-63 0 V
stroke
13239 1000 M
[ [(Arial) 200.0 0.0 true true 0 ( 0)]
] -66.7 MLshow
1.000 UL
LTb
0.00 0.00 0.00 C 13119 1760 M
-63 0 V
stroke
13239 1760 M
[ [(Arial) 200.0 0.0 true true 0 ( 20)]
] -66.7 MLshow
1.000 UL
LTb
0.00 0.00 0.00 C 13119 2520 M
-63 0 V
stroke
13239 2520 M
[ [(Arial) 200.0 0.0 true true 0 ( 40)]
] -66.7 MLshow
1.000 UL
LTb
0.00 0.00 0.00 C 13119 3279 M
-63 0 V
stroke
13239 3279 M
[ [(Arial) 200.0 0.0 true true 0 ( 60)]
] -66.7 MLshow
1.000 UL
LTb
0.00 0.00 0.00 C 13119 4039 M
-63 0 V
stroke
13239 4039 M
[ [(Arial) 200.0 0.0 true true 0 ( 80)]
] -66.7 MLshow
1.000 UL
LTb
0.00 0.00 0.00 C 13119 4799 M
-63 0 V
stroke
13239 4799 M
[ [(Arial) 200.0 0.0 true true 0 ( 100)]
] -66.7 MLshow
1.000 UL
LTb
0.00 0.00 0.00 C 1.000 UL
LTB
0.00 0.00 0.00 C 980 4799 M
0 -3799 V
12139 0 V
0 3799 R
980 4799 M
1.000 UP
stroke
LTb
0.00 0.00 0.00 C LCb setrgbcolor
160 2899 M
currentpoint gsave translate -270 rotate 0 0 moveto
[ [(Arial) 200.0 0.0 true true 0 (RTT \(ms\))]
] -66.7 MCshow
grestore
LTb
LCb setrgbcolor
13938 2899 M
currentpoint gsave translate -270 rotate 0 0 moveto
[ [(Arial) 200.0 0.0 true true 0 (TCP delivery ratio [%])]
] -66.7 MCshow
grestore
LTb
LCb setrgbcolor
7049 500 M
[ [(Arial) 200.0 0.0 true true 0 (Local backhaul traffic traffic \(Mb/s\))]
] -66.7 MCshow
LTb
% Begin plot #1
1.000 UL
LTb
0.60 0.60 0.00 C LCb setrgbcolor
4714 333 M
[ [(Arial) 180.0 0.0 true true 0 (RTT      :   olsr)]
] -60.0 MRshow
1.000 UL
LTb
0.60 0.60 0.00 C 4822 288 333 90 80 -45 0 PatternFill
4822 288 N
333 0 V
0 90 V
-333 0 V
0 -90 V
Z stroke
1.000 UL
LTb
0.60 0.60 0.00 C 1094 1274 152 419 80 -45 0 PatternFill
1170 1213 M
0 61 V
0 419 R
0 1206 V
stroke
1094 1274 N
152 0 V
0 419 V
-152 0 V
0 -419 V
Z stroke
1094 2899 M
152 0 V
1094 1213 M
152 0 V
stroke
1852 1276 152 368 80 -45 0 PatternFill
1928 1208 M
0 68 V
0 368 R
0 1122 V
stroke
1852 1276 N
152 0 V
0 368 V
-152 0 V
0 -368 V
Z stroke
1852 2766 M
152 0 V
1852 1208 M
152 0 V
stroke
2611 1282 152 380 80 -45 0 PatternFill
2687 1215 M
0 67 V
0 380 R
0 1216 V
stroke
2611 1282 N
152 0 V
0 380 V
-152 0 V
0 -380 V
Z stroke
2611 2878 M
152 0 V
2611 1215 M
152 0 V
stroke
3370 1278 152 428 80 -45 0 PatternFill
3446 1213 M
0 65 V
0 428 R
0 1145 V
stroke
3370 1278 N
152 0 V
0 428 V
-152 0 V
0 -428 V
Z stroke
3370 2851 M
152 0 V
3370 1213 M
152 0 V
stroke
4129 1279 152 372 80 -45 0 PatternFill
4205 1210 M
0 69 V
0 372 R
0 1008 V
stroke
4129 1279 N
152 0 V
0 372 V
-152 0 V
0 -372 V
Z stroke
4129 2659 M
152 0 V
4129 1210 M
152 0 V
stroke
4887 1284 152 413 80 -45 0 PatternFill
4963 1215 M
0 69 V
0 413 R
0 1128 V
stroke
4887 1284 N
152 0 V
0 413 V
-152 0 V
0 -413 V
Z stroke
4887 2825 M
152 0 V
4887 1215 M
152 0 V
stroke
5646 1286 152 452 80 -45 0 PatternFill
5722 1219 M
0 67 V
0 452 R
0 1062 V
stroke
5646 1286 N
152 0 V
0 452 V
-152 0 V
0 -452 V
Z stroke
5646 2800 M
152 0 V
5646 1219 M
152 0 V
stroke
6405 1280 152 387 80 -45 0 PatternFill
6481 1213 M
0 67 V
0 387 R
0 1174 V
stroke
6405 1280 N
152 0 V
0 387 V
-152 0 V
0 -387 V
Z stroke
6405 2841 M
152 0 V
6405 1213 M
152 0 V
stroke
7163 1281 152 405 80 -45 0 PatternFill
7239 1213 M
0 68 V
0 405 R
0 1048 V
stroke
7163 1281 N
152 0 V
0 405 V
-152 0 V
0 -405 V
Z stroke
7163 2734 M
152 0 V
7163 1213 M
152 0 V
stroke
7922 1289 152 406 80 -45 0 PatternFill
7998 1215 M
0 74 V
0 406 R
0 1163 V
stroke
7922 1289 N
152 0 V
0 406 V
-152 0 V
0 -406 V
Z stroke
7922 2858 M
152 0 V
7922 1215 M
152 0 V
stroke
8681 1282 152 399 80 -45 0 PatternFill
8757 1217 M
0 65 V
0 399 R
0 1078 V
stroke
8681 1282 N
152 0 V
0 399 V
-152 0 V
0 -399 V
Z stroke
8681 2759 M
152 0 V
8681 1217 M
152 0 V
stroke
9439 1287 152 414 80 -45 0 PatternFill
9515 1219 M
0 68 V
0 414 R
0 1091 V
stroke
9439 1287 N
152 0 V
0 414 V
-152 0 V
0 -414 V
Z stroke
9439 2792 M
152 0 V
9439 1219 M
152 0 V
stroke
10198 1275 152 403 80 -45 0 PatternFill
10274 1213 M
0 62 V
0 403 R
0 1051 V
stroke
10198 1275 N
152 0 V
0 403 V
-152 0 V
0 -403 V
Z stroke
10198 2729 M
152 0 V
10198 1213 M
152 0 V
stroke
10957 1287 152 356 80 -45 0 PatternFill
11033 1219 M
0 68 V
0 356 R
0 1127 V
stroke
10957 1287 N
152 0 V
0 356 V
-152 0 V
0 -356 V
Z stroke
10957 2770 M
152 0 V
10957 1219 M
152 0 V
stroke
11715 1290 152 345 80 -45 0 PatternFill
11791 1217 M
0 73 V
0 345 R
0 962 V
stroke
11715 1290 N
152 0 V
0 345 V
-152 0 V
0 -345 V
Z stroke
11715 2597 M
152 0 V
11715 1217 M
152 0 V
stroke
12474 1286 152 383 80 -45 0 PatternFill
12550 1217 M
0 69 V
0 383 R
0 903 V
stroke
12474 1286 N
152 0 V
0 383 V
-152 0 V
0 -383 V
Z stroke
12474 2572 M
152 0 V
12474 1217 M
152 0 V
% End plot #1
% Begin plot #2
stroke
LTb
LCb setrgbcolor

 /TransparentPatterns true def
1094 1599 152 0 40 30 0 PatternFill
1170 1599 M
stroke
1094 1599 N
152 0 V
-152 0 V
Z stroke
1094 1599 M
152 0 V
-152 0 R
152 0 V
stroke

 /TransparentPatterns true def
1852 1573 152 0 40 30 0 PatternFill
1928 1573 M
stroke
1852 1573 N
152 0 V
-152 0 V
Z stroke
1852 1573 M
152 0 V
-152 0 R
152 0 V
stroke

 /TransparentPatterns true def
2611 1593 152 0 40 30 0 PatternFill
2687 1593 M
stroke
2611 1593 N
152 0 V
-152 0 V
Z stroke
2611 1593 M
152 0 V
-152 0 R
152 0 V
stroke

 /TransparentPatterns true def
3370 1599 152 0 40 30 0 PatternFill
3446 1599 M
stroke
3370 1599 N
152 0 V
-152 0 V
Z stroke
3370 1599 M
152 0 V
-152 0 R
152 0 V
stroke

 /TransparentPatterns true def
4129 1572 152 0 40 30 0 PatternFill
4205 1572 M
stroke
4129 1572 N
152 0 V
-152 0 V
Z stroke
4129 1572 M
152 0 V
-152 0 R
152 0 V
stroke

 /TransparentPatterns true def
4887 1599 152 0 40 30 0 PatternFill
4963 1599 M
stroke
4887 1599 N
152 0 V
-152 0 V
Z stroke
4887 1599 M
152 0 V
-152 0 R
152 0 V
stroke

 /TransparentPatterns true def
5646 1607 152 0 40 30 0 PatternFill
5722 1607 M
stroke
5646 1607 N
152 0 V
-152 0 V
Z stroke
5646 1607 M
152 0 V
-152 0 R
152 0 V
stroke

 /TransparentPatterns true def
6405 1592 152 0 40 30 0 PatternFill
6481 1592 M
stroke
6405 1592 N
152 0 V
-152 0 V
Z stroke
6405 1592 M
152 0 V
-152 0 R
152 0 V
stroke

 /TransparentPatterns true def
7163 1583 152 0 40 30 0 PatternFill
7239 1583 M
stroke
7163 1583 N
152 0 V
-152 0 V
Z stroke
7163 1583 M
152 0 V
-152 0 R
152 0 V
stroke

 /TransparentPatterns true def
7922 1600 152 0 40 30 0 PatternFill
7998 1600 M
stroke
7922 1600 N
152 0 V
-152 0 V
Z stroke
7922 1600 M
152 0 V
-152 0 R
152 0 V
stroke

 /TransparentPatterns true def
8681 1587 152 0 40 30 0 PatternFill
8757 1587 M
stroke
8681 1587 N
152 0 V
-152 0 V
Z stroke
8681 1587 M
152 0 V
-152 0 R
152 0 V
stroke

 /TransparentPatterns true def
9439 1595 152 0 40 30 0 PatternFill
9515 1595 M
stroke
9439 1595 N
152 0 V
-152 0 V
Z stroke
9439 1595 M
152 0 V
-152 0 R
152 0 V
stroke

 /TransparentPatterns true def
10198 1576 152 0 40 30 0 PatternFill
10274 1576 M
stroke
10198 1576 N
152 0 V
-152 0 V
Z stroke
10198 1576 M
152 0 V
-152 0 R
152 0 V
stroke

 /TransparentPatterns true def
10957 1576 152 0 40 30 0 PatternFill
11033 1576 M
stroke
10957 1576 N
152 0 V
-152 0 V
Z stroke
10957 1576 M
152 0 V
-152 0 R
152 0 V
stroke

 /TransparentPatterns true def
11715 1564 152 0 40 30 0 PatternFill
11791 1564 M
stroke
11715 1564 N
152 0 V
-152 0 V
Z stroke
11715 1564 M
152 0 V
-152 0 R
152 0 V
stroke

 /TransparentPatterns true def
12474 1570 152 0 40 30 0 PatternFill
12550 1570 M
stroke
12474 1570 N
152 0 V
-152 0 V
Z stroke
12474 1570 M
152 0 V
-152 0 R
152 0 V
% End plot #2
% Begin plot #3
2.000 UP
stroke
LTa
0.60 0.60 0.00 C LCb setrgbcolor
4714 153 M
[ [(Arial) 180.0 0.0 true true 0 (app. received bytes :         )]
] -60.0 MRshow
2.000 UP
1.000 UL
LTa
0.60 0.60 0.00 C 4822 153 M
333 0 V
980 4750 M
190 0 V
758 0 V
759 0 V
759 0 V
758 0 V
759 0 V
759 0 V
758 0 V
759 0 V
759 0 V
759 0 V
758 0 V
759 0 V
759 0 V
758 0 V
759 0 V
1170 4750 Box
1928 4750 Box
2687 4750 Box
3446 4750 Box
4204 4750 Box
4963 4750 Box
5722 4750 Box
6480 4750 Box
7239 4750 Box
7998 4750 Box
8757 4750 Box
9515 4750 Box
10274 4750 Box
11033 4750 Box
11791 4750 Box
12550 4750 Box
4988 153 Box
% End plot #3
% Begin plot #4
1.000 UL
LTb
0.00 0.00 0.63 C LCb setrgbcolor
8287 333 M
[ [(Arial) 180.0 0.0 true true 0 (per-packet)]
] -60.0 MRshow
1.000 UL
LTb
0.00 0.00 0.63 C 8395 288 333 90 80 45 0 PatternFill
8395 288 N
333 0 V
0 90 V
-333 0 V
0 -90 V
Z stroke
1.000 UL
LTb
0.00 0.00 0.63 C 1283 1296 152 741 80 45 0 PatternFill
1359 1222 M
0 74 V
0 741 R
0 1255 V
stroke
1283 1296 N
152 0 V
0 741 V
-152 0 V
0 -741 V
Z stroke
1283 3292 M
152 0 V
1283 1222 M
152 0 V
stroke
2042 1307 152 688 80 45 0 PatternFill
2118 1227 M
0 80 V
0 688 R
0 1061 V
stroke
2042 1307 N
152 0 V
0 688 V
-152 0 V
0 -688 V
Z stroke
2042 3056 M
152 0 V
2042 1227 M
152 0 V
stroke
2801 1313 152 696 80 45 0 PatternFill
2877 1223 M
0 90 V
0 696 R
0 1119 V
stroke
2801 1313 N
152 0 V
0 696 V
-152 0 V
0 -696 V
Z stroke
2801 3128 M
152 0 V
2801 1223 M
152 0 V
stroke
3560 1304 152 709 80 45 0 PatternFill
3636 1227 M
0 77 V
0 709 R
0 1208 V
stroke
3560 1304 N
152 0 V
0 709 V
-152 0 V
0 -709 V
Z stroke
3560 3221 M
152 0 V
3560 1227 M
152 0 V
stroke
4318 1292 152 577 80 45 0 PatternFill
4394 1220 M
0 72 V
0 577 R
0 1143 V
stroke
4318 1292 N
152 0 V
0 577 V
-152 0 V
0 -577 V
Z stroke
4318 3012 M
152 0 V
4318 1220 M
152 0 V
stroke
5077 1296 152 723 80 45 0 PatternFill
5153 1222 M
0 74 V
0 723 R
0 1268 V
stroke
5077 1296 N
152 0 V
0 723 V
-152 0 V
0 -723 V
Z stroke
5077 3287 M
152 0 V
5077 1222 M
152 0 V
stroke
5836 1296 152 639 80 45 0 PatternFill
5912 1219 M
0 77 V
0 639 R
0 1123 V
stroke
5836 1296 N
152 0 V
0 639 V
-152 0 V
0 -639 V
Z stroke
5836 3058 M
152 0 V
5836 1219 M
152 0 V
stroke
6594 1293 152 561 80 45 0 PatternFill
6670 1220 M
0 73 V
0 561 R
0 1278 V
stroke
6594 1293 N
152 0 V
0 561 V
-152 0 V
0 -561 V
Z stroke
6594 3132 M
152 0 V
6594 1220 M
152 0 V
stroke
7353 1302 152 651 80 45 0 PatternFill
7429 1231 M
0 71 V
0 651 R
0 1295 V
stroke
7353 1302 N
152 0 V
0 651 V
-152 0 V
0 -651 V
Z stroke
7353 3248 M
152 0 V
7353 1231 M
152 0 V
stroke
8112 1297 152 609 80 45 0 PatternFill
8188 1225 M
0 72 V
0 609 R
0 1186 V
stroke
8112 1297 N
152 0 V
0 609 V
-152 0 V
0 -609 V
Z stroke
8112 3092 M
152 0 V
8112 1225 M
152 0 V
stroke
8870 1287 152 583 80 45 0 PatternFill
8946 1216 M
0 71 V
0 583 R
0 1169 V
stroke
8870 1287 N
152 0 V
0 583 V
-152 0 V
0 -583 V
Z stroke
8870 3039 M
152 0 V
8870 1216 M
152 0 V
stroke
9629 1285 152 527 80 45 0 PatternFill
9705 1217 M
0 68 V
0 527 R
0 1192 V
stroke
9629 1285 N
152 0 V
0 527 V
-152 0 V
0 -527 V
Z stroke
9629 3004 M
152 0 V
9629 1217 M
152 0 V
stroke
10388 1294 152 543 80 45 0 PatternFill
10464 1224 M
0 70 V
0 543 R
0 1161 V
stroke
10388 1294 N
152 0 V
0 543 V
-152 0 V
0 -543 V
Z stroke
10388 2998 M
152 0 V
10388 1224 M
152 0 V
stroke
11146 1297 152 532 80 45 0 PatternFill
11222 1223 M
0 74 V
0 532 R
0 1082 V
stroke
11146 1297 N
152 0 V
0 532 V
-152 0 V
0 -532 V
Z stroke
11146 2911 M
152 0 V
11146 1223 M
152 0 V
stroke
11905 1297 152 549 80 45 0 PatternFill
11981 1224 M
0 73 V
0 549 R
0 1003 V
stroke
11905 1297 N
152 0 V
0 549 V
-152 0 V
0 -549 V
Z stroke
11905 2849 M
152 0 V
11905 1224 M
152 0 V
stroke
12664 1294 152 470 80 45 0 PatternFill
12740 1226 M
0 68 V
0 470 R
0 1016 V
stroke
12664 1294 N
152 0 V
0 470 V
-152 0 V
0 -470 V
Z stroke
12664 2780 M
152 0 V
12664 1226 M
152 0 V
% End plot #4
% Begin plot #5
stroke
LTb
LCb setrgbcolor

 /TransparentPatterns true def
1283 1739 152 0 80 -45 0 PatternFill
1359 1739 M
stroke
1283 1739 N
152 0 V
-152 0 V
Z stroke
1283 1739 M
152 0 V
-152 0 R
152 0 V
stroke

 /TransparentPatterns true def
2042 1704 152 0 80 -45 0 PatternFill
2118 1704 M
stroke
2042 1704 N
152 0 V
-152 0 V
Z stroke
2042 1704 M
152 0 V
-152 0 R
152 0 V
stroke

 /TransparentPatterns true def
2801 1718 152 0 80 -45 0 PatternFill
2877 1718 M
stroke
2801 1718 N
152 0 V
-152 0 V
Z stroke
2801 1718 M
152 0 V
-152 0 R
152 0 V
stroke

 /TransparentPatterns true def
3560 1728 152 0 80 -45 0 PatternFill
3636 1728 M
stroke
3560 1728 N
152 0 V
-152 0 V
Z stroke
3560 1728 M
152 0 V
-152 0 R
152 0 V
stroke

 /TransparentPatterns true def
4318 1655 152 0 80 -45 0 PatternFill
4394 1655 M
stroke
4318 1655 N
152 0 V
-152 0 V
Z stroke
4318 1655 M
152 0 V
-152 0 R
152 0 V
stroke

 /TransparentPatterns true def
5077 1717 152 0 80 -45 0 PatternFill
5153 1717 M
stroke
5077 1717 N
152 0 V
-152 0 V
Z stroke
5077 1717 M
152 0 V
-152 0 R
152 0 V
stroke

 /TransparentPatterns true def
5836 1685 152 0 80 -45 0 PatternFill
5912 1685 M
stroke
5836 1685 N
152 0 V
-152 0 V
Z stroke
5836 1685 M
152 0 V
-152 0 R
152 0 V
stroke

 /TransparentPatterns true def
6594 1668 152 0 80 -45 0 PatternFill
6670 1668 M
stroke
6594 1668 N
152 0 V
-152 0 V
Z stroke
6594 1668 M
152 0 V
-152 0 R
152 0 V
stroke

 /TransparentPatterns true def
7353 1720 152 0 80 -45 0 PatternFill
7429 1720 M
stroke
7353 1720 N
152 0 V
-152 0 V
Z stroke
7353 1720 M
152 0 V
-152 0 R
152 0 V
stroke

 /TransparentPatterns true def
8112 1688 152 0 80 -45 0 PatternFill
8188 1688 M
stroke
8112 1688 N
152 0 V
-152 0 V
Z stroke
8112 1688 M
152 0 V
-152 0 R
152 0 V
stroke

 /TransparentPatterns true def
8870 1659 152 0 80 -45 0 PatternFill
8946 1659 M
stroke
8870 1659 N
152 0 V
-152 0 V
Z stroke
8870 1659 M
152 0 V
-152 0 R
152 0 V
stroke

 /TransparentPatterns true def
9629 1630 152 0 80 -45 0 PatternFill
9705 1630 M
stroke
9629 1630 N
152 0 V
-152 0 V
Z stroke
9629 1630 M
152 0 V
-152 0 R
152 0 V
stroke

 /TransparentPatterns true def
10388 1639 152 0 80 -45 0 PatternFill
10464 1639 M
stroke
10388 1639 N
152 0 V
-152 0 V
Z stroke
10388 1639 M
152 0 V
-152 0 R
152 0 V
stroke

 /TransparentPatterns true def
11146 1644 152 0 80 -45 0 PatternFill
11222 1644 M
stroke
11146 1644 N
152 0 V
-152 0 V
Z stroke
11146 1644 M
152 0 V
-152 0 R
152 0 V
stroke

 /TransparentPatterns true def
11905 1633 152 0 80 -45 0 PatternFill
11981 1633 M
stroke
11905 1633 N
152 0 V
-152 0 V
Z stroke
11905 1633 M
152 0 V
-152 0 R
152 0 V
stroke

 /TransparentPatterns true def
12664 1606 152 0 80 -45 0 PatternFill
12740 1606 M
stroke
12664 1606 N
152 0 V
-152 0 V
Z stroke
12664 1606 M
152 0 V
-152 0 R
152 0 V
% End plot #5
% Begin plot #6
2.000 UP
stroke
LTa
0.00 0.00 0.63 C LCb setrgbcolor
8287 153 M
[ [(Arial) 180.0 0.0 true true 0 ( )]
] -60.0 MRshow
2.000 UP
1.000 UL
LTa
0.00 0.00 0.63 C 8395 153 M
333 0 V
980 4750 M
379 0 V
759 0 V
759 0 V
758 0 V
759 0 V
759 0 V
758 0 V
759 0 V
759 0 V
759 0 V
758 0 V
759 0 V
759 0 V
758 0 V
759 0 V
759 0 V
1359 4750 Circle
2118 4750 Circle
2877 4750 Circle
3635 4750 Circle
4394 4750 Circle
5153 4750 Circle
5911 4750 Circle
6670 4750 Circle
7429 4750 Circle
8188 4750 Circle
8946 4750 Circle
9705 4750 Circle
10464 4750 Circle
11222 4750 Circle
11981 4750 Circle
12740 4750 Circle
8561 153 Circle
% End plot #6
% Begin plot #7
1.000 UL
LTb
0.00 0.38 0.82 C LCb setrgbcolor
11860 333 M
[ [(Arial) 180.0 0.0 true true 0 (per-flow)]
] -60.0 MRshow
1.000 UL
LTb
0.00 0.38 0.82 C 11968 288 333 90 40 30 0 PatternFill
11968 288 N
333 0 V
0 90 V
-333 0 V
0 -90 V
Z stroke
1.000 UL
LTb
0.00 0.38 0.82 C 1473 1333 152 1217 40 30 0 PatternFill
1549 1238 M
0 95 V
0 1217 R
0 2239 V
stroke
1473 1333 N
152 0 V
0 1217 V
-152 0 V
0 -1217 V
Z stroke
1473 4789 M
152 0 V
1473 1238 M
152 0 V
stroke
2232 1322 152 1194 40 30 0 PatternFill
2308 1233 M
0 89 V
0 1194 R
0 1844 V
stroke
2232 1322 N
152 0 V
0 1194 V
-152 0 V
0 -1194 V
Z stroke
2232 4360 M
152 0 V
2232 1233 M
152 0 V
stroke
2991 1314 152 1055 40 30 0 PatternFill
3067 1233 M
0 81 V
0 1055 R
0 2125 V
stroke
2991 1314 N
152 0 V
0 1055 V
-152 0 V
0 -1055 V
Z stroke
2991 4494 M
152 0 V
2991 1233 M
152 0 V
stroke
3749 1332 152 1132 40 30 0 PatternFill
3825 1240 M
0 92 V
0 1132 R
0 1893 V
stroke
3749 1332 N
152 0 V
0 1132 V
-152 0 V
0 -1132 V
Z stroke
3749 4357 M
152 0 V
3749 1240 M
152 0 V
stroke
4508 1314 152 1121 40 30 0 PatternFill
4584 1235 M
0 79 V
0 1121 R
0 1919 V
stroke
4508 1314 N
152 0 V
0 1121 V
-152 0 V
0 -1121 V
Z stroke
4508 4354 M
152 0 V
4508 1235 M
152 0 V
stroke
5267 1313 152 1039 40 30 0 PatternFill
5343 1229 M
0 84 V
0 1039 R
0 1987 V
stroke
5267 1313 N
152 0 V
0 1039 V
-152 0 V
0 -1039 V
Z stroke
5267 4339 M
152 0 V
5267 1229 M
152 0 V
stroke
6025 1359 152 1100 40 30 0 PatternFill
6101 1249 M
0 110 V
0 1100 R
0 2077 V
stroke
6025 1359 N
152 0 V
0 1100 V
-152 0 V
0 -1100 V
Z stroke
6025 4536 M
152 0 V
6025 1249 M
152 0 V
stroke
6784 1326 152 948 40 30 0 PatternFill
6860 1235 M
0 91 V
0 948 R
0 1962 V
stroke
6784 1326 N
152 0 V
0 948 V
-152 0 V
0 -948 V
Z stroke
6784 4236 M
152 0 V
6784 1235 M
152 0 V
stroke
7543 1337 152 1035 40 30 0 PatternFill
7619 1240 M
0 97 V
0 1035 R
0 1820 V
stroke
7543 1337 N
152 0 V
0 1035 V
-152 0 V
0 -1035 V
Z stroke
7543 4192 M
152 0 V
7543 1240 M
152 0 V
stroke
8301 1327 152 984 40 30 0 PatternFill
8377 1237 M
0 90 V
0 984 R
0 2050 V
stroke
8301 1327 N
152 0 V
0 984 V
-152 0 V
0 -984 V
Z stroke
8301 4361 M
152 0 V
8301 1237 M
152 0 V
stroke
9060 1358 152 1255 40 30 0 PatternFill
9136 1254 M
0 104 V
0 1255 R
0 2091 V
stroke
9060 1358 N
152 0 V
0 1255 V
-152 0 V
0 -1255 V
Z stroke
9060 4704 M
152 0 V
9060 1254 M
152 0 V
stroke
9819 1358 152 823 40 30 0 PatternFill
9895 1247 M
0 111 V
0 823 R
0 1496 V
stroke
9819 1358 N
152 0 V
0 823 V
-152 0 V
0 -823 V
Z stroke
9819 3677 M
152 0 V
9819 1247 M
152 0 V
stroke
10577 1317 152 1020 40 30 0 PatternFill
10653 1236 M
0 81 V
0 1020 R
0 1688 V
stroke
10577 1317 N
152 0 V
0 1020 V
-152 0 V
0 -1020 V
Z stroke
10577 4025 M
152 0 V
10577 1236 M
152 0 V
stroke
11336 1303 152 773 40 30 0 PatternFill
11412 1224 M
0 79 V
0 773 R
0 1575 V
stroke
11336 1303 N
152 0 V
0 773 V
-152 0 V
0 -773 V
Z stroke
11336 3651 M
152 0 V
11336 1224 M
152 0 V
stroke
12095 1314 152 738 40 30 0 PatternFill
12171 1229 M
0 85 V
0 738 R
0 1739 V
stroke
12095 1314 N
152 0 V
0 738 V
-152 0 V
0 -738 V
Z stroke
12095 3791 M
152 0 V
12095 1229 M
152 0 V
stroke
12853 1349 152 873 40 30 0 PatternFill
12929 1247 M
0 102 V
0 873 R
0 1376 V
stroke
12853 1349 N
152 0 V
0 873 V
-152 0 V
0 -873 V
Z stroke
12853 3598 M
152 0 V
12853 1247 M
152 0 V
% End plot #7
% Begin plot #8
stroke
LTb
LCb setrgbcolor

 /TransparentPatterns true def
1473 2061 152 0 40 -30 0 PatternFill
1549 2061 M
stroke
1473 2061 N
152 0 V
-152 0 V
Z stroke
1473 2061 M
152 0 V
-152 0 R
152 0 V
stroke

 /TransparentPatterns true def
2232 2004 152 0 40 -30 0 PatternFill
2308 2004 M
stroke
2232 2004 N
152 0 V
-152 0 V
Z stroke
2232 2004 M
152 0 V
-152 0 R
152 0 V
stroke

 /TransparentPatterns true def
2991 1989 152 0 40 -30 0 PatternFill
3067 1989 M
stroke
2991 1989 N
152 0 V
-152 0 V
Z stroke
2991 1989 M
152 0 V
-152 0 R
152 0 V
stroke

 /TransparentPatterns true def
3749 1997 152 0 40 -30 0 PatternFill
3825 1997 M
stroke
3749 1997 N
152 0 V
-152 0 V
Z stroke
3749 1997 M
152 0 V
-152 0 R
152 0 V
stroke

 /TransparentPatterns true def
4508 1974 152 0 40 -30 0 PatternFill
4584 1974 M
stroke
4508 1974 N
152 0 V
-152 0 V
Z stroke
4508 1974 M
152 0 V
-152 0 R
152 0 V
stroke

 /TransparentPatterns true def
5267 1972 152 0 40 -30 0 PatternFill
5343 1972 M
stroke
5267 1972 N
152 0 V
-152 0 V
Z stroke
5267 1972 M
152 0 V
-152 0 R
152 0 V
stroke

 /TransparentPatterns true def
6025 2052 152 0 40 -30 0 PatternFill
6101 2052 M
stroke
6025 2052 N
152 0 V
-152 0 V
Z stroke
6025 2052 M
152 0 V
-152 0 R
152 0 V
stroke

 /TransparentPatterns true def
6784 1944 152 0 40 -30 0 PatternFill
6860 1944 M
stroke
6784 1944 N
152 0 V
-152 0 V
Z stroke
6784 1944 M
152 0 V
-152 0 R
152 0 V
stroke

 /TransparentPatterns true def
7543 1952 152 0 40 -30 0 PatternFill
7619 1952 M
stroke
7543 1952 N
152 0 V
-152 0 V
Z stroke
7543 1952 M
152 0 V
-152 0 R
152 0 V
stroke

 /TransparentPatterns true def
8301 1967 152 0 40 -30 0 PatternFill
8377 1967 M
stroke
8301 1967 N
152 0 V
-152 0 V
Z stroke
8301 1967 M
152 0 V
-152 0 R
152 0 V
stroke

 /TransparentPatterns true def
9060 2098 152 0 40 -30 0 PatternFill
9136 2098 M
stroke
9060 2098 N
152 0 V
-152 0 V
Z stroke
9060 2098 M
152 0 V
-152 0 R
152 0 V
stroke

 /TransparentPatterns true def
9819 1860 152 0 40 -30 0 PatternFill
9895 1860 M
stroke
9819 1860 N
152 0 V
-152 0 V
Z stroke
9819 1860 M
152 0 V
-152 0 R
152 0 V
stroke

 /TransparentPatterns true def
10577 1920 152 0 40 -30 0 PatternFill
10653 1920 M
stroke
10577 1920 N
152 0 V
-152 0 V
Z stroke
10577 1920 M
152 0 V
-152 0 R
152 0 V
stroke

 /TransparentPatterns true def
11336 1785 152 0 40 -30 0 PatternFill
11412 1785 M
stroke
11336 1785 N
152 0 V
-152 0 V
Z stroke
11336 1785 M
152 0 V
-152 0 R
152 0 V
stroke

 /TransparentPatterns true def
12095 1807 152 0 40 -30 0 PatternFill
12171 1807 M
stroke
12095 1807 N
152 0 V
-152 0 V
Z stroke
12095 1807 M
152 0 V
-152 0 R
152 0 V
stroke

 /TransparentPatterns true def
12853 1870 152 0 40 -30 0 PatternFill
12929 1870 M
stroke
12853 1870 N
152 0 V
-152 0 V
Z stroke
12853 1870 M
152 0 V
-152 0 R
152 0 V
% End plot #8
% Begin plot #9
2.000 UP
stroke
LTa
0.00 0.38 0.82 C LCb setrgbcolor
11860 153 M
[ [(Arial) 180.0 0.0 true true 0 ( )]
] -60.0 MRshow
2.000 UP
1.000 UL
LTa
0.00 0.38 0.82 C 11968 153 M
333 0 V
980 4750 M
569 0 V
759 0 V
758 0 V
759 0 V
759 0 V
758 0 V
759 0 V
759 0 V
759 0 V
758 0 V
759 0 V
759 0 V
758 0 V
759 0 V
759 0 V
758 0 V
1549 4750 TriU
2308 4750 TriU
3066 4750 TriU
3825 4750 TriU
4584 4750 TriU
5342 4750 TriU
6101 4750 TriU
6860 4750 TriU
7619 4750 TriU
8377 4750 TriU
9136 4750 TriU
9895 4750 TriU
10653 4750 TriU
11412 4750 TriU
12171 4750 TriU
12929 4750 TriU
12134 153 TriU
% End plot #9
2.000 UL
LTb
LCb setrgbcolor
1.000 UP
1.000 UL
LTb
0.00 0.00 0.00 C stroke
grestore
end
showpage
%%Trailer
%%DocumentFonts: Arial
