%!PS-Adobe-2.0 EPSF-2.0
%%Title: TcpWestwood-download-finishtime-75UE-panoramic.eps
%%Creator: gnuplot 5.0 patchlevel 3
%%CreationDate: Tue Jun  7 16:10:54 2016
%%DocumentFonts: (atend)
%%BoundingBox: 50 50 770 302
%%EndComments
%%BeginProlog
/gnudict 256 dict def
gnudict begin
%
% The following true/false flags may be edited by hand if desired.
% The unit line width and grayscale image gamma correction may also be changed.
%
/Color true def
/Blacktext false def
/Solid false def
/Dashlength 3 def
/Landscape false def
/Level1 false def
/Level3 false def
/Rounded false def
/ClipToBoundingBox false def
/SuppressPDFMark false def
/TransparentPatterns false def
/gnulinewidth 15.000 def
/userlinewidth gnulinewidth def
/Gamma 1.0 def
/BackgroundColor {-1.000 -1.000 -1.000} def
%
/vshift -66 def
/dl1 {
  10.0 Dashlength userlinewidth gnulinewidth div mul mul mul
  Rounded { currentlinewidth 0.75 mul sub dup 0 le { pop 0.01 } if } if
} def
/dl2 {
  10.0 Dashlength userlinewidth gnulinewidth div mul mul mul
  Rounded { currentlinewidth 0.75 mul add } if
} def
/hpt_ 31.5 def
/vpt_ 31.5 def
/hpt hpt_ def
/vpt vpt_ def
/doclip {
  ClipToBoundingBox {
    newpath 50 50 moveto 770 50 lineto 770 302 lineto 50 302 lineto closepath
    clip
  } if
} def
%
% Gnuplot Prolog Version 5.1 (Oct 2015)
%
%/SuppressPDFMark true def
%
/M {moveto} bind def
/L {lineto} bind def
/R {rmoveto} bind def
/V {rlineto} bind def
/N {newpath moveto} bind def
/Z {closepath} bind def
/C {setrgbcolor} bind def
/f {rlineto fill} bind def
/g {setgray} bind def
/Gshow {show} def   % May be redefined later in the file to support UTF-8
/vpt2 vpt 2 mul def
/hpt2 hpt 2 mul def
/Lshow {currentpoint stroke M 0 vshift R 
	Blacktext {gsave 0 setgray textshow grestore} {textshow} ifelse} def
/Rshow {currentpoint stroke M dup stringwidth pop neg vshift R
	Blacktext {gsave 0 setgray textshow grestore} {textshow} ifelse} def
/Cshow {currentpoint stroke M dup stringwidth pop -2 div vshift R 
	Blacktext {gsave 0 setgray textshow grestore} {textshow} ifelse} def
/UP {dup vpt_ mul /vpt exch def hpt_ mul /hpt exch def
  /hpt2 hpt 2 mul def /vpt2 vpt 2 mul def} def
/DL {Color {setrgbcolor Solid {pop []} if 0 setdash}
 {pop pop pop 0 setgray Solid {pop []} if 0 setdash} ifelse} def
/BL {stroke userlinewidth 2 mul setlinewidth
	Rounded {1 setlinejoin 1 setlinecap} if} def
/AL {stroke userlinewidth 2 div setlinewidth
	Rounded {1 setlinejoin 1 setlinecap} if} def
/UL {dup gnulinewidth mul /userlinewidth exch def
	dup 1 lt {pop 1} if 10 mul /udl exch def} def
/PL {stroke userlinewidth setlinewidth
	Rounded {1 setlinejoin 1 setlinecap} if} def
3.8 setmiterlimit
% Classic Line colors (version 5.0)
/LCw {1 1 1} def
/LCb {0 0 0} def
/LCa {0 0 0} def
/LC0 {1 0 0} def
/LC1 {0 1 0} def
/LC2 {0 0 1} def
/LC3 {1 0 1} def
/LC4 {0 1 1} def
/LC5 {1 1 0} def
/LC6 {0 0 0} def
/LC7 {1 0.3 0} def
/LC8 {0.5 0.5 0.5} def
% Default dash patterns (version 5.0)
/LTB {BL [] LCb DL} def
/LTw {PL [] 1 setgray} def
/LTb {PL [] LCb DL} def
/LTa {AL [1 udl mul 2 udl mul] 0 setdash LCa setrgbcolor} def
/LT0 {PL [] LC0 DL} def
/LT1 {PL [2 dl1 3 dl2] LC1 DL} def
/LT2 {PL [1 dl1 1.5 dl2] LC2 DL} def
/LT3 {PL [6 dl1 2 dl2 1 dl1 2 dl2] LC3 DL} def
/LT4 {PL [1 dl1 2 dl2 6 dl1 2 dl2 1 dl1 2 dl2] LC4 DL} def
/LT5 {PL [4 dl1 2 dl2] LC5 DL} def
/LT6 {PL [1.5 dl1 1.5 dl2 1.5 dl1 1.5 dl2 1.5 dl1 6 dl2] LC6 DL} def
/LT7 {PL [3 dl1 3 dl2 1 dl1 3 dl2] LC7 DL} def
/LT8 {PL [2 dl1 2 dl2 2 dl1 6 dl2] LC8 DL} def
/SL {[] 0 setdash} def
/Pnt {stroke [] 0 setdash gsave 1 setlinecap M 0 0 V stroke grestore} def
/Dia {stroke [] 0 setdash 2 copy vpt add M
  hpt neg vpt neg V hpt vpt neg V
  hpt vpt V hpt neg vpt V closepath stroke
  Pnt} def
/Pls {stroke [] 0 setdash vpt sub M 0 vpt2 V
  currentpoint stroke M
  hpt neg vpt neg R hpt2 0 V stroke
 } def
/Box {stroke [] 0 setdash 2 copy exch hpt sub exch vpt add M
  0 vpt2 neg V hpt2 0 V 0 vpt2 V
  hpt2 neg 0 V closepath stroke
  Pnt} def
/Crs {stroke [] 0 setdash exch hpt sub exch vpt add M
  hpt2 vpt2 neg V currentpoint stroke M
  hpt2 neg 0 R hpt2 vpt2 V stroke} def
/TriU {stroke [] 0 setdash 2 copy vpt 1.12 mul add M
  hpt neg vpt -1.62 mul V
  hpt 2 mul 0 V
  hpt neg vpt 1.62 mul V closepath stroke
  Pnt} def
/Star {2 copy Pls Crs} def
/BoxF {stroke [] 0 setdash exch hpt sub exch vpt add M
  0 vpt2 neg V hpt2 0 V 0 vpt2 V
  hpt2 neg 0 V closepath fill} def
/TriUF {stroke [] 0 setdash vpt 1.12 mul add M
  hpt neg vpt -1.62 mul V
  hpt 2 mul 0 V
  hpt neg vpt 1.62 mul V closepath fill} def
/TriD {stroke [] 0 setdash 2 copy vpt 1.12 mul sub M
  hpt neg vpt 1.62 mul V
  hpt 2 mul 0 V
  hpt neg vpt -1.62 mul V closepath stroke
  Pnt} def
/TriDF {stroke [] 0 setdash vpt 1.12 mul sub M
  hpt neg vpt 1.62 mul V
  hpt 2 mul 0 V
  hpt neg vpt -1.62 mul V closepath fill} def
/DiaF {stroke [] 0 setdash vpt add M
  hpt neg vpt neg V hpt vpt neg V
  hpt vpt V hpt neg vpt V closepath fill} def
/Pent {stroke [] 0 setdash 2 copy gsave
  translate 0 hpt M 4 {72 rotate 0 hpt L} repeat
  closepath stroke grestore Pnt} def
/PentF {stroke [] 0 setdash gsave
  translate 0 hpt M 4 {72 rotate 0 hpt L} repeat
  closepath fill grestore} def
/Circle {stroke [] 0 setdash 2 copy
  hpt 0 360 arc stroke Pnt} def
/CircleF {stroke [] 0 setdash hpt 0 360 arc fill} def
/C0 {BL [] 0 setdash 2 copy moveto vpt 90 450 arc} bind def
/C1 {BL [] 0 setdash 2 copy moveto
	2 copy vpt 0 90 arc closepath fill
	vpt 0 360 arc closepath} bind def
/C2 {BL [] 0 setdash 2 copy moveto
	2 copy vpt 90 180 arc closepath fill
	vpt 0 360 arc closepath} bind def
/C3 {BL [] 0 setdash 2 copy moveto
	2 copy vpt 0 180 arc closepath fill
	vpt 0 360 arc closepath} bind def
/C4 {BL [] 0 setdash 2 copy moveto
	2 copy vpt 180 270 arc closepath fill
	vpt 0 360 arc closepath} bind def
/C5 {BL [] 0 setdash 2 copy moveto
	2 copy vpt 0 90 arc
	2 copy moveto
	2 copy vpt 180 270 arc closepath fill
	vpt 0 360 arc} bind def
/C6 {BL [] 0 setdash 2 copy moveto
	2 copy vpt 90 270 arc closepath fill
	vpt 0 360 arc closepath} bind def
/C7 {BL [] 0 setdash 2 copy moveto
	2 copy vpt 0 270 arc closepath fill
	vpt 0 360 arc closepath} bind def
/C8 {BL [] 0 setdash 2 copy moveto
	2 copy vpt 270 360 arc closepath fill
	vpt 0 360 arc closepath} bind def
/C9 {BL [] 0 setdash 2 copy moveto
	2 copy vpt 270 450 arc closepath fill
	vpt 0 360 arc closepath} bind def
/C10 {BL [] 0 setdash 2 copy 2 copy moveto vpt 270 360 arc closepath fill
	2 copy moveto
	2 copy vpt 90 180 arc closepath fill
	vpt 0 360 arc closepath} bind def
/C11 {BL [] 0 setdash 2 copy moveto
	2 copy vpt 0 180 arc closepath fill
	2 copy moveto
	2 copy vpt 270 360 arc closepath fill
	vpt 0 360 arc closepath} bind def
/C12 {BL [] 0 setdash 2 copy moveto
	2 copy vpt 180 360 arc closepath fill
	vpt 0 360 arc closepath} bind def
/C13 {BL [] 0 setdash 2 copy moveto
	2 copy vpt 0 90 arc closepath fill
	2 copy moveto
	2 copy vpt 180 360 arc closepath fill
	vpt 0 360 arc closepath} bind def
/C14 {BL [] 0 setdash 2 copy moveto
	2 copy vpt 90 360 arc closepath fill
	vpt 0 360 arc} bind def
/C15 {BL [] 0 setdash 2 copy vpt 0 360 arc closepath fill
	vpt 0 360 arc closepath} bind def
/Rec {newpath 4 2 roll moveto 1 index 0 rlineto 0 exch rlineto
	neg 0 rlineto closepath} bind def
/Square {dup Rec} bind def
/Bsquare {vpt sub exch vpt sub exch vpt2 Square} bind def
/S0 {BL [] 0 setdash 2 copy moveto 0 vpt rlineto BL Bsquare} bind def
/S1 {BL [] 0 setdash 2 copy vpt Square fill Bsquare} bind def
/S2 {BL [] 0 setdash 2 copy exch vpt sub exch vpt Square fill Bsquare} bind def
/S3 {BL [] 0 setdash 2 copy exch vpt sub exch vpt2 vpt Rec fill Bsquare} bind def
/S4 {BL [] 0 setdash 2 copy exch vpt sub exch vpt sub vpt Square fill Bsquare} bind def
/S5 {BL [] 0 setdash 2 copy 2 copy vpt Square fill
	exch vpt sub exch vpt sub vpt Square fill Bsquare} bind def
/S6 {BL [] 0 setdash 2 copy exch vpt sub exch vpt sub vpt vpt2 Rec fill Bsquare} bind def
/S7 {BL [] 0 setdash 2 copy exch vpt sub exch vpt sub vpt vpt2 Rec fill
	2 copy vpt Square fill Bsquare} bind def
/S8 {BL [] 0 setdash 2 copy vpt sub vpt Square fill Bsquare} bind def
/S9 {BL [] 0 setdash 2 copy vpt sub vpt vpt2 Rec fill Bsquare} bind def
/S10 {BL [] 0 setdash 2 copy vpt sub vpt Square fill 2 copy exch vpt sub exch vpt Square fill
	Bsquare} bind def
/S11 {BL [] 0 setdash 2 copy vpt sub vpt Square fill 2 copy exch vpt sub exch vpt2 vpt Rec fill
	Bsquare} bind def
/S12 {BL [] 0 setdash 2 copy exch vpt sub exch vpt sub vpt2 vpt Rec fill Bsquare} bind def
/S13 {BL [] 0 setdash 2 copy exch vpt sub exch vpt sub vpt2 vpt Rec fill
	2 copy vpt Square fill Bsquare} bind def
/S14 {BL [] 0 setdash 2 copy exch vpt sub exch vpt sub vpt2 vpt Rec fill
	2 copy exch vpt sub exch vpt Square fill Bsquare} bind def
/S15 {BL [] 0 setdash 2 copy Bsquare fill Bsquare} bind def
/D0 {gsave translate 45 rotate 0 0 S0 stroke grestore} bind def
/D1 {gsave translate 45 rotate 0 0 S1 stroke grestore} bind def
/D2 {gsave translate 45 rotate 0 0 S2 stroke grestore} bind def
/D3 {gsave translate 45 rotate 0 0 S3 stroke grestore} bind def
/D4 {gsave translate 45 rotate 0 0 S4 stroke grestore} bind def
/D5 {gsave translate 45 rotate 0 0 S5 stroke grestore} bind def
/D6 {gsave translate 45 rotate 0 0 S6 stroke grestore} bind def
/D7 {gsave translate 45 rotate 0 0 S7 stroke grestore} bind def
/D8 {gsave translate 45 rotate 0 0 S8 stroke grestore} bind def
/D9 {gsave translate 45 rotate 0 0 S9 stroke grestore} bind def
/D10 {gsave translate 45 rotate 0 0 S10 stroke grestore} bind def
/D11 {gsave translate 45 rotate 0 0 S11 stroke grestore} bind def
/D12 {gsave translate 45 rotate 0 0 S12 stroke grestore} bind def
/D13 {gsave translate 45 rotate 0 0 S13 stroke grestore} bind def
/D14 {gsave translate 45 rotate 0 0 S14 stroke grestore} bind def
/D15 {gsave translate 45 rotate 0 0 S15 stroke grestore} bind def
/DiaE {stroke [] 0 setdash vpt add M
  hpt neg vpt neg V hpt vpt neg V
  hpt vpt V hpt neg vpt V closepath stroke} def
/BoxE {stroke [] 0 setdash exch hpt sub exch vpt add M
  0 vpt2 neg V hpt2 0 V 0 vpt2 V
  hpt2 neg 0 V closepath stroke} def
/TriUE {stroke [] 0 setdash vpt 1.12 mul add M
  hpt neg vpt -1.62 mul V
  hpt 2 mul 0 V
  hpt neg vpt 1.62 mul V closepath stroke} def
/TriDE {stroke [] 0 setdash vpt 1.12 mul sub M
  hpt neg vpt 1.62 mul V
  hpt 2 mul 0 V
  hpt neg vpt -1.62 mul V closepath stroke} def
/PentE {stroke [] 0 setdash gsave
  translate 0 hpt M 4 {72 rotate 0 hpt L} repeat
  closepath stroke grestore} def
/CircE {stroke [] 0 setdash 
  hpt 0 360 arc stroke} def
/Opaque {gsave closepath 1 setgray fill grestore 0 setgray closepath} def
/DiaW {stroke [] 0 setdash vpt add M
  hpt neg vpt neg V hpt vpt neg V
  hpt vpt V hpt neg vpt V Opaque stroke} def
/BoxW {stroke [] 0 setdash exch hpt sub exch vpt add M
  0 vpt2 neg V hpt2 0 V 0 vpt2 V
  hpt2 neg 0 V Opaque stroke} def
/TriUW {stroke [] 0 setdash vpt 1.12 mul add M
  hpt neg vpt -1.62 mul V
  hpt 2 mul 0 V
  hpt neg vpt 1.62 mul V Opaque stroke} def
/TriDW {stroke [] 0 setdash vpt 1.12 mul sub M
  hpt neg vpt 1.62 mul V
  hpt 2 mul 0 V
  hpt neg vpt -1.62 mul V Opaque stroke} def
/PentW {stroke [] 0 setdash gsave
  translate 0 hpt M 4 {72 rotate 0 hpt L} repeat
  Opaque stroke grestore} def
/CircW {stroke [] 0 setdash 
  hpt 0 360 arc Opaque stroke} def
/BoxFill {gsave Rec 1 setgray fill grestore} def
/Density {
  /Fillden exch def
  currentrgbcolor
  /ColB exch def /ColG exch def /ColR exch def
  /ColR ColR Fillden mul Fillden sub 1 add def
  /ColG ColG Fillden mul Fillden sub 1 add def
  /ColB ColB Fillden mul Fillden sub 1 add def
  ColR ColG ColB setrgbcolor} def
/BoxColFill {gsave Rec PolyFill} def
/PolyFill {gsave Density fill grestore grestore} def
/h {rlineto rlineto rlineto gsave closepath fill grestore} bind def
%
% PostScript Level 1 Pattern Fill routine for rectangles
% Usage: x y w h s a XX PatternFill
%	x,y = lower left corner of box to be filled
%	w,h = width and height of box
%	  a = angle in degrees between lines and x-axis
%	 XX = 0/1 for no/yes cross-hatch
%
/PatternFill {gsave /PFa [ 9 2 roll ] def
  PFa 0 get PFa 2 get 2 div add PFa 1 get PFa 3 get 2 div add translate
  PFa 2 get -2 div PFa 3 get -2 div PFa 2 get PFa 3 get Rec
  TransparentPatterns {} {gsave 1 setgray fill grestore} ifelse
  clip
  currentlinewidth 0.5 mul setlinewidth
  /PFs PFa 2 get dup mul PFa 3 get dup mul add sqrt def
  0 0 M PFa 5 get rotate PFs -2 div dup translate
  0 1 PFs PFa 4 get div 1 add floor cvi
	{PFa 4 get mul 0 M 0 PFs V} for
  0 PFa 6 get ne {
	0 1 PFs PFa 4 get div 1 add floor cvi
	{PFa 4 get mul 0 2 1 roll M PFs 0 V} for
 } if
  stroke grestore} def
%
/languagelevel where
 {pop languagelevel} {1} ifelse
dup 2 lt
	{/InterpretLevel1 true def
	 /InterpretLevel3 false def}
	{/InterpretLevel1 Level1 def
	 2 gt
	    {/InterpretLevel3 Level3 def}
	    {/InterpretLevel3 false def}
	 ifelse }
 ifelse
%
% PostScript level 2 pattern fill definitions
%
/Level2PatternFill {
/Tile8x8 {/PaintType 2 /PatternType 1 /TilingType 1 /BBox [0 0 8 8] /XStep 8 /YStep 8}
	bind def
/KeepColor {currentrgbcolor [/Pattern /DeviceRGB] setcolorspace} bind def
<< Tile8x8
 /PaintProc {0.5 setlinewidth pop 0 0 M 8 8 L 0 8 M 8 0 L stroke} 
>> matrix makepattern
/Pat1 exch def
<< Tile8x8
 /PaintProc {0.5 setlinewidth pop 0 0 M 8 8 L 0 8 M 8 0 L stroke
	0 4 M 4 8 L 8 4 L 4 0 L 0 4 L stroke}
>> matrix makepattern
/Pat2 exch def
<< Tile8x8
 /PaintProc {0.5 setlinewidth pop 0 0 M 0 8 L
	8 8 L 8 0 L 0 0 L fill}
>> matrix makepattern
/Pat3 exch def
<< Tile8x8
 /PaintProc {0.5 setlinewidth pop -4 8 M 8 -4 L
	0 12 M 12 0 L stroke}
>> matrix makepattern
/Pat4 exch def
<< Tile8x8
 /PaintProc {0.5 setlinewidth pop -4 0 M 8 12 L
	0 -4 M 12 8 L stroke}
>> matrix makepattern
/Pat5 exch def
<< Tile8x8
 /PaintProc {0.5 setlinewidth pop -2 8 M 4 -4 L
	0 12 M 8 -4 L 4 12 M 10 0 L stroke}
>> matrix makepattern
/Pat6 exch def
<< Tile8x8
 /PaintProc {0.5 setlinewidth pop -2 0 M 4 12 L
	0 -4 M 8 12 L 4 -4 M 10 8 L stroke}
>> matrix makepattern
/Pat7 exch def
<< Tile8x8
 /PaintProc {0.5 setlinewidth pop 8 -2 M -4 4 L
	12 0 M -4 8 L 12 4 M 0 10 L stroke}
>> matrix makepattern
/Pat8 exch def
<< Tile8x8
 /PaintProc {0.5 setlinewidth pop 0 -2 M 12 4 L
	-4 0 M 12 8 L -4 4 M 8 10 L stroke}
>> matrix makepattern
/Pat9 exch def
/Pattern1 {PatternBgnd KeepColor Pat1 setpattern} bind def
/Pattern2 {PatternBgnd KeepColor Pat2 setpattern} bind def
/Pattern3 {PatternBgnd KeepColor Pat3 setpattern} bind def
/Pattern4 {PatternBgnd KeepColor Landscape {Pat5} {Pat4} ifelse setpattern} bind def
/Pattern5 {PatternBgnd KeepColor Landscape {Pat4} {Pat5} ifelse setpattern} bind def
/Pattern6 {PatternBgnd KeepColor Landscape {Pat9} {Pat6} ifelse setpattern} bind def
/Pattern7 {PatternBgnd KeepColor Landscape {Pat8} {Pat7} ifelse setpattern} bind def
} def
%
%
%End of PostScript Level 2 code
%
/PatternBgnd {
  TransparentPatterns {} {gsave 1 setgray fill grestore} ifelse
} def
%
% Substitute for Level 2 pattern fill codes with
% grayscale if Level 2 support is not selected.
%
/Level1PatternFill {
/Pattern1 {0.250 Density} bind def
/Pattern2 {0.500 Density} bind def
/Pattern3 {0.750 Density} bind def
/Pattern4 {0.125 Density} bind def
/Pattern5 {0.375 Density} bind def
/Pattern6 {0.625 Density} bind def
/Pattern7 {0.875 Density} bind def
} def
%
% Now test for support of Level 2 code
%
Level1 {Level1PatternFill} {Level2PatternFill} ifelse
%
/Symbol-Oblique /Symbol findfont [1 0 .167 1 0 0] makefont
dup length dict begin {1 index /FID eq {pop pop} {def} ifelse} forall
currentdict end definefont pop
%
/MFshow {
   { dup 5 get 3 ge
     { 5 get 3 eq {gsave} {grestore} ifelse }
     {dup dup 0 get findfont exch 1 get scalefont setfont
     [ currentpoint ] exch dup 2 get 0 exch R dup 5 get 2 ne {dup dup 6
     get exch 4 get {textshow} {stringwidth pop 0 R} ifelse }if dup 5 get 0 eq
     {dup 3 get {2 get neg 0 exch R pop} {pop aload pop M} ifelse} {dup 5
     get 1 eq {dup 2 get exch dup 3 get exch 6 get stringwidth pop -2 div
     dup 0 R} {dup 6 get stringwidth pop -2 div 0 R 6 get
     textshow 2 index {aload pop M neg 3 -1 roll neg R pop pop} {pop pop pop
     pop aload pop M} ifelse }ifelse }ifelse }
     ifelse }
   forall} def
/Gswidth {dup type /stringtype eq {stringwidth} {pop (n) stringwidth} ifelse} def
/MFwidth {0 exch { dup 5 get 3 ge { 5 get 3 eq { 0 } { pop } ifelse }
 {dup 3 get{dup dup 0 get findfont exch 1 get scalefont setfont
     6 get Gswidth pop add} {pop} ifelse} ifelse} forall} def
/MLshow { currentpoint stroke M
  0 exch R
  Blacktext {gsave 0 setgray MFshow grestore} {MFshow} ifelse } bind def
/MRshow { currentpoint stroke M
  exch dup MFwidth neg 3 -1 roll R
  Blacktext {gsave 0 setgray MFshow grestore} {MFshow} ifelse } bind def
/MCshow { currentpoint stroke M
  exch dup MFwidth -2 div 3 -1 roll R
  Blacktext {gsave 0 setgray MFshow grestore} {MFshow} ifelse } bind def
/XYsave    { [( ) 1 2 true false 3 ()] } bind def
/XYrestore { [( ) 1 2 true false 4 ()] } bind def
Level1 SuppressPDFMark or 
{} {
/SDict 10 dict def
systemdict /pdfmark known not {
  userdict /pdfmark systemdict /cleartomark get put
} if
SDict begin [
  /Title (TcpWestwood-download-finishtime-75UE-panoramic.eps)
  /Subject (gnuplot plot)
  /Creator (gnuplot 5.0 patchlevel 3)
  /Author (nat)
%  /Producer (gnuplot)
%  /Keywords ()
  /CreationDate (Tue Jun  7 16:10:54 2016)
  /DOCINFO pdfmark
end
} ifelse
%
% Support for boxed text - Ethan A Merritt May 2005
%
/InitTextBox { userdict /TBy2 3 -1 roll put userdict /TBx2 3 -1 roll put
           userdict /TBy1 3 -1 roll put userdict /TBx1 3 -1 roll put
	   /Boxing true def } def
/ExtendTextBox { Boxing
    { gsave dup false charpath pathbbox
      dup TBy2 gt {userdict /TBy2 3 -1 roll put} {pop} ifelse
      dup TBx2 gt {userdict /TBx2 3 -1 roll put} {pop} ifelse
      dup TBy1 lt {userdict /TBy1 3 -1 roll put} {pop} ifelse
      dup TBx1 lt {userdict /TBx1 3 -1 roll put} {pop} ifelse
      grestore } if } def
/PopTextBox { newpath TBx1 TBxmargin sub TBy1 TBymargin sub M
               TBx1 TBxmargin sub TBy2 TBymargin add L
	       TBx2 TBxmargin add TBy2 TBymargin add L
	       TBx2 TBxmargin add TBy1 TBymargin sub L closepath } def
/DrawTextBox { PopTextBox stroke /Boxing false def} def
/FillTextBox { gsave PopTextBox 1 1 1 setrgbcolor fill grestore /Boxing false def} def
0 0 0 0 InitTextBox
/TBxmargin 20 def
/TBymargin 20 def
/Boxing false def
/textshow { ExtendTextBox Gshow } def
%
% redundant definitions for compatibility with prologue.ps older than 5.0.2
/LTB {BL [] LCb DL} def
/LTb {PL [] LCb DL} def
end
%%EndProlog
%%Page: 1 1
gnudict begin
gsave
doclip
50 50 translate
0.050 0.050 scale
0 setgray
newpath
(Arial) findfont 200 scalefont setfont
BackgroundColor 0 lt 3 1 roll 0 lt exch 0 lt or or not {BackgroundColor C 1.000 0 0 14400.00 5040.00 BoxColFill} if
1.000 UL
LTb
0.00 0.00 0.00 C 0.500 UL
LTa
0.50 0.50 0.50 C 980 1000 M
12139 0 V
stroke
1.000 UL
LTb
0.00 0.00 0.00 C 980 1000 M
63 0 V
stroke
860 1000 M
[ [(Arial) 200.0 0.0 true true 0 ( 0)]
] -66.7 MRshow
1.000 UL
LTb
0.00 0.00 0.00 C 0.500 UL
LTa
0.50 0.50 0.50 C 980 1475 M
12139 0 V
stroke
1.000 UL
LTb
0.00 0.00 0.00 C 980 1475 M
63 0 V
stroke
860 1475 M
[ [(Arial) 200.0 0.0 true true 0 ( 20)]
] -66.7 MRshow
1.000 UL
LTb
0.00 0.00 0.00 C 0.500 UL
LTa
0.50 0.50 0.50 C 980 1950 M
12139 0 V
stroke
1.000 UL
LTb
0.00 0.00 0.00 C 980 1950 M
63 0 V
stroke
860 1950 M
[ [(Arial) 200.0 0.0 true true 0 ( 40)]
] -66.7 MRshow
1.000 UL
LTb
0.00 0.00 0.00 C 0.500 UL
LTa
0.50 0.50 0.50 C 980 2425 M
12139 0 V
stroke
1.000 UL
LTb
0.00 0.00 0.00 C 980 2425 M
63 0 V
stroke
860 2425 M
[ [(Arial) 200.0 0.0 true true 0 ( 60)]
] -66.7 MRshow
1.000 UL
LTb
0.00 0.00 0.00 C 0.500 UL
LTa
0.50 0.50 0.50 C 980 2900 M
12139 0 V
stroke
1.000 UL
LTb
0.00 0.00 0.00 C 980 2900 M
63 0 V
stroke
860 2900 M
[ [(Arial) 200.0 0.0 true true 0 ( 80)]
] -66.7 MRshow
1.000 UL
LTb
0.00 0.00 0.00 C 0.500 UL
LTa
0.50 0.50 0.50 C 980 3374 M
12139 0 V
stroke
1.000 UL
LTb
0.00 0.00 0.00 C 980 3374 M
63 0 V
stroke
860 3374 M
[ [(Arial) 200.0 0.0 true true 0 ( 100)]
] -66.7 MRshow
1.000 UL
LTb
0.00 0.00 0.00 C 0.500 UL
LTa
0.50 0.50 0.50 C 980 3849 M
12139 0 V
stroke
1.000 UL
LTb
0.00 0.00 0.00 C 980 3849 M
63 0 V
stroke
860 3849 M
[ [(Arial) 200.0 0.0 true true 0 ( 120)]
] -66.7 MRshow
1.000 UL
LTb
0.00 0.00 0.00 C 0.500 UL
LTa
0.50 0.50 0.50 C 980 4324 M
12139 0 V
stroke
1.000 UL
LTb
0.00 0.00 0.00 C 980 4324 M
63 0 V
stroke
860 4324 M
[ [(Arial) 200.0 0.0 true true 0 ( 140)]
] -66.7 MRshow
1.000 UL
LTb
0.00 0.00 0.00 C 0.500 UL
LTa
0.50 0.50 0.50 C 980 4799 M
12139 0 V
stroke
1.000 UL
LTb
0.00 0.00 0.00 C 980 4799 M
63 0 V
stroke
860 4799 M
[ [(Arial) 200.0 0.0 true true 0 ( 160)]
] -66.7 MRshow
1.000 UL
LTb
0.00 0.00 0.00 C 0.500 UL
LTa
0.50 0.50 0.50 C 1235 1000 M
0 3799 V
stroke
1.000 UL
LTb
0.00 0.00 0.00 C 1235 1000 M
0 63 V
0 3736 R
0 -63 V
stroke
1235 800 M
[ [(Arial) 200.0 0.0 true true 0 ( 60)]
] -66.7 MCshow
1.000 UL
LTb
0.00 0.00 0.00 C 0.500 UL
LTa
0.50 0.50 0.50 C 1847 1000 M
0 3799 V
stroke
1.000 UL
LTb
0.00 0.00 0.00 C 1847 1000 M
0 63 V
0 3736 R
0 -63 V
stroke
1847 800 M
[ [(Arial) 200.0 0.0 true true 0 ( 120)]
] -66.7 MCshow
1.000 UL
LTb
0.00 0.00 0.00 C 0.500 UL
LTa
0.50 0.50 0.50 C 2459 1000 M
0 3799 V
stroke
1.000 UL
LTb
0.00 0.00 0.00 C 2459 1000 M
0 63 V
0 3736 R
0 -63 V
stroke
2459 800 M
[ [(Arial) 200.0 0.0 true true 0 ( 180)]
] -66.7 MCshow
1.000 UL
LTb
0.00 0.00 0.00 C 0.500 UL
LTa
0.50 0.50 0.50 C 3071 1000 M
0 3799 V
stroke
1.000 UL
LTb
0.00 0.00 0.00 C 3071 1000 M
0 63 V
0 3736 R
0 -63 V
stroke
3071 800 M
[ [(Arial) 200.0 0.0 true true 0 ( 240)]
] -66.7 MCshow
1.000 UL
LTb
0.00 0.00 0.00 C 0.500 UL
LTa
0.50 0.50 0.50 C 3683 1000 M
0 3799 V
stroke
1.000 UL
LTb
0.00 0.00 0.00 C 3683 1000 M
0 63 V
0 3736 R
0 -63 V
stroke
3683 800 M
[ [(Arial) 200.0 0.0 true true 0 ( 300)]
] -66.7 MCshow
1.000 UL
LTb
0.00 0.00 0.00 C 0.500 UL
LTa
0.50 0.50 0.50 C 4295 1000 M
0 3799 V
stroke
1.000 UL
LTb
0.00 0.00 0.00 C 4295 1000 M
0 63 V
0 3736 R
0 -63 V
stroke
4295 800 M
[ [(Arial) 200.0 0.0 true true 0 ( 360)]
] -66.7 MCshow
1.000 UL
LTb
0.00 0.00 0.00 C 0.500 UL
LTa
0.50 0.50 0.50 C 4907 1000 M
0 3799 V
stroke
1.000 UL
LTb
0.00 0.00 0.00 C 4907 1000 M
0 63 V
0 3736 R
0 -63 V
stroke
4907 800 M
[ [(Arial) 200.0 0.0 true true 0 ( 420)]
] -66.7 MCshow
1.000 UL
LTb
0.00 0.00 0.00 C 0.500 UL
LTa
0.50 0.50 0.50 C 5519 1000 M
0 3799 V
stroke
1.000 UL
LTb
0.00 0.00 0.00 C 5519 1000 M
0 63 V
0 3736 R
0 -63 V
stroke
5519 800 M
[ [(Arial) 200.0 0.0 true true 0 ( 480)]
] -66.7 MCshow
1.000 UL
LTb
0.00 0.00 0.00 C 0.500 UL
LTa
0.50 0.50 0.50 C 6131 1000 M
0 3799 V
stroke
1.000 UL
LTb
0.00 0.00 0.00 C 6131 1000 M
0 63 V
0 3736 R
0 -63 V
stroke
6131 800 M
[ [(Arial) 200.0 0.0 true true 0 ( 540)]
] -66.7 MCshow
1.000 UL
LTb
0.00 0.00 0.00 C 0.500 UL
LTa
0.50 0.50 0.50 C 6743 1000 M
0 3799 V
stroke
1.000 UL
LTb
0.00 0.00 0.00 C 6743 1000 M
0 63 V
0 3736 R
0 -63 V
stroke
6743 800 M
[ [(Arial) 200.0 0.0 true true 0 ( 600)]
] -66.7 MCshow
1.000 UL
LTb
0.00 0.00 0.00 C 0.500 UL
LTa
0.50 0.50 0.50 C 7356 1000 M
0 3799 V
stroke
1.000 UL
LTb
0.00 0.00 0.00 C 7356 1000 M
0 63 V
0 3736 R
0 -63 V
stroke
7356 800 M
[ [(Arial) 200.0 0.0 true true 0 ( 660)]
] -66.7 MCshow
1.000 UL
LTb
0.00 0.00 0.00 C 0.500 UL
LTa
0.50 0.50 0.50 C 7968 1000 M
0 3799 V
stroke
1.000 UL
LTb
0.00 0.00 0.00 C 7968 1000 M
0 63 V
0 3736 R
0 -63 V
stroke
7968 800 M
[ [(Arial) 200.0 0.0 true true 0 ( 720)]
] -66.7 MCshow
1.000 UL
LTb
0.00 0.00 0.00 C 0.500 UL
LTa
0.50 0.50 0.50 C 8580 1000 M
0 3799 V
stroke
1.000 UL
LTb
0.00 0.00 0.00 C 8580 1000 M
0 63 V
0 3736 R
0 -63 V
stroke
8580 800 M
[ [(Arial) 200.0 0.0 true true 0 ( 780)]
] -66.7 MCshow
1.000 UL
LTb
0.00 0.00 0.00 C 0.500 UL
LTa
0.50 0.50 0.50 C 9192 1000 M
0 3799 V
stroke
1.000 UL
LTb
0.00 0.00 0.00 C 9192 1000 M
0 63 V
0 3736 R
0 -63 V
stroke
9192 800 M
[ [(Arial) 200.0 0.0 true true 0 ( 840)]
] -66.7 MCshow
1.000 UL
LTb
0.00 0.00 0.00 C 0.500 UL
LTa
0.50 0.50 0.50 C 9804 1000 M
0 3799 V
stroke
1.000 UL
LTb
0.00 0.00 0.00 C 9804 1000 M
0 63 V
0 3736 R
0 -63 V
stroke
9804 800 M
[ [(Arial) 200.0 0.0 true true 0 ( 900)]
] -66.7 MCshow
1.000 UL
LTb
0.00 0.00 0.00 C 0.500 UL
LTa
0.50 0.50 0.50 C 10416 1000 M
0 3799 V
stroke
1.000 UL
LTb
0.00 0.00 0.00 C 10416 1000 M
0 63 V
0 3736 R
0 -63 V
stroke
10416 800 M
[ [(Arial) 200.0 0.0 true true 0 ( 960)]
] -66.7 MCshow
1.000 UL
LTb
0.00 0.00 0.00 C 0.500 UL
LTa
0.50 0.50 0.50 C 11028 1000 M
0 3799 V
stroke
1.000 UL
LTb
0.00 0.00 0.00 C 11028 1000 M
0 63 V
0 3736 R
0 -63 V
stroke
11028 800 M
[ [(Arial) 200.0 0.0 true true 0 ( 1020)]
] -66.7 MCshow
1.000 UL
LTb
0.00 0.00 0.00 C 0.500 UL
LTa
0.50 0.50 0.50 C 11640 1000 M
0 3799 V
stroke
1.000 UL
LTb
0.00 0.00 0.00 C 11640 1000 M
0 63 V
0 3736 R
0 -63 V
stroke
11640 800 M
[ [(Arial) 200.0 0.0 true true 0 ( 1080)]
] -66.7 MCshow
1.000 UL
LTb
0.00 0.00 0.00 C 0.500 UL
LTa
0.50 0.50 0.50 C 12252 1000 M
0 3799 V
stroke
1.000 UL
LTb
0.00 0.00 0.00 C 12252 1000 M
0 63 V
0 3736 R
0 -63 V
stroke
12252 800 M
[ [(Arial) 200.0 0.0 true true 0 ( 1140)]
] -66.7 MCshow
1.000 UL
LTb
0.00 0.00 0.00 C 0.500 UL
LTa
0.50 0.50 0.50 C 12864 1000 M
0 3799 V
stroke
1.000 UL
LTb
0.00 0.00 0.00 C 12864 1000 M
0 63 V
0 3736 R
0 -63 V
stroke
12864 800 M
[ [(Arial) 200.0 0.0 true true 0 ( 1200)]
] -66.7 MCshow
1.000 UL
LTb
0.00 0.00 0.00 C 13119 1000 M
-63 0 V
stroke
13239 1000 M
[ [(Arial) 200.0 0.0 true true 0 ( 0)]
] -66.7 MLshow
1.000 UL
LTb
0.00 0.00 0.00 C 13119 1760 M
-63 0 V
stroke
13239 1760 M
[ [(Arial) 200.0 0.0 true true 0 ( 20)]
] -66.7 MLshow
1.000 UL
LTb
0.00 0.00 0.00 C 13119 2520 M
-63 0 V
stroke
13239 2520 M
[ [(Arial) 200.0 0.0 true true 0 ( 40)]
] -66.7 MLshow
1.000 UL
LTb
0.00 0.00 0.00 C 13119 3279 M
-63 0 V
stroke
13239 3279 M
[ [(Arial) 200.0 0.0 true true 0 ( 60)]
] -66.7 MLshow
1.000 UL
LTb
0.00 0.00 0.00 C 13119 4039 M
-63 0 V
stroke
13239 4039 M
[ [(Arial) 200.0 0.0 true true 0 ( 80)]
] -66.7 MLshow
1.000 UL
LTb
0.00 0.00 0.00 C 13119 4799 M
-63 0 V
stroke
13239 4799 M
[ [(Arial) 200.0 0.0 true true 0 ( 100)]
] -66.7 MLshow
1.000 UL
LTb
0.00 0.00 0.00 C 1.000 UL
LTB
0.00 0.00 0.00 C 980 4799 M
0 -3799 V
12139 0 V
0 3799 R
980 4799 M
1.000 UP
stroke
LTb
0.00 0.00 0.00 C LCb setrgbcolor
160 2899 M
currentpoint gsave translate -270 rotate 0 0 moveto
[ [(Arial) 200.0 0.0 true true 0 (File download time \(s\))]
] -66.7 MCshow
grestore
LTb
LCb setrgbcolor
13938 2899 M
currentpoint gsave translate -270 rotate 0 0 moveto
[ [(Arial) 200.0 0.0 true true 0 (Average UDP throughput [%])]
] -66.7 MCshow
grestore
LTb
LCb setrgbcolor
7049 500 M
[ [(Arial) 200.0 0.0 true true 0 (Local Backhaul traffic \(Mb/s\))]
] -66.7 MCshow
LTb
% Begin plot #1
1.000 UL
LTb
0.60 0.60 0.00 C LCb setrgbcolor
4714 333 M
[ [(Arial) 180.0 0.0 true true 0 (file download time    :   olsr)]
] -60.0 MRshow
1.000 UL
LTb
0.60 0.60 0.00 C 4822 288 333 90 80 -45 0 PatternFill
4822 288 N
333 0 V
0 90 V
-333 0 V
0 -90 V
Z stroke
1.000 UL
LTb
0.60 0.60 0.00 C 990 1448 154 396 80 -45 0 PatternFill
1067 1151 M
0 297 V
0 396 R
0 905 V
stroke
990 1448 N
154 0 V
0 396 V
-154 0 V
0 -396 V
Z stroke
990 2749 M
154 0 V
990 1151 M
154 0 V
stroke
1602 1389 154 396 80 -45 0 PatternFill
1679 1143 M
0 246 V
0 396 R
0 989 V
stroke
1602 1389 N
154 0 V
0 396 V
-154 0 V
0 -396 V
Z stroke
1602 2774 M
154 0 V
1602 1143 M
154 0 V
stroke
2214 1459 154 362 80 -45 0 PatternFill
2291 1144 M
0 315 V
0 362 R
0 720 V
stroke
2214 1459 N
154 0 V
0 362 V
-154 0 V
0 -362 V
Z stroke
2214 2541 M
154 0 V
2214 1144 M
154 0 V
stroke
2826 1461 154 330 80 -45 0 PatternFill
2903 1149 M
0 312 V
0 330 R
0 776 V
stroke
2826 1461 N
154 0 V
0 330 V
-154 0 V
0 -330 V
Z stroke
2826 2567 M
154 0 V
2826 1149 M
154 0 V
stroke
3438 1459 154 321 80 -45 0 PatternFill
3515 1152 M
0 307 V
0 321 R
0 1021 V
stroke
3438 1459 N
154 0 V
0 321 V
-154 0 V
0 -321 V
Z stroke
3438 2801 M
154 0 V
3438 1152 M
154 0 V
stroke
4050 1452 154 340 80 -45 0 PatternFill
4127 1147 M
0 305 V
0 340 R
0 803 V
stroke
4050 1452 N
154 0 V
0 340 V
-154 0 V
0 -340 V
Z stroke
4050 2595 M
154 0 V
4050 1147 M
154 0 V
stroke
4663 1431 154 356 80 -45 0 PatternFill
4740 1154 M
0 277 V
0 356 R
0 1041 V
stroke
4663 1431 N
154 0 V
0 356 V
-154 0 V
0 -356 V
Z stroke
4663 2828 M
154 0 V
4663 1154 M
154 0 V
stroke
5275 1410 154 408 80 -45 0 PatternFill
5352 1145 M
0 265 V
0 408 R
0 1068 V
stroke
5275 1410 N
154 0 V
0 408 V
-154 0 V
0 -408 V
Z stroke
5275 2886 M
154 0 V
5275 1145 M
154 0 V
stroke
5887 1439 154 401 80 -45 0 PatternFill
5964 1165 M
0 274 V
0 401 R
0 723 V
stroke
5887 1439 N
154 0 V
0 401 V
-154 0 V
0 -401 V
Z stroke
5887 2563 M
154 0 V
5887 1165 M
154 0 V
stroke
6499 1440 154 373 80 -45 0 PatternFill
6576 1168 M
0 272 V
0 373 R
0 1037 V
stroke
6499 1440 N
154 0 V
0 373 V
-154 0 V
0 -373 V
Z stroke
6499 2850 M
154 0 V
6499 1168 M
154 0 V
stroke
7111 1403 154 372 80 -45 0 PatternFill
7188 1211 M
0 192 V
0 372 R
0 795 V
stroke
7111 1403 N
154 0 V
0 372 V
-154 0 V
0 -372 V
Z stroke
7111 2570 M
154 0 V
7111 1211 M
154 0 V
stroke
7723 1392 154 361 80 -45 0 PatternFill
7800 1145 M
0 247 V
0 361 R
0 1211 V
stroke
7723 1392 N
154 0 V
0 361 V
-154 0 V
0 -361 V
Z stroke
7723 2964 M
154 0 V
7723 1145 M
154 0 V
stroke
8335 1461 154 334 80 -45 0 PatternFill
8412 1144 M
0 317 V
0 334 R
0 510 V
stroke
8335 1461 N
154 0 V
0 334 V
-154 0 V
0 -334 V
Z stroke
8335 2305 M
154 0 V
8335 1144 M
154 0 V
stroke
8947 1432 154 377 80 -45 0 PatternFill
9024 1136 M
0 296 V
0 377 R
0 645 V
stroke
8947 1432 N
154 0 V
0 377 V
-154 0 V
0 -377 V
Z stroke
8947 2454 M
154 0 V
8947 1136 M
154 0 V
stroke
9559 1410 154 401 80 -45 0 PatternFill
9636 1146 M
0 264 V
0 401 R
0 636 V
stroke
9559 1410 N
154 0 V
0 401 V
-154 0 V
0 -401 V
Z stroke
9559 2447 M
154 0 V
9559 1146 M
154 0 V
stroke
10171 1472 154 335 80 -45 0 PatternFill
10248 1147 M
0 325 V
0 335 R
0 795 V
stroke
10171 1472 N
154 0 V
0 335 V
-154 0 V
0 -335 V
Z stroke
10171 2602 M
154 0 V
10171 1147 M
154 0 V
stroke
10783 1427 154 383 80 -45 0 PatternFill
10860 1145 M
0 282 V
0 383 R
0 1065 V
stroke
10783 1427 N
154 0 V
0 383 V
-154 0 V
0 -383 V
Z stroke
10783 2875 M
154 0 V
10783 1145 M
154 0 V
stroke
11395 1414 154 386 80 -45 0 PatternFill
11472 1156 M
0 258 V
0 386 R
0 1206 V
stroke
11395 1414 N
154 0 V
0 386 V
-154 0 V
0 -386 V
Z stroke
11395 3006 M
154 0 V
11395 1156 M
154 0 V
stroke
12007 1442 154 337 80 -45 0 PatternFill
12084 1151 M
0 291 V
0 337 R
0 911 V
stroke
12007 1442 N
154 0 V
0 337 V
-154 0 V
0 -337 V
Z stroke
12007 2690 M
154 0 V
12007 1151 M
154 0 V
stroke
12619 1494 154 385 80 -45 0 PatternFill
12696 1153 M
0 341 V
0 385 R
0 858 V
stroke
12619 1494 N
154 0 V
0 385 V
-154 0 V
0 -385 V
Z stroke
12619 2737 M
154 0 V
12619 1153 M
154 0 V
% End plot #1
% Begin plot #2
stroke
LTb
LCb setrgbcolor

 /TransparentPatterns true def
990 1650 154 0 40 30 0 PatternFill
1067 1650 M
stroke
990 1650 N
154 0 V
-154 0 V
Z stroke
990 1650 M
154 0 V
-154 0 R
154 0 V
stroke

 /TransparentPatterns true def
1602 1618 154 0 40 30 0 PatternFill
1679 1618 M
stroke
1602 1618 N
154 0 V
-154 0 V
Z stroke
1602 1618 M
154 0 V
-154 0 R
154 0 V
stroke

 /TransparentPatterns true def
2214 1642 154 0 40 30 0 PatternFill
2291 1642 M
stroke
2214 1642 N
154 0 V
-154 0 V
Z stroke
2214 1642 M
154 0 V
-154 0 R
154 0 V
stroke

 /TransparentPatterns true def
2826 1637 154 0 40 30 0 PatternFill
2903 1637 M
stroke
2826 1637 N
154 0 V
-154 0 V
Z stroke
2826 1637 M
154 0 V
-154 0 R
154 0 V
stroke

 /TransparentPatterns true def
3438 1635 154 0 40 30 0 PatternFill
3515 1635 M
stroke
3438 1635 N
154 0 V
-154 0 V
Z stroke
3438 1635 M
154 0 V
-154 0 R
154 0 V
stroke

 /TransparentPatterns true def
4050 1642 154 0 40 30 0 PatternFill
4127 1642 M
stroke
4050 1642 N
154 0 V
-154 0 V
Z stroke
4050 1642 M
154 0 V
-154 0 R
154 0 V
stroke

 /TransparentPatterns true def
4663 1649 154 0 40 30 0 PatternFill
4740 1649 M
stroke
4663 1649 N
154 0 V
-154 0 V
Z stroke
4663 1649 M
154 0 V
-154 0 R
154 0 V
stroke

 /TransparentPatterns true def
5275 1628 154 0 40 30 0 PatternFill
5352 1628 M
stroke
5275 1628 N
154 0 V
-154 0 V
Z stroke
5275 1628 M
154 0 V
-154 0 R
154 0 V
stroke

 /TransparentPatterns true def
5887 1656 154 0 40 30 0 PatternFill
5964 1656 M
stroke
5887 1656 N
154 0 V
-154 0 V
Z stroke
5887 1656 M
154 0 V
-154 0 R
154 0 V
stroke

 /TransparentPatterns true def
6499 1642 154 0 40 30 0 PatternFill
6576 1642 M
stroke
6499 1642 N
154 0 V
-154 0 V
Z stroke
6499 1642 M
154 0 V
-154 0 R
154 0 V
stroke

 /TransparentPatterns true def
7111 1625 154 0 40 30 0 PatternFill
7188 1625 M
stroke
7111 1625 N
154 0 V
-154 0 V
Z stroke
7111 1625 M
154 0 V
-154 0 R
154 0 V
stroke

 /TransparentPatterns true def
7723 1624 154 0 40 30 0 PatternFill
7800 1624 M
stroke
7723 1624 N
154 0 V
-154 0 V
Z stroke
7723 1624 M
154 0 V
-154 0 R
154 0 V
stroke

 /TransparentPatterns true def
8335 1624 154 0 40 30 0 PatternFill
8412 1624 M
stroke
8335 1624 N
154 0 V
-154 0 V
Z stroke
8335 1624 M
154 0 V
-154 0 R
154 0 V
stroke

 /TransparentPatterns true def
8947 1631 154 0 40 30 0 PatternFill
9024 1631 M
stroke
8947 1631 N
154 0 V
-154 0 V
Z stroke
8947 1631 M
154 0 V
-154 0 R
154 0 V
stroke

 /TransparentPatterns true def
9559 1630 154 0 40 30 0 PatternFill
9636 1630 M
stroke
9559 1630 N
154 0 V
-154 0 V
Z stroke
9559 1630 M
154 0 V
-154 0 R
154 0 V
stroke

 /TransparentPatterns true def
10171 1645 154 0 40 30 0 PatternFill
10248 1645 M
stroke
10171 1645 N
154 0 V
-154 0 V
Z stroke
10171 1645 M
154 0 V
-154 0 R
154 0 V
stroke

 /TransparentPatterns true def
10783 1645 154 0 40 30 0 PatternFill
10860 1645 M
stroke
10783 1645 N
154 0 V
-154 0 V
Z stroke
10783 1645 M
154 0 V
-154 0 R
154 0 V
stroke

 /TransparentPatterns true def
11395 1631 154 0 40 30 0 PatternFill
11472 1631 M
stroke
11395 1631 N
154 0 V
-154 0 V
Z stroke
11395 1631 M
154 0 V
-154 0 R
154 0 V
stroke

 /TransparentPatterns true def
12007 1635 154 0 40 30 0 PatternFill
12084 1635 M
stroke
12007 1635 N
154 0 V
-154 0 V
Z stroke
12007 1635 M
154 0 V
-154 0 R
154 0 V
stroke

 /TransparentPatterns true def
12619 1678 154 0 40 30 0 PatternFill
12696 1678 M
stroke
12619 1678 N
154 0 V
-154 0 V
Z stroke
12619 1678 M
154 0 V
-154 0 R
154 0 V
% End plot #2
% Begin plot #3
2.000 UP
stroke
LTa
0.60 0.60 0.00 C LCb setrgbcolor
4714 153 M
[ [(Arial) 180.0 0.0 true true 0 (avg. throughput :         )]
] -60.0 MRshow
2.000 UP
1.000 UL
LTa
0.60 0.60 0.00 C 4822 153 M
333 0 V
1067 4685 M
612 -9 V
612 3 V
612 -3 V
612 1 V
612 -1 V
612 -2 V
612 4 V
612 -6 V
612 4 V
612 -3 V
612 6 V
612 -6 V
612 3 V
612 -1 V
612 1 V
613 5 V
612 -4 V
612 0 V
612 -2 V
1067 4685 Box
1679 4676 Box
2291 4679 Box
2903 4676 Box
3515 4677 Box
4127 4676 Box
4739 4674 Box
5351 4678 Box
5963 4672 Box
6575 4676 Box
7187 4673 Box
7799 4679 Box
8411 4673 Box
9023 4676 Box
9635 4675 Box
10247 4676 Box
10860 4681 Box
11472 4677 Box
12084 4677 Box
12696 4675 Box
4988 153 Box
% End plot #3
% Begin plot #4
1.000 UL
LTb
0.00 0.00 0.63 C LCb setrgbcolor
8287 333 M
[ [(Arial) 180.0 0.0 true true 0 (per-packet)]
] -60.0 MRshow
1.000 UL
LTb
0.00 0.00 0.63 C 8395 288 333 90 80 45 0 PatternFill
8395 288 N
333 0 V
0 90 V
-333 0 V
0 -90 V
Z stroke
1.000 UL
LTb
0.00 0.00 0.63 C 1159 1304 154 1674 80 45 0 PatternFill
1236 1157 M
0 147 V
0 1674 R
0 471 V
stroke
1159 1304 N
154 0 V
0 1674 V
-154 0 V
0 -1674 V
Z stroke
1159 3449 M
154 0 V
1159 1157 M
154 0 V
stroke
1771 1334 154 1575 80 45 0 PatternFill
1848 1144 M
0 190 V
0 1575 R
0 517 V
stroke
1771 1334 N
154 0 V
0 1575 V
-154 0 V
0 -1575 V
Z stroke
1771 3426 M
154 0 V
1771 1144 M
154 0 V
stroke
2383 1309 154 1619 80 45 0 PatternFill
2460 1149 M
0 160 V
0 1619 R
0 453 V
stroke
2383 1309 N
154 0 V
0 1619 V
-154 0 V
0 -1619 V
Z stroke
2383 3381 M
154 0 V
2383 1149 M
154 0 V
stroke
2995 1300 154 1605 80 45 0 PatternFill
3072 1086 M
0 214 V
0 1605 R
0 507 V
stroke
2995 1300 N
154 0 V
0 1605 V
-154 0 V
0 -1605 V
Z stroke
2995 3412 M
154 0 V
2995 1086 M
154 0 V
stroke
3607 1307 154 1639 80 45 0 PatternFill
3684 1170 M
0 137 V
0 1639 R
0 503 V
stroke
3607 1307 N
154 0 V
0 1639 V
-154 0 V
0 -1639 V
Z stroke
3607 3449 M
154 0 V
3607 1170 M
154 0 V
stroke
4219 1299 154 1590 80 45 0 PatternFill
4296 1164 M
0 135 V
0 1590 R
0 592 V
stroke
4219 1299 N
154 0 V
0 1590 V
-154 0 V
0 -1590 V
Z stroke
4219 3481 M
154 0 V
4219 1164 M
154 0 V
stroke
4831 1321 154 1538 80 45 0 PatternFill
4908 1105 M
0 216 V
0 1538 R
0 588 V
stroke
4831 1321 N
154 0 V
0 1538 V
-154 0 V
0 -1538 V
Z stroke
4831 3447 M
154 0 V
4831 1105 M
154 0 V
stroke
5443 1357 154 1565 80 45 0 PatternFill
5520 1172 M
0 185 V
0 1565 R
0 437 V
stroke
5443 1357 N
154 0 V
0 1565 V
-154 0 V
0 -1565 V
Z stroke
5443 3359 M
154 0 V
5443 1172 M
154 0 V
stroke
6055 1317 154 1578 80 45 0 PatternFill
6132 1176 M
0 141 V
0 1578 R
0 524 V
stroke
6055 1317 N
154 0 V
0 1578 V
-154 0 V
0 -1578 V
Z stroke
6055 3419 M
154 0 V
6055 1176 M
154 0 V
stroke
6667 1319 154 1542 80 45 0 PatternFill
6744 1173 M
0 146 V
0 1542 R
0 661 V
stroke
6667 1319 N
154 0 V
0 1542 V
-154 0 V
0 -1542 V
Z stroke
6667 3522 M
154 0 V
6667 1173 M
154 0 V
stroke
7279 1320 154 1559 80 45 0 PatternFill
7356 1165 M
0 155 V
0 1559 R
0 450 V
stroke
7279 1320 N
154 0 V
0 1559 V
-154 0 V
0 -1559 V
Z stroke
7279 3329 M
154 0 V
7279 1165 M
154 0 V
stroke
7891 1309 154 1543 80 45 0 PatternFill
7968 1173 M
0 136 V
0 1543 R
0 522 V
stroke
7891 1309 N
154 0 V
0 1543 V
-154 0 V
0 -1543 V
Z stroke
7891 3374 M
154 0 V
7891 1173 M
154 0 V
stroke
8503 1316 154 1487 80 45 0 PatternFill
8580 1122 M
0 194 V
0 1487 R
0 586 V
stroke
8503 1316 N
154 0 V
0 1487 V
-154 0 V
0 -1487 V
Z stroke
8503 3389 M
154 0 V
8503 1122 M
154 0 V
stroke
9115 1342 154 1533 80 45 0 PatternFill
9192 1101 M
0 241 V
0 1533 R
0 421 V
stroke
9115 1342 N
154 0 V
0 1533 V
-154 0 V
0 -1533 V
Z stroke
9115 3296 M
154 0 V
9115 1101 M
154 0 V
stroke
9727 1347 154 1495 80 45 0 PatternFill
9804 1198 M
0 149 V
0 1495 R
0 463 V
stroke
9727 1347 N
154 0 V
0 1495 V
-154 0 V
0 -1495 V
Z stroke
9727 3305 M
154 0 V
9727 1198 M
154 0 V
stroke
10339 1284 154 1581 80 45 0 PatternFill
10416 1149 M
0 135 V
0 1581 R
0 354 V
stroke
10339 1284 N
154 0 V
0 1581 V
-154 0 V
0 -1581 V
Z stroke
10339 3219 M
154 0 V
10339 1149 M
154 0 V
stroke
10951 1295 154 1586 80 45 0 PatternFill
11028 1149 M
0 146 V
0 1586 R
0 453 V
stroke
10951 1295 N
154 0 V
0 1586 V
-154 0 V
0 -1586 V
Z stroke
10951 3334 M
154 0 V
10951 1149 M
154 0 V
stroke
11563 1342 154 1480 80 45 0 PatternFill
11640 1156 M
0 186 V
0 1480 R
0 629 V
stroke
11563 1342 N
154 0 V
0 1480 V
-154 0 V
0 -1480 V
Z stroke
11563 3451 M
154 0 V
11563 1156 M
154 0 V
stroke
12175 1316 154 1495 80 45 0 PatternFill
12252 1167 M
0 149 V
0 1495 R
0 532 V
stroke
12175 1316 N
154 0 V
0 1495 V
-154 0 V
0 -1495 V
Z stroke
12175 3343 M
154 0 V
12175 1167 M
154 0 V
stroke
12787 1308 154 1555 80 45 0 PatternFill
12864 1154 M
0 154 V
0 1555 R
0 523 V
stroke
12787 1308 N
154 0 V
0 1555 V
-154 0 V
0 -1555 V
Z stroke
12787 3386 M
154 0 V
12787 1154 M
154 0 V
% End plot #4
% Begin plot #5
stroke
LTb
LCb setrgbcolor

 /TransparentPatterns true def
1159 1952 154 0 80 -45 0 PatternFill
1236 1952 M
stroke
1159 1952 N
154 0 V
-154 0 V
Z stroke
1159 1952 M
154 0 V
-154 0 R
154 0 V
stroke

 /TransparentPatterns true def
1771 1946 154 0 80 -45 0 PatternFill
1848 1946 M
stroke
1771 1946 N
154 0 V
-154 0 V
Z stroke
1771 1946 M
154 0 V
-154 0 R
154 0 V
stroke

 /TransparentPatterns true def
2383 1961 154 0 80 -45 0 PatternFill
2460 1961 M
stroke
2383 1961 N
154 0 V
-154 0 V
Z stroke
2383 1961 M
154 0 V
-154 0 R
154 0 V
stroke

 /TransparentPatterns true def
2995 1934 154 0 80 -45 0 PatternFill
3072 1934 M
stroke
2995 1934 N
154 0 V
-154 0 V
Z stroke
2995 1934 M
154 0 V
-154 0 R
154 0 V
stroke

 /TransparentPatterns true def
3607 1945 154 0 80 -45 0 PatternFill
3684 1945 M
stroke
3607 1945 N
154 0 V
-154 0 V
Z stroke
3607 1945 M
154 0 V
-154 0 R
154 0 V
stroke

 /TransparentPatterns true def
4219 1960 154 0 80 -45 0 PatternFill
4296 1960 M
stroke
4219 1960 N
154 0 V
-154 0 V
Z stroke
4219 1960 M
154 0 V
-154 0 R
154 0 V
stroke

 /TransparentPatterns true def
4831 1938 154 0 80 -45 0 PatternFill
4908 1938 M
stroke
4831 1938 N
154 0 V
-154 0 V
Z stroke
4831 1938 M
154 0 V
-154 0 R
154 0 V
stroke

 /TransparentPatterns true def
5443 1967 154 0 80 -45 0 PatternFill
5520 1967 M
stroke
5443 1967 N
154 0 V
-154 0 V
Z stroke
5443 1967 M
154 0 V
-154 0 R
154 0 V
stroke

 /TransparentPatterns true def
6055 1935 154 0 80 -45 0 PatternFill
6132 1935 M
stroke
6055 1935 N
154 0 V
-154 0 V
Z stroke
6055 1935 M
154 0 V
-154 0 R
154 0 V
stroke

 /TransparentPatterns true def
6667 1970 154 0 80 -45 0 PatternFill
6744 1970 M
stroke
6667 1970 N
154 0 V
-154 0 V
Z stroke
6667 1970 M
154 0 V
-154 0 R
154 0 V
stroke

 /TransparentPatterns true def
7279 1937 154 0 80 -45 0 PatternFill
7356 1937 M
stroke
7279 1937 N
154 0 V
-154 0 V
Z stroke
7279 1937 M
154 0 V
-154 0 R
154 0 V
stroke

 /TransparentPatterns true def
7891 1934 154 0 80 -45 0 PatternFill
7968 1934 M
stroke
7891 1934 N
154 0 V
-154 0 V
Z stroke
7891 1934 M
154 0 V
-154 0 R
154 0 V
stroke

 /TransparentPatterns true def
8503 1930 154 0 80 -45 0 PatternFill
8580 1930 M
stroke
8503 1930 N
154 0 V
-154 0 V
Z stroke
8503 1930 M
154 0 V
-154 0 R
154 0 V
stroke

 /TransparentPatterns true def
9115 1928 154 0 80 -45 0 PatternFill
9192 1928 M
stroke
9115 1928 N
154 0 V
-154 0 V
Z stroke
9115 1928 M
154 0 V
-154 0 R
154 0 V
stroke

 /TransparentPatterns true def
9727 1957 154 0 80 -45 0 PatternFill
9804 1957 M
stroke
9727 1957 N
154 0 V
-154 0 V
Z stroke
9727 1957 M
154 0 V
-154 0 R
154 0 V
stroke

 /TransparentPatterns true def
10339 1914 154 0 80 -45 0 PatternFill
10416 1914 M
stroke
10339 1914 N
154 0 V
-154 0 V
Z stroke
10339 1914 M
154 0 V
-154 0 R
154 0 V
stroke

 /TransparentPatterns true def
10951 1940 154 0 80 -45 0 PatternFill
11028 1940 M
stroke
10951 1940 N
154 0 V
-154 0 V
Z stroke
10951 1940 M
154 0 V
-154 0 R
154 0 V
stroke

 /TransparentPatterns true def
11563 1939 154 0 80 -45 0 PatternFill
11640 1939 M
stroke
11563 1939 N
154 0 V
-154 0 V
Z stroke
11563 1939 M
154 0 V
-154 0 R
154 0 V
stroke

 /TransparentPatterns true def
12175 1951 154 0 80 -45 0 PatternFill
12252 1951 M
stroke
12175 1951 N
154 0 V
-154 0 V
Z stroke
12175 1951 M
154 0 V
-154 0 R
154 0 V
stroke

 /TransparentPatterns true def
12787 1946 154 0 80 -45 0 PatternFill
12864 1946 M
stroke
12787 1946 N
154 0 V
-154 0 V
Z stroke
12787 1946 M
154 0 V
-154 0 R
154 0 V
% End plot #5
% Begin plot #6
2.000 UP
stroke
LTa
0.00 0.00 0.63 C LCb setrgbcolor
8287 153 M
[ [(Arial) 180.0 0.0 true true 0 ( )]
] -60.0 MRshow
2.000 UP
1.000 UL
LTa
0.00 0.00 0.63 C 8395 153 M
333 0 V
1235 4780 M
612 10 V
612 -4 V
612 4 V
612 -2 V
612 -2 V
612 2 V
612 -1 V
612 1 V
612 0 V
613 1 V
612 -1 V
612 -1 V
612 1 V
612 0 V
612 -1 V
612 1 V
612 -1 V
612 1 V
612 0 V
1235 4780 Circle
1847 4790 Circle
2459 4786 Circle
3071 4790 Circle
3683 4788 Circle
4295 4786 Circle
4907 4788 Circle
5519 4787 Circle
6131 4788 Circle
6743 4788 Circle
7356 4789 Circle
7968 4788 Circle
8580 4787 Circle
9192 4788 Circle
9804 4788 Circle
10416 4787 Circle
11028 4788 Circle
11640 4787 Circle
12252 4788 Circle
12864 4788 Circle
8561 153 Circle
% End plot #6
% Begin plot #7
1.000 UL
LTb
0.00 0.38 0.82 C LCb setrgbcolor
11860 333 M
[ [(Arial) 180.0 0.0 true true 0 (per-flow)]
] -60.0 MRshow
1.000 UL
LTb
0.00 0.38 0.82 C 11968 288 333 90 40 30 0 PatternFill
11968 288 N
333 0 V
0 90 V
-333 0 V
0 -90 V
Z stroke
1.000 UL
LTb
0.00 0.38 0.82 C 1327 1330 154 270 40 30 0 PatternFill
1404 1166 M
0 164 V
0 270 R
0 1003 V
stroke
1327 1330 N
154 0 V
0 270 V
-154 0 V
0 -270 V
Z stroke
1327 2603 M
154 0 V
1327 1166 M
154 0 V
stroke
1939 1288 154 267 40 30 0 PatternFill
2016 1154 M
0 134 V
0 267 R
0 951 V
stroke
1939 1288 N
154 0 V
0 267 V
-154 0 V
0 -267 V
Z stroke
1939 2506 M
154 0 V
1939 1154 M
154 0 V
stroke
2551 1322 154 285 40 30 0 PatternFill
2628 1171 M
0 151 V
0 285 R
0 834 V
stroke
2551 1322 N
154 0 V
0 285 V
-154 0 V
0 -285 V
Z stroke
2551 2441 M
154 0 V
2551 1171 M
154 0 V
stroke
3163 1301 154 396 40 30 0 PatternFill
3240 1187 M
0 114 V
0 396 R
0 1140 V
stroke
3163 1301 N
154 0 V
0 396 V
-154 0 V
0 -396 V
Z stroke
3163 2837 M
154 0 V
3163 1187 M
154 0 V
stroke
3775 1308 154 323 40 30 0 PatternFill
3852 1158 M
0 150 V
0 323 R
0 942 V
stroke
3775 1308 N
154 0 V
0 323 V
-154 0 V
0 -323 V
Z stroke
3775 2573 M
154 0 V
3775 1158 M
154 0 V
stroke
4387 1326 154 291 40 30 0 PatternFill
4464 1229 M
0 97 V
0 291 R
0 765 V
stroke
4387 1326 N
154 0 V
0 291 V
-154 0 V
0 -291 V
Z stroke
4387 2382 M
154 0 V
4387 1229 M
154 0 V
stroke
4999 1299 154 294 40 30 0 PatternFill
5076 1165 M
0 134 V
0 294 R
0 981 V
stroke
4999 1299 N
154 0 V
0 294 V
-154 0 V
0 -294 V
Z stroke
4999 2574 M
154 0 V
4999 1165 M
154 0 V
stroke
5611 1328 154 322 40 30 0 PatternFill
5688 1156 M
0 172 V
0 322 R
0 991 V
stroke
5611 1328 N
154 0 V
0 322 V
-154 0 V
0 -322 V
Z stroke
5611 2641 M
154 0 V
5611 1156 M
154 0 V
stroke
6223 1295 154 385 40 30 0 PatternFill
6300 1139 M
0 156 V
0 385 R
0 752 V
stroke
6223 1295 N
154 0 V
0 385 V
-154 0 V
0 -385 V
Z stroke
6223 2432 M
154 0 V
6223 1139 M
154 0 V
stroke
6835 1317 154 337 40 30 0 PatternFill
6912 1186 M
0 131 V
0 337 R
0 761 V
stroke
6835 1317 N
154 0 V
0 337 V
-154 0 V
0 -337 V
Z stroke
6835 2415 M
154 0 V
6835 1186 M
154 0 V
stroke
7447 1294 154 379 40 30 0 PatternFill
7524 1195 M
0 99 V
0 379 R
0 910 V
stroke
7447 1294 N
154 0 V
0 379 V
-154 0 V
0 -379 V
Z stroke
7447 2583 M
154 0 V
7447 1195 M
154 0 V
stroke
8059 1327 154 287 40 30 0 PatternFill
8136 1197 M
0 130 V
0 287 R
0 932 V
stroke
8059 1327 N
154 0 V
0 287 V
-154 0 V
0 -287 V
Z stroke
8059 2546 M
154 0 V
8059 1197 M
154 0 V
stroke
8671 1285 154 328 40 30 0 PatternFill
8748 1188 M
0 97 V
0 328 R
0 792 V
stroke
8671 1285 N
154 0 V
0 328 V
-154 0 V
0 -328 V
Z stroke
8671 2405 M
154 0 V
8671 1188 M
154 0 V
stroke
9283 1297 154 339 40 30 0 PatternFill
9360 1163 M
0 134 V
0 339 R
0 975 V
stroke
9283 1297 N
154 0 V
0 339 V
-154 0 V
0 -339 V
Z stroke
9283 2611 M
154 0 V
9283 1163 M
154 0 V
stroke
9896 1325 154 346 40 30 0 PatternFill
9973 1137 M
0 188 V
0 346 R
0 673 V
stroke
9896 1325 N
154 0 V
0 346 V
-154 0 V
0 -346 V
Z stroke
9896 2344 M
154 0 V
9896 1137 M
154 0 V
stroke
10508 1296 154 372 40 30 0 PatternFill
10585 1168 M
0 128 V
0 372 R
0 859 V
stroke
10508 1296 N
154 0 V
0 372 V
-154 0 V
0 -372 V
Z stroke
10508 2527 M
154 0 V
10508 1168 M
154 0 V
stroke
11120 1334 154 293 40 30 0 PatternFill
11197 1250 M
0 84 V
0 293 R
0 866 V
stroke
11120 1334 N
154 0 V
0 293 V
-154 0 V
0 -293 V
Z stroke
11120 2493 M
154 0 V
11120 1250 M
154 0 V
stroke
11732 1339 154 423 40 30 0 PatternFill
11809 1175 M
0 164 V
0 423 R
0 761 V
stroke
11732 1339 N
154 0 V
0 423 V
-154 0 V
0 -423 V
Z stroke
11732 2523 M
154 0 V
11732 1175 M
154 0 V
stroke
12344 1332 154 350 40 30 0 PatternFill
12421 1164 M
0 168 V
0 350 R
0 638 V
stroke
12344 1332 N
154 0 V
0 350 V
-154 0 V
0 -350 V
Z stroke
12344 2320 M
154 0 V
12344 1164 M
154 0 V
stroke
12956 1339 154 282 40 30 0 PatternFill
13033 1195 M
0 144 V
0 282 R
0 924 V
stroke
12956 1339 N
154 0 V
0 282 V
-154 0 V
0 -282 V
Z stroke
12956 2545 M
154 0 V
12956 1195 M
154 0 V
% End plot #7
% Begin plot #8
stroke
LTb
LCb setrgbcolor

 /TransparentPatterns true def
1327 1483 154 0 40 -30 0 PatternFill
1404 1483 M
stroke
1327 1483 N
154 0 V
-154 0 V
Z stroke
1327 1483 M
154 0 V
-154 0 R
154 0 V
stroke

 /TransparentPatterns true def
1939 1462 154 0 40 -30 0 PatternFill
2016 1462 M
stroke
1939 1462 N
154 0 V
-154 0 V
Z stroke
1939 1462 M
154 0 V
-154 0 R
154 0 V
stroke

 /TransparentPatterns true def
2551 1483 154 0 40 -30 0 PatternFill
2628 1483 M
stroke
2551 1483 N
154 0 V
-154 0 V
Z stroke
2551 1483 M
154 0 V
-154 0 R
154 0 V
stroke

 /TransparentPatterns true def
3163 1517 154 0 40 -30 0 PatternFill
3240 1517 M
stroke
3163 1517 N
154 0 V
-154 0 V
Z stroke
3163 1517 M
154 0 V
-154 0 R
154 0 V
stroke

 /TransparentPatterns true def
3775 1471 154 0 40 -30 0 PatternFill
3852 1471 M
stroke
3775 1471 N
154 0 V
-154 0 V
Z stroke
3775 1471 M
154 0 V
-154 0 R
154 0 V
stroke

 /TransparentPatterns true def
4387 1491 154 0 40 -30 0 PatternFill
4464 1491 M
stroke
4387 1491 N
154 0 V
-154 0 V
Z stroke
4387 1491 M
154 0 V
-154 0 R
154 0 V
stroke

 /TransparentPatterns true def
4999 1480 154 0 40 -30 0 PatternFill
5076 1480 M
stroke
4999 1480 N
154 0 V
-154 0 V
Z stroke
4999 1480 M
154 0 V
-154 0 R
154 0 V
stroke

 /TransparentPatterns true def
5611 1505 154 0 40 -30 0 PatternFill
5688 1505 M
stroke
5611 1505 N
154 0 V
-154 0 V
Z stroke
5611 1505 M
154 0 V
-154 0 R
154 0 V
stroke

 /TransparentPatterns true def
6223 1495 154 0 40 -30 0 PatternFill
6300 1495 M
stroke
6223 1495 N
154 0 V
-154 0 V
Z stroke
6223 1495 M
154 0 V
-154 0 R
154 0 V
stroke

 /TransparentPatterns true def
6835 1498 154 0 40 -30 0 PatternFill
6912 1498 M
stroke
6835 1498 N
154 0 V
-154 0 V
Z stroke
6835 1498 M
154 0 V
-154 0 R
154 0 V
stroke

 /TransparentPatterns true def
7447 1497 154 0 40 -30 0 PatternFill
7524 1497 M
stroke
7447 1497 N
154 0 V
-154 0 V
Z stroke
7447 1497 M
154 0 V
-154 0 R
154 0 V
stroke

 /TransparentPatterns true def
8059 1487 154 0 40 -30 0 PatternFill
8136 1487 M
stroke
8059 1487 N
154 0 V
-154 0 V
Z stroke
8059 1487 M
154 0 V
-154 0 R
154 0 V
stroke

 /TransparentPatterns true def
8671 1468 154 0 40 -30 0 PatternFill
8748 1468 M
stroke
8671 1468 N
154 0 V
-154 0 V
Z stroke
8671 1468 M
154 0 V
-154 0 R
154 0 V
stroke

 /TransparentPatterns true def
9283 1489 154 0 40 -30 0 PatternFill
9360 1489 M
stroke
9283 1489 N
154 0 V
-154 0 V
Z stroke
9283 1489 M
154 0 V
-154 0 R
154 0 V
stroke

 /TransparentPatterns true def
9896 1500 154 0 40 -30 0 PatternFill
9973 1500 M
stroke
9896 1500 N
154 0 V
-154 0 V
Z stroke
9896 1500 M
154 0 V
-154 0 R
154 0 V
stroke

 /TransparentPatterns true def
10508 1504 154 0 40 -30 0 PatternFill
10585 1504 M
stroke
10508 1504 N
154 0 V
-154 0 V
Z stroke
10508 1504 M
154 0 V
-154 0 R
154 0 V
stroke

 /TransparentPatterns true def
11120 1503 154 0 40 -30 0 PatternFill
11197 1503 M
stroke
11120 1503 N
154 0 V
-154 0 V
Z stroke
11120 1503 M
154 0 V
-154 0 R
154 0 V
stroke

 /TransparentPatterns true def
11732 1541 154 0 40 -30 0 PatternFill
11809 1541 M
stroke
11732 1541 N
154 0 V
-154 0 V
Z stroke
11732 1541 M
154 0 V
-154 0 R
154 0 V
stroke

 /TransparentPatterns true def
12344 1496 154 0 40 -30 0 PatternFill
12421 1496 M
stroke
12344 1496 N
154 0 V
-154 0 V
Z stroke
12344 1496 M
154 0 V
-154 0 R
154 0 V
stroke

 /TransparentPatterns true def
12956 1514 154 0 40 -30 0 PatternFill
13033 1514 M
stroke
12956 1514 N
154 0 V
-154 0 V
Z stroke
12956 1514 M
154 0 V
-154 0 R
154 0 V
% End plot #8
% Begin plot #9
2.000 UP
stroke
LTa
0.00 0.38 0.82 C LCb setrgbcolor
11860 153 M
[ [(Arial) 180.0 0.0 true true 0 ( )]
] -60.0 MRshow
2.000 UP
1.000 UL
LTa
0.00 0.38 0.82 C 11968 153 M
333 0 V
1403 4780 M
612 10 V
612 -4 V
612 -1 V
613 3 V
612 -2 V
612 -1 V
612 2 V
612 -1 V
612 0 V
612 1 V
612 -1 V
612 0 V
612 1 V
612 -1 V
612 0 V
612 1 V
612 -1 V
612 0 V
612 1 V
1403 4780 TriU
2015 4790 TriU
2627 4786 TriU
3239 4785 TriU
3852 4788 TriU
4464 4786 TriU
5076 4785 TriU
5688 4787 TriU
6300 4786 TriU
6912 4786 TriU
7524 4787 TriU
8136 4786 TriU
8748 4786 TriU
9360 4787 TriU
9972 4786 TriU
10584 4786 TriU
11196 4787 TriU
11808 4786 TriU
12420 4786 TriU
13032 4787 TriU
12134 153 TriU
% End plot #9
2.000 UL
LTb
LCb setrgbcolor
1.000 UP
1.000 UL
LTb
0.00 0.00 0.00 C stroke
grestore
end
showpage
%%Trailer
%%DocumentFonts: Arial
