%!PS-Adobe-2.0 EPSF-2.0
%%Title: TcpWestwood-download-rtt-75UE-90-240.eps
%%Creator: gnuplot 5.0 patchlevel 3
%%CreationDate: Thu Jun  2 10:39:42 2016
%%DocumentFonts: (atend)
%%BoundingBox: 50 50 770 302
%%EndComments
%%BeginProlog
/gnudict 256 dict def
gnudict begin
%
% The following true/false flags may be edited by hand if desired.
% The unit line width and grayscale image gamma correction may also be changed.
%
/Color true def
/Blacktext false def
/Solid false def
/Dashlength 3 def
/Landscape false def
/Level1 false def
/Level3 false def
/Rounded false def
/ClipToBoundingBox false def
/SuppressPDFMark false def
/TransparentPatterns false def
/gnulinewidth 15.000 def
/userlinewidth gnulinewidth def
/Gamma 1.0 def
/BackgroundColor {-1.000 -1.000 -1.000} def
%
/vshift -66 def
/dl1 {
  10.0 Dashlength userlinewidth gnulinewidth div mul mul mul
  Rounded { currentlinewidth 0.75 mul sub dup 0 le { pop 0.01 } if } if
} def
/dl2 {
  10.0 Dashlength userlinewidth gnulinewidth div mul mul mul
  Rounded { currentlinewidth 0.75 mul add } if
} def
/hpt_ 31.5 def
/vpt_ 31.5 def
/hpt hpt_ def
/vpt vpt_ def
/doclip {
  ClipToBoundingBox {
    newpath 50 50 moveto 770 50 lineto 770 302 lineto 50 302 lineto closepath
    clip
  } if
} def
%
% Gnuplot Prolog Version 5.1 (Oct 2015)
%
%/SuppressPDFMark true def
%
/M {moveto} bind def
/L {lineto} bind def
/R {rmoveto} bind def
/V {rlineto} bind def
/N {newpath moveto} bind def
/Z {closepath} bind def
/C {setrgbcolor} bind def
/f {rlineto fill} bind def
/g {setgray} bind def
/Gshow {show} def   % May be redefined later in the file to support UTF-8
/vpt2 vpt 2 mul def
/hpt2 hpt 2 mul def
/Lshow {currentpoint stroke M 0 vshift R 
	Blacktext {gsave 0 setgray textshow grestore} {textshow} ifelse} def
/Rshow {currentpoint stroke M dup stringwidth pop neg vshift R
	Blacktext {gsave 0 setgray textshow grestore} {textshow} ifelse} def
/Cshow {currentpoint stroke M dup stringwidth pop -2 div vshift R 
	Blacktext {gsave 0 setgray textshow grestore} {textshow} ifelse} def
/UP {dup vpt_ mul /vpt exch def hpt_ mul /hpt exch def
  /hpt2 hpt 2 mul def /vpt2 vpt 2 mul def} def
/DL {Color {setrgbcolor Solid {pop []} if 0 setdash}
 {pop pop pop 0 setgray Solid {pop []} if 0 setdash} ifelse} def
/BL {stroke userlinewidth 2 mul setlinewidth
	Rounded {1 setlinejoin 1 setlinecap} if} def
/AL {stroke userlinewidth 2 div setlinewidth
	Rounded {1 setlinejoin 1 setlinecap} if} def
/UL {dup gnulinewidth mul /userlinewidth exch def
	dup 1 lt {pop 1} if 10 mul /udl exch def} def
/PL {stroke userlinewidth setlinewidth
	Rounded {1 setlinejoin 1 setlinecap} if} def
3.8 setmiterlimit
% Classic Line colors (version 5.0)
/LCw {1 1 1} def
/LCb {0 0 0} def
/LCa {0 0 0} def
/LC0 {1 0 0} def
/LC1 {0 1 0} def
/LC2 {0 0 1} def
/LC3 {1 0 1} def
/LC4 {0 1 1} def
/LC5 {1 1 0} def
/LC6 {0 0 0} def
/LC7 {1 0.3 0} def
/LC8 {0.5 0.5 0.5} def
% Default dash patterns (version 5.0)
/LTB {BL [] LCb DL} def
/LTw {PL [] 1 setgray} def
/LTb {PL [] LCb DL} def
/LTa {AL [1 udl mul 2 udl mul] 0 setdash LCa setrgbcolor} def
/LT0 {PL [] LC0 DL} def
/LT1 {PL [2 dl1 3 dl2] LC1 DL} def
/LT2 {PL [1 dl1 1.5 dl2] LC2 DL} def
/LT3 {PL [6 dl1 2 dl2 1 dl1 2 dl2] LC3 DL} def
/LT4 {PL [1 dl1 2 dl2 6 dl1 2 dl2 1 dl1 2 dl2] LC4 DL} def
/LT5 {PL [4 dl1 2 dl2] LC5 DL} def
/LT6 {PL [1.5 dl1 1.5 dl2 1.5 dl1 1.5 dl2 1.5 dl1 6 dl2] LC6 DL} def
/LT7 {PL [3 dl1 3 dl2 1 dl1 3 dl2] LC7 DL} def
/LT8 {PL [2 dl1 2 dl2 2 dl1 6 dl2] LC8 DL} def
/SL {[] 0 setdash} def
/Pnt {stroke [] 0 setdash gsave 1 setlinecap M 0 0 V stroke grestore} def
/Dia {stroke [] 0 setdash 2 copy vpt add M
  hpt neg vpt neg V hpt vpt neg V
  hpt vpt V hpt neg vpt V closepath stroke
  Pnt} def
/Pls {stroke [] 0 setdash vpt sub M 0 vpt2 V
  currentpoint stroke M
  hpt neg vpt neg R hpt2 0 V stroke
 } def
/Box {stroke [] 0 setdash 2 copy exch hpt sub exch vpt add M
  0 vpt2 neg V hpt2 0 V 0 vpt2 V
  hpt2 neg 0 V closepath stroke
  Pnt} def
/Crs {stroke [] 0 setdash exch hpt sub exch vpt add M
  hpt2 vpt2 neg V currentpoint stroke M
  hpt2 neg 0 R hpt2 vpt2 V stroke} def
/TriU {stroke [] 0 setdash 2 copy vpt 1.12 mul add M
  hpt neg vpt -1.62 mul V
  hpt 2 mul 0 V
  hpt neg vpt 1.62 mul V closepath stroke
  Pnt} def
/Star {2 copy Pls Crs} def
/BoxF {stroke [] 0 setdash exch hpt sub exch vpt add M
  0 vpt2 neg V hpt2 0 V 0 vpt2 V
  hpt2 neg 0 V closepath fill} def
/TriUF {stroke [] 0 setdash vpt 1.12 mul add M
  hpt neg vpt -1.62 mul V
  hpt 2 mul 0 V
  hpt neg vpt 1.62 mul V closepath fill} def
/TriD {stroke [] 0 setdash 2 copy vpt 1.12 mul sub M
  hpt neg vpt 1.62 mul V
  hpt 2 mul 0 V
  hpt neg vpt -1.62 mul V closepath stroke
  Pnt} def
/TriDF {stroke [] 0 setdash vpt 1.12 mul sub M
  hpt neg vpt 1.62 mul V
  hpt 2 mul 0 V
  hpt neg vpt -1.62 mul V closepath fill} def
/DiaF {stroke [] 0 setdash vpt add M
  hpt neg vpt neg V hpt vpt neg V
  hpt vpt V hpt neg vpt V closepath fill} def
/Pent {stroke [] 0 setdash 2 copy gsave
  translate 0 hpt M 4 {72 rotate 0 hpt L} repeat
  closepath stroke grestore Pnt} def
/PentF {stroke [] 0 setdash gsave
  translate 0 hpt M 4 {72 rotate 0 hpt L} repeat
  closepath fill grestore} def
/Circle {stroke [] 0 setdash 2 copy
  hpt 0 360 arc stroke Pnt} def
/CircleF {stroke [] 0 setdash hpt 0 360 arc fill} def
/C0 {BL [] 0 setdash 2 copy moveto vpt 90 450 arc} bind def
/C1 {BL [] 0 setdash 2 copy moveto
	2 copy vpt 0 90 arc closepath fill
	vpt 0 360 arc closepath} bind def
/C2 {BL [] 0 setdash 2 copy moveto
	2 copy vpt 90 180 arc closepath fill
	vpt 0 360 arc closepath} bind def
/C3 {BL [] 0 setdash 2 copy moveto
	2 copy vpt 0 180 arc closepath fill
	vpt 0 360 arc closepath} bind def
/C4 {BL [] 0 setdash 2 copy moveto
	2 copy vpt 180 270 arc closepath fill
	vpt 0 360 arc closepath} bind def
/C5 {BL [] 0 setdash 2 copy moveto
	2 copy vpt 0 90 arc
	2 copy moveto
	2 copy vpt 180 270 arc closepath fill
	vpt 0 360 arc} bind def
/C6 {BL [] 0 setdash 2 copy moveto
	2 copy vpt 90 270 arc closepath fill
	vpt 0 360 arc closepath} bind def
/C7 {BL [] 0 setdash 2 copy moveto
	2 copy vpt 0 270 arc closepath fill
	vpt 0 360 arc closepath} bind def
/C8 {BL [] 0 setdash 2 copy moveto
	2 copy vpt 270 360 arc closepath fill
	vpt 0 360 arc closepath} bind def
/C9 {BL [] 0 setdash 2 copy moveto
	2 copy vpt 270 450 arc closepath fill
	vpt 0 360 arc closepath} bind def
/C10 {BL [] 0 setdash 2 copy 2 copy moveto vpt 270 360 arc closepath fill
	2 copy moveto
	2 copy vpt 90 180 arc closepath fill
	vpt 0 360 arc closepath} bind def
/C11 {BL [] 0 setdash 2 copy moveto
	2 copy vpt 0 180 arc closepath fill
	2 copy moveto
	2 copy vpt 270 360 arc closepath fill
	vpt 0 360 arc closepath} bind def
/C12 {BL [] 0 setdash 2 copy moveto
	2 copy vpt 180 360 arc closepath fill
	vpt 0 360 arc closepath} bind def
/C13 {BL [] 0 setdash 2 copy moveto
	2 copy vpt 0 90 arc closepath fill
	2 copy moveto
	2 copy vpt 180 360 arc closepath fill
	vpt 0 360 arc closepath} bind def
/C14 {BL [] 0 setdash 2 copy moveto
	2 copy vpt 90 360 arc closepath fill
	vpt 0 360 arc} bind def
/C15 {BL [] 0 setdash 2 copy vpt 0 360 arc closepath fill
	vpt 0 360 arc closepath} bind def
/Rec {newpath 4 2 roll moveto 1 index 0 rlineto 0 exch rlineto
	neg 0 rlineto closepath} bind def
/Square {dup Rec} bind def
/Bsquare {vpt sub exch vpt sub exch vpt2 Square} bind def
/S0 {BL [] 0 setdash 2 copy moveto 0 vpt rlineto BL Bsquare} bind def
/S1 {BL [] 0 setdash 2 copy vpt Square fill Bsquare} bind def
/S2 {BL [] 0 setdash 2 copy exch vpt sub exch vpt Square fill Bsquare} bind def
/S3 {BL [] 0 setdash 2 copy exch vpt sub exch vpt2 vpt Rec fill Bsquare} bind def
/S4 {BL [] 0 setdash 2 copy exch vpt sub exch vpt sub vpt Square fill Bsquare} bind def
/S5 {BL [] 0 setdash 2 copy 2 copy vpt Square fill
	exch vpt sub exch vpt sub vpt Square fill Bsquare} bind def
/S6 {BL [] 0 setdash 2 copy exch vpt sub exch vpt sub vpt vpt2 Rec fill Bsquare} bind def
/S7 {BL [] 0 setdash 2 copy exch vpt sub exch vpt sub vpt vpt2 Rec fill
	2 copy vpt Square fill Bsquare} bind def
/S8 {BL [] 0 setdash 2 copy vpt sub vpt Square fill Bsquare} bind def
/S9 {BL [] 0 setdash 2 copy vpt sub vpt vpt2 Rec fill Bsquare} bind def
/S10 {BL [] 0 setdash 2 copy vpt sub vpt Square fill 2 copy exch vpt sub exch vpt Square fill
	Bsquare} bind def
/S11 {BL [] 0 setdash 2 copy vpt sub vpt Square fill 2 copy exch vpt sub exch vpt2 vpt Rec fill
	Bsquare} bind def
/S12 {BL [] 0 setdash 2 copy exch vpt sub exch vpt sub vpt2 vpt Rec fill Bsquare} bind def
/S13 {BL [] 0 setdash 2 copy exch vpt sub exch vpt sub vpt2 vpt Rec fill
	2 copy vpt Square fill Bsquare} bind def
/S14 {BL [] 0 setdash 2 copy exch vpt sub exch vpt sub vpt2 vpt Rec fill
	2 copy exch vpt sub exch vpt Square fill Bsquare} bind def
/S15 {BL [] 0 setdash 2 copy Bsquare fill Bsquare} bind def
/D0 {gsave translate 45 rotate 0 0 S0 stroke grestore} bind def
/D1 {gsave translate 45 rotate 0 0 S1 stroke grestore} bind def
/D2 {gsave translate 45 rotate 0 0 S2 stroke grestore} bind def
/D3 {gsave translate 45 rotate 0 0 S3 stroke grestore} bind def
/D4 {gsave translate 45 rotate 0 0 S4 stroke grestore} bind def
/D5 {gsave translate 45 rotate 0 0 S5 stroke grestore} bind def
/D6 {gsave translate 45 rotate 0 0 S6 stroke grestore} bind def
/D7 {gsave translate 45 rotate 0 0 S7 stroke grestore} bind def
/D8 {gsave translate 45 rotate 0 0 S8 stroke grestore} bind def
/D9 {gsave translate 45 rotate 0 0 S9 stroke grestore} bind def
/D10 {gsave translate 45 rotate 0 0 S10 stroke grestore} bind def
/D11 {gsave translate 45 rotate 0 0 S11 stroke grestore} bind def
/D12 {gsave translate 45 rotate 0 0 S12 stroke grestore} bind def
/D13 {gsave translate 45 rotate 0 0 S13 stroke grestore} bind def
/D14 {gsave translate 45 rotate 0 0 S14 stroke grestore} bind def
/D15 {gsave translate 45 rotate 0 0 S15 stroke grestore} bind def
/DiaE {stroke [] 0 setdash vpt add M
  hpt neg vpt neg V hpt vpt neg V
  hpt vpt V hpt neg vpt V closepath stroke} def
/BoxE {stroke [] 0 setdash exch hpt sub exch vpt add M
  0 vpt2 neg V hpt2 0 V 0 vpt2 V
  hpt2 neg 0 V closepath stroke} def
/TriUE {stroke [] 0 setdash vpt 1.12 mul add M
  hpt neg vpt -1.62 mul V
  hpt 2 mul 0 V
  hpt neg vpt 1.62 mul V closepath stroke} def
/TriDE {stroke [] 0 setdash vpt 1.12 mul sub M
  hpt neg vpt 1.62 mul V
  hpt 2 mul 0 V
  hpt neg vpt -1.62 mul V closepath stroke} def
/PentE {stroke [] 0 setdash gsave
  translate 0 hpt M 4 {72 rotate 0 hpt L} repeat
  closepath stroke grestore} def
/CircE {stroke [] 0 setdash 
  hpt 0 360 arc stroke} def
/Opaque {gsave closepath 1 setgray fill grestore 0 setgray closepath} def
/DiaW {stroke [] 0 setdash vpt add M
  hpt neg vpt neg V hpt vpt neg V
  hpt vpt V hpt neg vpt V Opaque stroke} def
/BoxW {stroke [] 0 setdash exch hpt sub exch vpt add M
  0 vpt2 neg V hpt2 0 V 0 vpt2 V
  hpt2 neg 0 V Opaque stroke} def
/TriUW {stroke [] 0 setdash vpt 1.12 mul add M
  hpt neg vpt -1.62 mul V
  hpt 2 mul 0 V
  hpt neg vpt 1.62 mul V Opaque stroke} def
/TriDW {stroke [] 0 setdash vpt 1.12 mul sub M
  hpt neg vpt 1.62 mul V
  hpt 2 mul 0 V
  hpt neg vpt -1.62 mul V Opaque stroke} def
/PentW {stroke [] 0 setdash gsave
  translate 0 hpt M 4 {72 rotate 0 hpt L} repeat
  Opaque stroke grestore} def
/CircW {stroke [] 0 setdash 
  hpt 0 360 arc Opaque stroke} def
/BoxFill {gsave Rec 1 setgray fill grestore} def
/Density {
  /Fillden exch def
  currentrgbcolor
  /ColB exch def /ColG exch def /ColR exch def
  /ColR ColR Fillden mul Fillden sub 1 add def
  /ColG ColG Fillden mul Fillden sub 1 add def
  /ColB ColB Fillden mul Fillden sub 1 add def
  ColR ColG ColB setrgbcolor} def
/BoxColFill {gsave Rec PolyFill} def
/PolyFill {gsave Density fill grestore grestore} def
/h {rlineto rlineto rlineto gsave closepath fill grestore} bind def
%
% PostScript Level 1 Pattern Fill routine for rectangles
% Usage: x y w h s a XX PatternFill
%	x,y = lower left corner of box to be filled
%	w,h = width and height of box
%	  a = angle in degrees between lines and x-axis
%	 XX = 0/1 for no/yes cross-hatch
%
/PatternFill {gsave /PFa [ 9 2 roll ] def
  PFa 0 get PFa 2 get 2 div add PFa 1 get PFa 3 get 2 div add translate
  PFa 2 get -2 div PFa 3 get -2 div PFa 2 get PFa 3 get Rec
  TransparentPatterns {} {gsave 1 setgray fill grestore} ifelse
  clip
  currentlinewidth 0.5 mul setlinewidth
  /PFs PFa 2 get dup mul PFa 3 get dup mul add sqrt def
  0 0 M PFa 5 get rotate PFs -2 div dup translate
  0 1 PFs PFa 4 get div 1 add floor cvi
	{PFa 4 get mul 0 M 0 PFs V} for
  0 PFa 6 get ne {
	0 1 PFs PFa 4 get div 1 add floor cvi
	{PFa 4 get mul 0 2 1 roll M PFs 0 V} for
 } if
  stroke grestore} def
%
/languagelevel where
 {pop languagelevel} {1} ifelse
dup 2 lt
	{/InterpretLevel1 true def
	 /InterpretLevel3 false def}
	{/InterpretLevel1 Level1 def
	 2 gt
	    {/InterpretLevel3 Level3 def}
	    {/InterpretLevel3 false def}
	 ifelse }
 ifelse
%
% PostScript level 2 pattern fill definitions
%
/Level2PatternFill {
/Tile8x8 {/PaintType 2 /PatternType 1 /TilingType 1 /BBox [0 0 8 8] /XStep 8 /YStep 8}
	bind def
/KeepColor {currentrgbcolor [/Pattern /DeviceRGB] setcolorspace} bind def
<< Tile8x8
 /PaintProc {0.5 setlinewidth pop 0 0 M 8 8 L 0 8 M 8 0 L stroke} 
>> matrix makepattern
/Pat1 exch def
<< Tile8x8
 /PaintProc {0.5 setlinewidth pop 0 0 M 8 8 L 0 8 M 8 0 L stroke
	0 4 M 4 8 L 8 4 L 4 0 L 0 4 L stroke}
>> matrix makepattern
/Pat2 exch def
<< Tile8x8
 /PaintProc {0.5 setlinewidth pop 0 0 M 0 8 L
	8 8 L 8 0 L 0 0 L fill}
>> matrix makepattern
/Pat3 exch def
<< Tile8x8
 /PaintProc {0.5 setlinewidth pop -4 8 M 8 -4 L
	0 12 M 12 0 L stroke}
>> matrix makepattern
/Pat4 exch def
<< Tile8x8
 /PaintProc {0.5 setlinewidth pop -4 0 M 8 12 L
	0 -4 M 12 8 L stroke}
>> matrix makepattern
/Pat5 exch def
<< Tile8x8
 /PaintProc {0.5 setlinewidth pop -2 8 M 4 -4 L
	0 12 M 8 -4 L 4 12 M 10 0 L stroke}
>> matrix makepattern
/Pat6 exch def
<< Tile8x8
 /PaintProc {0.5 setlinewidth pop -2 0 M 4 12 L
	0 -4 M 8 12 L 4 -4 M 10 8 L stroke}
>> matrix makepattern
/Pat7 exch def
<< Tile8x8
 /PaintProc {0.5 setlinewidth pop 8 -2 M -4 4 L
	12 0 M -4 8 L 12 4 M 0 10 L stroke}
>> matrix makepattern
/Pat8 exch def
<< Tile8x8
 /PaintProc {0.5 setlinewidth pop 0 -2 M 12 4 L
	-4 0 M 12 8 L -4 4 M 8 10 L stroke}
>> matrix makepattern
/Pat9 exch def
/Pattern1 {PatternBgnd KeepColor Pat1 setpattern} bind def
/Pattern2 {PatternBgnd KeepColor Pat2 setpattern} bind def
/Pattern3 {PatternBgnd KeepColor Pat3 setpattern} bind def
/Pattern4 {PatternBgnd KeepColor Landscape {Pat5} {Pat4} ifelse setpattern} bind def
/Pattern5 {PatternBgnd KeepColor Landscape {Pat4} {Pat5} ifelse setpattern} bind def
/Pattern6 {PatternBgnd KeepColor Landscape {Pat9} {Pat6} ifelse setpattern} bind def
/Pattern7 {PatternBgnd KeepColor Landscape {Pat8} {Pat7} ifelse setpattern} bind def
} def
%
%
%End of PostScript Level 2 code
%
/PatternBgnd {
  TransparentPatterns {} {gsave 1 setgray fill grestore} ifelse
} def
%
% Substitute for Level 2 pattern fill codes with
% grayscale if Level 2 support is not selected.
%
/Level1PatternFill {
/Pattern1 {0.250 Density} bind def
/Pattern2 {0.500 Density} bind def
/Pattern3 {0.750 Density} bind def
/Pattern4 {0.125 Density} bind def
/Pattern5 {0.375 Density} bind def
/Pattern6 {0.625 Density} bind def
/Pattern7 {0.875 Density} bind def
} def
%
% Now test for support of Level 2 code
%
Level1 {Level1PatternFill} {Level2PatternFill} ifelse
%
/Symbol-Oblique /Symbol findfont [1 0 .167 1 0 0] makefont
dup length dict begin {1 index /FID eq {pop pop} {def} ifelse} forall
currentdict end definefont pop
%
/MFshow {
   { dup 5 get 3 ge
     { 5 get 3 eq {gsave} {grestore} ifelse }
     {dup dup 0 get findfont exch 1 get scalefont setfont
     [ currentpoint ] exch dup 2 get 0 exch R dup 5 get 2 ne {dup dup 6
     get exch 4 get {textshow} {stringwidth pop 0 R} ifelse }if dup 5 get 0 eq
     {dup 3 get {2 get neg 0 exch R pop} {pop aload pop M} ifelse} {dup 5
     get 1 eq {dup 2 get exch dup 3 get exch 6 get stringwidth pop -2 div
     dup 0 R} {dup 6 get stringwidth pop -2 div 0 R 6 get
     textshow 2 index {aload pop M neg 3 -1 roll neg R pop pop} {pop pop pop
     pop aload pop M} ifelse }ifelse }ifelse }
     ifelse }
   forall} def
/Gswidth {dup type /stringtype eq {stringwidth} {pop (n) stringwidth} ifelse} def
/MFwidth {0 exch { dup 5 get 3 ge { 5 get 3 eq { 0 } { pop } ifelse }
 {dup 3 get{dup dup 0 get findfont exch 1 get scalefont setfont
     6 get Gswidth pop add} {pop} ifelse} ifelse} forall} def
/MLshow { currentpoint stroke M
  0 exch R
  Blacktext {gsave 0 setgray MFshow grestore} {MFshow} ifelse } bind def
/MRshow { currentpoint stroke M
  exch dup MFwidth neg 3 -1 roll R
  Blacktext {gsave 0 setgray MFshow grestore} {MFshow} ifelse } bind def
/MCshow { currentpoint stroke M
  exch dup MFwidth -2 div 3 -1 roll R
  Blacktext {gsave 0 setgray MFshow grestore} {MFshow} ifelse } bind def
/XYsave    { [( ) 1 2 true false 3 ()] } bind def
/XYrestore { [( ) 1 2 true false 4 ()] } bind def
Level1 SuppressPDFMark or 
{} {
/SDict 10 dict def
systemdict /pdfmark known not {
  userdict /pdfmark systemdict /cleartomark get put
} if
SDict begin [
  /Title (TcpWestwood-download-rtt-75UE-90-240.eps)
  /Subject (gnuplot plot)
  /Creator (gnuplot 5.0 patchlevel 3)
  /Author (nat)
%  /Producer (gnuplot)
%  /Keywords ()
  /CreationDate (Thu Jun  2 10:39:42 2016)
  /DOCINFO pdfmark
end
} ifelse
%
% Support for boxed text - Ethan A Merritt May 2005
%
/InitTextBox { userdict /TBy2 3 -1 roll put userdict /TBx2 3 -1 roll put
           userdict /TBy1 3 -1 roll put userdict /TBx1 3 -1 roll put
	   /Boxing true def } def
/ExtendTextBox { Boxing
    { gsave dup false charpath pathbbox
      dup TBy2 gt {userdict /TBy2 3 -1 roll put} {pop} ifelse
      dup TBx2 gt {userdict /TBx2 3 -1 roll put} {pop} ifelse
      dup TBy1 lt {userdict /TBy1 3 -1 roll put} {pop} ifelse
      dup TBx1 lt {userdict /TBx1 3 -1 roll put} {pop} ifelse
      grestore } if } def
/PopTextBox { newpath TBx1 TBxmargin sub TBy1 TBymargin sub M
               TBx1 TBxmargin sub TBy2 TBymargin add L
	       TBx2 TBxmargin add TBy2 TBymargin add L
	       TBx2 TBxmargin add TBy1 TBymargin sub L closepath } def
/DrawTextBox { PopTextBox stroke /Boxing false def} def
/FillTextBox { gsave PopTextBox 1 1 1 setrgbcolor fill grestore /Boxing false def} def
0 0 0 0 InitTextBox
/TBxmargin 20 def
/TBymargin 20 def
/Boxing false def
/textshow { ExtendTextBox Gshow } def
%
% redundant definitions for compatibility with prologue.ps older than 5.0.2
/LTB {BL [] LCb DL} def
/LTb {PL [] LCb DL} def
end
%%EndProlog
%%Page: 1 1
gnudict begin
gsave
doclip
50 50 translate
0.050 0.050 scale
0 setgray
newpath
(Arial) findfont 200 scalefont setfont
BackgroundColor 0 lt 3 1 roll 0 lt exch 0 lt or or not {BackgroundColor C 1.000 0 0 14400.00 5040.00 BoxColFill} if
1.000 UL
LTb
0.00 0.00 0.00 C 0.500 UL
LTa
0.50 0.50 0.50 C 980 1000 M
12139 0 V
stroke
1.000 UL
LTb
0.00 0.00 0.00 C 980 1000 M
63 0 V
stroke
860 1000 M
[ [(Arial) 200.0 0.0 true true 0 ( 40)]
] -66.7 MRshow
1.000 UL
LTb
0.00 0.00 0.00 C 0.500 UL
LTa
0.50 0.50 0.50 C 980 1633 M
12139 0 V
stroke
1.000 UL
LTb
0.00 0.00 0.00 C 980 1633 M
63 0 V
stroke
860 1633 M
[ [(Arial) 200.0 0.0 true true 0 ( 60)]
] -66.7 MRshow
1.000 UL
LTb
0.00 0.00 0.00 C 0.500 UL
LTa
0.50 0.50 0.50 C 980 2266 M
12139 0 V
stroke
1.000 UL
LTb
0.00 0.00 0.00 C 980 2266 M
63 0 V
stroke
860 2266 M
[ [(Arial) 200.0 0.0 true true 0 ( 80)]
] -66.7 MRshow
1.000 UL
LTb
0.00 0.00 0.00 C 0.500 UL
LTa
0.50 0.50 0.50 C 980 2900 M
12139 0 V
stroke
1.000 UL
LTb
0.00 0.00 0.00 C 980 2900 M
63 0 V
stroke
860 2900 M
[ [(Arial) 200.0 0.0 true true 0 ( 100)]
] -66.7 MRshow
1.000 UL
LTb
0.00 0.00 0.00 C 0.500 UL
LTa
0.50 0.50 0.50 C 980 3533 M
12139 0 V
stroke
1.000 UL
LTb
0.00 0.00 0.00 C 980 3533 M
63 0 V
stroke
860 3533 M
[ [(Arial) 200.0 0.0 true true 0 ( 120)]
] -66.7 MRshow
1.000 UL
LTb
0.00 0.00 0.00 C 0.500 UL
LTa
0.50 0.50 0.50 C 980 4166 M
12139 0 V
stroke
1.000 UL
LTb
0.00 0.00 0.00 C 980 4166 M
63 0 V
stroke
860 4166 M
[ [(Arial) 200.0 0.0 true true 0 ( 140)]
] -66.7 MRshow
1.000 UL
LTb
0.00 0.00 0.00 C 0.500 UL
LTa
0.50 0.50 0.50 C 980 4799 M
12139 0 V
stroke
1.000 UL
LTb
0.00 0.00 0.00 C 980 4799 M
63 0 V
stroke
860 4799 M
[ [(Arial) 200.0 0.0 true true 0 ( 160)]
] -66.7 MRshow
1.000 UL
LTb
0.00 0.00 0.00 C 0.500 UL
LTa
0.50 0.50 0.50 C 1359 1000 M
0 3799 V
stroke
1.000 UL
LTb
0.00 0.00 0.00 C 1359 1000 M
0 63 V
0 3736 R
0 -63 V
stroke
1359 800 M
[ [(Arial) 200.0 0.0 true true 0 ( 270)]
] -66.7 MCshow
1.000 UL
LTb
0.00 0.00 0.00 C 0.500 UL
LTa
0.50 0.50 0.50 C 2118 1000 M
0 3799 V
stroke
1.000 UL
LTb
0.00 0.00 0.00 C 2118 1000 M
0 63 V
0 3736 R
0 -63 V
stroke
2118 800 M
[ [(Arial) 200.0 0.0 true true 0 ( 300)]
] -66.7 MCshow
1.000 UL
LTb
0.00 0.00 0.00 C 0.500 UL
LTa
0.50 0.50 0.50 C 2877 1000 M
0 3799 V
stroke
1.000 UL
LTb
0.00 0.00 0.00 C 2877 1000 M
0 63 V
0 3736 R
0 -63 V
stroke
2877 800 M
[ [(Arial) 200.0 0.0 true true 0 ( 330)]
] -66.7 MCshow
1.000 UL
LTb
0.00 0.00 0.00 C 0.500 UL
LTa
0.50 0.50 0.50 C 3635 1000 M
0 3799 V
stroke
1.000 UL
LTb
0.00 0.00 0.00 C 3635 1000 M
0 63 V
0 3736 R
0 -63 V
stroke
3635 800 M
[ [(Arial) 200.0 0.0 true true 0 ( 360)]
] -66.7 MCshow
1.000 UL
LTb
0.00 0.00 0.00 C 0.500 UL
LTa
0.50 0.50 0.50 C 4394 1000 M
0 3799 V
stroke
1.000 UL
LTb
0.00 0.00 0.00 C 4394 1000 M
0 63 V
0 3736 R
0 -63 V
stroke
4394 800 M
[ [(Arial) 200.0 0.0 true true 0 ( 390)]
] -66.7 MCshow
1.000 UL
LTb
0.00 0.00 0.00 C 0.500 UL
LTa
0.50 0.50 0.50 C 5153 1000 M
0 3799 V
stroke
1.000 UL
LTb
0.00 0.00 0.00 C 5153 1000 M
0 63 V
0 3736 R
0 -63 V
stroke
5153 800 M
[ [(Arial) 200.0 0.0 true true 0 ( 420)]
] -66.7 MCshow
1.000 UL
LTb
0.00 0.00 0.00 C 0.500 UL
LTa
0.50 0.50 0.50 C 5911 1000 M
0 3799 V
stroke
1.000 UL
LTb
0.00 0.00 0.00 C 5911 1000 M
0 63 V
0 3736 R
0 -63 V
stroke
5911 800 M
[ [(Arial) 200.0 0.0 true true 0 ( 450)]
] -66.7 MCshow
1.000 UL
LTb
0.00 0.00 0.00 C 0.500 UL
LTa
0.50 0.50 0.50 C 6670 1000 M
0 3799 V
stroke
1.000 UL
LTb
0.00 0.00 0.00 C 6670 1000 M
0 63 V
0 3736 R
0 -63 V
stroke
6670 800 M
[ [(Arial) 200.0 0.0 true true 0 ( 480)]
] -66.7 MCshow
1.000 UL
LTb
0.00 0.00 0.00 C 0.500 UL
LTa
0.50 0.50 0.50 C 7429 1000 M
0 3799 V
stroke
1.000 UL
LTb
0.00 0.00 0.00 C 7429 1000 M
0 63 V
0 3736 R
0 -63 V
stroke
7429 800 M
[ [(Arial) 200.0 0.0 true true 0 ( 510)]
] -66.7 MCshow
1.000 UL
LTb
0.00 0.00 0.00 C 0.500 UL
LTa
0.50 0.50 0.50 C 8188 1000 M
0 3799 V
stroke
1.000 UL
LTb
0.00 0.00 0.00 C 8188 1000 M
0 63 V
0 3736 R
0 -63 V
stroke
8188 800 M
[ [(Arial) 200.0 0.0 true true 0 ( 540)]
] -66.7 MCshow
1.000 UL
LTb
0.00 0.00 0.00 C 0.500 UL
LTa
0.50 0.50 0.50 C 8946 1000 M
0 3799 V
stroke
1.000 UL
LTb
0.00 0.00 0.00 C 8946 1000 M
0 63 V
0 3736 R
0 -63 V
stroke
8946 800 M
[ [(Arial) 200.0 0.0 true true 0 ( 570)]
] -66.7 MCshow
1.000 UL
LTb
0.00 0.00 0.00 C 0.500 UL
LTa
0.50 0.50 0.50 C 9705 1000 M
0 3799 V
stroke
1.000 UL
LTb
0.00 0.00 0.00 C 9705 1000 M
0 63 V
0 3736 R
0 -63 V
stroke
9705 800 M
[ [(Arial) 200.0 0.0 true true 0 ( 600)]
] -66.7 MCshow
1.000 UL
LTb
0.00 0.00 0.00 C 0.500 UL
LTa
0.50 0.50 0.50 C 10464 1000 M
0 3799 V
stroke
1.000 UL
LTb
0.00 0.00 0.00 C 10464 1000 M
0 63 V
0 3736 R
0 -63 V
stroke
10464 800 M
[ [(Arial) 200.0 0.0 true true 0 ( 630)]
] -66.7 MCshow
1.000 UL
LTb
0.00 0.00 0.00 C 0.500 UL
LTa
0.50 0.50 0.50 C 11222 1000 M
0 3799 V
stroke
1.000 UL
LTb
0.00 0.00 0.00 C 11222 1000 M
0 63 V
0 3736 R
0 -63 V
stroke
11222 800 M
[ [(Arial) 200.0 0.0 true true 0 ( 660)]
] -66.7 MCshow
1.000 UL
LTb
0.00 0.00 0.00 C 0.500 UL
LTa
0.50 0.50 0.50 C 11981 1000 M
0 3799 V
stroke
1.000 UL
LTb
0.00 0.00 0.00 C 11981 1000 M
0 63 V
0 3736 R
0 -63 V
stroke
11981 800 M
[ [(Arial) 200.0 0.0 true true 0 ( 690)]
] -66.7 MCshow
1.000 UL
LTb
0.00 0.00 0.00 C 0.500 UL
LTa
0.50 0.50 0.50 C 12740 1000 M
0 3799 V
stroke
1.000 UL
LTb
0.00 0.00 0.00 C 12740 1000 M
0 63 V
0 3736 R
0 -63 V
stroke
12740 800 M
[ [(Arial) 200.0 0.0 true true 0 ( 720)]
] -66.7 MCshow
1.000 UL
LTb
0.00 0.00 0.00 C 13119 1000 M
-63 0 V
stroke
13239 1000 M
[ [(Arial) 200.0 0.0 true true 0 ( 0)]
] -66.7 MLshow
1.000 UL
LTb
0.00 0.00 0.00 C 13119 1760 M
-63 0 V
stroke
13239 1760 M
[ [(Arial) 200.0 0.0 true true 0 ( 20)]
] -66.7 MLshow
1.000 UL
LTb
0.00 0.00 0.00 C 13119 2520 M
-63 0 V
stroke
13239 2520 M
[ [(Arial) 200.0 0.0 true true 0 ( 40)]
] -66.7 MLshow
1.000 UL
LTb
0.00 0.00 0.00 C 13119 3279 M
-63 0 V
stroke
13239 3279 M
[ [(Arial) 200.0 0.0 true true 0 ( 60)]
] -66.7 MLshow
1.000 UL
LTb
0.00 0.00 0.00 C 13119 4039 M
-63 0 V
stroke
13239 4039 M
[ [(Arial) 200.0 0.0 true true 0 ( 80)]
] -66.7 MLshow
1.000 UL
LTb
0.00 0.00 0.00 C 13119 4799 M
-63 0 V
stroke
13239 4799 M
[ [(Arial) 200.0 0.0 true true 0 ( 100)]
] -66.7 MLshow
1.000 UL
LTb
0.00 0.00 0.00 C 1.000 UL
LTB
0.00 0.00 0.00 C 980 4799 M
0 -3799 V
12139 0 V
0 3799 R
980 4799 M
1.000 UP
stroke
LTb
0.00 0.00 0.00 C LCb setrgbcolor
160 2899 M
currentpoint gsave translate -270 rotate 0 0 moveto
[ [(Arial) 200.0 0.0 true true 0 (RTT \(ms\))]
] -66.7 MCshow
grestore
LTb
LCb setrgbcolor
13938 2899 M
currentpoint gsave translate -270 rotate 0 0 moveto
[ [(Arial) 200.0 0.0 true true 0 (TCP delivery ratio [%])]
] -66.7 MCshow
grestore
LTb
LCb setrgbcolor
7049 500 M
[ [(Arial) 200.0 0.0 true true 0 (Local backhaul traffic traffic \(Mb/s\))]
] -66.7 MCshow
LTb
% Begin plot #1
1.000 UL
LTb
0.60 0.60 0.00 C LCb setrgbcolor
4714 333 M
[ [(Arial) 180.0 0.0 true true 0 (RTT      :   olsr)]
] -60.0 MRshow
1.000 UL
LTb
0.60 0.60 0.00 C 4822 288 333 90 80 -45 0 PatternFill
4822 288 N
333 0 V
0 90 V
-333 0 V
0 -90 V
Z stroke
1.000 UL
LTb
0.60 0.60 0.00 C 1094 1286 152 440 80 -45 0 PatternFill
1170 1220 M
0 66 V
0 440 R
0 1179 V
stroke
1094 1286 N
152 0 V
0 440 V
-152 0 V
0 -440 V
Z stroke
1094 2905 M
152 0 V
1094 1220 M
152 0 V
stroke
1852 1288 152 450 80 -45 0 PatternFill
1928 1221 M
0 67 V
0 450 R
0 1155 V
stroke
1852 1288 N
152 0 V
0 450 V
-152 0 V
0 -450 V
Z stroke
1852 2893 M
152 0 V
1852 1221 M
152 0 V
stroke
2611 1277 152 427 80 -45 0 PatternFill
2687 1210 M
0 67 V
0 427 R
0 1197 V
stroke
2611 1277 N
152 0 V
0 427 V
-152 0 V
0 -427 V
Z stroke
2611 2901 M
152 0 V
2611 1210 M
152 0 V
stroke
3370 1284 152 419 80 -45 0 PatternFill
3446 1216 M
0 68 V
0 419 R
0 1130 V
stroke
3370 1284 N
152 0 V
0 419 V
-152 0 V
0 -419 V
Z stroke
3370 2833 M
152 0 V
3370 1216 M
152 0 V
stroke
4129 1287 152 474 80 -45 0 PatternFill
4205 1221 M
0 66 V
0 474 R
0 1208 V
stroke
4129 1287 N
152 0 V
0 474 V
-152 0 V
0 -474 V
Z stroke
4129 2969 M
152 0 V
4129 1221 M
152 0 V
stroke
4887 1285 152 416 80 -45 0 PatternFill
4963 1221 M
0 64 V
0 416 R
0 1086 V
stroke
4887 1285 N
152 0 V
0 416 V
-152 0 V
0 -416 V
Z stroke
4887 2787 M
152 0 V
4887 1221 M
152 0 V
stroke
5646 1272 152 385 80 -45 0 PatternFill
5722 1212 M
0 60 V
0 385 R
0 1057 V
stroke
5646 1272 N
152 0 V
0 385 V
-152 0 V
0 -385 V
Z stroke
5646 2714 M
152 0 V
5646 1212 M
152 0 V
stroke
6405 1283 152 395 80 -45 0 PatternFill
6481 1215 M
0 68 V
0 395 R
0 1210 V
stroke
6405 1283 N
152 0 V
0 395 V
-152 0 V
0 -395 V
Z stroke
6405 2888 M
152 0 V
6405 1215 M
152 0 V
stroke
7163 1287 152 438 80 -45 0 PatternFill
7239 1220 M
0 67 V
0 438 R
0 1172 V
stroke
7163 1287 N
152 0 V
0 438 V
-152 0 V
0 -438 V
Z stroke
7163 2897 M
152 0 V
7163 1220 M
152 0 V
stroke
7922 1281 152 395 80 -45 0 PatternFill
7998 1214 M
0 67 V
0 395 R
0 1146 V
stroke
7922 1281 N
152 0 V
0 395 V
-152 0 V
0 -395 V
Z stroke
7922 2822 M
152 0 V
7922 1214 M
152 0 V
stroke
8681 1281 152 437 80 -45 0 PatternFill
8757 1214 M
0 67 V
0 437 R
0 1150 V
stroke
8681 1281 N
152 0 V
0 437 V
-152 0 V
0 -437 V
Z stroke
8681 2868 M
152 0 V
8681 1214 M
152 0 V
stroke
9439 1286 152 416 80 -45 0 PatternFill
9515 1213 M
0 73 V
0 416 R
0 1199 V
stroke
9439 1286 N
152 0 V
0 416 V
-152 0 V
0 -416 V
Z stroke
9439 2901 M
152 0 V
9439 1213 M
152 0 V
stroke
10198 1275 152 405 80 -45 0 PatternFill
10274 1211 M
0 64 V
0 405 R
0 1137 V
stroke
10198 1275 N
152 0 V
0 405 V
-152 0 V
0 -405 V
Z stroke
10198 2817 M
152 0 V
10198 1211 M
152 0 V
stroke
10957 1281 152 416 80 -45 0 PatternFill
11033 1215 M
0 66 V
0 416 R
0 1080 V
stroke
10957 1281 N
152 0 V
0 416 V
-152 0 V
0 -416 V
Z stroke
10957 2777 M
152 0 V
10957 1215 M
152 0 V
stroke
11715 1285 152 419 80 -45 0 PatternFill
11791 1221 M
0 64 V
0 419 R
0 1186 V
stroke
11715 1285 N
152 0 V
0 419 V
-152 0 V
0 -419 V
Z stroke
11715 2890 M
152 0 V
11715 1221 M
152 0 V
stroke
12474 1281 152 385 80 -45 0 PatternFill
12550 1214 M
0 67 V
0 385 R
0 1163 V
stroke
12474 1281 N
152 0 V
0 385 V
-152 0 V
0 -385 V
Z stroke
12474 2829 M
152 0 V
12474 1214 M
152 0 V
% End plot #1
% Begin plot #2
stroke
LTb
LCb setrgbcolor

 /TransparentPatterns true def
1094 1614 152 0 40 30 0 PatternFill
1170 1614 M
stroke
1094 1614 N
152 0 V
-152 0 V
Z stroke
1094 1614 M
152 0 V
-152 0 R
152 0 V
stroke

 /TransparentPatterns true def
1852 1616 152 0 40 30 0 PatternFill
1928 1616 M
stroke
1852 1616 N
152 0 V
-152 0 V
Z stroke
1852 1616 M
152 0 V
-152 0 R
152 0 V
stroke

 /TransparentPatterns true def
2611 1601 152 0 40 30 0 PatternFill
2687 1601 M
stroke
2611 1601 N
152 0 V
-152 0 V
Z stroke
2611 1601 M
152 0 V
-152 0 R
152 0 V
stroke

 /TransparentPatterns true def
3370 1601 152 0 40 30 0 PatternFill
3446 1601 M
stroke
3370 1601 N
152 0 V
-152 0 V
Z stroke
3370 1601 M
152 0 V
-152 0 R
152 0 V
stroke

 /TransparentPatterns true def
4129 1628 152 0 40 30 0 PatternFill
4205 1628 M
stroke
4129 1628 N
152 0 V
-152 0 V
Z stroke
4129 1628 M
152 0 V
-152 0 R
152 0 V
stroke

 /TransparentPatterns true def
4887 1595 152 0 40 30 0 PatternFill
4963 1595 M
stroke
4887 1595 N
152 0 V
-152 0 V
Z stroke
4887 1595 M
152 0 V
-152 0 R
152 0 V
stroke

 /TransparentPatterns true def
5646 1569 152 0 40 30 0 PatternFill
5722 1569 M
stroke
5646 1569 N
152 0 V
-152 0 V
Z stroke
5646 1569 M
152 0 V
-152 0 R
152 0 V
stroke

 /TransparentPatterns true def
6405 1595 152 0 40 30 0 PatternFill
6481 1595 M
stroke
6405 1595 N
152 0 V
-152 0 V
Z stroke
6405 1595 M
152 0 V
-152 0 R
152 0 V
stroke

 /TransparentPatterns true def
7163 1613 152 0 40 30 0 PatternFill
7239 1613 M
stroke
7163 1613 N
152 0 V
-152 0 V
Z stroke
7163 1613 M
152 0 V
-152 0 R
152 0 V
stroke

 /TransparentPatterns true def
7922 1590 152 0 40 30 0 PatternFill
7998 1590 M
stroke
7922 1590 N
152 0 V
-152 0 V
Z stroke
7922 1590 M
152 0 V
-152 0 R
152 0 V
stroke

 /TransparentPatterns true def
8681 1605 152 0 40 30 0 PatternFill
8757 1605 M
stroke
8681 1605 N
152 0 V
-152 0 V
Z stroke
8681 1605 M
152 0 V
-152 0 R
152 0 V
stroke

 /TransparentPatterns true def
9439 1603 152 0 40 30 0 PatternFill
9515 1603 M
stroke
9439 1603 N
152 0 V
-152 0 V
Z stroke
9439 1603 M
152 0 V
-152 0 R
152 0 V
stroke

 /TransparentPatterns true def
10198 1584 152 0 40 30 0 PatternFill
10274 1584 M
stroke
10198 1584 N
152 0 V
-152 0 V
Z stroke
10198 1584 M
152 0 V
-152 0 R
152 0 V
stroke

 /TransparentPatterns true def
10957 1590 152 0 40 30 0 PatternFill
11033 1590 M
stroke
10957 1590 N
152 0 V
-152 0 V
Z stroke
10957 1590 M
152 0 V
-152 0 R
152 0 V
stroke

 /TransparentPatterns true def
11715 1608 152 0 40 30 0 PatternFill
11791 1608 M
stroke
11715 1608 N
152 0 V
-152 0 V
Z stroke
11715 1608 M
152 0 V
-152 0 R
152 0 V
stroke

 /TransparentPatterns true def
12474 1587 152 0 40 30 0 PatternFill
12550 1587 M
stroke
12474 1587 N
152 0 V
-152 0 V
Z stroke
12474 1587 M
152 0 V
-152 0 R
152 0 V
% End plot #2
% Begin plot #3
2.000 UP
stroke
LTa
0.60 0.60 0.00 C LCb setrgbcolor
4714 153 M
[ [(Arial) 180.0 0.0 true true 0 (app. received bytes :         )]
] -60.0 MRshow
2.000 UP
1.000 UL
LTa
0.60 0.60 0.00 C 4822 153 M
333 0 V
980 4750 M
190 0 V
758 0 V
759 0 V
759 0 V
758 0 V
759 0 V
759 0 V
758 0 V
759 0 V
759 0 V
759 0 V
758 0 V
759 0 V
759 0 V
758 0 V
759 0 V
569 0 V
1170 4750 Box
1928 4750 Box
2687 4750 Box
3446 4750 Box
4204 4750 Box
4963 4750 Box
5722 4750 Box
6480 4750 Box
7239 4750 Box
7998 4750 Box
8757 4750 Box
9515 4750 Box
10274 4750 Box
11033 4750 Box
11791 4750 Box
12550 4750 Box
4988 153 Box
% End plot #3
% Begin plot #4
1.000 UL
LTb
0.00 0.00 0.63 C LCb setrgbcolor
8287 333 M
[ [(Arial) 180.0 0.0 true true 0 (per-packet)]
] -60.0 MRshow
1.000 UL
LTb
0.00 0.00 0.63 C 8395 288 333 90 80 45 0 PatternFill
8395 288 N
333 0 V
0 90 V
-333 0 V
0 -90 V
Z stroke
1.000 UL
LTb
0.00 0.00 0.63 C 1283 1297 152 464 80 45 0 PatternFill
1359 1226 M
0 71 V
0 464 R
0 1233 V
stroke
1283 1297 N
152 0 V
0 464 V
-152 0 V
0 -464 V
Z stroke
1283 2994 M
152 0 V
1283 1226 M
152 0 V
stroke
2042 1296 152 535 80 45 0 PatternFill
2118 1226 M
0 70 V
0 535 R
0 1287 V
stroke
2042 1296 N
152 0 V
0 535 V
-152 0 V
0 -535 V
Z stroke
2042 3118 M
152 0 V
2042 1226 M
152 0 V
stroke
2801 1300 152 488 80 45 0 PatternFill
2877 1226 M
0 74 V
0 488 R
0 1268 V
stroke
2801 1300 N
152 0 V
0 488 V
-152 0 V
0 -488 V
Z stroke
2801 3056 M
152 0 V
2801 1226 M
152 0 V
stroke
3560 1301 152 512 80 45 0 PatternFill
3636 1226 M
0 75 V
0 512 R
0 1287 V
stroke
3560 1301 N
152 0 V
0 512 V
-152 0 V
0 -512 V
Z stroke
3560 3100 M
152 0 V
3560 1226 M
152 0 V
stroke
4318 1297 152 487 80 45 0 PatternFill
4394 1225 M
0 72 V
0 487 R
0 1238 V
stroke
4318 1297 N
152 0 V
0 487 V
-152 0 V
0 -487 V
Z stroke
4318 3022 M
152 0 V
4318 1225 M
152 0 V
stroke
5077 1304 152 561 80 45 0 PatternFill
5153 1229 M
0 75 V
0 561 R
0 1082 V
stroke
5077 1304 N
152 0 V
0 561 V
-152 0 V
0 -561 V
Z stroke
5077 2947 M
152 0 V
5077 1229 M
152 0 V
stroke
5836 1298 152 486 80 45 0 PatternFill
5912 1228 M
0 70 V
0 486 R
0 1325 V
stroke
5836 1298 N
152 0 V
0 486 V
-152 0 V
0 -486 V
Z stroke
5836 3109 M
152 0 V
5836 1228 M
152 0 V
stroke
6594 1301 152 544 80 45 0 PatternFill
6670 1227 M
0 74 V
0 544 R
0 1334 V
stroke
6594 1301 N
152 0 V
0 544 V
-152 0 V
0 -544 V
Z stroke
6594 3179 M
152 0 V
6594 1227 M
152 0 V
stroke
7353 1300 152 505 80 45 0 PatternFill
7429 1229 M
0 71 V
0 505 R
0 1240 V
stroke
7353 1300 N
152 0 V
0 505 V
-152 0 V
0 -505 V
Z stroke
7353 3045 M
152 0 V
7353 1229 M
152 0 V
stroke
8112 1300 152 546 80 45 0 PatternFill
8188 1227 M
0 73 V
0 546 R
0 1196 V
stroke
8112 1300 N
152 0 V
0 546 V
-152 0 V
0 -546 V
Z stroke
8112 3042 M
152 0 V
8112 1227 M
152 0 V
stroke
8870 1307 152 505 80 45 0 PatternFill
8946 1233 M
0 74 V
0 505 R
0 1188 V
stroke
8870 1307 N
152 0 V
0 505 V
-152 0 V
0 -505 V
Z stroke
8870 3000 M
152 0 V
8870 1233 M
152 0 V
stroke
9629 1301 152 542 80 45 0 PatternFill
9705 1228 M
0 73 V
0 542 R
0 1300 V
stroke
9629 1301 N
152 0 V
0 542 V
-152 0 V
0 -542 V
Z stroke
9629 3143 M
152 0 V
9629 1228 M
152 0 V
stroke
10388 1303 152 493 80 45 0 PatternFill
10464 1228 M
0 75 V
0 493 R
0 1349 V
stroke
10388 1303 N
152 0 V
0 493 V
-152 0 V
0 -493 V
Z stroke
10388 3145 M
152 0 V
10388 1228 M
152 0 V
stroke
11146 1299 152 572 80 45 0 PatternFill
11222 1226 M
0 73 V
0 572 R
0 1312 V
stroke
11146 1299 N
152 0 V
0 572 V
-152 0 V
0 -572 V
Z stroke
11146 3183 M
152 0 V
11146 1226 M
152 0 V
stroke
11905 1295 152 488 80 45 0 PatternFill
11981 1224 M
0 71 V
0 488 R
0 1165 V
stroke
11905 1295 N
152 0 V
0 488 V
-152 0 V
0 -488 V
Z stroke
11905 2948 M
152 0 V
11905 1224 M
152 0 V
stroke
12664 1292 152 510 80 45 0 PatternFill
12740 1222 M
0 70 V
0 510 R
0 1225 V
stroke
12664 1292 N
152 0 V
0 510 V
-152 0 V
0 -510 V
Z stroke
12664 3027 M
152 0 V
12664 1222 M
152 0 V
% End plot #4
% Begin plot #5
stroke
LTb
LCb setrgbcolor

 /TransparentPatterns true def
1283 1635 152 0 80 -45 0 PatternFill
1359 1635 M
stroke
1283 1635 N
152 0 V
-152 0 V
Z stroke
1283 1635 M
152 0 V
-152 0 R
152 0 V
stroke

 /TransparentPatterns true def
2042 1662 152 0 80 -45 0 PatternFill
2118 1662 M
stroke
2042 1662 N
152 0 V
-152 0 V
Z stroke
2042 1662 M
152 0 V
-152 0 R
152 0 V
stroke

 /TransparentPatterns true def
2801 1653 152 0 80 -45 0 PatternFill
2877 1653 M
stroke
2801 1653 N
152 0 V
-152 0 V
Z stroke
2801 1653 M
152 0 V
-152 0 R
152 0 V
stroke

 /TransparentPatterns true def
3560 1663 152 0 80 -45 0 PatternFill
3636 1663 M
stroke
3560 1663 N
152 0 V
-152 0 V
Z stroke
3560 1663 M
152 0 V
-152 0 R
152 0 V
stroke

 /TransparentPatterns true def
4318 1641 152 0 80 -45 0 PatternFill
4394 1641 M
stroke
4318 1641 N
152 0 V
-152 0 V
Z stroke
4318 1641 M
152 0 V
-152 0 R
152 0 V
stroke

 /TransparentPatterns true def
5077 1654 152 0 80 -45 0 PatternFill
5153 1654 M
stroke
5077 1654 N
152 0 V
-152 0 V
Z stroke
5077 1654 M
152 0 V
-152 0 R
152 0 V
stroke

 /TransparentPatterns true def
5836 1646 152 0 80 -45 0 PatternFill
5912 1646 M
stroke
5836 1646 N
152 0 V
-152 0 V
Z stroke
5836 1646 M
152 0 V
-152 0 R
152 0 V
stroke

 /TransparentPatterns true def
6594 1672 152 0 80 -45 0 PatternFill
6670 1672 M
stroke
6594 1672 N
152 0 V
-152 0 V
Z stroke
6594 1672 M
152 0 V
-152 0 R
152 0 V
stroke

 /TransparentPatterns true def
7353 1649 152 0 80 -45 0 PatternFill
7429 1649 M
stroke
7353 1649 N
152 0 V
-152 0 V
Z stroke
7353 1649 M
152 0 V
-152 0 R
152 0 V
stroke

 /TransparentPatterns true def
8112 1651 152 0 80 -45 0 PatternFill
8188 1651 M
stroke
8112 1651 N
152 0 V
-152 0 V
Z stroke
8112 1651 M
152 0 V
-152 0 R
152 0 V
stroke

 /TransparentPatterns true def
8870 1647 152 0 80 -45 0 PatternFill
8946 1647 M
stroke
8870 1647 N
152 0 V
-152 0 V
Z stroke
8870 1647 M
152 0 V
-152 0 R
152 0 V
stroke

 /TransparentPatterns true def
9629 1663 152 0 80 -45 0 PatternFill
9705 1663 M
stroke
9629 1663 N
152 0 V
-152 0 V
Z stroke
9629 1663 M
152 0 V
-152 0 R
152 0 V
stroke

 /TransparentPatterns true def
10388 1659 152 0 80 -45 0 PatternFill
10464 1659 M
stroke
10388 1659 N
152 0 V
-152 0 V
Z stroke
10388 1659 M
152 0 V
-152 0 R
152 0 V
stroke

 /TransparentPatterns true def
11146 1666 152 0 80 -45 0 PatternFill
11222 1666 M
stroke
11146 1666 N
152 0 V
-152 0 V
Z stroke
11146 1666 M
152 0 V
-152 0 R
152 0 V
stroke

 /TransparentPatterns true def
11905 1627 152 0 80 -45 0 PatternFill
11981 1627 M
stroke
11905 1627 N
152 0 V
-152 0 V
Z stroke
11905 1627 M
152 0 V
-152 0 R
152 0 V
stroke

 /TransparentPatterns true def
12664 1641 152 0 80 -45 0 PatternFill
12740 1641 M
stroke
12664 1641 N
152 0 V
-152 0 V
Z stroke
12664 1641 M
152 0 V
-152 0 R
152 0 V
% End plot #5
% Begin plot #6
2.000 UP
stroke
LTa
0.00 0.00 0.63 C LCb setrgbcolor
8287 153 M
[ [(Arial) 180.0 0.0 true true 0 ( )]
] -60.0 MRshow
2.000 UP
1.000 UL
LTa
0.00 0.00 0.63 C 8395 153 M
333 0 V
980 4746 M
379 0 V
759 0 V
759 0 V
758 0 V
759 0 V
759 0 V
758 4 V
759 -4 V
759 4 V
759 0 V
758 0 V
759 -4 V
759 -4 V
758 8 V
759 0 V
759 -4 V
379 0 V
1359 4746 Circle
2118 4746 Circle
2877 4746 Circle
3635 4746 Circle
4394 4746 Circle
5153 4746 Circle
5911 4750 Circle
6670 4746 Circle
7429 4750 Circle
8188 4750 Circle
8946 4750 Circle
9705 4746 Circle
10464 4742 Circle
11222 4750 Circle
11981 4750 Circle
12740 4746 Circle
8561 153 Circle
% End plot #6
% Begin plot #7
1.000 UL
LTb
0.00 0.38 0.82 C LCb setrgbcolor
11860 333 M
[ [(Arial) 180.0 0.0 true true 0 (per-flow)]
] -60.0 MRshow
1.000 UL
LTb
0.00 0.38 0.82 C 11968 288 333 90 40 30 0 PatternFill
11968 288 N
333 0 V
0 90 V
-333 0 V
0 -90 V
Z stroke
1.000 UL
LTb
0.00 0.38 0.82 C 1473 1292 152 816 40 30 0 PatternFill
1549 1220 M
0 72 V
0 816 R
0 2307 V
stroke
1473 1292 N
152 0 V
0 816 V
-152 0 V
0 -816 V
Z stroke
1473 4415 M
152 0 V
1473 1220 M
152 0 V
stroke
2232 1304 152 682 40 30 0 PatternFill
2308 1225 M
0 79 V
0 682 R
0 2270 V
stroke
2232 1304 N
152 0 V
0 682 V
-152 0 V
0 -682 V
Z stroke
2232 4256 M
152 0 V
2232 1225 M
152 0 V
stroke
2991 1301 152 669 40 30 0 PatternFill
3067 1226 M
0 75 V
0 669 R
0 1986 V
stroke
2991 1301 N
152 0 V
0 669 V
-152 0 V
0 -669 V
Z stroke
2991 3956 M
152 0 V
2991 1226 M
152 0 V
stroke
3749 1307 152 776 40 30 0 PatternFill
3825 1226 M
0 81 V
0 776 R
0 2307 V
stroke
3749 1307 N
152 0 V
0 776 V
-152 0 V
0 -776 V
Z stroke
3749 4390 M
152 0 V
3749 1226 M
152 0 V
stroke
4508 1302 152 750 40 30 0 PatternFill
4584 1227 M
0 75 V
0 750 R
0 2253 V
stroke
4508 1302 N
152 0 V
0 750 V
-152 0 V
0 -750 V
Z stroke
4508 4305 M
152 0 V
4508 1227 M
152 0 V
stroke
5267 1294 152 690 40 30 0 PatternFill
5343 1225 M
0 69 V
0 690 R
0 1876 V
stroke
5267 1294 N
152 0 V
0 690 V
-152 0 V
0 -690 V
Z stroke
5267 3860 M
152 0 V
5267 1225 M
152 0 V
stroke
6025 1302 152 770 40 30 0 PatternFill
6101 1229 M
0 73 V
0 770 R
0 2139 V
stroke
6025 1302 N
152 0 V
0 770 V
-152 0 V
0 -770 V
Z stroke
6025 4211 M
152 0 V
6025 1229 M
152 0 V
stroke
6784 1301 152 727 40 30 0 PatternFill
6860 1222 M
0 79 V
0 727 R
0 2400 V
stroke
6784 1301 N
152 0 V
0 727 V
-152 0 V
0 -727 V
Z stroke
6784 4428 M
152 0 V
6784 1222 M
152 0 V
stroke
7543 1297 152 660 40 30 0 PatternFill
7619 1226 M
0 71 V
0 660 R
0 2198 V
stroke
7543 1297 N
152 0 V
0 660 V
-152 0 V
0 -660 V
Z stroke
7543 4155 M
152 0 V
7543 1226 M
152 0 V
stroke
8301 1298 152 785 40 30 0 PatternFill
8377 1221 M
0 77 V
0 785 R
0 2192 V
stroke
8301 1298 N
152 0 V
0 785 V
-152 0 V
0 -785 V
Z stroke
8301 4275 M
152 0 V
8301 1221 M
152 0 V
stroke
9060 1299 152 727 40 30 0 PatternFill
9136 1224 M
0 75 V
0 727 R
0 2098 V
stroke
9060 1299 N
152 0 V
0 727 V
-152 0 V
0 -727 V
Z stroke
9060 4124 M
152 0 V
9060 1224 M
152 0 V
stroke
9819 1300 152 708 40 30 0 PatternFill
9895 1224 M
0 76 V
0 708 R
0 2235 V
stroke
9819 1300 N
152 0 V
0 708 V
-152 0 V
0 -708 V
Z stroke
9819 4243 M
152 0 V
9819 1224 M
152 0 V
stroke
10577 1299 152 816 40 30 0 PatternFill
10653 1221 M
0 78 V
0 816 R
0 2105 V
stroke
10577 1299 N
152 0 V
0 816 V
-152 0 V
0 -816 V
Z stroke
10577 4220 M
152 0 V
10577 1221 M
152 0 V
stroke
11336 1299 152 698 40 30 0 PatternFill
11412 1225 M
0 74 V
0 698 R
0 2260 V
stroke
11336 1299 N
152 0 V
0 698 V
-152 0 V
0 -698 V
Z stroke
11336 4257 M
152 0 V
11336 1225 M
152 0 V
stroke
12095 1300 152 692 40 30 0 PatternFill
12171 1223 M
0 77 V
0 692 R
0 1887 V
stroke
12095 1300 N
152 0 V
0 692 V
-152 0 V
0 -692 V
Z stroke
12095 3879 M
152 0 V
12095 1223 M
152 0 V
stroke
12853 1300 152 684 40 30 0 PatternFill
12929 1227 M
0 73 V
0 684 R
0 1905 V
stroke
12853 1300 N
152 0 V
0 684 V
-152 0 V
0 -684 V
Z stroke
12853 3889 M
152 0 V
12853 1227 M
152 0 V
% End plot #7
% Begin plot #8
stroke
LTb
LCb setrgbcolor

 /TransparentPatterns true def
1473 1864 152 0 40 -30 0 PatternFill
1549 1864 M
stroke
1473 1864 N
152 0 V
-152 0 V
Z stroke
1473 1864 M
152 0 V
-152 0 R
152 0 V
stroke

 /TransparentPatterns true def
2232 1829 152 0 40 -30 0 PatternFill
2308 1829 M
stroke
2232 1829 N
152 0 V
-152 0 V
Z stroke
2232 1829 M
152 0 V
-152 0 R
152 0 V
stroke

 /TransparentPatterns true def
2991 1794 152 0 40 -30 0 PatternFill
3067 1794 M
stroke
2991 1794 N
152 0 V
-152 0 V
Z stroke
2991 1794 M
152 0 V
-152 0 R
152 0 V
stroke

 /TransparentPatterns true def
3749 1861 152 0 40 -30 0 PatternFill
3825 1861 M
stroke
3749 1861 N
152 0 V
-152 0 V
Z stroke
3749 1861 M
152 0 V
-152 0 R
152 0 V
stroke

 /TransparentPatterns true def
4508 1848 152 0 40 -30 0 PatternFill
4584 1848 M
stroke
4508 1848 N
152 0 V
-152 0 V
Z stroke
4508 1848 M
152 0 V
-152 0 R
152 0 V
stroke

 /TransparentPatterns true def
5267 1786 152 0 40 -30 0 PatternFill
5343 1786 M
stroke
5267 1786 N
152 0 V
-152 0 V
Z stroke
5267 1786 M
152 0 V
-152 0 R
152 0 V
stroke

 /TransparentPatterns true def
6025 1846 152 0 40 -30 0 PatternFill
6101 1846 M
stroke
6025 1846 N
152 0 V
-152 0 V
Z stroke
6025 1846 M
152 0 V
-152 0 R
152 0 V
stroke

 /TransparentPatterns true def
6784 1848 152 0 40 -30 0 PatternFill
6860 1848 M
stroke
6784 1848 N
152 0 V
-152 0 V
Z stroke
6784 1848 M
152 0 V
-152 0 R
152 0 V
stroke

 /TransparentPatterns true def
7543 1799 152 0 40 -30 0 PatternFill
7619 1799 M
stroke
7543 1799 N
152 0 V
-152 0 V
Z stroke
7543 1799 M
152 0 V
-152 0 R
152 0 V
stroke

 /TransparentPatterns true def
8301 1852 152 0 40 -30 0 PatternFill
8377 1852 M
stroke
8301 1852 N
152 0 V
-152 0 V
Z stroke
8301 1852 M
152 0 V
-152 0 R
152 0 V
stroke

 /TransparentPatterns true def
9060 1821 152 0 40 -30 0 PatternFill
9136 1821 M
stroke
9060 1821 N
152 0 V
-152 0 V
Z stroke
9060 1821 M
152 0 V
-152 0 R
152 0 V
stroke

 /TransparentPatterns true def
9819 1833 152 0 40 -30 0 PatternFill
9895 1833 M
stroke
9819 1833 N
152 0 V
-152 0 V
Z stroke
9819 1833 M
152 0 V
-152 0 R
152 0 V
stroke

 /TransparentPatterns true def
10577 1839 152 0 40 -30 0 PatternFill
10653 1839 M
stroke
10577 1839 N
152 0 V
-152 0 V
Z stroke
10577 1839 M
152 0 V
-152 0 R
152 0 V
stroke

 /TransparentPatterns true def
11336 1831 152 0 40 -30 0 PatternFill
11412 1831 M
stroke
11336 1831 N
152 0 V
-152 0 V
Z stroke
11336 1831 M
152 0 V
-152 0 R
152 0 V
stroke

 /TransparentPatterns true def
12095 1786 152 0 40 -30 0 PatternFill
12171 1786 M
stroke
12095 1786 N
152 0 V
-152 0 V
Z stroke
12095 1786 M
152 0 V
-152 0 R
152 0 V
stroke

 /TransparentPatterns true def
12853 1782 152 0 40 -30 0 PatternFill
12929 1782 M
stroke
12853 1782 N
152 0 V
-152 0 V
Z stroke
12853 1782 M
152 0 V
-152 0 R
152 0 V
% End plot #8
% Begin plot #9
2.000 UP
stroke
LTa
0.00 0.38 0.82 C LCb setrgbcolor
11860 153 M
[ [(Arial) 180.0 0.0 true true 0 ( )]
] -60.0 MRshow
2.000 UP
1.000 UL
LTa
0.00 0.38 0.82 C 11968 153 M
333 0 V
980 4750 M
569 0 V
759 0 V
758 0 V
759 0 V
759 0 V
758 0 V
759 0 V
759 0 V
759 0 V
758 0 V
759 0 V
759 0 V
758 0 V
759 0 V
759 0 V
758 0 V
190 0 V
1549 4750 TriU
2308 4750 TriU
3066 4750 TriU
3825 4750 TriU
4584 4750 TriU
5342 4750 TriU
6101 4750 TriU
6860 4750 TriU
7619 4750 TriU
8377 4750 TriU
9136 4750 TriU
9895 4750 TriU
10653 4750 TriU
11412 4750 TriU
12171 4750 TriU
12929 4750 TriU
12134 153 TriU
% End plot #9
2.000 UL
LTb
LCb setrgbcolor
1.000 UP
1.000 UL
LTb
0.00 0.00 0.00 C stroke
grestore
end
showpage
%%Trailer
%%DocumentFonts: Arial
