%!PS-Adobe-2.0 EPSF-2.0
%%Title: TcpBic-download-finishtime-25UE-panoramic.eps
%%Creator: gnuplot 5.0 patchlevel 3
%%CreationDate: Tue Jun  7 16:10:53 2016
%%DocumentFonts: (atend)
%%BoundingBox: 50 50 770 302
%%EndComments
%%BeginProlog
/gnudict 256 dict def
gnudict begin
%
% The following true/false flags may be edited by hand if desired.
% The unit line width and grayscale image gamma correction may also be changed.
%
/Color true def
/Blacktext false def
/Solid false def
/Dashlength 3 def
/Landscape false def
/Level1 false def
/Level3 false def
/Rounded false def
/ClipToBoundingBox false def
/SuppressPDFMark false def
/TransparentPatterns false def
/gnulinewidth 15.000 def
/userlinewidth gnulinewidth def
/Gamma 1.0 def
/BackgroundColor {-1.000 -1.000 -1.000} def
%
/vshift -66 def
/dl1 {
  10.0 Dashlength userlinewidth gnulinewidth div mul mul mul
  Rounded { currentlinewidth 0.75 mul sub dup 0 le { pop 0.01 } if } if
} def
/dl2 {
  10.0 Dashlength userlinewidth gnulinewidth div mul mul mul
  Rounded { currentlinewidth 0.75 mul add } if
} def
/hpt_ 31.5 def
/vpt_ 31.5 def
/hpt hpt_ def
/vpt vpt_ def
/doclip {
  ClipToBoundingBox {
    newpath 50 50 moveto 770 50 lineto 770 302 lineto 50 302 lineto closepath
    clip
  } if
} def
%
% Gnuplot Prolog Version 5.1 (Oct 2015)
%
%/SuppressPDFMark true def
%
/M {moveto} bind def
/L {lineto} bind def
/R {rmoveto} bind def
/V {rlineto} bind def
/N {newpath moveto} bind def
/Z {closepath} bind def
/C {setrgbcolor} bind def
/f {rlineto fill} bind def
/g {setgray} bind def
/Gshow {show} def   % May be redefined later in the file to support UTF-8
/vpt2 vpt 2 mul def
/hpt2 hpt 2 mul def
/Lshow {currentpoint stroke M 0 vshift R 
	Blacktext {gsave 0 setgray textshow grestore} {textshow} ifelse} def
/Rshow {currentpoint stroke M dup stringwidth pop neg vshift R
	Blacktext {gsave 0 setgray textshow grestore} {textshow} ifelse} def
/Cshow {currentpoint stroke M dup stringwidth pop -2 div vshift R 
	Blacktext {gsave 0 setgray textshow grestore} {textshow} ifelse} def
/UP {dup vpt_ mul /vpt exch def hpt_ mul /hpt exch def
  /hpt2 hpt 2 mul def /vpt2 vpt 2 mul def} def
/DL {Color {setrgbcolor Solid {pop []} if 0 setdash}
 {pop pop pop 0 setgray Solid {pop []} if 0 setdash} ifelse} def
/BL {stroke userlinewidth 2 mul setlinewidth
	Rounded {1 setlinejoin 1 setlinecap} if} def
/AL {stroke userlinewidth 2 div setlinewidth
	Rounded {1 setlinejoin 1 setlinecap} if} def
/UL {dup gnulinewidth mul /userlinewidth exch def
	dup 1 lt {pop 1} if 10 mul /udl exch def} def
/PL {stroke userlinewidth setlinewidth
	Rounded {1 setlinejoin 1 setlinecap} if} def
3.8 setmiterlimit
% Classic Line colors (version 5.0)
/LCw {1 1 1} def
/LCb {0 0 0} def
/LCa {0 0 0} def
/LC0 {1 0 0} def
/LC1 {0 1 0} def
/LC2 {0 0 1} def
/LC3 {1 0 1} def
/LC4 {0 1 1} def
/LC5 {1 1 0} def
/LC6 {0 0 0} def
/LC7 {1 0.3 0} def
/LC8 {0.5 0.5 0.5} def
% Default dash patterns (version 5.0)
/LTB {BL [] LCb DL} def
/LTw {PL [] 1 setgray} def
/LTb {PL [] LCb DL} def
/LTa {AL [1 udl mul 2 udl mul] 0 setdash LCa setrgbcolor} def
/LT0 {PL [] LC0 DL} def
/LT1 {PL [2 dl1 3 dl2] LC1 DL} def
/LT2 {PL [1 dl1 1.5 dl2] LC2 DL} def
/LT3 {PL [6 dl1 2 dl2 1 dl1 2 dl2] LC3 DL} def
/LT4 {PL [1 dl1 2 dl2 6 dl1 2 dl2 1 dl1 2 dl2] LC4 DL} def
/LT5 {PL [4 dl1 2 dl2] LC5 DL} def
/LT6 {PL [1.5 dl1 1.5 dl2 1.5 dl1 1.5 dl2 1.5 dl1 6 dl2] LC6 DL} def
/LT7 {PL [3 dl1 3 dl2 1 dl1 3 dl2] LC7 DL} def
/LT8 {PL [2 dl1 2 dl2 2 dl1 6 dl2] LC8 DL} def
/SL {[] 0 setdash} def
/Pnt {stroke [] 0 setdash gsave 1 setlinecap M 0 0 V stroke grestore} def
/Dia {stroke [] 0 setdash 2 copy vpt add M
  hpt neg vpt neg V hpt vpt neg V
  hpt vpt V hpt neg vpt V closepath stroke
  Pnt} def
/Pls {stroke [] 0 setdash vpt sub M 0 vpt2 V
  currentpoint stroke M
  hpt neg vpt neg R hpt2 0 V stroke
 } def
/Box {stroke [] 0 setdash 2 copy exch hpt sub exch vpt add M
  0 vpt2 neg V hpt2 0 V 0 vpt2 V
  hpt2 neg 0 V closepath stroke
  Pnt} def
/Crs {stroke [] 0 setdash exch hpt sub exch vpt add M
  hpt2 vpt2 neg V currentpoint stroke M
  hpt2 neg 0 R hpt2 vpt2 V stroke} def
/TriU {stroke [] 0 setdash 2 copy vpt 1.12 mul add M
  hpt neg vpt -1.62 mul V
  hpt 2 mul 0 V
  hpt neg vpt 1.62 mul V closepath stroke
  Pnt} def
/Star {2 copy Pls Crs} def
/BoxF {stroke [] 0 setdash exch hpt sub exch vpt add M
  0 vpt2 neg V hpt2 0 V 0 vpt2 V
  hpt2 neg 0 V closepath fill} def
/TriUF {stroke [] 0 setdash vpt 1.12 mul add M
  hpt neg vpt -1.62 mul V
  hpt 2 mul 0 V
  hpt neg vpt 1.62 mul V closepath fill} def
/TriD {stroke [] 0 setdash 2 copy vpt 1.12 mul sub M
  hpt neg vpt 1.62 mul V
  hpt 2 mul 0 V
  hpt neg vpt -1.62 mul V closepath stroke
  Pnt} def
/TriDF {stroke [] 0 setdash vpt 1.12 mul sub M
  hpt neg vpt 1.62 mul V
  hpt 2 mul 0 V
  hpt neg vpt -1.62 mul V closepath fill} def
/DiaF {stroke [] 0 setdash vpt add M
  hpt neg vpt neg V hpt vpt neg V
  hpt vpt V hpt neg vpt V closepath fill} def
/Pent {stroke [] 0 setdash 2 copy gsave
  translate 0 hpt M 4 {72 rotate 0 hpt L} repeat
  closepath stroke grestore Pnt} def
/PentF {stroke [] 0 setdash gsave
  translate 0 hpt M 4 {72 rotate 0 hpt L} repeat
  closepath fill grestore} def
/Circle {stroke [] 0 setdash 2 copy
  hpt 0 360 arc stroke Pnt} def
/CircleF {stroke [] 0 setdash hpt 0 360 arc fill} def
/C0 {BL [] 0 setdash 2 copy moveto vpt 90 450 arc} bind def
/C1 {BL [] 0 setdash 2 copy moveto
	2 copy vpt 0 90 arc closepath fill
	vpt 0 360 arc closepath} bind def
/C2 {BL [] 0 setdash 2 copy moveto
	2 copy vpt 90 180 arc closepath fill
	vpt 0 360 arc closepath} bind def
/C3 {BL [] 0 setdash 2 copy moveto
	2 copy vpt 0 180 arc closepath fill
	vpt 0 360 arc closepath} bind def
/C4 {BL [] 0 setdash 2 copy moveto
	2 copy vpt 180 270 arc closepath fill
	vpt 0 360 arc closepath} bind def
/C5 {BL [] 0 setdash 2 copy moveto
	2 copy vpt 0 90 arc
	2 copy moveto
	2 copy vpt 180 270 arc closepath fill
	vpt 0 360 arc} bind def
/C6 {BL [] 0 setdash 2 copy moveto
	2 copy vpt 90 270 arc closepath fill
	vpt 0 360 arc closepath} bind def
/C7 {BL [] 0 setdash 2 copy moveto
	2 copy vpt 0 270 arc closepath fill
	vpt 0 360 arc closepath} bind def
/C8 {BL [] 0 setdash 2 copy moveto
	2 copy vpt 270 360 arc closepath fill
	vpt 0 360 arc closepath} bind def
/C9 {BL [] 0 setdash 2 copy moveto
	2 copy vpt 270 450 arc closepath fill
	vpt 0 360 arc closepath} bind def
/C10 {BL [] 0 setdash 2 copy 2 copy moveto vpt 270 360 arc closepath fill
	2 copy moveto
	2 copy vpt 90 180 arc closepath fill
	vpt 0 360 arc closepath} bind def
/C11 {BL [] 0 setdash 2 copy moveto
	2 copy vpt 0 180 arc closepath fill
	2 copy moveto
	2 copy vpt 270 360 arc closepath fill
	vpt 0 360 arc closepath} bind def
/C12 {BL [] 0 setdash 2 copy moveto
	2 copy vpt 180 360 arc closepath fill
	vpt 0 360 arc closepath} bind def
/C13 {BL [] 0 setdash 2 copy moveto
	2 copy vpt 0 90 arc closepath fill
	2 copy moveto
	2 copy vpt 180 360 arc closepath fill
	vpt 0 360 arc closepath} bind def
/C14 {BL [] 0 setdash 2 copy moveto
	2 copy vpt 90 360 arc closepath fill
	vpt 0 360 arc} bind def
/C15 {BL [] 0 setdash 2 copy vpt 0 360 arc closepath fill
	vpt 0 360 arc closepath} bind def
/Rec {newpath 4 2 roll moveto 1 index 0 rlineto 0 exch rlineto
	neg 0 rlineto closepath} bind def
/Square {dup Rec} bind def
/Bsquare {vpt sub exch vpt sub exch vpt2 Square} bind def
/S0 {BL [] 0 setdash 2 copy moveto 0 vpt rlineto BL Bsquare} bind def
/S1 {BL [] 0 setdash 2 copy vpt Square fill Bsquare} bind def
/S2 {BL [] 0 setdash 2 copy exch vpt sub exch vpt Square fill Bsquare} bind def
/S3 {BL [] 0 setdash 2 copy exch vpt sub exch vpt2 vpt Rec fill Bsquare} bind def
/S4 {BL [] 0 setdash 2 copy exch vpt sub exch vpt sub vpt Square fill Bsquare} bind def
/S5 {BL [] 0 setdash 2 copy 2 copy vpt Square fill
	exch vpt sub exch vpt sub vpt Square fill Bsquare} bind def
/S6 {BL [] 0 setdash 2 copy exch vpt sub exch vpt sub vpt vpt2 Rec fill Bsquare} bind def
/S7 {BL [] 0 setdash 2 copy exch vpt sub exch vpt sub vpt vpt2 Rec fill
	2 copy vpt Square fill Bsquare} bind def
/S8 {BL [] 0 setdash 2 copy vpt sub vpt Square fill Bsquare} bind def
/S9 {BL [] 0 setdash 2 copy vpt sub vpt vpt2 Rec fill Bsquare} bind def
/S10 {BL [] 0 setdash 2 copy vpt sub vpt Square fill 2 copy exch vpt sub exch vpt Square fill
	Bsquare} bind def
/S11 {BL [] 0 setdash 2 copy vpt sub vpt Square fill 2 copy exch vpt sub exch vpt2 vpt Rec fill
	Bsquare} bind def
/S12 {BL [] 0 setdash 2 copy exch vpt sub exch vpt sub vpt2 vpt Rec fill Bsquare} bind def
/S13 {BL [] 0 setdash 2 copy exch vpt sub exch vpt sub vpt2 vpt Rec fill
	2 copy vpt Square fill Bsquare} bind def
/S14 {BL [] 0 setdash 2 copy exch vpt sub exch vpt sub vpt2 vpt Rec fill
	2 copy exch vpt sub exch vpt Square fill Bsquare} bind def
/S15 {BL [] 0 setdash 2 copy Bsquare fill Bsquare} bind def
/D0 {gsave translate 45 rotate 0 0 S0 stroke grestore} bind def
/D1 {gsave translate 45 rotate 0 0 S1 stroke grestore} bind def
/D2 {gsave translate 45 rotate 0 0 S2 stroke grestore} bind def
/D3 {gsave translate 45 rotate 0 0 S3 stroke grestore} bind def
/D4 {gsave translate 45 rotate 0 0 S4 stroke grestore} bind def
/D5 {gsave translate 45 rotate 0 0 S5 stroke grestore} bind def
/D6 {gsave translate 45 rotate 0 0 S6 stroke grestore} bind def
/D7 {gsave translate 45 rotate 0 0 S7 stroke grestore} bind def
/D8 {gsave translate 45 rotate 0 0 S8 stroke grestore} bind def
/D9 {gsave translate 45 rotate 0 0 S9 stroke grestore} bind def
/D10 {gsave translate 45 rotate 0 0 S10 stroke grestore} bind def
/D11 {gsave translate 45 rotate 0 0 S11 stroke grestore} bind def
/D12 {gsave translate 45 rotate 0 0 S12 stroke grestore} bind def
/D13 {gsave translate 45 rotate 0 0 S13 stroke grestore} bind def
/D14 {gsave translate 45 rotate 0 0 S14 stroke grestore} bind def
/D15 {gsave translate 45 rotate 0 0 S15 stroke grestore} bind def
/DiaE {stroke [] 0 setdash vpt add M
  hpt neg vpt neg V hpt vpt neg V
  hpt vpt V hpt neg vpt V closepath stroke} def
/BoxE {stroke [] 0 setdash exch hpt sub exch vpt add M
  0 vpt2 neg V hpt2 0 V 0 vpt2 V
  hpt2 neg 0 V closepath stroke} def
/TriUE {stroke [] 0 setdash vpt 1.12 mul add M
  hpt neg vpt -1.62 mul V
  hpt 2 mul 0 V
  hpt neg vpt 1.62 mul V closepath stroke} def
/TriDE {stroke [] 0 setdash vpt 1.12 mul sub M
  hpt neg vpt 1.62 mul V
  hpt 2 mul 0 V
  hpt neg vpt -1.62 mul V closepath stroke} def
/PentE {stroke [] 0 setdash gsave
  translate 0 hpt M 4 {72 rotate 0 hpt L} repeat
  closepath stroke grestore} def
/CircE {stroke [] 0 setdash 
  hpt 0 360 arc stroke} def
/Opaque {gsave closepath 1 setgray fill grestore 0 setgray closepath} def
/DiaW {stroke [] 0 setdash vpt add M
  hpt neg vpt neg V hpt vpt neg V
  hpt vpt V hpt neg vpt V Opaque stroke} def
/BoxW {stroke [] 0 setdash exch hpt sub exch vpt add M
  0 vpt2 neg V hpt2 0 V 0 vpt2 V
  hpt2 neg 0 V Opaque stroke} def
/TriUW {stroke [] 0 setdash vpt 1.12 mul add M
  hpt neg vpt -1.62 mul V
  hpt 2 mul 0 V
  hpt neg vpt 1.62 mul V Opaque stroke} def
/TriDW {stroke [] 0 setdash vpt 1.12 mul sub M
  hpt neg vpt 1.62 mul V
  hpt 2 mul 0 V
  hpt neg vpt -1.62 mul V Opaque stroke} def
/PentW {stroke [] 0 setdash gsave
  translate 0 hpt M 4 {72 rotate 0 hpt L} repeat
  Opaque stroke grestore} def
/CircW {stroke [] 0 setdash 
  hpt 0 360 arc Opaque stroke} def
/BoxFill {gsave Rec 1 setgray fill grestore} def
/Density {
  /Fillden exch def
  currentrgbcolor
  /ColB exch def /ColG exch def /ColR exch def
  /ColR ColR Fillden mul Fillden sub 1 add def
  /ColG ColG Fillden mul Fillden sub 1 add def
  /ColB ColB Fillden mul Fillden sub 1 add def
  ColR ColG ColB setrgbcolor} def
/BoxColFill {gsave Rec PolyFill} def
/PolyFill {gsave Density fill grestore grestore} def
/h {rlineto rlineto rlineto gsave closepath fill grestore} bind def
%
% PostScript Level 1 Pattern Fill routine for rectangles
% Usage: x y w h s a XX PatternFill
%	x,y = lower left corner of box to be filled
%	w,h = width and height of box
%	  a = angle in degrees between lines and x-axis
%	 XX = 0/1 for no/yes cross-hatch
%
/PatternFill {gsave /PFa [ 9 2 roll ] def
  PFa 0 get PFa 2 get 2 div add PFa 1 get PFa 3 get 2 div add translate
  PFa 2 get -2 div PFa 3 get -2 div PFa 2 get PFa 3 get Rec
  TransparentPatterns {} {gsave 1 setgray fill grestore} ifelse
  clip
  currentlinewidth 0.5 mul setlinewidth
  /PFs PFa 2 get dup mul PFa 3 get dup mul add sqrt def
  0 0 M PFa 5 get rotate PFs -2 div dup translate
  0 1 PFs PFa 4 get div 1 add floor cvi
	{PFa 4 get mul 0 M 0 PFs V} for
  0 PFa 6 get ne {
	0 1 PFs PFa 4 get div 1 add floor cvi
	{PFa 4 get mul 0 2 1 roll M PFs 0 V} for
 } if
  stroke grestore} def
%
/languagelevel where
 {pop languagelevel} {1} ifelse
dup 2 lt
	{/InterpretLevel1 true def
	 /InterpretLevel3 false def}
	{/InterpretLevel1 Level1 def
	 2 gt
	    {/InterpretLevel3 Level3 def}
	    {/InterpretLevel3 false def}
	 ifelse }
 ifelse
%
% PostScript level 2 pattern fill definitions
%
/Level2PatternFill {
/Tile8x8 {/PaintType 2 /PatternType 1 /TilingType 1 /BBox [0 0 8 8] /XStep 8 /YStep 8}
	bind def
/KeepColor {currentrgbcolor [/Pattern /DeviceRGB] setcolorspace} bind def
<< Tile8x8
 /PaintProc {0.5 setlinewidth pop 0 0 M 8 8 L 0 8 M 8 0 L stroke} 
>> matrix makepattern
/Pat1 exch def
<< Tile8x8
 /PaintProc {0.5 setlinewidth pop 0 0 M 8 8 L 0 8 M 8 0 L stroke
	0 4 M 4 8 L 8 4 L 4 0 L 0 4 L stroke}
>> matrix makepattern
/Pat2 exch def
<< Tile8x8
 /PaintProc {0.5 setlinewidth pop 0 0 M 0 8 L
	8 8 L 8 0 L 0 0 L fill}
>> matrix makepattern
/Pat3 exch def
<< Tile8x8
 /PaintProc {0.5 setlinewidth pop -4 8 M 8 -4 L
	0 12 M 12 0 L stroke}
>> matrix makepattern
/Pat4 exch def
<< Tile8x8
 /PaintProc {0.5 setlinewidth pop -4 0 M 8 12 L
	0 -4 M 12 8 L stroke}
>> matrix makepattern
/Pat5 exch def
<< Tile8x8
 /PaintProc {0.5 setlinewidth pop -2 8 M 4 -4 L
	0 12 M 8 -4 L 4 12 M 10 0 L stroke}
>> matrix makepattern
/Pat6 exch def
<< Tile8x8
 /PaintProc {0.5 setlinewidth pop -2 0 M 4 12 L
	0 -4 M 8 12 L 4 -4 M 10 8 L stroke}
>> matrix makepattern
/Pat7 exch def
<< Tile8x8
 /PaintProc {0.5 setlinewidth pop 8 -2 M -4 4 L
	12 0 M -4 8 L 12 4 M 0 10 L stroke}
>> matrix makepattern
/Pat8 exch def
<< Tile8x8
 /PaintProc {0.5 setlinewidth pop 0 -2 M 12 4 L
	-4 0 M 12 8 L -4 4 M 8 10 L stroke}
>> matrix makepattern
/Pat9 exch def
/Pattern1 {PatternBgnd KeepColor Pat1 setpattern} bind def
/Pattern2 {PatternBgnd KeepColor Pat2 setpattern} bind def
/Pattern3 {PatternBgnd KeepColor Pat3 setpattern} bind def
/Pattern4 {PatternBgnd KeepColor Landscape {Pat5} {Pat4} ifelse setpattern} bind def
/Pattern5 {PatternBgnd KeepColor Landscape {Pat4} {Pat5} ifelse setpattern} bind def
/Pattern6 {PatternBgnd KeepColor Landscape {Pat9} {Pat6} ifelse setpattern} bind def
/Pattern7 {PatternBgnd KeepColor Landscape {Pat8} {Pat7} ifelse setpattern} bind def
} def
%
%
%End of PostScript Level 2 code
%
/PatternBgnd {
  TransparentPatterns {} {gsave 1 setgray fill grestore} ifelse
} def
%
% Substitute for Level 2 pattern fill codes with
% grayscale if Level 2 support is not selected.
%
/Level1PatternFill {
/Pattern1 {0.250 Density} bind def
/Pattern2 {0.500 Density} bind def
/Pattern3 {0.750 Density} bind def
/Pattern4 {0.125 Density} bind def
/Pattern5 {0.375 Density} bind def
/Pattern6 {0.625 Density} bind def
/Pattern7 {0.875 Density} bind def
} def
%
% Now test for support of Level 2 code
%
Level1 {Level1PatternFill} {Level2PatternFill} ifelse
%
/Symbol-Oblique /Symbol findfont [1 0 .167 1 0 0] makefont
dup length dict begin {1 index /FID eq {pop pop} {def} ifelse} forall
currentdict end definefont pop
%
/MFshow {
   { dup 5 get 3 ge
     { 5 get 3 eq {gsave} {grestore} ifelse }
     {dup dup 0 get findfont exch 1 get scalefont setfont
     [ currentpoint ] exch dup 2 get 0 exch R dup 5 get 2 ne {dup dup 6
     get exch 4 get {textshow} {stringwidth pop 0 R} ifelse }if dup 5 get 0 eq
     {dup 3 get {2 get neg 0 exch R pop} {pop aload pop M} ifelse} {dup 5
     get 1 eq {dup 2 get exch dup 3 get exch 6 get stringwidth pop -2 div
     dup 0 R} {dup 6 get stringwidth pop -2 div 0 R 6 get
     textshow 2 index {aload pop M neg 3 -1 roll neg R pop pop} {pop pop pop
     pop aload pop M} ifelse }ifelse }ifelse }
     ifelse }
   forall} def
/Gswidth {dup type /stringtype eq {stringwidth} {pop (n) stringwidth} ifelse} def
/MFwidth {0 exch { dup 5 get 3 ge { 5 get 3 eq { 0 } { pop } ifelse }
 {dup 3 get{dup dup 0 get findfont exch 1 get scalefont setfont
     6 get Gswidth pop add} {pop} ifelse} ifelse} forall} def
/MLshow { currentpoint stroke M
  0 exch R
  Blacktext {gsave 0 setgray MFshow grestore} {MFshow} ifelse } bind def
/MRshow { currentpoint stroke M
  exch dup MFwidth neg 3 -1 roll R
  Blacktext {gsave 0 setgray MFshow grestore} {MFshow} ifelse } bind def
/MCshow { currentpoint stroke M
  exch dup MFwidth -2 div 3 -1 roll R
  Blacktext {gsave 0 setgray MFshow grestore} {MFshow} ifelse } bind def
/XYsave    { [( ) 1 2 true false 3 ()] } bind def
/XYrestore { [( ) 1 2 true false 4 ()] } bind def
Level1 SuppressPDFMark or 
{} {
/SDict 10 dict def
systemdict /pdfmark known not {
  userdict /pdfmark systemdict /cleartomark get put
} if
SDict begin [
  /Title (TcpBic-download-finishtime-25UE-panoramic.eps)
  /Subject (gnuplot plot)
  /Creator (gnuplot 5.0 patchlevel 3)
  /Author (nat)
%  /Producer (gnuplot)
%  /Keywords ()
  /CreationDate (Tue Jun  7 16:10:53 2016)
  /DOCINFO pdfmark
end
} ifelse
%
% Support for boxed text - Ethan A Merritt May 2005
%
/InitTextBox { userdict /TBy2 3 -1 roll put userdict /TBx2 3 -1 roll put
           userdict /TBy1 3 -1 roll put userdict /TBx1 3 -1 roll put
	   /Boxing true def } def
/ExtendTextBox { Boxing
    { gsave dup false charpath pathbbox
      dup TBy2 gt {userdict /TBy2 3 -1 roll put} {pop} ifelse
      dup TBx2 gt {userdict /TBx2 3 -1 roll put} {pop} ifelse
      dup TBy1 lt {userdict /TBy1 3 -1 roll put} {pop} ifelse
      dup TBx1 lt {userdict /TBx1 3 -1 roll put} {pop} ifelse
      grestore } if } def
/PopTextBox { newpath TBx1 TBxmargin sub TBy1 TBymargin sub M
               TBx1 TBxmargin sub TBy2 TBymargin add L
	       TBx2 TBxmargin add TBy2 TBymargin add L
	       TBx2 TBxmargin add TBy1 TBymargin sub L closepath } def
/DrawTextBox { PopTextBox stroke /Boxing false def} def
/FillTextBox { gsave PopTextBox 1 1 1 setrgbcolor fill grestore /Boxing false def} def
0 0 0 0 InitTextBox
/TBxmargin 20 def
/TBymargin 20 def
/Boxing false def
/textshow { ExtendTextBox Gshow } def
%
% redundant definitions for compatibility with prologue.ps older than 5.0.2
/LTB {BL [] LCb DL} def
/LTb {PL [] LCb DL} def
end
%%EndProlog
%%Page: 1 1
gnudict begin
gsave
doclip
50 50 translate
0.050 0.050 scale
0 setgray
newpath
(Arial) findfont 200 scalefont setfont
BackgroundColor 0 lt 3 1 roll 0 lt exch 0 lt or or not {BackgroundColor C 1.000 0 0 14400.00 5040.00 BoxColFill} if
1.000 UL
LTb
0.00 0.00 0.00 C 0.500 UL
LTa
0.50 0.50 0.50 C 980 1000 M
12139 0 V
stroke
1.000 UL
LTb
0.00 0.00 0.00 C 980 1000 M
63 0 V
stroke
860 1000 M
[ [(Arial) 200.0 0.0 true true 0 ( 0)]
] -66.7 MRshow
1.000 UL
LTb
0.00 0.00 0.00 C 0.500 UL
LTa
0.50 0.50 0.50 C 980 1475 M
12139 0 V
stroke
1.000 UL
LTb
0.00 0.00 0.00 C 980 1475 M
63 0 V
stroke
860 1475 M
[ [(Arial) 200.0 0.0 true true 0 ( 20)]
] -66.7 MRshow
1.000 UL
LTb
0.00 0.00 0.00 C 0.500 UL
LTa
0.50 0.50 0.50 C 980 1950 M
12139 0 V
stroke
1.000 UL
LTb
0.00 0.00 0.00 C 980 1950 M
63 0 V
stroke
860 1950 M
[ [(Arial) 200.0 0.0 true true 0 ( 40)]
] -66.7 MRshow
1.000 UL
LTb
0.00 0.00 0.00 C 0.500 UL
LTa
0.50 0.50 0.50 C 980 2425 M
12139 0 V
stroke
1.000 UL
LTb
0.00 0.00 0.00 C 980 2425 M
63 0 V
stroke
860 2425 M
[ [(Arial) 200.0 0.0 true true 0 ( 60)]
] -66.7 MRshow
1.000 UL
LTb
0.00 0.00 0.00 C 0.500 UL
LTa
0.50 0.50 0.50 C 980 2900 M
12139 0 V
stroke
1.000 UL
LTb
0.00 0.00 0.00 C 980 2900 M
63 0 V
stroke
860 2900 M
[ [(Arial) 200.0 0.0 true true 0 ( 80)]
] -66.7 MRshow
1.000 UL
LTb
0.00 0.00 0.00 C 0.500 UL
LTa
0.50 0.50 0.50 C 980 3374 M
12139 0 V
stroke
1.000 UL
LTb
0.00 0.00 0.00 C 980 3374 M
63 0 V
stroke
860 3374 M
[ [(Arial) 200.0 0.0 true true 0 ( 100)]
] -66.7 MRshow
1.000 UL
LTb
0.00 0.00 0.00 C 0.500 UL
LTa
0.50 0.50 0.50 C 980 3849 M
12139 0 V
stroke
1.000 UL
LTb
0.00 0.00 0.00 C 980 3849 M
63 0 V
stroke
860 3849 M
[ [(Arial) 200.0 0.0 true true 0 ( 120)]
] -66.7 MRshow
1.000 UL
LTb
0.00 0.00 0.00 C 0.500 UL
LTa
0.50 0.50 0.50 C 980 4324 M
12139 0 V
stroke
1.000 UL
LTb
0.00 0.00 0.00 C 980 4324 M
63 0 V
stroke
860 4324 M
[ [(Arial) 200.0 0.0 true true 0 ( 140)]
] -66.7 MRshow
1.000 UL
LTb
0.00 0.00 0.00 C 0.500 UL
LTa
0.50 0.50 0.50 C 980 4799 M
12139 0 V
stroke
1.000 UL
LTb
0.00 0.00 0.00 C 980 4799 M
63 0 V
stroke
860 4799 M
[ [(Arial) 200.0 0.0 true true 0 ( 160)]
] -66.7 MRshow
1.000 UL
LTb
0.00 0.00 0.00 C 0.500 UL
LTa
0.50 0.50 0.50 C 1235 1000 M
0 3799 V
stroke
1.000 UL
LTb
0.00 0.00 0.00 C 1235 1000 M
0 63 V
0 3736 R
0 -63 V
stroke
1235 800 M
[ [(Arial) 200.0 0.0 true true 0 ( 60)]
] -66.7 MCshow
1.000 UL
LTb
0.00 0.00 0.00 C 0.500 UL
LTa
0.50 0.50 0.50 C 1847 1000 M
0 3799 V
stroke
1.000 UL
LTb
0.00 0.00 0.00 C 1847 1000 M
0 63 V
0 3736 R
0 -63 V
stroke
1847 800 M
[ [(Arial) 200.0 0.0 true true 0 ( 120)]
] -66.7 MCshow
1.000 UL
LTb
0.00 0.00 0.00 C 0.500 UL
LTa
0.50 0.50 0.50 C 2459 1000 M
0 3799 V
stroke
1.000 UL
LTb
0.00 0.00 0.00 C 2459 1000 M
0 63 V
0 3736 R
0 -63 V
stroke
2459 800 M
[ [(Arial) 200.0 0.0 true true 0 ( 180)]
] -66.7 MCshow
1.000 UL
LTb
0.00 0.00 0.00 C 0.500 UL
LTa
0.50 0.50 0.50 C 3071 1000 M
0 3799 V
stroke
1.000 UL
LTb
0.00 0.00 0.00 C 3071 1000 M
0 63 V
0 3736 R
0 -63 V
stroke
3071 800 M
[ [(Arial) 200.0 0.0 true true 0 ( 240)]
] -66.7 MCshow
1.000 UL
LTb
0.00 0.00 0.00 C 0.500 UL
LTa
0.50 0.50 0.50 C 3683 1000 M
0 3799 V
stroke
1.000 UL
LTb
0.00 0.00 0.00 C 3683 1000 M
0 63 V
0 3736 R
0 -63 V
stroke
3683 800 M
[ [(Arial) 200.0 0.0 true true 0 ( 300)]
] -66.7 MCshow
1.000 UL
LTb
0.00 0.00 0.00 C 0.500 UL
LTa
0.50 0.50 0.50 C 4295 1000 M
0 3799 V
stroke
1.000 UL
LTb
0.00 0.00 0.00 C 4295 1000 M
0 63 V
0 3736 R
0 -63 V
stroke
4295 800 M
[ [(Arial) 200.0 0.0 true true 0 ( 360)]
] -66.7 MCshow
1.000 UL
LTb
0.00 0.00 0.00 C 0.500 UL
LTa
0.50 0.50 0.50 C 4907 1000 M
0 3799 V
stroke
1.000 UL
LTb
0.00 0.00 0.00 C 4907 1000 M
0 63 V
0 3736 R
0 -63 V
stroke
4907 800 M
[ [(Arial) 200.0 0.0 true true 0 ( 420)]
] -66.7 MCshow
1.000 UL
LTb
0.00 0.00 0.00 C 0.500 UL
LTa
0.50 0.50 0.50 C 5519 1000 M
0 3799 V
stroke
1.000 UL
LTb
0.00 0.00 0.00 C 5519 1000 M
0 63 V
0 3736 R
0 -63 V
stroke
5519 800 M
[ [(Arial) 200.0 0.0 true true 0 ( 480)]
] -66.7 MCshow
1.000 UL
LTb
0.00 0.00 0.00 C 0.500 UL
LTa
0.50 0.50 0.50 C 6131 1000 M
0 3799 V
stroke
1.000 UL
LTb
0.00 0.00 0.00 C 6131 1000 M
0 63 V
0 3736 R
0 -63 V
stroke
6131 800 M
[ [(Arial) 200.0 0.0 true true 0 ( 540)]
] -66.7 MCshow
1.000 UL
LTb
0.00 0.00 0.00 C 0.500 UL
LTa
0.50 0.50 0.50 C 6743 1000 M
0 3799 V
stroke
1.000 UL
LTb
0.00 0.00 0.00 C 6743 1000 M
0 63 V
0 3736 R
0 -63 V
stroke
6743 800 M
[ [(Arial) 200.0 0.0 true true 0 ( 600)]
] -66.7 MCshow
1.000 UL
LTb
0.00 0.00 0.00 C 0.500 UL
LTa
0.50 0.50 0.50 C 7356 1000 M
0 3799 V
stroke
1.000 UL
LTb
0.00 0.00 0.00 C 7356 1000 M
0 63 V
0 3736 R
0 -63 V
stroke
7356 800 M
[ [(Arial) 200.0 0.0 true true 0 ( 660)]
] -66.7 MCshow
1.000 UL
LTb
0.00 0.00 0.00 C 0.500 UL
LTa
0.50 0.50 0.50 C 7968 1000 M
0 3799 V
stroke
1.000 UL
LTb
0.00 0.00 0.00 C 7968 1000 M
0 63 V
0 3736 R
0 -63 V
stroke
7968 800 M
[ [(Arial) 200.0 0.0 true true 0 ( 720)]
] -66.7 MCshow
1.000 UL
LTb
0.00 0.00 0.00 C 0.500 UL
LTa
0.50 0.50 0.50 C 8580 1000 M
0 3799 V
stroke
1.000 UL
LTb
0.00 0.00 0.00 C 8580 1000 M
0 63 V
0 3736 R
0 -63 V
stroke
8580 800 M
[ [(Arial) 200.0 0.0 true true 0 ( 780)]
] -66.7 MCshow
1.000 UL
LTb
0.00 0.00 0.00 C 0.500 UL
LTa
0.50 0.50 0.50 C 9192 1000 M
0 3799 V
stroke
1.000 UL
LTb
0.00 0.00 0.00 C 9192 1000 M
0 63 V
0 3736 R
0 -63 V
stroke
9192 800 M
[ [(Arial) 200.0 0.0 true true 0 ( 840)]
] -66.7 MCshow
1.000 UL
LTb
0.00 0.00 0.00 C 0.500 UL
LTa
0.50 0.50 0.50 C 9804 1000 M
0 3799 V
stroke
1.000 UL
LTb
0.00 0.00 0.00 C 9804 1000 M
0 63 V
0 3736 R
0 -63 V
stroke
9804 800 M
[ [(Arial) 200.0 0.0 true true 0 ( 900)]
] -66.7 MCshow
1.000 UL
LTb
0.00 0.00 0.00 C 0.500 UL
LTa
0.50 0.50 0.50 C 10416 1000 M
0 3799 V
stroke
1.000 UL
LTb
0.00 0.00 0.00 C 10416 1000 M
0 63 V
0 3736 R
0 -63 V
stroke
10416 800 M
[ [(Arial) 200.0 0.0 true true 0 ( 960)]
] -66.7 MCshow
1.000 UL
LTb
0.00 0.00 0.00 C 0.500 UL
LTa
0.50 0.50 0.50 C 11028 1000 M
0 3799 V
stroke
1.000 UL
LTb
0.00 0.00 0.00 C 11028 1000 M
0 63 V
0 3736 R
0 -63 V
stroke
11028 800 M
[ [(Arial) 200.0 0.0 true true 0 ( 1020)]
] -66.7 MCshow
1.000 UL
LTb
0.00 0.00 0.00 C 0.500 UL
LTa
0.50 0.50 0.50 C 11640 1000 M
0 3799 V
stroke
1.000 UL
LTb
0.00 0.00 0.00 C 11640 1000 M
0 63 V
0 3736 R
0 -63 V
stroke
11640 800 M
[ [(Arial) 200.0 0.0 true true 0 ( 1080)]
] -66.7 MCshow
1.000 UL
LTb
0.00 0.00 0.00 C 0.500 UL
LTa
0.50 0.50 0.50 C 12252 1000 M
0 3799 V
stroke
1.000 UL
LTb
0.00 0.00 0.00 C 12252 1000 M
0 63 V
0 3736 R
0 -63 V
stroke
12252 800 M
[ [(Arial) 200.0 0.0 true true 0 ( 1140)]
] -66.7 MCshow
1.000 UL
LTb
0.00 0.00 0.00 C 0.500 UL
LTa
0.50 0.50 0.50 C 12864 1000 M
0 3799 V
stroke
1.000 UL
LTb
0.00 0.00 0.00 C 12864 1000 M
0 63 V
0 3736 R
0 -63 V
stroke
12864 800 M
[ [(Arial) 200.0 0.0 true true 0 ( 1200)]
] -66.7 MCshow
1.000 UL
LTb
0.00 0.00 0.00 C 13119 1000 M
-63 0 V
stroke
13239 1000 M
[ [(Arial) 200.0 0.0 true true 0 ( 0)]
] -66.7 MLshow
1.000 UL
LTb
0.00 0.00 0.00 C 13119 1760 M
-63 0 V
stroke
13239 1760 M
[ [(Arial) 200.0 0.0 true true 0 ( 20)]
] -66.7 MLshow
1.000 UL
LTb
0.00 0.00 0.00 C 13119 2520 M
-63 0 V
stroke
13239 2520 M
[ [(Arial) 200.0 0.0 true true 0 ( 40)]
] -66.7 MLshow
1.000 UL
LTb
0.00 0.00 0.00 C 13119 3279 M
-63 0 V
stroke
13239 3279 M
[ [(Arial) 200.0 0.0 true true 0 ( 60)]
] -66.7 MLshow
1.000 UL
LTb
0.00 0.00 0.00 C 13119 4039 M
-63 0 V
stroke
13239 4039 M
[ [(Arial) 200.0 0.0 true true 0 ( 80)]
] -66.7 MLshow
1.000 UL
LTb
0.00 0.00 0.00 C 13119 4799 M
-63 0 V
stroke
13239 4799 M
[ [(Arial) 200.0 0.0 true true 0 ( 100)]
] -66.7 MLshow
1.000 UL
LTb
0.00 0.00 0.00 C 1.000 UL
LTB
0.00 0.00 0.00 C 980 4799 M
0 -3799 V
12139 0 V
0 3799 R
980 4799 M
1.000 UP
stroke
LTb
0.00 0.00 0.00 C LCb setrgbcolor
160 2899 M
currentpoint gsave translate -270 rotate 0 0 moveto
[ [(Arial) 200.0 0.0 true true 0 (File download time \(s\))]
] -66.7 MCshow
grestore
LTb
LCb setrgbcolor
13938 2899 M
currentpoint gsave translate -270 rotate 0 0 moveto
[ [(Arial) 200.0 0.0 true true 0 (Average UDP throughput [%])]
] -66.7 MCshow
grestore
LTb
LCb setrgbcolor
7049 500 M
[ [(Arial) 200.0 0.0 true true 0 (Local Backhaul traffic \(Mb/s\))]
] -66.7 MCshow
LTb
% Begin plot #1
1.000 UL
LTb
0.60 0.60 0.00 C LCb setrgbcolor
4714 333 M
[ [(Arial) 180.0 0.0 true true 0 (file download time    :   olsr)]
] -60.0 MRshow
1.000 UL
LTb
0.60 0.60 0.00 C 4822 288 333 90 80 -45 0 PatternFill
4822 288 N
333 0 V
0 90 V
-333 0 V
0 -90 V
Z stroke
1.000 UL
LTb
0.60 0.60 0.00 C 990 1284 154 202 80 -45 0 PatternFill
1067 1073 M
0 211 V
0 202 R
0 64 V
stroke
990 1284 N
154 0 V
0 202 V
-154 0 V
0 -202 V
Z stroke
990 1550 M
154 0 V
990 1073 M
154 0 V
stroke
1602 1270 154 210 80 -45 0 PatternFill
1679 1073 M
0 197 V
0 210 R
0 48 V
stroke
1602 1270 N
154 0 V
0 210 V
-154 0 V
0 -210 V
Z stroke
1602 1528 M
154 0 V
1602 1073 M
154 0 V
stroke
2214 1269 154 203 80 -45 0 PatternFill
2291 1073 M
0 196 V
0 203 R
0 83 V
stroke
2214 1269 N
154 0 V
0 203 V
-154 0 V
0 -203 V
Z stroke
2214 1555 M
154 0 V
2214 1073 M
154 0 V
stroke
2826 1266 154 217 80 -45 0 PatternFill
2903 1073 M
0 193 V
0 217 R
0 89 V
stroke
2826 1266 N
154 0 V
0 217 V
-154 0 V
0 -217 V
Z stroke
2826 1572 M
154 0 V
2826 1073 M
154 0 V
stroke
3438 1291 154 188 80 -45 0 PatternFill
3515 1073 M
0 218 V
0 188 R
0 43 V
stroke
3438 1291 N
154 0 V
0 188 V
-154 0 V
0 -188 V
Z stroke
3438 1522 M
154 0 V
3438 1073 M
154 0 V
stroke
4050 1267 154 222 80 -45 0 PatternFill
4127 1073 M
0 194 V
0 222 R
0 89 V
stroke
4050 1267 N
154 0 V
0 222 V
-154 0 V
0 -222 V
Z stroke
4050 1578 M
154 0 V
4050 1073 M
154 0 V
stroke
4663 1275 154 194 80 -45 0 PatternFill
4740 1073 M
0 202 V
0 194 R
0 110 V
stroke
4663 1275 N
154 0 V
0 194 V
-154 0 V
0 -194 V
Z stroke
4663 1579 M
154 0 V
4663 1073 M
154 0 V
stroke
5275 1292 154 174 80 -45 0 PatternFill
5352 1073 M
0 219 V
0 174 R
0 88 V
stroke
5275 1292 N
154 0 V
0 174 V
-154 0 V
0 -174 V
Z stroke
5275 1554 M
154 0 V
5275 1073 M
154 0 V
stroke
5887 1285 154 225 80 -45 0 PatternFill
5964 1073 M
0 212 V
0 225 R
0 86 V
stroke
5887 1285 N
154 0 V
0 225 V
-154 0 V
0 -225 V
Z stroke
5887 1596 M
154 0 V
5887 1073 M
154 0 V
stroke
6499 1284 154 211 80 -45 0 PatternFill
6576 1073 M
0 211 V
0 211 R
0 62 V
stroke
6499 1284 N
154 0 V
0 211 V
-154 0 V
0 -211 V
Z stroke
6499 1557 M
154 0 V
6499 1073 M
154 0 V
stroke
7111 1291 154 176 80 -45 0 PatternFill
7188 1073 M
0 218 V
0 176 R
0 101 V
stroke
7111 1291 N
154 0 V
0 176 V
-154 0 V
0 -176 V
Z stroke
7111 1568 M
154 0 V
7111 1073 M
154 0 V
stroke
7723 1290 154 222 80 -45 0 PatternFill
7800 1073 M
0 217 V
0 222 R
0 78 V
stroke
7723 1290 N
154 0 V
0 222 V
-154 0 V
0 -222 V
Z stroke
7723 1590 M
154 0 V
7723 1073 M
154 0 V
stroke
8335 1247 154 223 80 -45 0 PatternFill
8412 1073 M
0 174 V
0 223 R
0 81 V
stroke
8335 1247 N
154 0 V
0 223 V
-154 0 V
0 -223 V
Z stroke
8335 1551 M
154 0 V
8335 1073 M
154 0 V
stroke
8947 1287 154 166 80 -45 0 PatternFill
9024 1073 M
0 214 V
0 166 R
0 56 V
stroke
8947 1287 N
154 0 V
0 166 V
-154 0 V
0 -166 V
Z stroke
8947 1509 M
154 0 V
8947 1073 M
154 0 V
stroke
9559 1266 154 225 80 -45 0 PatternFill
9636 1073 M
0 193 V
0 225 R
0 66 V
stroke
9559 1266 N
154 0 V
0 225 V
-154 0 V
0 -225 V
Z stroke
9559 1557 M
154 0 V
9559 1073 M
154 0 V
stroke
10171 1273 154 225 80 -45 0 PatternFill
10248 1073 M
0 200 V
0 225 R
0 53 V
stroke
10171 1273 N
154 0 V
0 225 V
-154 0 V
0 -225 V
Z stroke
10171 1551 M
154 0 V
-154 -478 R
154 0 V
stroke
10783 1284 154 193 80 -45 0 PatternFill
10860 1073 M
0 211 V
0 193 R
0 78 V
stroke
10783 1284 N
154 0 V
0 193 V
-154 0 V
0 -193 V
Z stroke
10783 1555 M
154 0 V
-154 -482 R
154 0 V
stroke
11395 1293 154 192 80 -45 0 PatternFill
11472 1073 M
0 220 V
0 192 R
0 97 V
stroke
11395 1293 N
154 0 V
0 192 V
-154 0 V
0 -192 V
Z stroke
11395 1582 M
154 0 V
-154 -509 R
154 0 V
stroke
12007 1261 154 231 80 -45 0 PatternFill
12084 1073 M
0 188 V
0 231 R
0 88 V
stroke
12007 1261 N
154 0 V
0 231 V
-154 0 V
0 -231 V
Z stroke
12007 1580 M
154 0 V
-154 -507 R
154 0 V
stroke
12619 1312 154 217 80 -45 0 PatternFill
12696 1073 M
0 239 V
0 217 R
0 91 V
stroke
12619 1312 N
154 0 V
0 217 V
-154 0 V
0 -217 V
Z stroke
12619 1620 M
154 0 V
-154 -547 R
154 0 V
% End plot #1
% Begin plot #2
stroke
LTb
LCb setrgbcolor

 /TransparentPatterns true def
990 1368 154 0 40 30 0 PatternFill
1067 1368 M
stroke
990 1368 N
154 0 V
-154 0 V
Z stroke
990 1368 M
154 0 V
-154 0 R
154 0 V
stroke

 /TransparentPatterns true def
1602 1366 154 0 40 30 0 PatternFill
1679 1366 M
stroke
1602 1366 N
154 0 V
-154 0 V
Z stroke
1602 1366 M
154 0 V
-154 0 R
154 0 V
stroke

 /TransparentPatterns true def
2214 1363 154 0 40 30 0 PatternFill
2291 1363 M
stroke
2214 1363 N
154 0 V
-154 0 V
Z stroke
2214 1363 M
154 0 V
-154 0 R
154 0 V
stroke

 /TransparentPatterns true def
2826 1361 154 0 40 30 0 PatternFill
2903 1361 M
stroke
2826 1361 N
154 0 V
-154 0 V
Z stroke
2826 1361 M
154 0 V
-154 0 R
154 0 V
stroke

 /TransparentPatterns true def
3438 1367 154 0 40 30 0 PatternFill
3515 1367 M
stroke
3438 1367 N
154 0 V
-154 0 V
Z stroke
3438 1367 M
154 0 V
-154 0 R
154 0 V
stroke

 /TransparentPatterns true def
4050 1378 154 0 40 30 0 PatternFill
4127 1378 M
stroke
4050 1378 N
154 0 V
-154 0 V
Z stroke
4050 1378 M
154 0 V
-154 0 R
154 0 V
stroke

 /TransparentPatterns true def
4663 1363 154 0 40 30 0 PatternFill
4740 1363 M
stroke
4663 1363 N
154 0 V
-154 0 V
Z stroke
4663 1363 M
154 0 V
-154 0 R
154 0 V
stroke

 /TransparentPatterns true def
5275 1367 154 0 40 30 0 PatternFill
5352 1367 M
stroke
5275 1367 N
154 0 V
-154 0 V
Z stroke
5275 1367 M
154 0 V
-154 0 R
154 0 V
stroke

 /TransparentPatterns true def
5887 1376 154 0 40 30 0 PatternFill
5964 1376 M
stroke
5887 1376 N
154 0 V
-154 0 V
Z stroke
5887 1376 M
154 0 V
-154 0 R
154 0 V
stroke

 /TransparentPatterns true def
6499 1364 154 0 40 30 0 PatternFill
6576 1364 M
stroke
6499 1364 N
154 0 V
-154 0 V
Z stroke
6499 1364 M
154 0 V
-154 0 R
154 0 V
stroke

 /TransparentPatterns true def
7111 1366 154 0 40 30 0 PatternFill
7188 1366 M
stroke
7111 1366 N
154 0 V
-154 0 V
Z stroke
7111 1366 M
154 0 V
-154 0 R
154 0 V
stroke

 /TransparentPatterns true def
7723 1369 154 0 40 30 0 PatternFill
7800 1369 M
stroke
7723 1369 N
154 0 V
-154 0 V
Z stroke
7723 1369 M
154 0 V
-154 0 R
154 0 V
stroke

 /TransparentPatterns true def
8335 1355 154 0 40 30 0 PatternFill
8412 1355 M
stroke
8335 1355 N
154 0 V
-154 0 V
Z stroke
8335 1355 M
154 0 V
-154 0 R
154 0 V
stroke

 /TransparentPatterns true def
8947 1359 154 0 40 30 0 PatternFill
9024 1359 M
stroke
8947 1359 N
154 0 V
-154 0 V
Z stroke
8947 1359 M
154 0 V
-154 0 R
154 0 V
stroke

 /TransparentPatterns true def
9559 1359 154 0 40 30 0 PatternFill
9636 1359 M
stroke
9559 1359 N
154 0 V
-154 0 V
Z stroke
9559 1359 M
154 0 V
-154 0 R
154 0 V
stroke

 /TransparentPatterns true def
10171 1374 154 0 40 30 0 PatternFill
10248 1374 M
stroke
10171 1374 N
154 0 V
-154 0 V
Z stroke
10171 1374 M
154 0 V
-154 0 R
154 0 V
stroke

 /TransparentPatterns true def
10783 1372 154 0 40 30 0 PatternFill
10860 1372 M
stroke
10783 1372 N
154 0 V
-154 0 V
Z stroke
10783 1372 M
154 0 V
-154 0 R
154 0 V
stroke

 /TransparentPatterns true def
11395 1366 154 0 40 30 0 PatternFill
11472 1366 M
stroke
11395 1366 N
154 0 V
-154 0 V
Z stroke
11395 1366 M
154 0 V
-154 0 R
154 0 V
stroke

 /TransparentPatterns true def
12007 1372 154 0 40 30 0 PatternFill
12084 1372 M
stroke
12007 1372 N
154 0 V
-154 0 V
Z stroke
12007 1372 M
154 0 V
-154 0 R
154 0 V
stroke

 /TransparentPatterns true def
12619 1401 154 0 40 30 0 PatternFill
12696 1401 M
stroke
12619 1401 N
154 0 V
-154 0 V
Z stroke
12619 1401 M
154 0 V
-154 0 R
154 0 V
% End plot #2
% Begin plot #3
2.000 UP
stroke
LTa
0.60 0.60 0.00 C LCb setrgbcolor
4714 153 M
[ [(Arial) 180.0 0.0 true true 0 (avg. throughput :         )]
] -60.0 MRshow
2.000 UP
1.000 UL
LTa
0.60 0.60 0.00 C 4822 153 M
333 0 V
1067 3374 M
612 10 V
612 -3 V
612 98 V
612 -97 V
612 53 V
612 -1 V
612 -50 V
612 96 V
612 -47 V
612 0 V
612 47 V
612 -97 V
612 -55 V
612 55 V
612 51 V
613 -51 V
612 50 V
612 47 V
612 43 V
1067 3374 Box
1679 3384 Box
2291 3381 Box
2903 3479 Box
3515 3382 Box
4127 3435 Box
4739 3434 Box
5351 3384 Box
5963 3480 Box
6575 3433 Box
7187 3433 Box
7799 3480 Box
8411 3383 Box
9023 3328 Box
9635 3383 Box
10247 3434 Box
10860 3383 Box
11472 3433 Box
12084 3480 Box
12696 3523 Box
4988 153 Box
% End plot #3
% Begin plot #4
1.000 UL
LTb
0.00 0.00 0.63 C LCb setrgbcolor
8287 333 M
[ [(Arial) 180.0 0.0 true true 0 (per-packet)]
] -60.0 MRshow
1.000 UL
LTb
0.00 0.00 0.63 C 8395 288 333 90 80 45 0 PatternFill
8395 288 N
333 0 V
0 90 V
-333 0 V
0 -90 V
Z stroke
1.000 UL
LTb
0.00 0.00 0.63 C 1159 1090 154 1191 80 45 0 PatternFill
1236 1070 M
0 20 V
0 1191 R
0 287 V
stroke
1159 1090 N
154 0 V
0 1191 V
-154 0 V
0 -1191 V
Z stroke
1159 2568 M
154 0 V
1159 1070 M
154 0 V
stroke
1771 1090 154 1087 80 45 0 PatternFill
1848 1061 M
0 29 V
0 1087 R
0 324 V
stroke
1771 1090 N
154 0 V
0 1087 V
-154 0 V
0 -1087 V
Z stroke
1771 2501 M
154 0 V
1771 1061 M
154 0 V
stroke
2383 1082 154 1176 80 45 0 PatternFill
2460 1058 M
0 24 V
0 1176 R
0 183 V
stroke
2383 1082 N
154 0 V
0 1176 V
-154 0 V
0 -1176 V
Z stroke
2383 2441 M
154 0 V
2383 1058 M
154 0 V
stroke
2995 1093 154 1161 80 45 0 PatternFill
3072 1067 M
0 26 V
0 1161 R
0 177 V
stroke
2995 1093 N
154 0 V
0 1161 V
-154 0 V
0 -1161 V
Z stroke
2995 2431 M
154 0 V
2995 1067 M
154 0 V
stroke
3607 1094 154 1146 80 45 0 PatternFill
3684 1059 M
0 35 V
0 1146 R
0 300 V
stroke
3607 1094 N
154 0 V
0 1146 V
-154 0 V
0 -1146 V
Z stroke
3607 2540 M
154 0 V
3607 1059 M
154 0 V
stroke
4219 1078 154 1158 80 45 0 PatternFill
4296 1050 M
0 28 V
0 1158 R
0 369 V
stroke
4219 1078 N
154 0 V
0 1158 V
-154 0 V
0 -1158 V
Z stroke
4219 2605 M
154 0 V
4219 1050 M
154 0 V
stroke
4831 1086 154 972 80 45 0 PatternFill
4908 1061 M
0 25 V
0 972 R
0 478 V
stroke
4831 1086 N
154 0 V
0 972 V
-154 0 V
0 -972 V
Z stroke
4831 2536 M
154 0 V
4831 1061 M
154 0 V
stroke
5443 1086 154 1115 80 45 0 PatternFill
5520 1064 M
0 22 V
0 1115 R
0 320 V
stroke
5443 1086 N
154 0 V
0 1115 V
-154 0 V
0 -1115 V
Z stroke
5443 2521 M
154 0 V
5443 1064 M
154 0 V
stroke
6055 1082 154 1101 80 45 0 PatternFill
6132 1051 M
0 31 V
0 1101 R
0 173 V
stroke
6055 1082 N
154 0 V
0 1101 V
-154 0 V
0 -1101 V
Z stroke
6055 2356 M
154 0 V
6055 1051 M
154 0 V
stroke
6667 1084 154 990 80 45 0 PatternFill
6744 1068 M
0 16 V
0 990 R
0 310 V
stroke
6667 1084 N
154 0 V
0 990 V
-154 0 V
0 -990 V
Z stroke
6667 2384 M
154 0 V
6667 1068 M
154 0 V
stroke
7279 1081 154 1079 80 45 0 PatternFill
7356 1062 M
0 19 V
0 1079 R
0 335 V
stroke
7279 1081 N
154 0 V
0 1079 V
-154 0 V
0 -1079 V
Z stroke
7279 2495 M
154 0 V
7279 1062 M
154 0 V
stroke
7891 1087 154 1087 80 45 0 PatternFill
7968 1063 M
0 24 V
0 1087 R
0 249 V
stroke
7891 1087 N
154 0 V
0 1087 V
-154 0 V
0 -1087 V
Z stroke
7891 2423 M
154 0 V
7891 1063 M
154 0 V
stroke
8503 1084 154 976 80 45 0 PatternFill
8580 1076 M
0 8 V
0 976 R
0 283 V
stroke
8503 1084 N
154 0 V
0 976 V
-154 0 V
0 -976 V
Z stroke
8503 2343 M
154 0 V
8503 1076 M
154 0 V
stroke
9115 1086 154 1095 80 45 0 PatternFill
9192 1061 M
0 25 V
0 1095 R
0 145 V
stroke
9115 1086 N
154 0 V
0 1095 V
-154 0 V
0 -1095 V
Z stroke
9115 2326 M
154 0 V
9115 1061 M
154 0 V
stroke
9727 1082 154 1053 80 45 0 PatternFill
9804 1054 M
0 28 V
0 1053 R
0 246 V
stroke
9727 1082 N
154 0 V
0 1053 V
-154 0 V
0 -1053 V
Z stroke
9727 2381 M
154 0 V
9727 1054 M
154 0 V
stroke
10339 1095 154 1006 80 45 0 PatternFill
10416 1052 M
0 43 V
0 1006 R
0 376 V
stroke
10339 1095 N
154 0 V
0 1006 V
-154 0 V
0 -1006 V
Z stroke
10339 2477 M
154 0 V
10339 1052 M
154 0 V
stroke
10951 1087 154 1028 80 45 0 PatternFill
11028 1052 M
0 35 V
0 1028 R
0 240 V
stroke
10951 1087 N
154 0 V
0 1028 V
-154 0 V
0 -1028 V
Z stroke
10951 2355 M
154 0 V
10951 1052 M
154 0 V
stroke
11563 1084 154 996 80 45 0 PatternFill
11640 1073 M
0 11 V
0 996 R
0 273 V
stroke
11563 1084 N
154 0 V
0 996 V
-154 0 V
0 -996 V
Z stroke
11563 2353 M
154 0 V
11563 1073 M
154 0 V
stroke
12175 1110 154 997 80 45 0 PatternFill
12252 1060 M
0 50 V
0 997 R
0 183 V
stroke
12175 1110 N
154 0 V
0 997 V
-154 0 V
0 -997 V
Z stroke
12175 2290 M
154 0 V
12175 1060 M
154 0 V
stroke
12787 1106 154 944 80 45 0 PatternFill
12864 1061 M
0 45 V
0 944 R
0 225 V
stroke
12787 1106 N
154 0 V
0 944 V
-154 0 V
0 -944 V
Z stroke
12787 2275 M
154 0 V
12787 1061 M
154 0 V
% End plot #4
% Begin plot #5
stroke
LTb
LCb setrgbcolor

 /TransparentPatterns true def
1159 1490 154 0 80 -45 0 PatternFill
1236 1490 M
stroke
1159 1490 N
154 0 V
-154 0 V
Z stroke
1159 1490 M
154 0 V
-154 0 R
154 0 V
stroke

 /TransparentPatterns true def
1771 1481 154 0 80 -45 0 PatternFill
1848 1481 M
stroke
1771 1481 N
154 0 V
-154 0 V
Z stroke
1771 1481 M
154 0 V
-154 0 R
154 0 V
stroke

 /TransparentPatterns true def
2383 1473 154 0 80 -45 0 PatternFill
2460 1473 M
stroke
2383 1473 N
154 0 V
-154 0 V
Z stroke
2383 1473 M
154 0 V
-154 0 R
154 0 V
stroke

 /TransparentPatterns true def
2995 1487 154 0 80 -45 0 PatternFill
3072 1487 M
stroke
2995 1487 N
154 0 V
-154 0 V
Z stroke
2995 1487 M
154 0 V
-154 0 R
154 0 V
stroke

 /TransparentPatterns true def
3607 1480 154 0 80 -45 0 PatternFill
3684 1480 M
stroke
3607 1480 N
154 0 V
-154 0 V
Z stroke
3607 1480 M
154 0 V
-154 0 R
154 0 V
stroke

 /TransparentPatterns true def
4219 1471 154 0 80 -45 0 PatternFill
4296 1471 M
stroke
4219 1471 N
154 0 V
-154 0 V
Z stroke
4219 1471 M
154 0 V
-154 0 R
154 0 V
stroke

 /TransparentPatterns true def
4831 1437 154 0 80 -45 0 PatternFill
4908 1437 M
stroke
4831 1437 N
154 0 V
-154 0 V
Z stroke
4831 1437 M
154 0 V
-154 0 R
154 0 V
stroke

 /TransparentPatterns true def
5443 1489 154 0 80 -45 0 PatternFill
5520 1489 M
stroke
5443 1489 N
154 0 V
-154 0 V
Z stroke
5443 1489 M
154 0 V
-154 0 R
154 0 V
stroke

 /TransparentPatterns true def
6055 1471 154 0 80 -45 0 PatternFill
6132 1471 M
stroke
6055 1471 N
154 0 V
-154 0 V
Z stroke
6055 1471 M
154 0 V
-154 0 R
154 0 V
stroke

 /TransparentPatterns true def
6667 1449 154 0 80 -45 0 PatternFill
6744 1449 M
stroke
6667 1449 N
154 0 V
-154 0 V
Z stroke
6667 1449 M
154 0 V
-154 0 R
154 0 V
stroke

 /TransparentPatterns true def
7279 1464 154 0 80 -45 0 PatternFill
7356 1464 M
stroke
7279 1464 N
154 0 V
-154 0 V
Z stroke
7279 1464 M
154 0 V
-154 0 R
154 0 V
stroke

 /TransparentPatterns true def
7891 1457 154 0 80 -45 0 PatternFill
7968 1457 M
stroke
7891 1457 N
154 0 V
-154 0 V
Z stroke
7891 1457 M
154 0 V
-154 0 R
154 0 V
stroke

 /TransparentPatterns true def
8503 1451 154 0 80 -45 0 PatternFill
8580 1451 M
stroke
8503 1451 N
154 0 V
-154 0 V
Z stroke
8503 1451 M
154 0 V
-154 0 R
154 0 V
stroke

 /TransparentPatterns true def
9115 1436 154 0 80 -45 0 PatternFill
9192 1436 M
stroke
9115 1436 N
154 0 V
-154 0 V
Z stroke
9115 1436 M
154 0 V
-154 0 R
154 0 V
stroke

 /TransparentPatterns true def
9727 1455 154 0 80 -45 0 PatternFill
9804 1455 M
stroke
9727 1455 N
154 0 V
-154 0 V
Z stroke
9727 1455 M
154 0 V
-154 0 R
154 0 V
stroke

 /TransparentPatterns true def
10339 1464 154 0 80 -45 0 PatternFill
10416 1464 M
stroke
10339 1464 N
154 0 V
-154 0 V
Z stroke
10339 1464 M
154 0 V
-154 0 R
154 0 V
stroke

 /TransparentPatterns true def
10951 1450 154 0 80 -45 0 PatternFill
11028 1450 M
stroke
10951 1450 N
154 0 V
-154 0 V
Z stroke
10951 1450 M
154 0 V
-154 0 R
154 0 V
stroke

 /TransparentPatterns true def
11563 1453 154 0 80 -45 0 PatternFill
11640 1453 M
stroke
11563 1453 N
154 0 V
-154 0 V
Z stroke
11563 1453 M
154 0 V
-154 0 R
154 0 V
stroke

 /TransparentPatterns true def
12175 1465 154 0 80 -45 0 PatternFill
12252 1465 M
stroke
12175 1465 N
154 0 V
-154 0 V
Z stroke
12175 1465 M
154 0 V
-154 0 R
154 0 V
stroke

 /TransparentPatterns true def
12787 1440 154 0 80 -45 0 PatternFill
12864 1440 M
stroke
12787 1440 N
154 0 V
-154 0 V
Z stroke
12787 1440 M
154 0 V
-154 0 R
154 0 V
% End plot #5
% Begin plot #6
2.000 UP
stroke
LTa
0.00 0.00 0.63 C LCb setrgbcolor
8287 153 M
[ [(Arial) 180.0 0.0 true true 0 ( )]
] -60.0 MRshow
2.000 UP
1.000 UL
LTa
0.00 0.00 0.63 C 8395 153 M
333 0 V
1235 4742 M
612 0 V
612 0 V
612 0 V
612 0 V
612 3 V
612 -3 V
612 0 V
612 -6 V
612 2 V
613 4 V
612 -3 V
612 -3 V
612 -1 V
612 2 V
612 4 V
612 -6 V
612 1 V
612 -2 V
612 -1 V
1235 4742 Circle
1847 4742 Circle
2459 4742 Circle
3071 4742 Circle
3683 4742 Circle
4295 4745 Circle
4907 4742 Circle
5519 4742 Circle
6131 4736 Circle
6743 4738 Circle
7356 4742 Circle
7968 4739 Circle
8580 4736 Circle
9192 4735 Circle
9804 4737 Circle
10416 4741 Circle
11028 4735 Circle
11640 4736 Circle
12252 4734 Circle
12864 4733 Circle
8561 153 Circle
% End plot #6
% Begin plot #7
1.000 UL
LTb
0.00 0.38 0.82 C LCb setrgbcolor
11860 333 M
[ [(Arial) 180.0 0.0 true true 0 (per-flow)]
] -60.0 MRshow
1.000 UL
LTb
0.00 0.38 0.82 C 11968 288 333 90 40 30 0 PatternFill
11968 288 N
333 0 V
0 90 V
-333 0 V
0 -90 V
Z stroke
1.000 UL
LTb
0.00 0.38 0.82 C 1327 1093 154 56 40 30 0 PatternFill
1404 1068 M
0 25 V
0 56 R
0 102 V
stroke
1327 1093 N
154 0 V
0 56 V
-154 0 V
0 -56 V
Z stroke
1327 1251 M
154 0 V
1327 1068 M
154 0 V
stroke
1939 1099 154 48 40 30 0 PatternFill
2016 1076 M
0 23 V
0 48 R
0 120 V
stroke
1939 1099 N
154 0 V
0 48 V
-154 0 V
0 -48 V
Z stroke
1939 1267 M
154 0 V
1939 1076 M
154 0 V
stroke
2551 1091 154 46 40 30 0 PatternFill
2628 1079 M
0 12 V
0 46 R
0 78 V
stroke
2551 1091 N
154 0 V
0 46 V
-154 0 V
0 -46 V
Z stroke
2551 1215 M
154 0 V
2551 1079 M
154 0 V
stroke
3163 1093 154 72 40 30 0 PatternFill
3240 1065 M
0 28 V
0 72 R
0 64 V
stroke
3163 1093 N
154 0 V
0 72 V
-154 0 V
0 -72 V
Z stroke
3163 1229 M
154 0 V
3163 1065 M
154 0 V
stroke
3775 1079 154 52 40 30 0 PatternFill
3852 1054 M
0 25 V
0 52 R
0 129 V
stroke
3775 1079 N
154 0 V
0 52 V
-154 0 V
0 -52 V
Z stroke
3775 1260 M
154 0 V
3775 1054 M
154 0 V
stroke
4387 1089 154 44 40 30 0 PatternFill
4464 1065 M
0 24 V
0 44 R
0 76 V
stroke
4387 1089 N
154 0 V
0 44 V
-154 0 V
0 -44 V
Z stroke
4387 1209 M
154 0 V
4387 1065 M
154 0 V
stroke
4999 1096 154 43 40 30 0 PatternFill
5076 1069 M
0 27 V
0 43 R
0 71 V
stroke
4999 1096 N
154 0 V
0 43 V
-154 0 V
0 -43 V
Z stroke
4999 1210 M
154 0 V
4999 1069 M
154 0 V
stroke
5611 1093 154 61 40 30 0 PatternFill
5688 1070 M
0 23 V
0 61 R
0 60 V
stroke
5611 1093 N
154 0 V
0 61 V
-154 0 V
0 -61 V
Z stroke
5611 1214 M
154 0 V
5611 1070 M
154 0 V
stroke
6223 1092 154 46 40 30 0 PatternFill
6300 1079 M
0 13 V
0 46 R
0 103 V
stroke
6223 1092 N
154 0 V
0 46 V
-154 0 V
0 -46 V
Z stroke
6223 1241 M
154 0 V
6223 1079 M
154 0 V
stroke
6835 1087 154 67 40 30 0 PatternFill
6912 1059 M
0 28 V
0 67 R
0 56 V
stroke
6835 1087 N
154 0 V
0 67 V
-154 0 V
0 -67 V
Z stroke
6835 1210 M
154 0 V
6835 1059 M
154 0 V
stroke
7447 1092 154 45 40 30 0 PatternFill
7524 1073 M
0 19 V
0 45 R
0 98 V
stroke
7447 1092 N
154 0 V
0 45 V
-154 0 V
0 -45 V
Z stroke
7447 1235 M
154 0 V
7447 1073 M
154 0 V
stroke
8059 1090 154 49 40 30 0 PatternFill
8136 1070 M
0 20 V
0 49 R
0 106 V
stroke
8059 1090 N
154 0 V
0 49 V
-154 0 V
0 -49 V
Z stroke
8059 1245 M
154 0 V
8059 1070 M
154 0 V
stroke
8671 1098 154 49 40 30 0 PatternFill
8748 1077 M
0 21 V
0 49 R
0 81 V
stroke
8671 1098 N
154 0 V
0 49 V
-154 0 V
0 -49 V
Z stroke
8671 1228 M
154 0 V
8671 1077 M
154 0 V
stroke
9283 1086 154 71 40 30 0 PatternFill
9360 1076 M
0 10 V
0 71 R
0 117 V
stroke
9283 1086 N
154 0 V
0 71 V
-154 0 V
0 -71 V
Z stroke
9283 1274 M
154 0 V
9283 1076 M
154 0 V
stroke
9896 1096 154 74 40 30 0 PatternFill
9973 1069 M
0 27 V
0 74 R
0 97 V
stroke
9896 1096 N
154 0 V
0 74 V
-154 0 V
0 -74 V
Z stroke
9896 1267 M
154 0 V
9896 1069 M
154 0 V
stroke
10508 1105 154 62 40 30 0 PatternFill
10585 1081 M
0 24 V
0 62 R
0 50 V
stroke
10508 1105 N
154 0 V
0 62 V
-154 0 V
0 -62 V
Z stroke
10508 1217 M
154 0 V
-154 -136 R
154 0 V
stroke
11120 1102 154 52 40 30 0 PatternFill
11197 1060 M
0 42 V
0 52 R
0 58 V
stroke
11120 1102 N
154 0 V
0 52 V
-154 0 V
0 -52 V
Z stroke
11120 1212 M
154 0 V
-154 -152 R
154 0 V
stroke
11732 1103 154 53 40 30 0 PatternFill
11809 1083 M
0 20 V
0 53 R
0 133 V
stroke
11732 1103 N
154 0 V
0 53 V
-154 0 V
0 -53 V
Z stroke
11732 1289 M
154 0 V
-154 -206 R
154 0 V
stroke
12344 1104 154 61 40 30 0 PatternFill
12421 1073 M
0 31 V
0 61 R
0 83 V
stroke
12344 1104 N
154 0 V
0 61 V
-154 0 V
0 -61 V
Z stroke
12344 1248 M
154 0 V
-154 -175 R
154 0 V
stroke
12956 1139 154 57 40 30 0 PatternFill
13033 1086 M
0 53 V
0 57 R
0 46 V
stroke
12956 1139 N
154 0 V
0 57 V
-154 0 V
0 -57 V
Z stroke
12956 1242 M
154 0 V
-154 -156 R
154 0 V
% End plot #7
% Begin plot #8
stroke
LTb
LCb setrgbcolor

 /TransparentPatterns true def
1327 1124 154 0 40 -30 0 PatternFill
1404 1124 M
stroke
1327 1124 N
154 0 V
-154 0 V
Z stroke
1327 1124 M
154 0 V
-154 0 R
154 0 V
stroke

 /TransparentPatterns true def
1939 1127 154 0 40 -30 0 PatternFill
2016 1127 M
stroke
1939 1127 N
154 0 V
-154 0 V
Z stroke
1939 1127 M
154 0 V
-154 0 R
154 0 V
stroke

 /TransparentPatterns true def
2551 1120 154 0 40 -30 0 PatternFill
2628 1120 M
stroke
2551 1120 N
154 0 V
-154 0 V
Z stroke
2551 1120 M
154 0 V
-154 0 R
154 0 V
stroke

 /TransparentPatterns true def
3163 1127 154 0 40 -30 0 PatternFill
3240 1127 M
stroke
3163 1127 N
154 0 V
-154 0 V
Z stroke
3163 1127 M
154 0 V
-154 0 R
154 0 V
stroke

 /TransparentPatterns true def
3775 1111 154 0 40 -30 0 PatternFill
3852 1111 M
stroke
3775 1111 N
154 0 V
-154 0 V
Z stroke
3775 1111 M
154 0 V
-154 0 R
154 0 V
stroke

 /TransparentPatterns true def
4387 1113 154 0 40 -30 0 PatternFill
4464 1113 M
stroke
4387 1113 N
154 0 V
-154 0 V
Z stroke
4387 1113 M
154 0 V
-154 0 R
154 0 V
stroke

 /TransparentPatterns true def
4999 1118 154 0 40 -30 0 PatternFill
5076 1118 M
stroke
4999 1118 N
154 0 V
-154 0 V
Z stroke
4999 1118 M
154 0 V
-154 0 R
154 0 V
stroke

 /TransparentPatterns true def
5611 1124 154 0 40 -30 0 PatternFill
5688 1124 M
stroke
5611 1124 N
154 0 V
-154 0 V
Z stroke
5611 1124 M
154 0 V
-154 0 R
154 0 V
stroke

 /TransparentPatterns true def
6223 1119 154 0 40 -30 0 PatternFill
6300 1119 M
stroke
6223 1119 N
154 0 V
-154 0 V
Z stroke
6223 1119 M
154 0 V
-154 0 R
154 0 V
stroke

 /TransparentPatterns true def
6835 1119 154 0 40 -30 0 PatternFill
6912 1119 M
stroke
6835 1119 N
154 0 V
-154 0 V
Z stroke
6835 1119 M
154 0 V
-154 0 R
154 0 V
stroke

 /TransparentPatterns true def
7447 1118 154 0 40 -30 0 PatternFill
7524 1118 M
stroke
7447 1118 N
154 0 V
-154 0 V
Z stroke
7447 1118 M
154 0 V
-154 0 R
154 0 V
stroke

 /TransparentPatterns true def
8059 1120 154 0 40 -30 0 PatternFill
8136 1120 M
stroke
8059 1120 N
154 0 V
-154 0 V
Z stroke
8059 1120 M
154 0 V
-154 0 R
154 0 V
stroke

 /TransparentPatterns true def
8671 1124 154 0 40 -30 0 PatternFill
8748 1124 M
stroke
8671 1124 N
154 0 V
-154 0 V
Z stroke
8671 1124 M
154 0 V
-154 0 R
154 0 V
stroke

 /TransparentPatterns true def
9283 1126 154 0 40 -30 0 PatternFill
9360 1126 M
stroke
9283 1126 N
154 0 V
-154 0 V
Z stroke
9283 1126 M
154 0 V
-154 0 R
154 0 V
stroke

 /TransparentPatterns true def
9896 1138 154 0 40 -30 0 PatternFill
9973 1138 M
stroke
9896 1138 N
154 0 V
-154 0 V
Z stroke
9896 1138 M
154 0 V
-154 0 R
154 0 V
stroke

 /TransparentPatterns true def
10508 1135 154 0 40 -30 0 PatternFill
10585 1135 M
stroke
10508 1135 N
154 0 V
-154 0 V
Z stroke
10508 1135 M
154 0 V
-154 0 R
154 0 V
stroke

 /TransparentPatterns true def
11120 1131 154 0 40 -30 0 PatternFill
11197 1131 M
stroke
11120 1131 N
154 0 V
-154 0 V
Z stroke
11120 1131 M
154 0 V
-154 0 R
154 0 V
stroke

 /TransparentPatterns true def
11732 1135 154 0 40 -30 0 PatternFill
11809 1135 M
stroke
11732 1135 N
154 0 V
-154 0 V
Z stroke
11732 1135 M
154 0 V
-154 0 R
154 0 V
stroke

 /TransparentPatterns true def
12344 1135 154 0 40 -30 0 PatternFill
12421 1135 M
stroke
12344 1135 N
154 0 V
-154 0 V
Z stroke
12344 1135 M
154 0 V
-154 0 R
154 0 V
stroke

 /TransparentPatterns true def
12956 1165 154 0 40 -30 0 PatternFill
13033 1165 M
stroke
12956 1165 N
154 0 V
-154 0 V
Z stroke
12956 1165 M
154 0 V
-154 0 R
154 0 V
% End plot #8
% Begin plot #9
2.000 UP
stroke
LTa
0.00 0.38 0.82 C LCb setrgbcolor
11860 153 M
[ [(Arial) 180.0 0.0 true true 0 ( )]
] -60.0 MRshow
2.000 UP
1.000 UL
LTa
0.00 0.38 0.82 C 11968 153 M
333 0 V
1403 4533 M
612 10 V
612 -42 V
612 23 V
613 17 V
612 -40 V
612 0 V
612 1 V
612 21 V
612 -20 V
612 20 V
612 1 V
612 -23 V
612 40 V
612 0 V
612 -41 V
612 1 V
612 55 V
612 -34 V
612 -1 V
1403 4533 TriU
2015 4543 TriU
2627 4501 TriU
3239 4524 TriU
3852 4541 TriU
4464 4501 TriU
5076 4501 TriU
5688 4502 TriU
6300 4523 TriU
6912 4503 TriU
7524 4523 TriU
8136 4524 TriU
8748 4501 TriU
9360 4541 TriU
9972 4541 TriU
10584 4500 TriU
11196 4501 TriU
11808 4556 TriU
12420 4522 TriU
13032 4521 TriU
12134 153 TriU
% End plot #9
2.000 UL
LTb
LCb setrgbcolor
1.000 UP
1.000 UL
LTb
0.00 0.00 0.00 C stroke
grestore
end
showpage
%%Trailer
%%DocumentFonts: Arial
