%!PS-Adobe-2.0 EPSF-2.0
%%Title: TcpCubic-download-rtt-25UE-90-240.eps
%%Creator: gnuplot 5.0 patchlevel 3
%%CreationDate: Thu Jun  2 10:39:41 2016
%%DocumentFonts: (atend)
%%BoundingBox: 50 50 770 302
%%EndComments
%%BeginProlog
/gnudict 256 dict def
gnudict begin
%
% The following true/false flags may be edited by hand if desired.
% The unit line width and grayscale image gamma correction may also be changed.
%
/Color true def
/Blacktext false def
/Solid false def
/Dashlength 3 def
/Landscape false def
/Level1 false def
/Level3 false def
/Rounded false def
/ClipToBoundingBox false def
/SuppressPDFMark false def
/TransparentPatterns false def
/gnulinewidth 15.000 def
/userlinewidth gnulinewidth def
/Gamma 1.0 def
/BackgroundColor {-1.000 -1.000 -1.000} def
%
/vshift -66 def
/dl1 {
  10.0 Dashlength userlinewidth gnulinewidth div mul mul mul
  Rounded { currentlinewidth 0.75 mul sub dup 0 le { pop 0.01 } if } if
} def
/dl2 {
  10.0 Dashlength userlinewidth gnulinewidth div mul mul mul
  Rounded { currentlinewidth 0.75 mul add } if
} def
/hpt_ 31.5 def
/vpt_ 31.5 def
/hpt hpt_ def
/vpt vpt_ def
/doclip {
  ClipToBoundingBox {
    newpath 50 50 moveto 770 50 lineto 770 302 lineto 50 302 lineto closepath
    clip
  } if
} def
%
% Gnuplot Prolog Version 5.1 (Oct 2015)
%
%/SuppressPDFMark true def
%
/M {moveto} bind def
/L {lineto} bind def
/R {rmoveto} bind def
/V {rlineto} bind def
/N {newpath moveto} bind def
/Z {closepath} bind def
/C {setrgbcolor} bind def
/f {rlineto fill} bind def
/g {setgray} bind def
/Gshow {show} def   % May be redefined later in the file to support UTF-8
/vpt2 vpt 2 mul def
/hpt2 hpt 2 mul def
/Lshow {currentpoint stroke M 0 vshift R 
	Blacktext {gsave 0 setgray textshow grestore} {textshow} ifelse} def
/Rshow {currentpoint stroke M dup stringwidth pop neg vshift R
	Blacktext {gsave 0 setgray textshow grestore} {textshow} ifelse} def
/Cshow {currentpoint stroke M dup stringwidth pop -2 div vshift R 
	Blacktext {gsave 0 setgray textshow grestore} {textshow} ifelse} def
/UP {dup vpt_ mul /vpt exch def hpt_ mul /hpt exch def
  /hpt2 hpt 2 mul def /vpt2 vpt 2 mul def} def
/DL {Color {setrgbcolor Solid {pop []} if 0 setdash}
 {pop pop pop 0 setgray Solid {pop []} if 0 setdash} ifelse} def
/BL {stroke userlinewidth 2 mul setlinewidth
	Rounded {1 setlinejoin 1 setlinecap} if} def
/AL {stroke userlinewidth 2 div setlinewidth
	Rounded {1 setlinejoin 1 setlinecap} if} def
/UL {dup gnulinewidth mul /userlinewidth exch def
	dup 1 lt {pop 1} if 10 mul /udl exch def} def
/PL {stroke userlinewidth setlinewidth
	Rounded {1 setlinejoin 1 setlinecap} if} def
3.8 setmiterlimit
% Classic Line colors (version 5.0)
/LCw {1 1 1} def
/LCb {0 0 0} def
/LCa {0 0 0} def
/LC0 {1 0 0} def
/LC1 {0 1 0} def
/LC2 {0 0 1} def
/LC3 {1 0 1} def
/LC4 {0 1 1} def
/LC5 {1 1 0} def
/LC6 {0 0 0} def
/LC7 {1 0.3 0} def
/LC8 {0.5 0.5 0.5} def
% Default dash patterns (version 5.0)
/LTB {BL [] LCb DL} def
/LTw {PL [] 1 setgray} def
/LTb {PL [] LCb DL} def
/LTa {AL [1 udl mul 2 udl mul] 0 setdash LCa setrgbcolor} def
/LT0 {PL [] LC0 DL} def
/LT1 {PL [2 dl1 3 dl2] LC1 DL} def
/LT2 {PL [1 dl1 1.5 dl2] LC2 DL} def
/LT3 {PL [6 dl1 2 dl2 1 dl1 2 dl2] LC3 DL} def
/LT4 {PL [1 dl1 2 dl2 6 dl1 2 dl2 1 dl1 2 dl2] LC4 DL} def
/LT5 {PL [4 dl1 2 dl2] LC5 DL} def
/LT6 {PL [1.5 dl1 1.5 dl2 1.5 dl1 1.5 dl2 1.5 dl1 6 dl2] LC6 DL} def
/LT7 {PL [3 dl1 3 dl2 1 dl1 3 dl2] LC7 DL} def
/LT8 {PL [2 dl1 2 dl2 2 dl1 6 dl2] LC8 DL} def
/SL {[] 0 setdash} def
/Pnt {stroke [] 0 setdash gsave 1 setlinecap M 0 0 V stroke grestore} def
/Dia {stroke [] 0 setdash 2 copy vpt add M
  hpt neg vpt neg V hpt vpt neg V
  hpt vpt V hpt neg vpt V closepath stroke
  Pnt} def
/Pls {stroke [] 0 setdash vpt sub M 0 vpt2 V
  currentpoint stroke M
  hpt neg vpt neg R hpt2 0 V stroke
 } def
/Box {stroke [] 0 setdash 2 copy exch hpt sub exch vpt add M
  0 vpt2 neg V hpt2 0 V 0 vpt2 V
  hpt2 neg 0 V closepath stroke
  Pnt} def
/Crs {stroke [] 0 setdash exch hpt sub exch vpt add M
  hpt2 vpt2 neg V currentpoint stroke M
  hpt2 neg 0 R hpt2 vpt2 V stroke} def
/TriU {stroke [] 0 setdash 2 copy vpt 1.12 mul add M
  hpt neg vpt -1.62 mul V
  hpt 2 mul 0 V
  hpt neg vpt 1.62 mul V closepath stroke
  Pnt} def
/Star {2 copy Pls Crs} def
/BoxF {stroke [] 0 setdash exch hpt sub exch vpt add M
  0 vpt2 neg V hpt2 0 V 0 vpt2 V
  hpt2 neg 0 V closepath fill} def
/TriUF {stroke [] 0 setdash vpt 1.12 mul add M
  hpt neg vpt -1.62 mul V
  hpt 2 mul 0 V
  hpt neg vpt 1.62 mul V closepath fill} def
/TriD {stroke [] 0 setdash 2 copy vpt 1.12 mul sub M
  hpt neg vpt 1.62 mul V
  hpt 2 mul 0 V
  hpt neg vpt -1.62 mul V closepath stroke
  Pnt} def
/TriDF {stroke [] 0 setdash vpt 1.12 mul sub M
  hpt neg vpt 1.62 mul V
  hpt 2 mul 0 V
  hpt neg vpt -1.62 mul V closepath fill} def
/DiaF {stroke [] 0 setdash vpt add M
  hpt neg vpt neg V hpt vpt neg V
  hpt vpt V hpt neg vpt V closepath fill} def
/Pent {stroke [] 0 setdash 2 copy gsave
  translate 0 hpt M 4 {72 rotate 0 hpt L} repeat
  closepath stroke grestore Pnt} def
/PentF {stroke [] 0 setdash gsave
  translate 0 hpt M 4 {72 rotate 0 hpt L} repeat
  closepath fill grestore} def
/Circle {stroke [] 0 setdash 2 copy
  hpt 0 360 arc stroke Pnt} def
/CircleF {stroke [] 0 setdash hpt 0 360 arc fill} def
/C0 {BL [] 0 setdash 2 copy moveto vpt 90 450 arc} bind def
/C1 {BL [] 0 setdash 2 copy moveto
	2 copy vpt 0 90 arc closepath fill
	vpt 0 360 arc closepath} bind def
/C2 {BL [] 0 setdash 2 copy moveto
	2 copy vpt 90 180 arc closepath fill
	vpt 0 360 arc closepath} bind def
/C3 {BL [] 0 setdash 2 copy moveto
	2 copy vpt 0 180 arc closepath fill
	vpt 0 360 arc closepath} bind def
/C4 {BL [] 0 setdash 2 copy moveto
	2 copy vpt 180 270 arc closepath fill
	vpt 0 360 arc closepath} bind def
/C5 {BL [] 0 setdash 2 copy moveto
	2 copy vpt 0 90 arc
	2 copy moveto
	2 copy vpt 180 270 arc closepath fill
	vpt 0 360 arc} bind def
/C6 {BL [] 0 setdash 2 copy moveto
	2 copy vpt 90 270 arc closepath fill
	vpt 0 360 arc closepath} bind def
/C7 {BL [] 0 setdash 2 copy moveto
	2 copy vpt 0 270 arc closepath fill
	vpt 0 360 arc closepath} bind def
/C8 {BL [] 0 setdash 2 copy moveto
	2 copy vpt 270 360 arc closepath fill
	vpt 0 360 arc closepath} bind def
/C9 {BL [] 0 setdash 2 copy moveto
	2 copy vpt 270 450 arc closepath fill
	vpt 0 360 arc closepath} bind def
/C10 {BL [] 0 setdash 2 copy 2 copy moveto vpt 270 360 arc closepath fill
	2 copy moveto
	2 copy vpt 90 180 arc closepath fill
	vpt 0 360 arc closepath} bind def
/C11 {BL [] 0 setdash 2 copy moveto
	2 copy vpt 0 180 arc closepath fill
	2 copy moveto
	2 copy vpt 270 360 arc closepath fill
	vpt 0 360 arc closepath} bind def
/C12 {BL [] 0 setdash 2 copy moveto
	2 copy vpt 180 360 arc closepath fill
	vpt 0 360 arc closepath} bind def
/C13 {BL [] 0 setdash 2 copy moveto
	2 copy vpt 0 90 arc closepath fill
	2 copy moveto
	2 copy vpt 180 360 arc closepath fill
	vpt 0 360 arc closepath} bind def
/C14 {BL [] 0 setdash 2 copy moveto
	2 copy vpt 90 360 arc closepath fill
	vpt 0 360 arc} bind def
/C15 {BL [] 0 setdash 2 copy vpt 0 360 arc closepath fill
	vpt 0 360 arc closepath} bind def
/Rec {newpath 4 2 roll moveto 1 index 0 rlineto 0 exch rlineto
	neg 0 rlineto closepath} bind def
/Square {dup Rec} bind def
/Bsquare {vpt sub exch vpt sub exch vpt2 Square} bind def
/S0 {BL [] 0 setdash 2 copy moveto 0 vpt rlineto BL Bsquare} bind def
/S1 {BL [] 0 setdash 2 copy vpt Square fill Bsquare} bind def
/S2 {BL [] 0 setdash 2 copy exch vpt sub exch vpt Square fill Bsquare} bind def
/S3 {BL [] 0 setdash 2 copy exch vpt sub exch vpt2 vpt Rec fill Bsquare} bind def
/S4 {BL [] 0 setdash 2 copy exch vpt sub exch vpt sub vpt Square fill Bsquare} bind def
/S5 {BL [] 0 setdash 2 copy 2 copy vpt Square fill
	exch vpt sub exch vpt sub vpt Square fill Bsquare} bind def
/S6 {BL [] 0 setdash 2 copy exch vpt sub exch vpt sub vpt vpt2 Rec fill Bsquare} bind def
/S7 {BL [] 0 setdash 2 copy exch vpt sub exch vpt sub vpt vpt2 Rec fill
	2 copy vpt Square fill Bsquare} bind def
/S8 {BL [] 0 setdash 2 copy vpt sub vpt Square fill Bsquare} bind def
/S9 {BL [] 0 setdash 2 copy vpt sub vpt vpt2 Rec fill Bsquare} bind def
/S10 {BL [] 0 setdash 2 copy vpt sub vpt Square fill 2 copy exch vpt sub exch vpt Square fill
	Bsquare} bind def
/S11 {BL [] 0 setdash 2 copy vpt sub vpt Square fill 2 copy exch vpt sub exch vpt2 vpt Rec fill
	Bsquare} bind def
/S12 {BL [] 0 setdash 2 copy exch vpt sub exch vpt sub vpt2 vpt Rec fill Bsquare} bind def
/S13 {BL [] 0 setdash 2 copy exch vpt sub exch vpt sub vpt2 vpt Rec fill
	2 copy vpt Square fill Bsquare} bind def
/S14 {BL [] 0 setdash 2 copy exch vpt sub exch vpt sub vpt2 vpt Rec fill
	2 copy exch vpt sub exch vpt Square fill Bsquare} bind def
/S15 {BL [] 0 setdash 2 copy Bsquare fill Bsquare} bind def
/D0 {gsave translate 45 rotate 0 0 S0 stroke grestore} bind def
/D1 {gsave translate 45 rotate 0 0 S1 stroke grestore} bind def
/D2 {gsave translate 45 rotate 0 0 S2 stroke grestore} bind def
/D3 {gsave translate 45 rotate 0 0 S3 stroke grestore} bind def
/D4 {gsave translate 45 rotate 0 0 S4 stroke grestore} bind def
/D5 {gsave translate 45 rotate 0 0 S5 stroke grestore} bind def
/D6 {gsave translate 45 rotate 0 0 S6 stroke grestore} bind def
/D7 {gsave translate 45 rotate 0 0 S7 stroke grestore} bind def
/D8 {gsave translate 45 rotate 0 0 S8 stroke grestore} bind def
/D9 {gsave translate 45 rotate 0 0 S9 stroke grestore} bind def
/D10 {gsave translate 45 rotate 0 0 S10 stroke grestore} bind def
/D11 {gsave translate 45 rotate 0 0 S11 stroke grestore} bind def
/D12 {gsave translate 45 rotate 0 0 S12 stroke grestore} bind def
/D13 {gsave translate 45 rotate 0 0 S13 stroke grestore} bind def
/D14 {gsave translate 45 rotate 0 0 S14 stroke grestore} bind def
/D15 {gsave translate 45 rotate 0 0 S15 stroke grestore} bind def
/DiaE {stroke [] 0 setdash vpt add M
  hpt neg vpt neg V hpt vpt neg V
  hpt vpt V hpt neg vpt V closepath stroke} def
/BoxE {stroke [] 0 setdash exch hpt sub exch vpt add M
  0 vpt2 neg V hpt2 0 V 0 vpt2 V
  hpt2 neg 0 V closepath stroke} def
/TriUE {stroke [] 0 setdash vpt 1.12 mul add M
  hpt neg vpt -1.62 mul V
  hpt 2 mul 0 V
  hpt neg vpt 1.62 mul V closepath stroke} def
/TriDE {stroke [] 0 setdash vpt 1.12 mul sub M
  hpt neg vpt 1.62 mul V
  hpt 2 mul 0 V
  hpt neg vpt -1.62 mul V closepath stroke} def
/PentE {stroke [] 0 setdash gsave
  translate 0 hpt M 4 {72 rotate 0 hpt L} repeat
  closepath stroke grestore} def
/CircE {stroke [] 0 setdash 
  hpt 0 360 arc stroke} def
/Opaque {gsave closepath 1 setgray fill grestore 0 setgray closepath} def
/DiaW {stroke [] 0 setdash vpt add M
  hpt neg vpt neg V hpt vpt neg V
  hpt vpt V hpt neg vpt V Opaque stroke} def
/BoxW {stroke [] 0 setdash exch hpt sub exch vpt add M
  0 vpt2 neg V hpt2 0 V 0 vpt2 V
  hpt2 neg 0 V Opaque stroke} def
/TriUW {stroke [] 0 setdash vpt 1.12 mul add M
  hpt neg vpt -1.62 mul V
  hpt 2 mul 0 V
  hpt neg vpt 1.62 mul V Opaque stroke} def
/TriDW {stroke [] 0 setdash vpt 1.12 mul sub M
  hpt neg vpt 1.62 mul V
  hpt 2 mul 0 V
  hpt neg vpt -1.62 mul V Opaque stroke} def
/PentW {stroke [] 0 setdash gsave
  translate 0 hpt M 4 {72 rotate 0 hpt L} repeat
  Opaque stroke grestore} def
/CircW {stroke [] 0 setdash 
  hpt 0 360 arc Opaque stroke} def
/BoxFill {gsave Rec 1 setgray fill grestore} def
/Density {
  /Fillden exch def
  currentrgbcolor
  /ColB exch def /ColG exch def /ColR exch def
  /ColR ColR Fillden mul Fillden sub 1 add def
  /ColG ColG Fillden mul Fillden sub 1 add def
  /ColB ColB Fillden mul Fillden sub 1 add def
  ColR ColG ColB setrgbcolor} def
/BoxColFill {gsave Rec PolyFill} def
/PolyFill {gsave Density fill grestore grestore} def
/h {rlineto rlineto rlineto gsave closepath fill grestore} bind def
%
% PostScript Level 1 Pattern Fill routine for rectangles
% Usage: x y w h s a XX PatternFill
%	x,y = lower left corner of box to be filled
%	w,h = width and height of box
%	  a = angle in degrees between lines and x-axis
%	 XX = 0/1 for no/yes cross-hatch
%
/PatternFill {gsave /PFa [ 9 2 roll ] def
  PFa 0 get PFa 2 get 2 div add PFa 1 get PFa 3 get 2 div add translate
  PFa 2 get -2 div PFa 3 get -2 div PFa 2 get PFa 3 get Rec
  TransparentPatterns {} {gsave 1 setgray fill grestore} ifelse
  clip
  currentlinewidth 0.5 mul setlinewidth
  /PFs PFa 2 get dup mul PFa 3 get dup mul add sqrt def
  0 0 M PFa 5 get rotate PFs -2 div dup translate
  0 1 PFs PFa 4 get div 1 add floor cvi
	{PFa 4 get mul 0 M 0 PFs V} for
  0 PFa 6 get ne {
	0 1 PFs PFa 4 get div 1 add floor cvi
	{PFa 4 get mul 0 2 1 roll M PFs 0 V} for
 } if
  stroke grestore} def
%
/languagelevel where
 {pop languagelevel} {1} ifelse
dup 2 lt
	{/InterpretLevel1 true def
	 /InterpretLevel3 false def}
	{/InterpretLevel1 Level1 def
	 2 gt
	    {/InterpretLevel3 Level3 def}
	    {/InterpretLevel3 false def}
	 ifelse }
 ifelse
%
% PostScript level 2 pattern fill definitions
%
/Level2PatternFill {
/Tile8x8 {/PaintType 2 /PatternType 1 /TilingType 1 /BBox [0 0 8 8] /XStep 8 /YStep 8}
	bind def
/KeepColor {currentrgbcolor [/Pattern /DeviceRGB] setcolorspace} bind def
<< Tile8x8
 /PaintProc {0.5 setlinewidth pop 0 0 M 8 8 L 0 8 M 8 0 L stroke} 
>> matrix makepattern
/Pat1 exch def
<< Tile8x8
 /PaintProc {0.5 setlinewidth pop 0 0 M 8 8 L 0 8 M 8 0 L stroke
	0 4 M 4 8 L 8 4 L 4 0 L 0 4 L stroke}
>> matrix makepattern
/Pat2 exch def
<< Tile8x8
 /PaintProc {0.5 setlinewidth pop 0 0 M 0 8 L
	8 8 L 8 0 L 0 0 L fill}
>> matrix makepattern
/Pat3 exch def
<< Tile8x8
 /PaintProc {0.5 setlinewidth pop -4 8 M 8 -4 L
	0 12 M 12 0 L stroke}
>> matrix makepattern
/Pat4 exch def
<< Tile8x8
 /PaintProc {0.5 setlinewidth pop -4 0 M 8 12 L
	0 -4 M 12 8 L stroke}
>> matrix makepattern
/Pat5 exch def
<< Tile8x8
 /PaintProc {0.5 setlinewidth pop -2 8 M 4 -4 L
	0 12 M 8 -4 L 4 12 M 10 0 L stroke}
>> matrix makepattern
/Pat6 exch def
<< Tile8x8
 /PaintProc {0.5 setlinewidth pop -2 0 M 4 12 L
	0 -4 M 8 12 L 4 -4 M 10 8 L stroke}
>> matrix makepattern
/Pat7 exch def
<< Tile8x8
 /PaintProc {0.5 setlinewidth pop 8 -2 M -4 4 L
	12 0 M -4 8 L 12 4 M 0 10 L stroke}
>> matrix makepattern
/Pat8 exch def
<< Tile8x8
 /PaintProc {0.5 setlinewidth pop 0 -2 M 12 4 L
	-4 0 M 12 8 L -4 4 M 8 10 L stroke}
>> matrix makepattern
/Pat9 exch def
/Pattern1 {PatternBgnd KeepColor Pat1 setpattern} bind def
/Pattern2 {PatternBgnd KeepColor Pat2 setpattern} bind def
/Pattern3 {PatternBgnd KeepColor Pat3 setpattern} bind def
/Pattern4 {PatternBgnd KeepColor Landscape {Pat5} {Pat4} ifelse setpattern} bind def
/Pattern5 {PatternBgnd KeepColor Landscape {Pat4} {Pat5} ifelse setpattern} bind def
/Pattern6 {PatternBgnd KeepColor Landscape {Pat9} {Pat6} ifelse setpattern} bind def
/Pattern7 {PatternBgnd KeepColor Landscape {Pat8} {Pat7} ifelse setpattern} bind def
} def
%
%
%End of PostScript Level 2 code
%
/PatternBgnd {
  TransparentPatterns {} {gsave 1 setgray fill grestore} ifelse
} def
%
% Substitute for Level 2 pattern fill codes with
% grayscale if Level 2 support is not selected.
%
/Level1PatternFill {
/Pattern1 {0.250 Density} bind def
/Pattern2 {0.500 Density} bind def
/Pattern3 {0.750 Density} bind def
/Pattern4 {0.125 Density} bind def
/Pattern5 {0.375 Density} bind def
/Pattern6 {0.625 Density} bind def
/Pattern7 {0.875 Density} bind def
} def
%
% Now test for support of Level 2 code
%
Level1 {Level1PatternFill} {Level2PatternFill} ifelse
%
/Symbol-Oblique /Symbol findfont [1 0 .167 1 0 0] makefont
dup length dict begin {1 index /FID eq {pop pop} {def} ifelse} forall
currentdict end definefont pop
%
/MFshow {
   { dup 5 get 3 ge
     { 5 get 3 eq {gsave} {grestore} ifelse }
     {dup dup 0 get findfont exch 1 get scalefont setfont
     [ currentpoint ] exch dup 2 get 0 exch R dup 5 get 2 ne {dup dup 6
     get exch 4 get {textshow} {stringwidth pop 0 R} ifelse }if dup 5 get 0 eq
     {dup 3 get {2 get neg 0 exch R pop} {pop aload pop M} ifelse} {dup 5
     get 1 eq {dup 2 get exch dup 3 get exch 6 get stringwidth pop -2 div
     dup 0 R} {dup 6 get stringwidth pop -2 div 0 R 6 get
     textshow 2 index {aload pop M neg 3 -1 roll neg R pop pop} {pop pop pop
     pop aload pop M} ifelse }ifelse }ifelse }
     ifelse }
   forall} def
/Gswidth {dup type /stringtype eq {stringwidth} {pop (n) stringwidth} ifelse} def
/MFwidth {0 exch { dup 5 get 3 ge { 5 get 3 eq { 0 } { pop } ifelse }
 {dup 3 get{dup dup 0 get findfont exch 1 get scalefont setfont
     6 get Gswidth pop add} {pop} ifelse} ifelse} forall} def
/MLshow { currentpoint stroke M
  0 exch R
  Blacktext {gsave 0 setgray MFshow grestore} {MFshow} ifelse } bind def
/MRshow { currentpoint stroke M
  exch dup MFwidth neg 3 -1 roll R
  Blacktext {gsave 0 setgray MFshow grestore} {MFshow} ifelse } bind def
/MCshow { currentpoint stroke M
  exch dup MFwidth -2 div 3 -1 roll R
  Blacktext {gsave 0 setgray MFshow grestore} {MFshow} ifelse } bind def
/XYsave    { [( ) 1 2 true false 3 ()] } bind def
/XYrestore { [( ) 1 2 true false 4 ()] } bind def
Level1 SuppressPDFMark or 
{} {
/SDict 10 dict def
systemdict /pdfmark known not {
  userdict /pdfmark systemdict /cleartomark get put
} if
SDict begin [
  /Title (TcpCubic-download-rtt-25UE-90-240.eps)
  /Subject (gnuplot plot)
  /Creator (gnuplot 5.0 patchlevel 3)
  /Author (nat)
%  /Producer (gnuplot)
%  /Keywords ()
  /CreationDate (Thu Jun  2 10:39:41 2016)
  /DOCINFO pdfmark
end
} ifelse
%
% Support for boxed text - Ethan A Merritt May 2005
%
/InitTextBox { userdict /TBy2 3 -1 roll put userdict /TBx2 3 -1 roll put
           userdict /TBy1 3 -1 roll put userdict /TBx1 3 -1 roll put
	   /Boxing true def } def
/ExtendTextBox { Boxing
    { gsave dup false charpath pathbbox
      dup TBy2 gt {userdict /TBy2 3 -1 roll put} {pop} ifelse
      dup TBx2 gt {userdict /TBx2 3 -1 roll put} {pop} ifelse
      dup TBy1 lt {userdict /TBy1 3 -1 roll put} {pop} ifelse
      dup TBx1 lt {userdict /TBx1 3 -1 roll put} {pop} ifelse
      grestore } if } def
/PopTextBox { newpath TBx1 TBxmargin sub TBy1 TBymargin sub M
               TBx1 TBxmargin sub TBy2 TBymargin add L
	       TBx2 TBxmargin add TBy2 TBymargin add L
	       TBx2 TBxmargin add TBy1 TBymargin sub L closepath } def
/DrawTextBox { PopTextBox stroke /Boxing false def} def
/FillTextBox { gsave PopTextBox 1 1 1 setrgbcolor fill grestore /Boxing false def} def
0 0 0 0 InitTextBox
/TBxmargin 20 def
/TBymargin 20 def
/Boxing false def
/textshow { ExtendTextBox Gshow } def
%
% redundant definitions for compatibility with prologue.ps older than 5.0.2
/LTB {BL [] LCb DL} def
/LTb {PL [] LCb DL} def
end
%%EndProlog
%%Page: 1 1
gnudict begin
gsave
doclip
50 50 translate
0.050 0.050 scale
0 setgray
newpath
(Arial) findfont 200 scalefont setfont
BackgroundColor 0 lt 3 1 roll 0 lt exch 0 lt or or not {BackgroundColor C 1.000 0 0 14400.00 5040.00 BoxColFill} if
1.000 UL
LTb
0.00 0.00 0.00 C 0.500 UL
LTa
0.50 0.50 0.50 C 980 1000 M
12139 0 V
stroke
1.000 UL
LTb
0.00 0.00 0.00 C 980 1000 M
63 0 V
stroke
860 1000 M
[ [(Arial) 200.0 0.0 true true 0 ( 40)]
] -66.7 MRshow
1.000 UL
LTb
0.00 0.00 0.00 C 0.500 UL
LTa
0.50 0.50 0.50 C 980 1543 M
12139 0 V
stroke
1.000 UL
LTb
0.00 0.00 0.00 C 980 1543 M
63 0 V
stroke
860 1543 M
[ [(Arial) 200.0 0.0 true true 0 ( 60)]
] -66.7 MRshow
1.000 UL
LTb
0.00 0.00 0.00 C 0.500 UL
LTa
0.50 0.50 0.50 C 980 2085 M
12139 0 V
stroke
1.000 UL
LTb
0.00 0.00 0.00 C 980 2085 M
63 0 V
stroke
860 2085 M
[ [(Arial) 200.0 0.0 true true 0 ( 80)]
] -66.7 MRshow
1.000 UL
LTb
0.00 0.00 0.00 C 0.500 UL
LTa
0.50 0.50 0.50 C 980 2628 M
12139 0 V
stroke
1.000 UL
LTb
0.00 0.00 0.00 C 980 2628 M
63 0 V
stroke
860 2628 M
[ [(Arial) 200.0 0.0 true true 0 ( 100)]
] -66.7 MRshow
1.000 UL
LTb
0.00 0.00 0.00 C 0.500 UL
LTa
0.50 0.50 0.50 C 980 3171 M
12139 0 V
stroke
1.000 UL
LTb
0.00 0.00 0.00 C 980 3171 M
63 0 V
stroke
860 3171 M
[ [(Arial) 200.0 0.0 true true 0 ( 120)]
] -66.7 MRshow
1.000 UL
LTb
0.00 0.00 0.00 C 0.500 UL
LTa
0.50 0.50 0.50 C 980 3714 M
12139 0 V
stroke
1.000 UL
LTb
0.00 0.00 0.00 C 980 3714 M
63 0 V
stroke
860 3714 M
[ [(Arial) 200.0 0.0 true true 0 ( 140)]
] -66.7 MRshow
1.000 UL
LTb
0.00 0.00 0.00 C 0.500 UL
LTa
0.50 0.50 0.50 C 980 4256 M
12139 0 V
stroke
1.000 UL
LTb
0.00 0.00 0.00 C 980 4256 M
63 0 V
stroke
860 4256 M
[ [(Arial) 200.0 0.0 true true 0 ( 160)]
] -66.7 MRshow
1.000 UL
LTb
0.00 0.00 0.00 C 0.500 UL
LTa
0.50 0.50 0.50 C 980 4799 M
12139 0 V
stroke
1.000 UL
LTb
0.00 0.00 0.00 C 980 4799 M
63 0 V
stroke
860 4799 M
[ [(Arial) 200.0 0.0 true true 0 ( 180)]
] -66.7 MRshow
1.000 UL
LTb
0.00 0.00 0.00 C 0.500 UL
LTa
0.50 0.50 0.50 C 1359 1000 M
0 3799 V
stroke
1.000 UL
LTb
0.00 0.00 0.00 C 1359 1000 M
0 63 V
0 3736 R
0 -63 V
stroke
1359 800 M
[ [(Arial) 200.0 0.0 true true 0 ( 270)]
] -66.7 MCshow
1.000 UL
LTb
0.00 0.00 0.00 C 0.500 UL
LTa
0.50 0.50 0.50 C 2118 1000 M
0 3799 V
stroke
1.000 UL
LTb
0.00 0.00 0.00 C 2118 1000 M
0 63 V
0 3736 R
0 -63 V
stroke
2118 800 M
[ [(Arial) 200.0 0.0 true true 0 ( 300)]
] -66.7 MCshow
1.000 UL
LTb
0.00 0.00 0.00 C 0.500 UL
LTa
0.50 0.50 0.50 C 2877 1000 M
0 3799 V
stroke
1.000 UL
LTb
0.00 0.00 0.00 C 2877 1000 M
0 63 V
0 3736 R
0 -63 V
stroke
2877 800 M
[ [(Arial) 200.0 0.0 true true 0 ( 330)]
] -66.7 MCshow
1.000 UL
LTb
0.00 0.00 0.00 C 0.500 UL
LTa
0.50 0.50 0.50 C 3635 1000 M
0 3799 V
stroke
1.000 UL
LTb
0.00 0.00 0.00 C 3635 1000 M
0 63 V
0 3736 R
0 -63 V
stroke
3635 800 M
[ [(Arial) 200.0 0.0 true true 0 ( 360)]
] -66.7 MCshow
1.000 UL
LTb
0.00 0.00 0.00 C 0.500 UL
LTa
0.50 0.50 0.50 C 4394 1000 M
0 3799 V
stroke
1.000 UL
LTb
0.00 0.00 0.00 C 4394 1000 M
0 63 V
0 3736 R
0 -63 V
stroke
4394 800 M
[ [(Arial) 200.0 0.0 true true 0 ( 390)]
] -66.7 MCshow
1.000 UL
LTb
0.00 0.00 0.00 C 0.500 UL
LTa
0.50 0.50 0.50 C 5153 1000 M
0 3799 V
stroke
1.000 UL
LTb
0.00 0.00 0.00 C 5153 1000 M
0 63 V
0 3736 R
0 -63 V
stroke
5153 800 M
[ [(Arial) 200.0 0.0 true true 0 ( 420)]
] -66.7 MCshow
1.000 UL
LTb
0.00 0.00 0.00 C 0.500 UL
LTa
0.50 0.50 0.50 C 5911 1000 M
0 3799 V
stroke
1.000 UL
LTb
0.00 0.00 0.00 C 5911 1000 M
0 63 V
0 3736 R
0 -63 V
stroke
5911 800 M
[ [(Arial) 200.0 0.0 true true 0 ( 450)]
] -66.7 MCshow
1.000 UL
LTb
0.00 0.00 0.00 C 0.500 UL
LTa
0.50 0.50 0.50 C 6670 1000 M
0 3799 V
stroke
1.000 UL
LTb
0.00 0.00 0.00 C 6670 1000 M
0 63 V
0 3736 R
0 -63 V
stroke
6670 800 M
[ [(Arial) 200.0 0.0 true true 0 ( 480)]
] -66.7 MCshow
1.000 UL
LTb
0.00 0.00 0.00 C 0.500 UL
LTa
0.50 0.50 0.50 C 7429 1000 M
0 3799 V
stroke
1.000 UL
LTb
0.00 0.00 0.00 C 7429 1000 M
0 63 V
0 3736 R
0 -63 V
stroke
7429 800 M
[ [(Arial) 200.0 0.0 true true 0 ( 510)]
] -66.7 MCshow
1.000 UL
LTb
0.00 0.00 0.00 C 0.500 UL
LTa
0.50 0.50 0.50 C 8188 1000 M
0 3799 V
stroke
1.000 UL
LTb
0.00 0.00 0.00 C 8188 1000 M
0 63 V
0 3736 R
0 -63 V
stroke
8188 800 M
[ [(Arial) 200.0 0.0 true true 0 ( 540)]
] -66.7 MCshow
1.000 UL
LTb
0.00 0.00 0.00 C 0.500 UL
LTa
0.50 0.50 0.50 C 8946 1000 M
0 3799 V
stroke
1.000 UL
LTb
0.00 0.00 0.00 C 8946 1000 M
0 63 V
0 3736 R
0 -63 V
stroke
8946 800 M
[ [(Arial) 200.0 0.0 true true 0 ( 570)]
] -66.7 MCshow
1.000 UL
LTb
0.00 0.00 0.00 C 0.500 UL
LTa
0.50 0.50 0.50 C 9705 1000 M
0 3799 V
stroke
1.000 UL
LTb
0.00 0.00 0.00 C 9705 1000 M
0 63 V
0 3736 R
0 -63 V
stroke
9705 800 M
[ [(Arial) 200.0 0.0 true true 0 ( 600)]
] -66.7 MCshow
1.000 UL
LTb
0.00 0.00 0.00 C 0.500 UL
LTa
0.50 0.50 0.50 C 10464 1000 M
0 3799 V
stroke
1.000 UL
LTb
0.00 0.00 0.00 C 10464 1000 M
0 63 V
0 3736 R
0 -63 V
stroke
10464 800 M
[ [(Arial) 200.0 0.0 true true 0 ( 630)]
] -66.7 MCshow
1.000 UL
LTb
0.00 0.00 0.00 C 0.500 UL
LTa
0.50 0.50 0.50 C 11222 1000 M
0 3799 V
stroke
1.000 UL
LTb
0.00 0.00 0.00 C 11222 1000 M
0 63 V
0 3736 R
0 -63 V
stroke
11222 800 M
[ [(Arial) 200.0 0.0 true true 0 ( 660)]
] -66.7 MCshow
1.000 UL
LTb
0.00 0.00 0.00 C 0.500 UL
LTa
0.50 0.50 0.50 C 11981 1000 M
0 3799 V
stroke
1.000 UL
LTb
0.00 0.00 0.00 C 11981 1000 M
0 63 V
0 3736 R
0 -63 V
stroke
11981 800 M
[ [(Arial) 200.0 0.0 true true 0 ( 690)]
] -66.7 MCshow
1.000 UL
LTb
0.00 0.00 0.00 C 0.500 UL
LTa
0.50 0.50 0.50 C 12740 1000 M
0 3799 V
stroke
1.000 UL
LTb
0.00 0.00 0.00 C 12740 1000 M
0 63 V
0 3736 R
0 -63 V
stroke
12740 800 M
[ [(Arial) 200.0 0.0 true true 0 ( 720)]
] -66.7 MCshow
1.000 UL
LTb
0.00 0.00 0.00 C 13119 1000 M
-63 0 V
stroke
13239 1000 M
[ [(Arial) 200.0 0.0 true true 0 ( 0)]
] -66.7 MLshow
1.000 UL
LTb
0.00 0.00 0.00 C 13119 1760 M
-63 0 V
stroke
13239 1760 M
[ [(Arial) 200.0 0.0 true true 0 ( 20)]
] -66.7 MLshow
1.000 UL
LTb
0.00 0.00 0.00 C 13119 2520 M
-63 0 V
stroke
13239 2520 M
[ [(Arial) 200.0 0.0 true true 0 ( 40)]
] -66.7 MLshow
1.000 UL
LTb
0.00 0.00 0.00 C 13119 3279 M
-63 0 V
stroke
13239 3279 M
[ [(Arial) 200.0 0.0 true true 0 ( 60)]
] -66.7 MLshow
1.000 UL
LTb
0.00 0.00 0.00 C 13119 4039 M
-63 0 V
stroke
13239 4039 M
[ [(Arial) 200.0 0.0 true true 0 ( 80)]
] -66.7 MLshow
1.000 UL
LTb
0.00 0.00 0.00 C 13119 4799 M
-63 0 V
stroke
13239 4799 M
[ [(Arial) 200.0 0.0 true true 0 ( 100)]
] -66.7 MLshow
1.000 UL
LTb
0.00 0.00 0.00 C 1.000 UL
LTB
0.00 0.00 0.00 C 980 4799 M
0 -3799 V
12139 0 V
0 3799 R
980 4799 M
1.000 UP
stroke
LTb
0.00 0.00 0.00 C LCb setrgbcolor
160 2899 M
currentpoint gsave translate -270 rotate 0 0 moveto
[ [(Arial) 200.0 0.0 true true 0 (RTT \(ms\))]
] -66.7 MCshow
grestore
LTb
LCb setrgbcolor
13938 2899 M
currentpoint gsave translate -270 rotate 0 0 moveto
[ [(Arial) 200.0 0.0 true true 0 (TCP delivery ratio [%])]
] -66.7 MCshow
grestore
LTb
LCb setrgbcolor
7049 500 M
[ [(Arial) 200.0 0.0 true true 0 (Local backhaul traffic traffic \(Mb/s\))]
] -66.7 MCshow
LTb
% Begin plot #1
1.000 UL
LTb
0.60 0.60 0.00 C LCb setrgbcolor
4714 333 M
[ [(Arial) 180.0 0.0 true true 0 (RTT      :   olsr)]
] -60.0 MRshow
1.000 UL
LTb
0.60 0.60 0.00 C 4822 288 333 90 80 -45 0 PatternFill
4822 288 N
333 0 V
0 90 V
-333 0 V
0 -90 V
Z stroke
1.000 UL
LTb
0.60 0.60 0.00 C 1094 1178 152 256 80 -45 0 PatternFill
1170 1157 M
0 21 V
0 256 R
0 1101 V
stroke
1094 1178 N
152 0 V
0 256 V
-152 0 V
0 -256 V
Z stroke
1094 2535 M
152 0 V
1094 1157 M
152 0 V
stroke
1852 1172 152 262 80 -45 0 PatternFill
1928 1153 M
0 19 V
0 262 R
0 866 V
stroke
1852 1172 N
152 0 V
0 262 V
-152 0 V
0 -262 V
Z stroke
1852 2300 M
152 0 V
1852 1153 M
152 0 V
stroke
2611 1180 152 378 80 -45 0 PatternFill
2687 1158 M
0 22 V
0 378 R
0 813 V
stroke
2611 1180 N
152 0 V
0 378 V
-152 0 V
0 -378 V
Z stroke
2611 2371 M
152 0 V
2611 1158 M
152 0 V
stroke
3370 1182 152 328 80 -45 0 PatternFill
3446 1154 M
0 28 V
0 328 R
0 874 V
stroke
3370 1182 N
152 0 V
0 328 V
-152 0 V
0 -328 V
Z stroke
3370 2384 M
152 0 V
3370 1154 M
152 0 V
stroke
4129 1187 152 391 80 -45 0 PatternFill
4205 1159 M
0 28 V
0 391 R
0 986 V
stroke
4129 1187 N
152 0 V
0 391 V
-152 0 V
0 -391 V
Z stroke
4129 2564 M
152 0 V
4129 1159 M
152 0 V
stroke
4887 1179 152 477 80 -45 0 PatternFill
4963 1157 M
0 22 V
0 477 R
0 771 V
stroke
4887 1179 N
152 0 V
0 477 V
-152 0 V
0 -477 V
Z stroke
4887 2427 M
152 0 V
4887 1157 M
152 0 V
stroke
5646 1180 152 348 80 -45 0 PatternFill
5722 1154 M
0 26 V
0 348 R
0 1090 V
stroke
5646 1180 N
152 0 V
0 348 V
-152 0 V
0 -348 V
Z stroke
5646 2618 M
152 0 V
5646 1154 M
152 0 V
stroke
6405 1188 152 331 80 -45 0 PatternFill
6481 1160 M
0 28 V
0 331 R
0 923 V
stroke
6405 1188 N
152 0 V
0 331 V
-152 0 V
0 -331 V
Z stroke
6405 2442 M
152 0 V
6405 1160 M
152 0 V
stroke
7163 1193 152 341 80 -45 0 PatternFill
7239 1167 M
0 26 V
0 341 R
0 877 V
stroke
7163 1193 N
152 0 V
0 341 V
-152 0 V
0 -341 V
Z stroke
7163 2411 M
152 0 V
7163 1167 M
152 0 V
stroke
7922 1182 152 238 80 -45 0 PatternFill
7998 1156 M
0 26 V
0 238 R
0 924 V
stroke
7922 1182 N
152 0 V
0 238 V
-152 0 V
0 -238 V
Z stroke
7922 2344 M
152 0 V
7922 1156 M
152 0 V
stroke
8681 1177 152 274 80 -45 0 PatternFill
8757 1157 M
0 20 V
0 274 R
0 1030 V
stroke
8681 1177 N
152 0 V
0 274 V
-152 0 V
0 -274 V
Z stroke
8681 2481 M
152 0 V
8681 1157 M
152 0 V
stroke
9439 1182 152 520 80 -45 0 PatternFill
9515 1159 M
0 23 V
0 520 R
0 695 V
stroke
9439 1182 N
152 0 V
0 520 V
-152 0 V
0 -520 V
Z stroke
9439 2397 M
152 0 V
9439 1159 M
152 0 V
stroke
10198 1192 152 414 80 -45 0 PatternFill
10274 1157 M
0 35 V
0 414 R
0 1042 V
stroke
10198 1192 N
152 0 V
0 414 V
-152 0 V
0 -414 V
Z stroke
10198 2648 M
152 0 V
10198 1157 M
152 0 V
stroke
10957 1196 152 530 80 -45 0 PatternFill
11033 1162 M
0 34 V
0 530 R
0 1146 V
stroke
10957 1196 N
152 0 V
0 530 V
-152 0 V
0 -530 V
Z stroke
10957 2872 M
152 0 V
10957 1162 M
152 0 V
stroke
11715 1182 152 260 80 -45 0 PatternFill
11791 1157 M
0 25 V
0 260 R
0 1068 V
stroke
11715 1182 N
152 0 V
0 260 V
-152 0 V
0 -260 V
Z stroke
11715 2510 M
152 0 V
11715 1157 M
152 0 V
stroke
12474 1177 152 226 80 -45 0 PatternFill
12550 1157 M
0 20 V
0 226 R
0 883 V
stroke
12474 1177 N
152 0 V
0 226 V
-152 0 V
0 -226 V
Z stroke
12474 2286 M
152 0 V
12474 1157 M
152 0 V
% End plot #1
% Begin plot #2
stroke
LTb
LCb setrgbcolor

 /TransparentPatterns true def
1094 1439 152 0 40 30 0 PatternFill
1170 1439 M
stroke
1094 1439 N
152 0 V
-152 0 V
Z stroke
1094 1439 M
152 0 V
-152 0 R
152 0 V
stroke

 /TransparentPatterns true def
1852 1403 152 0 40 30 0 PatternFill
1928 1403 M
stroke
1852 1403 N
152 0 V
-152 0 V
Z stroke
1852 1403 M
152 0 V
-152 0 R
152 0 V
stroke

 /TransparentPatterns true def
2611 1456 152 0 40 30 0 PatternFill
2687 1456 M
stroke
2611 1456 N
152 0 V
-152 0 V
Z stroke
2611 1456 M
152 0 V
-152 0 R
152 0 V
stroke

 /TransparentPatterns true def
3370 1436 152 0 40 30 0 PatternFill
3446 1436 M
stroke
3370 1436 N
152 0 V
-152 0 V
Z stroke
3370 1436 M
152 0 V
-152 0 R
152 0 V
stroke

 /TransparentPatterns true def
4129 1495 152 0 40 30 0 PatternFill
4205 1495 M
stroke
4129 1495 N
152 0 V
-152 0 V
Z stroke
4129 1495 M
152 0 V
-152 0 R
152 0 V
stroke

 /TransparentPatterns true def
4887 1480 152 0 40 30 0 PatternFill
4963 1480 M
stroke
4887 1480 N
152 0 V
-152 0 V
Z stroke
4887 1480 M
152 0 V
-152 0 R
152 0 V
stroke

 /TransparentPatterns true def
5646 1468 152 0 40 30 0 PatternFill
5722 1468 M
stroke
5646 1468 N
152 0 V
-152 0 V
Z stroke
5646 1468 M
152 0 V
-152 0 R
152 0 V
stroke

 /TransparentPatterns true def
6405 1456 152 0 40 30 0 PatternFill
6481 1456 M
stroke
6405 1456 N
152 0 V
-152 0 V
Z stroke
6405 1456 M
152 0 V
-152 0 R
152 0 V
stroke

 /TransparentPatterns true def
7163 1472 152 0 40 30 0 PatternFill
7239 1472 M
stroke
7163 1472 N
152 0 V
-152 0 V
Z stroke
7163 1472 M
152 0 V
-152 0 R
152 0 V
stroke

 /TransparentPatterns true def
7922 1422 152 0 40 30 0 PatternFill
7998 1422 M
stroke
7922 1422 N
152 0 V
-152 0 V
Z stroke
7922 1422 M
152 0 V
-152 0 R
152 0 V
stroke

 /TransparentPatterns true def
8681 1446 152 0 40 30 0 PatternFill
8757 1446 M
stroke
8681 1446 N
152 0 V
-152 0 V
Z stroke
8681 1446 M
152 0 V
-152 0 R
152 0 V
stroke

 /TransparentPatterns true def
9439 1496 152 0 40 30 0 PatternFill
9515 1496 M
stroke
9439 1496 N
152 0 V
-152 0 V
Z stroke
9439 1496 M
152 0 V
-152 0 R
152 0 V
stroke

 /TransparentPatterns true def
10198 1502 152 0 40 30 0 PatternFill
10274 1502 M
stroke
10198 1502 N
152 0 V
-152 0 V
Z stroke
10198 1502 M
152 0 V
-152 0 R
152 0 V
stroke

 /TransparentPatterns true def
10957 1556 152 0 40 30 0 PatternFill
11033 1556 M
stroke
10957 1556 N
152 0 V
-152 0 V
Z stroke
10957 1556 M
152 0 V
-152 0 R
152 0 V
stroke

 /TransparentPatterns true def
11715 1434 152 0 40 30 0 PatternFill
11791 1434 M
stroke
11715 1434 N
152 0 V
-152 0 V
Z stroke
11715 1434 M
152 0 V
-152 0 R
152 0 V
stroke

 /TransparentPatterns true def
12474 1399 152 0 40 30 0 PatternFill
12550 1399 M
stroke
12474 1399 N
152 0 V
-152 0 V
Z stroke
12474 1399 M
152 0 V
-152 0 R
152 0 V
% End plot #2
% Begin plot #3
2.000 UP
stroke
LTa
0.60 0.60 0.00 C LCb setrgbcolor
4714 153 M
[ [(Arial) 180.0 0.0 true true 0 (app. received bytes :         )]
] -60.0 MRshow
2.000 UP
1.000 UL
LTa
0.60 0.60 0.00 C 4822 153 M
333 0 V
980 4799 M
190 0 V
758 0 V
759 0 V
759 0 V
758 0 V
759 0 V
759 0 V
758 0 V
759 0 V
759 0 V
759 0 V
758 0 V
759 0 V
759 0 V
758 0 V
759 0 V
569 0 V
1170 4799 Box
1928 4799 Box
2687 4799 Box
3446 4799 Box
4204 4799 Box
4963 4799 Box
5722 4799 Box
6480 4799 Box
7239 4799 Box
7998 4799 Box
8757 4799 Box
9515 4799 Box
10274 4799 Box
11033 4799 Box
11791 4799 Box
12550 4799 Box
4988 153 Box
% End plot #3
% Begin plot #4
1.000 UL
LTb
0.00 0.00 0.63 C LCb setrgbcolor
8287 333 M
[ [(Arial) 180.0 0.0 true true 0 (per-packet)]
] -60.0 MRshow
1.000 UL
LTb
0.00 0.00 0.63 C 8395 288 333 90 80 45 0 PatternFill
8395 288 N
333 0 V
0 90 V
-333 0 V
0 -90 V
Z stroke
1.000 UL
LTb
0.00 0.00 0.63 C 1283 1221 152 570 80 45 0 PatternFill
1359 1159 M
0 62 V
0 570 R
0 796 V
stroke
1283 1221 N
152 0 V
0 570 V
-152 0 V
0 -570 V
Z stroke
1283 2587 M
152 0 V
1283 1159 M
152 0 V
stroke
2042 1237 152 725 80 45 0 PatternFill
2118 1169 M
0 68 V
0 725 R
0 844 V
stroke
2042 1237 N
152 0 V
0 725 V
-152 0 V
0 -725 V
Z stroke
2042 2806 M
152 0 V
2042 1169 M
152 0 V
stroke
2801 1222 152 695 80 45 0 PatternFill
2877 1165 M
0 57 V
0 695 R
0 909 V
stroke
2801 1222 N
152 0 V
0 695 V
-152 0 V
0 -695 V
Z stroke
2801 2826 M
152 0 V
2801 1165 M
152 0 V
stroke
3560 1224 152 702 80 45 0 PatternFill
3636 1165 M
0 59 V
0 702 R
0 907 V
stroke
3560 1224 N
152 0 V
0 702 V
-152 0 V
0 -702 V
Z stroke
3560 2833 M
152 0 V
3560 1165 M
152 0 V
stroke
4318 1230 152 666 80 45 0 PatternFill
4394 1172 M
0 58 V
0 666 R
0 785 V
stroke
4318 1230 N
152 0 V
0 666 V
-152 0 V
0 -666 V
Z stroke
4318 2681 M
152 0 V
4318 1172 M
152 0 V
stroke
5077 1245 152 675 80 45 0 PatternFill
5153 1166 M
0 79 V
0 675 R
0 970 V
stroke
5077 1245 N
152 0 V
0 675 V
-152 0 V
0 -675 V
Z stroke
5077 2890 M
152 0 V
5077 1166 M
152 0 V
stroke
5836 1241 152 882 80 45 0 PatternFill
5912 1176 M
0 65 V
0 882 R
0 896 V
stroke
5836 1241 N
152 0 V
0 882 V
-152 0 V
0 -882 V
Z stroke
5836 3019 M
152 0 V
5836 1176 M
152 0 V
stroke
6594 1266 152 724 80 45 0 PatternFill
6670 1174 M
0 92 V
0 724 R
0 1032 V
stroke
6594 1266 N
152 0 V
0 724 V
-152 0 V
0 -724 V
Z stroke
6594 3022 M
152 0 V
6594 1174 M
152 0 V
stroke
7353 1212 152 544 80 45 0 PatternFill
7429 1154 M
0 58 V
0 544 R
0 1007 V
stroke
7353 1212 N
152 0 V
0 544 V
-152 0 V
0 -544 V
Z stroke
7353 2763 M
152 0 V
7353 1154 M
152 0 V
stroke
8112 1234 152 790 80 45 0 PatternFill
8188 1172 M
0 62 V
0 790 R
0 915 V
stroke
8112 1234 N
152 0 V
0 790 V
-152 0 V
0 -790 V
Z stroke
8112 2939 M
152 0 V
8112 1172 M
152 0 V
stroke
8870 1233 152 822 80 45 0 PatternFill
8946 1170 M
0 63 V
0 822 R
0 831 V
stroke
8870 1233 N
152 0 V
0 822 V
-152 0 V
0 -822 V
Z stroke
8870 2886 M
152 0 V
8870 1170 M
152 0 V
stroke
9629 1233 152 636 80 45 0 PatternFill
9705 1176 M
0 57 V
0 636 R
0 1146 V
stroke
9629 1233 N
152 0 V
0 636 V
-152 0 V
0 -636 V
Z stroke
9629 3015 M
152 0 V
9629 1176 M
152 0 V
stroke
10388 1220 152 534 80 45 0 PatternFill
10464 1171 M
0 49 V
0 534 R
0 851 V
stroke
10388 1220 N
152 0 V
0 534 V
-152 0 V
0 -534 V
Z stroke
10388 2605 M
152 0 V
10388 1171 M
152 0 V
stroke
11146 1245 152 845 80 45 0 PatternFill
11222 1183 M
0 62 V
0 845 R
0 861 V
stroke
11146 1245 N
152 0 V
0 845 V
-152 0 V
0 -845 V
Z stroke
11146 2951 M
152 0 V
11146 1183 M
152 0 V
stroke
11905 1204 152 474 80 45 0 PatternFill
11981 1152 M
0 52 V
0 474 R
0 635 V
stroke
11905 1204 N
152 0 V
0 474 V
-152 0 V
0 -474 V
Z stroke
11905 2313 M
152 0 V
11905 1152 M
152 0 V
stroke
12664 1216 152 578 80 45 0 PatternFill
12740 1164 M
0 52 V
0 578 R
0 973 V
stroke
12664 1216 N
152 0 V
0 578 V
-152 0 V
0 -578 V
Z stroke
12664 2767 M
152 0 V
12664 1164 M
152 0 V
% End plot #4
% Begin plot #5
stroke
LTb
LCb setrgbcolor

 /TransparentPatterns true def
1283 1527 152 0 80 -45 0 PatternFill
1359 1527 M
stroke
1283 1527 N
152 0 V
-152 0 V
Z stroke
1283 1527 M
152 0 V
-152 0 R
152 0 V
stroke

 /TransparentPatterns true def
2042 1631 152 0 80 -45 0 PatternFill
2118 1631 M
stroke
2042 1631 N
152 0 V
-152 0 V
Z stroke
2042 1631 M
152 0 V
-152 0 R
152 0 V
stroke

 /TransparentPatterns true def
2801 1634 152 0 80 -45 0 PatternFill
2877 1634 M
stroke
2801 1634 N
152 0 V
-152 0 V
Z stroke
2801 1634 M
152 0 V
-152 0 R
152 0 V
stroke

 /TransparentPatterns true def
3560 1615 152 0 80 -45 0 PatternFill
3636 1615 M
stroke
3560 1615 N
152 0 V
-152 0 V
Z stroke
3560 1615 M
152 0 V
-152 0 R
152 0 V
stroke

 /TransparentPatterns true def
4318 1596 152 0 80 -45 0 PatternFill
4394 1596 M
stroke
4318 1596 N
152 0 V
-152 0 V
Z stroke
4318 1596 M
152 0 V
-152 0 R
152 0 V
stroke

 /TransparentPatterns true def
5077 1656 152 0 80 -45 0 PatternFill
5153 1656 M
stroke
5077 1656 N
152 0 V
-152 0 V
Z stroke
5077 1656 M
152 0 V
-152 0 R
152 0 V
stroke

 /TransparentPatterns true def
5836 1705 152 0 80 -45 0 PatternFill
5912 1705 M
stroke
5836 1705 N
152 0 V
-152 0 V
Z stroke
5836 1705 M
152 0 V
-152 0 R
152 0 V
stroke

 /TransparentPatterns true def
6594 1686 152 0 80 -45 0 PatternFill
6670 1686 M
stroke
6594 1686 N
152 0 V
-152 0 V
Z stroke
6594 1686 M
152 0 V
-152 0 R
152 0 V
stroke

 /TransparentPatterns true def
7353 1541 152 0 80 -45 0 PatternFill
7429 1541 M
stroke
7353 1541 N
152 0 V
-152 0 V
Z stroke
7353 1541 M
152 0 V
-152 0 R
152 0 V
stroke

 /TransparentPatterns true def
8112 1662 152 0 80 -45 0 PatternFill
8188 1662 M
stroke
8112 1662 N
152 0 V
-152 0 V
Z stroke
8112 1662 M
152 0 V
-152 0 R
152 0 V
stroke

 /TransparentPatterns true def
8870 1671 152 0 80 -45 0 PatternFill
8946 1671 M
stroke
8870 1671 N
152 0 V
-152 0 V
Z stroke
8870 1671 M
152 0 V
-152 0 R
152 0 V
stroke

 /TransparentPatterns true def
9629 1618 152 0 80 -45 0 PatternFill
9705 1618 M
stroke
9629 1618 N
152 0 V
-152 0 V
Z stroke
9629 1618 M
152 0 V
-152 0 R
152 0 V
stroke

 /TransparentPatterns true def
10388 1526 152 0 80 -45 0 PatternFill
10464 1526 M
stroke
10388 1526 N
152 0 V
-152 0 V
Z stroke
10388 1526 M
152 0 V
-152 0 R
152 0 V
stroke

 /TransparentPatterns true def
11146 1695 152 0 80 -45 0 PatternFill
11222 1695 M
stroke
11146 1695 N
152 0 V
-152 0 V
Z stroke
11146 1695 M
152 0 V
-152 0 R
152 0 V
stroke

 /TransparentPatterns true def
11905 1480 152 0 80 -45 0 PatternFill
11981 1480 M
stroke
11905 1480 N
152 0 V
-152 0 V
Z stroke
11905 1480 M
152 0 V
-152 0 R
152 0 V
stroke

 /TransparentPatterns true def
12664 1551 152 0 80 -45 0 PatternFill
12740 1551 M
stroke
12664 1551 N
152 0 V
-152 0 V
Z stroke
12664 1551 M
152 0 V
-152 0 R
152 0 V
% End plot #5
% Begin plot #6
2.000 UP
stroke
LTa
0.00 0.00 0.63 C LCb setrgbcolor
8287 153 M
[ [(Arial) 180.0 0.0 true true 0 ( )]
] -60.0 MRshow
2.000 UP
1.000 UL
LTa
0.00 0.00 0.63 C 8395 153 M
333 0 V
980 4799 M
379 0 V
759 0 V
759 0 V
758 0 V
759 0 V
759 0 V
758 0 V
759 0 V
759 0 V
759 0 V
758 0 V
759 0 V
759 0 V
758 0 V
759 0 V
759 0 V
379 0 V
1359 4799 Circle
2118 4799 Circle
2877 4799 Circle
3635 4799 Circle
4394 4799 Circle
5153 4799 Circle
5911 4799 Circle
6670 4799 Circle
7429 4799 Circle
8188 4799 Circle
8946 4799 Circle
9705 4799 Circle
10464 4799 Circle
11222 4799 Circle
11981 4799 Circle
12740 4799 Circle
8561 153 Circle
% End plot #6
% Begin plot #7
1.000 UL
LTb
0.00 0.38 0.82 C LCb setrgbcolor
11860 333 M
[ [(Arial) 180.0 0.0 true true 0 (per-flow)]
] -60.0 MRshow
1.000 UL
LTb
0.00 0.38 0.82 C 11968 288 333 90 40 30 0 PatternFill
11968 288 N
333 0 V
0 90 V
-333 0 V
0 -90 V
Z stroke
1.000 UL
LTb
0.00 0.38 0.82 C 1473 1289 152 1370 40 30 0 PatternFill
1549 1195 M
0 94 V
0 1370 R
0 1432 V
stroke
1473 1289 N
152 0 V
0 1370 V
-152 0 V
0 -1370 V
Z stroke
1473 4091 M
152 0 V
1473 1195 M
152 0 V
stroke
2232 1265 152 1128 40 30 0 PatternFill
2308 1186 M
0 79 V
0 1128 R
0 1387 V
stroke
2232 1265 N
152 0 V
0 1128 V
-152 0 V
0 -1128 V
Z stroke
2232 3780 M
152 0 V
2232 1186 M
152 0 V
stroke
2991 1258 152 1163 40 30 0 PatternFill
3067 1178 M
0 80 V
0 1163 R
0 1372 V
stroke
2991 1258 N
152 0 V
0 1163 V
-152 0 V
0 -1163 V
Z stroke
2991 3793 M
152 0 V
2991 1178 M
152 0 V
stroke
3749 1287 152 1173 40 30 0 PatternFill
3825 1171 M
0 116 V
0 1173 R
0 1502 V
stroke
3749 1287 N
152 0 V
0 1173 V
-152 0 V
0 -1173 V
Z stroke
3749 3962 M
152 0 V
3749 1171 M
152 0 V
stroke
4508 1290 152 1417 40 30 0 PatternFill
4584 1187 M
0 103 V
0 1417 R
0 1636 V
stroke
4508 1290 N
152 0 V
0 1417 V
-152 0 V
0 -1417 V
Z stroke
4508 4343 M
152 0 V
4508 1187 M
152 0 V
stroke
5267 1243 152 1142 40 30 0 PatternFill
5343 1163 M
0 80 V
0 1142 R
0 1359 V
stroke
5267 1243 N
152 0 V
0 1142 V
-152 0 V
0 -1142 V
Z stroke
5267 3744 M
152 0 V
5267 1163 M
152 0 V
stroke
6025 1251 152 1446 40 30 0 PatternFill
6101 1178 M
0 73 V
0 1446 R
0 1166 V
stroke
6025 1251 N
152 0 V
0 1446 V
-152 0 V
0 -1446 V
Z stroke
6025 3863 M
152 0 V
6025 1178 M
152 0 V
stroke
6784 1263 152 1178 40 30 0 PatternFill
6860 1173 M
0 90 V
0 1178 R
0 1414 V
stroke
6784 1263 N
152 0 V
0 1178 V
-152 0 V
0 -1178 V
Z stroke
6784 3855 M
152 0 V
6784 1173 M
152 0 V
stroke
7543 1255 152 1378 40 30 0 PatternFill
7619 1167 M
0 88 V
0 1378 R
0 1516 V
stroke
7543 1255 N
152 0 V
0 1378 V
-152 0 V
0 -1378 V
Z stroke
7543 4149 M
152 0 V
7543 1167 M
152 0 V
stroke
8301 1288 152 1360 40 30 0 PatternFill
8377 1178 M
0 110 V
0 1360 R
0 1413 V
stroke
8301 1288 N
152 0 V
0 1360 V
-152 0 V
0 -1360 V
Z stroke
8301 4061 M
152 0 V
8301 1178 M
152 0 V
stroke
9060 1276 152 1021 40 30 0 PatternFill
9136 1174 M
0 102 V
0 1021 R
0 1420 V
stroke
9060 1276 N
152 0 V
0 1021 V
-152 0 V
0 -1021 V
Z stroke
9060 3717 M
152 0 V
9060 1174 M
152 0 V
stroke
9819 1288 152 1260 40 30 0 PatternFill
9895 1188 M
0 100 V
0 1260 R
0 1462 V
stroke
9819 1288 N
152 0 V
0 1260 V
-152 0 V
0 -1260 V
Z stroke
9819 4010 M
152 0 V
9819 1188 M
152 0 V
stroke
10577 1293 152 994 40 30 0 PatternFill
10653 1201 M
0 92 V
0 994 R
0 1347 V
stroke
10577 1293 N
152 0 V
0 994 V
-152 0 V
0 -994 V
Z stroke
10577 3634 M
152 0 V
10577 1201 M
152 0 V
stroke
11336 1264 152 1341 40 30 0 PatternFill
11412 1180 M
0 84 V
0 1341 R
0 1476 V
stroke
11336 1264 N
152 0 V
0 1341 V
-152 0 V
0 -1341 V
Z stroke
11336 4081 M
152 0 V
11336 1180 M
152 0 V
stroke
12095 1277 152 1150 40 30 0 PatternFill
12171 1194 M
0 83 V
0 1150 R
0 1355 V
stroke
12095 1277 N
152 0 V
0 1150 V
-152 0 V
0 -1150 V
Z stroke
12095 3782 M
152 0 V
12095 1194 M
152 0 V
stroke
12853 1292 152 1242 40 30 0 PatternFill
12929 1197 M
0 95 V
0 1242 R
0 1274 V
stroke
12853 1292 N
152 0 V
0 1242 V
-152 0 V
0 -1242 V
Z stroke
12853 3808 M
152 0 V
12853 1197 M
152 0 V
% End plot #7
% Begin plot #8
stroke
LTb
LCb setrgbcolor

 /TransparentPatterns true def
1473 2018 152 0 40 -30 0 PatternFill
1549 2018 M
stroke
1473 2018 N
152 0 V
-152 0 V
Z stroke
1473 2018 M
152 0 V
-152 0 R
152 0 V
stroke

 /TransparentPatterns true def
2232 1860 152 0 40 -30 0 PatternFill
2308 1860 M
stroke
2232 1860 N
152 0 V
-152 0 V
Z stroke
2232 1860 M
152 0 V
-152 0 R
152 0 V
stroke

 /TransparentPatterns true def
2991 1908 152 0 40 -30 0 PatternFill
3067 1908 M
stroke
2991 1908 N
152 0 V
-152 0 V
Z stroke
2991 1908 M
152 0 V
-152 0 R
152 0 V
stroke

 /TransparentPatterns true def
3749 1945 152 0 40 -30 0 PatternFill
3825 1945 M
stroke
3749 1945 N
152 0 V
-152 0 V
Z stroke
3749 1945 M
152 0 V
-152 0 R
152 0 V
stroke

 /TransparentPatterns true def
4508 2054 152 0 40 -30 0 PatternFill
4584 2054 M
stroke
4508 2054 N
152 0 V
-152 0 V
Z stroke
4508 2054 M
152 0 V
-152 0 R
152 0 V
stroke

 /TransparentPatterns true def
5267 1849 152 0 40 -30 0 PatternFill
5343 1849 M
stroke
5267 1849 N
152 0 V
-152 0 V
Z stroke
5267 1849 M
152 0 V
-152 0 R
152 0 V
stroke

 /TransparentPatterns true def
6025 1976 152 0 40 -30 0 PatternFill
6101 1976 M
stroke
6025 1976 N
152 0 V
-152 0 V
Z stroke
6025 1976 M
152 0 V
-152 0 R
152 0 V
stroke

 /TransparentPatterns true def
6784 1908 152 0 40 -30 0 PatternFill
6860 1908 M
stroke
6784 1908 N
152 0 V
-152 0 V
Z stroke
6784 1908 M
152 0 V
-152 0 R
152 0 V
stroke

 /TransparentPatterns true def
7543 1960 152 0 40 -30 0 PatternFill
7619 1960 M
stroke
7543 1960 N
152 0 V
-152 0 V
Z stroke
7543 1960 M
152 0 V
-152 0 R
152 0 V
stroke

 /TransparentPatterns true def
8301 2026 152 0 40 -30 0 PatternFill
8377 2026 M
stroke
8301 2026 N
152 0 V
-152 0 V
Z stroke
8301 2026 M
152 0 V
-152 0 R
152 0 V
stroke

 /TransparentPatterns true def
9060 1846 152 0 40 -30 0 PatternFill
9136 1846 M
stroke
9060 1846 N
152 0 V
-152 0 V
Z stroke
9060 1846 M
152 0 V
-152 0 R
152 0 V
stroke

 /TransparentPatterns true def
9819 1944 152 0 40 -30 0 PatternFill
9895 1944 M
stroke
9819 1944 N
152 0 V
-152 0 V
Z stroke
9819 1944 M
152 0 V
-152 0 R
152 0 V
stroke

 /TransparentPatterns true def
10577 1830 152 0 40 -30 0 PatternFill
10653 1830 M
stroke
10577 1830 N
152 0 V
-152 0 V
Z stroke
10577 1830 M
152 0 V
-152 0 R
152 0 V
stroke

 /TransparentPatterns true def
11336 1984 152 0 40 -30 0 PatternFill
11412 1984 M
stroke
11336 1984 N
152 0 V
-152 0 V
Z stroke
11336 1984 M
152 0 V
-152 0 R
152 0 V
stroke

 /TransparentPatterns true def
12095 1926 152 0 40 -30 0 PatternFill
12171 1926 M
stroke
12095 1926 N
152 0 V
-152 0 V
Z stroke
12095 1926 M
152 0 V
-152 0 R
152 0 V
stroke

 /TransparentPatterns true def
12853 1974 152 0 40 -30 0 PatternFill
12929 1974 M
stroke
12853 1974 N
152 0 V
-152 0 V
Z stroke
12853 1974 M
152 0 V
-152 0 R
152 0 V
% End plot #8
% Begin plot #9
2.000 UP
stroke
LTa
0.00 0.38 0.82 C LCb setrgbcolor
11860 153 M
[ [(Arial) 180.0 0.0 true true 0 ( )]
] -60.0 MRshow
2.000 UP
1.000 UL
LTa
0.00 0.38 0.82 C 11968 153 M
333 0 V
980 4799 M
569 0 V
759 0 V
758 0 V
759 0 V
759 0 V
758 0 V
759 0 V
759 0 V
759 0 V
758 0 V
759 0 V
759 0 V
758 0 V
759 0 V
759 0 V
758 0 V
190 0 V
1549 4799 TriU
2308 4799 TriU
3066 4799 TriU
3825 4799 TriU
4584 4799 TriU
5342 4799 TriU
6101 4799 TriU
6860 4799 TriU
7619 4799 TriU
8377 4799 TriU
9136 4799 TriU
9895 4799 TriU
10653 4799 TriU
11412 4799 TriU
12171 4799 TriU
12929 4799 TriU
12134 153 TriU
% End plot #9
2.000 UL
LTb
LCb setrgbcolor
1.000 UP
1.000 UL
LTb
0.00 0.00 0.00 C stroke
grestore
end
showpage
%%Trailer
%%DocumentFonts: Arial
