%!PS-Adobe-2.0 EPSF-2.0
%%Title: TcpCubic-download-finishtime-25UE-panoramic.eps
%%Creator: gnuplot 5.0 patchlevel 3
%%CreationDate: Tue Jun  7 16:10:53 2016
%%DocumentFonts: (atend)
%%BoundingBox: 50 50 770 302
%%EndComments
%%BeginProlog
/gnudict 256 dict def
gnudict begin
%
% The following true/false flags may be edited by hand if desired.
% The unit line width and grayscale image gamma correction may also be changed.
%
/Color true def
/Blacktext false def
/Solid false def
/Dashlength 3 def
/Landscape false def
/Level1 false def
/Level3 false def
/Rounded false def
/ClipToBoundingBox false def
/SuppressPDFMark false def
/TransparentPatterns false def
/gnulinewidth 15.000 def
/userlinewidth gnulinewidth def
/Gamma 1.0 def
/BackgroundColor {-1.000 -1.000 -1.000} def
%
/vshift -66 def
/dl1 {
  10.0 Dashlength userlinewidth gnulinewidth div mul mul mul
  Rounded { currentlinewidth 0.75 mul sub dup 0 le { pop 0.01 } if } if
} def
/dl2 {
  10.0 Dashlength userlinewidth gnulinewidth div mul mul mul
  Rounded { currentlinewidth 0.75 mul add } if
} def
/hpt_ 31.5 def
/vpt_ 31.5 def
/hpt hpt_ def
/vpt vpt_ def
/doclip {
  ClipToBoundingBox {
    newpath 50 50 moveto 770 50 lineto 770 302 lineto 50 302 lineto closepath
    clip
  } if
} def
%
% Gnuplot Prolog Version 5.1 (Oct 2015)
%
%/SuppressPDFMark true def
%
/M {moveto} bind def
/L {lineto} bind def
/R {rmoveto} bind def
/V {rlineto} bind def
/N {newpath moveto} bind def
/Z {closepath} bind def
/C {setrgbcolor} bind def
/f {rlineto fill} bind def
/g {setgray} bind def
/Gshow {show} def   % May be redefined later in the file to support UTF-8
/vpt2 vpt 2 mul def
/hpt2 hpt 2 mul def
/Lshow {currentpoint stroke M 0 vshift R 
	Blacktext {gsave 0 setgray textshow grestore} {textshow} ifelse} def
/Rshow {currentpoint stroke M dup stringwidth pop neg vshift R
	Blacktext {gsave 0 setgray textshow grestore} {textshow} ifelse} def
/Cshow {currentpoint stroke M dup stringwidth pop -2 div vshift R 
	Blacktext {gsave 0 setgray textshow grestore} {textshow} ifelse} def
/UP {dup vpt_ mul /vpt exch def hpt_ mul /hpt exch def
  /hpt2 hpt 2 mul def /vpt2 vpt 2 mul def} def
/DL {Color {setrgbcolor Solid {pop []} if 0 setdash}
 {pop pop pop 0 setgray Solid {pop []} if 0 setdash} ifelse} def
/BL {stroke userlinewidth 2 mul setlinewidth
	Rounded {1 setlinejoin 1 setlinecap} if} def
/AL {stroke userlinewidth 2 div setlinewidth
	Rounded {1 setlinejoin 1 setlinecap} if} def
/UL {dup gnulinewidth mul /userlinewidth exch def
	dup 1 lt {pop 1} if 10 mul /udl exch def} def
/PL {stroke userlinewidth setlinewidth
	Rounded {1 setlinejoin 1 setlinecap} if} def
3.8 setmiterlimit
% Classic Line colors (version 5.0)
/LCw {1 1 1} def
/LCb {0 0 0} def
/LCa {0 0 0} def
/LC0 {1 0 0} def
/LC1 {0 1 0} def
/LC2 {0 0 1} def
/LC3 {1 0 1} def
/LC4 {0 1 1} def
/LC5 {1 1 0} def
/LC6 {0 0 0} def
/LC7 {1 0.3 0} def
/LC8 {0.5 0.5 0.5} def
% Default dash patterns (version 5.0)
/LTB {BL [] LCb DL} def
/LTw {PL [] 1 setgray} def
/LTb {PL [] LCb DL} def
/LTa {AL [1 udl mul 2 udl mul] 0 setdash LCa setrgbcolor} def
/LT0 {PL [] LC0 DL} def
/LT1 {PL [2 dl1 3 dl2] LC1 DL} def
/LT2 {PL [1 dl1 1.5 dl2] LC2 DL} def
/LT3 {PL [6 dl1 2 dl2 1 dl1 2 dl2] LC3 DL} def
/LT4 {PL [1 dl1 2 dl2 6 dl1 2 dl2 1 dl1 2 dl2] LC4 DL} def
/LT5 {PL [4 dl1 2 dl2] LC5 DL} def
/LT6 {PL [1.5 dl1 1.5 dl2 1.5 dl1 1.5 dl2 1.5 dl1 6 dl2] LC6 DL} def
/LT7 {PL [3 dl1 3 dl2 1 dl1 3 dl2] LC7 DL} def
/LT8 {PL [2 dl1 2 dl2 2 dl1 6 dl2] LC8 DL} def
/SL {[] 0 setdash} def
/Pnt {stroke [] 0 setdash gsave 1 setlinecap M 0 0 V stroke grestore} def
/Dia {stroke [] 0 setdash 2 copy vpt add M
  hpt neg vpt neg V hpt vpt neg V
  hpt vpt V hpt neg vpt V closepath stroke
  Pnt} def
/Pls {stroke [] 0 setdash vpt sub M 0 vpt2 V
  currentpoint stroke M
  hpt neg vpt neg R hpt2 0 V stroke
 } def
/Box {stroke [] 0 setdash 2 copy exch hpt sub exch vpt add M
  0 vpt2 neg V hpt2 0 V 0 vpt2 V
  hpt2 neg 0 V closepath stroke
  Pnt} def
/Crs {stroke [] 0 setdash exch hpt sub exch vpt add M
  hpt2 vpt2 neg V currentpoint stroke M
  hpt2 neg 0 R hpt2 vpt2 V stroke} def
/TriU {stroke [] 0 setdash 2 copy vpt 1.12 mul add M
  hpt neg vpt -1.62 mul V
  hpt 2 mul 0 V
  hpt neg vpt 1.62 mul V closepath stroke
  Pnt} def
/Star {2 copy Pls Crs} def
/BoxF {stroke [] 0 setdash exch hpt sub exch vpt add M
  0 vpt2 neg V hpt2 0 V 0 vpt2 V
  hpt2 neg 0 V closepath fill} def
/TriUF {stroke [] 0 setdash vpt 1.12 mul add M
  hpt neg vpt -1.62 mul V
  hpt 2 mul 0 V
  hpt neg vpt 1.62 mul V closepath fill} def
/TriD {stroke [] 0 setdash 2 copy vpt 1.12 mul sub M
  hpt neg vpt 1.62 mul V
  hpt 2 mul 0 V
  hpt neg vpt -1.62 mul V closepath stroke
  Pnt} def
/TriDF {stroke [] 0 setdash vpt 1.12 mul sub M
  hpt neg vpt 1.62 mul V
  hpt 2 mul 0 V
  hpt neg vpt -1.62 mul V closepath fill} def
/DiaF {stroke [] 0 setdash vpt add M
  hpt neg vpt neg V hpt vpt neg V
  hpt vpt V hpt neg vpt V closepath fill} def
/Pent {stroke [] 0 setdash 2 copy gsave
  translate 0 hpt M 4 {72 rotate 0 hpt L} repeat
  closepath stroke grestore Pnt} def
/PentF {stroke [] 0 setdash gsave
  translate 0 hpt M 4 {72 rotate 0 hpt L} repeat
  closepath fill grestore} def
/Circle {stroke [] 0 setdash 2 copy
  hpt 0 360 arc stroke Pnt} def
/CircleF {stroke [] 0 setdash hpt 0 360 arc fill} def
/C0 {BL [] 0 setdash 2 copy moveto vpt 90 450 arc} bind def
/C1 {BL [] 0 setdash 2 copy moveto
	2 copy vpt 0 90 arc closepath fill
	vpt 0 360 arc closepath} bind def
/C2 {BL [] 0 setdash 2 copy moveto
	2 copy vpt 90 180 arc closepath fill
	vpt 0 360 arc closepath} bind def
/C3 {BL [] 0 setdash 2 copy moveto
	2 copy vpt 0 180 arc closepath fill
	vpt 0 360 arc closepath} bind def
/C4 {BL [] 0 setdash 2 copy moveto
	2 copy vpt 180 270 arc closepath fill
	vpt 0 360 arc closepath} bind def
/C5 {BL [] 0 setdash 2 copy moveto
	2 copy vpt 0 90 arc
	2 copy moveto
	2 copy vpt 180 270 arc closepath fill
	vpt 0 360 arc} bind def
/C6 {BL [] 0 setdash 2 copy moveto
	2 copy vpt 90 270 arc closepath fill
	vpt 0 360 arc closepath} bind def
/C7 {BL [] 0 setdash 2 copy moveto
	2 copy vpt 0 270 arc closepath fill
	vpt 0 360 arc closepath} bind def
/C8 {BL [] 0 setdash 2 copy moveto
	2 copy vpt 270 360 arc closepath fill
	vpt 0 360 arc closepath} bind def
/C9 {BL [] 0 setdash 2 copy moveto
	2 copy vpt 270 450 arc closepath fill
	vpt 0 360 arc closepath} bind def
/C10 {BL [] 0 setdash 2 copy 2 copy moveto vpt 270 360 arc closepath fill
	2 copy moveto
	2 copy vpt 90 180 arc closepath fill
	vpt 0 360 arc closepath} bind def
/C11 {BL [] 0 setdash 2 copy moveto
	2 copy vpt 0 180 arc closepath fill
	2 copy moveto
	2 copy vpt 270 360 arc closepath fill
	vpt 0 360 arc closepath} bind def
/C12 {BL [] 0 setdash 2 copy moveto
	2 copy vpt 180 360 arc closepath fill
	vpt 0 360 arc closepath} bind def
/C13 {BL [] 0 setdash 2 copy moveto
	2 copy vpt 0 90 arc closepath fill
	2 copy moveto
	2 copy vpt 180 360 arc closepath fill
	vpt 0 360 arc closepath} bind def
/C14 {BL [] 0 setdash 2 copy moveto
	2 copy vpt 90 360 arc closepath fill
	vpt 0 360 arc} bind def
/C15 {BL [] 0 setdash 2 copy vpt 0 360 arc closepath fill
	vpt 0 360 arc closepath} bind def
/Rec {newpath 4 2 roll moveto 1 index 0 rlineto 0 exch rlineto
	neg 0 rlineto closepath} bind def
/Square {dup Rec} bind def
/Bsquare {vpt sub exch vpt sub exch vpt2 Square} bind def
/S0 {BL [] 0 setdash 2 copy moveto 0 vpt rlineto BL Bsquare} bind def
/S1 {BL [] 0 setdash 2 copy vpt Square fill Bsquare} bind def
/S2 {BL [] 0 setdash 2 copy exch vpt sub exch vpt Square fill Bsquare} bind def
/S3 {BL [] 0 setdash 2 copy exch vpt sub exch vpt2 vpt Rec fill Bsquare} bind def
/S4 {BL [] 0 setdash 2 copy exch vpt sub exch vpt sub vpt Square fill Bsquare} bind def
/S5 {BL [] 0 setdash 2 copy 2 copy vpt Square fill
	exch vpt sub exch vpt sub vpt Square fill Bsquare} bind def
/S6 {BL [] 0 setdash 2 copy exch vpt sub exch vpt sub vpt vpt2 Rec fill Bsquare} bind def
/S7 {BL [] 0 setdash 2 copy exch vpt sub exch vpt sub vpt vpt2 Rec fill
	2 copy vpt Square fill Bsquare} bind def
/S8 {BL [] 0 setdash 2 copy vpt sub vpt Square fill Bsquare} bind def
/S9 {BL [] 0 setdash 2 copy vpt sub vpt vpt2 Rec fill Bsquare} bind def
/S10 {BL [] 0 setdash 2 copy vpt sub vpt Square fill 2 copy exch vpt sub exch vpt Square fill
	Bsquare} bind def
/S11 {BL [] 0 setdash 2 copy vpt sub vpt Square fill 2 copy exch vpt sub exch vpt2 vpt Rec fill
	Bsquare} bind def
/S12 {BL [] 0 setdash 2 copy exch vpt sub exch vpt sub vpt2 vpt Rec fill Bsquare} bind def
/S13 {BL [] 0 setdash 2 copy exch vpt sub exch vpt sub vpt2 vpt Rec fill
	2 copy vpt Square fill Bsquare} bind def
/S14 {BL [] 0 setdash 2 copy exch vpt sub exch vpt sub vpt2 vpt Rec fill
	2 copy exch vpt sub exch vpt Square fill Bsquare} bind def
/S15 {BL [] 0 setdash 2 copy Bsquare fill Bsquare} bind def
/D0 {gsave translate 45 rotate 0 0 S0 stroke grestore} bind def
/D1 {gsave translate 45 rotate 0 0 S1 stroke grestore} bind def
/D2 {gsave translate 45 rotate 0 0 S2 stroke grestore} bind def
/D3 {gsave translate 45 rotate 0 0 S3 stroke grestore} bind def
/D4 {gsave translate 45 rotate 0 0 S4 stroke grestore} bind def
/D5 {gsave translate 45 rotate 0 0 S5 stroke grestore} bind def
/D6 {gsave translate 45 rotate 0 0 S6 stroke grestore} bind def
/D7 {gsave translate 45 rotate 0 0 S7 stroke grestore} bind def
/D8 {gsave translate 45 rotate 0 0 S8 stroke grestore} bind def
/D9 {gsave translate 45 rotate 0 0 S9 stroke grestore} bind def
/D10 {gsave translate 45 rotate 0 0 S10 stroke grestore} bind def
/D11 {gsave translate 45 rotate 0 0 S11 stroke grestore} bind def
/D12 {gsave translate 45 rotate 0 0 S12 stroke grestore} bind def
/D13 {gsave translate 45 rotate 0 0 S13 stroke grestore} bind def
/D14 {gsave translate 45 rotate 0 0 S14 stroke grestore} bind def
/D15 {gsave translate 45 rotate 0 0 S15 stroke grestore} bind def
/DiaE {stroke [] 0 setdash vpt add M
  hpt neg vpt neg V hpt vpt neg V
  hpt vpt V hpt neg vpt V closepath stroke} def
/BoxE {stroke [] 0 setdash exch hpt sub exch vpt add M
  0 vpt2 neg V hpt2 0 V 0 vpt2 V
  hpt2 neg 0 V closepath stroke} def
/TriUE {stroke [] 0 setdash vpt 1.12 mul add M
  hpt neg vpt -1.62 mul V
  hpt 2 mul 0 V
  hpt neg vpt 1.62 mul V closepath stroke} def
/TriDE {stroke [] 0 setdash vpt 1.12 mul sub M
  hpt neg vpt 1.62 mul V
  hpt 2 mul 0 V
  hpt neg vpt -1.62 mul V closepath stroke} def
/PentE {stroke [] 0 setdash gsave
  translate 0 hpt M 4 {72 rotate 0 hpt L} repeat
  closepath stroke grestore} def
/CircE {stroke [] 0 setdash 
  hpt 0 360 arc stroke} def
/Opaque {gsave closepath 1 setgray fill grestore 0 setgray closepath} def
/DiaW {stroke [] 0 setdash vpt add M
  hpt neg vpt neg V hpt vpt neg V
  hpt vpt V hpt neg vpt V Opaque stroke} def
/BoxW {stroke [] 0 setdash exch hpt sub exch vpt add M
  0 vpt2 neg V hpt2 0 V 0 vpt2 V
  hpt2 neg 0 V Opaque stroke} def
/TriUW {stroke [] 0 setdash vpt 1.12 mul add M
  hpt neg vpt -1.62 mul V
  hpt 2 mul 0 V
  hpt neg vpt 1.62 mul V Opaque stroke} def
/TriDW {stroke [] 0 setdash vpt 1.12 mul sub M
  hpt neg vpt 1.62 mul V
  hpt 2 mul 0 V
  hpt neg vpt -1.62 mul V Opaque stroke} def
/PentW {stroke [] 0 setdash gsave
  translate 0 hpt M 4 {72 rotate 0 hpt L} repeat
  Opaque stroke grestore} def
/CircW {stroke [] 0 setdash 
  hpt 0 360 arc Opaque stroke} def
/BoxFill {gsave Rec 1 setgray fill grestore} def
/Density {
  /Fillden exch def
  currentrgbcolor
  /ColB exch def /ColG exch def /ColR exch def
  /ColR ColR Fillden mul Fillden sub 1 add def
  /ColG ColG Fillden mul Fillden sub 1 add def
  /ColB ColB Fillden mul Fillden sub 1 add def
  ColR ColG ColB setrgbcolor} def
/BoxColFill {gsave Rec PolyFill} def
/PolyFill {gsave Density fill grestore grestore} def
/h {rlineto rlineto rlineto gsave closepath fill grestore} bind def
%
% PostScript Level 1 Pattern Fill routine for rectangles
% Usage: x y w h s a XX PatternFill
%	x,y = lower left corner of box to be filled
%	w,h = width and height of box
%	  a = angle in degrees between lines and x-axis
%	 XX = 0/1 for no/yes cross-hatch
%
/PatternFill {gsave /PFa [ 9 2 roll ] def
  PFa 0 get PFa 2 get 2 div add PFa 1 get PFa 3 get 2 div add translate
  PFa 2 get -2 div PFa 3 get -2 div PFa 2 get PFa 3 get Rec
  TransparentPatterns {} {gsave 1 setgray fill grestore} ifelse
  clip
  currentlinewidth 0.5 mul setlinewidth
  /PFs PFa 2 get dup mul PFa 3 get dup mul add sqrt def
  0 0 M PFa 5 get rotate PFs -2 div dup translate
  0 1 PFs PFa 4 get div 1 add floor cvi
	{PFa 4 get mul 0 M 0 PFs V} for
  0 PFa 6 get ne {
	0 1 PFs PFa 4 get div 1 add floor cvi
	{PFa 4 get mul 0 2 1 roll M PFs 0 V} for
 } if
  stroke grestore} def
%
/languagelevel where
 {pop languagelevel} {1} ifelse
dup 2 lt
	{/InterpretLevel1 true def
	 /InterpretLevel3 false def}
	{/InterpretLevel1 Level1 def
	 2 gt
	    {/InterpretLevel3 Level3 def}
	    {/InterpretLevel3 false def}
	 ifelse }
 ifelse
%
% PostScript level 2 pattern fill definitions
%
/Level2PatternFill {
/Tile8x8 {/PaintType 2 /PatternType 1 /TilingType 1 /BBox [0 0 8 8] /XStep 8 /YStep 8}
	bind def
/KeepColor {currentrgbcolor [/Pattern /DeviceRGB] setcolorspace} bind def
<< Tile8x8
 /PaintProc {0.5 setlinewidth pop 0 0 M 8 8 L 0 8 M 8 0 L stroke} 
>> matrix makepattern
/Pat1 exch def
<< Tile8x8
 /PaintProc {0.5 setlinewidth pop 0 0 M 8 8 L 0 8 M 8 0 L stroke
	0 4 M 4 8 L 8 4 L 4 0 L 0 4 L stroke}
>> matrix makepattern
/Pat2 exch def
<< Tile8x8
 /PaintProc {0.5 setlinewidth pop 0 0 M 0 8 L
	8 8 L 8 0 L 0 0 L fill}
>> matrix makepattern
/Pat3 exch def
<< Tile8x8
 /PaintProc {0.5 setlinewidth pop -4 8 M 8 -4 L
	0 12 M 12 0 L stroke}
>> matrix makepattern
/Pat4 exch def
<< Tile8x8
 /PaintProc {0.5 setlinewidth pop -4 0 M 8 12 L
	0 -4 M 12 8 L stroke}
>> matrix makepattern
/Pat5 exch def
<< Tile8x8
 /PaintProc {0.5 setlinewidth pop -2 8 M 4 -4 L
	0 12 M 8 -4 L 4 12 M 10 0 L stroke}
>> matrix makepattern
/Pat6 exch def
<< Tile8x8
 /PaintProc {0.5 setlinewidth pop -2 0 M 4 12 L
	0 -4 M 8 12 L 4 -4 M 10 8 L stroke}
>> matrix makepattern
/Pat7 exch def
<< Tile8x8
 /PaintProc {0.5 setlinewidth pop 8 -2 M -4 4 L
	12 0 M -4 8 L 12 4 M 0 10 L stroke}
>> matrix makepattern
/Pat8 exch def
<< Tile8x8
 /PaintProc {0.5 setlinewidth pop 0 -2 M 12 4 L
	-4 0 M 12 8 L -4 4 M 8 10 L stroke}
>> matrix makepattern
/Pat9 exch def
/Pattern1 {PatternBgnd KeepColor Pat1 setpattern} bind def
/Pattern2 {PatternBgnd KeepColor Pat2 setpattern} bind def
/Pattern3 {PatternBgnd KeepColor Pat3 setpattern} bind def
/Pattern4 {PatternBgnd KeepColor Landscape {Pat5} {Pat4} ifelse setpattern} bind def
/Pattern5 {PatternBgnd KeepColor Landscape {Pat4} {Pat5} ifelse setpattern} bind def
/Pattern6 {PatternBgnd KeepColor Landscape {Pat9} {Pat6} ifelse setpattern} bind def
/Pattern7 {PatternBgnd KeepColor Landscape {Pat8} {Pat7} ifelse setpattern} bind def
} def
%
%
%End of PostScript Level 2 code
%
/PatternBgnd {
  TransparentPatterns {} {gsave 1 setgray fill grestore} ifelse
} def
%
% Substitute for Level 2 pattern fill codes with
% grayscale if Level 2 support is not selected.
%
/Level1PatternFill {
/Pattern1 {0.250 Density} bind def
/Pattern2 {0.500 Density} bind def
/Pattern3 {0.750 Density} bind def
/Pattern4 {0.125 Density} bind def
/Pattern5 {0.375 Density} bind def
/Pattern6 {0.625 Density} bind def
/Pattern7 {0.875 Density} bind def
} def
%
% Now test for support of Level 2 code
%
Level1 {Level1PatternFill} {Level2PatternFill} ifelse
%
/Symbol-Oblique /Symbol findfont [1 0 .167 1 0 0] makefont
dup length dict begin {1 index /FID eq {pop pop} {def} ifelse} forall
currentdict end definefont pop
%
/MFshow {
   { dup 5 get 3 ge
     { 5 get 3 eq {gsave} {grestore} ifelse }
     {dup dup 0 get findfont exch 1 get scalefont setfont
     [ currentpoint ] exch dup 2 get 0 exch R dup 5 get 2 ne {dup dup 6
     get exch 4 get {textshow} {stringwidth pop 0 R} ifelse }if dup 5 get 0 eq
     {dup 3 get {2 get neg 0 exch R pop} {pop aload pop M} ifelse} {dup 5
     get 1 eq {dup 2 get exch dup 3 get exch 6 get stringwidth pop -2 div
     dup 0 R} {dup 6 get stringwidth pop -2 div 0 R 6 get
     textshow 2 index {aload pop M neg 3 -1 roll neg R pop pop} {pop pop pop
     pop aload pop M} ifelse }ifelse }ifelse }
     ifelse }
   forall} def
/Gswidth {dup type /stringtype eq {stringwidth} {pop (n) stringwidth} ifelse} def
/MFwidth {0 exch { dup 5 get 3 ge { 5 get 3 eq { 0 } { pop } ifelse }
 {dup 3 get{dup dup 0 get findfont exch 1 get scalefont setfont
     6 get Gswidth pop add} {pop} ifelse} ifelse} forall} def
/MLshow { currentpoint stroke M
  0 exch R
  Blacktext {gsave 0 setgray MFshow grestore} {MFshow} ifelse } bind def
/MRshow { currentpoint stroke M
  exch dup MFwidth neg 3 -1 roll R
  Blacktext {gsave 0 setgray MFshow grestore} {MFshow} ifelse } bind def
/MCshow { currentpoint stroke M
  exch dup MFwidth -2 div 3 -1 roll R
  Blacktext {gsave 0 setgray MFshow grestore} {MFshow} ifelse } bind def
/XYsave    { [( ) 1 2 true false 3 ()] } bind def
/XYrestore { [( ) 1 2 true false 4 ()] } bind def
Level1 SuppressPDFMark or 
{} {
/SDict 10 dict def
systemdict /pdfmark known not {
  userdict /pdfmark systemdict /cleartomark get put
} if
SDict begin [
  /Title (TcpCubic-download-finishtime-25UE-panoramic.eps)
  /Subject (gnuplot plot)
  /Creator (gnuplot 5.0 patchlevel 3)
  /Author (nat)
%  /Producer (gnuplot)
%  /Keywords ()
  /CreationDate (Tue Jun  7 16:10:53 2016)
  /DOCINFO pdfmark
end
} ifelse
%
% Support for boxed text - Ethan A Merritt May 2005
%
/InitTextBox { userdict /TBy2 3 -1 roll put userdict /TBx2 3 -1 roll put
           userdict /TBy1 3 -1 roll put userdict /TBx1 3 -1 roll put
	   /Boxing true def } def
/ExtendTextBox { Boxing
    { gsave dup false charpath pathbbox
      dup TBy2 gt {userdict /TBy2 3 -1 roll put} {pop} ifelse
      dup TBx2 gt {userdict /TBx2 3 -1 roll put} {pop} ifelse
      dup TBy1 lt {userdict /TBy1 3 -1 roll put} {pop} ifelse
      dup TBx1 lt {userdict /TBx1 3 -1 roll put} {pop} ifelse
      grestore } if } def
/PopTextBox { newpath TBx1 TBxmargin sub TBy1 TBymargin sub M
               TBx1 TBxmargin sub TBy2 TBymargin add L
	       TBx2 TBxmargin add TBy2 TBymargin add L
	       TBx2 TBxmargin add TBy1 TBymargin sub L closepath } def
/DrawTextBox { PopTextBox stroke /Boxing false def} def
/FillTextBox { gsave PopTextBox 1 1 1 setrgbcolor fill grestore /Boxing false def} def
0 0 0 0 InitTextBox
/TBxmargin 20 def
/TBymargin 20 def
/Boxing false def
/textshow { ExtendTextBox Gshow } def
%
% redundant definitions for compatibility with prologue.ps older than 5.0.2
/LTB {BL [] LCb DL} def
/LTb {PL [] LCb DL} def
end
%%EndProlog
%%Page: 1 1
gnudict begin
gsave
doclip
50 50 translate
0.050 0.050 scale
0 setgray
newpath
(Arial) findfont 200 scalefont setfont
BackgroundColor 0 lt 3 1 roll 0 lt exch 0 lt or or not {BackgroundColor C 1.000 0 0 14400.00 5040.00 BoxColFill} if
1.000 UL
LTb
0.00 0.00 0.00 C 0.500 UL
LTa
0.50 0.50 0.50 C 980 1000 M
12139 0 V
stroke
1.000 UL
LTb
0.00 0.00 0.00 C 980 1000 M
63 0 V
stroke
860 1000 M
[ [(Arial) 200.0 0.0 true true 0 ( 0)]
] -66.7 MRshow
1.000 UL
LTb
0.00 0.00 0.00 C 0.500 UL
LTa
0.50 0.50 0.50 C 980 1475 M
12139 0 V
stroke
1.000 UL
LTb
0.00 0.00 0.00 C 980 1475 M
63 0 V
stroke
860 1475 M
[ [(Arial) 200.0 0.0 true true 0 ( 20)]
] -66.7 MRshow
1.000 UL
LTb
0.00 0.00 0.00 C 0.500 UL
LTa
0.50 0.50 0.50 C 980 1950 M
12139 0 V
stroke
1.000 UL
LTb
0.00 0.00 0.00 C 980 1950 M
63 0 V
stroke
860 1950 M
[ [(Arial) 200.0 0.0 true true 0 ( 40)]
] -66.7 MRshow
1.000 UL
LTb
0.00 0.00 0.00 C 0.500 UL
LTa
0.50 0.50 0.50 C 980 2425 M
12139 0 V
stroke
1.000 UL
LTb
0.00 0.00 0.00 C 980 2425 M
63 0 V
stroke
860 2425 M
[ [(Arial) 200.0 0.0 true true 0 ( 60)]
] -66.7 MRshow
1.000 UL
LTb
0.00 0.00 0.00 C 0.500 UL
LTa
0.50 0.50 0.50 C 980 2900 M
12139 0 V
stroke
1.000 UL
LTb
0.00 0.00 0.00 C 980 2900 M
63 0 V
stroke
860 2900 M
[ [(Arial) 200.0 0.0 true true 0 ( 80)]
] -66.7 MRshow
1.000 UL
LTb
0.00 0.00 0.00 C 0.500 UL
LTa
0.50 0.50 0.50 C 980 3374 M
12139 0 V
stroke
1.000 UL
LTb
0.00 0.00 0.00 C 980 3374 M
63 0 V
stroke
860 3374 M
[ [(Arial) 200.0 0.0 true true 0 ( 100)]
] -66.7 MRshow
1.000 UL
LTb
0.00 0.00 0.00 C 0.500 UL
LTa
0.50 0.50 0.50 C 980 3849 M
12139 0 V
stroke
1.000 UL
LTb
0.00 0.00 0.00 C 980 3849 M
63 0 V
stroke
860 3849 M
[ [(Arial) 200.0 0.0 true true 0 ( 120)]
] -66.7 MRshow
1.000 UL
LTb
0.00 0.00 0.00 C 0.500 UL
LTa
0.50 0.50 0.50 C 980 4324 M
12139 0 V
stroke
1.000 UL
LTb
0.00 0.00 0.00 C 980 4324 M
63 0 V
stroke
860 4324 M
[ [(Arial) 200.0 0.0 true true 0 ( 140)]
] -66.7 MRshow
1.000 UL
LTb
0.00 0.00 0.00 C 0.500 UL
LTa
0.50 0.50 0.50 C 980 4799 M
12139 0 V
stroke
1.000 UL
LTb
0.00 0.00 0.00 C 980 4799 M
63 0 V
stroke
860 4799 M
[ [(Arial) 200.0 0.0 true true 0 ( 160)]
] -66.7 MRshow
1.000 UL
LTb
0.00 0.00 0.00 C 0.500 UL
LTa
0.50 0.50 0.50 C 1235 1000 M
0 3799 V
stroke
1.000 UL
LTb
0.00 0.00 0.00 C 1235 1000 M
0 63 V
0 3736 R
0 -63 V
stroke
1235 800 M
[ [(Arial) 200.0 0.0 true true 0 ( 60)]
] -66.7 MCshow
1.000 UL
LTb
0.00 0.00 0.00 C 0.500 UL
LTa
0.50 0.50 0.50 C 1847 1000 M
0 3799 V
stroke
1.000 UL
LTb
0.00 0.00 0.00 C 1847 1000 M
0 63 V
0 3736 R
0 -63 V
stroke
1847 800 M
[ [(Arial) 200.0 0.0 true true 0 ( 120)]
] -66.7 MCshow
1.000 UL
LTb
0.00 0.00 0.00 C 0.500 UL
LTa
0.50 0.50 0.50 C 2459 1000 M
0 3799 V
stroke
1.000 UL
LTb
0.00 0.00 0.00 C 2459 1000 M
0 63 V
0 3736 R
0 -63 V
stroke
2459 800 M
[ [(Arial) 200.0 0.0 true true 0 ( 180)]
] -66.7 MCshow
1.000 UL
LTb
0.00 0.00 0.00 C 0.500 UL
LTa
0.50 0.50 0.50 C 3071 1000 M
0 3799 V
stroke
1.000 UL
LTb
0.00 0.00 0.00 C 3071 1000 M
0 63 V
0 3736 R
0 -63 V
stroke
3071 800 M
[ [(Arial) 200.0 0.0 true true 0 ( 240)]
] -66.7 MCshow
1.000 UL
LTb
0.00 0.00 0.00 C 0.500 UL
LTa
0.50 0.50 0.50 C 3683 1000 M
0 3799 V
stroke
1.000 UL
LTb
0.00 0.00 0.00 C 3683 1000 M
0 63 V
0 3736 R
0 -63 V
stroke
3683 800 M
[ [(Arial) 200.0 0.0 true true 0 ( 300)]
] -66.7 MCshow
1.000 UL
LTb
0.00 0.00 0.00 C 0.500 UL
LTa
0.50 0.50 0.50 C 4295 1000 M
0 3799 V
stroke
1.000 UL
LTb
0.00 0.00 0.00 C 4295 1000 M
0 63 V
0 3736 R
0 -63 V
stroke
4295 800 M
[ [(Arial) 200.0 0.0 true true 0 ( 360)]
] -66.7 MCshow
1.000 UL
LTb
0.00 0.00 0.00 C 0.500 UL
LTa
0.50 0.50 0.50 C 4907 1000 M
0 3799 V
stroke
1.000 UL
LTb
0.00 0.00 0.00 C 4907 1000 M
0 63 V
0 3736 R
0 -63 V
stroke
4907 800 M
[ [(Arial) 200.0 0.0 true true 0 ( 420)]
] -66.7 MCshow
1.000 UL
LTb
0.00 0.00 0.00 C 0.500 UL
LTa
0.50 0.50 0.50 C 5519 1000 M
0 3799 V
stroke
1.000 UL
LTb
0.00 0.00 0.00 C 5519 1000 M
0 63 V
0 3736 R
0 -63 V
stroke
5519 800 M
[ [(Arial) 200.0 0.0 true true 0 ( 480)]
] -66.7 MCshow
1.000 UL
LTb
0.00 0.00 0.00 C 0.500 UL
LTa
0.50 0.50 0.50 C 6131 1000 M
0 3799 V
stroke
1.000 UL
LTb
0.00 0.00 0.00 C 6131 1000 M
0 63 V
0 3736 R
0 -63 V
stroke
6131 800 M
[ [(Arial) 200.0 0.0 true true 0 ( 540)]
] -66.7 MCshow
1.000 UL
LTb
0.00 0.00 0.00 C 0.500 UL
LTa
0.50 0.50 0.50 C 6743 1000 M
0 3799 V
stroke
1.000 UL
LTb
0.00 0.00 0.00 C 6743 1000 M
0 63 V
0 3736 R
0 -63 V
stroke
6743 800 M
[ [(Arial) 200.0 0.0 true true 0 ( 600)]
] -66.7 MCshow
1.000 UL
LTb
0.00 0.00 0.00 C 0.500 UL
LTa
0.50 0.50 0.50 C 7356 1000 M
0 3799 V
stroke
1.000 UL
LTb
0.00 0.00 0.00 C 7356 1000 M
0 63 V
0 3736 R
0 -63 V
stroke
7356 800 M
[ [(Arial) 200.0 0.0 true true 0 ( 660)]
] -66.7 MCshow
1.000 UL
LTb
0.00 0.00 0.00 C 0.500 UL
LTa
0.50 0.50 0.50 C 7968 1000 M
0 3799 V
stroke
1.000 UL
LTb
0.00 0.00 0.00 C 7968 1000 M
0 63 V
0 3736 R
0 -63 V
stroke
7968 800 M
[ [(Arial) 200.0 0.0 true true 0 ( 720)]
] -66.7 MCshow
1.000 UL
LTb
0.00 0.00 0.00 C 0.500 UL
LTa
0.50 0.50 0.50 C 8580 1000 M
0 3799 V
stroke
1.000 UL
LTb
0.00 0.00 0.00 C 8580 1000 M
0 63 V
0 3736 R
0 -63 V
stroke
8580 800 M
[ [(Arial) 200.0 0.0 true true 0 ( 780)]
] -66.7 MCshow
1.000 UL
LTb
0.00 0.00 0.00 C 0.500 UL
LTa
0.50 0.50 0.50 C 9192 1000 M
0 3799 V
stroke
1.000 UL
LTb
0.00 0.00 0.00 C 9192 1000 M
0 63 V
0 3736 R
0 -63 V
stroke
9192 800 M
[ [(Arial) 200.0 0.0 true true 0 ( 840)]
] -66.7 MCshow
1.000 UL
LTb
0.00 0.00 0.00 C 0.500 UL
LTa
0.50 0.50 0.50 C 9804 1000 M
0 3799 V
stroke
1.000 UL
LTb
0.00 0.00 0.00 C 9804 1000 M
0 63 V
0 3736 R
0 -63 V
stroke
9804 800 M
[ [(Arial) 200.0 0.0 true true 0 ( 900)]
] -66.7 MCshow
1.000 UL
LTb
0.00 0.00 0.00 C 0.500 UL
LTa
0.50 0.50 0.50 C 10416 1000 M
0 3799 V
stroke
1.000 UL
LTb
0.00 0.00 0.00 C 10416 1000 M
0 63 V
0 3736 R
0 -63 V
stroke
10416 800 M
[ [(Arial) 200.0 0.0 true true 0 ( 960)]
] -66.7 MCshow
1.000 UL
LTb
0.00 0.00 0.00 C 0.500 UL
LTa
0.50 0.50 0.50 C 11028 1000 M
0 3799 V
stroke
1.000 UL
LTb
0.00 0.00 0.00 C 11028 1000 M
0 63 V
0 3736 R
0 -63 V
stroke
11028 800 M
[ [(Arial) 200.0 0.0 true true 0 ( 1020)]
] -66.7 MCshow
1.000 UL
LTb
0.00 0.00 0.00 C 0.500 UL
LTa
0.50 0.50 0.50 C 11640 1000 M
0 3799 V
stroke
1.000 UL
LTb
0.00 0.00 0.00 C 11640 1000 M
0 63 V
0 3736 R
0 -63 V
stroke
11640 800 M
[ [(Arial) 200.0 0.0 true true 0 ( 1080)]
] -66.7 MCshow
1.000 UL
LTb
0.00 0.00 0.00 C 0.500 UL
LTa
0.50 0.50 0.50 C 12252 1000 M
0 3799 V
stroke
1.000 UL
LTb
0.00 0.00 0.00 C 12252 1000 M
0 63 V
0 3736 R
0 -63 V
stroke
12252 800 M
[ [(Arial) 200.0 0.0 true true 0 ( 1140)]
] -66.7 MCshow
1.000 UL
LTb
0.00 0.00 0.00 C 0.500 UL
LTa
0.50 0.50 0.50 C 12864 1000 M
0 3799 V
stroke
1.000 UL
LTb
0.00 0.00 0.00 C 12864 1000 M
0 63 V
0 3736 R
0 -63 V
stroke
12864 800 M
[ [(Arial) 200.0 0.0 true true 0 ( 1200)]
] -66.7 MCshow
1.000 UL
LTb
0.00 0.00 0.00 C 13119 1000 M
-63 0 V
stroke
13239 1000 M
[ [(Arial) 200.0 0.0 true true 0 ( 0)]
] -66.7 MLshow
1.000 UL
LTb
0.00 0.00 0.00 C 13119 1760 M
-63 0 V
stroke
13239 1760 M
[ [(Arial) 200.0 0.0 true true 0 ( 20)]
] -66.7 MLshow
1.000 UL
LTb
0.00 0.00 0.00 C 13119 2520 M
-63 0 V
stroke
13239 2520 M
[ [(Arial) 200.0 0.0 true true 0 ( 40)]
] -66.7 MLshow
1.000 UL
LTb
0.00 0.00 0.00 C 13119 3279 M
-63 0 V
stroke
13239 3279 M
[ [(Arial) 200.0 0.0 true true 0 ( 60)]
] -66.7 MLshow
1.000 UL
LTb
0.00 0.00 0.00 C 13119 4039 M
-63 0 V
stroke
13239 4039 M
[ [(Arial) 200.0 0.0 true true 0 ( 80)]
] -66.7 MLshow
1.000 UL
LTb
0.00 0.00 0.00 C 13119 4799 M
-63 0 V
stroke
13239 4799 M
[ [(Arial) 200.0 0.0 true true 0 ( 100)]
] -66.7 MLshow
1.000 UL
LTb
0.00 0.00 0.00 C 1.000 UL
LTB
0.00 0.00 0.00 C 980 4799 M
0 -3799 V
12139 0 V
0 3799 R
980 4799 M
1.000 UP
stroke
LTb
0.00 0.00 0.00 C LCb setrgbcolor
160 2899 M
currentpoint gsave translate -270 rotate 0 0 moveto
[ [(Arial) 200.0 0.0 true true 0 (File download time \(s\))]
] -66.7 MCshow
grestore
LTb
LCb setrgbcolor
13938 2899 M
currentpoint gsave translate -270 rotate 0 0 moveto
[ [(Arial) 200.0 0.0 true true 0 (Average UDP throughput [%])]
] -66.7 MCshow
grestore
LTb
LCb setrgbcolor
7049 500 M
[ [(Arial) 200.0 0.0 true true 0 (Local Backhaul traffic \(Mb/s\))]
] -66.7 MCshow
LTb
% Begin plot #1
1.000 UL
LTb
0.60 0.60 0.00 C LCb setrgbcolor
4714 333 M
[ [(Arial) 180.0 0.0 true true 0 (file download time    :   olsr)]
] -60.0 MRshow
1.000 UL
LTb
0.60 0.60 0.00 C 4822 288 333 90 80 -45 0 PatternFill
4822 288 N
333 0 V
0 90 V
-333 0 V
0 -90 V
Z stroke
1.000 UL
LTb
0.60 0.60 0.00 C 990 1370 154 240 80 -45 0 PatternFill
1067 1073 M
0 297 V
0 240 R
0 187 V
stroke
990 1370 N
154 0 V
0 240 V
-154 0 V
0 -240 V
Z stroke
990 1797 M
154 0 V
990 1073 M
154 0 V
stroke
1602 1348 154 260 80 -45 0 PatternFill
1679 1073 M
0 275 V
0 260 R
0 366 V
stroke
1602 1348 N
154 0 V
0 260 V
-154 0 V
0 -260 V
Z stroke
1602 1974 M
154 0 V
1602 1073 M
154 0 V
stroke
2214 1402 154 142 80 -45 0 PatternFill
2291 1073 M
0 329 V
0 142 R
0 253 V
stroke
2214 1402 N
154 0 V
0 142 V
-154 0 V
0 -142 V
Z stroke
2214 1797 M
154 0 V
2214 1073 M
154 0 V
stroke
2826 1339 154 262 80 -45 0 PatternFill
2903 1073 M
0 266 V
0 262 R
0 95 V
stroke
2826 1339 N
154 0 V
0 262 V
-154 0 V
0 -262 V
Z stroke
2826 1696 M
154 0 V
2826 1073 M
154 0 V
stroke
3438 1392 154 191 80 -45 0 PatternFill
3515 1073 M
0 319 V
0 191 R
0 220 V
stroke
3438 1392 N
154 0 V
0 191 V
-154 0 V
0 -191 V
Z stroke
3438 1803 M
154 0 V
3438 1073 M
154 0 V
stroke
4050 1360 154 160 80 -45 0 PatternFill
4127 1073 M
0 287 V
0 160 R
0 185 V
stroke
4050 1360 N
154 0 V
0 160 V
-154 0 V
0 -160 V
Z stroke
4050 1705 M
154 0 V
4050 1073 M
154 0 V
stroke
4663 1345 154 264 80 -45 0 PatternFill
4740 1073 M
0 272 V
0 264 R
0 363 V
stroke
4663 1345 N
154 0 V
0 264 V
-154 0 V
0 -264 V
Z stroke
4663 1972 M
154 0 V
4663 1073 M
154 0 V
stroke
5275 1378 154 184 80 -45 0 PatternFill
5352 1073 M
0 305 V
0 184 R
0 286 V
stroke
5275 1378 N
154 0 V
0 184 V
-154 0 V
0 -184 V
Z stroke
5275 1848 M
154 0 V
5275 1073 M
154 0 V
stroke
5887 1367 154 188 80 -45 0 PatternFill
5964 1073 M
0 294 V
0 188 R
0 315 V
stroke
5887 1367 N
154 0 V
0 188 V
-154 0 V
0 -188 V
Z stroke
5887 1870 M
154 0 V
5887 1073 M
154 0 V
stroke
6499 1373 154 204 80 -45 0 PatternFill
6576 1073 M
0 300 V
0 204 R
0 186 V
stroke
6499 1373 N
154 0 V
0 204 V
-154 0 V
0 -204 V
Z stroke
6499 1763 M
154 0 V
6499 1073 M
154 0 V
stroke
7111 1328 154 291 80 -45 0 PatternFill
7188 1073 M
0 255 V
0 291 R
0 73 V
stroke
7111 1328 N
154 0 V
0 291 V
-154 0 V
0 -291 V
Z stroke
7111 1692 M
154 0 V
7111 1073 M
154 0 V
stroke
7723 1330 154 263 80 -45 0 PatternFill
7800 1073 M
0 257 V
0 263 R
0 437 V
stroke
7723 1330 N
154 0 V
0 263 V
-154 0 V
0 -263 V
Z stroke
7723 2030 M
154 0 V
7723 1073 M
154 0 V
stroke
8335 1346 154 180 80 -45 0 PatternFill
8412 1073 M
0 273 V
0 180 R
0 322 V
stroke
8335 1346 N
154 0 V
0 180 V
-154 0 V
0 -180 V
Z stroke
8335 1848 M
154 0 V
8335 1073 M
154 0 V
stroke
8947 1363 154 198 80 -45 0 PatternFill
9024 1073 M
0 290 V
0 198 R
0 128 V
stroke
8947 1363 N
154 0 V
0 198 V
-154 0 V
0 -198 V
Z stroke
8947 1689 M
154 0 V
8947 1073 M
154 0 V
stroke
9559 1359 154 168 80 -45 0 PatternFill
9636 1073 M
0 286 V
0 168 R
0 125 V
stroke
9559 1359 N
154 0 V
0 168 V
-154 0 V
0 -168 V
Z stroke
9559 1652 M
154 0 V
9559 1073 M
154 0 V
stroke
10171 1338 154 264 80 -45 0 PatternFill
10248 1073 M
0 265 V
0 264 R
0 205 V
stroke
10171 1338 N
154 0 V
0 264 V
-154 0 V
0 -264 V
Z stroke
10171 1807 M
154 0 V
-154 -734 R
154 0 V
stroke
10783 1382 154 174 80 -45 0 PatternFill
10860 1073 M
0 309 V
0 174 R
0 188 V
stroke
10783 1382 N
154 0 V
0 174 V
-154 0 V
0 -174 V
Z stroke
10783 1744 M
154 0 V
-154 -671 R
154 0 V
stroke
11395 1351 154 233 80 -45 0 PatternFill
11472 1073 M
0 278 V
0 233 R
0 331 V
stroke
11395 1351 N
154 0 V
0 233 V
-154 0 V
0 -233 V
Z stroke
11395 1915 M
154 0 V
-154 -842 R
154 0 V
stroke
12007 1381 154 200 80 -45 0 PatternFill
12084 1073 M
0 308 V
0 200 R
0 205 V
stroke
12007 1381 N
154 0 V
0 200 V
-154 0 V
0 -200 V
Z stroke
12007 1786 M
154 0 V
-154 -713 R
154 0 V
stroke
12619 1382 154 219 80 -45 0 PatternFill
12696 1073 M
0 309 V
0 219 R
0 272 V
stroke
12619 1382 N
154 0 V
0 219 V
-154 0 V
0 -219 V
Z stroke
12619 1873 M
154 0 V
-154 -800 R
154 0 V
% End plot #1
% Begin plot #2
stroke
LTb
LCb setrgbcolor

 /TransparentPatterns true def
990 1459 154 0 40 30 0 PatternFill
1067 1459 M
stroke
990 1459 N
154 0 V
-154 0 V
Z stroke
990 1459 M
154 0 V
-154 0 R
154 0 V
stroke

 /TransparentPatterns true def
1602 1487 154 0 40 30 0 PatternFill
1679 1487 M
stroke
1602 1487 N
154 0 V
-154 0 V
Z stroke
1602 1487 M
154 0 V
-154 0 R
154 0 V
stroke

 /TransparentPatterns true def
2214 1469 154 0 40 30 0 PatternFill
2291 1469 M
stroke
2214 1469 N
154 0 V
-154 0 V
Z stroke
2214 1469 M
154 0 V
-154 0 R
154 0 V
stroke

 /TransparentPatterns true def
2826 1450 154 0 40 30 0 PatternFill
2903 1450 M
stroke
2826 1450 N
154 0 V
-154 0 V
Z stroke
2826 1450 M
154 0 V
-154 0 R
154 0 V
stroke

 /TransparentPatterns true def
3438 1488 154 0 40 30 0 PatternFill
3515 1488 M
stroke
3438 1488 N
154 0 V
-154 0 V
Z stroke
3438 1488 M
154 0 V
-154 0 R
154 0 V
stroke

 /TransparentPatterns true def
4050 1443 154 0 40 30 0 PatternFill
4127 1443 M
stroke
4050 1443 N
154 0 V
-154 0 V
Z stroke
4050 1443 M
154 0 V
-154 0 R
154 0 V
stroke

 /TransparentPatterns true def
4663 1479 154 0 40 30 0 PatternFill
4740 1479 M
stroke
4663 1479 N
154 0 V
-154 0 V
Z stroke
4663 1479 M
154 0 V
-154 0 R
154 0 V
stroke

 /TransparentPatterns true def
5275 1464 154 0 40 30 0 PatternFill
5352 1464 M
stroke
5275 1464 N
154 0 V
-154 0 V
Z stroke
5275 1464 M
154 0 V
-154 0 R
154 0 V
stroke

 /TransparentPatterns true def
5887 1451 154 0 40 30 0 PatternFill
5964 1451 M
stroke
5887 1451 N
154 0 V
-154 0 V
Z stroke
5887 1451 M
154 0 V
-154 0 R
154 0 V
stroke

 /TransparentPatterns true def
6499 1468 154 0 40 30 0 PatternFill
6576 1468 M
stroke
6499 1468 N
154 0 V
-154 0 V
Z stroke
6499 1468 M
154 0 V
-154 0 R
154 0 V
stroke

 /TransparentPatterns true def
7111 1450 154 0 40 30 0 PatternFill
7188 1450 M
stroke
7111 1450 N
154 0 V
-154 0 V
Z stroke
7111 1450 M
154 0 V
-154 0 R
154 0 V
stroke

 /TransparentPatterns true def
7723 1496 154 0 40 30 0 PatternFill
7800 1496 M
stroke
7723 1496 N
154 0 V
-154 0 V
Z stroke
7723 1496 M
154 0 V
-154 0 R
154 0 V
stroke

 /TransparentPatterns true def
8335 1443 154 0 40 30 0 PatternFill
8412 1443 M
stroke
8335 1443 N
154 0 V
-154 0 V
Z stroke
8335 1443 M
154 0 V
-154 0 R
154 0 V
stroke

 /TransparentPatterns true def
8947 1448 154 0 40 30 0 PatternFill
9024 1448 M
stroke
8947 1448 N
154 0 V
-154 0 V
Z stroke
8947 1448 M
154 0 V
-154 0 R
154 0 V
stroke

 /TransparentPatterns true def
9559 1428 154 0 40 30 0 PatternFill
9636 1428 M
stroke
9559 1428 N
154 0 V
-154 0 V
Z stroke
9559 1428 M
154 0 V
-154 0 R
154 0 V
stroke

 /TransparentPatterns true def
10171 1480 154 0 40 30 0 PatternFill
10248 1480 M
stroke
10171 1480 N
154 0 V
-154 0 V
Z stroke
10171 1480 M
154 0 V
-154 0 R
154 0 V
stroke

 /TransparentPatterns true def
10783 1465 154 0 40 30 0 PatternFill
10860 1465 M
stroke
10783 1465 N
154 0 V
-154 0 V
Z stroke
10783 1465 M
154 0 V
-154 0 R
154 0 V
stroke

 /TransparentPatterns true def
11395 1472 154 0 40 30 0 PatternFill
11472 1472 M
stroke
11395 1472 N
154 0 V
-154 0 V
Z stroke
11395 1472 M
154 0 V
-154 0 R
154 0 V
stroke

 /TransparentPatterns true def
12007 1475 154 0 40 30 0 PatternFill
12084 1475 M
stroke
12007 1475 N
154 0 V
-154 0 V
Z stroke
12007 1475 M
154 0 V
-154 0 R
154 0 V
stroke

 /TransparentPatterns true def
12619 1494 154 0 40 30 0 PatternFill
12696 1494 M
stroke
12619 1494 N
154 0 V
-154 0 V
Z stroke
12619 1494 M
154 0 V
-154 0 R
154 0 V
% End plot #2
% Begin plot #3
2.000 UP
stroke
LTa
0.60 0.60 0.00 C LCb setrgbcolor
4714 153 M
[ [(Arial) 180.0 0.0 true true 0 (avg. throughput :         )]
] -60.0 MRshow
2.000 UP
1.000 UL
LTa
0.60 0.60 0.00 C 4822 153 M
333 0 V
1067 4799 M
612 -9 V
612 3 V
612 -3 V
612 1 V
612 -1 V
612 4 V
612 -2 V
612 -1 V
612 -1 V
612 -1 V
612 4 V
612 -1 V
612 -4 V
612 1 V
612 -996 V
613 -55 V
612 150 V
612 -123 V
612 101 V
1067 4799 Box
1679 4790 Box
2291 4793 Box
2903 4790 Box
3515 4791 Box
4127 4790 Box
4739 4794 Box
5351 4792 Box
5963 4791 Box
6575 4790 Box
7187 4789 Box
7799 4793 Box
8411 4792 Box
9023 4788 Box
9635 4789 Box
10247 3793 Box
10860 3738 Box
11472 3888 Box
12084 3765 Box
12696 3866 Box
4988 153 Box
% End plot #3
% Begin plot #4
1.000 UL
LTb
0.00 0.00 0.63 C LCb setrgbcolor
8287 333 M
[ [(Arial) 180.0 0.0 true true 0 (per-packet)]
] -60.0 MRshow
1.000 UL
LTb
0.00 0.00 0.63 C 8395 288 333 90 80 45 0 PatternFill
8395 288 N
333 0 V
0 90 V
-333 0 V
0 -90 V
Z stroke
1.000 UL
LTb
0.00 0.00 0.63 C 1159 1089 154 1546 80 45 0 PatternFill
1236 1060 M
0 29 V
0 1546 R
0 334 V
stroke
1159 1089 N
154 0 V
0 1546 V
-154 0 V
0 -1546 V
Z stroke
1159 2969 M
154 0 V
1159 1060 M
154 0 V
stroke
1771 1094 154 1512 80 45 0 PatternFill
1848 1063 M
0 31 V
0 1512 R
0 372 V
stroke
1771 1094 N
154 0 V
0 1512 V
-154 0 V
0 -1512 V
Z stroke
1771 2978 M
154 0 V
1771 1063 M
154 0 V
stroke
2383 1091 154 1482 80 45 0 PatternFill
2460 1061 M
0 30 V
0 1482 R
0 436 V
stroke
2383 1091 N
154 0 V
0 1482 V
-154 0 V
0 -1482 V
Z stroke
2383 3009 M
154 0 V
2383 1061 M
154 0 V
stroke
2995 1089 154 1509 80 45 0 PatternFill
3072 1057 M
0 32 V
0 1509 R
0 226 V
stroke
2995 1089 N
154 0 V
0 1509 V
-154 0 V
0 -1509 V
Z stroke
2995 2824 M
154 0 V
2995 1057 M
154 0 V
stroke
3607 1088 154 1534 80 45 0 PatternFill
3684 1070 M
0 18 V
0 1534 R
0 106 V
stroke
3607 1088 N
154 0 V
0 1534 V
-154 0 V
0 -1534 V
Z stroke
3607 2728 M
154 0 V
3607 1070 M
154 0 V
stroke
4219 1092 154 1473 80 45 0 PatternFill
4296 1059 M
0 33 V
0 1473 R
0 314 V
stroke
4219 1092 N
154 0 V
0 1473 V
-154 0 V
0 -1473 V
Z stroke
4219 2879 M
154 0 V
4219 1059 M
154 0 V
stroke
4831 1082 154 1581 80 45 0 PatternFill
4908 1061 M
0 21 V
0 1581 R
0 247 V
stroke
4831 1082 N
154 0 V
0 1581 V
-154 0 V
0 -1581 V
Z stroke
4831 2910 M
154 0 V
4831 1061 M
154 0 V
stroke
5443 1096 154 1459 80 45 0 PatternFill
5520 1071 M
0 25 V
0 1459 R
0 366 V
stroke
5443 1096 N
154 0 V
0 1459 V
-154 0 V
0 -1459 V
Z stroke
5443 2921 M
154 0 V
5443 1071 M
154 0 V
stroke
6055 1088 154 1435 80 45 0 PatternFill
6132 1058 M
0 30 V
0 1435 R
0 332 V
stroke
6055 1088 N
154 0 V
0 1435 V
-154 0 V
0 -1435 V
Z stroke
6055 2855 M
154 0 V
6055 1058 M
154 0 V
stroke
6667 1097 154 1370 80 45 0 PatternFill
6744 1064 M
0 33 V
0 1370 R
0 338 V
stroke
6667 1097 N
154 0 V
0 1370 V
-154 0 V
0 -1370 V
Z stroke
6667 2805 M
154 0 V
6667 1064 M
154 0 V
stroke
7279 1091 154 1396 80 45 0 PatternFill
7356 1047 M
0 44 V
0 1396 R
0 328 V
stroke
7279 1091 N
154 0 V
0 1396 V
-154 0 V
0 -1396 V
Z stroke
7279 2815 M
154 0 V
7279 1047 M
154 0 V
stroke
7891 1093 154 1367 80 45 0 PatternFill
7968 1060 M
0 33 V
0 1367 R
0 340 V
stroke
7891 1093 N
154 0 V
0 1367 V
-154 0 V
0 -1367 V
Z stroke
7891 2800 M
154 0 V
7891 1060 M
154 0 V
stroke
8503 1083 154 1389 80 45 0 PatternFill
8580 1052 M
0 31 V
0 1389 R
0 178 V
stroke
8503 1083 N
154 0 V
0 1389 V
-154 0 V
0 -1389 V
Z stroke
8503 2650 M
154 0 V
8503 1052 M
154 0 V
stroke
9115 1085 154 1354 80 45 0 PatternFill
9192 1059 M
0 26 V
0 1354 R
0 379 V
stroke
9115 1085 N
154 0 V
0 1354 V
-154 0 V
0 -1354 V
Z stroke
9115 2818 M
154 0 V
9115 1059 M
154 0 V
stroke
9727 1108 154 1477 80 45 0 PatternFill
9804 1064 M
0 44 V
0 1477 R
0 301 V
stroke
9727 1108 N
154 0 V
0 1477 V
-154 0 V
0 -1477 V
Z stroke
9727 2886 M
154 0 V
9727 1064 M
154 0 V
stroke
10339 1096 154 1475 80 45 0 PatternFill
10416 1074 M
0 22 V
0 1475 R
0 61 V
stroke
10339 1096 N
154 0 V
0 1475 V
-154 0 V
0 -1475 V
Z stroke
10339 2632 M
154 0 V
10339 1074 M
154 0 V
stroke
10951 1098 154 1416 80 45 0 PatternFill
11028 1062 M
0 36 V
0 1416 R
0 293 V
stroke
10951 1098 N
154 0 V
0 1416 V
-154 0 V
0 -1416 V
Z stroke
10951 2807 M
154 0 V
10951 1062 M
154 0 V
stroke
11563 1112 154 1427 80 45 0 PatternFill
11640 1061 M
0 51 V
0 1427 R
0 296 V
stroke
11563 1112 N
154 0 V
0 1427 V
-154 0 V
0 -1427 V
Z stroke
11563 2835 M
154 0 V
11563 1061 M
154 0 V
stroke
12175 1097 154 1427 80 45 0 PatternFill
12252 1064 M
0 33 V
0 1427 R
0 330 V
stroke
12175 1097 N
154 0 V
0 1427 V
-154 0 V
0 -1427 V
Z stroke
12175 2854 M
154 0 V
12175 1064 M
154 0 V
stroke
12787 1129 154 1266 80 45 0 PatternFill
12864 1063 M
0 66 V
0 1266 R
0 362 V
stroke
12787 1129 N
154 0 V
0 1266 V
-154 0 V
0 -1266 V
Z stroke
12787 2757 M
154 0 V
12787 1063 M
154 0 V
% End plot #4
% Begin plot #5
stroke
LTb
LCb setrgbcolor

 /TransparentPatterns true def
1159 1649 154 0 80 -45 0 PatternFill
1236 1649 M
stroke
1159 1649 N
154 0 V
-154 0 V
Z stroke
1159 1649 M
154 0 V
-154 0 R
154 0 V
stroke

 /TransparentPatterns true def
1771 1676 154 0 80 -45 0 PatternFill
1848 1676 M
stroke
1771 1676 N
154 0 V
-154 0 V
Z stroke
1771 1676 M
154 0 V
-154 0 R
154 0 V
stroke

 /TransparentPatterns true def
2383 1664 154 0 80 -45 0 PatternFill
2460 1664 M
stroke
2383 1664 N
154 0 V
-154 0 V
Z stroke
2383 1664 M
154 0 V
-154 0 R
154 0 V
stroke

 /TransparentPatterns true def
2995 1653 154 0 80 -45 0 PatternFill
3072 1653 M
stroke
2995 1653 N
154 0 V
-154 0 V
Z stroke
2995 1653 M
154 0 V
-154 0 R
154 0 V
stroke

 /TransparentPatterns true def
3607 1670 154 0 80 -45 0 PatternFill
3684 1670 M
stroke
3607 1670 N
154 0 V
-154 0 V
Z stroke
3607 1670 M
154 0 V
-154 0 R
154 0 V
stroke

 /TransparentPatterns true def
4219 1639 154 0 80 -45 0 PatternFill
4296 1639 M
stroke
4219 1639 N
154 0 V
-154 0 V
Z stroke
4219 1639 M
154 0 V
-154 0 R
154 0 V
stroke

 /TransparentPatterns true def
4831 1643 154 0 80 -45 0 PatternFill
4908 1643 M
stroke
4831 1643 N
154 0 V
-154 0 V
Z stroke
4831 1643 M
154 0 V
-154 0 R
154 0 V
stroke

 /TransparentPatterns true def
5443 1654 154 0 80 -45 0 PatternFill
5520 1654 M
stroke
5443 1654 N
154 0 V
-154 0 V
Z stroke
5443 1654 M
154 0 V
-154 0 R
154 0 V
stroke

 /TransparentPatterns true def
6055 1656 154 0 80 -45 0 PatternFill
6132 1656 M
stroke
6055 1656 N
154 0 V
-154 0 V
Z stroke
6055 1656 M
154 0 V
-154 0 R
154 0 V
stroke

 /TransparentPatterns true def
6667 1612 154 0 80 -45 0 PatternFill
6744 1612 M
stroke
6667 1612 N
154 0 V
-154 0 V
Z stroke
6667 1612 M
154 0 V
-154 0 R
154 0 V
stroke

 /TransparentPatterns true def
7279 1602 154 0 80 -45 0 PatternFill
7356 1602 M
stroke
7279 1602 N
154 0 V
-154 0 V
Z stroke
7279 1602 M
154 0 V
-154 0 R
154 0 V
stroke

 /TransparentPatterns true def
7891 1622 154 0 80 -45 0 PatternFill
7968 1622 M
stroke
7891 1622 N
154 0 V
-154 0 V
Z stroke
7891 1622 M
154 0 V
-154 0 R
154 0 V
stroke

 /TransparentPatterns true def
8503 1632 154 0 80 -45 0 PatternFill
8580 1632 M
stroke
8503 1632 N
154 0 V
-154 0 V
Z stroke
8503 1632 M
154 0 V
-154 0 R
154 0 V
stroke

 /TransparentPatterns true def
9115 1625 154 0 80 -45 0 PatternFill
9192 1625 M
stroke
9115 1625 N
154 0 V
-154 0 V
Z stroke
9115 1625 M
154 0 V
-154 0 R
154 0 V
stroke

 /TransparentPatterns true def
9727 1656 154 0 80 -45 0 PatternFill
9804 1656 M
stroke
9727 1656 N
154 0 V
-154 0 V
Z stroke
9727 1656 M
154 0 V
-154 0 R
154 0 V
stroke

 /TransparentPatterns true def
10339 1621 154 0 80 -45 0 PatternFill
10416 1621 M
stroke
10339 1621 N
154 0 V
-154 0 V
Z stroke
10339 1621 M
154 0 V
-154 0 R
154 0 V
stroke

 /TransparentPatterns true def
10951 1660 154 0 80 -45 0 PatternFill
11028 1660 M
stroke
10951 1660 N
154 0 V
-154 0 V
Z stroke
10951 1660 M
154 0 V
-154 0 R
154 0 V
stroke

 /TransparentPatterns true def
11563 1669 154 0 80 -45 0 PatternFill
11640 1669 M
stroke
11563 1669 N
154 0 V
-154 0 V
Z stroke
11563 1669 M
154 0 V
-154 0 R
154 0 V
stroke

 /TransparentPatterns true def
12175 1664 154 0 80 -45 0 PatternFill
12252 1664 M
stroke
12175 1664 N
154 0 V
-154 0 V
Z stroke
12175 1664 M
154 0 V
-154 0 R
154 0 V
stroke

 /TransparentPatterns true def
12787 1649 154 0 80 -45 0 PatternFill
12864 1649 M
stroke
12787 1649 N
154 0 V
-154 0 V
Z stroke
12787 1649 M
154 0 V
-154 0 R
154 0 V
% End plot #5
% Begin plot #6
2.000 UP
stroke
LTa
0.00 0.00 0.63 C LCb setrgbcolor
8287 153 M
[ [(Arial) 180.0 0.0 true true 0 ( )]
] -60.0 MRshow
2.000 UP
1.000 UL
LTa
0.00 0.00 0.63 C 8395 153 M
333 0 V
1235 4799 M
612 0 V
612 0 V
612 0 V
612 0 V
612 0 V
612 0 V
612 0 V
612 0 V
612 0 V
613 0 V
612 0 V
612 -1 V
612 0 V
612 0 V
612 -208 V
612 18 V
612 5 V
612 0 V
612 -10 V
1235 4799 Circle
1847 4799 Circle
2459 4799 Circle
3071 4799 Circle
3683 4799 Circle
4295 4799 Circle
4907 4799 Circle
5519 4799 Circle
6131 4799 Circle
6743 4799 Circle
7356 4799 Circle
7968 4799 Circle
8580 4798 Circle
9192 4798 Circle
9804 4798 Circle
10416 4590 Circle
11028 4608 Circle
11640 4613 Circle
12252 4613 Circle
12864 4603 Circle
8561 153 Circle
% End plot #6
% Begin plot #7
1.000 UL
LTb
0.00 0.38 0.82 C LCb setrgbcolor
11860 333 M
[ [(Arial) 180.0 0.0 true true 0 (per-flow)]
] -60.0 MRshow
1.000 UL
LTb
0.00 0.38 0.82 C 11968 288 333 90 40 30 0 PatternFill
11968 288 N
333 0 V
0 90 V
-333 0 V
0 -90 V
Z stroke
1.000 UL
LTb
0.00 0.38 0.82 C 1327 1096 154 118 40 30 0 PatternFill
1404 1069 M
0 27 V
0 118 R
0 308 V
stroke
1327 1096 N
154 0 V
0 118 V
-154 0 V
0 -118 V
Z stroke
1327 1522 M
154 0 V
1327 1069 M
154 0 V
stroke
1939 1100 154 179 40 30 0 PatternFill
2016 1085 M
0 15 V
0 179 R
0 157 V
stroke
1939 1100 N
154 0 V
0 179 V
-154 0 V
0 -179 V
Z stroke
1939 1436 M
154 0 V
1939 1085 M
154 0 V
stroke
2551 1100 154 150 40 30 0 PatternFill
2628 1062 M
0 38 V
0 150 R
0 84 V
stroke
2551 1100 N
154 0 V
0 150 V
-154 0 V
0 -150 V
Z stroke
2551 1334 M
154 0 V
2551 1062 M
154 0 V
stroke
3163 1096 154 86 40 30 0 PatternFill
3240 1067 M
0 29 V
0 86 R
0 279 V
stroke
3163 1096 N
154 0 V
0 86 V
-154 0 V
0 -86 V
Z stroke
3163 1461 M
154 0 V
3163 1067 M
154 0 V
stroke
3775 1105 154 139 40 30 0 PatternFill
3852 1081 M
0 24 V
0 139 R
0 192 V
stroke
3775 1105 N
154 0 V
0 139 V
-154 0 V
0 -139 V
Z stroke
3775 1436 M
154 0 V
3775 1081 M
154 0 V
stroke
4387 1089 154 102 40 30 0 PatternFill
4464 1069 M
0 20 V
0 102 R
0 201 V
stroke
4387 1089 N
154 0 V
0 102 V
-154 0 V
0 -102 V
Z stroke
4387 1392 M
154 0 V
4387 1069 M
154 0 V
stroke
4999 1104 154 110 40 30 0 PatternFill
5076 1071 M
0 33 V
0 110 R
0 196 V
stroke
4999 1104 N
154 0 V
0 110 V
-154 0 V
0 -110 V
Z stroke
4999 1410 M
154 0 V
4999 1071 M
154 0 V
stroke
5611 1099 154 105 40 30 0 PatternFill
5688 1068 M
0 31 V
0 105 R
0 159 V
stroke
5611 1099 N
154 0 V
0 105 V
-154 0 V
0 -105 V
Z stroke
5611 1363 M
154 0 V
5611 1068 M
154 0 V
stroke
6223 1100 154 80 40 30 0 PatternFill
6300 1048 M
0 52 V
0 80 R
0 200 V
stroke
6223 1100 N
154 0 V
0 80 V
-154 0 V
0 -80 V
Z stroke
6223 1380 M
154 0 V
6223 1048 M
154 0 V
stroke
6835 1092 154 85 40 30 0 PatternFill
6912 1069 M
0 23 V
0 85 R
0 415 V
stroke
6835 1092 N
154 0 V
0 85 V
-154 0 V
0 -85 V
Z stroke
6835 1592 M
154 0 V
6835 1069 M
154 0 V
stroke
7447 1106 154 126 40 30 0 PatternFill
7524 1088 M
0 18 V
0 126 R
0 247 V
stroke
7447 1106 N
154 0 V
0 126 V
-154 0 V
0 -126 V
Z stroke
7447 1479 M
154 0 V
7447 1088 M
154 0 V
stroke
8059 1100 154 84 40 30 0 PatternFill
8136 1086 M
0 14 V
0 84 R
0 429 V
stroke
8059 1100 N
154 0 V
0 84 V
-154 0 V
0 -84 V
Z stroke
8059 1613 M
154 0 V
8059 1086 M
154 0 V
stroke
8671 1093 154 78 40 30 0 PatternFill
8748 1064 M
0 29 V
0 78 R
0 239 V
stroke
8671 1093 N
154 0 V
0 78 V
-154 0 V
0 -78 V
Z stroke
8671 1410 M
154 0 V
8671 1064 M
154 0 V
stroke
9283 1103 154 99 40 30 0 PatternFill
9360 1068 M
0 35 V
0 99 R
0 441 V
stroke
9283 1103 N
154 0 V
0 99 V
-154 0 V
0 -99 V
Z stroke
9283 1643 M
154 0 V
9283 1068 M
154 0 V
stroke
9896 1110 154 133 40 30 0 PatternFill
9973 1062 M
0 48 V
0 133 R
0 371 V
stroke
9896 1110 N
154 0 V
0 133 V
-154 0 V
0 -133 V
Z stroke
9896 1614 M
154 0 V
9896 1062 M
154 0 V
stroke
10508 1119 154 165 40 30 0 PatternFill
10585 1084 M
0 35 V
0 165 R
0 81 V
stroke
10508 1119 N
154 0 V
0 165 V
-154 0 V
0 -165 V
Z stroke
10508 1365 M
154 0 V
-154 -281 R
154 0 V
stroke
11120 1091 154 152 40 30 0 PatternFill
11197 1080 M
0 11 V
0 152 R
0 80 V
stroke
11120 1091 N
154 0 V
0 152 V
-154 0 V
0 -152 V
Z stroke
11120 1323 M
154 0 V
-154 -243 R
154 0 V
stroke
11732 1109 154 182 40 30 0 PatternFill
11809 1065 M
0 44 V
0 182 R
0 165 V
stroke
11732 1109 N
154 0 V
0 182 V
-154 0 V
0 -182 V
Z stroke
11732 1456 M
154 0 V
-154 -391 R
154 0 V
stroke
12344 1124 154 130 40 30 0 PatternFill
12421 1091 M
0 33 V
0 130 R
0 109 V
stroke
12344 1124 N
154 0 V
0 130 V
-154 0 V
0 -130 V
Z stroke
12344 1363 M
154 0 V
-154 -272 R
154 0 V
stroke
12956 1116 154 174 40 30 0 PatternFill
13033 1076 M
0 40 V
0 174 R
0 113 V
stroke
12956 1116 N
154 0 V
0 174 V
-154 0 V
0 -174 V
Z stroke
12956 1403 M
154 0 V
-154 -327 R
154 0 V
% End plot #7
% Begin plot #8
stroke
LTb
LCb setrgbcolor

 /TransparentPatterns true def
1327 1164 154 0 40 -30 0 PatternFill
1404 1164 M
stroke
1327 1164 N
154 0 V
-154 0 V
Z stroke
1327 1164 M
154 0 V
-154 0 R
154 0 V
stroke

 /TransparentPatterns true def
1939 1172 154 0 40 -30 0 PatternFill
2016 1172 M
stroke
1939 1172 N
154 0 V
-154 0 V
Z stroke
1939 1172 M
154 0 V
-154 0 R
154 0 V
stroke

 /TransparentPatterns true def
2551 1165 154 0 40 -30 0 PatternFill
2628 1165 M
stroke
2551 1165 N
154 0 V
-154 0 V
Z stroke
2551 1165 M
154 0 V
-154 0 R
154 0 V
stroke

 /TransparentPatterns true def
3163 1152 154 0 40 -30 0 PatternFill
3240 1152 M
stroke
3163 1152 N
154 0 V
-154 0 V
Z stroke
3163 1152 M
154 0 V
-154 0 R
154 0 V
stroke

 /TransparentPatterns true def
3775 1175 154 0 40 -30 0 PatternFill
3852 1175 M
stroke
3775 1175 N
154 0 V
-154 0 V
Z stroke
3775 1175 M
154 0 V
-154 0 R
154 0 V
stroke

 /TransparentPatterns true def
4387 1142 154 0 40 -30 0 PatternFill
4464 1142 M
stroke
4387 1142 N
154 0 V
-154 0 V
Z stroke
4387 1142 M
154 0 V
-154 0 R
154 0 V
stroke

 /TransparentPatterns true def
4999 1169 154 0 40 -30 0 PatternFill
5076 1169 M
stroke
4999 1169 N
154 0 V
-154 0 V
Z stroke
4999 1169 M
154 0 V
-154 0 R
154 0 V
stroke

 /TransparentPatterns true def
5611 1148 154 0 40 -30 0 PatternFill
5688 1148 M
stroke
5611 1148 N
154 0 V
-154 0 V
Z stroke
5611 1148 M
154 0 V
-154 0 R
154 0 V
stroke

 /TransparentPatterns true def
6223 1147 154 0 40 -30 0 PatternFill
6300 1147 M
stroke
6223 1147 N
154 0 V
-154 0 V
Z stroke
6223 1147 M
154 0 V
-154 0 R
154 0 V
stroke

 /TransparentPatterns true def
6835 1159 154 0 40 -30 0 PatternFill
6912 1159 M
stroke
6835 1159 N
154 0 V
-154 0 V
Z stroke
6835 1159 M
154 0 V
-154 0 R
154 0 V
stroke

 /TransparentPatterns true def
7447 1164 154 0 40 -30 0 PatternFill
7524 1164 M
stroke
7447 1164 N
154 0 V
-154 0 V
Z stroke
7447 1164 M
154 0 V
-154 0 R
154 0 V
stroke

 /TransparentPatterns true def
8059 1163 154 0 40 -30 0 PatternFill
8136 1163 M
stroke
8059 1163 N
154 0 V
-154 0 V
Z stroke
8059 1163 M
154 0 V
-154 0 R
154 0 V
stroke

 /TransparentPatterns true def
8671 1143 154 0 40 -30 0 PatternFill
8748 1143 M
stroke
8671 1143 N
154 0 V
-154 0 V
Z stroke
8671 1143 M
154 0 V
-154 0 R
154 0 V
stroke

 /TransparentPatterns true def
9283 1182 154 0 40 -30 0 PatternFill
9360 1182 M
stroke
9283 1182 N
154 0 V
-154 0 V
Z stroke
9283 1182 M
154 0 V
-154 0 R
154 0 V
stroke

 /TransparentPatterns true def
9896 1189 154 0 40 -30 0 PatternFill
9973 1189 M
stroke
9896 1189 N
154 0 V
-154 0 V
Z stroke
9896 1189 M
154 0 V
-154 0 R
154 0 V
stroke

 /TransparentPatterns true def
10508 1207 154 0 40 -30 0 PatternFill
10585 1207 M
stroke
10508 1207 N
154 0 V
-154 0 V
Z stroke
10508 1207 M
154 0 V
-154 0 R
154 0 V
stroke

 /TransparentPatterns true def
11120 1175 154 0 40 -30 0 PatternFill
11197 1175 M
stroke
11120 1175 N
154 0 V
-154 0 V
Z stroke
11120 1175 M
154 0 V
-154 0 R
154 0 V
stroke

 /TransparentPatterns true def
11732 1206 154 0 40 -30 0 PatternFill
11809 1206 M
stroke
11732 1206 N
154 0 V
-154 0 V
Z stroke
11732 1206 M
154 0 V
-154 0 R
154 0 V
stroke

 /TransparentPatterns true def
12344 1193 154 0 40 -30 0 PatternFill
12421 1193 M
stroke
12344 1193 N
154 0 V
-154 0 V
Z stroke
12344 1193 M
154 0 V
-154 0 R
154 0 V
stroke

 /TransparentPatterns true def
12956 1202 154 0 40 -30 0 PatternFill
13033 1202 M
stroke
12956 1202 N
154 0 V
-154 0 V
Z stroke
12956 1202 M
154 0 V
-154 0 R
154 0 V
% End plot #8
% Begin plot #9
2.000 UP
stroke
LTa
0.00 0.38 0.82 C LCb setrgbcolor
11860 153 M
[ [(Arial) 180.0 0.0 true true 0 ( )]
] -60.0 MRshow
2.000 UP
1.000 UL
LTa
0.00 0.38 0.82 C 11968 153 M
333 0 V
1403 4799 M
612 0 V
612 -6 V
612 1 V
613 1 V
612 1 V
612 0 V
612 -2 V
612 1 V
612 2 V
612 -1 V
612 0 V
612 -1 V
612 1 V
612 0 V
612 -760 V
612 -85 V
612 183 V
612 -100 V
612 37 V
1403 4799 TriU
2015 4799 TriU
2627 4793 TriU
3239 4794 TriU
3852 4795 TriU
4464 4796 TriU
5076 4796 TriU
5688 4794 TriU
6300 4795 TriU
6912 4797 TriU
7524 4796 TriU
8136 4796 TriU
8748 4795 TriU
9360 4796 TriU
9972 4796 TriU
10584 4036 TriU
11196 3951 TriU
11808 4134 TriU
12420 4034 TriU
13032 4071 TriU
12134 153 TriU
% End plot #9
2.000 UL
LTb
LCb setrgbcolor
1.000 UP
1.000 UL
LTb
0.00 0.00 0.00 C stroke
grestore
end
showpage
%%Trailer
%%DocumentFonts: Arial
