%!PS-Adobe-2.0 EPSF-2.0
%%Title: TcpHighSpeed-download-finishtime-25UE-90-240.eps
%%Creator: gnuplot 5.0 patchlevel 3
%%CreationDate: Thu May 19 16:44:20 2016
%%DocumentFonts: (atend)
%%BoundingBox: 50 50 770 302
%%EndComments
%%BeginProlog
/gnudict 256 dict def
gnudict begin
%
% The following true/false flags may be edited by hand if desired.
% The unit line width and grayscale image gamma correction may also be changed.
%
/Color true def
/Blacktext false def
/Solid false def
/Dashlength 3 def
/Landscape false def
/Level1 false def
/Level3 false def
/Rounded false def
/ClipToBoundingBox false def
/SuppressPDFMark false def
/TransparentPatterns false def
/gnulinewidth 15.000 def
/userlinewidth gnulinewidth def
/Gamma 1.0 def
/BackgroundColor {-1.000 -1.000 -1.000} def
%
/vshift -66 def
/dl1 {
  10.0 Dashlength userlinewidth gnulinewidth div mul mul mul
  Rounded { currentlinewidth 0.75 mul sub dup 0 le { pop 0.01 } if } if
} def
/dl2 {
  10.0 Dashlength userlinewidth gnulinewidth div mul mul mul
  Rounded { currentlinewidth 0.75 mul add } if
} def
/hpt_ 31.5 def
/vpt_ 31.5 def
/hpt hpt_ def
/vpt vpt_ def
/doclip {
  ClipToBoundingBox {
    newpath 50 50 moveto 770 50 lineto 770 302 lineto 50 302 lineto closepath
    clip
  } if
} def
%
% Gnuplot Prolog Version 5.1 (Oct 2015)
%
%/SuppressPDFMark true def
%
/M {moveto} bind def
/L {lineto} bind def
/R {rmoveto} bind def
/V {rlineto} bind def
/N {newpath moveto} bind def
/Z {closepath} bind def
/C {setrgbcolor} bind def
/f {rlineto fill} bind def
/g {setgray} bind def
/Gshow {show} def   % May be redefined later in the file to support UTF-8
/vpt2 vpt 2 mul def
/hpt2 hpt 2 mul def
/Lshow {currentpoint stroke M 0 vshift R 
	Blacktext {gsave 0 setgray textshow grestore} {textshow} ifelse} def
/Rshow {currentpoint stroke M dup stringwidth pop neg vshift R
	Blacktext {gsave 0 setgray textshow grestore} {textshow} ifelse} def
/Cshow {currentpoint stroke M dup stringwidth pop -2 div vshift R 
	Blacktext {gsave 0 setgray textshow grestore} {textshow} ifelse} def
/UP {dup vpt_ mul /vpt exch def hpt_ mul /hpt exch def
  /hpt2 hpt 2 mul def /vpt2 vpt 2 mul def} def
/DL {Color {setrgbcolor Solid {pop []} if 0 setdash}
 {pop pop pop 0 setgray Solid {pop []} if 0 setdash} ifelse} def
/BL {stroke userlinewidth 2 mul setlinewidth
	Rounded {1 setlinejoin 1 setlinecap} if} def
/AL {stroke userlinewidth 2 div setlinewidth
	Rounded {1 setlinejoin 1 setlinecap} if} def
/UL {dup gnulinewidth mul /userlinewidth exch def
	dup 1 lt {pop 1} if 10 mul /udl exch def} def
/PL {stroke userlinewidth setlinewidth
	Rounded {1 setlinejoin 1 setlinecap} if} def
3.8 setmiterlimit
% Classic Line colors (version 5.0)
/LCw {1 1 1} def
/LCb {0 0 0} def
/LCa {0 0 0} def
/LC0 {1 0 0} def
/LC1 {0 1 0} def
/LC2 {0 0 1} def
/LC3 {1 0 1} def
/LC4 {0 1 1} def
/LC5 {1 1 0} def
/LC6 {0 0 0} def
/LC7 {1 0.3 0} def
/LC8 {0.5 0.5 0.5} def
% Default dash patterns (version 5.0)
/LTB {BL [] LCb DL} def
/LTw {PL [] 1 setgray} def
/LTb {PL [] LCb DL} def
/LTa {AL [1 udl mul 2 udl mul] 0 setdash LCa setrgbcolor} def
/LT0 {PL [] LC0 DL} def
/LT1 {PL [2 dl1 3 dl2] LC1 DL} def
/LT2 {PL [1 dl1 1.5 dl2] LC2 DL} def
/LT3 {PL [6 dl1 2 dl2 1 dl1 2 dl2] LC3 DL} def
/LT4 {PL [1 dl1 2 dl2 6 dl1 2 dl2 1 dl1 2 dl2] LC4 DL} def
/LT5 {PL [4 dl1 2 dl2] LC5 DL} def
/LT6 {PL [1.5 dl1 1.5 dl2 1.5 dl1 1.5 dl2 1.5 dl1 6 dl2] LC6 DL} def
/LT7 {PL [3 dl1 3 dl2 1 dl1 3 dl2] LC7 DL} def
/LT8 {PL [2 dl1 2 dl2 2 dl1 6 dl2] LC8 DL} def
/SL {[] 0 setdash} def
/Pnt {stroke [] 0 setdash gsave 1 setlinecap M 0 0 V stroke grestore} def
/Dia {stroke [] 0 setdash 2 copy vpt add M
  hpt neg vpt neg V hpt vpt neg V
  hpt vpt V hpt neg vpt V closepath stroke
  Pnt} def
/Pls {stroke [] 0 setdash vpt sub M 0 vpt2 V
  currentpoint stroke M
  hpt neg vpt neg R hpt2 0 V stroke
 } def
/Box {stroke [] 0 setdash 2 copy exch hpt sub exch vpt add M
  0 vpt2 neg V hpt2 0 V 0 vpt2 V
  hpt2 neg 0 V closepath stroke
  Pnt} def
/Crs {stroke [] 0 setdash exch hpt sub exch vpt add M
  hpt2 vpt2 neg V currentpoint stroke M
  hpt2 neg 0 R hpt2 vpt2 V stroke} def
/TriU {stroke [] 0 setdash 2 copy vpt 1.12 mul add M
  hpt neg vpt -1.62 mul V
  hpt 2 mul 0 V
  hpt neg vpt 1.62 mul V closepath stroke
  Pnt} def
/Star {2 copy Pls Crs} def
/BoxF {stroke [] 0 setdash exch hpt sub exch vpt add M
  0 vpt2 neg V hpt2 0 V 0 vpt2 V
  hpt2 neg 0 V closepath fill} def
/TriUF {stroke [] 0 setdash vpt 1.12 mul add M
  hpt neg vpt -1.62 mul V
  hpt 2 mul 0 V
  hpt neg vpt 1.62 mul V closepath fill} def
/TriD {stroke [] 0 setdash 2 copy vpt 1.12 mul sub M
  hpt neg vpt 1.62 mul V
  hpt 2 mul 0 V
  hpt neg vpt -1.62 mul V closepath stroke
  Pnt} def
/TriDF {stroke [] 0 setdash vpt 1.12 mul sub M
  hpt neg vpt 1.62 mul V
  hpt 2 mul 0 V
  hpt neg vpt -1.62 mul V closepath fill} def
/DiaF {stroke [] 0 setdash vpt add M
  hpt neg vpt neg V hpt vpt neg V
  hpt vpt V hpt neg vpt V closepath fill} def
/Pent {stroke [] 0 setdash 2 copy gsave
  translate 0 hpt M 4 {72 rotate 0 hpt L} repeat
  closepath stroke grestore Pnt} def
/PentF {stroke [] 0 setdash gsave
  translate 0 hpt M 4 {72 rotate 0 hpt L} repeat
  closepath fill grestore} def
/Circle {stroke [] 0 setdash 2 copy
  hpt 0 360 arc stroke Pnt} def
/CircleF {stroke [] 0 setdash hpt 0 360 arc fill} def
/C0 {BL [] 0 setdash 2 copy moveto vpt 90 450 arc} bind def
/C1 {BL [] 0 setdash 2 copy moveto
	2 copy vpt 0 90 arc closepath fill
	vpt 0 360 arc closepath} bind def
/C2 {BL [] 0 setdash 2 copy moveto
	2 copy vpt 90 180 arc closepath fill
	vpt 0 360 arc closepath} bind def
/C3 {BL [] 0 setdash 2 copy moveto
	2 copy vpt 0 180 arc closepath fill
	vpt 0 360 arc closepath} bind def
/C4 {BL [] 0 setdash 2 copy moveto
	2 copy vpt 180 270 arc closepath fill
	vpt 0 360 arc closepath} bind def
/C5 {BL [] 0 setdash 2 copy moveto
	2 copy vpt 0 90 arc
	2 copy moveto
	2 copy vpt 180 270 arc closepath fill
	vpt 0 360 arc} bind def
/C6 {BL [] 0 setdash 2 copy moveto
	2 copy vpt 90 270 arc closepath fill
	vpt 0 360 arc closepath} bind def
/C7 {BL [] 0 setdash 2 copy moveto
	2 copy vpt 0 270 arc closepath fill
	vpt 0 360 arc closepath} bind def
/C8 {BL [] 0 setdash 2 copy moveto
	2 copy vpt 270 360 arc closepath fill
	vpt 0 360 arc closepath} bind def
/C9 {BL [] 0 setdash 2 copy moveto
	2 copy vpt 270 450 arc closepath fill
	vpt 0 360 arc closepath} bind def
/C10 {BL [] 0 setdash 2 copy 2 copy moveto vpt 270 360 arc closepath fill
	2 copy moveto
	2 copy vpt 90 180 arc closepath fill
	vpt 0 360 arc closepath} bind def
/C11 {BL [] 0 setdash 2 copy moveto
	2 copy vpt 0 180 arc closepath fill
	2 copy moveto
	2 copy vpt 270 360 arc closepath fill
	vpt 0 360 arc closepath} bind def
/C12 {BL [] 0 setdash 2 copy moveto
	2 copy vpt 180 360 arc closepath fill
	vpt 0 360 arc closepath} bind def
/C13 {BL [] 0 setdash 2 copy moveto
	2 copy vpt 0 90 arc closepath fill
	2 copy moveto
	2 copy vpt 180 360 arc closepath fill
	vpt 0 360 arc closepath} bind def
/C14 {BL [] 0 setdash 2 copy moveto
	2 copy vpt 90 360 arc closepath fill
	vpt 0 360 arc} bind def
/C15 {BL [] 0 setdash 2 copy vpt 0 360 arc closepath fill
	vpt 0 360 arc closepath} bind def
/Rec {newpath 4 2 roll moveto 1 index 0 rlineto 0 exch rlineto
	neg 0 rlineto closepath} bind def
/Square {dup Rec} bind def
/Bsquare {vpt sub exch vpt sub exch vpt2 Square} bind def
/S0 {BL [] 0 setdash 2 copy moveto 0 vpt rlineto BL Bsquare} bind def
/S1 {BL [] 0 setdash 2 copy vpt Square fill Bsquare} bind def
/S2 {BL [] 0 setdash 2 copy exch vpt sub exch vpt Square fill Bsquare} bind def
/S3 {BL [] 0 setdash 2 copy exch vpt sub exch vpt2 vpt Rec fill Bsquare} bind def
/S4 {BL [] 0 setdash 2 copy exch vpt sub exch vpt sub vpt Square fill Bsquare} bind def
/S5 {BL [] 0 setdash 2 copy 2 copy vpt Square fill
	exch vpt sub exch vpt sub vpt Square fill Bsquare} bind def
/S6 {BL [] 0 setdash 2 copy exch vpt sub exch vpt sub vpt vpt2 Rec fill Bsquare} bind def
/S7 {BL [] 0 setdash 2 copy exch vpt sub exch vpt sub vpt vpt2 Rec fill
	2 copy vpt Square fill Bsquare} bind def
/S8 {BL [] 0 setdash 2 copy vpt sub vpt Square fill Bsquare} bind def
/S9 {BL [] 0 setdash 2 copy vpt sub vpt vpt2 Rec fill Bsquare} bind def
/S10 {BL [] 0 setdash 2 copy vpt sub vpt Square fill 2 copy exch vpt sub exch vpt Square fill
	Bsquare} bind def
/S11 {BL [] 0 setdash 2 copy vpt sub vpt Square fill 2 copy exch vpt sub exch vpt2 vpt Rec fill
	Bsquare} bind def
/S12 {BL [] 0 setdash 2 copy exch vpt sub exch vpt sub vpt2 vpt Rec fill Bsquare} bind def
/S13 {BL [] 0 setdash 2 copy exch vpt sub exch vpt sub vpt2 vpt Rec fill
	2 copy vpt Square fill Bsquare} bind def
/S14 {BL [] 0 setdash 2 copy exch vpt sub exch vpt sub vpt2 vpt Rec fill
	2 copy exch vpt sub exch vpt Square fill Bsquare} bind def
/S15 {BL [] 0 setdash 2 copy Bsquare fill Bsquare} bind def
/D0 {gsave translate 45 rotate 0 0 S0 stroke grestore} bind def
/D1 {gsave translate 45 rotate 0 0 S1 stroke grestore} bind def
/D2 {gsave translate 45 rotate 0 0 S2 stroke grestore} bind def
/D3 {gsave translate 45 rotate 0 0 S3 stroke grestore} bind def
/D4 {gsave translate 45 rotate 0 0 S4 stroke grestore} bind def
/D5 {gsave translate 45 rotate 0 0 S5 stroke grestore} bind def
/D6 {gsave translate 45 rotate 0 0 S6 stroke grestore} bind def
/D7 {gsave translate 45 rotate 0 0 S7 stroke grestore} bind def
/D8 {gsave translate 45 rotate 0 0 S8 stroke grestore} bind def
/D9 {gsave translate 45 rotate 0 0 S9 stroke grestore} bind def
/D10 {gsave translate 45 rotate 0 0 S10 stroke grestore} bind def
/D11 {gsave translate 45 rotate 0 0 S11 stroke grestore} bind def
/D12 {gsave translate 45 rotate 0 0 S12 stroke grestore} bind def
/D13 {gsave translate 45 rotate 0 0 S13 stroke grestore} bind def
/D14 {gsave translate 45 rotate 0 0 S14 stroke grestore} bind def
/D15 {gsave translate 45 rotate 0 0 S15 stroke grestore} bind def
/DiaE {stroke [] 0 setdash vpt add M
  hpt neg vpt neg V hpt vpt neg V
  hpt vpt V hpt neg vpt V closepath stroke} def
/BoxE {stroke [] 0 setdash exch hpt sub exch vpt add M
  0 vpt2 neg V hpt2 0 V 0 vpt2 V
  hpt2 neg 0 V closepath stroke} def
/TriUE {stroke [] 0 setdash vpt 1.12 mul add M
  hpt neg vpt -1.62 mul V
  hpt 2 mul 0 V
  hpt neg vpt 1.62 mul V closepath stroke} def
/TriDE {stroke [] 0 setdash vpt 1.12 mul sub M
  hpt neg vpt 1.62 mul V
  hpt 2 mul 0 V
  hpt neg vpt -1.62 mul V closepath stroke} def
/PentE {stroke [] 0 setdash gsave
  translate 0 hpt M 4 {72 rotate 0 hpt L} repeat
  closepath stroke grestore} def
/CircE {stroke [] 0 setdash 
  hpt 0 360 arc stroke} def
/Opaque {gsave closepath 1 setgray fill grestore 0 setgray closepath} def
/DiaW {stroke [] 0 setdash vpt add M
  hpt neg vpt neg V hpt vpt neg V
  hpt vpt V hpt neg vpt V Opaque stroke} def
/BoxW {stroke [] 0 setdash exch hpt sub exch vpt add M
  0 vpt2 neg V hpt2 0 V 0 vpt2 V
  hpt2 neg 0 V Opaque stroke} def
/TriUW {stroke [] 0 setdash vpt 1.12 mul add M
  hpt neg vpt -1.62 mul V
  hpt 2 mul 0 V
  hpt neg vpt 1.62 mul V Opaque stroke} def
/TriDW {stroke [] 0 setdash vpt 1.12 mul sub M
  hpt neg vpt 1.62 mul V
  hpt 2 mul 0 V
  hpt neg vpt -1.62 mul V Opaque stroke} def
/PentW {stroke [] 0 setdash gsave
  translate 0 hpt M 4 {72 rotate 0 hpt L} repeat
  Opaque stroke grestore} def
/CircW {stroke [] 0 setdash 
  hpt 0 360 arc Opaque stroke} def
/BoxFill {gsave Rec 1 setgray fill grestore} def
/Density {
  /Fillden exch def
  currentrgbcolor
  /ColB exch def /ColG exch def /ColR exch def
  /ColR ColR Fillden mul Fillden sub 1 add def
  /ColG ColG Fillden mul Fillden sub 1 add def
  /ColB ColB Fillden mul Fillden sub 1 add def
  ColR ColG ColB setrgbcolor} def
/BoxColFill {gsave Rec PolyFill} def
/PolyFill {gsave Density fill grestore grestore} def
/h {rlineto rlineto rlineto gsave closepath fill grestore} bind def
%
% PostScript Level 1 Pattern Fill routine for rectangles
% Usage: x y w h s a XX PatternFill
%	x,y = lower left corner of box to be filled
%	w,h = width and height of box
%	  a = angle in degrees between lines and x-axis
%	 XX = 0/1 for no/yes cross-hatch
%
/PatternFill {gsave /PFa [ 9 2 roll ] def
  PFa 0 get PFa 2 get 2 div add PFa 1 get PFa 3 get 2 div add translate
  PFa 2 get -2 div PFa 3 get -2 div PFa 2 get PFa 3 get Rec
  TransparentPatterns {} {gsave 1 setgray fill grestore} ifelse
  clip
  currentlinewidth 0.5 mul setlinewidth
  /PFs PFa 2 get dup mul PFa 3 get dup mul add sqrt def
  0 0 M PFa 5 get rotate PFs -2 div dup translate
  0 1 PFs PFa 4 get div 1 add floor cvi
	{PFa 4 get mul 0 M 0 PFs V} for
  0 PFa 6 get ne {
	0 1 PFs PFa 4 get div 1 add floor cvi
	{PFa 4 get mul 0 2 1 roll M PFs 0 V} for
 } if
  stroke grestore} def
%
/languagelevel where
 {pop languagelevel} {1} ifelse
dup 2 lt
	{/InterpretLevel1 true def
	 /InterpretLevel3 false def}
	{/InterpretLevel1 Level1 def
	 2 gt
	    {/InterpretLevel3 Level3 def}
	    {/InterpretLevel3 false def}
	 ifelse }
 ifelse
%
% PostScript level 2 pattern fill definitions
%
/Level2PatternFill {
/Tile8x8 {/PaintType 2 /PatternType 1 /TilingType 1 /BBox [0 0 8 8] /XStep 8 /YStep 8}
	bind def
/KeepColor {currentrgbcolor [/Pattern /DeviceRGB] setcolorspace} bind def
<< Tile8x8
 /PaintProc {0.5 setlinewidth pop 0 0 M 8 8 L 0 8 M 8 0 L stroke} 
>> matrix makepattern
/Pat1 exch def
<< Tile8x8
 /PaintProc {0.5 setlinewidth pop 0 0 M 8 8 L 0 8 M 8 0 L stroke
	0 4 M 4 8 L 8 4 L 4 0 L 0 4 L stroke}
>> matrix makepattern
/Pat2 exch def
<< Tile8x8
 /PaintProc {0.5 setlinewidth pop 0 0 M 0 8 L
	8 8 L 8 0 L 0 0 L fill}
>> matrix makepattern
/Pat3 exch def
<< Tile8x8
 /PaintProc {0.5 setlinewidth pop -4 8 M 8 -4 L
	0 12 M 12 0 L stroke}
>> matrix makepattern
/Pat4 exch def
<< Tile8x8
 /PaintProc {0.5 setlinewidth pop -4 0 M 8 12 L
	0 -4 M 12 8 L stroke}
>> matrix makepattern
/Pat5 exch def
<< Tile8x8
 /PaintProc {0.5 setlinewidth pop -2 8 M 4 -4 L
	0 12 M 8 -4 L 4 12 M 10 0 L stroke}
>> matrix makepattern
/Pat6 exch def
<< Tile8x8
 /PaintProc {0.5 setlinewidth pop -2 0 M 4 12 L
	0 -4 M 8 12 L 4 -4 M 10 8 L stroke}
>> matrix makepattern
/Pat7 exch def
<< Tile8x8
 /PaintProc {0.5 setlinewidth pop 8 -2 M -4 4 L
	12 0 M -4 8 L 12 4 M 0 10 L stroke}
>> matrix makepattern
/Pat8 exch def
<< Tile8x8
 /PaintProc {0.5 setlinewidth pop 0 -2 M 12 4 L
	-4 0 M 12 8 L -4 4 M 8 10 L stroke}
>> matrix makepattern
/Pat9 exch def
/Pattern1 {PatternBgnd KeepColor Pat1 setpattern} bind def
/Pattern2 {PatternBgnd KeepColor Pat2 setpattern} bind def
/Pattern3 {PatternBgnd KeepColor Pat3 setpattern} bind def
/Pattern4 {PatternBgnd KeepColor Landscape {Pat5} {Pat4} ifelse setpattern} bind def
/Pattern5 {PatternBgnd KeepColor Landscape {Pat4} {Pat5} ifelse setpattern} bind def
/Pattern6 {PatternBgnd KeepColor Landscape {Pat9} {Pat6} ifelse setpattern} bind def
/Pattern7 {PatternBgnd KeepColor Landscape {Pat8} {Pat7} ifelse setpattern} bind def
} def
%
%
%End of PostScript Level 2 code
%
/PatternBgnd {
  TransparentPatterns {} {gsave 1 setgray fill grestore} ifelse
} def
%
% Substitute for Level 2 pattern fill codes with
% grayscale if Level 2 support is not selected.
%
/Level1PatternFill {
/Pattern1 {0.250 Density} bind def
/Pattern2 {0.500 Density} bind def
/Pattern3 {0.750 Density} bind def
/Pattern4 {0.125 Density} bind def
/Pattern5 {0.375 Density} bind def
/Pattern6 {0.625 Density} bind def
/Pattern7 {0.875 Density} bind def
} def
%
% Now test for support of Level 2 code
%
Level1 {Level1PatternFill} {Level2PatternFill} ifelse
%
/Symbol-Oblique /Symbol findfont [1 0 .167 1 0 0] makefont
dup length dict begin {1 index /FID eq {pop pop} {def} ifelse} forall
currentdict end definefont pop
%
/MFshow {
   { dup 5 get 3 ge
     { 5 get 3 eq {gsave} {grestore} ifelse }
     {dup dup 0 get findfont exch 1 get scalefont setfont
     [ currentpoint ] exch dup 2 get 0 exch R dup 5 get 2 ne {dup dup 6
     get exch 4 get {textshow} {stringwidth pop 0 R} ifelse }if dup 5 get 0 eq
     {dup 3 get {2 get neg 0 exch R pop} {pop aload pop M} ifelse} {dup 5
     get 1 eq {dup 2 get exch dup 3 get exch 6 get stringwidth pop -2 div
     dup 0 R} {dup 6 get stringwidth pop -2 div 0 R 6 get
     textshow 2 index {aload pop M neg 3 -1 roll neg R pop pop} {pop pop pop
     pop aload pop M} ifelse }ifelse }ifelse }
     ifelse }
   forall} def
/Gswidth {dup type /stringtype eq {stringwidth} {pop (n) stringwidth} ifelse} def
/MFwidth {0 exch { dup 5 get 3 ge { 5 get 3 eq { 0 } { pop } ifelse }
 {dup 3 get{dup dup 0 get findfont exch 1 get scalefont setfont
     6 get Gswidth pop add} {pop} ifelse} ifelse} forall} def
/MLshow { currentpoint stroke M
  0 exch R
  Blacktext {gsave 0 setgray MFshow grestore} {MFshow} ifelse } bind def
/MRshow { currentpoint stroke M
  exch dup MFwidth neg 3 -1 roll R
  Blacktext {gsave 0 setgray MFshow grestore} {MFshow} ifelse } bind def
/MCshow { currentpoint stroke M
  exch dup MFwidth -2 div 3 -1 roll R
  Blacktext {gsave 0 setgray MFshow grestore} {MFshow} ifelse } bind def
/XYsave    { [( ) 1 2 true false 3 ()] } bind def
/XYrestore { [( ) 1 2 true false 4 ()] } bind def
Level1 SuppressPDFMark or 
{} {
/SDict 10 dict def
systemdict /pdfmark known not {
  userdict /pdfmark systemdict /cleartomark get put
} if
SDict begin [
  /Title (TcpHighSpeed-download-finishtime-25UE-90-240.eps)
  /Subject (gnuplot plot)
  /Creator (gnuplot 5.0 patchlevel 3)
  /Author (nat)
%  /Producer (gnuplot)
%  /Keywords ()
  /CreationDate (Thu May 19 16:44:20 2016)
  /DOCINFO pdfmark
end
} ifelse
%
% Support for boxed text - Ethan A Merritt May 2005
%
/InitTextBox { userdict /TBy2 3 -1 roll put userdict /TBx2 3 -1 roll put
           userdict /TBy1 3 -1 roll put userdict /TBx1 3 -1 roll put
	   /Boxing true def } def
/ExtendTextBox { Boxing
    { gsave dup false charpath pathbbox
      dup TBy2 gt {userdict /TBy2 3 -1 roll put} {pop} ifelse
      dup TBx2 gt {userdict /TBx2 3 -1 roll put} {pop} ifelse
      dup TBy1 lt {userdict /TBy1 3 -1 roll put} {pop} ifelse
      dup TBx1 lt {userdict /TBx1 3 -1 roll put} {pop} ifelse
      grestore } if } def
/PopTextBox { newpath TBx1 TBxmargin sub TBy1 TBymargin sub M
               TBx1 TBxmargin sub TBy2 TBymargin add L
	       TBx2 TBxmargin add TBy2 TBymargin add L
	       TBx2 TBxmargin add TBy1 TBymargin sub L closepath } def
/DrawTextBox { PopTextBox stroke /Boxing false def} def
/FillTextBox { gsave PopTextBox 1 1 1 setrgbcolor fill grestore /Boxing false def} def
0 0 0 0 InitTextBox
/TBxmargin 20 def
/TBymargin 20 def
/Boxing false def
/textshow { ExtendTextBox Gshow } def
%
% redundant definitions for compatibility with prologue.ps older than 5.0.2
/LTB {BL [] LCb DL} def
/LTb {PL [] LCb DL} def
end
%%EndProlog
%%Page: 1 1
gnudict begin
gsave
doclip
50 50 translate
0.050 0.050 scale
0 setgray
newpath
(Arial) findfont 200 scalefont setfont
BackgroundColor 0 lt 3 1 roll 0 lt exch 0 lt or or not {BackgroundColor C 1.000 0 0 14400.00 5040.00 BoxColFill} if
1.000 UL
LTb
0.00 0.00 0.00 C 0.500 UL
LTa
0.50 0.50 0.50 C 980 1000 M
12139 0 V
stroke
1.000 UL
LTb
0.00 0.00 0.00 C 980 1000 M
63 0 V
stroke
860 1000 M
[ [(Arial) 200.0 0.0 true true 0 ( 0)]
] -66.7 MRshow
1.000 UL
LTb
0.00 0.00 0.00 C 0.500 UL
LTa
0.50 0.50 0.50 C 980 1760 M
12139 0 V
stroke
1.000 UL
LTb
0.00 0.00 0.00 C 980 1760 M
63 0 V
stroke
860 1760 M
[ [(Arial) 200.0 0.0 true true 0 ( 50)]
] -66.7 MRshow
1.000 UL
LTb
0.00 0.00 0.00 C 0.500 UL
LTa
0.50 0.50 0.50 C 980 2520 M
12139 0 V
stroke
1.000 UL
LTb
0.00 0.00 0.00 C 980 2520 M
63 0 V
stroke
860 2520 M
[ [(Arial) 200.0 0.0 true true 0 ( 100)]
] -66.7 MRshow
1.000 UL
LTb
0.00 0.00 0.00 C 0.500 UL
LTa
0.50 0.50 0.50 C 980 3279 M
12139 0 V
stroke
1.000 UL
LTb
0.00 0.00 0.00 C 980 3279 M
63 0 V
stroke
860 3279 M
[ [(Arial) 200.0 0.0 true true 0 ( 150)]
] -66.7 MRshow
1.000 UL
LTb
0.00 0.00 0.00 C 0.500 UL
LTa
0.50 0.50 0.50 C 980 4039 M
12139 0 V
stroke
1.000 UL
LTb
0.00 0.00 0.00 C 980 4039 M
63 0 V
stroke
860 4039 M
[ [(Arial) 200.0 0.0 true true 0 ( 200)]
] -66.7 MRshow
1.000 UL
LTb
0.00 0.00 0.00 C 0.500 UL
LTa
0.50 0.50 0.50 C 980 4799 M
12139 0 V
stroke
1.000 UL
LTb
0.00 0.00 0.00 C 980 4799 M
63 0 V
stroke
860 4799 M
[ [(Arial) 200.0 0.0 true true 0 ( 250)]
] -66.7 MRshow
1.000 UL
LTb
0.00 0.00 0.00 C 0.500 UL
LTa
0.50 0.50 0.50 C 1359 1000 M
0 3799 V
stroke
1.000 UL
LTb
0.00 0.00 0.00 C 1359 1000 M
0 63 V
0 3736 R
0 -63 V
stroke
1359 800 M
[ [(Arial) 200.0 0.0 true true 0 ( 270)]
] -66.7 MCshow
1.000 UL
LTb
0.00 0.00 0.00 C 0.500 UL
LTa
0.50 0.50 0.50 C 2118 1000 M
0 3799 V
stroke
1.000 UL
LTb
0.00 0.00 0.00 C 2118 1000 M
0 63 V
0 3736 R
0 -63 V
stroke
2118 800 M
[ [(Arial) 200.0 0.0 true true 0 ( 300)]
] -66.7 MCshow
1.000 UL
LTb
0.00 0.00 0.00 C 0.500 UL
LTa
0.50 0.50 0.50 C 2877 1000 M
0 3799 V
stroke
1.000 UL
LTb
0.00 0.00 0.00 C 2877 1000 M
0 63 V
0 3736 R
0 -63 V
stroke
2877 800 M
[ [(Arial) 200.0 0.0 true true 0 ( 330)]
] -66.7 MCshow
1.000 UL
LTb
0.00 0.00 0.00 C 0.500 UL
LTa
0.50 0.50 0.50 C 3635 1000 M
0 3799 V
stroke
1.000 UL
LTb
0.00 0.00 0.00 C 3635 1000 M
0 63 V
0 3736 R
0 -63 V
stroke
3635 800 M
[ [(Arial) 200.0 0.0 true true 0 ( 360)]
] -66.7 MCshow
1.000 UL
LTb
0.00 0.00 0.00 C 0.500 UL
LTa
0.50 0.50 0.50 C 4394 1000 M
0 3799 V
stroke
1.000 UL
LTb
0.00 0.00 0.00 C 4394 1000 M
0 63 V
0 3736 R
0 -63 V
stroke
4394 800 M
[ [(Arial) 200.0 0.0 true true 0 ( 390)]
] -66.7 MCshow
1.000 UL
LTb
0.00 0.00 0.00 C 0.500 UL
LTa
0.50 0.50 0.50 C 5153 1000 M
0 3799 V
stroke
1.000 UL
LTb
0.00 0.00 0.00 C 5153 1000 M
0 63 V
0 3736 R
0 -63 V
stroke
5153 800 M
[ [(Arial) 200.0 0.0 true true 0 ( 420)]
] -66.7 MCshow
1.000 UL
LTb
0.00 0.00 0.00 C 0.500 UL
LTa
0.50 0.50 0.50 C 5911 1000 M
0 3799 V
stroke
1.000 UL
LTb
0.00 0.00 0.00 C 5911 1000 M
0 63 V
0 3736 R
0 -63 V
stroke
5911 800 M
[ [(Arial) 200.0 0.0 true true 0 ( 450)]
] -66.7 MCshow
1.000 UL
LTb
0.00 0.00 0.00 C 0.500 UL
LTa
0.50 0.50 0.50 C 6670 1000 M
0 3799 V
stroke
1.000 UL
LTb
0.00 0.00 0.00 C 6670 1000 M
0 63 V
0 3736 R
0 -63 V
stroke
6670 800 M
[ [(Arial) 200.0 0.0 true true 0 ( 480)]
] -66.7 MCshow
1.000 UL
LTb
0.00 0.00 0.00 C 0.500 UL
LTa
0.50 0.50 0.50 C 7429 1000 M
0 3799 V
stroke
1.000 UL
LTb
0.00 0.00 0.00 C 7429 1000 M
0 63 V
0 3736 R
0 -63 V
stroke
7429 800 M
[ [(Arial) 200.0 0.0 true true 0 ( 510)]
] -66.7 MCshow
1.000 UL
LTb
0.00 0.00 0.00 C 0.500 UL
LTa
0.50 0.50 0.50 C 8188 1000 M
0 3799 V
stroke
1.000 UL
LTb
0.00 0.00 0.00 C 8188 1000 M
0 63 V
0 3736 R
0 -63 V
stroke
8188 800 M
[ [(Arial) 200.0 0.0 true true 0 ( 540)]
] -66.7 MCshow
1.000 UL
LTb
0.00 0.00 0.00 C 0.500 UL
LTa
0.50 0.50 0.50 C 8946 1000 M
0 3799 V
stroke
1.000 UL
LTb
0.00 0.00 0.00 C 8946 1000 M
0 63 V
0 3736 R
0 -63 V
stroke
8946 800 M
[ [(Arial) 200.0 0.0 true true 0 ( 570)]
] -66.7 MCshow
1.000 UL
LTb
0.00 0.00 0.00 C 0.500 UL
LTa
0.50 0.50 0.50 C 9705 1000 M
0 3799 V
stroke
1.000 UL
LTb
0.00 0.00 0.00 C 9705 1000 M
0 63 V
0 3736 R
0 -63 V
stroke
9705 800 M
[ [(Arial) 200.0 0.0 true true 0 ( 600)]
] -66.7 MCshow
1.000 UL
LTb
0.00 0.00 0.00 C 0.500 UL
LTa
0.50 0.50 0.50 C 10464 1000 M
0 3799 V
stroke
1.000 UL
LTb
0.00 0.00 0.00 C 10464 1000 M
0 63 V
0 3736 R
0 -63 V
stroke
10464 800 M
[ [(Arial) 200.0 0.0 true true 0 ( 630)]
] -66.7 MCshow
1.000 UL
LTb
0.00 0.00 0.00 C 0.500 UL
LTa
0.50 0.50 0.50 C 11222 1000 M
0 3799 V
stroke
1.000 UL
LTb
0.00 0.00 0.00 C 11222 1000 M
0 63 V
0 3736 R
0 -63 V
stroke
11222 800 M
[ [(Arial) 200.0 0.0 true true 0 ( 660)]
] -66.7 MCshow
1.000 UL
LTb
0.00 0.00 0.00 C 0.500 UL
LTa
0.50 0.50 0.50 C 11981 1000 M
0 3799 V
stroke
1.000 UL
LTb
0.00 0.00 0.00 C 11981 1000 M
0 63 V
0 3736 R
0 -63 V
stroke
11981 800 M
[ [(Arial) 200.0 0.0 true true 0 ( 690)]
] -66.7 MCshow
1.000 UL
LTb
0.00 0.00 0.00 C 0.500 UL
LTa
0.50 0.50 0.50 C 12740 1000 M
0 3799 V
stroke
1.000 UL
LTb
0.00 0.00 0.00 C 12740 1000 M
0 63 V
0 3736 R
0 -63 V
stroke
12740 800 M
[ [(Arial) 200.0 0.0 true true 0 ( 720)]
] -66.7 MCshow
1.000 UL
LTb
0.00 0.00 0.00 C 13119 1000 M
-63 0 V
stroke
13239 1000 M
[ [(Arial) 200.0 0.0 true true 0 ( 0)]
] -66.7 MLshow
1.000 UL
LTb
0.00 0.00 0.00 C 13119 1760 M
-63 0 V
stroke
13239 1760 M
[ [(Arial) 200.0 0.0 true true 0 ( 20)]
] -66.7 MLshow
1.000 UL
LTb
0.00 0.00 0.00 C 13119 2520 M
-63 0 V
stroke
13239 2520 M
[ [(Arial) 200.0 0.0 true true 0 ( 40)]
] -66.7 MLshow
1.000 UL
LTb
0.00 0.00 0.00 C 13119 3279 M
-63 0 V
stroke
13239 3279 M
[ [(Arial) 200.0 0.0 true true 0 ( 60)]
] -66.7 MLshow
1.000 UL
LTb
0.00 0.00 0.00 C 13119 4039 M
-63 0 V
stroke
13239 4039 M
[ [(Arial) 200.0 0.0 true true 0 ( 80)]
] -66.7 MLshow
1.000 UL
LTb
0.00 0.00 0.00 C 13119 4799 M
-63 0 V
stroke
13239 4799 M
[ [(Arial) 200.0 0.0 true true 0 ( 100)]
] -66.7 MLshow
1.000 UL
LTb
0.00 0.00 0.00 C 1.000 UL
LTB
0.00 0.00 0.00 C 980 4799 M
0 -3799 V
12139 0 V
0 3799 R
980 4799 M
1.000 UP
stroke
LTb
0.00 0.00 0.00 C LCb setrgbcolor
160 2899 M
currentpoint gsave translate -270 rotate 0 0 moveto
[ [(Arial) 200.0 0.0 true true 0 (File download time \(s\))]
] -66.7 MCshow
grestore
LTb
LCb setrgbcolor
13938 2899 M
currentpoint gsave translate -270 rotate 0 0 moveto
[ [(Arial) 200.0 0.0 true true 0 (Average UDP throughput [%])]
] -66.7 MCshow
grestore
LTb
LCb setrgbcolor
7049 500 M
[ [(Arial) 200.0 0.0 true true 0 (Local Backhaul traffic \(Mb/s\))]
] -66.7 MCshow
LTb
% Begin plot #1
1.000 UL
LTb
0.60 0.60 0.00 C LCb setrgbcolor
4714 333 M
[ [(Arial) 180.0 0.0 true true 0 (file download time    :   olsr)]
] -60.0 MRshow
1.000 UL
LTb
0.60 0.60 0.00 C 4822 288 333 90 80 -45 0 PatternFill
4822 288 N
333 0 V
0 90 V
-333 0 V
0 -90 V
Z stroke
1.000 UL
LTb
0.60 0.60 0.00 C 1094 1188 152 146 80 -45 0 PatternFill
1170 1044 M
0 144 V
0 146 R
0 24 V
stroke
1094 1188 N
152 0 V
0 146 V
-152 0 V
0 -146 V
Z stroke
1094 1358 M
152 0 V
1094 1044 M
152 0 V
stroke
1852 1186 152 116 80 -45 0 PatternFill
1928 1044 M
0 142 V
0 116 R
0 87 V
stroke
1852 1186 N
152 0 V
0 116 V
-152 0 V
0 -116 V
Z stroke
1852 1389 M
152 0 V
1852 1044 M
152 0 V
stroke
2611 1196 152 116 80 -45 0 PatternFill
2687 1044 M
0 152 V
0 116 R
0 82 V
stroke
2611 1196 N
152 0 V
0 116 V
-152 0 V
0 -116 V
Z stroke
2611 1394 M
152 0 V
2611 1044 M
152 0 V
stroke
3370 1204 152 107 80 -45 0 PatternFill
3446 1044 M
0 160 V
0 107 R
0 71 V
stroke
3370 1204 N
152 0 V
0 107 V
-152 0 V
0 -107 V
Z stroke
3370 1382 M
152 0 V
3370 1044 M
152 0 V
stroke
4129 1209 152 105 80 -45 0 PatternFill
4205 1044 M
0 165 V
0 105 R
0 109 V
stroke
4129 1209 N
152 0 V
0 105 V
-152 0 V
0 -105 V
Z stroke
4129 1423 M
152 0 V
4129 1044 M
152 0 V
stroke
4887 1190 152 121 80 -45 0 PatternFill
4963 1044 M
0 146 V
0 121 R
0 48 V
stroke
4887 1190 N
152 0 V
0 121 V
-152 0 V
0 -121 V
Z stroke
4887 1359 M
152 0 V
4887 1044 M
152 0 V
stroke
5646 1190 152 119 80 -45 0 PatternFill
5722 1044 M
0 146 V
0 119 R
0 107 V
stroke
5646 1190 N
152 0 V
0 119 V
-152 0 V
0 -119 V
Z stroke
5646 1416 M
152 0 V
5646 1044 M
152 0 V
stroke
6405 1219 152 85 80 -45 0 PatternFill
6481 1044 M
0 175 V
0 85 R
0 89 V
stroke
6405 1219 N
152 0 V
0 85 V
-152 0 V
0 -85 V
Z stroke
6405 1393 M
152 0 V
6405 1044 M
152 0 V
stroke
7163 1200 152 94 80 -45 0 PatternFill
7239 1044 M
0 156 V
0 94 R
0 98 V
stroke
7163 1200 N
152 0 V
0 94 V
-152 0 V
0 -94 V
Z stroke
7163 1392 M
152 0 V
7163 1044 M
152 0 V
stroke
7922 1189 152 120 80 -45 0 PatternFill
7998 1044 M
0 145 V
0 120 R
0 114 V
stroke
7922 1189 N
152 0 V
0 120 V
-152 0 V
0 -120 V
Z stroke
7922 1423 M
152 0 V
7922 1044 M
152 0 V
stroke
8681 1188 152 123 80 -45 0 PatternFill
8757 1044 M
0 144 V
0 123 R
0 92 V
stroke
8681 1188 N
152 0 V
0 123 V
-152 0 V
0 -123 V
Z stroke
8681 1403 M
152 0 V
8681 1044 M
152 0 V
stroke
9439 1182 152 165 80 -45 0 PatternFill
9515 1044 M
0 138 V
0 165 R
0 112 V
stroke
9439 1182 N
152 0 V
0 165 V
-152 0 V
0 -165 V
Z stroke
9439 1459 M
152 0 V
9439 1044 M
152 0 V
stroke
10198 1205 152 120 80 -45 0 PatternFill
10274 1044 M
0 161 V
0 120 R
0 105 V
stroke
10198 1205 N
152 0 V
0 120 V
-152 0 V
0 -120 V
Z stroke
10198 1430 M
152 0 V
-152 -386 R
152 0 V
stroke
10957 1197 152 101 80 -45 0 PatternFill
11033 1044 M
0 153 V
0 101 R
0 76 V
stroke
10957 1197 N
152 0 V
0 101 V
-152 0 V
0 -101 V
Z stroke
10957 1374 M
152 0 V
-152 -330 R
152 0 V
stroke
11715 1219 152 82 80 -45 0 PatternFill
11791 1044 M
0 175 V
0 82 R
0 86 V
stroke
11715 1219 N
152 0 V
0 82 V
-152 0 V
0 -82 V
Z stroke
11715 1387 M
152 0 V
-152 -343 R
152 0 V
stroke
12474 1200 152 117 80 -45 0 PatternFill
12550 1044 M
0 156 V
0 117 R
0 67 V
stroke
12474 1200 N
152 0 V
0 117 V
-152 0 V
0 -117 V
Z stroke
12474 1384 M
152 0 V
-152 -340 R
152 0 V
% End plot #1
% Begin plot #2
stroke
LTb
LCb setrgbcolor

 /TransparentPatterns true def
1094 1248 152 0 40 30 0 PatternFill
1170 1248 M
stroke
1094 1248 N
152 0 V
-152 0 V
Z stroke
1094 1248 M
152 0 V
-152 0 R
152 0 V
stroke

 /TransparentPatterns true def
1852 1245 152 0 40 30 0 PatternFill
1928 1245 M
stroke
1852 1245 N
152 0 V
-152 0 V
Z stroke
1852 1245 M
152 0 V
-152 0 R
152 0 V
stroke

 /TransparentPatterns true def
2611 1251 152 0 40 30 0 PatternFill
2687 1251 M
stroke
2611 1251 N
152 0 V
-152 0 V
Z stroke
2611 1251 M
152 0 V
-152 0 R
152 0 V
stroke

 /TransparentPatterns true def
3370 1252 152 0 40 30 0 PatternFill
3446 1252 M
stroke
3370 1252 N
152 0 V
-152 0 V
Z stroke
3370 1252 M
152 0 V
-152 0 R
152 0 V
stroke

 /TransparentPatterns true def
4129 1252 152 0 40 30 0 PatternFill
4205 1252 M
stroke
4129 1252 N
152 0 V
-152 0 V
Z stroke
4129 1252 M
152 0 V
-152 0 R
152 0 V
stroke

 /TransparentPatterns true def
4887 1246 152 0 40 30 0 PatternFill
4963 1246 M
stroke
4887 1246 N
152 0 V
-152 0 V
Z stroke
4887 1246 M
152 0 V
-152 0 R
152 0 V
stroke

 /TransparentPatterns true def
5646 1246 152 0 40 30 0 PatternFill
5722 1246 M
stroke
5646 1246 N
152 0 V
-152 0 V
Z stroke
5646 1246 M
152 0 V
-152 0 R
152 0 V
stroke

 /TransparentPatterns true def
6405 1252 152 0 40 30 0 PatternFill
6481 1252 M
stroke
6405 1252 N
152 0 V
-152 0 V
Z stroke
6405 1252 M
152 0 V
-152 0 R
152 0 V
stroke

 /TransparentPatterns true def
7163 1248 152 0 40 30 0 PatternFill
7239 1248 M
stroke
7163 1248 N
152 0 V
-152 0 V
Z stroke
7163 1248 M
152 0 V
-152 0 R
152 0 V
stroke

 /TransparentPatterns true def
7922 1250 152 0 40 30 0 PatternFill
7998 1250 M
stroke
7922 1250 N
152 0 V
-152 0 V
Z stroke
7922 1250 M
152 0 V
-152 0 R
152 0 V
stroke

 /TransparentPatterns true def
8681 1249 152 0 40 30 0 PatternFill
8757 1249 M
stroke
8681 1249 N
152 0 V
-152 0 V
Z stroke
8681 1249 M
152 0 V
-152 0 R
152 0 V
stroke

 /TransparentPatterns true def
9439 1260 152 0 40 30 0 PatternFill
9515 1260 M
stroke
9439 1260 N
152 0 V
-152 0 V
Z stroke
9439 1260 M
152 0 V
-152 0 R
152 0 V
stroke

 /TransparentPatterns true def
10198 1255 152 0 40 30 0 PatternFill
10274 1255 M
stroke
10198 1255 N
152 0 V
-152 0 V
Z stroke
10198 1255 M
152 0 V
-152 0 R
152 0 V
stroke

 /TransparentPatterns true def
10957 1247 152 0 40 30 0 PatternFill
11033 1247 M
stroke
10957 1247 N
152 0 V
-152 0 V
Z stroke
10957 1247 M
152 0 V
-152 0 R
152 0 V
stroke

 /TransparentPatterns true def
11715 1250 152 0 40 30 0 PatternFill
11791 1250 M
stroke
11715 1250 N
152 0 V
-152 0 V
Z stroke
11715 1250 M
152 0 V
-152 0 R
152 0 V
stroke

 /TransparentPatterns true def
12474 1255 152 0 40 30 0 PatternFill
12550 1255 M
stroke
12474 1255 N
152 0 V
-152 0 V
Z stroke
12474 1255 M
152 0 V
-152 0 R
152 0 V
% End plot #2
% Begin plot #3
2.000 UP
stroke
LTa
0.60 0.60 0.00 C LCb setrgbcolor
4714 153 M
[ [(Arial) 180.0 0.0 true true 0 (avg. throughput :         )]
] -60.0 MRshow
2.000 UP
1.000 UL
LTa
0.60 0.60 0.00 C 4822 153 M
333 0 V
980 3436 M
190 0 V
758 90 V
759 -1 V
759 -43 V
758 122 V
759 -170 V
759 132 V
758 -42 V
759 1 V
759 79 V
759 -79 V
758 149 V
759 -69 V
759 -124 V
758 0 V
759 -1 V
569 -73 V
1170 3436 Box
1928 3526 Box
2687 3525 Box
3446 3482 Box
4204 3604 Box
4963 3434 Box
5722 3566 Box
6480 3524 Box
7239 3525 Box
7998 3604 Box
8757 3525 Box
9515 3674 Box
10274 3605 Box
11033 3481 Box
11791 3481 Box
12550 3480 Box
4988 153 Box
% End plot #3
% Begin plot #4
1.000 UL
LTb
0.00 0.00 0.63 C LCb setrgbcolor
8287 333 M
[ [(Arial) 180.0 0.0 true true 0 (per-packet)]
] -60.0 MRshow
1.000 UL
LTb
0.00 0.00 0.63 C 8395 288 333 90 80 45 0 PatternFill
8395 288 N
333 0 V
0 90 V
-333 0 V
0 -90 V
Z stroke
1.000 UL
LTb
0.00 0.00 0.63 C 1283 1061 152 696 80 45 0 PatternFill
1359 1048 M
0 13 V
0 696 R
0 186 V
stroke
1283 1061 N
152 0 V
0 696 V
-152 0 V
0 -696 V
Z stroke
1283 1943 M
152 0 V
1283 1048 M
152 0 V
stroke
2042 1060 152 760 80 45 0 PatternFill
2118 1040 M
0 20 V
0 760 R
0 173 V
stroke
2042 1060 N
152 0 V
0 760 V
-152 0 V
0 -760 V
Z stroke
2042 1993 M
152 0 V
2042 1040 M
152 0 V
stroke
2801 1061 152 738 80 45 0 PatternFill
2877 1041 M
0 20 V
0 738 R
0 170 V
stroke
2801 1061 N
152 0 V
0 738 V
-152 0 V
0 -738 V
Z stroke
2801 1969 M
152 0 V
2801 1041 M
152 0 V
stroke
3560 1060 152 733 80 45 0 PatternFill
3636 1041 M
0 19 V
0 733 R
0 148 V
stroke
3560 1060 N
152 0 V
0 733 V
-152 0 V
0 -733 V
Z stroke
3560 1941 M
152 0 V
3560 1041 M
152 0 V
stroke
4318 1056 152 722 80 45 0 PatternFill
4394 1043 M
0 13 V
0 722 R
0 200 V
stroke
4318 1056 N
152 0 V
0 722 V
-152 0 V
0 -722 V
Z stroke
4318 1978 M
152 0 V
4318 1043 M
152 0 V
stroke
5077 1062 152 680 80 45 0 PatternFill
5153 1036 M
0 26 V
0 680 R
0 224 V
stroke
5077 1062 N
152 0 V
0 680 V
-152 0 V
0 -680 V
Z stroke
5077 1966 M
152 0 V
5077 1036 M
152 0 V
stroke
5836 1061 152 734 80 45 0 PatternFill
5912 1040 M
0 21 V
0 734 R
0 223 V
stroke
5836 1061 N
152 0 V
0 734 V
-152 0 V
0 -734 V
Z stroke
5836 2018 M
152 0 V
5836 1040 M
152 0 V
stroke
6594 1068 152 723 80 45 0 PatternFill
6670 1040 M
0 28 V
0 723 R
0 207 V
stroke
6594 1068 N
152 0 V
0 723 V
-152 0 V
0 -723 V
Z stroke
6594 1998 M
152 0 V
6594 1040 M
152 0 V
stroke
7353 1053 152 776 80 45 0 PatternFill
7429 1038 M
0 15 V
0 776 R
0 140 V
stroke
7353 1053 N
152 0 V
0 776 V
-152 0 V
0 -776 V
Z stroke
7353 1969 M
152 0 V
7353 1038 M
152 0 V
stroke
8112 1066 152 742 80 45 0 PatternFill
8188 1040 M
0 26 V
0 742 R
0 143 V
stroke
8112 1066 N
152 0 V
0 742 V
-152 0 V
0 -742 V
Z stroke
8112 1951 M
152 0 V
8112 1040 M
152 0 V
stroke
8870 1057 152 741 80 45 0 PatternFill
8946 1038 M
0 19 V
0 741 R
0 68 V
stroke
8870 1057 N
152 0 V
0 741 V
-152 0 V
0 -741 V
Z stroke
8870 1866 M
152 0 V
8870 1038 M
152 0 V
stroke
9629 1065 152 752 80 45 0 PatternFill
9705 1033 M
0 32 V
0 752 R
0 91 V
stroke
9629 1065 N
152 0 V
0 752 V
-152 0 V
0 -752 V
Z stroke
9629 1908 M
152 0 V
9629 1033 M
152 0 V
stroke
10388 1052 152 757 80 45 0 PatternFill
10464 1040 M
0 12 V
0 757 R
0 166 V
stroke
10388 1052 N
152 0 V
0 757 V
-152 0 V
0 -757 V
Z stroke
10388 1975 M
152 0 V
-152 -935 R
152 0 V
stroke
11146 1065 152 689 80 45 0 PatternFill
11222 1040 M
0 25 V
0 689 R
0 207 V
stroke
11146 1065 N
152 0 V
0 689 V
-152 0 V
0 -689 V
Z stroke
11146 1961 M
152 0 V
-152 -921 R
152 0 V
stroke
11905 1061 152 688 80 45 0 PatternFill
11981 1041 M
0 20 V
0 688 R
0 175 V
stroke
11905 1061 N
152 0 V
0 688 V
-152 0 V
0 -688 V
Z stroke
11905 1924 M
152 0 V
-152 -883 R
152 0 V
stroke
12664 1061 152 725 80 45 0 PatternFill
12740 1041 M
0 20 V
0 725 R
0 185 V
stroke
12664 1061 N
152 0 V
0 725 V
-152 0 V
0 -725 V
Z stroke
12664 1971 M
152 0 V
-152 -930 R
152 0 V
% End plot #4
% Begin plot #5
stroke
LTb
LCb setrgbcolor

 /TransparentPatterns true def
1283 1319 152 0 80 -45 0 PatternFill
1359 1319 M
stroke
1283 1319 N
152 0 V
-152 0 V
Z stroke
1283 1319 M
152 0 V
-152 0 R
152 0 V
stroke

 /TransparentPatterns true def
2042 1330 152 0 80 -45 0 PatternFill
2118 1330 M
stroke
2042 1330 N
152 0 V
-152 0 V
Z stroke
2042 1330 M
152 0 V
-152 0 R
152 0 V
stroke

 /TransparentPatterns true def
2801 1321 152 0 80 -45 0 PatternFill
2877 1321 M
stroke
2801 1321 N
152 0 V
-152 0 V
Z stroke
2801 1321 M
152 0 V
-152 0 R
152 0 V
stroke

 /TransparentPatterns true def
3560 1321 152 0 80 -45 0 PatternFill
3636 1321 M
stroke
3560 1321 N
152 0 V
-152 0 V
Z stroke
3560 1321 M
152 0 V
-152 0 R
152 0 V
stroke

 /TransparentPatterns true def
4318 1327 152 0 80 -45 0 PatternFill
4394 1327 M
stroke
4318 1327 N
152 0 V
-152 0 V
Z stroke
4318 1327 M
152 0 V
-152 0 R
152 0 V
stroke

 /TransparentPatterns true def
5077 1322 152 0 80 -45 0 PatternFill
5153 1322 M
stroke
5077 1322 N
152 0 V
-152 0 V
Z stroke
5077 1322 M
152 0 V
-152 0 R
152 0 V
stroke

 /TransparentPatterns true def
5836 1340 152 0 80 -45 0 PatternFill
5912 1340 M
stroke
5836 1340 N
152 0 V
-152 0 V
Z stroke
5836 1340 M
152 0 V
-152 0 R
152 0 V
stroke

 /TransparentPatterns true def
6594 1334 152 0 80 -45 0 PatternFill
6670 1334 M
stroke
6594 1334 N
152 0 V
-152 0 V
Z stroke
6594 1334 M
152 0 V
-152 0 R
152 0 V
stroke

 /TransparentPatterns true def
7353 1331 152 0 80 -45 0 PatternFill
7429 1331 M
stroke
7353 1331 N
152 0 V
-152 0 V
Z stroke
7353 1331 M
152 0 V
-152 0 R
152 0 V
stroke

 /TransparentPatterns true def
8112 1323 152 0 80 -45 0 PatternFill
8188 1323 M
stroke
8112 1323 N
152 0 V
-152 0 V
Z stroke
8112 1323 M
152 0 V
-152 0 R
152 0 V
stroke

 /TransparentPatterns true def
8870 1316 152 0 80 -45 0 PatternFill
8946 1316 M
stroke
8870 1316 N
152 0 V
-152 0 V
Z stroke
8870 1316 M
152 0 V
-152 0 R
152 0 V
stroke

 /TransparentPatterns true def
9629 1327 152 0 80 -45 0 PatternFill
9705 1327 M
stroke
9629 1327 N
152 0 V
-152 0 V
Z stroke
9629 1327 M
152 0 V
-152 0 R
152 0 V
stroke

 /TransparentPatterns true def
10388 1325 152 0 80 -45 0 PatternFill
10464 1325 M
stroke
10388 1325 N
152 0 V
-152 0 V
Z stroke
10388 1325 M
152 0 V
-152 0 R
152 0 V
stroke

 /TransparentPatterns true def
11146 1324 152 0 80 -45 0 PatternFill
11222 1324 M
stroke
11146 1324 N
152 0 V
-152 0 V
Z stroke
11146 1324 M
152 0 V
-152 0 R
152 0 V
stroke

 /TransparentPatterns true def
11905 1306 152 0 80 -45 0 PatternFill
11981 1306 M
stroke
11905 1306 N
152 0 V
-152 0 V
Z stroke
11905 1306 M
152 0 V
-152 0 R
152 0 V
stroke

 /TransparentPatterns true def
12664 1325 152 0 80 -45 0 PatternFill
12740 1325 M
stroke
12664 1325 N
152 0 V
-152 0 V
Z stroke
12664 1325 M
152 0 V
-152 0 R
152 0 V
% End plot #5
% Begin plot #6
2.000 UP
stroke
LTa
0.00 0.00 0.63 C LCb setrgbcolor
8287 153 M
[ [(Arial) 180.0 0.0 true true 0 ( )]
] -60.0 MRshow
2.000 UP
1.000 UL
LTa
0.00 0.00 0.63 C 8395 153 M
333 0 V
980 4741 M
379 -1 V
759 2 V
759 2 V
758 -2 V
759 1 V
759 -1 V
758 4 V
759 -2 V
759 -1 V
759 -1 V
758 -7 V
759 3 V
759 5 V
758 -1 V
759 -2 V
759 2 V
379 0 V
1359 4740 Circle
2118 4742 Circle
2877 4744 Circle
3635 4742 Circle
4394 4743 Circle
5153 4742 Circle
5911 4746 Circle
6670 4744 Circle
7429 4743 Circle
8188 4742 Circle
8946 4735 Circle
9705 4738 Circle
10464 4743 Circle
11222 4742 Circle
11981 4740 Circle
12740 4742 Circle
8561 153 Circle
% End plot #6
% Begin plot #7
1.000 UL
LTb
0.00 0.38 0.82 C LCb setrgbcolor
11860 333 M
[ [(Arial) 180.0 0.0 true true 0 (per-flow)]
] -60.0 MRshow
1.000 UL
LTb
0.00 0.38 0.82 C 11968 288 333 90 40 30 0 PatternFill
11968 288 N
333 0 V
0 90 V
-333 0 V
0 -90 V
Z stroke
1.000 UL
LTb
0.00 0.38 0.82 C 1473 1060 152 53 40 30 0 PatternFill
1549 1047 M
0 13 V
0 53 R
0 60 V
stroke
1473 1060 N
152 0 V
0 53 V
-152 0 V
0 -53 V
Z stroke
1473 1173 M
152 0 V
1473 1047 M
152 0 V
stroke
2232 1063 152 64 40 30 0 PatternFill
2308 1043 M
0 20 V
0 64 R
0 56 V
stroke
2232 1063 N
152 0 V
0 64 V
-152 0 V
0 -64 V
Z stroke
2232 1183 M
152 0 V
2232 1043 M
152 0 V
stroke
2991 1064 152 53 40 30 0 PatternFill
3067 1050 M
0 14 V
0 53 R
0 43 V
stroke
2991 1064 N
152 0 V
0 53 V
-152 0 V
0 -53 V
Z stroke
2991 1160 M
152 0 V
2991 1050 M
152 0 V
stroke
3749 1073 152 37 40 30 0 PatternFill
3825 1050 M
0 23 V
0 37 R
0 103 V
stroke
3749 1073 N
152 0 V
0 37 V
-152 0 V
0 -37 V
Z stroke
3749 1213 M
152 0 V
3749 1050 M
152 0 V
stroke
4508 1063 152 51 40 30 0 PatternFill
4584 1040 M
0 23 V
0 51 R
0 183 V
stroke
4508 1063 N
152 0 V
0 51 V
-152 0 V
0 -51 V
Z stroke
4508 1297 M
152 0 V
4508 1040 M
152 0 V
stroke
5267 1061 152 53 40 30 0 PatternFill
5343 1041 M
0 20 V
0 53 R
0 83 V
stroke
5267 1061 N
152 0 V
0 53 V
-152 0 V
0 -53 V
Z stroke
5267 1197 M
152 0 V
5267 1041 M
152 0 V
stroke
6025 1061 152 52 40 30 0 PatternFill
6101 1049 M
0 12 V
0 52 R
0 78 V
stroke
6025 1061 N
152 0 V
0 52 V
-152 0 V
0 -52 V
Z stroke
6025 1191 M
152 0 V
6025 1049 M
152 0 V
stroke
6784 1061 152 55 40 30 0 PatternFill
6860 1048 M
0 13 V
0 55 R
0 76 V
stroke
6784 1061 N
152 0 V
0 55 V
-152 0 V
0 -55 V
Z stroke
6784 1192 M
152 0 V
6784 1048 M
152 0 V
stroke
7543 1068 152 36 40 30 0 PatternFill
7619 1050 M
0 18 V
0 36 R
0 69 V
stroke
7543 1068 N
152 0 V
0 36 V
-152 0 V
0 -36 V
Z stroke
7543 1173 M
152 0 V
7543 1050 M
152 0 V
stroke
8301 1064 152 46 40 30 0 PatternFill
8377 1038 M
0 26 V
0 46 R
0 116 V
stroke
8301 1064 N
152 0 V
0 46 V
-152 0 V
0 -46 V
Z stroke
8301 1226 M
152 0 V
8301 1038 M
152 0 V
stroke
9060 1061 152 46 40 30 0 PatternFill
9136 1046 M
0 15 V
0 46 R
0 125 V
stroke
9060 1061 N
152 0 V
0 46 V
-152 0 V
0 -46 V
Z stroke
9060 1232 M
152 0 V
9060 1046 M
152 0 V
stroke
9819 1060 152 62 40 30 0 PatternFill
9895 1052 M
0 8 V
0 62 R
0 58 V
stroke
9819 1060 N
152 0 V
0 62 V
-152 0 V
0 -62 V
Z stroke
9819 1180 M
152 0 V
9819 1052 M
152 0 V
stroke
10577 1060 152 57 40 30 0 PatternFill
10653 1045 M
0 15 V
0 57 R
0 97 V
stroke
10577 1060 N
152 0 V
0 57 V
-152 0 V
0 -57 V
Z stroke
10577 1214 M
152 0 V
-152 -169 R
152 0 V
stroke
11336 1065 152 46 40 30 0 PatternFill
11412 1054 M
0 11 V
0 46 R
0 55 V
stroke
11336 1065 N
152 0 V
0 46 V
-152 0 V
0 -46 V
Z stroke
11336 1166 M
152 0 V
-152 -112 R
152 0 V
stroke
12095 1070 152 45 40 30 0 PatternFill
12171 1051 M
0 19 V
0 45 R
0 41 V
stroke
12095 1070 N
152 0 V
0 45 V
-152 0 V
0 -45 V
Z stroke
12095 1156 M
152 0 V
-152 -105 R
152 0 V
stroke
12853 1063 152 41 40 30 0 PatternFill
12929 1053 M
0 10 V
0 41 R
0 34 V
stroke
12853 1063 N
152 0 V
0 41 V
-152 0 V
0 -41 V
Z stroke
12853 1138 M
152 0 V
-152 -85 R
152 0 V
% End plot #7
% Begin plot #8
stroke
LTb
LCb setrgbcolor

 /TransparentPatterns true def
1473 1092 152 0 40 -30 0 PatternFill
1549 1092 M
stroke
1473 1092 N
152 0 V
-152 0 V
Z stroke
1473 1092 M
152 0 V
-152 0 R
152 0 V
stroke

 /TransparentPatterns true def
2232 1094 152 0 40 -30 0 PatternFill
2308 1094 M
stroke
2232 1094 N
152 0 V
-152 0 V
Z stroke
2232 1094 M
152 0 V
-152 0 R
152 0 V
stroke

 /TransparentPatterns true def
2991 1091 152 0 40 -30 0 PatternFill
3067 1091 M
stroke
2991 1091 N
152 0 V
-152 0 V
Z stroke
2991 1091 M
152 0 V
-152 0 R
152 0 V
stroke

 /TransparentPatterns true def
3749 1094 152 0 40 -30 0 PatternFill
3825 1094 M
stroke
3749 1094 N
152 0 V
-152 0 V
Z stroke
3749 1094 M
152 0 V
-152 0 R
152 0 V
stroke

 /TransparentPatterns true def
4508 1101 152 0 40 -30 0 PatternFill
4584 1101 M
stroke
4508 1101 N
152 0 V
-152 0 V
Z stroke
4508 1101 M
152 0 V
-152 0 R
152 0 V
stroke

 /TransparentPatterns true def
5267 1093 152 0 40 -30 0 PatternFill
5343 1093 M
stroke
5267 1093 N
152 0 V
-152 0 V
Z stroke
5267 1093 M
152 0 V
-152 0 R
152 0 V
stroke

 /TransparentPatterns true def
6025 1089 152 0 40 -30 0 PatternFill
6101 1089 M
stroke
6025 1089 N
152 0 V
-152 0 V
Z stroke
6025 1089 M
152 0 V
-152 0 R
152 0 V
stroke

 /TransparentPatterns true def
6784 1098 152 0 40 -30 0 PatternFill
6860 1098 M
stroke
6784 1098 N
152 0 V
-152 0 V
Z stroke
6784 1098 M
152 0 V
-152 0 R
152 0 V
stroke

 /TransparentPatterns true def
7543 1092 152 0 40 -30 0 PatternFill
7619 1092 M
stroke
7543 1092 N
152 0 V
-152 0 V
Z stroke
7543 1092 M
152 0 V
-152 0 R
152 0 V
stroke

 /TransparentPatterns true def
8301 1092 152 0 40 -30 0 PatternFill
8377 1092 M
stroke
8301 1092 N
152 0 V
-152 0 V
Z stroke
8301 1092 M
152 0 V
-152 0 R
152 0 V
stroke

 /TransparentPatterns true def
9060 1091 152 0 40 -30 0 PatternFill
9136 1091 M
stroke
9060 1091 N
152 0 V
-152 0 V
Z stroke
9060 1091 M
152 0 V
-152 0 R
152 0 V
stroke

 /TransparentPatterns true def
9819 1093 152 0 40 -30 0 PatternFill
9895 1093 M
stroke
9819 1093 N
152 0 V
-152 0 V
Z stroke
9819 1093 M
152 0 V
-152 0 R
152 0 V
stroke

 /TransparentPatterns true def
10577 1093 152 0 40 -30 0 PatternFill
10653 1093 M
stroke
10577 1093 N
152 0 V
-152 0 V
Z stroke
10577 1093 M
152 0 V
-152 0 R
152 0 V
stroke

 /TransparentPatterns true def
11336 1093 152 0 40 -30 0 PatternFill
11412 1093 M
stroke
11336 1093 N
152 0 V
-152 0 V
Z stroke
11336 1093 M
152 0 V
-152 0 R
152 0 V
stroke

 /TransparentPatterns true def
12095 1097 152 0 40 -30 0 PatternFill
12171 1097 M
stroke
12095 1097 N
152 0 V
-152 0 V
Z stroke
12095 1097 M
152 0 V
-152 0 R
152 0 V
stroke

 /TransparentPatterns true def
12853 1087 152 0 40 -30 0 PatternFill
12929 1087 M
stroke
12853 1087 N
152 0 V
-152 0 V
Z stroke
12853 1087 M
152 0 V
-152 0 R
152 0 V
% End plot #8
% Begin plot #9
2.000 UP
stroke
LTa
0.00 0.38 0.82 C LCb setrgbcolor
11860 153 M
[ [(Arial) 180.0 0.0 true true 0 ( )]
] -60.0 MRshow
2.000 UP
1.000 UL
LTa
0.00 0.38 0.82 C 11968 153 M
333 0 V
980 4574 M
569 -32 V
759 14 V
758 -16 V
759 44 V
759 48 V
758 -61 V
759 -13 V
759 13 V
759 -29 V
758 52 V
759 1 V
759 -37 V
758 26 V
759 -42 V
759 -1 V
758 -40 V
190 14 V
1549 4542 TriU
2308 4556 TriU
3066 4540 TriU
3825 4584 TriU
4584 4632 TriU
5342 4571 TriU
6101 4558 TriU
6860 4571 TriU
7619 4542 TriU
8377 4594 TriU
9136 4595 TriU
9895 4558 TriU
10653 4584 TriU
11412 4542 TriU
12171 4541 TriU
12929 4501 TriU
12134 153 TriU
% End plot #9
2.000 UL
LTb
LCb setrgbcolor
1.000 UP
1.000 UL
LTb
0.00 0.00 0.00 C stroke
grestore
end
showpage
%%Trailer
%%DocumentFonts: Arial
