%!PS-Adobe-2.0 EPSF-2.0
%%Title: TcpNewReno-download-finishtime-25UE-panoramic.eps
%%Creator: gnuplot 5.0 patchlevel 3
%%CreationDate: Tue Jun  7 16:10:53 2016
%%DocumentFonts: (atend)
%%BoundingBox: 50 50 770 302
%%EndComments
%%BeginProlog
/gnudict 256 dict def
gnudict begin
%
% The following true/false flags may be edited by hand if desired.
% The unit line width and grayscale image gamma correction may also be changed.
%
/Color true def
/Blacktext false def
/Solid false def
/Dashlength 3 def
/Landscape false def
/Level1 false def
/Level3 false def
/Rounded false def
/ClipToBoundingBox false def
/SuppressPDFMark false def
/TransparentPatterns false def
/gnulinewidth 15.000 def
/userlinewidth gnulinewidth def
/Gamma 1.0 def
/BackgroundColor {-1.000 -1.000 -1.000} def
%
/vshift -66 def
/dl1 {
  10.0 Dashlength userlinewidth gnulinewidth div mul mul mul
  Rounded { currentlinewidth 0.75 mul sub dup 0 le { pop 0.01 } if } if
} def
/dl2 {
  10.0 Dashlength userlinewidth gnulinewidth div mul mul mul
  Rounded { currentlinewidth 0.75 mul add } if
} def
/hpt_ 31.5 def
/vpt_ 31.5 def
/hpt hpt_ def
/vpt vpt_ def
/doclip {
  ClipToBoundingBox {
    newpath 50 50 moveto 770 50 lineto 770 302 lineto 50 302 lineto closepath
    clip
  } if
} def
%
% Gnuplot Prolog Version 5.1 (Oct 2015)
%
%/SuppressPDFMark true def
%
/M {moveto} bind def
/L {lineto} bind def
/R {rmoveto} bind def
/V {rlineto} bind def
/N {newpath moveto} bind def
/Z {closepath} bind def
/C {setrgbcolor} bind def
/f {rlineto fill} bind def
/g {setgray} bind def
/Gshow {show} def   % May be redefined later in the file to support UTF-8
/vpt2 vpt 2 mul def
/hpt2 hpt 2 mul def
/Lshow {currentpoint stroke M 0 vshift R 
	Blacktext {gsave 0 setgray textshow grestore} {textshow} ifelse} def
/Rshow {currentpoint stroke M dup stringwidth pop neg vshift R
	Blacktext {gsave 0 setgray textshow grestore} {textshow} ifelse} def
/Cshow {currentpoint stroke M dup stringwidth pop -2 div vshift R 
	Blacktext {gsave 0 setgray textshow grestore} {textshow} ifelse} def
/UP {dup vpt_ mul /vpt exch def hpt_ mul /hpt exch def
  /hpt2 hpt 2 mul def /vpt2 vpt 2 mul def} def
/DL {Color {setrgbcolor Solid {pop []} if 0 setdash}
 {pop pop pop 0 setgray Solid {pop []} if 0 setdash} ifelse} def
/BL {stroke userlinewidth 2 mul setlinewidth
	Rounded {1 setlinejoin 1 setlinecap} if} def
/AL {stroke userlinewidth 2 div setlinewidth
	Rounded {1 setlinejoin 1 setlinecap} if} def
/UL {dup gnulinewidth mul /userlinewidth exch def
	dup 1 lt {pop 1} if 10 mul /udl exch def} def
/PL {stroke userlinewidth setlinewidth
	Rounded {1 setlinejoin 1 setlinecap} if} def
3.8 setmiterlimit
% Classic Line colors (version 5.0)
/LCw {1 1 1} def
/LCb {0 0 0} def
/LCa {0 0 0} def
/LC0 {1 0 0} def
/LC1 {0 1 0} def
/LC2 {0 0 1} def
/LC3 {1 0 1} def
/LC4 {0 1 1} def
/LC5 {1 1 0} def
/LC6 {0 0 0} def
/LC7 {1 0.3 0} def
/LC8 {0.5 0.5 0.5} def
% Default dash patterns (version 5.0)
/LTB {BL [] LCb DL} def
/LTw {PL [] 1 setgray} def
/LTb {PL [] LCb DL} def
/LTa {AL [1 udl mul 2 udl mul] 0 setdash LCa setrgbcolor} def
/LT0 {PL [] LC0 DL} def
/LT1 {PL [2 dl1 3 dl2] LC1 DL} def
/LT2 {PL [1 dl1 1.5 dl2] LC2 DL} def
/LT3 {PL [6 dl1 2 dl2 1 dl1 2 dl2] LC3 DL} def
/LT4 {PL [1 dl1 2 dl2 6 dl1 2 dl2 1 dl1 2 dl2] LC4 DL} def
/LT5 {PL [4 dl1 2 dl2] LC5 DL} def
/LT6 {PL [1.5 dl1 1.5 dl2 1.5 dl1 1.5 dl2 1.5 dl1 6 dl2] LC6 DL} def
/LT7 {PL [3 dl1 3 dl2 1 dl1 3 dl2] LC7 DL} def
/LT8 {PL [2 dl1 2 dl2 2 dl1 6 dl2] LC8 DL} def
/SL {[] 0 setdash} def
/Pnt {stroke [] 0 setdash gsave 1 setlinecap M 0 0 V stroke grestore} def
/Dia {stroke [] 0 setdash 2 copy vpt add M
  hpt neg vpt neg V hpt vpt neg V
  hpt vpt V hpt neg vpt V closepath stroke
  Pnt} def
/Pls {stroke [] 0 setdash vpt sub M 0 vpt2 V
  currentpoint stroke M
  hpt neg vpt neg R hpt2 0 V stroke
 } def
/Box {stroke [] 0 setdash 2 copy exch hpt sub exch vpt add M
  0 vpt2 neg V hpt2 0 V 0 vpt2 V
  hpt2 neg 0 V closepath stroke
  Pnt} def
/Crs {stroke [] 0 setdash exch hpt sub exch vpt add M
  hpt2 vpt2 neg V currentpoint stroke M
  hpt2 neg 0 R hpt2 vpt2 V stroke} def
/TriU {stroke [] 0 setdash 2 copy vpt 1.12 mul add M
  hpt neg vpt -1.62 mul V
  hpt 2 mul 0 V
  hpt neg vpt 1.62 mul V closepath stroke
  Pnt} def
/Star {2 copy Pls Crs} def
/BoxF {stroke [] 0 setdash exch hpt sub exch vpt add M
  0 vpt2 neg V hpt2 0 V 0 vpt2 V
  hpt2 neg 0 V closepath fill} def
/TriUF {stroke [] 0 setdash vpt 1.12 mul add M
  hpt neg vpt -1.62 mul V
  hpt 2 mul 0 V
  hpt neg vpt 1.62 mul V closepath fill} def
/TriD {stroke [] 0 setdash 2 copy vpt 1.12 mul sub M
  hpt neg vpt 1.62 mul V
  hpt 2 mul 0 V
  hpt neg vpt -1.62 mul V closepath stroke
  Pnt} def
/TriDF {stroke [] 0 setdash vpt 1.12 mul sub M
  hpt neg vpt 1.62 mul V
  hpt 2 mul 0 V
  hpt neg vpt -1.62 mul V closepath fill} def
/DiaF {stroke [] 0 setdash vpt add M
  hpt neg vpt neg V hpt vpt neg V
  hpt vpt V hpt neg vpt V closepath fill} def
/Pent {stroke [] 0 setdash 2 copy gsave
  translate 0 hpt M 4 {72 rotate 0 hpt L} repeat
  closepath stroke grestore Pnt} def
/PentF {stroke [] 0 setdash gsave
  translate 0 hpt M 4 {72 rotate 0 hpt L} repeat
  closepath fill grestore} def
/Circle {stroke [] 0 setdash 2 copy
  hpt 0 360 arc stroke Pnt} def
/CircleF {stroke [] 0 setdash hpt 0 360 arc fill} def
/C0 {BL [] 0 setdash 2 copy moveto vpt 90 450 arc} bind def
/C1 {BL [] 0 setdash 2 copy moveto
	2 copy vpt 0 90 arc closepath fill
	vpt 0 360 arc closepath} bind def
/C2 {BL [] 0 setdash 2 copy moveto
	2 copy vpt 90 180 arc closepath fill
	vpt 0 360 arc closepath} bind def
/C3 {BL [] 0 setdash 2 copy moveto
	2 copy vpt 0 180 arc closepath fill
	vpt 0 360 arc closepath} bind def
/C4 {BL [] 0 setdash 2 copy moveto
	2 copy vpt 180 270 arc closepath fill
	vpt 0 360 arc closepath} bind def
/C5 {BL [] 0 setdash 2 copy moveto
	2 copy vpt 0 90 arc
	2 copy moveto
	2 copy vpt 180 270 arc closepath fill
	vpt 0 360 arc} bind def
/C6 {BL [] 0 setdash 2 copy moveto
	2 copy vpt 90 270 arc closepath fill
	vpt 0 360 arc closepath} bind def
/C7 {BL [] 0 setdash 2 copy moveto
	2 copy vpt 0 270 arc closepath fill
	vpt 0 360 arc closepath} bind def
/C8 {BL [] 0 setdash 2 copy moveto
	2 copy vpt 270 360 arc closepath fill
	vpt 0 360 arc closepath} bind def
/C9 {BL [] 0 setdash 2 copy moveto
	2 copy vpt 270 450 arc closepath fill
	vpt 0 360 arc closepath} bind def
/C10 {BL [] 0 setdash 2 copy 2 copy moveto vpt 270 360 arc closepath fill
	2 copy moveto
	2 copy vpt 90 180 arc closepath fill
	vpt 0 360 arc closepath} bind def
/C11 {BL [] 0 setdash 2 copy moveto
	2 copy vpt 0 180 arc closepath fill
	2 copy moveto
	2 copy vpt 270 360 arc closepath fill
	vpt 0 360 arc closepath} bind def
/C12 {BL [] 0 setdash 2 copy moveto
	2 copy vpt 180 360 arc closepath fill
	vpt 0 360 arc closepath} bind def
/C13 {BL [] 0 setdash 2 copy moveto
	2 copy vpt 0 90 arc closepath fill
	2 copy moveto
	2 copy vpt 180 360 arc closepath fill
	vpt 0 360 arc closepath} bind def
/C14 {BL [] 0 setdash 2 copy moveto
	2 copy vpt 90 360 arc closepath fill
	vpt 0 360 arc} bind def
/C15 {BL [] 0 setdash 2 copy vpt 0 360 arc closepath fill
	vpt 0 360 arc closepath} bind def
/Rec {newpath 4 2 roll moveto 1 index 0 rlineto 0 exch rlineto
	neg 0 rlineto closepath} bind def
/Square {dup Rec} bind def
/Bsquare {vpt sub exch vpt sub exch vpt2 Square} bind def
/S0 {BL [] 0 setdash 2 copy moveto 0 vpt rlineto BL Bsquare} bind def
/S1 {BL [] 0 setdash 2 copy vpt Square fill Bsquare} bind def
/S2 {BL [] 0 setdash 2 copy exch vpt sub exch vpt Square fill Bsquare} bind def
/S3 {BL [] 0 setdash 2 copy exch vpt sub exch vpt2 vpt Rec fill Bsquare} bind def
/S4 {BL [] 0 setdash 2 copy exch vpt sub exch vpt sub vpt Square fill Bsquare} bind def
/S5 {BL [] 0 setdash 2 copy 2 copy vpt Square fill
	exch vpt sub exch vpt sub vpt Square fill Bsquare} bind def
/S6 {BL [] 0 setdash 2 copy exch vpt sub exch vpt sub vpt vpt2 Rec fill Bsquare} bind def
/S7 {BL [] 0 setdash 2 copy exch vpt sub exch vpt sub vpt vpt2 Rec fill
	2 copy vpt Square fill Bsquare} bind def
/S8 {BL [] 0 setdash 2 copy vpt sub vpt Square fill Bsquare} bind def
/S9 {BL [] 0 setdash 2 copy vpt sub vpt vpt2 Rec fill Bsquare} bind def
/S10 {BL [] 0 setdash 2 copy vpt sub vpt Square fill 2 copy exch vpt sub exch vpt Square fill
	Bsquare} bind def
/S11 {BL [] 0 setdash 2 copy vpt sub vpt Square fill 2 copy exch vpt sub exch vpt2 vpt Rec fill
	Bsquare} bind def
/S12 {BL [] 0 setdash 2 copy exch vpt sub exch vpt sub vpt2 vpt Rec fill Bsquare} bind def
/S13 {BL [] 0 setdash 2 copy exch vpt sub exch vpt sub vpt2 vpt Rec fill
	2 copy vpt Square fill Bsquare} bind def
/S14 {BL [] 0 setdash 2 copy exch vpt sub exch vpt sub vpt2 vpt Rec fill
	2 copy exch vpt sub exch vpt Square fill Bsquare} bind def
/S15 {BL [] 0 setdash 2 copy Bsquare fill Bsquare} bind def
/D0 {gsave translate 45 rotate 0 0 S0 stroke grestore} bind def
/D1 {gsave translate 45 rotate 0 0 S1 stroke grestore} bind def
/D2 {gsave translate 45 rotate 0 0 S2 stroke grestore} bind def
/D3 {gsave translate 45 rotate 0 0 S3 stroke grestore} bind def
/D4 {gsave translate 45 rotate 0 0 S4 stroke grestore} bind def
/D5 {gsave translate 45 rotate 0 0 S5 stroke grestore} bind def
/D6 {gsave translate 45 rotate 0 0 S6 stroke grestore} bind def
/D7 {gsave translate 45 rotate 0 0 S7 stroke grestore} bind def
/D8 {gsave translate 45 rotate 0 0 S8 stroke grestore} bind def
/D9 {gsave translate 45 rotate 0 0 S9 stroke grestore} bind def
/D10 {gsave translate 45 rotate 0 0 S10 stroke grestore} bind def
/D11 {gsave translate 45 rotate 0 0 S11 stroke grestore} bind def
/D12 {gsave translate 45 rotate 0 0 S12 stroke grestore} bind def
/D13 {gsave translate 45 rotate 0 0 S13 stroke grestore} bind def
/D14 {gsave translate 45 rotate 0 0 S14 stroke grestore} bind def
/D15 {gsave translate 45 rotate 0 0 S15 stroke grestore} bind def
/DiaE {stroke [] 0 setdash vpt add M
  hpt neg vpt neg V hpt vpt neg V
  hpt vpt V hpt neg vpt V closepath stroke} def
/BoxE {stroke [] 0 setdash exch hpt sub exch vpt add M
  0 vpt2 neg V hpt2 0 V 0 vpt2 V
  hpt2 neg 0 V closepath stroke} def
/TriUE {stroke [] 0 setdash vpt 1.12 mul add M
  hpt neg vpt -1.62 mul V
  hpt 2 mul 0 V
  hpt neg vpt 1.62 mul V closepath stroke} def
/TriDE {stroke [] 0 setdash vpt 1.12 mul sub M
  hpt neg vpt 1.62 mul V
  hpt 2 mul 0 V
  hpt neg vpt -1.62 mul V closepath stroke} def
/PentE {stroke [] 0 setdash gsave
  translate 0 hpt M 4 {72 rotate 0 hpt L} repeat
  closepath stroke grestore} def
/CircE {stroke [] 0 setdash 
  hpt 0 360 arc stroke} def
/Opaque {gsave closepath 1 setgray fill grestore 0 setgray closepath} def
/DiaW {stroke [] 0 setdash vpt add M
  hpt neg vpt neg V hpt vpt neg V
  hpt vpt V hpt neg vpt V Opaque stroke} def
/BoxW {stroke [] 0 setdash exch hpt sub exch vpt add M
  0 vpt2 neg V hpt2 0 V 0 vpt2 V
  hpt2 neg 0 V Opaque stroke} def
/TriUW {stroke [] 0 setdash vpt 1.12 mul add M
  hpt neg vpt -1.62 mul V
  hpt 2 mul 0 V
  hpt neg vpt 1.62 mul V Opaque stroke} def
/TriDW {stroke [] 0 setdash vpt 1.12 mul sub M
  hpt neg vpt 1.62 mul V
  hpt 2 mul 0 V
  hpt neg vpt -1.62 mul V Opaque stroke} def
/PentW {stroke [] 0 setdash gsave
  translate 0 hpt M 4 {72 rotate 0 hpt L} repeat
  Opaque stroke grestore} def
/CircW {stroke [] 0 setdash 
  hpt 0 360 arc Opaque stroke} def
/BoxFill {gsave Rec 1 setgray fill grestore} def
/Density {
  /Fillden exch def
  currentrgbcolor
  /ColB exch def /ColG exch def /ColR exch def
  /ColR ColR Fillden mul Fillden sub 1 add def
  /ColG ColG Fillden mul Fillden sub 1 add def
  /ColB ColB Fillden mul Fillden sub 1 add def
  ColR ColG ColB setrgbcolor} def
/BoxColFill {gsave Rec PolyFill} def
/PolyFill {gsave Density fill grestore grestore} def
/h {rlineto rlineto rlineto gsave closepath fill grestore} bind def
%
% PostScript Level 1 Pattern Fill routine for rectangles
% Usage: x y w h s a XX PatternFill
%	x,y = lower left corner of box to be filled
%	w,h = width and height of box
%	  a = angle in degrees between lines and x-axis
%	 XX = 0/1 for no/yes cross-hatch
%
/PatternFill {gsave /PFa [ 9 2 roll ] def
  PFa 0 get PFa 2 get 2 div add PFa 1 get PFa 3 get 2 div add translate
  PFa 2 get -2 div PFa 3 get -2 div PFa 2 get PFa 3 get Rec
  TransparentPatterns {} {gsave 1 setgray fill grestore} ifelse
  clip
  currentlinewidth 0.5 mul setlinewidth
  /PFs PFa 2 get dup mul PFa 3 get dup mul add sqrt def
  0 0 M PFa 5 get rotate PFs -2 div dup translate
  0 1 PFs PFa 4 get div 1 add floor cvi
	{PFa 4 get mul 0 M 0 PFs V} for
  0 PFa 6 get ne {
	0 1 PFs PFa 4 get div 1 add floor cvi
	{PFa 4 get mul 0 2 1 roll M PFs 0 V} for
 } if
  stroke grestore} def
%
/languagelevel where
 {pop languagelevel} {1} ifelse
dup 2 lt
	{/InterpretLevel1 true def
	 /InterpretLevel3 false def}
	{/InterpretLevel1 Level1 def
	 2 gt
	    {/InterpretLevel3 Level3 def}
	    {/InterpretLevel3 false def}
	 ifelse }
 ifelse
%
% PostScript level 2 pattern fill definitions
%
/Level2PatternFill {
/Tile8x8 {/PaintType 2 /PatternType 1 /TilingType 1 /BBox [0 0 8 8] /XStep 8 /YStep 8}
	bind def
/KeepColor {currentrgbcolor [/Pattern /DeviceRGB] setcolorspace} bind def
<< Tile8x8
 /PaintProc {0.5 setlinewidth pop 0 0 M 8 8 L 0 8 M 8 0 L stroke} 
>> matrix makepattern
/Pat1 exch def
<< Tile8x8
 /PaintProc {0.5 setlinewidth pop 0 0 M 8 8 L 0 8 M 8 0 L stroke
	0 4 M 4 8 L 8 4 L 4 0 L 0 4 L stroke}
>> matrix makepattern
/Pat2 exch def
<< Tile8x8
 /PaintProc {0.5 setlinewidth pop 0 0 M 0 8 L
	8 8 L 8 0 L 0 0 L fill}
>> matrix makepattern
/Pat3 exch def
<< Tile8x8
 /PaintProc {0.5 setlinewidth pop -4 8 M 8 -4 L
	0 12 M 12 0 L stroke}
>> matrix makepattern
/Pat4 exch def
<< Tile8x8
 /PaintProc {0.5 setlinewidth pop -4 0 M 8 12 L
	0 -4 M 12 8 L stroke}
>> matrix makepattern
/Pat5 exch def
<< Tile8x8
 /PaintProc {0.5 setlinewidth pop -2 8 M 4 -4 L
	0 12 M 8 -4 L 4 12 M 10 0 L stroke}
>> matrix makepattern
/Pat6 exch def
<< Tile8x8
 /PaintProc {0.5 setlinewidth pop -2 0 M 4 12 L
	0 -4 M 8 12 L 4 -4 M 10 8 L stroke}
>> matrix makepattern
/Pat7 exch def
<< Tile8x8
 /PaintProc {0.5 setlinewidth pop 8 -2 M -4 4 L
	12 0 M -4 8 L 12 4 M 0 10 L stroke}
>> matrix makepattern
/Pat8 exch def
<< Tile8x8
 /PaintProc {0.5 setlinewidth pop 0 -2 M 12 4 L
	-4 0 M 12 8 L -4 4 M 8 10 L stroke}
>> matrix makepattern
/Pat9 exch def
/Pattern1 {PatternBgnd KeepColor Pat1 setpattern} bind def
/Pattern2 {PatternBgnd KeepColor Pat2 setpattern} bind def
/Pattern3 {PatternBgnd KeepColor Pat3 setpattern} bind def
/Pattern4 {PatternBgnd KeepColor Landscape {Pat5} {Pat4} ifelse setpattern} bind def
/Pattern5 {PatternBgnd KeepColor Landscape {Pat4} {Pat5} ifelse setpattern} bind def
/Pattern6 {PatternBgnd KeepColor Landscape {Pat9} {Pat6} ifelse setpattern} bind def
/Pattern7 {PatternBgnd KeepColor Landscape {Pat8} {Pat7} ifelse setpattern} bind def
} def
%
%
%End of PostScript Level 2 code
%
/PatternBgnd {
  TransparentPatterns {} {gsave 1 setgray fill grestore} ifelse
} def
%
% Substitute for Level 2 pattern fill codes with
% grayscale if Level 2 support is not selected.
%
/Level1PatternFill {
/Pattern1 {0.250 Density} bind def
/Pattern2 {0.500 Density} bind def
/Pattern3 {0.750 Density} bind def
/Pattern4 {0.125 Density} bind def
/Pattern5 {0.375 Density} bind def
/Pattern6 {0.625 Density} bind def
/Pattern7 {0.875 Density} bind def
} def
%
% Now test for support of Level 2 code
%
Level1 {Level1PatternFill} {Level2PatternFill} ifelse
%
/Symbol-Oblique /Symbol findfont [1 0 .167 1 0 0] makefont
dup length dict begin {1 index /FID eq {pop pop} {def} ifelse} forall
currentdict end definefont pop
%
/MFshow {
   { dup 5 get 3 ge
     { 5 get 3 eq {gsave} {grestore} ifelse }
     {dup dup 0 get findfont exch 1 get scalefont setfont
     [ currentpoint ] exch dup 2 get 0 exch R dup 5 get 2 ne {dup dup 6
     get exch 4 get {textshow} {stringwidth pop 0 R} ifelse }if dup 5 get 0 eq
     {dup 3 get {2 get neg 0 exch R pop} {pop aload pop M} ifelse} {dup 5
     get 1 eq {dup 2 get exch dup 3 get exch 6 get stringwidth pop -2 div
     dup 0 R} {dup 6 get stringwidth pop -2 div 0 R 6 get
     textshow 2 index {aload pop M neg 3 -1 roll neg R pop pop} {pop pop pop
     pop aload pop M} ifelse }ifelse }ifelse }
     ifelse }
   forall} def
/Gswidth {dup type /stringtype eq {stringwidth} {pop (n) stringwidth} ifelse} def
/MFwidth {0 exch { dup 5 get 3 ge { 5 get 3 eq { 0 } { pop } ifelse }
 {dup 3 get{dup dup 0 get findfont exch 1 get scalefont setfont
     6 get Gswidth pop add} {pop} ifelse} ifelse} forall} def
/MLshow { currentpoint stroke M
  0 exch R
  Blacktext {gsave 0 setgray MFshow grestore} {MFshow} ifelse } bind def
/MRshow { currentpoint stroke M
  exch dup MFwidth neg 3 -1 roll R
  Blacktext {gsave 0 setgray MFshow grestore} {MFshow} ifelse } bind def
/MCshow { currentpoint stroke M
  exch dup MFwidth -2 div 3 -1 roll R
  Blacktext {gsave 0 setgray MFshow grestore} {MFshow} ifelse } bind def
/XYsave    { [( ) 1 2 true false 3 ()] } bind def
/XYrestore { [( ) 1 2 true false 4 ()] } bind def
Level1 SuppressPDFMark or 
{} {
/SDict 10 dict def
systemdict /pdfmark known not {
  userdict /pdfmark systemdict /cleartomark get put
} if
SDict begin [
  /Title (TcpNewReno-download-finishtime-25UE-panoramic.eps)
  /Subject (gnuplot plot)
  /Creator (gnuplot 5.0 patchlevel 3)
  /Author (nat)
%  /Producer (gnuplot)
%  /Keywords ()
  /CreationDate (Tue Jun  7 16:10:53 2016)
  /DOCINFO pdfmark
end
} ifelse
%
% Support for boxed text - Ethan A Merritt May 2005
%
/InitTextBox { userdict /TBy2 3 -1 roll put userdict /TBx2 3 -1 roll put
           userdict /TBy1 3 -1 roll put userdict /TBx1 3 -1 roll put
	   /Boxing true def } def
/ExtendTextBox { Boxing
    { gsave dup false charpath pathbbox
      dup TBy2 gt {userdict /TBy2 3 -1 roll put} {pop} ifelse
      dup TBx2 gt {userdict /TBx2 3 -1 roll put} {pop} ifelse
      dup TBy1 lt {userdict /TBy1 3 -1 roll put} {pop} ifelse
      dup TBx1 lt {userdict /TBx1 3 -1 roll put} {pop} ifelse
      grestore } if } def
/PopTextBox { newpath TBx1 TBxmargin sub TBy1 TBymargin sub M
               TBx1 TBxmargin sub TBy2 TBymargin add L
	       TBx2 TBxmargin add TBy2 TBymargin add L
	       TBx2 TBxmargin add TBy1 TBymargin sub L closepath } def
/DrawTextBox { PopTextBox stroke /Boxing false def} def
/FillTextBox { gsave PopTextBox 1 1 1 setrgbcolor fill grestore /Boxing false def} def
0 0 0 0 InitTextBox
/TBxmargin 20 def
/TBymargin 20 def
/Boxing false def
/textshow { ExtendTextBox Gshow } def
%
% redundant definitions for compatibility with prologue.ps older than 5.0.2
/LTB {BL [] LCb DL} def
/LTb {PL [] LCb DL} def
end
%%EndProlog
%%Page: 1 1
gnudict begin
gsave
doclip
50 50 translate
0.050 0.050 scale
0 setgray
newpath
(Arial) findfont 200 scalefont setfont
BackgroundColor 0 lt 3 1 roll 0 lt exch 0 lt or or not {BackgroundColor C 1.000 0 0 14400.00 5040.00 BoxColFill} if
1.000 UL
LTb
0.00 0.00 0.00 C 0.500 UL
LTa
0.50 0.50 0.50 C 980 1000 M
12139 0 V
stroke
1.000 UL
LTb
0.00 0.00 0.00 C 980 1000 M
63 0 V
stroke
860 1000 M
[ [(Arial) 200.0 0.0 true true 0 ( 0)]
] -66.7 MRshow
1.000 UL
LTb
0.00 0.00 0.00 C 0.500 UL
LTa
0.50 0.50 0.50 C 980 1475 M
12139 0 V
stroke
1.000 UL
LTb
0.00 0.00 0.00 C 980 1475 M
63 0 V
stroke
860 1475 M
[ [(Arial) 200.0 0.0 true true 0 ( 20)]
] -66.7 MRshow
1.000 UL
LTb
0.00 0.00 0.00 C 0.500 UL
LTa
0.50 0.50 0.50 C 980 1950 M
12139 0 V
stroke
1.000 UL
LTb
0.00 0.00 0.00 C 980 1950 M
63 0 V
stroke
860 1950 M
[ [(Arial) 200.0 0.0 true true 0 ( 40)]
] -66.7 MRshow
1.000 UL
LTb
0.00 0.00 0.00 C 0.500 UL
LTa
0.50 0.50 0.50 C 980 2425 M
12139 0 V
stroke
1.000 UL
LTb
0.00 0.00 0.00 C 980 2425 M
63 0 V
stroke
860 2425 M
[ [(Arial) 200.0 0.0 true true 0 ( 60)]
] -66.7 MRshow
1.000 UL
LTb
0.00 0.00 0.00 C 0.500 UL
LTa
0.50 0.50 0.50 C 980 2900 M
12139 0 V
stroke
1.000 UL
LTb
0.00 0.00 0.00 C 980 2900 M
63 0 V
stroke
860 2900 M
[ [(Arial) 200.0 0.0 true true 0 ( 80)]
] -66.7 MRshow
1.000 UL
LTb
0.00 0.00 0.00 C 0.500 UL
LTa
0.50 0.50 0.50 C 980 3374 M
12139 0 V
stroke
1.000 UL
LTb
0.00 0.00 0.00 C 980 3374 M
63 0 V
stroke
860 3374 M
[ [(Arial) 200.0 0.0 true true 0 ( 100)]
] -66.7 MRshow
1.000 UL
LTb
0.00 0.00 0.00 C 0.500 UL
LTa
0.50 0.50 0.50 C 980 3849 M
12139 0 V
stroke
1.000 UL
LTb
0.00 0.00 0.00 C 980 3849 M
63 0 V
stroke
860 3849 M
[ [(Arial) 200.0 0.0 true true 0 ( 120)]
] -66.7 MRshow
1.000 UL
LTb
0.00 0.00 0.00 C 0.500 UL
LTa
0.50 0.50 0.50 C 980 4324 M
12139 0 V
stroke
1.000 UL
LTb
0.00 0.00 0.00 C 980 4324 M
63 0 V
stroke
860 4324 M
[ [(Arial) 200.0 0.0 true true 0 ( 140)]
] -66.7 MRshow
1.000 UL
LTb
0.00 0.00 0.00 C 0.500 UL
LTa
0.50 0.50 0.50 C 980 4799 M
12139 0 V
stroke
1.000 UL
LTb
0.00 0.00 0.00 C 980 4799 M
63 0 V
stroke
860 4799 M
[ [(Arial) 200.0 0.0 true true 0 ( 160)]
] -66.7 MRshow
1.000 UL
LTb
0.00 0.00 0.00 C 0.500 UL
LTa
0.50 0.50 0.50 C 1235 1000 M
0 3799 V
stroke
1.000 UL
LTb
0.00 0.00 0.00 C 1235 1000 M
0 63 V
0 3736 R
0 -63 V
stroke
1235 800 M
[ [(Arial) 200.0 0.0 true true 0 ( 60)]
] -66.7 MCshow
1.000 UL
LTb
0.00 0.00 0.00 C 0.500 UL
LTa
0.50 0.50 0.50 C 1847 1000 M
0 3799 V
stroke
1.000 UL
LTb
0.00 0.00 0.00 C 1847 1000 M
0 63 V
0 3736 R
0 -63 V
stroke
1847 800 M
[ [(Arial) 200.0 0.0 true true 0 ( 120)]
] -66.7 MCshow
1.000 UL
LTb
0.00 0.00 0.00 C 0.500 UL
LTa
0.50 0.50 0.50 C 2459 1000 M
0 3799 V
stroke
1.000 UL
LTb
0.00 0.00 0.00 C 2459 1000 M
0 63 V
0 3736 R
0 -63 V
stroke
2459 800 M
[ [(Arial) 200.0 0.0 true true 0 ( 180)]
] -66.7 MCshow
1.000 UL
LTb
0.00 0.00 0.00 C 0.500 UL
LTa
0.50 0.50 0.50 C 3071 1000 M
0 3799 V
stroke
1.000 UL
LTb
0.00 0.00 0.00 C 3071 1000 M
0 63 V
0 3736 R
0 -63 V
stroke
3071 800 M
[ [(Arial) 200.0 0.0 true true 0 ( 240)]
] -66.7 MCshow
1.000 UL
LTb
0.00 0.00 0.00 C 0.500 UL
LTa
0.50 0.50 0.50 C 3683 1000 M
0 3799 V
stroke
1.000 UL
LTb
0.00 0.00 0.00 C 3683 1000 M
0 63 V
0 3736 R
0 -63 V
stroke
3683 800 M
[ [(Arial) 200.0 0.0 true true 0 ( 300)]
] -66.7 MCshow
1.000 UL
LTb
0.00 0.00 0.00 C 0.500 UL
LTa
0.50 0.50 0.50 C 4295 1000 M
0 3799 V
stroke
1.000 UL
LTb
0.00 0.00 0.00 C 4295 1000 M
0 63 V
0 3736 R
0 -63 V
stroke
4295 800 M
[ [(Arial) 200.0 0.0 true true 0 ( 360)]
] -66.7 MCshow
1.000 UL
LTb
0.00 0.00 0.00 C 0.500 UL
LTa
0.50 0.50 0.50 C 4907 1000 M
0 3799 V
stroke
1.000 UL
LTb
0.00 0.00 0.00 C 4907 1000 M
0 63 V
0 3736 R
0 -63 V
stroke
4907 800 M
[ [(Arial) 200.0 0.0 true true 0 ( 420)]
] -66.7 MCshow
1.000 UL
LTb
0.00 0.00 0.00 C 0.500 UL
LTa
0.50 0.50 0.50 C 5519 1000 M
0 3799 V
stroke
1.000 UL
LTb
0.00 0.00 0.00 C 5519 1000 M
0 63 V
0 3736 R
0 -63 V
stroke
5519 800 M
[ [(Arial) 200.0 0.0 true true 0 ( 480)]
] -66.7 MCshow
1.000 UL
LTb
0.00 0.00 0.00 C 0.500 UL
LTa
0.50 0.50 0.50 C 6131 1000 M
0 3799 V
stroke
1.000 UL
LTb
0.00 0.00 0.00 C 6131 1000 M
0 63 V
0 3736 R
0 -63 V
stroke
6131 800 M
[ [(Arial) 200.0 0.0 true true 0 ( 540)]
] -66.7 MCshow
1.000 UL
LTb
0.00 0.00 0.00 C 0.500 UL
LTa
0.50 0.50 0.50 C 6743 1000 M
0 3799 V
stroke
1.000 UL
LTb
0.00 0.00 0.00 C 6743 1000 M
0 63 V
0 3736 R
0 -63 V
stroke
6743 800 M
[ [(Arial) 200.0 0.0 true true 0 ( 600)]
] -66.7 MCshow
1.000 UL
LTb
0.00 0.00 0.00 C 0.500 UL
LTa
0.50 0.50 0.50 C 7356 1000 M
0 3799 V
stroke
1.000 UL
LTb
0.00 0.00 0.00 C 7356 1000 M
0 63 V
0 3736 R
0 -63 V
stroke
7356 800 M
[ [(Arial) 200.0 0.0 true true 0 ( 660)]
] -66.7 MCshow
1.000 UL
LTb
0.00 0.00 0.00 C 0.500 UL
LTa
0.50 0.50 0.50 C 7968 1000 M
0 3799 V
stroke
1.000 UL
LTb
0.00 0.00 0.00 C 7968 1000 M
0 63 V
0 3736 R
0 -63 V
stroke
7968 800 M
[ [(Arial) 200.0 0.0 true true 0 ( 720)]
] -66.7 MCshow
1.000 UL
LTb
0.00 0.00 0.00 C 0.500 UL
LTa
0.50 0.50 0.50 C 8580 1000 M
0 3799 V
stroke
1.000 UL
LTb
0.00 0.00 0.00 C 8580 1000 M
0 63 V
0 3736 R
0 -63 V
stroke
8580 800 M
[ [(Arial) 200.0 0.0 true true 0 ( 780)]
] -66.7 MCshow
1.000 UL
LTb
0.00 0.00 0.00 C 0.500 UL
LTa
0.50 0.50 0.50 C 9192 1000 M
0 3799 V
stroke
1.000 UL
LTb
0.00 0.00 0.00 C 9192 1000 M
0 63 V
0 3736 R
0 -63 V
stroke
9192 800 M
[ [(Arial) 200.0 0.0 true true 0 ( 840)]
] -66.7 MCshow
1.000 UL
LTb
0.00 0.00 0.00 C 0.500 UL
LTa
0.50 0.50 0.50 C 9804 1000 M
0 3799 V
stroke
1.000 UL
LTb
0.00 0.00 0.00 C 9804 1000 M
0 63 V
0 3736 R
0 -63 V
stroke
9804 800 M
[ [(Arial) 200.0 0.0 true true 0 ( 900)]
] -66.7 MCshow
1.000 UL
LTb
0.00 0.00 0.00 C 0.500 UL
LTa
0.50 0.50 0.50 C 10416 1000 M
0 3799 V
stroke
1.000 UL
LTb
0.00 0.00 0.00 C 10416 1000 M
0 63 V
0 3736 R
0 -63 V
stroke
10416 800 M
[ [(Arial) 200.0 0.0 true true 0 ( 960)]
] -66.7 MCshow
1.000 UL
LTb
0.00 0.00 0.00 C 0.500 UL
LTa
0.50 0.50 0.50 C 11028 1000 M
0 3799 V
stroke
1.000 UL
LTb
0.00 0.00 0.00 C 11028 1000 M
0 63 V
0 3736 R
0 -63 V
stroke
11028 800 M
[ [(Arial) 200.0 0.0 true true 0 ( 1020)]
] -66.7 MCshow
1.000 UL
LTb
0.00 0.00 0.00 C 0.500 UL
LTa
0.50 0.50 0.50 C 11640 1000 M
0 3799 V
stroke
1.000 UL
LTb
0.00 0.00 0.00 C 11640 1000 M
0 63 V
0 3736 R
0 -63 V
stroke
11640 800 M
[ [(Arial) 200.0 0.0 true true 0 ( 1080)]
] -66.7 MCshow
1.000 UL
LTb
0.00 0.00 0.00 C 0.500 UL
LTa
0.50 0.50 0.50 C 12252 1000 M
0 3799 V
stroke
1.000 UL
LTb
0.00 0.00 0.00 C 12252 1000 M
0 63 V
0 3736 R
0 -63 V
stroke
12252 800 M
[ [(Arial) 200.0 0.0 true true 0 ( 1140)]
] -66.7 MCshow
1.000 UL
LTb
0.00 0.00 0.00 C 0.500 UL
LTa
0.50 0.50 0.50 C 12864 1000 M
0 3799 V
stroke
1.000 UL
LTb
0.00 0.00 0.00 C 12864 1000 M
0 63 V
0 3736 R
0 -63 V
stroke
12864 800 M
[ [(Arial) 200.0 0.0 true true 0 ( 1200)]
] -66.7 MCshow
1.000 UL
LTb
0.00 0.00 0.00 C 13119 1000 M
-63 0 V
stroke
13239 1000 M
[ [(Arial) 200.0 0.0 true true 0 ( 0)]
] -66.7 MLshow
1.000 UL
LTb
0.00 0.00 0.00 C 13119 1760 M
-63 0 V
stroke
13239 1760 M
[ [(Arial) 200.0 0.0 true true 0 ( 20)]
] -66.7 MLshow
1.000 UL
LTb
0.00 0.00 0.00 C 13119 2520 M
-63 0 V
stroke
13239 2520 M
[ [(Arial) 200.0 0.0 true true 0 ( 40)]
] -66.7 MLshow
1.000 UL
LTb
0.00 0.00 0.00 C 13119 3279 M
-63 0 V
stroke
13239 3279 M
[ [(Arial) 200.0 0.0 true true 0 ( 60)]
] -66.7 MLshow
1.000 UL
LTb
0.00 0.00 0.00 C 13119 4039 M
-63 0 V
stroke
13239 4039 M
[ [(Arial) 200.0 0.0 true true 0 ( 80)]
] -66.7 MLshow
1.000 UL
LTb
0.00 0.00 0.00 C 13119 4799 M
-63 0 V
stroke
13239 4799 M
[ [(Arial) 200.0 0.0 true true 0 ( 100)]
] -66.7 MLshow
1.000 UL
LTb
0.00 0.00 0.00 C 1.000 UL
LTB
0.00 0.00 0.00 C 980 4799 M
0 -3799 V
12139 0 V
0 3799 R
980 4799 M
1.000 UP
stroke
LTb
0.00 0.00 0.00 C LCb setrgbcolor
160 2899 M
currentpoint gsave translate -270 rotate 0 0 moveto
[ [(Arial) 200.0 0.0 true true 0 (File download time \(s\))]
] -66.7 MCshow
grestore
LTb
LCb setrgbcolor
13938 2899 M
currentpoint gsave translate -270 rotate 0 0 moveto
[ [(Arial) 200.0 0.0 true true 0 (Average UDP throughput [%])]
] -66.7 MCshow
grestore
LTb
LCb setrgbcolor
7049 500 M
[ [(Arial) 200.0 0.0 true true 0 (Local Backhaul traffic \(Mb/s\))]
] -66.7 MCshow
LTb
% Begin plot #1
1.000 UL
LTb
0.60 0.60 0.00 C LCb setrgbcolor
4714 333 M
[ [(Arial) 180.0 0.0 true true 0 (file download time    :   olsr)]
] -60.0 MRshow
1.000 UL
LTb
0.60 0.60 0.00 C 4822 288 333 90 80 -45 0 PatternFill
4822 288 N
333 0 V
0 90 V
-333 0 V
0 -90 V
Z stroke
1.000 UL
LTb
0.60 0.60 0.00 C 990 1308 154 258 80 -45 0 PatternFill
1067 1086 M
0 222 V
0 258 R
0 148 V
stroke
990 1308 N
154 0 V
0 258 V
-154 0 V
0 -258 V
Z stroke
990 1714 M
154 0 V
990 1086 M
154 0 V
stroke
1602 1300 154 285 80 -45 0 PatternFill
1679 1086 M
0 214 V
0 285 R
0 241 V
stroke
1602 1300 N
154 0 V
0 285 V
-154 0 V
0 -285 V
Z stroke
1602 1826 M
154 0 V
1602 1086 M
154 0 V
stroke
2214 1347 154 195 80 -45 0 PatternFill
2291 1086 M
0 261 V
0 195 R
0 166 V
stroke
2214 1347 N
154 0 V
0 195 V
-154 0 V
0 -195 V
Z stroke
2214 1708 M
154 0 V
2214 1086 M
154 0 V
stroke
2826 1332 154 308 80 -45 0 PatternFill
2903 1086 M
0 246 V
0 308 R
0 181 V
stroke
2826 1332 N
154 0 V
0 308 V
-154 0 V
0 -308 V
Z stroke
2826 1821 M
154 0 V
2826 1086 M
154 0 V
stroke
3438 1372 154 161 80 -45 0 PatternFill
3515 1086 M
0 286 V
0 161 R
0 205 V
stroke
3438 1372 N
154 0 V
0 161 V
-154 0 V
0 -161 V
Z stroke
3438 1738 M
154 0 V
3438 1086 M
154 0 V
stroke
4050 1341 154 253 80 -45 0 PatternFill
4127 1086 M
0 255 V
0 253 R
0 196 V
stroke
4050 1341 N
154 0 V
0 253 V
-154 0 V
0 -253 V
Z stroke
4050 1790 M
154 0 V
4050 1086 M
154 0 V
stroke
4663 1296 154 250 80 -45 0 PatternFill
4740 1086 M
0 210 V
0 250 R
0 307 V
stroke
4663 1296 N
154 0 V
0 250 V
-154 0 V
0 -250 V
Z stroke
4663 1853 M
154 0 V
4663 1086 M
154 0 V
stroke
5275 1316 154 213 80 -45 0 PatternFill
5352 1086 M
0 230 V
0 213 R
0 161 V
stroke
5275 1316 N
154 0 V
0 213 V
-154 0 V
0 -213 V
Z stroke
5275 1690 M
154 0 V
5275 1086 M
154 0 V
stroke
5887 1398 154 149 80 -45 0 PatternFill
5964 1086 M
0 312 V
0 149 R
0 157 V
stroke
5887 1398 N
154 0 V
0 149 V
-154 0 V
0 -149 V
Z stroke
5887 1704 M
154 0 V
5887 1086 M
154 0 V
stroke
6499 1328 154 218 80 -45 0 PatternFill
6576 1086 M
0 242 V
0 218 R
0 199 V
stroke
6499 1328 N
154 0 V
0 218 V
-154 0 V
0 -218 V
Z stroke
6499 1745 M
154 0 V
6499 1086 M
154 0 V
stroke
7111 1339 154 212 80 -45 0 PatternFill
7188 1086 M
0 253 V
0 212 R
0 120 V
stroke
7111 1339 N
154 0 V
0 212 V
-154 0 V
0 -212 V
Z stroke
7111 1671 M
154 0 V
7111 1086 M
154 0 V
stroke
7723 1325 154 243 80 -45 0 PatternFill
7800 1086 M
0 239 V
0 243 R
0 218 V
stroke
7723 1325 N
154 0 V
0 243 V
-154 0 V
0 -243 V
Z stroke
7723 1786 M
154 0 V
7723 1086 M
154 0 V
stroke
8335 1329 154 250 80 -45 0 PatternFill
8412 1086 M
0 243 V
0 250 R
0 273 V
stroke
8335 1329 N
154 0 V
0 250 V
-154 0 V
0 -250 V
Z stroke
8335 1852 M
154 0 V
8335 1086 M
154 0 V
stroke
8947 1345 154 218 80 -45 0 PatternFill
9024 1086 M
0 259 V
0 218 R
0 152 V
stroke
8947 1345 N
154 0 V
0 218 V
-154 0 V
0 -218 V
Z stroke
8947 1715 M
154 0 V
8947 1086 M
154 0 V
stroke
9559 1294 154 241 80 -45 0 PatternFill
9636 1086 M
0 208 V
0 241 R
0 209 V
stroke
9559 1294 N
154 0 V
0 241 V
-154 0 V
0 -241 V
Z stroke
9559 1744 M
154 0 V
9559 1086 M
154 0 V
stroke
10171 1333 154 215 80 -45 0 PatternFill
10248 1086 M
0 247 V
0 215 R
0 170 V
stroke
10171 1333 N
154 0 V
0 215 V
-154 0 V
0 -215 V
Z stroke
10171 1718 M
154 0 V
-154 -632 R
154 0 V
stroke
10783 1315 154 250 80 -45 0 PatternFill
10860 1086 M
0 229 V
0 250 R
0 191 V
stroke
10783 1315 N
154 0 V
0 250 V
-154 0 V
0 -250 V
Z stroke
10783 1756 M
154 0 V
-154 -670 R
154 0 V
stroke
11395 1326 154 226 80 -45 0 PatternFill
11472 1086 M
0 240 V
0 226 R
0 252 V
stroke
11395 1326 N
154 0 V
0 226 V
-154 0 V
0 -226 V
Z stroke
11395 1804 M
154 0 V
-154 -718 R
154 0 V
stroke
12007 1351 154 189 80 -45 0 PatternFill
12084 1086 M
0 265 V
0 189 R
0 275 V
stroke
12007 1351 N
154 0 V
0 189 V
-154 0 V
0 -189 V
Z stroke
12007 1815 M
154 0 V
-154 -729 R
154 0 V
stroke
12619 1323 154 255 80 -45 0 PatternFill
12696 1086 M
0 237 V
0 255 R
0 300 V
stroke
12619 1323 N
154 0 V
0 255 V
-154 0 V
0 -255 V
Z stroke
12619 1878 M
154 0 V
-154 -792 R
154 0 V
% End plot #1
% Begin plot #2
stroke
LTb
LCb setrgbcolor

 /TransparentPatterns true def
990 1421 154 0 40 30 0 PatternFill
1067 1421 M
stroke
990 1421 N
154 0 V
-154 0 V
Z stroke
990 1421 M
154 0 V
-154 0 R
154 0 V
stroke

 /TransparentPatterns true def
1602 1442 154 0 40 30 0 PatternFill
1679 1442 M
stroke
1602 1442 N
154 0 V
-154 0 V
Z stroke
1602 1442 M
154 0 V
-154 0 R
154 0 V
stroke

 /TransparentPatterns true def
2214 1438 154 0 40 30 0 PatternFill
2291 1438 M
stroke
2214 1438 N
154 0 V
-154 0 V
Z stroke
2214 1438 M
154 0 V
-154 0 R
154 0 V
stroke

 /TransparentPatterns true def
2826 1447 154 0 40 30 0 PatternFill
2903 1447 M
stroke
2826 1447 N
154 0 V
-154 0 V
Z stroke
2826 1447 M
154 0 V
-154 0 R
154 0 V
stroke

 /TransparentPatterns true def
3438 1437 154 0 40 30 0 PatternFill
3515 1437 M
stroke
3438 1437 N
154 0 V
-154 0 V
Z stroke
3438 1437 M
154 0 V
-154 0 R
154 0 V
stroke

 /TransparentPatterns true def
4050 1445 154 0 40 30 0 PatternFill
4127 1445 M
stroke
4050 1445 N
154 0 V
-154 0 V
Z stroke
4050 1445 M
154 0 V
-154 0 R
154 0 V
stroke

 /TransparentPatterns true def
4663 1425 154 0 40 30 0 PatternFill
4740 1425 M
stroke
4663 1425 N
154 0 V
-154 0 V
Z stroke
4663 1425 M
154 0 V
-154 0 R
154 0 V
stroke

 /TransparentPatterns true def
5275 1428 154 0 40 30 0 PatternFill
5352 1428 M
stroke
5275 1428 N
154 0 V
-154 0 V
Z stroke
5275 1428 M
154 0 V
-154 0 R
154 0 V
stroke

 /TransparentPatterns true def
5887 1450 154 0 40 30 0 PatternFill
5964 1450 M
stroke
5887 1450 N
154 0 V
-154 0 V
Z stroke
5887 1450 M
154 0 V
-154 0 R
154 0 V
stroke

 /TransparentPatterns true def
6499 1426 154 0 40 30 0 PatternFill
6576 1426 M
stroke
6499 1426 N
154 0 V
-154 0 V
Z stroke
6499 1426 M
154 0 V
-154 0 R
154 0 V
stroke

 /TransparentPatterns true def
7111 1429 154 0 40 30 0 PatternFill
7188 1429 M
stroke
7111 1429 N
154 0 V
-154 0 V
Z stroke
7111 1429 M
154 0 V
-154 0 R
154 0 V
stroke

 /TransparentPatterns true def
7723 1433 154 0 40 30 0 PatternFill
7800 1433 M
stroke
7723 1433 N
154 0 V
-154 0 V
Z stroke
7723 1433 M
154 0 V
-154 0 R
154 0 V
stroke

 /TransparentPatterns true def
8335 1444 154 0 40 30 0 PatternFill
8412 1444 M
stroke
8335 1444 N
154 0 V
-154 0 V
Z stroke
8335 1444 M
154 0 V
-154 0 R
154 0 V
stroke

 /TransparentPatterns true def
8947 1434 154 0 40 30 0 PatternFill
9024 1434 M
stroke
8947 1434 N
154 0 V
-154 0 V
Z stroke
8947 1434 M
154 0 V
-154 0 R
154 0 V
stroke

 /TransparentPatterns true def
9559 1424 154 0 40 30 0 PatternFill
9636 1424 M
stroke
9559 1424 N
154 0 V
-154 0 V
Z stroke
9559 1424 M
154 0 V
-154 0 R
154 0 V
stroke

 /TransparentPatterns true def
10171 1440 154 0 40 30 0 PatternFill
10248 1440 M
stroke
10171 1440 N
154 0 V
-154 0 V
Z stroke
10171 1440 M
154 0 V
-154 0 R
154 0 V
stroke

 /TransparentPatterns true def
10783 1435 154 0 40 30 0 PatternFill
10860 1435 M
stroke
10783 1435 N
154 0 V
-154 0 V
Z stroke
10783 1435 M
154 0 V
-154 0 R
154 0 V
stroke

 /TransparentPatterns true def
11395 1431 154 0 40 30 0 PatternFill
11472 1431 M
stroke
11395 1431 N
154 0 V
-154 0 V
Z stroke
11395 1431 M
154 0 V
-154 0 R
154 0 V
stroke

 /TransparentPatterns true def
12007 1440 154 0 40 30 0 PatternFill
12084 1440 M
stroke
12007 1440 N
154 0 V
-154 0 V
Z stroke
12007 1440 M
154 0 V
-154 0 R
154 0 V
stroke

 /TransparentPatterns true def
12619 1454 154 0 40 30 0 PatternFill
12696 1454 M
stroke
12619 1454 N
154 0 V
-154 0 V
Z stroke
12619 1454 M
154 0 V
-154 0 R
154 0 V
% End plot #2
% Begin plot #3
2.000 UP
stroke
LTa
0.60 0.60 0.00 C LCb setrgbcolor
4714 153 M
[ [(Arial) 180.0 0.0 true true 0 (avg. throughput :         )]
] -60.0 MRshow
2.000 UP
1.000 UL
LTa
0.60 0.60 0.00 C 4822 153 M
333 0 V
1067 3697 M
612 124 V
612 -149 V
612 120 V
612 -83 V
612 83 V
612 52 V
612 -170 V
612 0 V
612 63 V
612 -133 V
612 161 V
612 78 V
612 -136 V
612 0 V
612 -32 V
613 61 V
612 57 V
612 0 V
612 73 V
1067 3697 Box
1679 3821 Box
2291 3672 Box
2903 3792 Box
3515 3709 Box
4127 3792 Box
4739 3844 Box
5351 3674 Box
5963 3674 Box
6575 3737 Box
7187 3604 Box
7799 3765 Box
8411 3843 Box
9023 3707 Box
9635 3707 Box
10247 3675 Box
10860 3736 Box
11472 3793 Box
12084 3793 Box
12696 3866 Box
4988 153 Box
% End plot #3
% Begin plot #4
1.000 UL
LTb
0.00 0.00 0.63 C LCb setrgbcolor
8287 333 M
[ [(Arial) 180.0 0.0 true true 0 (per-packet)]
] -60.0 MRshow
1.000 UL
LTb
0.00 0.00 0.63 C 8395 288 333 90 80 45 0 PatternFill
8395 288 N
333 0 V
0 90 V
-333 0 V
0 -90 V
Z stroke
1.000 UL
LTb
0.00 0.00 0.63 C 1159 1124 154 1466 80 45 0 PatternFill
1236 1082 M
0 42 V
0 1466 R
0 366 V
stroke
1159 1124 N
154 0 V
0 1466 V
-154 0 V
0 -1466 V
Z stroke
1159 2956 M
154 0 V
1159 1082 M
154 0 V
stroke
1771 1112 154 1504 80 45 0 PatternFill
1848 1075 M
0 37 V
0 1504 R
0 272 V
stroke
1771 1112 N
154 0 V
0 1504 V
-154 0 V
0 -1504 V
Z stroke
1771 2888 M
154 0 V
1771 1075 M
154 0 V
stroke
2383 1116 154 1398 80 45 0 PatternFill
2460 1077 M
0 39 V
0 1398 R
0 305 V
stroke
2383 1116 N
154 0 V
0 1398 V
-154 0 V
0 -1398 V
Z stroke
2383 2819 M
154 0 V
2383 1077 M
154 0 V
stroke
2995 1114 154 1413 80 45 0 PatternFill
3072 1076 M
0 38 V
0 1413 R
0 419 V
stroke
2995 1114 N
154 0 V
0 1413 V
-154 0 V
0 -1413 V
Z stroke
2995 2946 M
154 0 V
2995 1076 M
154 0 V
stroke
3607 1114 154 1416 80 45 0 PatternFill
3684 1076 M
0 38 V
0 1416 R
0 416 V
stroke
3607 1114 N
154 0 V
0 1416 V
-154 0 V
0 -1416 V
Z stroke
3607 2946 M
154 0 V
3607 1076 M
154 0 V
stroke
4219 1134 154 1359 80 45 0 PatternFill
4296 1070 M
0 64 V
0 1359 R
0 349 V
stroke
4219 1134 N
154 0 V
0 1359 V
-154 0 V
0 -1359 V
Z stroke
4219 2842 M
154 0 V
4219 1070 M
154 0 V
stroke
4831 1103 154 1541 80 45 0 PatternFill
4908 1077 M
0 26 V
0 1541 R
0 199 V
stroke
4831 1103 N
154 0 V
0 1541 V
-154 0 V
0 -1541 V
Z stroke
4831 2843 M
154 0 V
4831 1077 M
154 0 V
stroke
5443 1125 154 1405 80 45 0 PatternFill
5520 1073 M
0 52 V
0 1405 R
0 477 V
stroke
5443 1125 N
154 0 V
0 1405 V
-154 0 V
0 -1405 V
Z stroke
5443 3007 M
154 0 V
5443 1073 M
154 0 V
stroke
6055 1104 154 1426 80 45 0 PatternFill
6132 1082 M
0 22 V
0 1426 R
0 389 V
stroke
6055 1104 N
154 0 V
0 1426 V
-154 0 V
0 -1426 V
Z stroke
6055 2919 M
154 0 V
6055 1082 M
154 0 V
stroke
6667 1119 154 1414 80 45 0 PatternFill
6744 1068 M
0 51 V
0 1414 R
0 384 V
stroke
6667 1119 N
154 0 V
0 1414 V
-154 0 V
0 -1414 V
Z stroke
6667 2917 M
154 0 V
6667 1068 M
154 0 V
stroke
7279 1097 154 1428 80 45 0 PatternFill
7356 1052 M
0 45 V
0 1428 R
0 402 V
stroke
7279 1097 N
154 0 V
0 1428 V
-154 0 V
0 -1428 V
Z stroke
7279 2927 M
154 0 V
7279 1052 M
154 0 V
stroke
7891 1107 154 1456 80 45 0 PatternFill
7968 1073 M
0 34 V
0 1456 R
0 304 V
stroke
7891 1107 N
154 0 V
0 1456 V
-154 0 V
0 -1456 V
Z stroke
7891 2867 M
154 0 V
7891 1073 M
154 0 V
stroke
8503 1151 154 1337 80 45 0 PatternFill
8580 1081 M
0 70 V
0 1337 R
0 361 V
stroke
8503 1151 N
154 0 V
0 1337 V
-154 0 V
0 -1337 V
Z stroke
8503 2849 M
154 0 V
8503 1081 M
154 0 V
stroke
9115 1102 154 1325 80 45 0 PatternFill
9192 1072 M
0 30 V
0 1325 R
0 496 V
stroke
9115 1102 N
154 0 V
0 1325 V
-154 0 V
0 -1325 V
Z stroke
9115 2923 M
154 0 V
9115 1072 M
154 0 V
stroke
9727 1135 154 1285 80 45 0 PatternFill
9804 1071 M
0 64 V
0 1285 R
0 560 V
stroke
9727 1135 N
154 0 V
0 1285 V
-154 0 V
0 -1285 V
Z stroke
9727 2980 M
154 0 V
9727 1071 M
154 0 V
stroke
10339 1172 154 1388 80 45 0 PatternFill
10416 1082 M
0 90 V
0 1388 R
0 328 V
stroke
10339 1172 N
154 0 V
0 1388 V
-154 0 V
0 -1388 V
Z stroke
10339 2888 M
154 0 V
10339 1082 M
154 0 V
stroke
10951 1143 154 1364 80 45 0 PatternFill
11028 1085 M
0 58 V
0 1364 R
0 307 V
stroke
10951 1143 N
154 0 V
0 1364 V
-154 0 V
0 -1364 V
Z stroke
10951 2814 M
154 0 V
10951 1085 M
154 0 V
stroke
11563 1139 154 1314 80 45 0 PatternFill
11640 1073 M
0 66 V
0 1314 R
0 379 V
stroke
11563 1139 N
154 0 V
0 1314 V
-154 0 V
0 -1314 V
Z stroke
11563 2832 M
154 0 V
11563 1073 M
154 0 V
stroke
12175 1150 154 1274 80 45 0 PatternFill
12252 1102 M
0 48 V
0 1274 R
0 456 V
stroke
12175 1150 N
154 0 V
0 1274 V
-154 0 V
0 -1274 V
Z stroke
12175 2880 M
154 0 V
12175 1102 M
154 0 V
stroke
12787 1194 154 1265 80 45 0 PatternFill
12864 1076 M
0 118 V
0 1265 R
0 388 V
stroke
12787 1194 N
154 0 V
0 1265 V
-154 0 V
0 -1265 V
Z stroke
12787 2847 M
154 0 V
12787 1076 M
154 0 V
% End plot #4
% Begin plot #5
stroke
LTb
LCb setrgbcolor

 /TransparentPatterns true def
1159 1674 154 0 80 -45 0 PatternFill
1236 1674 M
stroke
1159 1674 N
154 0 V
-154 0 V
Z stroke
1159 1674 M
154 0 V
-154 0 R
154 0 V
stroke

 /TransparentPatterns true def
1771 1651 154 0 80 -45 0 PatternFill
1848 1651 M
stroke
1771 1651 N
154 0 V
-154 0 V
Z stroke
1771 1651 M
154 0 V
-154 0 R
154 0 V
stroke

 /TransparentPatterns true def
2383 1655 154 0 80 -45 0 PatternFill
2460 1655 M
stroke
2383 1655 N
154 0 V
-154 0 V
Z stroke
2383 1655 M
154 0 V
-154 0 R
154 0 V
stroke

 /TransparentPatterns true def
2995 1645 154 0 80 -45 0 PatternFill
3072 1645 M
stroke
2995 1645 N
154 0 V
-154 0 V
Z stroke
2995 1645 M
154 0 V
-154 0 R
154 0 V
stroke

 /TransparentPatterns true def
3607 1640 154 0 80 -45 0 PatternFill
3684 1640 M
stroke
3607 1640 N
154 0 V
-154 0 V
Z stroke
3607 1640 M
154 0 V
-154 0 R
154 0 V
stroke

 /TransparentPatterns true def
4219 1648 154 0 80 -45 0 PatternFill
4296 1648 M
stroke
4219 1648 N
154 0 V
-154 0 V
Z stroke
4219 1648 M
154 0 V
-154 0 R
154 0 V
stroke

 /TransparentPatterns true def
4831 1646 154 0 80 -45 0 PatternFill
4908 1646 M
stroke
4831 1646 N
154 0 V
-154 0 V
Z stroke
4831 1646 M
154 0 V
-154 0 R
154 0 V
stroke

 /TransparentPatterns true def
5443 1650 154 0 80 -45 0 PatternFill
5520 1650 M
stroke
5443 1650 N
154 0 V
-154 0 V
Z stroke
5443 1650 M
154 0 V
-154 0 R
154 0 V
stroke

 /TransparentPatterns true def
6055 1649 154 0 80 -45 0 PatternFill
6132 1649 M
stroke
6055 1649 N
154 0 V
-154 0 V
Z stroke
6055 1649 M
154 0 V
-154 0 R
154 0 V
stroke

 /TransparentPatterns true def
6667 1647 154 0 80 -45 0 PatternFill
6744 1647 M
stroke
6667 1647 N
154 0 V
-154 0 V
Z stroke
6667 1647 M
154 0 V
-154 0 R
154 0 V
stroke

 /TransparentPatterns true def
7279 1620 154 0 80 -45 0 PatternFill
7356 1620 M
stroke
7279 1620 N
154 0 V
-154 0 V
Z stroke
7279 1620 M
154 0 V
-154 0 R
154 0 V
stroke

 /TransparentPatterns true def
7891 1668 154 0 80 -45 0 PatternFill
7968 1668 M
stroke
7891 1668 N
154 0 V
-154 0 V
Z stroke
7891 1668 M
154 0 V
-154 0 R
154 0 V
stroke

 /TransparentPatterns true def
8503 1676 154 0 80 -45 0 PatternFill
8580 1676 M
stroke
8503 1676 N
154 0 V
-154 0 V
Z stroke
8503 1676 M
154 0 V
-154 0 R
154 0 V
stroke

 /TransparentPatterns true def
9115 1644 154 0 80 -45 0 PatternFill
9192 1644 M
stroke
9115 1644 N
154 0 V
-154 0 V
Z stroke
9115 1644 M
154 0 V
-154 0 R
154 0 V
stroke

 /TransparentPatterns true def
9727 1656 154 0 80 -45 0 PatternFill
9804 1656 M
stroke
9727 1656 N
154 0 V
-154 0 V
Z stroke
9727 1656 M
154 0 V
-154 0 R
154 0 V
stroke

 /TransparentPatterns true def
10339 1690 154 0 80 -45 0 PatternFill
10416 1690 M
stroke
10339 1690 N
154 0 V
-154 0 V
Z stroke
10339 1690 M
154 0 V
-154 0 R
154 0 V
stroke

 /TransparentPatterns true def
10951 1656 154 0 80 -45 0 PatternFill
11028 1656 M
stroke
10951 1656 N
154 0 V
-154 0 V
Z stroke
10951 1656 M
154 0 V
-154 0 R
154 0 V
stroke

 /TransparentPatterns true def
11563 1660 154 0 80 -45 0 PatternFill
11640 1660 M
stroke
11563 1660 N
154 0 V
-154 0 V
Z stroke
11563 1660 M
154 0 V
-154 0 R
154 0 V
stroke

 /TransparentPatterns true def
12175 1671 154 0 80 -45 0 PatternFill
12252 1671 M
stroke
12175 1671 N
154 0 V
-154 0 V
Z stroke
12175 1671 M
154 0 V
-154 0 R
154 0 V
stroke

 /TransparentPatterns true def
12787 1677 154 0 80 -45 0 PatternFill
12864 1677 M
stroke
12787 1677 N
154 0 V
-154 0 V
Z stroke
12787 1677 M
154 0 V
-154 0 R
154 0 V
% End plot #5
% Begin plot #6
2.000 UP
stroke
LTa
0.00 0.00 0.63 C LCb setrgbcolor
8287 153 M
[ [(Arial) 180.0 0.0 true true 0 ( )]
] -60.0 MRshow
2.000 UP
1.000 UL
LTa
0.00 0.00 0.63 C 8395 153 M
333 0 V
1235 4761 M
612 -9 V
612 -4 V
612 8 V
612 -3 V
612 -1 V
612 1 V
612 3 V
612 -1 V
612 -2 V
613 1 V
612 -2 V
612 0 V
612 2 V
612 1 V
612 -2 V
612 -2 V
612 1 V
612 1 V
612 -1 V
1235 4761 Circle
1847 4752 Circle
2459 4748 Circle
3071 4756 Circle
3683 4753 Circle
4295 4752 Circle
4907 4753 Circle
5519 4756 Circle
6131 4755 Circle
6743 4753 Circle
7356 4754 Circle
7968 4752 Circle
8580 4752 Circle
9192 4754 Circle
9804 4755 Circle
10416 4753 Circle
11028 4751 Circle
11640 4752 Circle
12252 4753 Circle
12864 4752 Circle
8561 153 Circle
% End plot #6
% Begin plot #7
1.000 UL
LTb
0.00 0.38 0.82 C LCb setrgbcolor
11860 333 M
[ [(Arial) 180.0 0.0 true true 0 (per-flow)]
] -60.0 MRshow
1.000 UL
LTb
0.00 0.38 0.82 C 11968 288 333 90 40 30 0 PatternFill
11968 288 N
333 0 V
0 90 V
-333 0 V
0 -90 V
Z stroke
1.000 UL
LTb
0.00 0.38 0.82 C 1327 1101 154 182 40 30 0 PatternFill
1404 1083 M
0 18 V
0 182 R
0 240 V
stroke
1327 1101 N
154 0 V
0 182 V
-154 0 V
0 -182 V
Z stroke
1327 1523 M
154 0 V
1327 1083 M
154 0 V
stroke
1939 1132 154 150 40 30 0 PatternFill
2016 1075 M
0 57 V
0 150 R
0 227 V
stroke
1939 1132 N
154 0 V
0 150 V
-154 0 V
0 -150 V
Z stroke
1939 1509 M
154 0 V
1939 1075 M
154 0 V
stroke
2551 1114 154 204 40 30 0 PatternFill
2628 1072 M
0 42 V
0 204 R
0 191 V
stroke
2551 1114 N
154 0 V
0 204 V
-154 0 V
0 -204 V
Z stroke
2551 1509 M
154 0 V
2551 1072 M
154 0 V
stroke
3163 1112 154 217 40 30 0 PatternFill
3240 1070 M
0 42 V
0 217 R
0 159 V
stroke
3163 1112 N
154 0 V
0 217 V
-154 0 V
0 -217 V
Z stroke
3163 1488 M
154 0 V
3163 1070 M
154 0 V
stroke
3775 1116 154 151 40 30 0 PatternFill
3852 1092 M
0 24 V
0 151 R
0 175 V
stroke
3775 1116 N
154 0 V
0 151 V
-154 0 V
0 -151 V
Z stroke
3775 1442 M
154 0 V
3775 1092 M
154 0 V
stroke
4387 1105 154 204 40 30 0 PatternFill
4464 1074 M
0 31 V
0 204 R
0 202 V
stroke
4387 1105 N
154 0 V
0 204 V
-154 0 V
0 -204 V
Z stroke
4387 1511 M
154 0 V
4387 1074 M
154 0 V
stroke
4999 1129 154 120 40 30 0 PatternFill
5076 1075 M
0 54 V
0 120 R
0 293 V
stroke
4999 1129 N
154 0 V
0 120 V
-154 0 V
0 -120 V
Z stroke
4999 1542 M
154 0 V
4999 1075 M
154 0 V
stroke
5611 1103 154 187 40 30 0 PatternFill
5688 1068 M
0 35 V
0 187 R
0 224 V
stroke
5611 1103 N
154 0 V
0 187 V
-154 0 V
0 -187 V
Z stroke
5611 1514 M
154 0 V
5611 1068 M
154 0 V
stroke
6223 1138 154 126 40 30 0 PatternFill
6300 1076 M
0 62 V
0 126 R
0 291 V
stroke
6223 1138 N
154 0 V
0 126 V
-154 0 V
0 -126 V
Z stroke
6223 1555 M
154 0 V
6223 1076 M
154 0 V
stroke
6835 1127 154 164 40 30 0 PatternFill
6912 1078 M
0 49 V
0 164 R
0 190 V
stroke
6835 1127 N
154 0 V
0 164 V
-154 0 V
0 -164 V
Z stroke
6835 1481 M
154 0 V
6835 1078 M
154 0 V
stroke
7447 1117 154 149 40 30 0 PatternFill
7524 1073 M
0 44 V
0 149 R
0 165 V
stroke
7447 1117 N
154 0 V
0 149 V
-154 0 V
0 -149 V
Z stroke
7447 1431 M
154 0 V
7447 1073 M
154 0 V
stroke
8059 1098 154 176 40 30 0 PatternFill
8136 1084 M
0 14 V
0 176 R
0 277 V
stroke
8059 1098 N
154 0 V
0 176 V
-154 0 V
0 -176 V
Z stroke
8059 1551 M
154 0 V
8059 1084 M
154 0 V
stroke
8671 1138 154 102 40 30 0 PatternFill
8748 1079 M
0 59 V
0 102 R
0 146 V
stroke
8671 1138 N
154 0 V
0 102 V
-154 0 V
0 -102 V
Z stroke
8671 1386 M
154 0 V
8671 1079 M
154 0 V
stroke
9283 1122 154 167 40 30 0 PatternFill
9360 1085 M
0 37 V
0 167 R
0 205 V
stroke
9283 1122 N
154 0 V
0 167 V
-154 0 V
0 -167 V
Z stroke
9283 1494 M
154 0 V
9283 1085 M
154 0 V
stroke
9896 1123 154 210 40 30 0 PatternFill
9973 1086 M
0 37 V
0 210 R
0 156 V
stroke
9896 1123 N
154 0 V
0 210 V
-154 0 V
0 -210 V
Z stroke
9896 1489 M
154 0 V
9896 1086 M
154 0 V
stroke
10508 1110 154 211 40 30 0 PatternFill
10585 1076 M
0 34 V
0 211 R
0 179 V
stroke
10508 1110 N
154 0 V
0 211 V
-154 0 V
0 -211 V
Z stroke
10508 1500 M
154 0 V
-154 -424 R
154 0 V
stroke
11120 1152 154 147 40 30 0 PatternFill
11197 1086 M
0 66 V
0 147 R
0 121 V
stroke
11120 1152 N
154 0 V
0 147 V
-154 0 V
0 -147 V
Z stroke
11120 1420 M
154 0 V
-154 -334 R
154 0 V
stroke
11732 1130 154 188 40 30 0 PatternFill
11809 1071 M
0 59 V
0 188 R
0 290 V
stroke
11732 1130 N
154 0 V
0 188 V
-154 0 V
0 -188 V
Z stroke
11732 1608 M
154 0 V
-154 -537 R
154 0 V
stroke
12344 1158 154 139 40 30 0 PatternFill
12421 1073 M
0 85 V
0 139 R
0 145 V
stroke
12344 1158 N
154 0 V
0 139 V
-154 0 V
0 -139 V
Z stroke
12344 1442 M
154 0 V
-154 -369 R
154 0 V
stroke
12956 1136 154 193 40 30 0 PatternFill
13033 1071 M
0 65 V
0 193 R
0 262 V
stroke
12956 1136 N
154 0 V
0 193 V
-154 0 V
0 -193 V
Z stroke
12956 1591 M
154 0 V
-154 -520 R
154 0 V
% End plot #7
% Begin plot #8
stroke
LTb
LCb setrgbcolor

 /TransparentPatterns true def
1327 1221 154 0 40 -30 0 PatternFill
1404 1221 M
stroke
1327 1221 N
154 0 V
-154 0 V
Z stroke
1327 1221 M
154 0 V
-154 0 R
154 0 V
stroke

 /TransparentPatterns true def
1939 1211 154 0 40 -30 0 PatternFill
2016 1211 M
stroke
1939 1211 N
154 0 V
-154 0 V
Z stroke
1939 1211 M
154 0 V
-154 0 R
154 0 V
stroke

 /TransparentPatterns true def
2551 1218 154 0 40 -30 0 PatternFill
2628 1218 M
stroke
2551 1218 N
154 0 V
-154 0 V
Z stroke
2551 1218 M
154 0 V
-154 0 R
154 0 V
stroke

 /TransparentPatterns true def
3163 1216 154 0 40 -30 0 PatternFill
3240 1216 M
stroke
3163 1216 N
154 0 V
-154 0 V
Z stroke
3163 1216 M
154 0 V
-154 0 R
154 0 V
stroke

 /TransparentPatterns true def
3775 1199 154 0 40 -30 0 PatternFill
3852 1199 M
stroke
3775 1199 N
154 0 V
-154 0 V
Z stroke
3775 1199 M
154 0 V
-154 0 R
154 0 V
stroke

 /TransparentPatterns true def
4387 1214 154 0 40 -30 0 PatternFill
4464 1214 M
stroke
4387 1214 N
154 0 V
-154 0 V
Z stroke
4387 1214 M
154 0 V
-154 0 R
154 0 V
stroke

 /TransparentPatterns true def
4999 1210 154 0 40 -30 0 PatternFill
5076 1210 M
stroke
4999 1210 N
154 0 V
-154 0 V
Z stroke
4999 1210 M
154 0 V
-154 0 R
154 0 V
stroke

 /TransparentPatterns true def
5611 1213 154 0 40 -30 0 PatternFill
5688 1213 M
stroke
5611 1213 N
154 0 V
-154 0 V
Z stroke
5611 1213 M
154 0 V
-154 0 R
154 0 V
stroke

 /TransparentPatterns true def
6223 1218 154 0 40 -30 0 PatternFill
6300 1218 M
stroke
6223 1218 N
154 0 V
-154 0 V
Z stroke
6223 1218 M
154 0 V
-154 0 R
154 0 V
stroke

 /TransparentPatterns true def
6835 1225 154 0 40 -30 0 PatternFill
6912 1225 M
stroke
6835 1225 N
154 0 V
-154 0 V
Z stroke
6835 1225 M
154 0 V
-154 0 R
154 0 V
stroke

 /TransparentPatterns true def
7447 1192 154 0 40 -30 0 PatternFill
7524 1192 M
stroke
7447 1192 N
154 0 V
-154 0 V
Z stroke
7447 1192 M
154 0 V
-154 0 R
154 0 V
stroke

 /TransparentPatterns true def
8059 1199 154 0 40 -30 0 PatternFill
8136 1199 M
stroke
8059 1199 N
154 0 V
-154 0 V
Z stroke
8059 1199 M
154 0 V
-154 0 R
154 0 V
stroke

 /TransparentPatterns true def
8671 1192 154 0 40 -30 0 PatternFill
8748 1192 M
stroke
8671 1192 N
154 0 V
-154 0 V
Z stroke
8671 1192 M
154 0 V
-154 0 R
154 0 V
stroke

 /TransparentPatterns true def
9283 1219 154 0 40 -30 0 PatternFill
9360 1219 M
stroke
9283 1219 N
154 0 V
-154 0 V
Z stroke
9283 1219 M
154 0 V
-154 0 R
154 0 V
stroke

 /TransparentPatterns true def
9896 1217 154 0 40 -30 0 PatternFill
9973 1217 M
stroke
9896 1217 N
154 0 V
-154 0 V
Z stroke
9896 1217 M
154 0 V
-154 0 R
154 0 V
stroke

 /TransparentPatterns true def
10508 1211 154 0 40 -30 0 PatternFill
10585 1211 M
stroke
10508 1211 N
154 0 V
-154 0 V
Z stroke
10508 1211 M
154 0 V
-154 0 R
154 0 V
stroke

 /TransparentPatterns true def
11120 1224 154 0 40 -30 0 PatternFill
11197 1224 M
stroke
11120 1224 N
154 0 V
-154 0 V
Z stroke
11120 1224 M
154 0 V
-154 0 R
154 0 V
stroke

 /TransparentPatterns true def
11732 1235 154 0 40 -30 0 PatternFill
11809 1235 M
stroke
11732 1235 N
154 0 V
-154 0 V
Z stroke
11732 1235 M
154 0 V
-154 0 R
154 0 V
stroke

 /TransparentPatterns true def
12344 1226 154 0 40 -30 0 PatternFill
12421 1226 M
stroke
12344 1226 N
154 0 V
-154 0 V
Z stroke
12344 1226 M
154 0 V
-154 0 R
154 0 V
stroke

 /TransparentPatterns true def
12956 1250 154 0 40 -30 0 PatternFill
13033 1250 M
stroke
12956 1250 N
154 0 V
-154 0 V
Z stroke
12956 1250 M
154 0 V
-154 0 R
154 0 V
% End plot #8
% Begin plot #9
2.000 UP
stroke
LTa
0.00 0.38 0.82 C LCb setrgbcolor
11860 153 M
[ [(Arial) 180.0 0.0 true true 0 ( )]
] -60.0 MRshow
2.000 UP
1.000 UL
LTa
0.00 0.38 0.82 C 11968 153 M
333 0 V
1403 4647 M
612 0 V
612 6 V
612 -11 V
613 -10 V
612 12 V
612 11 V
612 -6 V
612 6 V
612 -17 V
612 -15 V
612 34 V
612 -42 V
612 29 V
612 -6 V
612 7 V
612 -21 V
612 46 V
612 -39 V
612 35 V
1403 4647 TriU
2015 4647 TriU
2627 4653 TriU
3239 4642 TriU
3852 4632 TriU
4464 4644 TriU
5076 4655 TriU
5688 4649 TriU
6300 4655 TriU
6912 4638 TriU
7524 4623 TriU
8136 4657 TriU
8748 4615 TriU
9360 4644 TriU
9972 4638 TriU
10584 4645 TriU
11196 4624 TriU
11808 4670 TriU
12420 4631 TriU
13032 4666 TriU
12134 153 TriU
% End plot #9
2.000 UL
LTb
LCb setrgbcolor
1.000 UP
1.000 UL
LTb
0.00 0.00 0.00 C stroke
grestore
end
showpage
%%Trailer
%%DocumentFonts: Arial
