%!PS-Adobe-2.0 EPSF-2.0
%%Title: TcpVeno-download-finishtime-25UE-panoramic.eps
%%Creator: gnuplot 5.0 patchlevel 3
%%CreationDate: Tue Jun  7 16:10:53 2016
%%DocumentFonts: (atend)
%%BoundingBox: 50 50 770 302
%%EndComments
%%BeginProlog
/gnudict 256 dict def
gnudict begin
%
% The following true/false flags may be edited by hand if desired.
% The unit line width and grayscale image gamma correction may also be changed.
%
/Color true def
/Blacktext false def
/Solid false def
/Dashlength 3 def
/Landscape false def
/Level1 false def
/Level3 false def
/Rounded false def
/ClipToBoundingBox false def
/SuppressPDFMark false def
/TransparentPatterns false def
/gnulinewidth 15.000 def
/userlinewidth gnulinewidth def
/Gamma 1.0 def
/BackgroundColor {-1.000 -1.000 -1.000} def
%
/vshift -66 def
/dl1 {
  10.0 Dashlength userlinewidth gnulinewidth div mul mul mul
  Rounded { currentlinewidth 0.75 mul sub dup 0 le { pop 0.01 } if } if
} def
/dl2 {
  10.0 Dashlength userlinewidth gnulinewidth div mul mul mul
  Rounded { currentlinewidth 0.75 mul add } if
} def
/hpt_ 31.5 def
/vpt_ 31.5 def
/hpt hpt_ def
/vpt vpt_ def
/doclip {
  ClipToBoundingBox {
    newpath 50 50 moveto 770 50 lineto 770 302 lineto 50 302 lineto closepath
    clip
  } if
} def
%
% Gnuplot Prolog Version 5.1 (Oct 2015)
%
%/SuppressPDFMark true def
%
/M {moveto} bind def
/L {lineto} bind def
/R {rmoveto} bind def
/V {rlineto} bind def
/N {newpath moveto} bind def
/Z {closepath} bind def
/C {setrgbcolor} bind def
/f {rlineto fill} bind def
/g {setgray} bind def
/Gshow {show} def   % May be redefined later in the file to support UTF-8
/vpt2 vpt 2 mul def
/hpt2 hpt 2 mul def
/Lshow {currentpoint stroke M 0 vshift R 
	Blacktext {gsave 0 setgray textshow grestore} {textshow} ifelse} def
/Rshow {currentpoint stroke M dup stringwidth pop neg vshift R
	Blacktext {gsave 0 setgray textshow grestore} {textshow} ifelse} def
/Cshow {currentpoint stroke M dup stringwidth pop -2 div vshift R 
	Blacktext {gsave 0 setgray textshow grestore} {textshow} ifelse} def
/UP {dup vpt_ mul /vpt exch def hpt_ mul /hpt exch def
  /hpt2 hpt 2 mul def /vpt2 vpt 2 mul def} def
/DL {Color {setrgbcolor Solid {pop []} if 0 setdash}
 {pop pop pop 0 setgray Solid {pop []} if 0 setdash} ifelse} def
/BL {stroke userlinewidth 2 mul setlinewidth
	Rounded {1 setlinejoin 1 setlinecap} if} def
/AL {stroke userlinewidth 2 div setlinewidth
	Rounded {1 setlinejoin 1 setlinecap} if} def
/UL {dup gnulinewidth mul /userlinewidth exch def
	dup 1 lt {pop 1} if 10 mul /udl exch def} def
/PL {stroke userlinewidth setlinewidth
	Rounded {1 setlinejoin 1 setlinecap} if} def
3.8 setmiterlimit
% Classic Line colors (version 5.0)
/LCw {1 1 1} def
/LCb {0 0 0} def
/LCa {0 0 0} def
/LC0 {1 0 0} def
/LC1 {0 1 0} def
/LC2 {0 0 1} def
/LC3 {1 0 1} def
/LC4 {0 1 1} def
/LC5 {1 1 0} def
/LC6 {0 0 0} def
/LC7 {1 0.3 0} def
/LC8 {0.5 0.5 0.5} def
% Default dash patterns (version 5.0)
/LTB {BL [] LCb DL} def
/LTw {PL [] 1 setgray} def
/LTb {PL [] LCb DL} def
/LTa {AL [1 udl mul 2 udl mul] 0 setdash LCa setrgbcolor} def
/LT0 {PL [] LC0 DL} def
/LT1 {PL [2 dl1 3 dl2] LC1 DL} def
/LT2 {PL [1 dl1 1.5 dl2] LC2 DL} def
/LT3 {PL [6 dl1 2 dl2 1 dl1 2 dl2] LC3 DL} def
/LT4 {PL [1 dl1 2 dl2 6 dl1 2 dl2 1 dl1 2 dl2] LC4 DL} def
/LT5 {PL [4 dl1 2 dl2] LC5 DL} def
/LT6 {PL [1.5 dl1 1.5 dl2 1.5 dl1 1.5 dl2 1.5 dl1 6 dl2] LC6 DL} def
/LT7 {PL [3 dl1 3 dl2 1 dl1 3 dl2] LC7 DL} def
/LT8 {PL [2 dl1 2 dl2 2 dl1 6 dl2] LC8 DL} def
/SL {[] 0 setdash} def
/Pnt {stroke [] 0 setdash gsave 1 setlinecap M 0 0 V stroke grestore} def
/Dia {stroke [] 0 setdash 2 copy vpt add M
  hpt neg vpt neg V hpt vpt neg V
  hpt vpt V hpt neg vpt V closepath stroke
  Pnt} def
/Pls {stroke [] 0 setdash vpt sub M 0 vpt2 V
  currentpoint stroke M
  hpt neg vpt neg R hpt2 0 V stroke
 } def
/Box {stroke [] 0 setdash 2 copy exch hpt sub exch vpt add M
  0 vpt2 neg V hpt2 0 V 0 vpt2 V
  hpt2 neg 0 V closepath stroke
  Pnt} def
/Crs {stroke [] 0 setdash exch hpt sub exch vpt add M
  hpt2 vpt2 neg V currentpoint stroke M
  hpt2 neg 0 R hpt2 vpt2 V stroke} def
/TriU {stroke [] 0 setdash 2 copy vpt 1.12 mul add M
  hpt neg vpt -1.62 mul V
  hpt 2 mul 0 V
  hpt neg vpt 1.62 mul V closepath stroke
  Pnt} def
/Star {2 copy Pls Crs} def
/BoxF {stroke [] 0 setdash exch hpt sub exch vpt add M
  0 vpt2 neg V hpt2 0 V 0 vpt2 V
  hpt2 neg 0 V closepath fill} def
/TriUF {stroke [] 0 setdash vpt 1.12 mul add M
  hpt neg vpt -1.62 mul V
  hpt 2 mul 0 V
  hpt neg vpt 1.62 mul V closepath fill} def
/TriD {stroke [] 0 setdash 2 copy vpt 1.12 mul sub M
  hpt neg vpt 1.62 mul V
  hpt 2 mul 0 V
  hpt neg vpt -1.62 mul V closepath stroke
  Pnt} def
/TriDF {stroke [] 0 setdash vpt 1.12 mul sub M
  hpt neg vpt 1.62 mul V
  hpt 2 mul 0 V
  hpt neg vpt -1.62 mul V closepath fill} def
/DiaF {stroke [] 0 setdash vpt add M
  hpt neg vpt neg V hpt vpt neg V
  hpt vpt V hpt neg vpt V closepath fill} def
/Pent {stroke [] 0 setdash 2 copy gsave
  translate 0 hpt M 4 {72 rotate 0 hpt L} repeat
  closepath stroke grestore Pnt} def
/PentF {stroke [] 0 setdash gsave
  translate 0 hpt M 4 {72 rotate 0 hpt L} repeat
  closepath fill grestore} def
/Circle {stroke [] 0 setdash 2 copy
  hpt 0 360 arc stroke Pnt} def
/CircleF {stroke [] 0 setdash hpt 0 360 arc fill} def
/C0 {BL [] 0 setdash 2 copy moveto vpt 90 450 arc} bind def
/C1 {BL [] 0 setdash 2 copy moveto
	2 copy vpt 0 90 arc closepath fill
	vpt 0 360 arc closepath} bind def
/C2 {BL [] 0 setdash 2 copy moveto
	2 copy vpt 90 180 arc closepath fill
	vpt 0 360 arc closepath} bind def
/C3 {BL [] 0 setdash 2 copy moveto
	2 copy vpt 0 180 arc closepath fill
	vpt 0 360 arc closepath} bind def
/C4 {BL [] 0 setdash 2 copy moveto
	2 copy vpt 180 270 arc closepath fill
	vpt 0 360 arc closepath} bind def
/C5 {BL [] 0 setdash 2 copy moveto
	2 copy vpt 0 90 arc
	2 copy moveto
	2 copy vpt 180 270 arc closepath fill
	vpt 0 360 arc} bind def
/C6 {BL [] 0 setdash 2 copy moveto
	2 copy vpt 90 270 arc closepath fill
	vpt 0 360 arc closepath} bind def
/C7 {BL [] 0 setdash 2 copy moveto
	2 copy vpt 0 270 arc closepath fill
	vpt 0 360 arc closepath} bind def
/C8 {BL [] 0 setdash 2 copy moveto
	2 copy vpt 270 360 arc closepath fill
	vpt 0 360 arc closepath} bind def
/C9 {BL [] 0 setdash 2 copy moveto
	2 copy vpt 270 450 arc closepath fill
	vpt 0 360 arc closepath} bind def
/C10 {BL [] 0 setdash 2 copy 2 copy moveto vpt 270 360 arc closepath fill
	2 copy moveto
	2 copy vpt 90 180 arc closepath fill
	vpt 0 360 arc closepath} bind def
/C11 {BL [] 0 setdash 2 copy moveto
	2 copy vpt 0 180 arc closepath fill
	2 copy moveto
	2 copy vpt 270 360 arc closepath fill
	vpt 0 360 arc closepath} bind def
/C12 {BL [] 0 setdash 2 copy moveto
	2 copy vpt 180 360 arc closepath fill
	vpt 0 360 arc closepath} bind def
/C13 {BL [] 0 setdash 2 copy moveto
	2 copy vpt 0 90 arc closepath fill
	2 copy moveto
	2 copy vpt 180 360 arc closepath fill
	vpt 0 360 arc closepath} bind def
/C14 {BL [] 0 setdash 2 copy moveto
	2 copy vpt 90 360 arc closepath fill
	vpt 0 360 arc} bind def
/C15 {BL [] 0 setdash 2 copy vpt 0 360 arc closepath fill
	vpt 0 360 arc closepath} bind def
/Rec {newpath 4 2 roll moveto 1 index 0 rlineto 0 exch rlineto
	neg 0 rlineto closepath} bind def
/Square {dup Rec} bind def
/Bsquare {vpt sub exch vpt sub exch vpt2 Square} bind def
/S0 {BL [] 0 setdash 2 copy moveto 0 vpt rlineto BL Bsquare} bind def
/S1 {BL [] 0 setdash 2 copy vpt Square fill Bsquare} bind def
/S2 {BL [] 0 setdash 2 copy exch vpt sub exch vpt Square fill Bsquare} bind def
/S3 {BL [] 0 setdash 2 copy exch vpt sub exch vpt2 vpt Rec fill Bsquare} bind def
/S4 {BL [] 0 setdash 2 copy exch vpt sub exch vpt sub vpt Square fill Bsquare} bind def
/S5 {BL [] 0 setdash 2 copy 2 copy vpt Square fill
	exch vpt sub exch vpt sub vpt Square fill Bsquare} bind def
/S6 {BL [] 0 setdash 2 copy exch vpt sub exch vpt sub vpt vpt2 Rec fill Bsquare} bind def
/S7 {BL [] 0 setdash 2 copy exch vpt sub exch vpt sub vpt vpt2 Rec fill
	2 copy vpt Square fill Bsquare} bind def
/S8 {BL [] 0 setdash 2 copy vpt sub vpt Square fill Bsquare} bind def
/S9 {BL [] 0 setdash 2 copy vpt sub vpt vpt2 Rec fill Bsquare} bind def
/S10 {BL [] 0 setdash 2 copy vpt sub vpt Square fill 2 copy exch vpt sub exch vpt Square fill
	Bsquare} bind def
/S11 {BL [] 0 setdash 2 copy vpt sub vpt Square fill 2 copy exch vpt sub exch vpt2 vpt Rec fill
	Bsquare} bind def
/S12 {BL [] 0 setdash 2 copy exch vpt sub exch vpt sub vpt2 vpt Rec fill Bsquare} bind def
/S13 {BL [] 0 setdash 2 copy exch vpt sub exch vpt sub vpt2 vpt Rec fill
	2 copy vpt Square fill Bsquare} bind def
/S14 {BL [] 0 setdash 2 copy exch vpt sub exch vpt sub vpt2 vpt Rec fill
	2 copy exch vpt sub exch vpt Square fill Bsquare} bind def
/S15 {BL [] 0 setdash 2 copy Bsquare fill Bsquare} bind def
/D0 {gsave translate 45 rotate 0 0 S0 stroke grestore} bind def
/D1 {gsave translate 45 rotate 0 0 S1 stroke grestore} bind def
/D2 {gsave translate 45 rotate 0 0 S2 stroke grestore} bind def
/D3 {gsave translate 45 rotate 0 0 S3 stroke grestore} bind def
/D4 {gsave translate 45 rotate 0 0 S4 stroke grestore} bind def
/D5 {gsave translate 45 rotate 0 0 S5 stroke grestore} bind def
/D6 {gsave translate 45 rotate 0 0 S6 stroke grestore} bind def
/D7 {gsave translate 45 rotate 0 0 S7 stroke grestore} bind def
/D8 {gsave translate 45 rotate 0 0 S8 stroke grestore} bind def
/D9 {gsave translate 45 rotate 0 0 S9 stroke grestore} bind def
/D10 {gsave translate 45 rotate 0 0 S10 stroke grestore} bind def
/D11 {gsave translate 45 rotate 0 0 S11 stroke grestore} bind def
/D12 {gsave translate 45 rotate 0 0 S12 stroke grestore} bind def
/D13 {gsave translate 45 rotate 0 0 S13 stroke grestore} bind def
/D14 {gsave translate 45 rotate 0 0 S14 stroke grestore} bind def
/D15 {gsave translate 45 rotate 0 0 S15 stroke grestore} bind def
/DiaE {stroke [] 0 setdash vpt add M
  hpt neg vpt neg V hpt vpt neg V
  hpt vpt V hpt neg vpt V closepath stroke} def
/BoxE {stroke [] 0 setdash exch hpt sub exch vpt add M
  0 vpt2 neg V hpt2 0 V 0 vpt2 V
  hpt2 neg 0 V closepath stroke} def
/TriUE {stroke [] 0 setdash vpt 1.12 mul add M
  hpt neg vpt -1.62 mul V
  hpt 2 mul 0 V
  hpt neg vpt 1.62 mul V closepath stroke} def
/TriDE {stroke [] 0 setdash vpt 1.12 mul sub M
  hpt neg vpt 1.62 mul V
  hpt 2 mul 0 V
  hpt neg vpt -1.62 mul V closepath stroke} def
/PentE {stroke [] 0 setdash gsave
  translate 0 hpt M 4 {72 rotate 0 hpt L} repeat
  closepath stroke grestore} def
/CircE {stroke [] 0 setdash 
  hpt 0 360 arc stroke} def
/Opaque {gsave closepath 1 setgray fill grestore 0 setgray closepath} def
/DiaW {stroke [] 0 setdash vpt add M
  hpt neg vpt neg V hpt vpt neg V
  hpt vpt V hpt neg vpt V Opaque stroke} def
/BoxW {stroke [] 0 setdash exch hpt sub exch vpt add M
  0 vpt2 neg V hpt2 0 V 0 vpt2 V
  hpt2 neg 0 V Opaque stroke} def
/TriUW {stroke [] 0 setdash vpt 1.12 mul add M
  hpt neg vpt -1.62 mul V
  hpt 2 mul 0 V
  hpt neg vpt 1.62 mul V Opaque stroke} def
/TriDW {stroke [] 0 setdash vpt 1.12 mul sub M
  hpt neg vpt 1.62 mul V
  hpt 2 mul 0 V
  hpt neg vpt -1.62 mul V Opaque stroke} def
/PentW {stroke [] 0 setdash gsave
  translate 0 hpt M 4 {72 rotate 0 hpt L} repeat
  Opaque stroke grestore} def
/CircW {stroke [] 0 setdash 
  hpt 0 360 arc Opaque stroke} def
/BoxFill {gsave Rec 1 setgray fill grestore} def
/Density {
  /Fillden exch def
  currentrgbcolor
  /ColB exch def /ColG exch def /ColR exch def
  /ColR ColR Fillden mul Fillden sub 1 add def
  /ColG ColG Fillden mul Fillden sub 1 add def
  /ColB ColB Fillden mul Fillden sub 1 add def
  ColR ColG ColB setrgbcolor} def
/BoxColFill {gsave Rec PolyFill} def
/PolyFill {gsave Density fill grestore grestore} def
/h {rlineto rlineto rlineto gsave closepath fill grestore} bind def
%
% PostScript Level 1 Pattern Fill routine for rectangles
% Usage: x y w h s a XX PatternFill
%	x,y = lower left corner of box to be filled
%	w,h = width and height of box
%	  a = angle in degrees between lines and x-axis
%	 XX = 0/1 for no/yes cross-hatch
%
/PatternFill {gsave /PFa [ 9 2 roll ] def
  PFa 0 get PFa 2 get 2 div add PFa 1 get PFa 3 get 2 div add translate
  PFa 2 get -2 div PFa 3 get -2 div PFa 2 get PFa 3 get Rec
  TransparentPatterns {} {gsave 1 setgray fill grestore} ifelse
  clip
  currentlinewidth 0.5 mul setlinewidth
  /PFs PFa 2 get dup mul PFa 3 get dup mul add sqrt def
  0 0 M PFa 5 get rotate PFs -2 div dup translate
  0 1 PFs PFa 4 get div 1 add floor cvi
	{PFa 4 get mul 0 M 0 PFs V} for
  0 PFa 6 get ne {
	0 1 PFs PFa 4 get div 1 add floor cvi
	{PFa 4 get mul 0 2 1 roll M PFs 0 V} for
 } if
  stroke grestore} def
%
/languagelevel where
 {pop languagelevel} {1} ifelse
dup 2 lt
	{/InterpretLevel1 true def
	 /InterpretLevel3 false def}
	{/InterpretLevel1 Level1 def
	 2 gt
	    {/InterpretLevel3 Level3 def}
	    {/InterpretLevel3 false def}
	 ifelse }
 ifelse
%
% PostScript level 2 pattern fill definitions
%
/Level2PatternFill {
/Tile8x8 {/PaintType 2 /PatternType 1 /TilingType 1 /BBox [0 0 8 8] /XStep 8 /YStep 8}
	bind def
/KeepColor {currentrgbcolor [/Pattern /DeviceRGB] setcolorspace} bind def
<< Tile8x8
 /PaintProc {0.5 setlinewidth pop 0 0 M 8 8 L 0 8 M 8 0 L stroke} 
>> matrix makepattern
/Pat1 exch def
<< Tile8x8
 /PaintProc {0.5 setlinewidth pop 0 0 M 8 8 L 0 8 M 8 0 L stroke
	0 4 M 4 8 L 8 4 L 4 0 L 0 4 L stroke}
>> matrix makepattern
/Pat2 exch def
<< Tile8x8
 /PaintProc {0.5 setlinewidth pop 0 0 M 0 8 L
	8 8 L 8 0 L 0 0 L fill}
>> matrix makepattern
/Pat3 exch def
<< Tile8x8
 /PaintProc {0.5 setlinewidth pop -4 8 M 8 -4 L
	0 12 M 12 0 L stroke}
>> matrix makepattern
/Pat4 exch def
<< Tile8x8
 /PaintProc {0.5 setlinewidth pop -4 0 M 8 12 L
	0 -4 M 12 8 L stroke}
>> matrix makepattern
/Pat5 exch def
<< Tile8x8
 /PaintProc {0.5 setlinewidth pop -2 8 M 4 -4 L
	0 12 M 8 -4 L 4 12 M 10 0 L stroke}
>> matrix makepattern
/Pat6 exch def
<< Tile8x8
 /PaintProc {0.5 setlinewidth pop -2 0 M 4 12 L
	0 -4 M 8 12 L 4 -4 M 10 8 L stroke}
>> matrix makepattern
/Pat7 exch def
<< Tile8x8
 /PaintProc {0.5 setlinewidth pop 8 -2 M -4 4 L
	12 0 M -4 8 L 12 4 M 0 10 L stroke}
>> matrix makepattern
/Pat8 exch def
<< Tile8x8
 /PaintProc {0.5 setlinewidth pop 0 -2 M 12 4 L
	-4 0 M 12 8 L -4 4 M 8 10 L stroke}
>> matrix makepattern
/Pat9 exch def
/Pattern1 {PatternBgnd KeepColor Pat1 setpattern} bind def
/Pattern2 {PatternBgnd KeepColor Pat2 setpattern} bind def
/Pattern3 {PatternBgnd KeepColor Pat3 setpattern} bind def
/Pattern4 {PatternBgnd KeepColor Landscape {Pat5} {Pat4} ifelse setpattern} bind def
/Pattern5 {PatternBgnd KeepColor Landscape {Pat4} {Pat5} ifelse setpattern} bind def
/Pattern6 {PatternBgnd KeepColor Landscape {Pat9} {Pat6} ifelse setpattern} bind def
/Pattern7 {PatternBgnd KeepColor Landscape {Pat8} {Pat7} ifelse setpattern} bind def
} def
%
%
%End of PostScript Level 2 code
%
/PatternBgnd {
  TransparentPatterns {} {gsave 1 setgray fill grestore} ifelse
} def
%
% Substitute for Level 2 pattern fill codes with
% grayscale if Level 2 support is not selected.
%
/Level1PatternFill {
/Pattern1 {0.250 Density} bind def
/Pattern2 {0.500 Density} bind def
/Pattern3 {0.750 Density} bind def
/Pattern4 {0.125 Density} bind def
/Pattern5 {0.375 Density} bind def
/Pattern6 {0.625 Density} bind def
/Pattern7 {0.875 Density} bind def
} def
%
% Now test for support of Level 2 code
%
Level1 {Level1PatternFill} {Level2PatternFill} ifelse
%
/Symbol-Oblique /Symbol findfont [1 0 .167 1 0 0] makefont
dup length dict begin {1 index /FID eq {pop pop} {def} ifelse} forall
currentdict end definefont pop
%
/MFshow {
   { dup 5 get 3 ge
     { 5 get 3 eq {gsave} {grestore} ifelse }
     {dup dup 0 get findfont exch 1 get scalefont setfont
     [ currentpoint ] exch dup 2 get 0 exch R dup 5 get 2 ne {dup dup 6
     get exch 4 get {textshow} {stringwidth pop 0 R} ifelse }if dup 5 get 0 eq
     {dup 3 get {2 get neg 0 exch R pop} {pop aload pop M} ifelse} {dup 5
     get 1 eq {dup 2 get exch dup 3 get exch 6 get stringwidth pop -2 div
     dup 0 R} {dup 6 get stringwidth pop -2 div 0 R 6 get
     textshow 2 index {aload pop M neg 3 -1 roll neg R pop pop} {pop pop pop
     pop aload pop M} ifelse }ifelse }ifelse }
     ifelse }
   forall} def
/Gswidth {dup type /stringtype eq {stringwidth} {pop (n) stringwidth} ifelse} def
/MFwidth {0 exch { dup 5 get 3 ge { 5 get 3 eq { 0 } { pop } ifelse }
 {dup 3 get{dup dup 0 get findfont exch 1 get scalefont setfont
     6 get Gswidth pop add} {pop} ifelse} ifelse} forall} def
/MLshow { currentpoint stroke M
  0 exch R
  Blacktext {gsave 0 setgray MFshow grestore} {MFshow} ifelse } bind def
/MRshow { currentpoint stroke M
  exch dup MFwidth neg 3 -1 roll R
  Blacktext {gsave 0 setgray MFshow grestore} {MFshow} ifelse } bind def
/MCshow { currentpoint stroke M
  exch dup MFwidth -2 div 3 -1 roll R
  Blacktext {gsave 0 setgray MFshow grestore} {MFshow} ifelse } bind def
/XYsave    { [( ) 1 2 true false 3 ()] } bind def
/XYrestore { [( ) 1 2 true false 4 ()] } bind def
Level1 SuppressPDFMark or 
{} {
/SDict 10 dict def
systemdict /pdfmark known not {
  userdict /pdfmark systemdict /cleartomark get put
} if
SDict begin [
  /Title (TcpVeno-download-finishtime-25UE-panoramic.eps)
  /Subject (gnuplot plot)
  /Creator (gnuplot 5.0 patchlevel 3)
  /Author (nat)
%  /Producer (gnuplot)
%  /Keywords ()
  /CreationDate (Tue Jun  7 16:10:53 2016)
  /DOCINFO pdfmark
end
} ifelse
%
% Support for boxed text - Ethan A Merritt May 2005
%
/InitTextBox { userdict /TBy2 3 -1 roll put userdict /TBx2 3 -1 roll put
           userdict /TBy1 3 -1 roll put userdict /TBx1 3 -1 roll put
	   /Boxing true def } def
/ExtendTextBox { Boxing
    { gsave dup false charpath pathbbox
      dup TBy2 gt {userdict /TBy2 3 -1 roll put} {pop} ifelse
      dup TBx2 gt {userdict /TBx2 3 -1 roll put} {pop} ifelse
      dup TBy1 lt {userdict /TBy1 3 -1 roll put} {pop} ifelse
      dup TBx1 lt {userdict /TBx1 3 -1 roll put} {pop} ifelse
      grestore } if } def
/PopTextBox { newpath TBx1 TBxmargin sub TBy1 TBymargin sub M
               TBx1 TBxmargin sub TBy2 TBymargin add L
	       TBx2 TBxmargin add TBy2 TBymargin add L
	       TBx2 TBxmargin add TBy1 TBymargin sub L closepath } def
/DrawTextBox { PopTextBox stroke /Boxing false def} def
/FillTextBox { gsave PopTextBox 1 1 1 setrgbcolor fill grestore /Boxing false def} def
0 0 0 0 InitTextBox
/TBxmargin 20 def
/TBymargin 20 def
/Boxing false def
/textshow { ExtendTextBox Gshow } def
%
% redundant definitions for compatibility with prologue.ps older than 5.0.2
/LTB {BL [] LCb DL} def
/LTb {PL [] LCb DL} def
end
%%EndProlog
%%Page: 1 1
gnudict begin
gsave
doclip
50 50 translate
0.050 0.050 scale
0 setgray
newpath
(Arial) findfont 200 scalefont setfont
BackgroundColor 0 lt 3 1 roll 0 lt exch 0 lt or or not {BackgroundColor C 1.000 0 0 14400.00 5040.00 BoxColFill} if
1.000 UL
LTb
0.00 0.00 0.00 C 0.500 UL
LTa
0.50 0.50 0.50 C 980 1000 M
12139 0 V
stroke
1.000 UL
LTb
0.00 0.00 0.00 C 980 1000 M
63 0 V
stroke
860 1000 M
[ [(Arial) 200.0 0.0 true true 0 ( 0)]
] -66.7 MRshow
1.000 UL
LTb
0.00 0.00 0.00 C 0.500 UL
LTa
0.50 0.50 0.50 C 980 1475 M
12139 0 V
stroke
1.000 UL
LTb
0.00 0.00 0.00 C 980 1475 M
63 0 V
stroke
860 1475 M
[ [(Arial) 200.0 0.0 true true 0 ( 20)]
] -66.7 MRshow
1.000 UL
LTb
0.00 0.00 0.00 C 0.500 UL
LTa
0.50 0.50 0.50 C 980 1950 M
12139 0 V
stroke
1.000 UL
LTb
0.00 0.00 0.00 C 980 1950 M
63 0 V
stroke
860 1950 M
[ [(Arial) 200.0 0.0 true true 0 ( 40)]
] -66.7 MRshow
1.000 UL
LTb
0.00 0.00 0.00 C 0.500 UL
LTa
0.50 0.50 0.50 C 980 2425 M
12139 0 V
stroke
1.000 UL
LTb
0.00 0.00 0.00 C 980 2425 M
63 0 V
stroke
860 2425 M
[ [(Arial) 200.0 0.0 true true 0 ( 60)]
] -66.7 MRshow
1.000 UL
LTb
0.00 0.00 0.00 C 0.500 UL
LTa
0.50 0.50 0.50 C 980 2900 M
12139 0 V
stroke
1.000 UL
LTb
0.00 0.00 0.00 C 980 2900 M
63 0 V
stroke
860 2900 M
[ [(Arial) 200.0 0.0 true true 0 ( 80)]
] -66.7 MRshow
1.000 UL
LTb
0.00 0.00 0.00 C 0.500 UL
LTa
0.50 0.50 0.50 C 980 3374 M
12139 0 V
stroke
1.000 UL
LTb
0.00 0.00 0.00 C 980 3374 M
63 0 V
stroke
860 3374 M
[ [(Arial) 200.0 0.0 true true 0 ( 100)]
] -66.7 MRshow
1.000 UL
LTb
0.00 0.00 0.00 C 0.500 UL
LTa
0.50 0.50 0.50 C 980 3849 M
12139 0 V
stroke
1.000 UL
LTb
0.00 0.00 0.00 C 980 3849 M
63 0 V
stroke
860 3849 M
[ [(Arial) 200.0 0.0 true true 0 ( 120)]
] -66.7 MRshow
1.000 UL
LTb
0.00 0.00 0.00 C 0.500 UL
LTa
0.50 0.50 0.50 C 980 4324 M
12139 0 V
stroke
1.000 UL
LTb
0.00 0.00 0.00 C 980 4324 M
63 0 V
stroke
860 4324 M
[ [(Arial) 200.0 0.0 true true 0 ( 140)]
] -66.7 MRshow
1.000 UL
LTb
0.00 0.00 0.00 C 0.500 UL
LTa
0.50 0.50 0.50 C 980 4799 M
12139 0 V
stroke
1.000 UL
LTb
0.00 0.00 0.00 C 980 4799 M
63 0 V
stroke
860 4799 M
[ [(Arial) 200.0 0.0 true true 0 ( 160)]
] -66.7 MRshow
1.000 UL
LTb
0.00 0.00 0.00 C 0.500 UL
LTa
0.50 0.50 0.50 C 1235 1000 M
0 3799 V
stroke
1.000 UL
LTb
0.00 0.00 0.00 C 1235 1000 M
0 63 V
0 3736 R
0 -63 V
stroke
1235 800 M
[ [(Arial) 200.0 0.0 true true 0 ( 60)]
] -66.7 MCshow
1.000 UL
LTb
0.00 0.00 0.00 C 0.500 UL
LTa
0.50 0.50 0.50 C 1847 1000 M
0 3799 V
stroke
1.000 UL
LTb
0.00 0.00 0.00 C 1847 1000 M
0 63 V
0 3736 R
0 -63 V
stroke
1847 800 M
[ [(Arial) 200.0 0.0 true true 0 ( 120)]
] -66.7 MCshow
1.000 UL
LTb
0.00 0.00 0.00 C 0.500 UL
LTa
0.50 0.50 0.50 C 2459 1000 M
0 3799 V
stroke
1.000 UL
LTb
0.00 0.00 0.00 C 2459 1000 M
0 63 V
0 3736 R
0 -63 V
stroke
2459 800 M
[ [(Arial) 200.0 0.0 true true 0 ( 180)]
] -66.7 MCshow
1.000 UL
LTb
0.00 0.00 0.00 C 0.500 UL
LTa
0.50 0.50 0.50 C 3071 1000 M
0 3799 V
stroke
1.000 UL
LTb
0.00 0.00 0.00 C 3071 1000 M
0 63 V
0 3736 R
0 -63 V
stroke
3071 800 M
[ [(Arial) 200.0 0.0 true true 0 ( 240)]
] -66.7 MCshow
1.000 UL
LTb
0.00 0.00 0.00 C 0.500 UL
LTa
0.50 0.50 0.50 C 3683 1000 M
0 3799 V
stroke
1.000 UL
LTb
0.00 0.00 0.00 C 3683 1000 M
0 63 V
0 3736 R
0 -63 V
stroke
3683 800 M
[ [(Arial) 200.0 0.0 true true 0 ( 300)]
] -66.7 MCshow
1.000 UL
LTb
0.00 0.00 0.00 C 0.500 UL
LTa
0.50 0.50 0.50 C 4295 1000 M
0 3799 V
stroke
1.000 UL
LTb
0.00 0.00 0.00 C 4295 1000 M
0 63 V
0 3736 R
0 -63 V
stroke
4295 800 M
[ [(Arial) 200.0 0.0 true true 0 ( 360)]
] -66.7 MCshow
1.000 UL
LTb
0.00 0.00 0.00 C 0.500 UL
LTa
0.50 0.50 0.50 C 4907 1000 M
0 3799 V
stroke
1.000 UL
LTb
0.00 0.00 0.00 C 4907 1000 M
0 63 V
0 3736 R
0 -63 V
stroke
4907 800 M
[ [(Arial) 200.0 0.0 true true 0 ( 420)]
] -66.7 MCshow
1.000 UL
LTb
0.00 0.00 0.00 C 0.500 UL
LTa
0.50 0.50 0.50 C 5519 1000 M
0 3799 V
stroke
1.000 UL
LTb
0.00 0.00 0.00 C 5519 1000 M
0 63 V
0 3736 R
0 -63 V
stroke
5519 800 M
[ [(Arial) 200.0 0.0 true true 0 ( 480)]
] -66.7 MCshow
1.000 UL
LTb
0.00 0.00 0.00 C 0.500 UL
LTa
0.50 0.50 0.50 C 6131 1000 M
0 3799 V
stroke
1.000 UL
LTb
0.00 0.00 0.00 C 6131 1000 M
0 63 V
0 3736 R
0 -63 V
stroke
6131 800 M
[ [(Arial) 200.0 0.0 true true 0 ( 540)]
] -66.7 MCshow
1.000 UL
LTb
0.00 0.00 0.00 C 0.500 UL
LTa
0.50 0.50 0.50 C 6743 1000 M
0 3799 V
stroke
1.000 UL
LTb
0.00 0.00 0.00 C 6743 1000 M
0 63 V
0 3736 R
0 -63 V
stroke
6743 800 M
[ [(Arial) 200.0 0.0 true true 0 ( 600)]
] -66.7 MCshow
1.000 UL
LTb
0.00 0.00 0.00 C 0.500 UL
LTa
0.50 0.50 0.50 C 7356 1000 M
0 3799 V
stroke
1.000 UL
LTb
0.00 0.00 0.00 C 7356 1000 M
0 63 V
0 3736 R
0 -63 V
stroke
7356 800 M
[ [(Arial) 200.0 0.0 true true 0 ( 660)]
] -66.7 MCshow
1.000 UL
LTb
0.00 0.00 0.00 C 0.500 UL
LTa
0.50 0.50 0.50 C 7968 1000 M
0 3799 V
stroke
1.000 UL
LTb
0.00 0.00 0.00 C 7968 1000 M
0 63 V
0 3736 R
0 -63 V
stroke
7968 800 M
[ [(Arial) 200.0 0.0 true true 0 ( 720)]
] -66.7 MCshow
1.000 UL
LTb
0.00 0.00 0.00 C 0.500 UL
LTa
0.50 0.50 0.50 C 8580 1000 M
0 3799 V
stroke
1.000 UL
LTb
0.00 0.00 0.00 C 8580 1000 M
0 63 V
0 3736 R
0 -63 V
stroke
8580 800 M
[ [(Arial) 200.0 0.0 true true 0 ( 780)]
] -66.7 MCshow
1.000 UL
LTb
0.00 0.00 0.00 C 0.500 UL
LTa
0.50 0.50 0.50 C 9192 1000 M
0 3799 V
stroke
1.000 UL
LTb
0.00 0.00 0.00 C 9192 1000 M
0 63 V
0 3736 R
0 -63 V
stroke
9192 800 M
[ [(Arial) 200.0 0.0 true true 0 ( 840)]
] -66.7 MCshow
1.000 UL
LTb
0.00 0.00 0.00 C 0.500 UL
LTa
0.50 0.50 0.50 C 9804 1000 M
0 3799 V
stroke
1.000 UL
LTb
0.00 0.00 0.00 C 9804 1000 M
0 63 V
0 3736 R
0 -63 V
stroke
9804 800 M
[ [(Arial) 200.0 0.0 true true 0 ( 900)]
] -66.7 MCshow
1.000 UL
LTb
0.00 0.00 0.00 C 0.500 UL
LTa
0.50 0.50 0.50 C 10416 1000 M
0 3799 V
stroke
1.000 UL
LTb
0.00 0.00 0.00 C 10416 1000 M
0 63 V
0 3736 R
0 -63 V
stroke
10416 800 M
[ [(Arial) 200.0 0.0 true true 0 ( 960)]
] -66.7 MCshow
1.000 UL
LTb
0.00 0.00 0.00 C 0.500 UL
LTa
0.50 0.50 0.50 C 11028 1000 M
0 3799 V
stroke
1.000 UL
LTb
0.00 0.00 0.00 C 11028 1000 M
0 63 V
0 3736 R
0 -63 V
stroke
11028 800 M
[ [(Arial) 200.0 0.0 true true 0 ( 1020)]
] -66.7 MCshow
1.000 UL
LTb
0.00 0.00 0.00 C 0.500 UL
LTa
0.50 0.50 0.50 C 11640 1000 M
0 3799 V
stroke
1.000 UL
LTb
0.00 0.00 0.00 C 11640 1000 M
0 63 V
0 3736 R
0 -63 V
stroke
11640 800 M
[ [(Arial) 200.0 0.0 true true 0 ( 1080)]
] -66.7 MCshow
1.000 UL
LTb
0.00 0.00 0.00 C 0.500 UL
LTa
0.50 0.50 0.50 C 12252 1000 M
0 3799 V
stroke
1.000 UL
LTb
0.00 0.00 0.00 C 12252 1000 M
0 63 V
0 3736 R
0 -63 V
stroke
12252 800 M
[ [(Arial) 200.0 0.0 true true 0 ( 1140)]
] -66.7 MCshow
1.000 UL
LTb
0.00 0.00 0.00 C 0.500 UL
LTa
0.50 0.50 0.50 C 12864 1000 M
0 3799 V
stroke
1.000 UL
LTb
0.00 0.00 0.00 C 12864 1000 M
0 63 V
0 3736 R
0 -63 V
stroke
12864 800 M
[ [(Arial) 200.0 0.0 true true 0 ( 1200)]
] -66.7 MCshow
1.000 UL
LTb
0.00 0.00 0.00 C 13119 1000 M
-63 0 V
stroke
13239 1000 M
[ [(Arial) 200.0 0.0 true true 0 ( 0)]
] -66.7 MLshow
1.000 UL
LTb
0.00 0.00 0.00 C 13119 1760 M
-63 0 V
stroke
13239 1760 M
[ [(Arial) 200.0 0.0 true true 0 ( 20)]
] -66.7 MLshow
1.000 UL
LTb
0.00 0.00 0.00 C 13119 2520 M
-63 0 V
stroke
13239 2520 M
[ [(Arial) 200.0 0.0 true true 0 ( 40)]
] -66.7 MLshow
1.000 UL
LTb
0.00 0.00 0.00 C 13119 3279 M
-63 0 V
stroke
13239 3279 M
[ [(Arial) 200.0 0.0 true true 0 ( 60)]
] -66.7 MLshow
1.000 UL
LTb
0.00 0.00 0.00 C 13119 4039 M
-63 0 V
stroke
13239 4039 M
[ [(Arial) 200.0 0.0 true true 0 ( 80)]
] -66.7 MLshow
1.000 UL
LTb
0.00 0.00 0.00 C 13119 4799 M
-63 0 V
stroke
13239 4799 M
[ [(Arial) 200.0 0.0 true true 0 ( 100)]
] -66.7 MLshow
1.000 UL
LTb
0.00 0.00 0.00 C 1.000 UL
LTB
0.00 0.00 0.00 C 980 4799 M
0 -3799 V
12139 0 V
0 3799 R
980 4799 M
1.000 UP
stroke
LTb
0.00 0.00 0.00 C LCb setrgbcolor
160 2899 M
currentpoint gsave translate -270 rotate 0 0 moveto
[ [(Arial) 200.0 0.0 true true 0 (File download time \(s\))]
] -66.7 MCshow
grestore
LTb
LCb setrgbcolor
13938 2899 M
currentpoint gsave translate -270 rotate 0 0 moveto
[ [(Arial) 200.0 0.0 true true 0 (Average UDP throughput [%])]
] -66.7 MCshow
grestore
LTb
LCb setrgbcolor
7049 500 M
[ [(Arial) 200.0 0.0 true true 0 (Local Backhaul traffic \(Mb/s\))]
] -66.7 MCshow
LTb
% Begin plot #1
1.000 UL
LTb
0.60 0.60 0.00 C LCb setrgbcolor
4714 333 M
[ [(Arial) 180.0 0.0 true true 0 (file download time    :   olsr)]
] -60.0 MRshow
1.000 UL
LTb
0.60 0.60 0.00 C 4822 288 333 90 80 -45 0 PatternFill
4822 288 N
333 0 V
0 90 V
-333 0 V
0 -90 V
Z stroke
1.000 UL
LTb
0.60 0.60 0.00 C 990 1338 154 231 80 -45 0 PatternFill
1067 1090 M
0 248 V
0 231 R
0 158 V
stroke
990 1338 N
154 0 V
0 231 V
-154 0 V
0 -231 V
Z stroke
990 1727 M
154 0 V
990 1090 M
154 0 V
stroke
1602 1368 154 190 80 -45 0 PatternFill
1679 1090 M
0 278 V
0 190 R
0 251 V
stroke
1602 1368 N
154 0 V
0 190 V
-154 0 V
0 -190 V
Z stroke
1602 1809 M
154 0 V
1602 1090 M
154 0 V
stroke
2214 1353 154 186 80 -45 0 PatternFill
2291 1090 M
0 263 V
0 186 R
0 153 V
stroke
2214 1353 N
154 0 V
0 186 V
-154 0 V
0 -186 V
Z stroke
2214 1692 M
154 0 V
2214 1090 M
154 0 V
stroke
2826 1333 154 236 80 -45 0 PatternFill
2903 1090 M
0 243 V
0 236 R
0 130 V
stroke
2826 1333 N
154 0 V
0 236 V
-154 0 V
0 -236 V
Z stroke
2826 1699 M
154 0 V
2826 1090 M
154 0 V
stroke
3438 1370 154 252 80 -45 0 PatternFill
3515 1090 M
0 280 V
0 252 R
0 186 V
stroke
3438 1370 N
154 0 V
0 252 V
-154 0 V
0 -252 V
Z stroke
3438 1808 M
154 0 V
3438 1090 M
154 0 V
stroke
4050 1322 154 234 80 -45 0 PatternFill
4127 1090 M
0 232 V
0 234 R
0 250 V
stroke
4050 1322 N
154 0 V
0 234 V
-154 0 V
0 -234 V
Z stroke
4050 1806 M
154 0 V
4050 1090 M
154 0 V
stroke
4663 1342 154 259 80 -45 0 PatternFill
4740 1090 M
0 252 V
0 259 R
0 162 V
stroke
4663 1342 N
154 0 V
0 259 V
-154 0 V
0 -259 V
Z stroke
4663 1763 M
154 0 V
4663 1090 M
154 0 V
stroke
5275 1373 154 206 80 -45 0 PatternFill
5352 1090 M
0 283 V
0 206 R
0 170 V
stroke
5275 1373 N
154 0 V
0 206 V
-154 0 V
0 -206 V
Z stroke
5275 1749 M
154 0 V
5275 1090 M
154 0 V
stroke
5887 1352 154 233 80 -45 0 PatternFill
5964 1090 M
0 262 V
0 233 R
0 196 V
stroke
5887 1352 N
154 0 V
0 233 V
-154 0 V
0 -233 V
Z stroke
5887 1781 M
154 0 V
5887 1090 M
154 0 V
stroke
6499 1334 154 239 80 -45 0 PatternFill
6576 1090 M
0 244 V
0 239 R
0 174 V
stroke
6499 1334 N
154 0 V
0 239 V
-154 0 V
0 -239 V
Z stroke
6499 1747 M
154 0 V
6499 1090 M
154 0 V
stroke
7111 1393 154 156 80 -45 0 PatternFill
7188 1090 M
0 303 V
0 156 R
0 179 V
stroke
7111 1393 N
154 0 V
0 156 V
-154 0 V
0 -156 V
Z stroke
7111 1728 M
154 0 V
7111 1090 M
154 0 V
stroke
7723 1375 154 212 80 -45 0 PatternFill
7800 1090 M
0 285 V
0 212 R
0 160 V
stroke
7723 1375 N
154 0 V
0 212 V
-154 0 V
0 -212 V
Z stroke
7723 1747 M
154 0 V
7723 1090 M
154 0 V
stroke
8335 1337 154 218 80 -45 0 PatternFill
8412 1090 M
0 247 V
0 218 R
0 277 V
stroke
8335 1337 N
154 0 V
0 218 V
-154 0 V
0 -218 V
Z stroke
8335 1832 M
154 0 V
8335 1090 M
154 0 V
stroke
8947 1352 154 219 80 -45 0 PatternFill
9024 1090 M
0 262 V
0 219 R
0 160 V
stroke
8947 1352 N
154 0 V
0 219 V
-154 0 V
0 -219 V
Z stroke
8947 1731 M
154 0 V
8947 1090 M
154 0 V
stroke
9559 1364 154 251 80 -45 0 PatternFill
9636 1090 M
0 274 V
0 251 R
0 199 V
stroke
9559 1364 N
154 0 V
0 251 V
-154 0 V
0 -251 V
Z stroke
9559 1814 M
154 0 V
9559 1090 M
154 0 V
stroke
10171 1396 154 184 80 -45 0 PatternFill
10248 1090 M
0 306 V
0 184 R
0 170 V
stroke
10171 1396 N
154 0 V
0 184 V
-154 0 V
0 -184 V
Z stroke
10171 1750 M
154 0 V
-154 -660 R
154 0 V
stroke
10783 1375 154 185 80 -45 0 PatternFill
10860 1090 M
0 285 V
0 185 R
0 139 V
stroke
10783 1375 N
154 0 V
0 185 V
-154 0 V
0 -185 V
Z stroke
10783 1699 M
154 0 V
-154 -609 R
154 0 V
stroke
11395 1351 154 256 80 -45 0 PatternFill
11472 1090 M
0 261 V
0 256 R
0 237 V
stroke
11395 1351 N
154 0 V
0 256 V
-154 0 V
0 -256 V
Z stroke
11395 1844 M
154 0 V
-154 -754 R
154 0 V
stroke
12007 1332 154 226 80 -45 0 PatternFill
12084 1090 M
0 242 V
0 226 R
0 257 V
stroke
12007 1332 N
154 0 V
0 226 V
-154 0 V
0 -226 V
Z stroke
12007 1815 M
154 0 V
-154 -725 R
154 0 V
stroke
12619 1377 154 176 80 -45 0 PatternFill
12696 1090 M
0 287 V
0 176 R
0 174 V
stroke
12619 1377 N
154 0 V
0 176 V
-154 0 V
0 -176 V
Z stroke
12619 1727 M
154 0 V
-154 -637 R
154 0 V
% End plot #1
% Begin plot #2
stroke
LTb
LCb setrgbcolor

 /TransparentPatterns true def
990 1431 154 0 40 30 0 PatternFill
1067 1431 M
stroke
990 1431 N
154 0 V
-154 0 V
Z stroke
990 1431 M
154 0 V
-154 0 R
154 0 V
stroke

 /TransparentPatterns true def
1602 1441 154 0 40 30 0 PatternFill
1679 1441 M
stroke
1602 1441 N
154 0 V
-154 0 V
Z stroke
1602 1441 M
154 0 V
-154 0 R
154 0 V
stroke

 /TransparentPatterns true def
2214 1430 154 0 40 30 0 PatternFill
2291 1430 M
stroke
2214 1430 N
154 0 V
-154 0 V
Z stroke
2214 1430 M
154 0 V
-154 0 R
154 0 V
stroke

 /TransparentPatterns true def
2826 1424 154 0 40 30 0 PatternFill
2903 1424 M
stroke
2826 1424 N
154 0 V
-154 0 V
Z stroke
2826 1424 M
154 0 V
-154 0 R
154 0 V
stroke

 /TransparentPatterns true def
3438 1462 154 0 40 30 0 PatternFill
3515 1462 M
stroke
3438 1462 N
154 0 V
-154 0 V
Z stroke
3438 1462 M
154 0 V
-154 0 R
154 0 V
stroke

 /TransparentPatterns true def
4050 1445 154 0 40 30 0 PatternFill
4127 1445 M
stroke
4050 1445 N
154 0 V
-154 0 V
Z stroke
4050 1445 M
154 0 V
-154 0 R
154 0 V
stroke

 /TransparentPatterns true def
4663 1449 154 0 40 30 0 PatternFill
4740 1449 M
stroke
4663 1449 N
154 0 V
-154 0 V
Z stroke
4663 1449 M
154 0 V
-154 0 R
154 0 V
stroke

 /TransparentPatterns true def
5275 1453 154 0 40 30 0 PatternFill
5352 1453 M
stroke
5275 1453 N
154 0 V
-154 0 V
Z stroke
5275 1453 M
154 0 V
-154 0 R
154 0 V
stroke

 /TransparentPatterns true def
5887 1455 154 0 40 30 0 PatternFill
5964 1455 M
stroke
5887 1455 N
154 0 V
-154 0 V
Z stroke
5887 1455 M
154 0 V
-154 0 R
154 0 V
stroke

 /TransparentPatterns true def
6499 1441 154 0 40 30 0 PatternFill
6576 1441 M
stroke
6499 1441 N
154 0 V
-154 0 V
Z stroke
6499 1441 M
154 0 V
-154 0 R
154 0 V
stroke

 /TransparentPatterns true def
7111 1441 154 0 40 30 0 PatternFill
7188 1441 M
stroke
7111 1441 N
154 0 V
-154 0 V
Z stroke
7111 1441 M
154 0 V
-154 0 R
154 0 V
stroke

 /TransparentPatterns true def
7723 1459 154 0 40 30 0 PatternFill
7800 1459 M
stroke
7723 1459 N
154 0 V
-154 0 V
Z stroke
7723 1459 M
154 0 V
-154 0 R
154 0 V
stroke

 /TransparentPatterns true def
8335 1443 154 0 40 30 0 PatternFill
8412 1443 M
stroke
8335 1443 N
154 0 V
-154 0 V
Z stroke
8335 1443 M
154 0 V
-154 0 R
154 0 V
stroke

 /TransparentPatterns true def
8947 1441 154 0 40 30 0 PatternFill
9024 1441 M
stroke
8947 1441 N
154 0 V
-154 0 V
Z stroke
8947 1441 M
154 0 V
-154 0 R
154 0 V
stroke

 /TransparentPatterns true def
9559 1470 154 0 40 30 0 PatternFill
9636 1470 M
stroke
9559 1470 N
154 0 V
-154 0 V
Z stroke
9559 1470 M
154 0 V
-154 0 R
154 0 V
stroke

 /TransparentPatterns true def
10171 1456 154 0 40 30 0 PatternFill
10248 1456 M
stroke
10171 1456 N
154 0 V
-154 0 V
Z stroke
10171 1456 M
154 0 V
-154 0 R
154 0 V
stroke

 /TransparentPatterns true def
10783 1439 154 0 40 30 0 PatternFill
10860 1439 M
stroke
10783 1439 N
154 0 V
-154 0 V
Z stroke
10783 1439 M
154 0 V
-154 0 R
154 0 V
stroke

 /TransparentPatterns true def
11395 1463 154 0 40 30 0 PatternFill
11472 1463 M
stroke
11395 1463 N
154 0 V
-154 0 V
Z stroke
11395 1463 M
154 0 V
-154 0 R
154 0 V
stroke

 /TransparentPatterns true def
12007 1455 154 0 40 30 0 PatternFill
12084 1455 M
stroke
12007 1455 N
154 0 V
-154 0 V
Z stroke
12007 1455 M
154 0 V
-154 0 R
154 0 V
stroke

 /TransparentPatterns true def
12619 1457 154 0 40 30 0 PatternFill
12696 1457 M
stroke
12619 1457 N
154 0 V
-154 0 V
Z stroke
12619 1457 M
154 0 V
-154 0 R
154 0 V
% End plot #2
% Begin plot #3
2.000 UP
stroke
LTa
0.60 0.60 0.00 C LCb setrgbcolor
4714 153 M
[ [(Arial) 180.0 0.0 true true 0 (avg. throughput :         )]
] -60.0 MRshow
2.000 UP
1.000 UL
LTa
0.60 0.60 0.00 C 4822 153 M
333 0 V
1067 3697 M
612 95 V
612 -120 V
612 2 V
612 118 V
612 0 V
612 -54 V
612 -31 V
612 58 V
612 -28 V
612 -29 V
612 -1 V
612 112 V
612 -112 V
612 87 V
612 -87 V
613 -67 V
612 179 V
612 -26 V
612 -86 V
1067 3697 Box
1679 3792 Box
2291 3672 Box
2903 3674 Box
3515 3792 Box
4127 3792 Box
4739 3738 Box
5351 3707 Box
5963 3765 Box
6575 3737 Box
7187 3708 Box
7799 3707 Box
8411 3819 Box
9023 3707 Box
9635 3794 Box
10247 3707 Box
10860 3640 Box
11472 3819 Box
12084 3793 Box
12696 3707 Box
4988 153 Box
% End plot #3
% Begin plot #4
1.000 UL
LTb
0.00 0.00 0.63 C LCb setrgbcolor
8287 333 M
[ [(Arial) 180.0 0.0 true true 0 (per-packet)]
] -60.0 MRshow
1.000 UL
LTb
0.00 0.00 0.63 C 8395 288 333 90 80 45 0 PatternFill
8395 288 N
333 0 V
0 90 V
-333 0 V
0 -90 V
Z stroke
1.000 UL
LTb
0.00 0.00 0.63 C 1159 1110 154 1342 80 45 0 PatternFill
1236 1073 M
0 37 V
0 1342 R
0 320 V
stroke
1159 1110 N
154 0 V
0 1342 V
-154 0 V
0 -1342 V
Z stroke
1159 2772 M
154 0 V
1159 1073 M
154 0 V
stroke
1771 1105 154 1378 80 45 0 PatternFill
1848 1068 M
0 37 V
0 1378 R
0 322 V
stroke
1771 1105 N
154 0 V
0 1378 V
-154 0 V
0 -1378 V
Z stroke
1771 2805 M
154 0 V
1771 1068 M
154 0 V
stroke
2383 1113 154 1297 80 45 0 PatternFill
2460 1074 M
0 39 V
0 1297 R
0 427 V
stroke
2383 1113 N
154 0 V
0 1297 V
-154 0 V
0 -1297 V
Z stroke
2383 2837 M
154 0 V
2383 1074 M
154 0 V
stroke
2995 1122 154 1277 80 45 0 PatternFill
3072 1071 M
0 51 V
0 1277 R
0 258 V
stroke
2995 1122 N
154 0 V
0 1277 V
-154 0 V
0 -1277 V
Z stroke
2995 2657 M
154 0 V
2995 1071 M
154 0 V
stroke
3607 1152 154 1214 80 45 0 PatternFill
3684 1068 M
0 84 V
0 1214 R
0 313 V
stroke
3607 1152 N
154 0 V
0 1214 V
-154 0 V
0 -1214 V
Z stroke
3607 2679 M
154 0 V
3607 1068 M
154 0 V
stroke
4219 1132 154 1294 80 45 0 PatternFill
4296 1074 M
0 58 V
0 1294 R
0 241 V
stroke
4219 1132 N
154 0 V
0 1294 V
-154 0 V
0 -1294 V
Z stroke
4219 2667 M
154 0 V
4219 1074 M
154 0 V
stroke
4831 1110 154 1313 80 45 0 PatternFill
4908 1075 M
0 35 V
0 1313 R
0 449 V
stroke
4831 1110 N
154 0 V
0 1313 V
-154 0 V
0 -1313 V
Z stroke
4831 2872 M
154 0 V
4831 1075 M
154 0 V
stroke
5443 1121 154 1294 80 45 0 PatternFill
5520 1059 M
0 62 V
0 1294 R
0 264 V
stroke
5443 1121 N
154 0 V
0 1294 V
-154 0 V
0 -1294 V
Z stroke
5443 2679 M
154 0 V
5443 1059 M
154 0 V
stroke
6055 1121 154 1328 80 45 0 PatternFill
6132 1075 M
0 46 V
0 1328 R
0 221 V
stroke
6055 1121 N
154 0 V
0 1328 V
-154 0 V
0 -1328 V
Z stroke
6055 2670 M
154 0 V
6055 1075 M
154 0 V
stroke
6667 1129 154 1256 80 45 0 PatternFill
6744 1077 M
0 52 V
0 1256 R
0 393 V
stroke
6667 1129 N
154 0 V
0 1256 V
-154 0 V
0 -1256 V
Z stroke
6667 2778 M
154 0 V
6667 1077 M
154 0 V
stroke
7279 1124 154 1324 80 45 0 PatternFill
7356 1072 M
0 52 V
0 1324 R
0 170 V
stroke
7279 1124 N
154 0 V
0 1324 V
-154 0 V
0 -1324 V
Z stroke
7279 2618 M
154 0 V
7279 1072 M
154 0 V
stroke
7891 1115 154 1246 80 45 0 PatternFill
7968 1077 M
0 38 V
0 1246 R
0 260 V
stroke
7891 1115 N
154 0 V
0 1246 V
-154 0 V
0 -1246 V
Z stroke
7891 2621 M
154 0 V
7891 1077 M
154 0 V
stroke
8503 1124 154 1254 80 45 0 PatternFill
8580 1085 M
0 39 V
0 1254 R
0 282 V
stroke
8503 1124 N
154 0 V
0 1254 V
-154 0 V
0 -1254 V
Z stroke
8503 2660 M
154 0 V
8503 1085 M
154 0 V
stroke
9115 1137 154 1244 80 45 0 PatternFill
9192 1073 M
0 64 V
0 1244 R
0 339 V
stroke
9115 1137 N
154 0 V
0 1244 V
-154 0 V
0 -1244 V
Z stroke
9115 2720 M
154 0 V
9115 1073 M
154 0 V
stroke
9727 1110 154 1252 80 45 0 PatternFill
9804 1055 M
0 55 V
0 1252 R
0 293 V
stroke
9727 1110 N
154 0 V
0 1252 V
-154 0 V
0 -1252 V
Z stroke
9727 2655 M
154 0 V
9727 1055 M
154 0 V
stroke
10339 1127 154 1246 80 45 0 PatternFill
10416 1083 M
0 44 V
0 1246 R
0 253 V
stroke
10339 1127 N
154 0 V
0 1246 V
-154 0 V
0 -1246 V
Z stroke
10339 2626 M
154 0 V
10339 1083 M
154 0 V
stroke
10951 1147 154 1192 80 45 0 PatternFill
11028 1073 M
0 74 V
0 1192 R
0 372 V
stroke
10951 1147 N
154 0 V
0 1192 V
-154 0 V
0 -1192 V
Z stroke
10951 2711 M
154 0 V
10951 1073 M
154 0 V
stroke
11563 1194 154 1192 80 45 0 PatternFill
11640 1073 M
0 121 V
0 1192 R
0 243 V
stroke
11563 1194 N
154 0 V
0 1192 V
-154 0 V
0 -1192 V
Z stroke
11563 2629 M
154 0 V
11563 1073 M
154 0 V
stroke
12175 1169 154 1104 80 45 0 PatternFill
12252 1071 M
0 98 V
0 1104 R
0 248 V
stroke
12175 1169 N
154 0 V
0 1104 V
-154 0 V
0 -1104 V
Z stroke
12175 2521 M
154 0 V
12175 1071 M
154 0 V
stroke
12787 1188 154 1226 80 45 0 PatternFill
12864 1072 M
0 116 V
0 1226 R
0 148 V
stroke
12787 1188 N
154 0 V
0 1226 V
-154 0 V
0 -1226 V
Z stroke
12787 2562 M
154 0 V
12787 1072 M
154 0 V
% End plot #4
% Begin plot #5
stroke
LTb
LCb setrgbcolor

 /TransparentPatterns true def
1159 1598 154 0 80 -45 0 PatternFill
1236 1598 M
stroke
1159 1598 N
154 0 V
-154 0 V
Z stroke
1159 1598 M
154 0 V
-154 0 R
154 0 V
stroke

 /TransparentPatterns true def
1771 1621 154 0 80 -45 0 PatternFill
1848 1621 M
stroke
1771 1621 N
154 0 V
-154 0 V
Z stroke
1771 1621 M
154 0 V
-154 0 R
154 0 V
stroke

 /TransparentPatterns true def
2383 1625 154 0 80 -45 0 PatternFill
2460 1625 M
stroke
2383 1625 N
154 0 V
-154 0 V
Z stroke
2383 1625 M
154 0 V
-154 0 R
154 0 V
stroke

 /TransparentPatterns true def
2995 1616 154 0 80 -45 0 PatternFill
3072 1616 M
stroke
2995 1616 N
154 0 V
-154 0 V
Z stroke
2995 1616 M
154 0 V
-154 0 R
154 0 V
stroke

 /TransparentPatterns true def
3607 1629 154 0 80 -45 0 PatternFill
3684 1629 M
stroke
3607 1629 N
154 0 V
-154 0 V
Z stroke
3607 1629 M
154 0 V
-154 0 R
154 0 V
stroke

 /TransparentPatterns true def
4219 1618 154 0 80 -45 0 PatternFill
4296 1618 M
stroke
4219 1618 N
154 0 V
-154 0 V
Z stroke
4219 1618 M
154 0 V
-154 0 R
154 0 V
stroke

 /TransparentPatterns true def
4831 1619 154 0 80 -45 0 PatternFill
4908 1619 M
stroke
4831 1619 N
154 0 V
-154 0 V
Z stroke
4831 1619 M
154 0 V
-154 0 R
154 0 V
stroke

 /TransparentPatterns true def
5443 1636 154 0 80 -45 0 PatternFill
5520 1636 M
stroke
5443 1636 N
154 0 V
-154 0 V
Z stroke
5443 1636 M
154 0 V
-154 0 R
154 0 V
stroke

 /TransparentPatterns true def
6055 1606 154 0 80 -45 0 PatternFill
6132 1606 M
stroke
6055 1606 N
154 0 V
-154 0 V
Z stroke
6055 1606 M
154 0 V
-154 0 R
154 0 V
stroke

 /TransparentPatterns true def
6667 1621 154 0 80 -45 0 PatternFill
6744 1621 M
stroke
6667 1621 N
154 0 V
-154 0 V
Z stroke
6667 1621 M
154 0 V
-154 0 R
154 0 V
stroke

 /TransparentPatterns true def
7279 1610 154 0 80 -45 0 PatternFill
7356 1610 M
stroke
7279 1610 N
154 0 V
-154 0 V
Z stroke
7279 1610 M
154 0 V
-154 0 R
154 0 V
stroke

 /TransparentPatterns true def
7891 1577 154 0 80 -45 0 PatternFill
7968 1577 M
stroke
7891 1577 N
154 0 V
-154 0 V
Z stroke
7891 1577 M
154 0 V
-154 0 R
154 0 V
stroke

 /TransparentPatterns true def
8503 1610 154 0 80 -45 0 PatternFill
8580 1610 M
stroke
8503 1610 N
154 0 V
-154 0 V
Z stroke
8503 1610 M
154 0 V
-154 0 R
154 0 V
stroke

 /TransparentPatterns true def
9115 1617 154 0 80 -45 0 PatternFill
9192 1617 M
stroke
9115 1617 N
154 0 V
-154 0 V
Z stroke
9115 1617 M
154 0 V
-154 0 R
154 0 V
stroke

 /TransparentPatterns true def
9727 1613 154 0 80 -45 0 PatternFill
9804 1613 M
stroke
9727 1613 N
154 0 V
-154 0 V
Z stroke
9727 1613 M
154 0 V
-154 0 R
154 0 V
stroke

 /TransparentPatterns true def
10339 1620 154 0 80 -45 0 PatternFill
10416 1620 M
stroke
10339 1620 N
154 0 V
-154 0 V
Z stroke
10339 1620 M
154 0 V
-154 0 R
154 0 V
stroke

 /TransparentPatterns true def
10951 1605 154 0 80 -45 0 PatternFill
11028 1605 M
stroke
10951 1605 N
154 0 V
-154 0 V
Z stroke
10951 1605 M
154 0 V
-154 0 R
154 0 V
stroke

 /TransparentPatterns true def
11563 1644 154 0 80 -45 0 PatternFill
11640 1644 M
stroke
11563 1644 N
154 0 V
-154 0 V
Z stroke
11563 1644 M
154 0 V
-154 0 R
154 0 V
stroke

 /TransparentPatterns true def
12175 1621 154 0 80 -45 0 PatternFill
12252 1621 M
stroke
12175 1621 N
154 0 V
-154 0 V
Z stroke
12175 1621 M
154 0 V
-154 0 R
154 0 V
stroke

 /TransparentPatterns true def
12787 1639 154 0 80 -45 0 PatternFill
12864 1639 M
stroke
12787 1639 N
154 0 V
-154 0 V
Z stroke
12787 1639 M
154 0 V
-154 0 R
154 0 V
% End plot #5
% Begin plot #6
2.000 UP
stroke
LTa
0.00 0.00 0.63 C LCb setrgbcolor
8287 153 M
[ [(Arial) 180.0 0.0 true true 0 ( )]
] -60.0 MRshow
2.000 UP
1.000 UL
LTa
0.00 0.00 0.63 C 8395 153 M
333 0 V
1235 4742 M
612 10 V
612 3 V
612 -8 V
612 -1 V
612 2 V
612 5 V
612 -6 V
612 -1 V
612 4 V
613 -5 V
612 2 V
612 -1 V
612 3 V
612 -2 V
612 -1 V
612 3 V
612 -3 V
612 -4 V
612 2 V
1235 4742 Circle
1847 4752 Circle
2459 4755 Circle
3071 4747 Circle
3683 4746 Circle
4295 4748 Circle
4907 4753 Circle
5519 4747 Circle
6131 4746 Circle
6743 4750 Circle
7356 4745 Circle
7968 4747 Circle
8580 4746 Circle
9192 4749 Circle
9804 4747 Circle
10416 4746 Circle
11028 4749 Circle
11640 4746 Circle
12252 4742 Circle
12864 4744 Circle
8561 153 Circle
% End plot #6
% Begin plot #7
1.000 UL
LTb
0.00 0.38 0.82 C LCb setrgbcolor
11860 333 M
[ [(Arial) 180.0 0.0 true true 0 (per-flow)]
] -60.0 MRshow
1.000 UL
LTb
0.00 0.38 0.82 C 11968 288 333 90 40 30 0 PatternFill
11968 288 N
333 0 V
0 90 V
-333 0 V
0 -90 V
Z stroke
1.000 UL
LTb
0.00 0.38 0.82 C 1327 1117 154 166 40 30 0 PatternFill
1404 1080 M
0 37 V
0 166 R
0 262 V
stroke
1327 1117 N
154 0 V
0 166 V
-154 0 V
0 -166 V
Z stroke
1327 1545 M
154 0 V
1327 1080 M
154 0 V
stroke
1939 1138 154 156 40 30 0 PatternFill
2016 1077 M
0 61 V
0 156 R
0 196 V
stroke
1939 1138 N
154 0 V
0 156 V
-154 0 V
0 -156 V
Z stroke
1939 1490 M
154 0 V
1939 1077 M
154 0 V
stroke
2551 1109 154 191 40 30 0 PatternFill
2628 1074 M
0 35 V
0 191 R
0 148 V
stroke
2551 1109 N
154 0 V
0 191 V
-154 0 V
0 -191 V
Z stroke
2551 1448 M
154 0 V
2551 1074 M
154 0 V
stroke
3163 1115 154 215 40 30 0 PatternFill
3240 1071 M
0 44 V
0 215 R
0 144 V
stroke
3163 1115 N
154 0 V
0 215 V
-154 0 V
0 -215 V
Z stroke
3163 1474 M
154 0 V
3163 1071 M
154 0 V
stroke
3775 1117 154 248 40 30 0 PatternFill
3852 1093 M
0 24 V
0 248 R
0 149 V
stroke
3775 1117 N
154 0 V
0 248 V
-154 0 V
0 -248 V
Z stroke
3775 1514 M
154 0 V
3775 1093 M
154 0 V
stroke
4387 1112 154 185 40 30 0 PatternFill
4464 1083 M
0 29 V
0 185 R
0 255 V
stroke
4387 1112 N
154 0 V
0 185 V
-154 0 V
0 -185 V
Z stroke
4387 1552 M
154 0 V
4387 1083 M
154 0 V
stroke
4999 1123 154 198 40 30 0 PatternFill
5076 1082 M
0 41 V
0 198 R
0 161 V
stroke
4999 1123 N
154 0 V
0 198 V
-154 0 V
0 -198 V
Z stroke
4999 1482 M
154 0 V
4999 1082 M
154 0 V
stroke
5611 1119 154 171 40 30 0 PatternFill
5688 1069 M
0 50 V
0 171 R
0 196 V
stroke
5611 1119 N
154 0 V
0 171 V
-154 0 V
0 -171 V
Z stroke
5611 1486 M
154 0 V
5611 1069 M
154 0 V
stroke
6223 1143 154 167 40 30 0 PatternFill
6300 1079 M
0 64 V
0 167 R
0 234 V
stroke
6223 1143 N
154 0 V
0 167 V
-154 0 V
0 -167 V
Z stroke
6223 1544 M
154 0 V
6223 1079 M
154 0 V
stroke
6835 1135 154 161 40 30 0 PatternFill
6912 1081 M
0 54 V
0 161 R
0 148 V
stroke
6835 1135 N
154 0 V
0 161 V
-154 0 V
0 -161 V
Z stroke
6835 1444 M
154 0 V
6835 1081 M
154 0 V
stroke
7447 1123 154 121 40 30 0 PatternFill
7524 1074 M
0 49 V
0 121 R
0 156 V
stroke
7447 1123 N
154 0 V
0 121 V
-154 0 V
0 -121 V
Z stroke
7447 1400 M
154 0 V
7447 1074 M
154 0 V
stroke
8059 1103 154 171 40 30 0 PatternFill
8136 1086 M
0 17 V
0 171 R
0 179 V
stroke
8059 1103 N
154 0 V
0 171 V
-154 0 V
0 -171 V
Z stroke
8059 1453 M
154 0 V
8059 1086 M
154 0 V
stroke
8671 1137 154 134 40 30 0 PatternFill
8748 1082 M
0 55 V
0 134 R
0 176 V
stroke
8671 1137 N
154 0 V
0 134 V
-154 0 V
0 -134 V
Z stroke
8671 1447 M
154 0 V
8671 1082 M
154 0 V
stroke
9283 1120 154 180 40 30 0 PatternFill
9360 1093 M
0 27 V
0 180 R
0 291 V
stroke
9283 1120 N
154 0 V
0 180 V
-154 0 V
0 -180 V
Z stroke
9283 1591 M
154 0 V
9283 1093 M
154 0 V
stroke
9896 1121 154 206 40 30 0 PatternFill
9973 1078 M
0 43 V
0 206 R
0 267 V
stroke
9896 1121 N
154 0 V
0 206 V
-154 0 V
0 -206 V
Z stroke
9896 1594 M
154 0 V
9896 1078 M
154 0 V
stroke
10508 1108 154 280 40 30 0 PatternFill
10585 1071 M
0 37 V
0 280 R
0 134 V
stroke
10508 1108 N
154 0 V
0 280 V
-154 0 V
0 -280 V
Z stroke
10508 1522 M
154 0 V
-154 -451 R
154 0 V
stroke
11120 1152 154 162 40 30 0 PatternFill
11197 1084 M
0 68 V
0 162 R
0 135 V
stroke
11120 1152 N
154 0 V
0 162 V
-154 0 V
0 -162 V
Z stroke
11120 1449 M
154 0 V
-154 -365 R
154 0 V
stroke
11732 1169 154 175 40 30 0 PatternFill
11809 1075 M
0 94 V
0 175 R
0 284 V
stroke
11732 1169 N
154 0 V
0 175 V
-154 0 V
0 -175 V
Z stroke
11732 1628 M
154 0 V
-154 -553 R
154 0 V
stroke
12344 1139 154 191 40 30 0 PatternFill
12421 1066 M
0 73 V
0 191 R
0 280 V
stroke
12344 1139 N
154 0 V
0 191 V
-154 0 V
0 -191 V
Z stroke
12344 1610 M
154 0 V
-154 -544 R
154 0 V
stroke
12956 1140 154 213 40 30 0 PatternFill
13033 1077 M
0 63 V
0 213 R
0 259 V
stroke
12956 1140 N
154 0 V
0 213 V
-154 0 V
0 -213 V
Z stroke
12956 1612 M
154 0 V
-154 -535 R
154 0 V
% End plot #7
% Begin plot #8
stroke
LTb
LCb setrgbcolor

 /TransparentPatterns true def
1327 1217 154 0 40 -30 0 PatternFill
1404 1217 M
stroke
1327 1217 N
154 0 V
-154 0 V
Z stroke
1327 1217 M
154 0 V
-154 0 R
154 0 V
stroke

 /TransparentPatterns true def
1939 1209 154 0 40 -30 0 PatternFill
2016 1209 M
stroke
1939 1209 N
154 0 V
-154 0 V
Z stroke
1939 1209 M
154 0 V
-154 0 R
154 0 V
stroke

 /TransparentPatterns true def
2551 1212 154 0 40 -30 0 PatternFill
2628 1212 M
stroke
2551 1212 N
154 0 V
-154 0 V
Z stroke
2551 1212 M
154 0 V
-154 0 R
154 0 V
stroke

 /TransparentPatterns true def
3163 1220 154 0 40 -30 0 PatternFill
3240 1220 M
stroke
3163 1220 N
154 0 V
-154 0 V
Z stroke
3163 1220 M
154 0 V
-154 0 R
154 0 V
stroke

 /TransparentPatterns true def
3775 1230 154 0 40 -30 0 PatternFill
3852 1230 M
stroke
3775 1230 N
154 0 V
-154 0 V
Z stroke
3775 1230 M
154 0 V
-154 0 R
154 0 V
stroke

 /TransparentPatterns true def
4387 1206 154 0 40 -30 0 PatternFill
4464 1206 M
stroke
4387 1206 N
154 0 V
-154 0 V
Z stroke
4387 1206 M
154 0 V
-154 0 R
154 0 V
stroke

 /TransparentPatterns true def
4999 1221 154 0 40 -30 0 PatternFill
5076 1221 M
stroke
4999 1221 N
154 0 V
-154 0 V
Z stroke
4999 1221 M
154 0 V
-154 0 R
154 0 V
stroke

 /TransparentPatterns true def
5611 1217 154 0 40 -30 0 PatternFill
5688 1217 M
stroke
5611 1217 N
154 0 V
-154 0 V
Z stroke
5611 1217 M
154 0 V
-154 0 R
154 0 V
stroke

 /TransparentPatterns true def
6223 1236 154 0 40 -30 0 PatternFill
6300 1236 M
stroke
6223 1236 N
154 0 V
-154 0 V
Z stroke
6223 1236 M
154 0 V
-154 0 R
154 0 V
stroke

 /TransparentPatterns true def
6835 1236 154 0 40 -30 0 PatternFill
6912 1236 M
stroke
6835 1236 N
154 0 V
-154 0 V
Z stroke
6835 1236 M
154 0 V
-154 0 R
154 0 V
stroke

 /TransparentPatterns true def
7447 1191 154 0 40 -30 0 PatternFill
7524 1191 M
stroke
7447 1191 N
154 0 V
-154 0 V
Z stroke
7447 1191 M
154 0 V
-154 0 R
154 0 V
stroke

 /TransparentPatterns true def
8059 1209 154 0 40 -30 0 PatternFill
8136 1209 M
stroke
8059 1209 N
154 0 V
-154 0 V
Z stroke
8059 1209 M
154 0 V
-154 0 R
154 0 V
stroke

 /TransparentPatterns true def
8671 1211 154 0 40 -30 0 PatternFill
8748 1211 M
stroke
8671 1211 N
154 0 V
-154 0 V
Z stroke
8671 1211 M
154 0 V
-154 0 R
154 0 V
stroke

 /TransparentPatterns true def
9283 1237 154 0 40 -30 0 PatternFill
9360 1237 M
stroke
9283 1237 N
154 0 V
-154 0 V
Z stroke
9283 1237 M
154 0 V
-154 0 R
154 0 V
stroke

 /TransparentPatterns true def
9896 1236 154 0 40 -30 0 PatternFill
9973 1236 M
stroke
9896 1236 N
154 0 V
-154 0 V
Z stroke
9896 1236 M
154 0 V
-154 0 R
154 0 V
stroke

 /TransparentPatterns true def
10508 1231 154 0 40 -30 0 PatternFill
10585 1231 M
stroke
10508 1231 N
154 0 V
-154 0 V
Z stroke
10508 1231 M
154 0 V
-154 0 R
154 0 V
stroke

 /TransparentPatterns true def
11120 1234 154 0 40 -30 0 PatternFill
11197 1234 M
stroke
11120 1234 N
154 0 V
-154 0 V
Z stroke
11120 1234 M
154 0 V
-154 0 R
154 0 V
stroke

 /TransparentPatterns true def
11732 1269 154 0 40 -30 0 PatternFill
11809 1269 M
stroke
11732 1269 N
154 0 V
-154 0 V
Z stroke
11732 1269 M
154 0 V
-154 0 R
154 0 V
stroke

 /TransparentPatterns true def
12344 1242 154 0 40 -30 0 PatternFill
12421 1242 M
stroke
12344 1242 N
154 0 V
-154 0 V
Z stroke
12344 1242 M
154 0 V
-154 0 R
154 0 V
stroke

 /TransparentPatterns true def
12956 1260 154 0 40 -30 0 PatternFill
13033 1260 M
stroke
12956 1260 N
154 0 V
-154 0 V
Z stroke
12956 1260 M
154 0 V
-154 0 R
154 0 V
% End plot #8
% Begin plot #9
2.000 UP
stroke
LTa
0.00 0.38 0.82 C LCb setrgbcolor
11860 153 M
[ [(Arial) 180.0 0.0 true true 0 ( )]
] -60.0 MRshow
2.000 UP
1.000 UL
LTa
0.00 0.38 0.82 C 11968 153 M
333 0 V
1403 4647 M
612 0 V
612 -19 V
612 10 V
613 13 V
612 6 V
612 -18 V
612 -1 V
612 17 V
612 -23 V
612 -18 V
612 17 V
612 0 V
612 35 V
612 0 V
612 -15 V
612 -21 V
612 40 V
612 0 V
612 0 V
1403 4647 TriU
2015 4647 TriU
2627 4628 TriU
3239 4638 TriU
3852 4651 TriU
4464 4657 TriU
5076 4639 TriU
5688 4638 TriU
6300 4655 TriU
6912 4632 TriU
7524 4614 TriU
8136 4631 TriU
8748 4631 TriU
9360 4666 TriU
9972 4666 TriU
10584 4651 TriU
11196 4630 TriU
11808 4670 TriU
12420 4670 TriU
13032 4670 TriU
12134 153 TriU
% End plot #9
2.000 UL
LTb
LCb setrgbcolor
1.000 UP
1.000 UL
LTb
0.00 0.00 0.00 C stroke
grestore
end
showpage
%%Trailer
%%DocumentFonts: Arial
