%!PS-Adobe-2.0 EPSF-2.0
%%Title: TcpVegas-download-finishtime-25UE-250-400.eps
%%Creator: gnuplot 5.0 patchlevel 3
%%CreationDate: Thu May 19 16:44:20 2016
%%DocumentFonts: (atend)
%%BoundingBox: 50 50 770 302
%%EndComments
%%BeginProlog
/gnudict 256 dict def
gnudict begin
%
% The following true/false flags may be edited by hand if desired.
% The unit line width and grayscale image gamma correction may also be changed.
%
/Color true def
/Blacktext false def
/Solid false def
/Dashlength 3 def
/Landscape false def
/Level1 false def
/Level3 false def
/Rounded false def
/ClipToBoundingBox false def
/SuppressPDFMark false def
/TransparentPatterns false def
/gnulinewidth 15.000 def
/userlinewidth gnulinewidth def
/Gamma 1.0 def
/BackgroundColor {-1.000 -1.000 -1.000} def
%
/vshift -66 def
/dl1 {
  10.0 Dashlength userlinewidth gnulinewidth div mul mul mul
  Rounded { currentlinewidth 0.75 mul sub dup 0 le { pop 0.01 } if } if
} def
/dl2 {
  10.0 Dashlength userlinewidth gnulinewidth div mul mul mul
  Rounded { currentlinewidth 0.75 mul add } if
} def
/hpt_ 31.5 def
/vpt_ 31.5 def
/hpt hpt_ def
/vpt vpt_ def
/doclip {
  ClipToBoundingBox {
    newpath 50 50 moveto 770 50 lineto 770 302 lineto 50 302 lineto closepath
    clip
  } if
} def
%
% Gnuplot Prolog Version 5.1 (Oct 2015)
%
%/SuppressPDFMark true def
%
/M {moveto} bind def
/L {lineto} bind def
/R {rmoveto} bind def
/V {rlineto} bind def
/N {newpath moveto} bind def
/Z {closepath} bind def
/C {setrgbcolor} bind def
/f {rlineto fill} bind def
/g {setgray} bind def
/Gshow {show} def   % May be redefined later in the file to support UTF-8
/vpt2 vpt 2 mul def
/hpt2 hpt 2 mul def
/Lshow {currentpoint stroke M 0 vshift R 
	Blacktext {gsave 0 setgray textshow grestore} {textshow} ifelse} def
/Rshow {currentpoint stroke M dup stringwidth pop neg vshift R
	Blacktext {gsave 0 setgray textshow grestore} {textshow} ifelse} def
/Cshow {currentpoint stroke M dup stringwidth pop -2 div vshift R 
	Blacktext {gsave 0 setgray textshow grestore} {textshow} ifelse} def
/UP {dup vpt_ mul /vpt exch def hpt_ mul /hpt exch def
  /hpt2 hpt 2 mul def /vpt2 vpt 2 mul def} def
/DL {Color {setrgbcolor Solid {pop []} if 0 setdash}
 {pop pop pop 0 setgray Solid {pop []} if 0 setdash} ifelse} def
/BL {stroke userlinewidth 2 mul setlinewidth
	Rounded {1 setlinejoin 1 setlinecap} if} def
/AL {stroke userlinewidth 2 div setlinewidth
	Rounded {1 setlinejoin 1 setlinecap} if} def
/UL {dup gnulinewidth mul /userlinewidth exch def
	dup 1 lt {pop 1} if 10 mul /udl exch def} def
/PL {stroke userlinewidth setlinewidth
	Rounded {1 setlinejoin 1 setlinecap} if} def
3.8 setmiterlimit
% Classic Line colors (version 5.0)
/LCw {1 1 1} def
/LCb {0 0 0} def
/LCa {0 0 0} def
/LC0 {1 0 0} def
/LC1 {0 1 0} def
/LC2 {0 0 1} def
/LC3 {1 0 1} def
/LC4 {0 1 1} def
/LC5 {1 1 0} def
/LC6 {0 0 0} def
/LC7 {1 0.3 0} def
/LC8 {0.5 0.5 0.5} def
% Default dash patterns (version 5.0)
/LTB {BL [] LCb DL} def
/LTw {PL [] 1 setgray} def
/LTb {PL [] LCb DL} def
/LTa {AL [1 udl mul 2 udl mul] 0 setdash LCa setrgbcolor} def
/LT0 {PL [] LC0 DL} def
/LT1 {PL [2 dl1 3 dl2] LC1 DL} def
/LT2 {PL [1 dl1 1.5 dl2] LC2 DL} def
/LT3 {PL [6 dl1 2 dl2 1 dl1 2 dl2] LC3 DL} def
/LT4 {PL [1 dl1 2 dl2 6 dl1 2 dl2 1 dl1 2 dl2] LC4 DL} def
/LT5 {PL [4 dl1 2 dl2] LC5 DL} def
/LT6 {PL [1.5 dl1 1.5 dl2 1.5 dl1 1.5 dl2 1.5 dl1 6 dl2] LC6 DL} def
/LT7 {PL [3 dl1 3 dl2 1 dl1 3 dl2] LC7 DL} def
/LT8 {PL [2 dl1 2 dl2 2 dl1 6 dl2] LC8 DL} def
/SL {[] 0 setdash} def
/Pnt {stroke [] 0 setdash gsave 1 setlinecap M 0 0 V stroke grestore} def
/Dia {stroke [] 0 setdash 2 copy vpt add M
  hpt neg vpt neg V hpt vpt neg V
  hpt vpt V hpt neg vpt V closepath stroke
  Pnt} def
/Pls {stroke [] 0 setdash vpt sub M 0 vpt2 V
  currentpoint stroke M
  hpt neg vpt neg R hpt2 0 V stroke
 } def
/Box {stroke [] 0 setdash 2 copy exch hpt sub exch vpt add M
  0 vpt2 neg V hpt2 0 V 0 vpt2 V
  hpt2 neg 0 V closepath stroke
  Pnt} def
/Crs {stroke [] 0 setdash exch hpt sub exch vpt add M
  hpt2 vpt2 neg V currentpoint stroke M
  hpt2 neg 0 R hpt2 vpt2 V stroke} def
/TriU {stroke [] 0 setdash 2 copy vpt 1.12 mul add M
  hpt neg vpt -1.62 mul V
  hpt 2 mul 0 V
  hpt neg vpt 1.62 mul V closepath stroke
  Pnt} def
/Star {2 copy Pls Crs} def
/BoxF {stroke [] 0 setdash exch hpt sub exch vpt add M
  0 vpt2 neg V hpt2 0 V 0 vpt2 V
  hpt2 neg 0 V closepath fill} def
/TriUF {stroke [] 0 setdash vpt 1.12 mul add M
  hpt neg vpt -1.62 mul V
  hpt 2 mul 0 V
  hpt neg vpt 1.62 mul V closepath fill} def
/TriD {stroke [] 0 setdash 2 copy vpt 1.12 mul sub M
  hpt neg vpt 1.62 mul V
  hpt 2 mul 0 V
  hpt neg vpt -1.62 mul V closepath stroke
  Pnt} def
/TriDF {stroke [] 0 setdash vpt 1.12 mul sub M
  hpt neg vpt 1.62 mul V
  hpt 2 mul 0 V
  hpt neg vpt -1.62 mul V closepath fill} def
/DiaF {stroke [] 0 setdash vpt add M
  hpt neg vpt neg V hpt vpt neg V
  hpt vpt V hpt neg vpt V closepath fill} def
/Pent {stroke [] 0 setdash 2 copy gsave
  translate 0 hpt M 4 {72 rotate 0 hpt L} repeat
  closepath stroke grestore Pnt} def
/PentF {stroke [] 0 setdash gsave
  translate 0 hpt M 4 {72 rotate 0 hpt L} repeat
  closepath fill grestore} def
/Circle {stroke [] 0 setdash 2 copy
  hpt 0 360 arc stroke Pnt} def
/CircleF {stroke [] 0 setdash hpt 0 360 arc fill} def
/C0 {BL [] 0 setdash 2 copy moveto vpt 90 450 arc} bind def
/C1 {BL [] 0 setdash 2 copy moveto
	2 copy vpt 0 90 arc closepath fill
	vpt 0 360 arc closepath} bind def
/C2 {BL [] 0 setdash 2 copy moveto
	2 copy vpt 90 180 arc closepath fill
	vpt 0 360 arc closepath} bind def
/C3 {BL [] 0 setdash 2 copy moveto
	2 copy vpt 0 180 arc closepath fill
	vpt 0 360 arc closepath} bind def
/C4 {BL [] 0 setdash 2 copy moveto
	2 copy vpt 180 270 arc closepath fill
	vpt 0 360 arc closepath} bind def
/C5 {BL [] 0 setdash 2 copy moveto
	2 copy vpt 0 90 arc
	2 copy moveto
	2 copy vpt 180 270 arc closepath fill
	vpt 0 360 arc} bind def
/C6 {BL [] 0 setdash 2 copy moveto
	2 copy vpt 90 270 arc closepath fill
	vpt 0 360 arc closepath} bind def
/C7 {BL [] 0 setdash 2 copy moveto
	2 copy vpt 0 270 arc closepath fill
	vpt 0 360 arc closepath} bind def
/C8 {BL [] 0 setdash 2 copy moveto
	2 copy vpt 270 360 arc closepath fill
	vpt 0 360 arc closepath} bind def
/C9 {BL [] 0 setdash 2 copy moveto
	2 copy vpt 270 450 arc closepath fill
	vpt 0 360 arc closepath} bind def
/C10 {BL [] 0 setdash 2 copy 2 copy moveto vpt 270 360 arc closepath fill
	2 copy moveto
	2 copy vpt 90 180 arc closepath fill
	vpt 0 360 arc closepath} bind def
/C11 {BL [] 0 setdash 2 copy moveto
	2 copy vpt 0 180 arc closepath fill
	2 copy moveto
	2 copy vpt 270 360 arc closepath fill
	vpt 0 360 arc closepath} bind def
/C12 {BL [] 0 setdash 2 copy moveto
	2 copy vpt 180 360 arc closepath fill
	vpt 0 360 arc closepath} bind def
/C13 {BL [] 0 setdash 2 copy moveto
	2 copy vpt 0 90 arc closepath fill
	2 copy moveto
	2 copy vpt 180 360 arc closepath fill
	vpt 0 360 arc closepath} bind def
/C14 {BL [] 0 setdash 2 copy moveto
	2 copy vpt 90 360 arc closepath fill
	vpt 0 360 arc} bind def
/C15 {BL [] 0 setdash 2 copy vpt 0 360 arc closepath fill
	vpt 0 360 arc closepath} bind def
/Rec {newpath 4 2 roll moveto 1 index 0 rlineto 0 exch rlineto
	neg 0 rlineto closepath} bind def
/Square {dup Rec} bind def
/Bsquare {vpt sub exch vpt sub exch vpt2 Square} bind def
/S0 {BL [] 0 setdash 2 copy moveto 0 vpt rlineto BL Bsquare} bind def
/S1 {BL [] 0 setdash 2 copy vpt Square fill Bsquare} bind def
/S2 {BL [] 0 setdash 2 copy exch vpt sub exch vpt Square fill Bsquare} bind def
/S3 {BL [] 0 setdash 2 copy exch vpt sub exch vpt2 vpt Rec fill Bsquare} bind def
/S4 {BL [] 0 setdash 2 copy exch vpt sub exch vpt sub vpt Square fill Bsquare} bind def
/S5 {BL [] 0 setdash 2 copy 2 copy vpt Square fill
	exch vpt sub exch vpt sub vpt Square fill Bsquare} bind def
/S6 {BL [] 0 setdash 2 copy exch vpt sub exch vpt sub vpt vpt2 Rec fill Bsquare} bind def
/S7 {BL [] 0 setdash 2 copy exch vpt sub exch vpt sub vpt vpt2 Rec fill
	2 copy vpt Square fill Bsquare} bind def
/S8 {BL [] 0 setdash 2 copy vpt sub vpt Square fill Bsquare} bind def
/S9 {BL [] 0 setdash 2 copy vpt sub vpt vpt2 Rec fill Bsquare} bind def
/S10 {BL [] 0 setdash 2 copy vpt sub vpt Square fill 2 copy exch vpt sub exch vpt Square fill
	Bsquare} bind def
/S11 {BL [] 0 setdash 2 copy vpt sub vpt Square fill 2 copy exch vpt sub exch vpt2 vpt Rec fill
	Bsquare} bind def
/S12 {BL [] 0 setdash 2 copy exch vpt sub exch vpt sub vpt2 vpt Rec fill Bsquare} bind def
/S13 {BL [] 0 setdash 2 copy exch vpt sub exch vpt sub vpt2 vpt Rec fill
	2 copy vpt Square fill Bsquare} bind def
/S14 {BL [] 0 setdash 2 copy exch vpt sub exch vpt sub vpt2 vpt Rec fill
	2 copy exch vpt sub exch vpt Square fill Bsquare} bind def
/S15 {BL [] 0 setdash 2 copy Bsquare fill Bsquare} bind def
/D0 {gsave translate 45 rotate 0 0 S0 stroke grestore} bind def
/D1 {gsave translate 45 rotate 0 0 S1 stroke grestore} bind def
/D2 {gsave translate 45 rotate 0 0 S2 stroke grestore} bind def
/D3 {gsave translate 45 rotate 0 0 S3 stroke grestore} bind def
/D4 {gsave translate 45 rotate 0 0 S4 stroke grestore} bind def
/D5 {gsave translate 45 rotate 0 0 S5 stroke grestore} bind def
/D6 {gsave translate 45 rotate 0 0 S6 stroke grestore} bind def
/D7 {gsave translate 45 rotate 0 0 S7 stroke grestore} bind def
/D8 {gsave translate 45 rotate 0 0 S8 stroke grestore} bind def
/D9 {gsave translate 45 rotate 0 0 S9 stroke grestore} bind def
/D10 {gsave translate 45 rotate 0 0 S10 stroke grestore} bind def
/D11 {gsave translate 45 rotate 0 0 S11 stroke grestore} bind def
/D12 {gsave translate 45 rotate 0 0 S12 stroke grestore} bind def
/D13 {gsave translate 45 rotate 0 0 S13 stroke grestore} bind def
/D14 {gsave translate 45 rotate 0 0 S14 stroke grestore} bind def
/D15 {gsave translate 45 rotate 0 0 S15 stroke grestore} bind def
/DiaE {stroke [] 0 setdash vpt add M
  hpt neg vpt neg V hpt vpt neg V
  hpt vpt V hpt neg vpt V closepath stroke} def
/BoxE {stroke [] 0 setdash exch hpt sub exch vpt add M
  0 vpt2 neg V hpt2 0 V 0 vpt2 V
  hpt2 neg 0 V closepath stroke} def
/TriUE {stroke [] 0 setdash vpt 1.12 mul add M
  hpt neg vpt -1.62 mul V
  hpt 2 mul 0 V
  hpt neg vpt 1.62 mul V closepath stroke} def
/TriDE {stroke [] 0 setdash vpt 1.12 mul sub M
  hpt neg vpt 1.62 mul V
  hpt 2 mul 0 V
  hpt neg vpt -1.62 mul V closepath stroke} def
/PentE {stroke [] 0 setdash gsave
  translate 0 hpt M 4 {72 rotate 0 hpt L} repeat
  closepath stroke grestore} def
/CircE {stroke [] 0 setdash 
  hpt 0 360 arc stroke} def
/Opaque {gsave closepath 1 setgray fill grestore 0 setgray closepath} def
/DiaW {stroke [] 0 setdash vpt add M
  hpt neg vpt neg V hpt vpt neg V
  hpt vpt V hpt neg vpt V Opaque stroke} def
/BoxW {stroke [] 0 setdash exch hpt sub exch vpt add M
  0 vpt2 neg V hpt2 0 V 0 vpt2 V
  hpt2 neg 0 V Opaque stroke} def
/TriUW {stroke [] 0 setdash vpt 1.12 mul add M
  hpt neg vpt -1.62 mul V
  hpt 2 mul 0 V
  hpt neg vpt 1.62 mul V Opaque stroke} def
/TriDW {stroke [] 0 setdash vpt 1.12 mul sub M
  hpt neg vpt 1.62 mul V
  hpt 2 mul 0 V
  hpt neg vpt -1.62 mul V Opaque stroke} def
/PentW {stroke [] 0 setdash gsave
  translate 0 hpt M 4 {72 rotate 0 hpt L} repeat
  Opaque stroke grestore} def
/CircW {stroke [] 0 setdash 
  hpt 0 360 arc Opaque stroke} def
/BoxFill {gsave Rec 1 setgray fill grestore} def
/Density {
  /Fillden exch def
  currentrgbcolor
  /ColB exch def /ColG exch def /ColR exch def
  /ColR ColR Fillden mul Fillden sub 1 add def
  /ColG ColG Fillden mul Fillden sub 1 add def
  /ColB ColB Fillden mul Fillden sub 1 add def
  ColR ColG ColB setrgbcolor} def
/BoxColFill {gsave Rec PolyFill} def
/PolyFill {gsave Density fill grestore grestore} def
/h {rlineto rlineto rlineto gsave closepath fill grestore} bind def
%
% PostScript Level 1 Pattern Fill routine for rectangles
% Usage: x y w h s a XX PatternFill
%	x,y = lower left corner of box to be filled
%	w,h = width and height of box
%	  a = angle in degrees between lines and x-axis
%	 XX = 0/1 for no/yes cross-hatch
%
/PatternFill {gsave /PFa [ 9 2 roll ] def
  PFa 0 get PFa 2 get 2 div add PFa 1 get PFa 3 get 2 div add translate
  PFa 2 get -2 div PFa 3 get -2 div PFa 2 get PFa 3 get Rec
  TransparentPatterns {} {gsave 1 setgray fill grestore} ifelse
  clip
  currentlinewidth 0.5 mul setlinewidth
  /PFs PFa 2 get dup mul PFa 3 get dup mul add sqrt def
  0 0 M PFa 5 get rotate PFs -2 div dup translate
  0 1 PFs PFa 4 get div 1 add floor cvi
	{PFa 4 get mul 0 M 0 PFs V} for
  0 PFa 6 get ne {
	0 1 PFs PFa 4 get div 1 add floor cvi
	{PFa 4 get mul 0 2 1 roll M PFs 0 V} for
 } if
  stroke grestore} def
%
/languagelevel where
 {pop languagelevel} {1} ifelse
dup 2 lt
	{/InterpretLevel1 true def
	 /InterpretLevel3 false def}
	{/InterpretLevel1 Level1 def
	 2 gt
	    {/InterpretLevel3 Level3 def}
	    {/InterpretLevel3 false def}
	 ifelse }
 ifelse
%
% PostScript level 2 pattern fill definitions
%
/Level2PatternFill {
/Tile8x8 {/PaintType 2 /PatternType 1 /TilingType 1 /BBox [0 0 8 8] /XStep 8 /YStep 8}
	bind def
/KeepColor {currentrgbcolor [/Pattern /DeviceRGB] setcolorspace} bind def
<< Tile8x8
 /PaintProc {0.5 setlinewidth pop 0 0 M 8 8 L 0 8 M 8 0 L stroke} 
>> matrix makepattern
/Pat1 exch def
<< Tile8x8
 /PaintProc {0.5 setlinewidth pop 0 0 M 8 8 L 0 8 M 8 0 L stroke
	0 4 M 4 8 L 8 4 L 4 0 L 0 4 L stroke}
>> matrix makepattern
/Pat2 exch def
<< Tile8x8
 /PaintProc {0.5 setlinewidth pop 0 0 M 0 8 L
	8 8 L 8 0 L 0 0 L fill}
>> matrix makepattern
/Pat3 exch def
<< Tile8x8
 /PaintProc {0.5 setlinewidth pop -4 8 M 8 -4 L
	0 12 M 12 0 L stroke}
>> matrix makepattern
/Pat4 exch def
<< Tile8x8
 /PaintProc {0.5 setlinewidth pop -4 0 M 8 12 L
	0 -4 M 12 8 L stroke}
>> matrix makepattern
/Pat5 exch def
<< Tile8x8
 /PaintProc {0.5 setlinewidth pop -2 8 M 4 -4 L
	0 12 M 8 -4 L 4 12 M 10 0 L stroke}
>> matrix makepattern
/Pat6 exch def
<< Tile8x8
 /PaintProc {0.5 setlinewidth pop -2 0 M 4 12 L
	0 -4 M 8 12 L 4 -4 M 10 8 L stroke}
>> matrix makepattern
/Pat7 exch def
<< Tile8x8
 /PaintProc {0.5 setlinewidth pop 8 -2 M -4 4 L
	12 0 M -4 8 L 12 4 M 0 10 L stroke}
>> matrix makepattern
/Pat8 exch def
<< Tile8x8
 /PaintProc {0.5 setlinewidth pop 0 -2 M 12 4 L
	-4 0 M 12 8 L -4 4 M 8 10 L stroke}
>> matrix makepattern
/Pat9 exch def
/Pattern1 {PatternBgnd KeepColor Pat1 setpattern} bind def
/Pattern2 {PatternBgnd KeepColor Pat2 setpattern} bind def
/Pattern3 {PatternBgnd KeepColor Pat3 setpattern} bind def
/Pattern4 {PatternBgnd KeepColor Landscape {Pat5} {Pat4} ifelse setpattern} bind def
/Pattern5 {PatternBgnd KeepColor Landscape {Pat4} {Pat5} ifelse setpattern} bind def
/Pattern6 {PatternBgnd KeepColor Landscape {Pat9} {Pat6} ifelse setpattern} bind def
/Pattern7 {PatternBgnd KeepColor Landscape {Pat8} {Pat7} ifelse setpattern} bind def
} def
%
%
%End of PostScript Level 2 code
%
/PatternBgnd {
  TransparentPatterns {} {gsave 1 setgray fill grestore} ifelse
} def
%
% Substitute for Level 2 pattern fill codes with
% grayscale if Level 2 support is not selected.
%
/Level1PatternFill {
/Pattern1 {0.250 Density} bind def
/Pattern2 {0.500 Density} bind def
/Pattern3 {0.750 Density} bind def
/Pattern4 {0.125 Density} bind def
/Pattern5 {0.375 Density} bind def
/Pattern6 {0.625 Density} bind def
/Pattern7 {0.875 Density} bind def
} def
%
% Now test for support of Level 2 code
%
Level1 {Level1PatternFill} {Level2PatternFill} ifelse
%
/Symbol-Oblique /Symbol findfont [1 0 .167 1 0 0] makefont
dup length dict begin {1 index /FID eq {pop pop} {def} ifelse} forall
currentdict end definefont pop
%
/MFshow {
   { dup 5 get 3 ge
     { 5 get 3 eq {gsave} {grestore} ifelse }
     {dup dup 0 get findfont exch 1 get scalefont setfont
     [ currentpoint ] exch dup 2 get 0 exch R dup 5 get 2 ne {dup dup 6
     get exch 4 get {textshow} {stringwidth pop 0 R} ifelse }if dup 5 get 0 eq
     {dup 3 get {2 get neg 0 exch R pop} {pop aload pop M} ifelse} {dup 5
     get 1 eq {dup 2 get exch dup 3 get exch 6 get stringwidth pop -2 div
     dup 0 R} {dup 6 get stringwidth pop -2 div 0 R 6 get
     textshow 2 index {aload pop M neg 3 -1 roll neg R pop pop} {pop pop pop
     pop aload pop M} ifelse }ifelse }ifelse }
     ifelse }
   forall} def
/Gswidth {dup type /stringtype eq {stringwidth} {pop (n) stringwidth} ifelse} def
/MFwidth {0 exch { dup 5 get 3 ge { 5 get 3 eq { 0 } { pop } ifelse }
 {dup 3 get{dup dup 0 get findfont exch 1 get scalefont setfont
     6 get Gswidth pop add} {pop} ifelse} ifelse} forall} def
/MLshow { currentpoint stroke M
  0 exch R
  Blacktext {gsave 0 setgray MFshow grestore} {MFshow} ifelse } bind def
/MRshow { currentpoint stroke M
  exch dup MFwidth neg 3 -1 roll R
  Blacktext {gsave 0 setgray MFshow grestore} {MFshow} ifelse } bind def
/MCshow { currentpoint stroke M
  exch dup MFwidth -2 div 3 -1 roll R
  Blacktext {gsave 0 setgray MFshow grestore} {MFshow} ifelse } bind def
/XYsave    { [( ) 1 2 true false 3 ()] } bind def
/XYrestore { [( ) 1 2 true false 4 ()] } bind def
Level1 SuppressPDFMark or 
{} {
/SDict 10 dict def
systemdict /pdfmark known not {
  userdict /pdfmark systemdict /cleartomark get put
} if
SDict begin [
  /Title (TcpVegas-download-finishtime-25UE-250-400.eps)
  /Subject (gnuplot plot)
  /Creator (gnuplot 5.0 patchlevel 3)
  /Author (nat)
%  /Producer (gnuplot)
%  /Keywords ()
  /CreationDate (Thu May 19 16:44:20 2016)
  /DOCINFO pdfmark
end
} ifelse
%
% Support for boxed text - Ethan A Merritt May 2005
%
/InitTextBox { userdict /TBy2 3 -1 roll put userdict /TBx2 3 -1 roll put
           userdict /TBy1 3 -1 roll put userdict /TBx1 3 -1 roll put
	   /Boxing true def } def
/ExtendTextBox { Boxing
    { gsave dup false charpath pathbbox
      dup TBy2 gt {userdict /TBy2 3 -1 roll put} {pop} ifelse
      dup TBx2 gt {userdict /TBx2 3 -1 roll put} {pop} ifelse
      dup TBy1 lt {userdict /TBy1 3 -1 roll put} {pop} ifelse
      dup TBx1 lt {userdict /TBx1 3 -1 roll put} {pop} ifelse
      grestore } if } def
/PopTextBox { newpath TBx1 TBxmargin sub TBy1 TBymargin sub M
               TBx1 TBxmargin sub TBy2 TBymargin add L
	       TBx2 TBxmargin add TBy2 TBymargin add L
	       TBx2 TBxmargin add TBy1 TBymargin sub L closepath } def
/DrawTextBox { PopTextBox stroke /Boxing false def} def
/FillTextBox { gsave PopTextBox 1 1 1 setrgbcolor fill grestore /Boxing false def} def
0 0 0 0 InitTextBox
/TBxmargin 20 def
/TBymargin 20 def
/Boxing false def
/textshow { ExtendTextBox Gshow } def
%
% redundant definitions for compatibility with prologue.ps older than 5.0.2
/LTB {BL [] LCb DL} def
/LTb {PL [] LCb DL} def
end
%%EndProlog
%%Page: 1 1
gnudict begin
gsave
doclip
50 50 translate
0.050 0.050 scale
0 setgray
newpath
(Arial) findfont 200 scalefont setfont
BackgroundColor 0 lt 3 1 roll 0 lt exch 0 lt or or not {BackgroundColor C 1.000 0 0 14400.00 5040.00 BoxColFill} if
1.000 UL
LTb
0.00 0.00 0.00 C 0.500 UL
LTa
0.50 0.50 0.50 C 980 1000 M
12139 0 V
stroke
1.000 UL
LTb
0.00 0.00 0.00 C 980 1000 M
63 0 V
stroke
860 1000 M
[ [(Arial) 200.0 0.0 true true 0 ( 0)]
] -66.7 MRshow
1.000 UL
LTb
0.00 0.00 0.00 C 0.500 UL
LTa
0.50 0.50 0.50 C 980 1760 M
12139 0 V
stroke
1.000 UL
LTb
0.00 0.00 0.00 C 980 1760 M
63 0 V
stroke
860 1760 M
[ [(Arial) 200.0 0.0 true true 0 ( 50)]
] -66.7 MRshow
1.000 UL
LTb
0.00 0.00 0.00 C 0.500 UL
LTa
0.50 0.50 0.50 C 980 2520 M
12139 0 V
stroke
1.000 UL
LTb
0.00 0.00 0.00 C 980 2520 M
63 0 V
stroke
860 2520 M
[ [(Arial) 200.0 0.0 true true 0 ( 100)]
] -66.7 MRshow
1.000 UL
LTb
0.00 0.00 0.00 C 0.500 UL
LTa
0.50 0.50 0.50 C 980 3279 M
12139 0 V
stroke
1.000 UL
LTb
0.00 0.00 0.00 C 980 3279 M
63 0 V
stroke
860 3279 M
[ [(Arial) 200.0 0.0 true true 0 ( 150)]
] -66.7 MRshow
1.000 UL
LTb
0.00 0.00 0.00 C 0.500 UL
LTa
0.50 0.50 0.50 C 980 4039 M
12139 0 V
stroke
1.000 UL
LTb
0.00 0.00 0.00 C 980 4039 M
63 0 V
stroke
860 4039 M
[ [(Arial) 200.0 0.0 true true 0 ( 200)]
] -66.7 MRshow
1.000 UL
LTb
0.00 0.00 0.00 C 0.500 UL
LTa
0.50 0.50 0.50 C 980 4799 M
12139 0 V
stroke
1.000 UL
LTb
0.00 0.00 0.00 C 980 4799 M
63 0 V
stroke
860 4799 M
[ [(Arial) 200.0 0.0 true true 0 ( 250)]
] -66.7 MRshow
1.000 UL
LTb
0.00 0.00 0.00 C 0.500 UL
LTa
0.50 0.50 0.50 C 1359 1000 M
0 3799 V
stroke
1.000 UL
LTb
0.00 0.00 0.00 C 1359 1000 M
0 63 V
0 3736 R
0 -63 V
stroke
1359 800 M
[ [(Arial) 200.0 0.0 true true 0 ( 750)]
] -66.7 MCshow
1.000 UL
LTb
0.00 0.00 0.00 C 0.500 UL
LTa
0.50 0.50 0.50 C 2118 1000 M
0 3799 V
stroke
1.000 UL
LTb
0.00 0.00 0.00 C 2118 1000 M
0 63 V
0 3736 R
0 -63 V
stroke
2118 800 M
[ [(Arial) 200.0 0.0 true true 0 ( 780)]
] -66.7 MCshow
1.000 UL
LTb
0.00 0.00 0.00 C 0.500 UL
LTa
0.50 0.50 0.50 C 2877 1000 M
0 3799 V
stroke
1.000 UL
LTb
0.00 0.00 0.00 C 2877 1000 M
0 63 V
0 3736 R
0 -63 V
stroke
2877 800 M
[ [(Arial) 200.0 0.0 true true 0 ( 810)]
] -66.7 MCshow
1.000 UL
LTb
0.00 0.00 0.00 C 0.500 UL
LTa
0.50 0.50 0.50 C 3635 1000 M
0 3799 V
stroke
1.000 UL
LTb
0.00 0.00 0.00 C 3635 1000 M
0 63 V
0 3736 R
0 -63 V
stroke
3635 800 M
[ [(Arial) 200.0 0.0 true true 0 ( 840)]
] -66.7 MCshow
1.000 UL
LTb
0.00 0.00 0.00 C 0.500 UL
LTa
0.50 0.50 0.50 C 4394 1000 M
0 3799 V
stroke
1.000 UL
LTb
0.00 0.00 0.00 C 4394 1000 M
0 63 V
0 3736 R
0 -63 V
stroke
4394 800 M
[ [(Arial) 200.0 0.0 true true 0 ( 870)]
] -66.7 MCshow
1.000 UL
LTb
0.00 0.00 0.00 C 0.500 UL
LTa
0.50 0.50 0.50 C 5153 1000 M
0 3799 V
stroke
1.000 UL
LTb
0.00 0.00 0.00 C 5153 1000 M
0 63 V
0 3736 R
0 -63 V
stroke
5153 800 M
[ [(Arial) 200.0 0.0 true true 0 ( 900)]
] -66.7 MCshow
1.000 UL
LTb
0.00 0.00 0.00 C 0.500 UL
LTa
0.50 0.50 0.50 C 5911 1000 M
0 3799 V
stroke
1.000 UL
LTb
0.00 0.00 0.00 C 5911 1000 M
0 63 V
0 3736 R
0 -63 V
stroke
5911 800 M
[ [(Arial) 200.0 0.0 true true 0 ( 930)]
] -66.7 MCshow
1.000 UL
LTb
0.00 0.00 0.00 C 0.500 UL
LTa
0.50 0.50 0.50 C 6670 1000 M
0 3799 V
stroke
1.000 UL
LTb
0.00 0.00 0.00 C 6670 1000 M
0 63 V
0 3736 R
0 -63 V
stroke
6670 800 M
[ [(Arial) 200.0 0.0 true true 0 ( 960)]
] -66.7 MCshow
1.000 UL
LTb
0.00 0.00 0.00 C 0.500 UL
LTa
0.50 0.50 0.50 C 7429 1000 M
0 3799 V
stroke
1.000 UL
LTb
0.00 0.00 0.00 C 7429 1000 M
0 63 V
0 3736 R
0 -63 V
stroke
7429 800 M
[ [(Arial) 200.0 0.0 true true 0 ( 990)]
] -66.7 MCshow
1.000 UL
LTb
0.00 0.00 0.00 C 0.500 UL
LTa
0.50 0.50 0.50 C 8188 1000 M
0 3799 V
stroke
1.000 UL
LTb
0.00 0.00 0.00 C 8188 1000 M
0 63 V
0 3736 R
0 -63 V
stroke
8188 800 M
[ [(Arial) 200.0 0.0 true true 0 ( 1020)]
] -66.7 MCshow
1.000 UL
LTb
0.00 0.00 0.00 C 0.500 UL
LTa
0.50 0.50 0.50 C 8946 1000 M
0 3799 V
stroke
1.000 UL
LTb
0.00 0.00 0.00 C 8946 1000 M
0 63 V
0 3736 R
0 -63 V
stroke
8946 800 M
[ [(Arial) 200.0 0.0 true true 0 ( 1050)]
] -66.7 MCshow
1.000 UL
LTb
0.00 0.00 0.00 C 0.500 UL
LTa
0.50 0.50 0.50 C 9705 1000 M
0 3799 V
stroke
1.000 UL
LTb
0.00 0.00 0.00 C 9705 1000 M
0 63 V
0 3736 R
0 -63 V
stroke
9705 800 M
[ [(Arial) 200.0 0.0 true true 0 ( 1080)]
] -66.7 MCshow
1.000 UL
LTb
0.00 0.00 0.00 C 0.500 UL
LTa
0.50 0.50 0.50 C 10464 1000 M
0 3799 V
stroke
1.000 UL
LTb
0.00 0.00 0.00 C 10464 1000 M
0 63 V
0 3736 R
0 -63 V
stroke
10464 800 M
[ [(Arial) 200.0 0.0 true true 0 ( 1110)]
] -66.7 MCshow
1.000 UL
LTb
0.00 0.00 0.00 C 0.500 UL
LTa
0.50 0.50 0.50 C 11222 1000 M
0 3799 V
stroke
1.000 UL
LTb
0.00 0.00 0.00 C 11222 1000 M
0 63 V
0 3736 R
0 -63 V
stroke
11222 800 M
[ [(Arial) 200.0 0.0 true true 0 ( 1140)]
] -66.7 MCshow
1.000 UL
LTb
0.00 0.00 0.00 C 0.500 UL
LTa
0.50 0.50 0.50 C 11981 1000 M
0 3799 V
stroke
1.000 UL
LTb
0.00 0.00 0.00 C 11981 1000 M
0 63 V
0 3736 R
0 -63 V
stroke
11981 800 M
[ [(Arial) 200.0 0.0 true true 0 ( 1170)]
] -66.7 MCshow
1.000 UL
LTb
0.00 0.00 0.00 C 0.500 UL
LTa
0.50 0.50 0.50 C 12740 1000 M
0 3799 V
stroke
1.000 UL
LTb
0.00 0.00 0.00 C 12740 1000 M
0 63 V
0 3736 R
0 -63 V
stroke
12740 800 M
[ [(Arial) 200.0 0.0 true true 0 ( 1200)]
] -66.7 MCshow
1.000 UL
LTb
0.00 0.00 0.00 C 13119 1000 M
-63 0 V
stroke
13239 1000 M
[ [(Arial) 200.0 0.0 true true 0 ( 0)]
] -66.7 MLshow
1.000 UL
LTb
0.00 0.00 0.00 C 13119 1760 M
-63 0 V
stroke
13239 1760 M
[ [(Arial) 200.0 0.0 true true 0 ( 20)]
] -66.7 MLshow
1.000 UL
LTb
0.00 0.00 0.00 C 13119 2520 M
-63 0 V
stroke
13239 2520 M
[ [(Arial) 200.0 0.0 true true 0 ( 40)]
] -66.7 MLshow
1.000 UL
LTb
0.00 0.00 0.00 C 13119 3279 M
-63 0 V
stroke
13239 3279 M
[ [(Arial) 200.0 0.0 true true 0 ( 60)]
] -66.7 MLshow
1.000 UL
LTb
0.00 0.00 0.00 C 13119 4039 M
-63 0 V
stroke
13239 4039 M
[ [(Arial) 200.0 0.0 true true 0 ( 80)]
] -66.7 MLshow
1.000 UL
LTb
0.00 0.00 0.00 C 13119 4799 M
-63 0 V
stroke
13239 4799 M
[ [(Arial) 200.0 0.0 true true 0 ( 100)]
] -66.7 MLshow
1.000 UL
LTb
0.00 0.00 0.00 C 1.000 UL
LTB
0.00 0.00 0.00 C 980 4799 M
0 -3799 V
12139 0 V
0 3799 R
980 4799 M
1.000 UP
stroke
LTb
0.00 0.00 0.00 C LCb setrgbcolor
160 2899 M
currentpoint gsave translate -270 rotate 0 0 moveto
[ [(Arial) 200.0 0.0 true true 0 (File download time \(s\))]
] -66.7 MCshow
grestore
LTb
LCb setrgbcolor
13938 2899 M
currentpoint gsave translate -270 rotate 0 0 moveto
[ [(Arial) 200.0 0.0 true true 0 (Average UDP throughput [%])]
] -66.7 MCshow
grestore
LTb
LCb setrgbcolor
7049 500 M
[ [(Arial) 200.0 0.0 true true 0 (Local Backhaul traffic \(Mb/s\))]
] -66.7 MCshow
LTb
% Begin plot #1
1.000 UL
LTb
0.60 0.60 0.00 C LCb setrgbcolor
4714 333 M
[ [(Arial) 180.0 0.0 true true 0 (file download time    :   olsr)]
] -60.0 MRshow
1.000 UL
LTb
0.60 0.60 0.00 C 4822 288 333 90 80 -45 0 PatternFill
4822 288 N
333 0 V
0 90 V
-333 0 V
0 -90 V
Z stroke
1.000 UL
LTb
0.60 0.60 0.00 C 1094 1244 152 410 80 -45 0 PatternFill
1170 1049 M
0 195 V
0 410 R
0 407 V
stroke
1094 1244 N
152 0 V
0 410 V
-152 0 V
0 -410 V
Z stroke
1094 2061 M
152 0 V
1094 1049 M
152 0 V
stroke
1852 1256 152 345 80 -45 0 PatternFill
1928 1049 M
0 207 V
0 345 R
0 442 V
stroke
1852 1256 N
152 0 V
0 345 V
-152 0 V
0 -345 V
Z stroke
1852 2043 M
152 0 V
1852 1049 M
152 0 V
stroke
2611 1269 152 442 80 -45 0 PatternFill
2687 1049 M
0 220 V
0 442 R
0 384 V
stroke
2611 1269 N
152 0 V
0 442 V
-152 0 V
0 -442 V
Z stroke
2611 2095 M
152 0 V
2611 1049 M
152 0 V
stroke
3370 1250 152 325 80 -45 0 PatternFill
3446 1049 M
0 201 V
0 325 R
0 304 V
stroke
3370 1250 N
152 0 V
0 325 V
-152 0 V
0 -325 V
Z stroke
3370 1879 M
152 0 V
3370 1049 M
152 0 V
stroke
4129 1253 152 356 80 -45 0 PatternFill
4205 1049 M
0 204 V
0 356 R
0 326 V
stroke
4129 1253 N
152 0 V
0 356 V
-152 0 V
0 -356 V
Z stroke
4129 1935 M
152 0 V
4129 1049 M
152 0 V
stroke
4887 1277 152 392 80 -45 0 PatternFill
4963 1049 M
0 228 V
0 392 R
0 370 V
stroke
4887 1277 N
152 0 V
0 392 V
-152 0 V
0 -392 V
Z stroke
4887 2039 M
152 0 V
4887 1049 M
152 0 V
stroke
5646 1243 152 359 80 -45 0 PatternFill
5722 1049 M
0 194 V
0 359 R
0 393 V
stroke
5646 1243 N
152 0 V
0 359 V
-152 0 V
0 -359 V
Z stroke
5646 1995 M
152 0 V
5646 1049 M
152 0 V
stroke
6405 1276 152 387 80 -45 0 PatternFill
6481 1049 M
0 227 V
0 387 R
0 233 V
stroke
6405 1276 N
152 0 V
0 387 V
-152 0 V
0 -387 V
Z stroke
6405 1896 M
152 0 V
6405 1049 M
152 0 V
stroke
7163 1262 152 385 80 -45 0 PatternFill
7239 1049 M
0 213 V
0 385 R
0 258 V
stroke
7163 1262 N
152 0 V
0 385 V
-152 0 V
0 -385 V
Z stroke
7163 1905 M
152 0 V
7163 1049 M
152 0 V
stroke
7922 1258 152 487 80 -45 0 PatternFill
7998 1049 M
0 209 V
0 487 R
0 264 V
stroke
7922 1258 N
152 0 V
0 487 V
-152 0 V
0 -487 V
Z stroke
7922 2009 M
152 0 V
7922 1049 M
152 0 V
stroke
8681 1269 152 304 80 -45 0 PatternFill
8757 1049 M
0 220 V
0 304 R
0 451 V
stroke
8681 1269 N
152 0 V
0 304 V
-152 0 V
0 -304 V
Z stroke
8681 2024 M
152 0 V
8681 1049 M
152 0 V
stroke
9439 1232 152 384 80 -45 0 PatternFill
9515 1049 M
0 183 V
0 384 R
0 355 V
stroke
9439 1232 N
152 0 V
0 384 V
-152 0 V
0 -384 V
Z stroke
9439 1971 M
152 0 V
9439 1049 M
152 0 V
stroke
10198 1294 152 359 80 -45 0 PatternFill
10274 1049 M
0 245 V
0 359 R
0 359 V
stroke
10198 1294 N
152 0 V
0 359 V
-152 0 V
0 -359 V
Z stroke
10198 2012 M
152 0 V
-152 -963 R
152 0 V
stroke
10957 1260 152 409 80 -45 0 PatternFill
11033 1049 M
0 211 V
0 409 R
0 332 V
stroke
10957 1260 N
152 0 V
0 409 V
-152 0 V
0 -409 V
Z stroke
10957 2001 M
152 0 V
-152 -952 R
152 0 V
stroke
11715 1265 152 348 80 -45 0 PatternFill
11791 1049 M
0 216 V
0 348 R
0 385 V
stroke
11715 1265 N
152 0 V
0 348 V
-152 0 V
0 -348 V
Z stroke
11715 1998 M
152 0 V
-152 -949 R
152 0 V
stroke
12474 1282 152 298 80 -45 0 PatternFill
12550 1049 M
0 233 V
0 298 R
0 501 V
stroke
12474 1282 N
152 0 V
0 298 V
-152 0 V
0 -298 V
Z stroke
12474 2081 M
152 0 V
12474 1049 M
152 0 V
% End plot #1
% Begin plot #2
stroke
LTb
LCb setrgbcolor

 /TransparentPatterns true def
1094 1441 152 0 40 30 0 PatternFill
1170 1441 M
stroke
1094 1441 N
152 0 V
-152 0 V
Z stroke
1094 1441 M
152 0 V
-152 0 R
152 0 V
stroke

 /TransparentPatterns true def
1852 1438 152 0 40 30 0 PatternFill
1928 1438 M
stroke
1852 1438 N
152 0 V
-152 0 V
Z stroke
1852 1438 M
152 0 V
-152 0 R
152 0 V
stroke

 /TransparentPatterns true def
2611 1484 152 0 40 30 0 PatternFill
2687 1484 M
stroke
2611 1484 N
152 0 V
-152 0 V
Z stroke
2611 1484 M
152 0 V
-152 0 R
152 0 V
stroke

 /TransparentPatterns true def
3370 1418 152 0 40 30 0 PatternFill
3446 1418 M
stroke
3370 1418 N
152 0 V
-152 0 V
Z stroke
3370 1418 M
152 0 V
-152 0 R
152 0 V
stroke

 /TransparentPatterns true def
4129 1422 152 0 40 30 0 PatternFill
4205 1422 M
stroke
4129 1422 N
152 0 V
-152 0 V
Z stroke
4129 1422 M
152 0 V
-152 0 R
152 0 V
stroke

 /TransparentPatterns true def
4887 1463 152 0 40 30 0 PatternFill
4963 1463 M
stroke
4887 1463 N
152 0 V
-152 0 V
Z stroke
4887 1463 M
152 0 V
-152 0 R
152 0 V
stroke

 /TransparentPatterns true def
5646 1436 152 0 40 30 0 PatternFill
5722 1436 M
stroke
5646 1436 N
152 0 V
-152 0 V
Z stroke
5646 1436 M
152 0 V
-152 0 R
152 0 V
stroke

 /TransparentPatterns true def
6405 1459 152 0 40 30 0 PatternFill
6481 1459 M
stroke
6405 1459 N
152 0 V
-152 0 V
Z stroke
6405 1459 M
152 0 V
-152 0 R
152 0 V
stroke

 /TransparentPatterns true def
7163 1466 152 0 40 30 0 PatternFill
7239 1466 M
stroke
7163 1466 N
152 0 V
-152 0 V
Z stroke
7163 1466 M
152 0 V
-152 0 R
152 0 V
stroke

 /TransparentPatterns true def
7922 1471 152 0 40 30 0 PatternFill
7998 1471 M
stroke
7922 1471 N
152 0 V
-152 0 V
Z stroke
7922 1471 M
152 0 V
-152 0 R
152 0 V
stroke

 /TransparentPatterns true def
8681 1432 152 0 40 30 0 PatternFill
8757 1432 M
stroke
8681 1432 N
152 0 V
-152 0 V
Z stroke
8681 1432 M
152 0 V
-152 0 R
152 0 V
stroke

 /TransparentPatterns true def
9439 1426 152 0 40 30 0 PatternFill
9515 1426 M
stroke
9439 1426 N
152 0 V
-152 0 V
Z stroke
9439 1426 M
152 0 V
-152 0 R
152 0 V
stroke

 /TransparentPatterns true def
10198 1464 152 0 40 30 0 PatternFill
10274 1464 M
stroke
10198 1464 N
152 0 V
-152 0 V
Z stroke
10198 1464 M
152 0 V
-152 0 R
152 0 V
stroke

 /TransparentPatterns true def
10957 1441 152 0 40 30 0 PatternFill
11033 1441 M
stroke
10957 1441 N
152 0 V
-152 0 V
Z stroke
10957 1441 M
152 0 V
-152 0 R
152 0 V
stroke

 /TransparentPatterns true def
11715 1445 152 0 40 30 0 PatternFill
11791 1445 M
stroke
11715 1445 N
152 0 V
-152 0 V
Z stroke
11715 1445 M
152 0 V
-152 0 R
152 0 V
stroke

 /TransparentPatterns true def
12474 1455 152 0 40 30 0 PatternFill
12550 1455 M
stroke
12474 1455 N
152 0 V
-152 0 V
Z stroke
12474 1455 M
152 0 V
-152 0 R
152 0 V
% End plot #2
% Begin plot #3
2.000 UP
stroke
LTa
0.60 0.60 0.00 C LCb setrgbcolor
4714 153 M
[ [(Arial) 180.0 0.0 true true 0 (avg. throughput :         )]
] -60.0 MRshow
2.000 UP
1.000 UL
LTa
0.60 0.60 0.00 C 4822 153 M
333 0 V
980 4241 M
190 41 V
758 -13 V
759 28 V
759 -114 V
758 37 V
759 48 V
759 -23 V
758 -43 V
759 -10 V
759 68 V
759 1 V
758 -24 V
759 16 V
759 0 V
758 1 V
759 43 V
1170 4282 Box
1928 4269 Box
2687 4297 Box
3446 4183 Box
4204 4220 Box
4963 4268 Box
5722 4245 Box
6480 4202 Box
7239 4192 Box
7998 4260 Box
8757 4261 Box
9515 4237 Box
10274 4253 Box
11033 4253 Box
11791 4254 Box
12550 4297 Box
4988 153 Box
% End plot #3
% Begin plot #4
1.000 UL
LTb
0.00 0.00 0.63 C LCb setrgbcolor
8287 333 M
[ [(Arial) 180.0 0.0 true true 0 (per-packet)]
] -60.0 MRshow
1.000 UL
LTb
0.00 0.00 0.63 C 8395 288 333 90 80 45 0 PatternFill
8395 288 N
333 0 V
0 90 V
-333 0 V
0 -90 V
Z stroke
1.000 UL
LTb
0.00 0.00 0.63 C 1283 1248 152 581 80 45 0 PatternFill
1359 1092 M
0 156 V
0 581 R
0 61 V
stroke
1283 1248 N
152 0 V
0 581 V
-152 0 V
0 -581 V
Z stroke
1283 1890 M
152 0 V
1283 1092 M
152 0 V
stroke
2042 1257 152 516 80 45 0 PatternFill
2118 1133 M
0 124 V
0 516 R
0 156 V
stroke
2042 1257 N
152 0 V
0 516 V
-152 0 V
0 -516 V
Z stroke
2042 1929 M
152 0 V
2042 1133 M
152 0 V
stroke
2801 1320 152 476 80 45 0 PatternFill
2877 1117 M
0 203 V
0 476 R
0 178 V
stroke
2801 1320 N
152 0 V
0 476 V
-152 0 V
0 -476 V
Z stroke
2801 1974 M
152 0 V
2801 1117 M
152 0 V
stroke
3560 1309 152 502 80 45 0 PatternFill
3636 1131 M
0 178 V
0 502 R
0 109 V
stroke
3560 1309 N
152 0 V
0 502 V
-152 0 V
0 -502 V
Z stroke
3560 1920 M
152 0 V
3560 1131 M
152 0 V
stroke
4318 1176 152 641 80 45 0 PatternFill
4394 1049 M
0 127 V
0 641 R
0 74 V
stroke
4318 1176 N
152 0 V
0 641 V
-152 0 V
0 -641 V
Z stroke
4318 1891 M
152 0 V
4318 1049 M
152 0 V
stroke
5077 1198 152 573 80 45 0 PatternFill
5153 1084 M
0 114 V
0 573 R
0 169 V
stroke
5077 1198 N
152 0 V
0 573 V
-152 0 V
0 -573 V
Z stroke
5077 1940 M
152 0 V
5077 1084 M
152 0 V
stroke
5836 1178 152 603 80 45 0 PatternFill
5912 1023 M
0 155 V
0 603 R
0 88 V
stroke
5836 1178 N
152 0 V
0 603 V
-152 0 V
0 -603 V
Z stroke
5836 1869 M
152 0 V
5836 1023 M
152 0 V
stroke
6594 1201 152 613 80 45 0 PatternFill
6670 1117 M
0 84 V
0 613 R
0 89 V
stroke
6594 1201 N
152 0 V
0 613 V
-152 0 V
0 -613 V
Z stroke
6594 1903 M
152 0 V
6594 1117 M
152 0 V
stroke
7353 1242 152 574 80 45 0 PatternFill
7429 1130 M
0 112 V
0 574 R
0 111 V
stroke
7353 1242 N
152 0 V
0 574 V
-152 0 V
0 -574 V
Z stroke
7353 1927 M
152 0 V
7353 1130 M
152 0 V
stroke
8112 1256 152 567 80 45 0 PatternFill
8188 1139 M
0 117 V
0 567 R
0 82 V
stroke
8112 1256 N
152 0 V
0 567 V
-152 0 V
0 -567 V
Z stroke
8112 1905 M
152 0 V
8112 1139 M
152 0 V
stroke
8870 1234 152 529 80 45 0 PatternFill
8946 1115 M
0 119 V
0 529 R
0 146 V
stroke
8870 1234 N
152 0 V
0 529 V
-152 0 V
0 -529 V
Z stroke
8870 1909 M
152 0 V
8870 1115 M
152 0 V
stroke
9629 1264 152 533 80 45 0 PatternFill
9705 1144 M
0 120 V
0 533 R
0 80 V
stroke
9629 1264 N
152 0 V
0 533 V
-152 0 V
0 -533 V
Z stroke
9629 1877 M
152 0 V
9629 1144 M
152 0 V
stroke
10388 1223 152 581 80 45 0 PatternFill
10464 1022 M
0 201 V
0 581 R
0 84 V
stroke
10388 1223 N
152 0 V
0 581 V
-152 0 V
0 -581 V
Z stroke
10388 1888 M
152 0 V
-152 -866 R
152 0 V
stroke
11146 1200 152 618 80 45 0 PatternFill
11222 1116 M
0 84 V
0 618 R
0 110 V
stroke
11146 1200 N
152 0 V
0 618 V
-152 0 V
0 -618 V
Z stroke
11146 1928 M
152 0 V
-152 -812 R
152 0 V
stroke
11905 1233 152 563 80 45 0 PatternFill
11981 1143 M
0 90 V
0 563 R
0 113 V
stroke
11905 1233 N
152 0 V
0 563 V
-152 0 V
0 -563 V
Z stroke
11905 1909 M
152 0 V
-152 -766 R
152 0 V
stroke
12664 1209 152 588 80 45 0 PatternFill
12740 1111 M
0 98 V
0 588 R
0 50 V
stroke
12664 1209 N
152 0 V
0 588 V
-152 0 V
0 -588 V
Z stroke
12664 1847 M
152 0 V
-152 -736 R
152 0 V
% End plot #4
% Begin plot #5
stroke
LTb
LCb setrgbcolor

 /TransparentPatterns true def
1283 1502 152 0 80 -45 0 PatternFill
1359 1502 M
stroke
1283 1502 N
152 0 V
-152 0 V
Z stroke
1283 1502 M
152 0 V
-152 0 R
152 0 V
stroke

 /TransparentPatterns true def
2042 1492 152 0 80 -45 0 PatternFill
2118 1492 M
stroke
2042 1492 N
152 0 V
-152 0 V
Z stroke
2042 1492 M
152 0 V
-152 0 R
152 0 V
stroke

 /TransparentPatterns true def
2801 1515 152 0 80 -45 0 PatternFill
2877 1515 M
stroke
2801 1515 N
152 0 V
-152 0 V
Z stroke
2801 1515 M
152 0 V
-152 0 R
152 0 V
stroke

 /TransparentPatterns true def
3560 1504 152 0 80 -45 0 PatternFill
3636 1504 M
stroke
3560 1504 N
152 0 V
-152 0 V
Z stroke
3560 1504 M
152 0 V
-152 0 R
152 0 V
stroke

 /TransparentPatterns true def
4318 1464 152 0 80 -45 0 PatternFill
4394 1464 M
stroke
4318 1464 N
152 0 V
-152 0 V
Z stroke
4318 1464 M
152 0 V
-152 0 R
152 0 V
stroke

 /TransparentPatterns true def
5077 1459 152 0 80 -45 0 PatternFill
5153 1459 M
stroke
5077 1459 N
152 0 V
-152 0 V
Z stroke
5077 1459 M
152 0 V
-152 0 R
152 0 V
stroke

 /TransparentPatterns true def
5836 1480 152 0 80 -45 0 PatternFill
5912 1480 M
stroke
5836 1480 N
152 0 V
-152 0 V
Z stroke
5836 1480 M
152 0 V
-152 0 R
152 0 V
stroke

 /TransparentPatterns true def
6594 1498 152 0 80 -45 0 PatternFill
6670 1498 M
stroke
6594 1498 N
152 0 V
-152 0 V
Z stroke
6594 1498 M
152 0 V
-152 0 R
152 0 V
stroke

 /TransparentPatterns true def
7353 1521 152 0 80 -45 0 PatternFill
7429 1521 M
stroke
7353 1521 N
152 0 V
-152 0 V
Z stroke
7353 1521 M
152 0 V
-152 0 R
152 0 V
stroke

 /TransparentPatterns true def
8112 1512 152 0 80 -45 0 PatternFill
8188 1512 M
stroke
8112 1512 N
152 0 V
-152 0 V
Z stroke
8112 1512 M
152 0 V
-152 0 R
152 0 V
stroke

 /TransparentPatterns true def
8870 1487 152 0 80 -45 0 PatternFill
8946 1487 M
stroke
8870 1487 N
152 0 V
-152 0 V
Z stroke
8870 1487 M
152 0 V
-152 0 R
152 0 V
stroke

 /TransparentPatterns true def
9629 1520 152 0 80 -45 0 PatternFill
9705 1520 M
stroke
9629 1520 N
152 0 V
-152 0 V
Z stroke
9629 1520 M
152 0 V
-152 0 R
152 0 V
stroke

 /TransparentPatterns true def
10388 1463 152 0 80 -45 0 PatternFill
10464 1463 M
stroke
10388 1463 N
152 0 V
-152 0 V
Z stroke
10388 1463 M
152 0 V
-152 0 R
152 0 V
stroke

 /TransparentPatterns true def
11146 1509 152 0 80 -45 0 PatternFill
11222 1509 M
stroke
11146 1509 N
152 0 V
-152 0 V
Z stroke
11146 1509 M
152 0 V
-152 0 R
152 0 V
stroke

 /TransparentPatterns true def
11905 1503 152 0 80 -45 0 PatternFill
11981 1503 M
stroke
11905 1503 N
152 0 V
-152 0 V
Z stroke
11905 1503 M
152 0 V
-152 0 R
152 0 V
stroke

 /TransparentPatterns true def
12664 1469 152 0 80 -45 0 PatternFill
12740 1469 M
stroke
12664 1469 N
152 0 V
-152 0 V
Z stroke
12664 1469 M
152 0 V
-152 0 R
152 0 V
% End plot #5
% Begin plot #6
2.000 UP
stroke
LTa
0.00 0.00 0.63 C LCb setrgbcolor
8287 153 M
[ [(Arial) 180.0 0.0 true true 0 ( )]
] -60.0 MRshow
2.000 UP
1.000 UL
LTa
0.00 0.00 0.63 C 8395 153 M
333 0 V
980 4739 M
379 -2 V
759 4 V
759 2 V
758 -4 V
759 -3 V
759 5 V
758 -6 V
759 2 V
759 2 V
759 0 V
758 -1 V
759 -1 V
759 -1 V
758 4 V
759 -1 V
759 -5 V
1359 4737 Circle
2118 4741 Circle
2877 4743 Circle
3635 4739 Circle
4394 4736 Circle
5153 4741 Circle
5911 4735 Circle
6670 4737 Circle
7429 4739 Circle
8188 4739 Circle
8946 4738 Circle
9705 4737 Circle
10464 4736 Circle
11222 4740 Circle
11981 4739 Circle
12740 4734 Circle
8561 153 Circle
% End plot #6
% Begin plot #7
1.000 UL
LTb
0.00 0.38 0.82 C LCb setrgbcolor
11860 333 M
[ [(Arial) 180.0 0.0 true true 0 (per-flow)]
] -60.0 MRshow
1.000 UL
LTb
0.00 0.38 0.82 C 11968 288 333 90 40 30 0 PatternFill
11968 288 N
333 0 V
0 90 V
-333 0 V
0 -90 V
Z stroke
1.000 UL
LTb
0.00 0.38 0.82 C 1473 1182 152 374 40 30 0 PatternFill
1549 1112 M
0 70 V
0 374 R
0 312 V
stroke
1473 1182 N
152 0 V
0 374 V
-152 0 V
0 -374 V
Z stroke
1473 1868 M
152 0 V
1473 1112 M
152 0 V
stroke
2232 1217 152 412 40 30 0 PatternFill
2308 1134 M
0 83 V
0 412 R
0 241 V
stroke
2232 1217 N
152 0 V
0 412 V
-152 0 V
0 -412 V
Z stroke
2232 1870 M
152 0 V
2232 1134 M
152 0 V
stroke
2991 1219 152 404 40 30 0 PatternFill
3067 1105 M
0 114 V
0 404 R
0 359 V
stroke
2991 1219 N
152 0 V
0 404 V
-152 0 V
0 -404 V
Z stroke
2991 1982 M
152 0 V
2991 1105 M
152 0 V
stroke
3749 1237 152 366 40 30 0 PatternFill
3825 1108 M
0 129 V
0 366 R
0 369 V
stroke
3749 1237 N
152 0 V
0 366 V
-152 0 V
0 -366 V
Z stroke
3749 1972 M
152 0 V
3749 1108 M
152 0 V
stroke
4508 1238 152 366 40 30 0 PatternFill
4584 1119 M
0 119 V
0 366 R
0 283 V
stroke
4508 1238 N
152 0 V
0 366 V
-152 0 V
0 -366 V
Z stroke
4508 1887 M
152 0 V
4508 1119 M
152 0 V
stroke
5267 1187 152 322 40 30 0 PatternFill
5343 1071 M
0 116 V
0 322 R
0 242 V
stroke
5267 1187 N
152 0 V
0 322 V
-152 0 V
0 -322 V
Z stroke
5267 1751 M
152 0 V
5267 1071 M
152 0 V
stroke
6025 1142 152 398 40 30 0 PatternFill
6101 1117 M
0 25 V
0 398 R
0 316 V
stroke
6025 1142 N
152 0 V
0 398 V
-152 0 V
0 -398 V
Z stroke
6025 1856 M
152 0 V
6025 1117 M
152 0 V
stroke
6784 1131 152 385 40 30 0 PatternFill
6860 1052 M
0 79 V
0 385 R
0 462 V
stroke
6784 1131 N
152 0 V
0 385 V
-152 0 V
0 -385 V
Z stroke
6784 1978 M
152 0 V
6784 1052 M
152 0 V
stroke
7543 1138 152 578 40 30 0 PatternFill
7619 1114 M
0 24 V
0 578 R
0 152 V
stroke
7543 1138 N
152 0 V
0 578 V
-152 0 V
0 -578 V
Z stroke
7543 1868 M
152 0 V
7543 1114 M
152 0 V
stroke
8301 1227 152 387 40 30 0 PatternFill
8377 1110 M
0 117 V
0 387 R
0 370 V
stroke
8301 1227 N
152 0 V
0 387 V
-152 0 V
0 -387 V
Z stroke
8301 1984 M
152 0 V
8301 1110 M
152 0 V
stroke
9060 1246 152 258 40 30 0 PatternFill
9136 1120 M
0 126 V
0 258 R
0 233 V
stroke
9060 1246 N
152 0 V
0 258 V
-152 0 V
0 -258 V
Z stroke
9060 1737 M
152 0 V
9060 1120 M
152 0 V
stroke
9819 1245 152 310 40 30 0 PatternFill
9895 1111 M
0 134 V
0 310 R
0 430 V
stroke
9819 1245 N
152 0 V
0 310 V
-152 0 V
0 -310 V
Z stroke
9819 1985 M
152 0 V
9819 1111 M
152 0 V
stroke
10577 1193 152 313 40 30 0 PatternFill
10653 1038 M
0 155 V
0 313 R
0 259 V
stroke
10577 1193 N
152 0 V
0 313 V
-152 0 V
0 -313 V
Z stroke
10577 1765 M
152 0 V
-152 -727 R
152 0 V
stroke
11336 1198 152 393 40 30 0 PatternFill
11412 1114 M
0 84 V
0 393 R
0 100 V
stroke
11336 1198 N
152 0 V
0 393 V
-152 0 V
0 -393 V
Z stroke
11336 1691 M
152 0 V
-152 -577 R
152 0 V
stroke
12095 1215 152 459 40 30 0 PatternFill
12171 1116 M
0 99 V
0 459 R
0 197 V
stroke
12095 1215 N
152 0 V
0 459 V
-152 0 V
0 -459 V
Z stroke
12095 1871 M
152 0 V
-152 -755 R
152 0 V
stroke
12853 1205 152 370 40 30 0 PatternFill
12929 1127 M
0 78 V
0 370 R
0 175 V
stroke
12853 1205 N
152 0 V
0 370 V
-152 0 V
0 -370 V
Z stroke
12853 1750 M
152 0 V
-152 -623 R
152 0 V
% End plot #7
% Begin plot #8
stroke
LTb
LCb setrgbcolor

 /TransparentPatterns true def
1473 1382 152 0 40 -30 0 PatternFill
1549 1382 M
stroke
1473 1382 N
152 0 V
-152 0 V
Z stroke
1473 1382 M
152 0 V
-152 0 R
152 0 V
stroke

 /TransparentPatterns true def
2232 1439 152 0 40 -30 0 PatternFill
2308 1439 M
stroke
2232 1439 N
152 0 V
-152 0 V
Z stroke
2232 1439 M
152 0 V
-152 0 R
152 0 V
stroke

 /TransparentPatterns true def
2991 1444 152 0 40 -30 0 PatternFill
3067 1444 M
stroke
2991 1444 N
152 0 V
-152 0 V
Z stroke
2991 1444 M
152 0 V
-152 0 R
152 0 V
stroke

 /TransparentPatterns true def
3749 1456 152 0 40 -30 0 PatternFill
3825 1456 M
stroke
3749 1456 N
152 0 V
-152 0 V
Z stroke
3749 1456 M
152 0 V
-152 0 R
152 0 V
stroke

 /TransparentPatterns true def
4508 1393 152 0 40 -30 0 PatternFill
4584 1393 M
stroke
4508 1393 N
152 0 V
-152 0 V
Z stroke
4508 1393 M
152 0 V
-152 0 R
152 0 V
stroke

 /TransparentPatterns true def
5267 1354 152 0 40 -30 0 PatternFill
5343 1354 M
stroke
5267 1354 N
152 0 V
-152 0 V
Z stroke
5267 1354 M
152 0 V
-152 0 R
152 0 V
stroke

 /TransparentPatterns true def
6025 1369 152 0 40 -30 0 PatternFill
6101 1369 M
stroke
6025 1369 N
152 0 V
-152 0 V
Z stroke
6025 1369 M
152 0 V
-152 0 R
152 0 V
stroke

 /TransparentPatterns true def
6784 1368 152 0 40 -30 0 PatternFill
6860 1368 M
stroke
6784 1368 N
152 0 V
-152 0 V
Z stroke
6784 1368 M
152 0 V
-152 0 R
152 0 V
stroke

 /TransparentPatterns true def
7543 1438 152 0 40 -30 0 PatternFill
7619 1438 M
stroke
7543 1438 N
152 0 V
-152 0 V
Z stroke
7543 1438 M
152 0 V
-152 0 R
152 0 V
stroke

 /TransparentPatterns true def
8301 1438 152 0 40 -30 0 PatternFill
8377 1438 M
stroke
8301 1438 N
152 0 V
-152 0 V
Z stroke
8301 1438 M
152 0 V
-152 0 R
152 0 V
stroke

 /TransparentPatterns true def
9060 1378 152 0 40 -30 0 PatternFill
9136 1378 M
stroke
9060 1378 N
152 0 V
-152 0 V
Z stroke
9060 1378 M
152 0 V
-152 0 R
152 0 V
stroke

 /TransparentPatterns true def
9819 1414 152 0 40 -30 0 PatternFill
9895 1414 M
stroke
9819 1414 N
152 0 V
-152 0 V
Z stroke
9819 1414 M
152 0 V
-152 0 R
152 0 V
stroke

 /TransparentPatterns true def
10577 1364 152 0 40 -30 0 PatternFill
10653 1364 M
stroke
10577 1364 N
152 0 V
-152 0 V
Z stroke
10577 1364 M
152 0 V
-152 0 R
152 0 V
stroke

 /TransparentPatterns true def
11336 1392 152 0 40 -30 0 PatternFill
11412 1392 M
stroke
11336 1392 N
152 0 V
-152 0 V
Z stroke
11336 1392 M
152 0 V
-152 0 R
152 0 V
stroke

 /TransparentPatterns true def
12095 1441 152 0 40 -30 0 PatternFill
12171 1441 M
stroke
12095 1441 N
152 0 V
-152 0 V
Z stroke
12095 1441 M
152 0 V
-152 0 R
152 0 V
stroke

 /TransparentPatterns true def
12853 1390 152 0 40 -30 0 PatternFill
12929 1390 M
stroke
12853 1390 N
152 0 V
-152 0 V
Z stroke
12853 1390 M
152 0 V
-152 0 R
152 0 V
% End plot #8
% Begin plot #9
2.000 UP
stroke
LTa
0.00 0.38 0.82 C LCb setrgbcolor
11860 153 M
[ [(Arial) 180.0 0.0 true true 0 ( )]
] -60.0 MRshow
2.000 UP
1.000 UL
LTa
0.00 0.38 0.82 C 11968 153 M
333 0 V
980 4736 M
569 -1 V
759 1 V
758 7 V
759 -1 V
759 -6 V
758 -9 V
759 8 V
759 7 V
759 -5 V
758 6 V
759 -18 V
759 18 V
758 -14 V
759 -7 V
759 14 V
758 -9 V
1549 4735 TriU
2308 4736 TriU
3066 4743 TriU
3825 4742 TriU
4584 4736 TriU
5342 4727 TriU
6101 4735 TriU
6860 4742 TriU
7619 4737 TriU
8377 4743 TriU
9136 4725 TriU
9895 4743 TriU
10653 4729 TriU
11412 4722 TriU
12171 4736 TriU
12929 4727 TriU
12134 153 TriU
% End plot #9
2.000 UL
LTb
LCb setrgbcolor
1.000 UP
1.000 UL
LTb
0.00 0.00 0.00 C stroke
grestore
end
showpage
%%Trailer
%%DocumentFonts: Arial
