%!PS-Adobe-2.0 EPSF-2.0
%%Title: TcpVegas-download-finishtime-25UE-90-240.eps
%%Creator: gnuplot 5.0 patchlevel 3
%%CreationDate: Thu May 19 16:44:20 2016
%%DocumentFonts: (atend)
%%BoundingBox: 50 50 770 302
%%EndComments
%%BeginProlog
/gnudict 256 dict def
gnudict begin
%
% The following true/false flags may be edited by hand if desired.
% The unit line width and grayscale image gamma correction may also be changed.
%
/Color true def
/Blacktext false def
/Solid false def
/Dashlength 3 def
/Landscape false def
/Level1 false def
/Level3 false def
/Rounded false def
/ClipToBoundingBox false def
/SuppressPDFMark false def
/TransparentPatterns false def
/gnulinewidth 15.000 def
/userlinewidth gnulinewidth def
/Gamma 1.0 def
/BackgroundColor {-1.000 -1.000 -1.000} def
%
/vshift -66 def
/dl1 {
  10.0 Dashlength userlinewidth gnulinewidth div mul mul mul
  Rounded { currentlinewidth 0.75 mul sub dup 0 le { pop 0.01 } if } if
} def
/dl2 {
  10.0 Dashlength userlinewidth gnulinewidth div mul mul mul
  Rounded { currentlinewidth 0.75 mul add } if
} def
/hpt_ 31.5 def
/vpt_ 31.5 def
/hpt hpt_ def
/vpt vpt_ def
/doclip {
  ClipToBoundingBox {
    newpath 50 50 moveto 770 50 lineto 770 302 lineto 50 302 lineto closepath
    clip
  } if
} def
%
% Gnuplot Prolog Version 5.1 (Oct 2015)
%
%/SuppressPDFMark true def
%
/M {moveto} bind def
/L {lineto} bind def
/R {rmoveto} bind def
/V {rlineto} bind def
/N {newpath moveto} bind def
/Z {closepath} bind def
/C {setrgbcolor} bind def
/f {rlineto fill} bind def
/g {setgray} bind def
/Gshow {show} def   % May be redefined later in the file to support UTF-8
/vpt2 vpt 2 mul def
/hpt2 hpt 2 mul def
/Lshow {currentpoint stroke M 0 vshift R 
	Blacktext {gsave 0 setgray textshow grestore} {textshow} ifelse} def
/Rshow {currentpoint stroke M dup stringwidth pop neg vshift R
	Blacktext {gsave 0 setgray textshow grestore} {textshow} ifelse} def
/Cshow {currentpoint stroke M dup stringwidth pop -2 div vshift R 
	Blacktext {gsave 0 setgray textshow grestore} {textshow} ifelse} def
/UP {dup vpt_ mul /vpt exch def hpt_ mul /hpt exch def
  /hpt2 hpt 2 mul def /vpt2 vpt 2 mul def} def
/DL {Color {setrgbcolor Solid {pop []} if 0 setdash}
 {pop pop pop 0 setgray Solid {pop []} if 0 setdash} ifelse} def
/BL {stroke userlinewidth 2 mul setlinewidth
	Rounded {1 setlinejoin 1 setlinecap} if} def
/AL {stroke userlinewidth 2 div setlinewidth
	Rounded {1 setlinejoin 1 setlinecap} if} def
/UL {dup gnulinewidth mul /userlinewidth exch def
	dup 1 lt {pop 1} if 10 mul /udl exch def} def
/PL {stroke userlinewidth setlinewidth
	Rounded {1 setlinejoin 1 setlinecap} if} def
3.8 setmiterlimit
% Classic Line colors (version 5.0)
/LCw {1 1 1} def
/LCb {0 0 0} def
/LCa {0 0 0} def
/LC0 {1 0 0} def
/LC1 {0 1 0} def
/LC2 {0 0 1} def
/LC3 {1 0 1} def
/LC4 {0 1 1} def
/LC5 {1 1 0} def
/LC6 {0 0 0} def
/LC7 {1 0.3 0} def
/LC8 {0.5 0.5 0.5} def
% Default dash patterns (version 5.0)
/LTB {BL [] LCb DL} def
/LTw {PL [] 1 setgray} def
/LTb {PL [] LCb DL} def
/LTa {AL [1 udl mul 2 udl mul] 0 setdash LCa setrgbcolor} def
/LT0 {PL [] LC0 DL} def
/LT1 {PL [2 dl1 3 dl2] LC1 DL} def
/LT2 {PL [1 dl1 1.5 dl2] LC2 DL} def
/LT3 {PL [6 dl1 2 dl2 1 dl1 2 dl2] LC3 DL} def
/LT4 {PL [1 dl1 2 dl2 6 dl1 2 dl2 1 dl1 2 dl2] LC4 DL} def
/LT5 {PL [4 dl1 2 dl2] LC5 DL} def
/LT6 {PL [1.5 dl1 1.5 dl2 1.5 dl1 1.5 dl2 1.5 dl1 6 dl2] LC6 DL} def
/LT7 {PL [3 dl1 3 dl2 1 dl1 3 dl2] LC7 DL} def
/LT8 {PL [2 dl1 2 dl2 2 dl1 6 dl2] LC8 DL} def
/SL {[] 0 setdash} def
/Pnt {stroke [] 0 setdash gsave 1 setlinecap M 0 0 V stroke grestore} def
/Dia {stroke [] 0 setdash 2 copy vpt add M
  hpt neg vpt neg V hpt vpt neg V
  hpt vpt V hpt neg vpt V closepath stroke
  Pnt} def
/Pls {stroke [] 0 setdash vpt sub M 0 vpt2 V
  currentpoint stroke M
  hpt neg vpt neg R hpt2 0 V stroke
 } def
/Box {stroke [] 0 setdash 2 copy exch hpt sub exch vpt add M
  0 vpt2 neg V hpt2 0 V 0 vpt2 V
  hpt2 neg 0 V closepath stroke
  Pnt} def
/Crs {stroke [] 0 setdash exch hpt sub exch vpt add M
  hpt2 vpt2 neg V currentpoint stroke M
  hpt2 neg 0 R hpt2 vpt2 V stroke} def
/TriU {stroke [] 0 setdash 2 copy vpt 1.12 mul add M
  hpt neg vpt -1.62 mul V
  hpt 2 mul 0 V
  hpt neg vpt 1.62 mul V closepath stroke
  Pnt} def
/Star {2 copy Pls Crs} def
/BoxF {stroke [] 0 setdash exch hpt sub exch vpt add M
  0 vpt2 neg V hpt2 0 V 0 vpt2 V
  hpt2 neg 0 V closepath fill} def
/TriUF {stroke [] 0 setdash vpt 1.12 mul add M
  hpt neg vpt -1.62 mul V
  hpt 2 mul 0 V
  hpt neg vpt 1.62 mul V closepath fill} def
/TriD {stroke [] 0 setdash 2 copy vpt 1.12 mul sub M
  hpt neg vpt 1.62 mul V
  hpt 2 mul 0 V
  hpt neg vpt -1.62 mul V closepath stroke
  Pnt} def
/TriDF {stroke [] 0 setdash vpt 1.12 mul sub M
  hpt neg vpt 1.62 mul V
  hpt 2 mul 0 V
  hpt neg vpt -1.62 mul V closepath fill} def
/DiaF {stroke [] 0 setdash vpt add M
  hpt neg vpt neg V hpt vpt neg V
  hpt vpt V hpt neg vpt V closepath fill} def
/Pent {stroke [] 0 setdash 2 copy gsave
  translate 0 hpt M 4 {72 rotate 0 hpt L} repeat
  closepath stroke grestore Pnt} def
/PentF {stroke [] 0 setdash gsave
  translate 0 hpt M 4 {72 rotate 0 hpt L} repeat
  closepath fill grestore} def
/Circle {stroke [] 0 setdash 2 copy
  hpt 0 360 arc stroke Pnt} def
/CircleF {stroke [] 0 setdash hpt 0 360 arc fill} def
/C0 {BL [] 0 setdash 2 copy moveto vpt 90 450 arc} bind def
/C1 {BL [] 0 setdash 2 copy moveto
	2 copy vpt 0 90 arc closepath fill
	vpt 0 360 arc closepath} bind def
/C2 {BL [] 0 setdash 2 copy moveto
	2 copy vpt 90 180 arc closepath fill
	vpt 0 360 arc closepath} bind def
/C3 {BL [] 0 setdash 2 copy moveto
	2 copy vpt 0 180 arc closepath fill
	vpt 0 360 arc closepath} bind def
/C4 {BL [] 0 setdash 2 copy moveto
	2 copy vpt 180 270 arc closepath fill
	vpt 0 360 arc closepath} bind def
/C5 {BL [] 0 setdash 2 copy moveto
	2 copy vpt 0 90 arc
	2 copy moveto
	2 copy vpt 180 270 arc closepath fill
	vpt 0 360 arc} bind def
/C6 {BL [] 0 setdash 2 copy moveto
	2 copy vpt 90 270 arc closepath fill
	vpt 0 360 arc closepath} bind def
/C7 {BL [] 0 setdash 2 copy moveto
	2 copy vpt 0 270 arc closepath fill
	vpt 0 360 arc closepath} bind def
/C8 {BL [] 0 setdash 2 copy moveto
	2 copy vpt 270 360 arc closepath fill
	vpt 0 360 arc closepath} bind def
/C9 {BL [] 0 setdash 2 copy moveto
	2 copy vpt 270 450 arc closepath fill
	vpt 0 360 arc closepath} bind def
/C10 {BL [] 0 setdash 2 copy 2 copy moveto vpt 270 360 arc closepath fill
	2 copy moveto
	2 copy vpt 90 180 arc closepath fill
	vpt 0 360 arc closepath} bind def
/C11 {BL [] 0 setdash 2 copy moveto
	2 copy vpt 0 180 arc closepath fill
	2 copy moveto
	2 copy vpt 270 360 arc closepath fill
	vpt 0 360 arc closepath} bind def
/C12 {BL [] 0 setdash 2 copy moveto
	2 copy vpt 180 360 arc closepath fill
	vpt 0 360 arc closepath} bind def
/C13 {BL [] 0 setdash 2 copy moveto
	2 copy vpt 0 90 arc closepath fill
	2 copy moveto
	2 copy vpt 180 360 arc closepath fill
	vpt 0 360 arc closepath} bind def
/C14 {BL [] 0 setdash 2 copy moveto
	2 copy vpt 90 360 arc closepath fill
	vpt 0 360 arc} bind def
/C15 {BL [] 0 setdash 2 copy vpt 0 360 arc closepath fill
	vpt 0 360 arc closepath} bind def
/Rec {newpath 4 2 roll moveto 1 index 0 rlineto 0 exch rlineto
	neg 0 rlineto closepath} bind def
/Square {dup Rec} bind def
/Bsquare {vpt sub exch vpt sub exch vpt2 Square} bind def
/S0 {BL [] 0 setdash 2 copy moveto 0 vpt rlineto BL Bsquare} bind def
/S1 {BL [] 0 setdash 2 copy vpt Square fill Bsquare} bind def
/S2 {BL [] 0 setdash 2 copy exch vpt sub exch vpt Square fill Bsquare} bind def
/S3 {BL [] 0 setdash 2 copy exch vpt sub exch vpt2 vpt Rec fill Bsquare} bind def
/S4 {BL [] 0 setdash 2 copy exch vpt sub exch vpt sub vpt Square fill Bsquare} bind def
/S5 {BL [] 0 setdash 2 copy 2 copy vpt Square fill
	exch vpt sub exch vpt sub vpt Square fill Bsquare} bind def
/S6 {BL [] 0 setdash 2 copy exch vpt sub exch vpt sub vpt vpt2 Rec fill Bsquare} bind def
/S7 {BL [] 0 setdash 2 copy exch vpt sub exch vpt sub vpt vpt2 Rec fill
	2 copy vpt Square fill Bsquare} bind def
/S8 {BL [] 0 setdash 2 copy vpt sub vpt Square fill Bsquare} bind def
/S9 {BL [] 0 setdash 2 copy vpt sub vpt vpt2 Rec fill Bsquare} bind def
/S10 {BL [] 0 setdash 2 copy vpt sub vpt Square fill 2 copy exch vpt sub exch vpt Square fill
	Bsquare} bind def
/S11 {BL [] 0 setdash 2 copy vpt sub vpt Square fill 2 copy exch vpt sub exch vpt2 vpt Rec fill
	Bsquare} bind def
/S12 {BL [] 0 setdash 2 copy exch vpt sub exch vpt sub vpt2 vpt Rec fill Bsquare} bind def
/S13 {BL [] 0 setdash 2 copy exch vpt sub exch vpt sub vpt2 vpt Rec fill
	2 copy vpt Square fill Bsquare} bind def
/S14 {BL [] 0 setdash 2 copy exch vpt sub exch vpt sub vpt2 vpt Rec fill
	2 copy exch vpt sub exch vpt Square fill Bsquare} bind def
/S15 {BL [] 0 setdash 2 copy Bsquare fill Bsquare} bind def
/D0 {gsave translate 45 rotate 0 0 S0 stroke grestore} bind def
/D1 {gsave translate 45 rotate 0 0 S1 stroke grestore} bind def
/D2 {gsave translate 45 rotate 0 0 S2 stroke grestore} bind def
/D3 {gsave translate 45 rotate 0 0 S3 stroke grestore} bind def
/D4 {gsave translate 45 rotate 0 0 S4 stroke grestore} bind def
/D5 {gsave translate 45 rotate 0 0 S5 stroke grestore} bind def
/D6 {gsave translate 45 rotate 0 0 S6 stroke grestore} bind def
/D7 {gsave translate 45 rotate 0 0 S7 stroke grestore} bind def
/D8 {gsave translate 45 rotate 0 0 S8 stroke grestore} bind def
/D9 {gsave translate 45 rotate 0 0 S9 stroke grestore} bind def
/D10 {gsave translate 45 rotate 0 0 S10 stroke grestore} bind def
/D11 {gsave translate 45 rotate 0 0 S11 stroke grestore} bind def
/D12 {gsave translate 45 rotate 0 0 S12 stroke grestore} bind def
/D13 {gsave translate 45 rotate 0 0 S13 stroke grestore} bind def
/D14 {gsave translate 45 rotate 0 0 S14 stroke grestore} bind def
/D15 {gsave translate 45 rotate 0 0 S15 stroke grestore} bind def
/DiaE {stroke [] 0 setdash vpt add M
  hpt neg vpt neg V hpt vpt neg V
  hpt vpt V hpt neg vpt V closepath stroke} def
/BoxE {stroke [] 0 setdash exch hpt sub exch vpt add M
  0 vpt2 neg V hpt2 0 V 0 vpt2 V
  hpt2 neg 0 V closepath stroke} def
/TriUE {stroke [] 0 setdash vpt 1.12 mul add M
  hpt neg vpt -1.62 mul V
  hpt 2 mul 0 V
  hpt neg vpt 1.62 mul V closepath stroke} def
/TriDE {stroke [] 0 setdash vpt 1.12 mul sub M
  hpt neg vpt 1.62 mul V
  hpt 2 mul 0 V
  hpt neg vpt -1.62 mul V closepath stroke} def
/PentE {stroke [] 0 setdash gsave
  translate 0 hpt M 4 {72 rotate 0 hpt L} repeat
  closepath stroke grestore} def
/CircE {stroke [] 0 setdash 
  hpt 0 360 arc stroke} def
/Opaque {gsave closepath 1 setgray fill grestore 0 setgray closepath} def
/DiaW {stroke [] 0 setdash vpt add M
  hpt neg vpt neg V hpt vpt neg V
  hpt vpt V hpt neg vpt V Opaque stroke} def
/BoxW {stroke [] 0 setdash exch hpt sub exch vpt add M
  0 vpt2 neg V hpt2 0 V 0 vpt2 V
  hpt2 neg 0 V Opaque stroke} def
/TriUW {stroke [] 0 setdash vpt 1.12 mul add M
  hpt neg vpt -1.62 mul V
  hpt 2 mul 0 V
  hpt neg vpt 1.62 mul V Opaque stroke} def
/TriDW {stroke [] 0 setdash vpt 1.12 mul sub M
  hpt neg vpt 1.62 mul V
  hpt 2 mul 0 V
  hpt neg vpt -1.62 mul V Opaque stroke} def
/PentW {stroke [] 0 setdash gsave
  translate 0 hpt M 4 {72 rotate 0 hpt L} repeat
  Opaque stroke grestore} def
/CircW {stroke [] 0 setdash 
  hpt 0 360 arc Opaque stroke} def
/BoxFill {gsave Rec 1 setgray fill grestore} def
/Density {
  /Fillden exch def
  currentrgbcolor
  /ColB exch def /ColG exch def /ColR exch def
  /ColR ColR Fillden mul Fillden sub 1 add def
  /ColG ColG Fillden mul Fillden sub 1 add def
  /ColB ColB Fillden mul Fillden sub 1 add def
  ColR ColG ColB setrgbcolor} def
/BoxColFill {gsave Rec PolyFill} def
/PolyFill {gsave Density fill grestore grestore} def
/h {rlineto rlineto rlineto gsave closepath fill grestore} bind def
%
% PostScript Level 1 Pattern Fill routine for rectangles
% Usage: x y w h s a XX PatternFill
%	x,y = lower left corner of box to be filled
%	w,h = width and height of box
%	  a = angle in degrees between lines and x-axis
%	 XX = 0/1 for no/yes cross-hatch
%
/PatternFill {gsave /PFa [ 9 2 roll ] def
  PFa 0 get PFa 2 get 2 div add PFa 1 get PFa 3 get 2 div add translate
  PFa 2 get -2 div PFa 3 get -2 div PFa 2 get PFa 3 get Rec
  TransparentPatterns {} {gsave 1 setgray fill grestore} ifelse
  clip
  currentlinewidth 0.5 mul setlinewidth
  /PFs PFa 2 get dup mul PFa 3 get dup mul add sqrt def
  0 0 M PFa 5 get rotate PFs -2 div dup translate
  0 1 PFs PFa 4 get div 1 add floor cvi
	{PFa 4 get mul 0 M 0 PFs V} for
  0 PFa 6 get ne {
	0 1 PFs PFa 4 get div 1 add floor cvi
	{PFa 4 get mul 0 2 1 roll M PFs 0 V} for
 } if
  stroke grestore} def
%
/languagelevel where
 {pop languagelevel} {1} ifelse
dup 2 lt
	{/InterpretLevel1 true def
	 /InterpretLevel3 false def}
	{/InterpretLevel1 Level1 def
	 2 gt
	    {/InterpretLevel3 Level3 def}
	    {/InterpretLevel3 false def}
	 ifelse }
 ifelse
%
% PostScript level 2 pattern fill definitions
%
/Level2PatternFill {
/Tile8x8 {/PaintType 2 /PatternType 1 /TilingType 1 /BBox [0 0 8 8] /XStep 8 /YStep 8}
	bind def
/KeepColor {currentrgbcolor [/Pattern /DeviceRGB] setcolorspace} bind def
<< Tile8x8
 /PaintProc {0.5 setlinewidth pop 0 0 M 8 8 L 0 8 M 8 0 L stroke} 
>> matrix makepattern
/Pat1 exch def
<< Tile8x8
 /PaintProc {0.5 setlinewidth pop 0 0 M 8 8 L 0 8 M 8 0 L stroke
	0 4 M 4 8 L 8 4 L 4 0 L 0 4 L stroke}
>> matrix makepattern
/Pat2 exch def
<< Tile8x8
 /PaintProc {0.5 setlinewidth pop 0 0 M 0 8 L
	8 8 L 8 0 L 0 0 L fill}
>> matrix makepattern
/Pat3 exch def
<< Tile8x8
 /PaintProc {0.5 setlinewidth pop -4 8 M 8 -4 L
	0 12 M 12 0 L stroke}
>> matrix makepattern
/Pat4 exch def
<< Tile8x8
 /PaintProc {0.5 setlinewidth pop -4 0 M 8 12 L
	0 -4 M 12 8 L stroke}
>> matrix makepattern
/Pat5 exch def
<< Tile8x8
 /PaintProc {0.5 setlinewidth pop -2 8 M 4 -4 L
	0 12 M 8 -4 L 4 12 M 10 0 L stroke}
>> matrix makepattern
/Pat6 exch def
<< Tile8x8
 /PaintProc {0.5 setlinewidth pop -2 0 M 4 12 L
	0 -4 M 8 12 L 4 -4 M 10 8 L stroke}
>> matrix makepattern
/Pat7 exch def
<< Tile8x8
 /PaintProc {0.5 setlinewidth pop 8 -2 M -4 4 L
	12 0 M -4 8 L 12 4 M 0 10 L stroke}
>> matrix makepattern
/Pat8 exch def
<< Tile8x8
 /PaintProc {0.5 setlinewidth pop 0 -2 M 12 4 L
	-4 0 M 12 8 L -4 4 M 8 10 L stroke}
>> matrix makepattern
/Pat9 exch def
/Pattern1 {PatternBgnd KeepColor Pat1 setpattern} bind def
/Pattern2 {PatternBgnd KeepColor Pat2 setpattern} bind def
/Pattern3 {PatternBgnd KeepColor Pat3 setpattern} bind def
/Pattern4 {PatternBgnd KeepColor Landscape {Pat5} {Pat4} ifelse setpattern} bind def
/Pattern5 {PatternBgnd KeepColor Landscape {Pat4} {Pat5} ifelse setpattern} bind def
/Pattern6 {PatternBgnd KeepColor Landscape {Pat9} {Pat6} ifelse setpattern} bind def
/Pattern7 {PatternBgnd KeepColor Landscape {Pat8} {Pat7} ifelse setpattern} bind def
} def
%
%
%End of PostScript Level 2 code
%
/PatternBgnd {
  TransparentPatterns {} {gsave 1 setgray fill grestore} ifelse
} def
%
% Substitute for Level 2 pattern fill codes with
% grayscale if Level 2 support is not selected.
%
/Level1PatternFill {
/Pattern1 {0.250 Density} bind def
/Pattern2 {0.500 Density} bind def
/Pattern3 {0.750 Density} bind def
/Pattern4 {0.125 Density} bind def
/Pattern5 {0.375 Density} bind def
/Pattern6 {0.625 Density} bind def
/Pattern7 {0.875 Density} bind def
} def
%
% Now test for support of Level 2 code
%
Level1 {Level1PatternFill} {Level2PatternFill} ifelse
%
/Symbol-Oblique /Symbol findfont [1 0 .167 1 0 0] makefont
dup length dict begin {1 index /FID eq {pop pop} {def} ifelse} forall
currentdict end definefont pop
%
/MFshow {
   { dup 5 get 3 ge
     { 5 get 3 eq {gsave} {grestore} ifelse }
     {dup dup 0 get findfont exch 1 get scalefont setfont
     [ currentpoint ] exch dup 2 get 0 exch R dup 5 get 2 ne {dup dup 6
     get exch 4 get {textshow} {stringwidth pop 0 R} ifelse }if dup 5 get 0 eq
     {dup 3 get {2 get neg 0 exch R pop} {pop aload pop M} ifelse} {dup 5
     get 1 eq {dup 2 get exch dup 3 get exch 6 get stringwidth pop -2 div
     dup 0 R} {dup 6 get stringwidth pop -2 div 0 R 6 get
     textshow 2 index {aload pop M neg 3 -1 roll neg R pop pop} {pop pop pop
     pop aload pop M} ifelse }ifelse }ifelse }
     ifelse }
   forall} def
/Gswidth {dup type /stringtype eq {stringwidth} {pop (n) stringwidth} ifelse} def
/MFwidth {0 exch { dup 5 get 3 ge { 5 get 3 eq { 0 } { pop } ifelse }
 {dup 3 get{dup dup 0 get findfont exch 1 get scalefont setfont
     6 get Gswidth pop add} {pop} ifelse} ifelse} forall} def
/MLshow { currentpoint stroke M
  0 exch R
  Blacktext {gsave 0 setgray MFshow grestore} {MFshow} ifelse } bind def
/MRshow { currentpoint stroke M
  exch dup MFwidth neg 3 -1 roll R
  Blacktext {gsave 0 setgray MFshow grestore} {MFshow} ifelse } bind def
/MCshow { currentpoint stroke M
  exch dup MFwidth -2 div 3 -1 roll R
  Blacktext {gsave 0 setgray MFshow grestore} {MFshow} ifelse } bind def
/XYsave    { [( ) 1 2 true false 3 ()] } bind def
/XYrestore { [( ) 1 2 true false 4 ()] } bind def
Level1 SuppressPDFMark or 
{} {
/SDict 10 dict def
systemdict /pdfmark known not {
  userdict /pdfmark systemdict /cleartomark get put
} if
SDict begin [
  /Title (TcpVegas-download-finishtime-25UE-90-240.eps)
  /Subject (gnuplot plot)
  /Creator (gnuplot 5.0 patchlevel 3)
  /Author (nat)
%  /Producer (gnuplot)
%  /Keywords ()
  /CreationDate (Thu May 19 16:44:20 2016)
  /DOCINFO pdfmark
end
} ifelse
%
% Support for boxed text - Ethan A Merritt May 2005
%
/InitTextBox { userdict /TBy2 3 -1 roll put userdict /TBx2 3 -1 roll put
           userdict /TBy1 3 -1 roll put userdict /TBx1 3 -1 roll put
	   /Boxing true def } def
/ExtendTextBox { Boxing
    { gsave dup false charpath pathbbox
      dup TBy2 gt {userdict /TBy2 3 -1 roll put} {pop} ifelse
      dup TBx2 gt {userdict /TBx2 3 -1 roll put} {pop} ifelse
      dup TBy1 lt {userdict /TBy1 3 -1 roll put} {pop} ifelse
      dup TBx1 lt {userdict /TBx1 3 -1 roll put} {pop} ifelse
      grestore } if } def
/PopTextBox { newpath TBx1 TBxmargin sub TBy1 TBymargin sub M
               TBx1 TBxmargin sub TBy2 TBymargin add L
	       TBx2 TBxmargin add TBy2 TBymargin add L
	       TBx2 TBxmargin add TBy1 TBymargin sub L closepath } def
/DrawTextBox { PopTextBox stroke /Boxing false def} def
/FillTextBox { gsave PopTextBox 1 1 1 setrgbcolor fill grestore /Boxing false def} def
0 0 0 0 InitTextBox
/TBxmargin 20 def
/TBymargin 20 def
/Boxing false def
/textshow { ExtendTextBox Gshow } def
%
% redundant definitions for compatibility with prologue.ps older than 5.0.2
/LTB {BL [] LCb DL} def
/LTb {PL [] LCb DL} def
end
%%EndProlog
%%Page: 1 1
gnudict begin
gsave
doclip
50 50 translate
0.050 0.050 scale
0 setgray
newpath
(Arial) findfont 200 scalefont setfont
BackgroundColor 0 lt 3 1 roll 0 lt exch 0 lt or or not {BackgroundColor C 1.000 0 0 14400.00 5040.00 BoxColFill} if
1.000 UL
LTb
0.00 0.00 0.00 C 0.500 UL
LTa
0.50 0.50 0.50 C 980 1000 M
12139 0 V
stroke
1.000 UL
LTb
0.00 0.00 0.00 C 980 1000 M
63 0 V
stroke
860 1000 M
[ [(Arial) 200.0 0.0 true true 0 ( 0)]
] -66.7 MRshow
1.000 UL
LTb
0.00 0.00 0.00 C 0.500 UL
LTa
0.50 0.50 0.50 C 980 1760 M
12139 0 V
stroke
1.000 UL
LTb
0.00 0.00 0.00 C 980 1760 M
63 0 V
stroke
860 1760 M
[ [(Arial) 200.0 0.0 true true 0 ( 50)]
] -66.7 MRshow
1.000 UL
LTb
0.00 0.00 0.00 C 0.500 UL
LTa
0.50 0.50 0.50 C 980 2520 M
12139 0 V
stroke
1.000 UL
LTb
0.00 0.00 0.00 C 980 2520 M
63 0 V
stroke
860 2520 M
[ [(Arial) 200.0 0.0 true true 0 ( 100)]
] -66.7 MRshow
1.000 UL
LTb
0.00 0.00 0.00 C 0.500 UL
LTa
0.50 0.50 0.50 C 980 3279 M
12139 0 V
stroke
1.000 UL
LTb
0.00 0.00 0.00 C 980 3279 M
63 0 V
stroke
860 3279 M
[ [(Arial) 200.0 0.0 true true 0 ( 150)]
] -66.7 MRshow
1.000 UL
LTb
0.00 0.00 0.00 C 0.500 UL
LTa
0.50 0.50 0.50 C 980 4039 M
12139 0 V
stroke
1.000 UL
LTb
0.00 0.00 0.00 C 980 4039 M
63 0 V
stroke
860 4039 M
[ [(Arial) 200.0 0.0 true true 0 ( 200)]
] -66.7 MRshow
1.000 UL
LTb
0.00 0.00 0.00 C 0.500 UL
LTa
0.50 0.50 0.50 C 980 4799 M
12139 0 V
stroke
1.000 UL
LTb
0.00 0.00 0.00 C 980 4799 M
63 0 V
stroke
860 4799 M
[ [(Arial) 200.0 0.0 true true 0 ( 250)]
] -66.7 MRshow
1.000 UL
LTb
0.00 0.00 0.00 C 0.500 UL
LTa
0.50 0.50 0.50 C 1359 1000 M
0 3799 V
stroke
1.000 UL
LTb
0.00 0.00 0.00 C 1359 1000 M
0 63 V
0 3736 R
0 -63 V
stroke
1359 800 M
[ [(Arial) 200.0 0.0 true true 0 ( 270)]
] -66.7 MCshow
1.000 UL
LTb
0.00 0.00 0.00 C 0.500 UL
LTa
0.50 0.50 0.50 C 2118 1000 M
0 3799 V
stroke
1.000 UL
LTb
0.00 0.00 0.00 C 2118 1000 M
0 63 V
0 3736 R
0 -63 V
stroke
2118 800 M
[ [(Arial) 200.0 0.0 true true 0 ( 300)]
] -66.7 MCshow
1.000 UL
LTb
0.00 0.00 0.00 C 0.500 UL
LTa
0.50 0.50 0.50 C 2877 1000 M
0 3799 V
stroke
1.000 UL
LTb
0.00 0.00 0.00 C 2877 1000 M
0 63 V
0 3736 R
0 -63 V
stroke
2877 800 M
[ [(Arial) 200.0 0.0 true true 0 ( 330)]
] -66.7 MCshow
1.000 UL
LTb
0.00 0.00 0.00 C 0.500 UL
LTa
0.50 0.50 0.50 C 3635 1000 M
0 3799 V
stroke
1.000 UL
LTb
0.00 0.00 0.00 C 3635 1000 M
0 63 V
0 3736 R
0 -63 V
stroke
3635 800 M
[ [(Arial) 200.0 0.0 true true 0 ( 360)]
] -66.7 MCshow
1.000 UL
LTb
0.00 0.00 0.00 C 0.500 UL
LTa
0.50 0.50 0.50 C 4394 1000 M
0 3799 V
stroke
1.000 UL
LTb
0.00 0.00 0.00 C 4394 1000 M
0 63 V
0 3736 R
0 -63 V
stroke
4394 800 M
[ [(Arial) 200.0 0.0 true true 0 ( 390)]
] -66.7 MCshow
1.000 UL
LTb
0.00 0.00 0.00 C 0.500 UL
LTa
0.50 0.50 0.50 C 5153 1000 M
0 3799 V
stroke
1.000 UL
LTb
0.00 0.00 0.00 C 5153 1000 M
0 63 V
0 3736 R
0 -63 V
stroke
5153 800 M
[ [(Arial) 200.0 0.0 true true 0 ( 420)]
] -66.7 MCshow
1.000 UL
LTb
0.00 0.00 0.00 C 0.500 UL
LTa
0.50 0.50 0.50 C 5911 1000 M
0 3799 V
stroke
1.000 UL
LTb
0.00 0.00 0.00 C 5911 1000 M
0 63 V
0 3736 R
0 -63 V
stroke
5911 800 M
[ [(Arial) 200.0 0.0 true true 0 ( 450)]
] -66.7 MCshow
1.000 UL
LTb
0.00 0.00 0.00 C 0.500 UL
LTa
0.50 0.50 0.50 C 6670 1000 M
0 3799 V
stroke
1.000 UL
LTb
0.00 0.00 0.00 C 6670 1000 M
0 63 V
0 3736 R
0 -63 V
stroke
6670 800 M
[ [(Arial) 200.0 0.0 true true 0 ( 480)]
] -66.7 MCshow
1.000 UL
LTb
0.00 0.00 0.00 C 0.500 UL
LTa
0.50 0.50 0.50 C 7429 1000 M
0 3799 V
stroke
1.000 UL
LTb
0.00 0.00 0.00 C 7429 1000 M
0 63 V
0 3736 R
0 -63 V
stroke
7429 800 M
[ [(Arial) 200.0 0.0 true true 0 ( 510)]
] -66.7 MCshow
1.000 UL
LTb
0.00 0.00 0.00 C 0.500 UL
LTa
0.50 0.50 0.50 C 8188 1000 M
0 3799 V
stroke
1.000 UL
LTb
0.00 0.00 0.00 C 8188 1000 M
0 63 V
0 3736 R
0 -63 V
stroke
8188 800 M
[ [(Arial) 200.0 0.0 true true 0 ( 540)]
] -66.7 MCshow
1.000 UL
LTb
0.00 0.00 0.00 C 0.500 UL
LTa
0.50 0.50 0.50 C 8946 1000 M
0 3799 V
stroke
1.000 UL
LTb
0.00 0.00 0.00 C 8946 1000 M
0 63 V
0 3736 R
0 -63 V
stroke
8946 800 M
[ [(Arial) 200.0 0.0 true true 0 ( 570)]
] -66.7 MCshow
1.000 UL
LTb
0.00 0.00 0.00 C 0.500 UL
LTa
0.50 0.50 0.50 C 9705 1000 M
0 3799 V
stroke
1.000 UL
LTb
0.00 0.00 0.00 C 9705 1000 M
0 63 V
0 3736 R
0 -63 V
stroke
9705 800 M
[ [(Arial) 200.0 0.0 true true 0 ( 600)]
] -66.7 MCshow
1.000 UL
LTb
0.00 0.00 0.00 C 0.500 UL
LTa
0.50 0.50 0.50 C 10464 1000 M
0 3799 V
stroke
1.000 UL
LTb
0.00 0.00 0.00 C 10464 1000 M
0 63 V
0 3736 R
0 -63 V
stroke
10464 800 M
[ [(Arial) 200.0 0.0 true true 0 ( 630)]
] -66.7 MCshow
1.000 UL
LTb
0.00 0.00 0.00 C 0.500 UL
LTa
0.50 0.50 0.50 C 11222 1000 M
0 3799 V
stroke
1.000 UL
LTb
0.00 0.00 0.00 C 11222 1000 M
0 63 V
0 3736 R
0 -63 V
stroke
11222 800 M
[ [(Arial) 200.0 0.0 true true 0 ( 660)]
] -66.7 MCshow
1.000 UL
LTb
0.00 0.00 0.00 C 0.500 UL
LTa
0.50 0.50 0.50 C 11981 1000 M
0 3799 V
stroke
1.000 UL
LTb
0.00 0.00 0.00 C 11981 1000 M
0 63 V
0 3736 R
0 -63 V
stroke
11981 800 M
[ [(Arial) 200.0 0.0 true true 0 ( 690)]
] -66.7 MCshow
1.000 UL
LTb
0.00 0.00 0.00 C 0.500 UL
LTa
0.50 0.50 0.50 C 12740 1000 M
0 3799 V
stroke
1.000 UL
LTb
0.00 0.00 0.00 C 12740 1000 M
0 63 V
0 3736 R
0 -63 V
stroke
12740 800 M
[ [(Arial) 200.0 0.0 true true 0 ( 720)]
] -66.7 MCshow
1.000 UL
LTb
0.00 0.00 0.00 C 13119 1000 M
-63 0 V
stroke
13239 1000 M
[ [(Arial) 200.0 0.0 true true 0 ( 0)]
] -66.7 MLshow
1.000 UL
LTb
0.00 0.00 0.00 C 13119 1760 M
-63 0 V
stroke
13239 1760 M
[ [(Arial) 200.0 0.0 true true 0 ( 20)]
] -66.7 MLshow
1.000 UL
LTb
0.00 0.00 0.00 C 13119 2520 M
-63 0 V
stroke
13239 2520 M
[ [(Arial) 200.0 0.0 true true 0 ( 40)]
] -66.7 MLshow
1.000 UL
LTb
0.00 0.00 0.00 C 13119 3279 M
-63 0 V
stroke
13239 3279 M
[ [(Arial) 200.0 0.0 true true 0 ( 60)]
] -66.7 MLshow
1.000 UL
LTb
0.00 0.00 0.00 C 13119 4039 M
-63 0 V
stroke
13239 4039 M
[ [(Arial) 200.0 0.0 true true 0 ( 80)]
] -66.7 MLshow
1.000 UL
LTb
0.00 0.00 0.00 C 13119 4799 M
-63 0 V
stroke
13239 4799 M
[ [(Arial) 200.0 0.0 true true 0 ( 100)]
] -66.7 MLshow
1.000 UL
LTb
0.00 0.00 0.00 C 1.000 UL
LTB
0.00 0.00 0.00 C 980 4799 M
0 -3799 V
12139 0 V
0 3799 R
980 4799 M
1.000 UP
stroke
LTb
0.00 0.00 0.00 C LCb setrgbcolor
160 2899 M
currentpoint gsave translate -270 rotate 0 0 moveto
[ [(Arial) 200.0 0.0 true true 0 (File download time \(s\))]
] -66.7 MCshow
grestore
LTb
LCb setrgbcolor
13938 2899 M
currentpoint gsave translate -270 rotate 0 0 moveto
[ [(Arial) 200.0 0.0 true true 0 (Average UDP throughput [%])]
] -66.7 MCshow
grestore
LTb
LCb setrgbcolor
7049 500 M
[ [(Arial) 200.0 0.0 true true 0 (Local Backhaul traffic \(Mb/s\))]
] -66.7 MCshow
LTb
% Begin plot #1
1.000 UL
LTb
0.60 0.60 0.00 C LCb setrgbcolor
4714 333 M
[ [(Arial) 180.0 0.0 true true 0 (file download time    :   olsr)]
] -60.0 MRshow
1.000 UL
LTb
0.60 0.60 0.00 C 4822 288 333 90 80 -45 0 PatternFill
4822 288 N
333 0 V
0 90 V
-333 0 V
0 -90 V
Z stroke
1.000 UL
LTb
0.60 0.60 0.00 C 1094 1246 152 394 80 -45 0 PatternFill
1170 1049 M
0 197 V
0 394 R
0 366 V
stroke
1094 1246 N
152 0 V
0 394 V
-152 0 V
0 -394 V
Z stroke
1094 2006 M
152 0 V
1094 1049 M
152 0 V
stroke
1852 1247 152 386 80 -45 0 PatternFill
1928 1049 M
0 198 V
0 386 R
0 114 V
stroke
1852 1247 N
152 0 V
0 386 V
-152 0 V
0 -386 V
Z stroke
1852 1747 M
152 0 V
1852 1049 M
152 0 V
stroke
2611 1246 152 388 80 -45 0 PatternFill
2687 1049 M
0 197 V
0 388 R
0 370 V
stroke
2611 1246 N
152 0 V
0 388 V
-152 0 V
0 -388 V
Z stroke
2611 2004 M
152 0 V
2611 1049 M
152 0 V
stroke
3370 1256 152 394 80 -45 0 PatternFill
3446 1049 M
0 207 V
0 394 R
0 215 V
stroke
3370 1256 N
152 0 V
0 394 V
-152 0 V
0 -394 V
Z stroke
3370 1865 M
152 0 V
3370 1049 M
152 0 V
stroke
4129 1272 152 302 80 -45 0 PatternFill
4205 1049 M
0 223 V
0 302 R
0 480 V
stroke
4129 1272 N
152 0 V
0 302 V
-152 0 V
0 -302 V
Z stroke
4129 2054 M
152 0 V
4129 1049 M
152 0 V
stroke
4887 1255 152 311 80 -45 0 PatternFill
4963 1049 M
0 206 V
0 311 R
0 127 V
stroke
4887 1255 N
152 0 V
0 311 V
-152 0 V
0 -311 V
Z stroke
4887 1693 M
152 0 V
4887 1049 M
152 0 V
stroke
5646 1250 152 322 80 -45 0 PatternFill
5722 1049 M
0 201 V
0 322 R
0 421 V
stroke
5646 1250 N
152 0 V
0 322 V
-152 0 V
0 -322 V
Z stroke
5646 1993 M
152 0 V
5646 1049 M
152 0 V
stroke
6405 1238 152 432 80 -45 0 PatternFill
6481 1049 M
0 189 V
0 432 R
0 206 V
stroke
6405 1238 N
152 0 V
0 432 V
-152 0 V
0 -432 V
Z stroke
6405 1876 M
152 0 V
6405 1049 M
152 0 V
stroke
7163 1257 152 366 80 -45 0 PatternFill
7239 1049 M
0 208 V
0 366 R
0 299 V
stroke
7163 1257 N
152 0 V
0 366 V
-152 0 V
0 -366 V
Z stroke
7163 1922 M
152 0 V
7163 1049 M
152 0 V
stroke
7922 1247 152 285 80 -45 0 PatternFill
7998 1049 M
0 198 V
0 285 R
0 468 V
stroke
7922 1247 N
152 0 V
0 285 V
-152 0 V
0 -285 V
Z stroke
7922 2000 M
152 0 V
7922 1049 M
152 0 V
stroke
8681 1297 152 378 80 -45 0 PatternFill
8757 1049 M
0 248 V
0 378 R
0 321 V
stroke
8681 1297 N
152 0 V
0 378 V
-152 0 V
0 -378 V
Z stroke
8681 1996 M
152 0 V
8681 1049 M
152 0 V
stroke
9439 1274 152 304 80 -45 0 PatternFill
9515 1049 M
0 225 V
0 304 R
0 545 V
stroke
9439 1274 N
152 0 V
0 304 V
-152 0 V
0 -304 V
Z stroke
9439 2123 M
152 0 V
9439 1049 M
152 0 V
stroke
10198 1275 152 349 80 -45 0 PatternFill
10274 1049 M
0 226 V
0 349 R
0 450 V
stroke
10198 1275 N
152 0 V
0 349 V
-152 0 V
0 -349 V
Z stroke
10198 2074 M
152 0 V
10198 1049 M
152 0 V
stroke
10957 1259 152 421 80 -45 0 PatternFill
11033 1049 M
0 210 V
0 421 R
0 114 V
stroke
10957 1259 N
152 0 V
0 421 V
-152 0 V
0 -421 V
Z stroke
10957 1794 M
152 0 V
-152 -745 R
152 0 V
stroke
11715 1263 152 417 80 -45 0 PatternFill
11791 1049 M
0 214 V
0 417 R
0 316 V
stroke
11715 1263 N
152 0 V
0 417 V
-152 0 V
0 -417 V
Z stroke
11715 1996 M
152 0 V
-152 -947 R
152 0 V
stroke
12474 1278 152 380 80 -45 0 PatternFill
12550 1049 M
0 229 V
0 380 R
0 122 V
stroke
12474 1278 N
152 0 V
0 380 V
-152 0 V
0 -380 V
Z stroke
12474 1780 M
152 0 V
-152 -731 R
152 0 V
% End plot #1
% Begin plot #2
stroke
LTb
LCb setrgbcolor

 /TransparentPatterns true def
1094 1445 152 0 40 30 0 PatternFill
1170 1445 M
stroke
1094 1445 N
152 0 V
-152 0 V
Z stroke
1094 1445 M
152 0 V
-152 0 R
152 0 V
stroke

 /TransparentPatterns true def
1852 1430 152 0 40 30 0 PatternFill
1928 1430 M
stroke
1852 1430 N
152 0 V
-152 0 V
Z stroke
1852 1430 M
152 0 V
-152 0 R
152 0 V
stroke

 /TransparentPatterns true def
2611 1438 152 0 40 30 0 PatternFill
2687 1438 M
stroke
2611 1438 N
152 0 V
-152 0 V
Z stroke
2611 1438 M
152 0 V
-152 0 R
152 0 V
stroke

 /TransparentPatterns true def
3370 1467 152 0 40 30 0 PatternFill
3446 1467 M
stroke
3370 1467 N
152 0 V
-152 0 V
Z stroke
3370 1467 M
152 0 V
-152 0 R
152 0 V
stroke

 /TransparentPatterns true def
4129 1433 152 0 40 30 0 PatternFill
4205 1433 M
stroke
4129 1433 N
152 0 V
-152 0 V
Z stroke
4129 1433 M
152 0 V
-152 0 R
152 0 V
stroke

 /TransparentPatterns true def
4887 1403 152 0 40 30 0 PatternFill
4963 1403 M
stroke
4887 1403 N
152 0 V
-152 0 V
Z stroke
4887 1403 M
152 0 V
-152 0 R
152 0 V
stroke

 /TransparentPatterns true def
5646 1411 152 0 40 30 0 PatternFill
5722 1411 M
stroke
5646 1411 N
152 0 V
-152 0 V
Z stroke
5646 1411 M
152 0 V
-152 0 R
152 0 V
stroke

 /TransparentPatterns true def
6405 1443 152 0 40 30 0 PatternFill
6481 1443 M
stroke
6405 1443 N
152 0 V
-152 0 V
Z stroke
6405 1443 M
152 0 V
-152 0 R
152 0 V
stroke

 /TransparentPatterns true def
7163 1432 152 0 40 30 0 PatternFill
7239 1432 M
stroke
7163 1432 N
152 0 V
-152 0 V
Z stroke
7163 1432 M
152 0 V
-152 0 R
152 0 V
stroke

 /TransparentPatterns true def
7922 1408 152 0 40 30 0 PatternFill
7998 1408 M
stroke
7922 1408 N
152 0 V
-152 0 V
Z stroke
7922 1408 M
152 0 V
-152 0 R
152 0 V
stroke

 /TransparentPatterns true def
8681 1470 152 0 40 30 0 PatternFill
8757 1470 M
stroke
8681 1470 N
152 0 V
-152 0 V
Z stroke
8681 1470 M
152 0 V
-152 0 R
152 0 V
stroke

 /TransparentPatterns true def
9439 1438 152 0 40 30 0 PatternFill
9515 1438 M
stroke
9439 1438 N
152 0 V
-152 0 V
Z stroke
9439 1438 M
152 0 V
-152 0 R
152 0 V
stroke

 /TransparentPatterns true def
10198 1465 152 0 40 30 0 PatternFill
10274 1465 M
stroke
10198 1465 N
152 0 V
-152 0 V
Z stroke
10198 1465 M
152 0 V
-152 0 R
152 0 V
stroke

 /TransparentPatterns true def
10957 1436 152 0 40 30 0 PatternFill
11033 1436 M
stroke
10957 1436 N
152 0 V
-152 0 V
Z stroke
10957 1436 M
152 0 V
-152 0 R
152 0 V
stroke

 /TransparentPatterns true def
11715 1478 152 0 40 30 0 PatternFill
11791 1478 M
stroke
11715 1478 N
152 0 V
-152 0 V
Z stroke
11715 1478 M
152 0 V
-152 0 R
152 0 V
stroke

 /TransparentPatterns true def
12474 1456 152 0 40 30 0 PatternFill
12550 1456 M
stroke
12474 1456 N
152 0 V
-152 0 V
Z stroke
12474 1456 M
152 0 V
-152 0 R
152 0 V
% End plot #2
% Begin plot #3
2.000 UP
stroke
LTa
0.60 0.60 0.00 C LCb setrgbcolor
4714 153 M
[ [(Arial) 180.0 0.0 true true 0 (avg. throughput :         )]
] -60.0 MRshow
2.000 UP
1.000 UL
LTa
0.60 0.60 0.00 C 4822 153 M
333 0 V
980 4248 M
190 6 V
758 -162 V
759 161 V
759 -81 V
758 104 V
759 -242 V
759 210 V
758 -62 V
759 29 V
759 41 V
759 -7 V
758 64 V
759 -27 V
759 -153 V
758 117 V
759 -129 V
569 124 V
1170 4254 Box
1928 4092 Box
2687 4253 Box
3446 4172 Box
4204 4276 Box
4963 4034 Box
5722 4244 Box
6480 4182 Box
7239 4211 Box
7998 4252 Box
8757 4245 Box
9515 4309 Box
10274 4282 Box
11033 4129 Box
11791 4246 Box
12550 4117 Box
4988 153 Box
% End plot #3
% Begin plot #4
1.000 UL
LTb
0.00 0.00 0.63 C LCb setrgbcolor
8287 333 M
[ [(Arial) 180.0 0.0 true true 0 (per-packet)]
] -60.0 MRshow
1.000 UL
LTb
0.00 0.00 0.63 C 8395 288 333 90 80 45 0 PatternFill
8395 288 N
333 0 V
0 90 V
-333 0 V
0 -90 V
Z stroke
1.000 UL
LTb
0.00 0.00 0.63 C 1283 1231 152 592 80 45 0 PatternFill
1359 1114 M
0 117 V
0 592 R
0 109 V
stroke
1283 1231 N
152 0 V
0 592 V
-152 0 V
0 -592 V
Z stroke
1283 1932 M
152 0 V
1283 1114 M
152 0 V
stroke
2042 1243 152 576 80 45 0 PatternFill
2118 1118 M
0 125 V
0 576 R
0 98 V
stroke
2042 1243 N
152 0 V
0 576 V
-152 0 V
0 -576 V
Z stroke
2042 1917 M
152 0 V
2042 1118 M
152 0 V
stroke
2801 1216 152 639 80 45 0 PatternFill
2877 1103 M
0 113 V
0 639 R
0 56 V
stroke
2801 1216 N
152 0 V
0 639 V
-152 0 V
0 -639 V
Z stroke
2801 1911 M
152 0 V
2801 1103 M
152 0 V
stroke
3560 1258 152 530 80 45 0 PatternFill
3636 1130 M
0 128 V
0 530 R
0 158 V
stroke
3560 1258 N
152 0 V
0 530 V
-152 0 V
0 -530 V
Z stroke
3560 1946 M
152 0 V
3560 1130 M
152 0 V
stroke
4318 1279 152 530 80 45 0 PatternFill
4394 1125 M
0 154 V
0 530 R
0 202 V
stroke
4318 1279 N
152 0 V
0 530 V
-152 0 V
0 -530 V
Z stroke
4318 2011 M
152 0 V
4318 1125 M
152 0 V
stroke
5077 1230 152 579 80 45 0 PatternFill
5153 1121 M
0 109 V
0 579 R
0 118 V
stroke
5077 1230 N
152 0 V
0 579 V
-152 0 V
0 -579 V
Z stroke
5077 1927 M
152 0 V
5077 1121 M
152 0 V
stroke
5836 1254 152 509 80 45 0 PatternFill
5912 1119 M
0 135 V
0 509 R
0 219 V
stroke
5836 1254 N
152 0 V
0 509 V
-152 0 V
0 -509 V
Z stroke
5836 1982 M
152 0 V
5836 1119 M
152 0 V
stroke
6594 1254 152 598 80 45 0 PatternFill
6670 1110 M
0 144 V
0 598 R
0 107 V
stroke
6594 1254 N
152 0 V
0 598 V
-152 0 V
0 -598 V
Z stroke
6594 1959 M
152 0 V
6594 1110 M
152 0 V
stroke
7353 1196 152 580 80 45 0 PatternFill
7429 1109 M
0 87 V
0 580 R
0 100 V
stroke
7353 1196 N
152 0 V
0 580 V
-152 0 V
0 -580 V
Z stroke
7353 1876 M
152 0 V
7353 1109 M
152 0 V
stroke
8112 1232 152 532 80 45 0 PatternFill
8188 1118 M
0 114 V
0 532 R
0 144 V
stroke
8112 1232 N
152 0 V
0 532 V
-152 0 V
0 -532 V
Z stroke
8112 1908 M
152 0 V
8112 1118 M
152 0 V
stroke
8870 1237 152 581 80 45 0 PatternFill
8946 1124 M
0 113 V
0 581 R
0 141 V
stroke
8870 1237 N
152 0 V
0 581 V
-152 0 V
0 -581 V
Z stroke
8870 1959 M
152 0 V
8870 1124 M
152 0 V
stroke
9629 1237 152 595 80 45 0 PatternFill
9705 1106 M
0 131 V
0 595 R
0 162 V
stroke
9629 1237 N
152 0 V
0 595 V
-152 0 V
0 -595 V
Z stroke
9629 1994 M
152 0 V
9629 1106 M
152 0 V
stroke
10388 1241 152 537 80 45 0 PatternFill
10464 1115 M
0 126 V
0 537 R
0 130 V
stroke
10388 1241 N
152 0 V
0 537 V
-152 0 V
0 -537 V
Z stroke
10388 1908 M
152 0 V
-152 -793 R
152 0 V
stroke
11146 1255 152 543 80 45 0 PatternFill
11222 1108 M
0 147 V
0 543 R
0 94 V
stroke
11146 1255 N
152 0 V
0 543 V
-152 0 V
0 -543 V
Z stroke
11146 1892 M
152 0 V
-152 -784 R
152 0 V
stroke
11905 1209 152 569 80 45 0 PatternFill
11981 1120 M
0 89 V
0 569 R
0 162 V
stroke
11905 1209 N
152 0 V
0 569 V
-152 0 V
0 -569 V
Z stroke
11905 1940 M
152 0 V
-152 -820 R
152 0 V
stroke
12664 1242 152 590 80 45 0 PatternFill
12740 1117 M
0 125 V
0 590 R
0 130 V
stroke
12664 1242 N
152 0 V
0 590 V
-152 0 V
0 -590 V
Z stroke
12664 1962 M
152 0 V
-152 -845 R
152 0 V
% End plot #4
% Begin plot #5
stroke
LTb
LCb setrgbcolor

 /TransparentPatterns true def
1283 1505 152 0 80 -45 0 PatternFill
1359 1505 M
stroke
1283 1505 N
152 0 V
-152 0 V
Z stroke
1283 1505 M
152 0 V
-152 0 R
152 0 V
stroke

 /TransparentPatterns true def
2042 1503 152 0 80 -45 0 PatternFill
2118 1503 M
stroke
2042 1503 N
152 0 V
-152 0 V
Z stroke
2042 1503 M
152 0 V
-152 0 R
152 0 V
stroke

 /TransparentPatterns true def
2801 1472 152 0 80 -45 0 PatternFill
2877 1472 M
stroke
2801 1472 N
152 0 V
-152 0 V
Z stroke
2801 1472 M
152 0 V
-152 0 R
152 0 V
stroke

 /TransparentPatterns true def
3560 1505 152 0 80 -45 0 PatternFill
3636 1505 M
stroke
3560 1505 N
152 0 V
-152 0 V
Z stroke
3560 1505 M
152 0 V
-152 0 R
152 0 V
stroke

 /TransparentPatterns true def
4318 1522 152 0 80 -45 0 PatternFill
4394 1522 M
stroke
4318 1522 N
152 0 V
-152 0 V
Z stroke
4318 1522 M
152 0 V
-152 0 R
152 0 V
stroke

 /TransparentPatterns true def
5077 1519 152 0 80 -45 0 PatternFill
5153 1519 M
stroke
5077 1519 N
152 0 V
-152 0 V
Z stroke
5077 1519 M
152 0 V
-152 0 R
152 0 V
stroke

 /TransparentPatterns true def
5836 1495 152 0 80 -45 0 PatternFill
5912 1495 M
stroke
5836 1495 N
152 0 V
-152 0 V
Z stroke
5836 1495 M
152 0 V
-152 0 R
152 0 V
stroke

 /TransparentPatterns true def
6594 1504 152 0 80 -45 0 PatternFill
6670 1504 M
stroke
6594 1504 N
152 0 V
-152 0 V
Z stroke
6594 1504 M
152 0 V
-152 0 R
152 0 V
stroke

 /TransparentPatterns true def
7353 1458 152 0 80 -45 0 PatternFill
7429 1458 M
stroke
7353 1458 N
152 0 V
-152 0 V
Z stroke
7353 1458 M
152 0 V
-152 0 R
152 0 V
stroke

 /TransparentPatterns true def
8112 1468 152 0 80 -45 0 PatternFill
8188 1468 M
stroke
8112 1468 N
152 0 V
-152 0 V
Z stroke
8112 1468 M
152 0 V
-152 0 R
152 0 V
stroke

 /TransparentPatterns true def
8870 1503 152 0 80 -45 0 PatternFill
8946 1503 M
stroke
8870 1503 N
152 0 V
-152 0 V
Z stroke
8870 1503 M
152 0 V
-152 0 R
152 0 V
stroke

 /TransparentPatterns true def
9629 1505 152 0 80 -45 0 PatternFill
9705 1505 M
stroke
9629 1505 N
152 0 V
-152 0 V
Z stroke
9629 1505 M
152 0 V
-152 0 R
152 0 V
stroke

 /TransparentPatterns true def
10388 1495 152 0 80 -45 0 PatternFill
10464 1495 M
stroke
10388 1495 N
152 0 V
-152 0 V
Z stroke
10388 1495 M
152 0 V
-152 0 R
152 0 V
stroke

 /TransparentPatterns true def
11146 1475 152 0 80 -45 0 PatternFill
11222 1475 M
stroke
11146 1475 N
152 0 V
-152 0 V
Z stroke
11146 1475 M
152 0 V
-152 0 R
152 0 V
stroke

 /TransparentPatterns true def
11905 1496 152 0 80 -45 0 PatternFill
11981 1496 M
stroke
11905 1496 N
152 0 V
-152 0 V
Z stroke
11905 1496 M
152 0 V
-152 0 R
152 0 V
stroke

 /TransparentPatterns true def
12664 1492 152 0 80 -45 0 PatternFill
12740 1492 M
stroke
12664 1492 N
152 0 V
-152 0 V
Z stroke
12664 1492 M
152 0 V
-152 0 R
152 0 V
% End plot #5
% Begin plot #6
2.000 UP
stroke
LTa
0.00 0.00 0.63 C LCb setrgbcolor
8287 153 M
[ [(Arial) 180.0 0.0 true true 0 ( )]
] -60.0 MRshow
2.000 UP
1.000 UL
LTa
0.00 0.00 0.63 C 8395 153 M
333 0 V
980 4741 M
379 -1 V
759 -2 V
759 2 V
758 2 V
759 1 V
759 -4 V
758 4 V
759 -1 V
759 -6 V
759 2 V
758 3 V
759 3 V
759 -5 V
758 0 V
759 2 V
759 1 V
379 -3 V
1359 4740 Circle
2118 4738 Circle
2877 4740 Circle
3635 4742 Circle
4394 4743 Circle
5153 4739 Circle
5911 4743 Circle
6670 4742 Circle
7429 4736 Circle
8188 4738 Circle
8946 4741 Circle
9705 4744 Circle
10464 4739 Circle
11222 4739 Circle
11981 4741 Circle
12740 4742 Circle
8561 153 Circle
% End plot #6
% Begin plot #7
1.000 UL
LTb
0.00 0.38 0.82 C LCb setrgbcolor
11860 333 M
[ [(Arial) 180.0 0.0 true true 0 (per-flow)]
] -60.0 MRshow
1.000 UL
LTb
0.00 0.38 0.82 C 11968 288 333 90 40 30 0 PatternFill
11968 288 N
333 0 V
0 90 V
-333 0 V
0 -90 V
Z stroke
1.000 UL
LTb
0.00 0.38 0.82 C 1473 1179 152 292 40 30 0 PatternFill
1549 1129 M
0 50 V
0 292 R
0 400 V
stroke
1473 1179 N
152 0 V
0 292 V
-152 0 V
0 -292 V
Z stroke
1473 1871 M
152 0 V
1473 1129 M
152 0 V
stroke
2232 1195 152 269 40 30 0 PatternFill
2308 1099 M
0 96 V
0 269 R
0 514 V
stroke
2232 1195 N
152 0 V
0 269 V
-152 0 V
0 -269 V
Z stroke
2232 1978 M
152 0 V
2232 1099 M
152 0 V
stroke
2991 1223 152 406 40 30 0 PatternFill
3067 1107 M
0 116 V
0 406 R
0 234 V
stroke
2991 1223 N
152 0 V
0 406 V
-152 0 V
0 -406 V
Z stroke
2991 1863 M
152 0 V
2991 1107 M
152 0 V
stroke
3749 1162 152 407 40 30 0 PatternFill
3825 1106 M
0 56 V
0 407 R
0 412 V
stroke
3749 1162 N
152 0 V
0 407 V
-152 0 V
0 -407 V
Z stroke
3749 1981 M
152 0 V
3749 1106 M
152 0 V
stroke
4508 1217 152 466 40 30 0 PatternFill
4584 1119 M
0 98 V
0 466 R
0 177 V
stroke
4508 1217 N
152 0 V
0 466 V
-152 0 V
0 -466 V
Z stroke
4508 1860 M
152 0 V
4508 1119 M
152 0 V
stroke
5267 1203 152 344 40 30 0 PatternFill
5343 1141 M
0 62 V
0 344 R
0 324 V
stroke
5267 1203 N
152 0 V
0 344 V
-152 0 V
0 -344 V
Z stroke
5267 1871 M
152 0 V
5267 1141 M
152 0 V
stroke
6025 1188 152 401 40 30 0 PatternFill
6101 1109 M
0 79 V
0 401 R
0 326 V
stroke
6025 1188 N
152 0 V
0 401 V
-152 0 V
0 -401 V
Z stroke
6025 1915 M
152 0 V
6025 1109 M
152 0 V
stroke
6784 1175 152 394 40 30 0 PatternFill
6860 1102 M
0 73 V
0 394 R
0 406 V
stroke
6784 1175 N
152 0 V
0 394 V
-152 0 V
0 -394 V
Z stroke
6784 1975 M
152 0 V
6784 1102 M
152 0 V
stroke
7543 1170 152 422 40 30 0 PatternFill
7619 1115 M
0 55 V
0 422 R
0 406 V
stroke
7543 1170 N
152 0 V
0 422 V
-152 0 V
0 -422 V
Z stroke
7543 1998 M
152 0 V
7543 1115 M
152 0 V
stroke
8301 1186 152 465 40 30 0 PatternFill
8377 1101 M
0 85 V
0 465 R
0 342 V
stroke
8301 1186 N
152 0 V
0 465 V
-152 0 V
0 -465 V
Z stroke
8301 1993 M
152 0 V
8301 1101 M
152 0 V
stroke
9060 1196 152 356 40 30 0 PatternFill
9136 1115 M
0 81 V
0 356 R
0 425 V
stroke
9060 1196 N
152 0 V
0 356 V
-152 0 V
0 -356 V
Z stroke
9060 1977 M
152 0 V
9060 1115 M
152 0 V
stroke
9819 1199 152 366 40 30 0 PatternFill
9895 1092 M
0 107 V
0 366 R
0 411 V
stroke
9819 1199 N
152 0 V
0 366 V
-152 0 V
0 -366 V
Z stroke
9819 1976 M
152 0 V
9819 1092 M
152 0 V
stroke
10577 1184 152 445 40 30 0 PatternFill
10653 1108 M
0 76 V
0 445 R
0 314 V
stroke
10577 1184 N
152 0 V
0 445 V
-152 0 V
0 -445 V
Z stroke
10577 1943 M
152 0 V
-152 -835 R
152 0 V
stroke
11336 1213 152 372 40 30 0 PatternFill
11412 1116 M
0 97 V
0 372 R
0 292 V
stroke
11336 1213 N
152 0 V
0 372 V
-152 0 V
0 -372 V
Z stroke
11336 1877 M
152 0 V
-152 -761 R
152 0 V
stroke
12095 1145 152 422 40 30 0 PatternFill
12171 1105 M
0 40 V
0 422 R
0 305 V
stroke
12095 1145 N
152 0 V
0 422 V
-152 0 V
0 -422 V
Z stroke
12095 1872 M
152 0 V
-152 -767 R
152 0 V
stroke
12853 1207 152 313 40 30 0 PatternFill
12929 1105 M
0 102 V
0 313 R
0 349 V
stroke
12853 1207 N
152 0 V
0 313 V
-152 0 V
0 -313 V
Z stroke
12853 1869 M
152 0 V
-152 -764 R
152 0 V
% End plot #7
% Begin plot #8
stroke
LTb
LCb setrgbcolor

 /TransparentPatterns true def
1473 1358 152 0 40 -30 0 PatternFill
1549 1358 M
stroke
1473 1358 N
152 0 V
-152 0 V
Z stroke
1473 1358 M
152 0 V
-152 0 R
152 0 V
stroke

 /TransparentPatterns true def
2232 1349 152 0 40 -30 0 PatternFill
2308 1349 M
stroke
2232 1349 N
152 0 V
-152 0 V
Z stroke
2232 1349 M
152 0 V
-152 0 R
152 0 V
stroke

 /TransparentPatterns true def
2991 1426 152 0 40 -30 0 PatternFill
3067 1426 M
stroke
2991 1426 N
152 0 V
-152 0 V
Z stroke
2991 1426 M
152 0 V
-152 0 R
152 0 V
stroke

 /TransparentPatterns true def
3749 1398 152 0 40 -30 0 PatternFill
3825 1398 M
stroke
3749 1398 N
152 0 V
-152 0 V
Z stroke
3749 1398 M
152 0 V
-152 0 R
152 0 V
stroke

 /TransparentPatterns true def
4508 1453 152 0 40 -30 0 PatternFill
4584 1453 M
stroke
4508 1453 N
152 0 V
-152 0 V
Z stroke
4508 1453 M
152 0 V
-152 0 R
152 0 V
stroke

 /TransparentPatterns true def
5267 1392 152 0 40 -30 0 PatternFill
5343 1392 M
stroke
5267 1392 N
152 0 V
-152 0 V
Z stroke
5267 1392 M
152 0 V
-152 0 R
152 0 V
stroke

 /TransparentPatterns true def
6025 1410 152 0 40 -30 0 PatternFill
6101 1410 M
stroke
6025 1410 N
152 0 V
-152 0 V
Z stroke
6025 1410 M
152 0 V
-152 0 R
152 0 V
stroke

 /TransparentPatterns true def
6784 1400 152 0 40 -30 0 PatternFill
6860 1400 M
stroke
6784 1400 N
152 0 V
-152 0 V
Z stroke
6784 1400 M
152 0 V
-152 0 R
152 0 V
stroke

 /TransparentPatterns true def
7543 1416 152 0 40 -30 0 PatternFill
7619 1416 M
stroke
7543 1416 N
152 0 V
-152 0 V
Z stroke
7543 1416 M
152 0 V
-152 0 R
152 0 V
stroke

 /TransparentPatterns true def
8301 1420 152 0 40 -30 0 PatternFill
8377 1420 M
stroke
8301 1420 N
152 0 V
-152 0 V
Z stroke
8301 1420 M
152 0 V
-152 0 R
152 0 V
stroke

 /TransparentPatterns true def
9060 1394 152 0 40 -30 0 PatternFill
9136 1394 M
stroke
9060 1394 N
152 0 V
-152 0 V
Z stroke
9060 1394 M
152 0 V
-152 0 R
152 0 V
stroke

 /TransparentPatterns true def
9819 1405 152 0 40 -30 0 PatternFill
9895 1405 M
stroke
9819 1405 N
152 0 V
-152 0 V
Z stroke
9819 1405 M
152 0 V
-152 0 R
152 0 V
stroke

 /TransparentPatterns true def
10577 1384 152 0 40 -30 0 PatternFill
10653 1384 M
stroke
10577 1384 N
152 0 V
-152 0 V
Z stroke
10577 1384 M
152 0 V
-152 0 R
152 0 V
stroke

 /TransparentPatterns true def
11336 1409 152 0 40 -30 0 PatternFill
11412 1409 M
stroke
11336 1409 N
152 0 V
-152 0 V
Z stroke
11336 1409 M
152 0 V
-152 0 R
152 0 V
stroke

 /TransparentPatterns true def
12095 1384 152 0 40 -30 0 PatternFill
12171 1384 M
stroke
12095 1384 N
152 0 V
-152 0 V
Z stroke
12095 1384 M
152 0 V
-152 0 R
152 0 V
stroke

 /TransparentPatterns true def
12853 1379 152 0 40 -30 0 PatternFill
12929 1379 M
stroke
12853 1379 N
152 0 V
-152 0 V
Z stroke
12853 1379 M
152 0 V
-152 0 R
152 0 V
% End plot #8
% Begin plot #9
2.000 UP
stroke
LTa
0.00 0.38 0.82 C LCb setrgbcolor
11860 153 M
[ [(Arial) 180.0 0.0 true true 0 ( )]
] -60.0 MRshow
2.000 UP
1.000 UL
LTa
0.00 0.38 0.82 C 11968 153 M
333 0 V
980 4740 M
569 -4 V
759 6 V
758 -5 V
759 5 V
759 -7 V
758 2 V
759 1 V
759 4 V
759 1 V
758 1 V
759 -1 V
759 -1 V
758 -1 V
759 -4 V
759 -1 V
758 0 V
190 0 V
1549 4736 TriU
2308 4742 TriU
3066 4737 TriU
3825 4742 TriU
4584 4735 TriU
5342 4737 TriU
6101 4738 TriU
6860 4742 TriU
7619 4743 TriU
8377 4744 TriU
9136 4743 TriU
9895 4742 TriU
10653 4741 TriU
11412 4737 TriU
12171 4736 TriU
12929 4736 TriU
12134 153 TriU
% End plot #9
2.000 UL
LTb
LCb setrgbcolor
1.000 UP
1.000 UL
LTb
0.00 0.00 0.00 C stroke
grestore
end
showpage
%%Trailer
%%DocumentFonts: Arial
