%!PS-Adobe-2.0 EPSF-2.0
%%Title: TcpWestwood-download-finishtime-25UE-panoramic.eps
%%Creator: gnuplot 5.0 patchlevel 3
%%CreationDate: Tue Jun  7 16:10:54 2016
%%DocumentFonts: (atend)
%%BoundingBox: 50 50 770 302
%%EndComments
%%BeginProlog
/gnudict 256 dict def
gnudict begin
%
% The following true/false flags may be edited by hand if desired.
% The unit line width and grayscale image gamma correction may also be changed.
%
/Color true def
/Blacktext false def
/Solid false def
/Dashlength 3 def
/Landscape false def
/Level1 false def
/Level3 false def
/Rounded false def
/ClipToBoundingBox false def
/SuppressPDFMark false def
/TransparentPatterns false def
/gnulinewidth 15.000 def
/userlinewidth gnulinewidth def
/Gamma 1.0 def
/BackgroundColor {-1.000 -1.000 -1.000} def
%
/vshift -66 def
/dl1 {
  10.0 Dashlength userlinewidth gnulinewidth div mul mul mul
  Rounded { currentlinewidth 0.75 mul sub dup 0 le { pop 0.01 } if } if
} def
/dl2 {
  10.0 Dashlength userlinewidth gnulinewidth div mul mul mul
  Rounded { currentlinewidth 0.75 mul add } if
} def
/hpt_ 31.5 def
/vpt_ 31.5 def
/hpt hpt_ def
/vpt vpt_ def
/doclip {
  ClipToBoundingBox {
    newpath 50 50 moveto 770 50 lineto 770 302 lineto 50 302 lineto closepath
    clip
  } if
} def
%
% Gnuplot Prolog Version 5.1 (Oct 2015)
%
%/SuppressPDFMark true def
%
/M {moveto} bind def
/L {lineto} bind def
/R {rmoveto} bind def
/V {rlineto} bind def
/N {newpath moveto} bind def
/Z {closepath} bind def
/C {setrgbcolor} bind def
/f {rlineto fill} bind def
/g {setgray} bind def
/Gshow {show} def   % May be redefined later in the file to support UTF-8
/vpt2 vpt 2 mul def
/hpt2 hpt 2 mul def
/Lshow {currentpoint stroke M 0 vshift R 
	Blacktext {gsave 0 setgray textshow grestore} {textshow} ifelse} def
/Rshow {currentpoint stroke M dup stringwidth pop neg vshift R
	Blacktext {gsave 0 setgray textshow grestore} {textshow} ifelse} def
/Cshow {currentpoint stroke M dup stringwidth pop -2 div vshift R 
	Blacktext {gsave 0 setgray textshow grestore} {textshow} ifelse} def
/UP {dup vpt_ mul /vpt exch def hpt_ mul /hpt exch def
  /hpt2 hpt 2 mul def /vpt2 vpt 2 mul def} def
/DL {Color {setrgbcolor Solid {pop []} if 0 setdash}
 {pop pop pop 0 setgray Solid {pop []} if 0 setdash} ifelse} def
/BL {stroke userlinewidth 2 mul setlinewidth
	Rounded {1 setlinejoin 1 setlinecap} if} def
/AL {stroke userlinewidth 2 div setlinewidth
	Rounded {1 setlinejoin 1 setlinecap} if} def
/UL {dup gnulinewidth mul /userlinewidth exch def
	dup 1 lt {pop 1} if 10 mul /udl exch def} def
/PL {stroke userlinewidth setlinewidth
	Rounded {1 setlinejoin 1 setlinecap} if} def
3.8 setmiterlimit
% Classic Line colors (version 5.0)
/LCw {1 1 1} def
/LCb {0 0 0} def
/LCa {0 0 0} def
/LC0 {1 0 0} def
/LC1 {0 1 0} def
/LC2 {0 0 1} def
/LC3 {1 0 1} def
/LC4 {0 1 1} def
/LC5 {1 1 0} def
/LC6 {0 0 0} def
/LC7 {1 0.3 0} def
/LC8 {0.5 0.5 0.5} def
% Default dash patterns (version 5.0)
/LTB {BL [] LCb DL} def
/LTw {PL [] 1 setgray} def
/LTb {PL [] LCb DL} def
/LTa {AL [1 udl mul 2 udl mul] 0 setdash LCa setrgbcolor} def
/LT0 {PL [] LC0 DL} def
/LT1 {PL [2 dl1 3 dl2] LC1 DL} def
/LT2 {PL [1 dl1 1.5 dl2] LC2 DL} def
/LT3 {PL [6 dl1 2 dl2 1 dl1 2 dl2] LC3 DL} def
/LT4 {PL [1 dl1 2 dl2 6 dl1 2 dl2 1 dl1 2 dl2] LC4 DL} def
/LT5 {PL [4 dl1 2 dl2] LC5 DL} def
/LT6 {PL [1.5 dl1 1.5 dl2 1.5 dl1 1.5 dl2 1.5 dl1 6 dl2] LC6 DL} def
/LT7 {PL [3 dl1 3 dl2 1 dl1 3 dl2] LC7 DL} def
/LT8 {PL [2 dl1 2 dl2 2 dl1 6 dl2] LC8 DL} def
/SL {[] 0 setdash} def
/Pnt {stroke [] 0 setdash gsave 1 setlinecap M 0 0 V stroke grestore} def
/Dia {stroke [] 0 setdash 2 copy vpt add M
  hpt neg vpt neg V hpt vpt neg V
  hpt vpt V hpt neg vpt V closepath stroke
  Pnt} def
/Pls {stroke [] 0 setdash vpt sub M 0 vpt2 V
  currentpoint stroke M
  hpt neg vpt neg R hpt2 0 V stroke
 } def
/Box {stroke [] 0 setdash 2 copy exch hpt sub exch vpt add M
  0 vpt2 neg V hpt2 0 V 0 vpt2 V
  hpt2 neg 0 V closepath stroke
  Pnt} def
/Crs {stroke [] 0 setdash exch hpt sub exch vpt add M
  hpt2 vpt2 neg V currentpoint stroke M
  hpt2 neg 0 R hpt2 vpt2 V stroke} def
/TriU {stroke [] 0 setdash 2 copy vpt 1.12 mul add M
  hpt neg vpt -1.62 mul V
  hpt 2 mul 0 V
  hpt neg vpt 1.62 mul V closepath stroke
  Pnt} def
/Star {2 copy Pls Crs} def
/BoxF {stroke [] 0 setdash exch hpt sub exch vpt add M
  0 vpt2 neg V hpt2 0 V 0 vpt2 V
  hpt2 neg 0 V closepath fill} def
/TriUF {stroke [] 0 setdash vpt 1.12 mul add M
  hpt neg vpt -1.62 mul V
  hpt 2 mul 0 V
  hpt neg vpt 1.62 mul V closepath fill} def
/TriD {stroke [] 0 setdash 2 copy vpt 1.12 mul sub M
  hpt neg vpt 1.62 mul V
  hpt 2 mul 0 V
  hpt neg vpt -1.62 mul V closepath stroke
  Pnt} def
/TriDF {stroke [] 0 setdash vpt 1.12 mul sub M
  hpt neg vpt 1.62 mul V
  hpt 2 mul 0 V
  hpt neg vpt -1.62 mul V closepath fill} def
/DiaF {stroke [] 0 setdash vpt add M
  hpt neg vpt neg V hpt vpt neg V
  hpt vpt V hpt neg vpt V closepath fill} def
/Pent {stroke [] 0 setdash 2 copy gsave
  translate 0 hpt M 4 {72 rotate 0 hpt L} repeat
  closepath stroke grestore Pnt} def
/PentF {stroke [] 0 setdash gsave
  translate 0 hpt M 4 {72 rotate 0 hpt L} repeat
  closepath fill grestore} def
/Circle {stroke [] 0 setdash 2 copy
  hpt 0 360 arc stroke Pnt} def
/CircleF {stroke [] 0 setdash hpt 0 360 arc fill} def
/C0 {BL [] 0 setdash 2 copy moveto vpt 90 450 arc} bind def
/C1 {BL [] 0 setdash 2 copy moveto
	2 copy vpt 0 90 arc closepath fill
	vpt 0 360 arc closepath} bind def
/C2 {BL [] 0 setdash 2 copy moveto
	2 copy vpt 90 180 arc closepath fill
	vpt 0 360 arc closepath} bind def
/C3 {BL [] 0 setdash 2 copy moveto
	2 copy vpt 0 180 arc closepath fill
	vpt 0 360 arc closepath} bind def
/C4 {BL [] 0 setdash 2 copy moveto
	2 copy vpt 180 270 arc closepath fill
	vpt 0 360 arc closepath} bind def
/C5 {BL [] 0 setdash 2 copy moveto
	2 copy vpt 0 90 arc
	2 copy moveto
	2 copy vpt 180 270 arc closepath fill
	vpt 0 360 arc} bind def
/C6 {BL [] 0 setdash 2 copy moveto
	2 copy vpt 90 270 arc closepath fill
	vpt 0 360 arc closepath} bind def
/C7 {BL [] 0 setdash 2 copy moveto
	2 copy vpt 0 270 arc closepath fill
	vpt 0 360 arc closepath} bind def
/C8 {BL [] 0 setdash 2 copy moveto
	2 copy vpt 270 360 arc closepath fill
	vpt 0 360 arc closepath} bind def
/C9 {BL [] 0 setdash 2 copy moveto
	2 copy vpt 270 450 arc closepath fill
	vpt 0 360 arc closepath} bind def
/C10 {BL [] 0 setdash 2 copy 2 copy moveto vpt 270 360 arc closepath fill
	2 copy moveto
	2 copy vpt 90 180 arc closepath fill
	vpt 0 360 arc closepath} bind def
/C11 {BL [] 0 setdash 2 copy moveto
	2 copy vpt 0 180 arc closepath fill
	2 copy moveto
	2 copy vpt 270 360 arc closepath fill
	vpt 0 360 arc closepath} bind def
/C12 {BL [] 0 setdash 2 copy moveto
	2 copy vpt 180 360 arc closepath fill
	vpt 0 360 arc closepath} bind def
/C13 {BL [] 0 setdash 2 copy moveto
	2 copy vpt 0 90 arc closepath fill
	2 copy moveto
	2 copy vpt 180 360 arc closepath fill
	vpt 0 360 arc closepath} bind def
/C14 {BL [] 0 setdash 2 copy moveto
	2 copy vpt 90 360 arc closepath fill
	vpt 0 360 arc} bind def
/C15 {BL [] 0 setdash 2 copy vpt 0 360 arc closepath fill
	vpt 0 360 arc closepath} bind def
/Rec {newpath 4 2 roll moveto 1 index 0 rlineto 0 exch rlineto
	neg 0 rlineto closepath} bind def
/Square {dup Rec} bind def
/Bsquare {vpt sub exch vpt sub exch vpt2 Square} bind def
/S0 {BL [] 0 setdash 2 copy moveto 0 vpt rlineto BL Bsquare} bind def
/S1 {BL [] 0 setdash 2 copy vpt Square fill Bsquare} bind def
/S2 {BL [] 0 setdash 2 copy exch vpt sub exch vpt Square fill Bsquare} bind def
/S3 {BL [] 0 setdash 2 copy exch vpt sub exch vpt2 vpt Rec fill Bsquare} bind def
/S4 {BL [] 0 setdash 2 copy exch vpt sub exch vpt sub vpt Square fill Bsquare} bind def
/S5 {BL [] 0 setdash 2 copy 2 copy vpt Square fill
	exch vpt sub exch vpt sub vpt Square fill Bsquare} bind def
/S6 {BL [] 0 setdash 2 copy exch vpt sub exch vpt sub vpt vpt2 Rec fill Bsquare} bind def
/S7 {BL [] 0 setdash 2 copy exch vpt sub exch vpt sub vpt vpt2 Rec fill
	2 copy vpt Square fill Bsquare} bind def
/S8 {BL [] 0 setdash 2 copy vpt sub vpt Square fill Bsquare} bind def
/S9 {BL [] 0 setdash 2 copy vpt sub vpt vpt2 Rec fill Bsquare} bind def
/S10 {BL [] 0 setdash 2 copy vpt sub vpt Square fill 2 copy exch vpt sub exch vpt Square fill
	Bsquare} bind def
/S11 {BL [] 0 setdash 2 copy vpt sub vpt Square fill 2 copy exch vpt sub exch vpt2 vpt Rec fill
	Bsquare} bind def
/S12 {BL [] 0 setdash 2 copy exch vpt sub exch vpt sub vpt2 vpt Rec fill Bsquare} bind def
/S13 {BL [] 0 setdash 2 copy exch vpt sub exch vpt sub vpt2 vpt Rec fill
	2 copy vpt Square fill Bsquare} bind def
/S14 {BL [] 0 setdash 2 copy exch vpt sub exch vpt sub vpt2 vpt Rec fill
	2 copy exch vpt sub exch vpt Square fill Bsquare} bind def
/S15 {BL [] 0 setdash 2 copy Bsquare fill Bsquare} bind def
/D0 {gsave translate 45 rotate 0 0 S0 stroke grestore} bind def
/D1 {gsave translate 45 rotate 0 0 S1 stroke grestore} bind def
/D2 {gsave translate 45 rotate 0 0 S2 stroke grestore} bind def
/D3 {gsave translate 45 rotate 0 0 S3 stroke grestore} bind def
/D4 {gsave translate 45 rotate 0 0 S4 stroke grestore} bind def
/D5 {gsave translate 45 rotate 0 0 S5 stroke grestore} bind def
/D6 {gsave translate 45 rotate 0 0 S6 stroke grestore} bind def
/D7 {gsave translate 45 rotate 0 0 S7 stroke grestore} bind def
/D8 {gsave translate 45 rotate 0 0 S8 stroke grestore} bind def
/D9 {gsave translate 45 rotate 0 0 S9 stroke grestore} bind def
/D10 {gsave translate 45 rotate 0 0 S10 stroke grestore} bind def
/D11 {gsave translate 45 rotate 0 0 S11 stroke grestore} bind def
/D12 {gsave translate 45 rotate 0 0 S12 stroke grestore} bind def
/D13 {gsave translate 45 rotate 0 0 S13 stroke grestore} bind def
/D14 {gsave translate 45 rotate 0 0 S14 stroke grestore} bind def
/D15 {gsave translate 45 rotate 0 0 S15 stroke grestore} bind def
/DiaE {stroke [] 0 setdash vpt add M
  hpt neg vpt neg V hpt vpt neg V
  hpt vpt V hpt neg vpt V closepath stroke} def
/BoxE {stroke [] 0 setdash exch hpt sub exch vpt add M
  0 vpt2 neg V hpt2 0 V 0 vpt2 V
  hpt2 neg 0 V closepath stroke} def
/TriUE {stroke [] 0 setdash vpt 1.12 mul add M
  hpt neg vpt -1.62 mul V
  hpt 2 mul 0 V
  hpt neg vpt 1.62 mul V closepath stroke} def
/TriDE {stroke [] 0 setdash vpt 1.12 mul sub M
  hpt neg vpt 1.62 mul V
  hpt 2 mul 0 V
  hpt neg vpt -1.62 mul V closepath stroke} def
/PentE {stroke [] 0 setdash gsave
  translate 0 hpt M 4 {72 rotate 0 hpt L} repeat
  closepath stroke grestore} def
/CircE {stroke [] 0 setdash 
  hpt 0 360 arc stroke} def
/Opaque {gsave closepath 1 setgray fill grestore 0 setgray closepath} def
/DiaW {stroke [] 0 setdash vpt add M
  hpt neg vpt neg V hpt vpt neg V
  hpt vpt V hpt neg vpt V Opaque stroke} def
/BoxW {stroke [] 0 setdash exch hpt sub exch vpt add M
  0 vpt2 neg V hpt2 0 V 0 vpt2 V
  hpt2 neg 0 V Opaque stroke} def
/TriUW {stroke [] 0 setdash vpt 1.12 mul add M
  hpt neg vpt -1.62 mul V
  hpt 2 mul 0 V
  hpt neg vpt 1.62 mul V Opaque stroke} def
/TriDW {stroke [] 0 setdash vpt 1.12 mul sub M
  hpt neg vpt 1.62 mul V
  hpt 2 mul 0 V
  hpt neg vpt -1.62 mul V Opaque stroke} def
/PentW {stroke [] 0 setdash gsave
  translate 0 hpt M 4 {72 rotate 0 hpt L} repeat
  Opaque stroke grestore} def
/CircW {stroke [] 0 setdash 
  hpt 0 360 arc Opaque stroke} def
/BoxFill {gsave Rec 1 setgray fill grestore} def
/Density {
  /Fillden exch def
  currentrgbcolor
  /ColB exch def /ColG exch def /ColR exch def
  /ColR ColR Fillden mul Fillden sub 1 add def
  /ColG ColG Fillden mul Fillden sub 1 add def
  /ColB ColB Fillden mul Fillden sub 1 add def
  ColR ColG ColB setrgbcolor} def
/BoxColFill {gsave Rec PolyFill} def
/PolyFill {gsave Density fill grestore grestore} def
/h {rlineto rlineto rlineto gsave closepath fill grestore} bind def
%
% PostScript Level 1 Pattern Fill routine for rectangles
% Usage: x y w h s a XX PatternFill
%	x,y = lower left corner of box to be filled
%	w,h = width and height of box
%	  a = angle in degrees between lines and x-axis
%	 XX = 0/1 for no/yes cross-hatch
%
/PatternFill {gsave /PFa [ 9 2 roll ] def
  PFa 0 get PFa 2 get 2 div add PFa 1 get PFa 3 get 2 div add translate
  PFa 2 get -2 div PFa 3 get -2 div PFa 2 get PFa 3 get Rec
  TransparentPatterns {} {gsave 1 setgray fill grestore} ifelse
  clip
  currentlinewidth 0.5 mul setlinewidth
  /PFs PFa 2 get dup mul PFa 3 get dup mul add sqrt def
  0 0 M PFa 5 get rotate PFs -2 div dup translate
  0 1 PFs PFa 4 get div 1 add floor cvi
	{PFa 4 get mul 0 M 0 PFs V} for
  0 PFa 6 get ne {
	0 1 PFs PFa 4 get div 1 add floor cvi
	{PFa 4 get mul 0 2 1 roll M PFs 0 V} for
 } if
  stroke grestore} def
%
/languagelevel where
 {pop languagelevel} {1} ifelse
dup 2 lt
	{/InterpretLevel1 true def
	 /InterpretLevel3 false def}
	{/InterpretLevel1 Level1 def
	 2 gt
	    {/InterpretLevel3 Level3 def}
	    {/InterpretLevel3 false def}
	 ifelse }
 ifelse
%
% PostScript level 2 pattern fill definitions
%
/Level2PatternFill {
/Tile8x8 {/PaintType 2 /PatternType 1 /TilingType 1 /BBox [0 0 8 8] /XStep 8 /YStep 8}
	bind def
/KeepColor {currentrgbcolor [/Pattern /DeviceRGB] setcolorspace} bind def
<< Tile8x8
 /PaintProc {0.5 setlinewidth pop 0 0 M 8 8 L 0 8 M 8 0 L stroke} 
>> matrix makepattern
/Pat1 exch def
<< Tile8x8
 /PaintProc {0.5 setlinewidth pop 0 0 M 8 8 L 0 8 M 8 0 L stroke
	0 4 M 4 8 L 8 4 L 4 0 L 0 4 L stroke}
>> matrix makepattern
/Pat2 exch def
<< Tile8x8
 /PaintProc {0.5 setlinewidth pop 0 0 M 0 8 L
	8 8 L 8 0 L 0 0 L fill}
>> matrix makepattern
/Pat3 exch def
<< Tile8x8
 /PaintProc {0.5 setlinewidth pop -4 8 M 8 -4 L
	0 12 M 12 0 L stroke}
>> matrix makepattern
/Pat4 exch def
<< Tile8x8
 /PaintProc {0.5 setlinewidth pop -4 0 M 8 12 L
	0 -4 M 12 8 L stroke}
>> matrix makepattern
/Pat5 exch def
<< Tile8x8
 /PaintProc {0.5 setlinewidth pop -2 8 M 4 -4 L
	0 12 M 8 -4 L 4 12 M 10 0 L stroke}
>> matrix makepattern
/Pat6 exch def
<< Tile8x8
 /PaintProc {0.5 setlinewidth pop -2 0 M 4 12 L
	0 -4 M 8 12 L 4 -4 M 10 8 L stroke}
>> matrix makepattern
/Pat7 exch def
<< Tile8x8
 /PaintProc {0.5 setlinewidth pop 8 -2 M -4 4 L
	12 0 M -4 8 L 12 4 M 0 10 L stroke}
>> matrix makepattern
/Pat8 exch def
<< Tile8x8
 /PaintProc {0.5 setlinewidth pop 0 -2 M 12 4 L
	-4 0 M 12 8 L -4 4 M 8 10 L stroke}
>> matrix makepattern
/Pat9 exch def
/Pattern1 {PatternBgnd KeepColor Pat1 setpattern} bind def
/Pattern2 {PatternBgnd KeepColor Pat2 setpattern} bind def
/Pattern3 {PatternBgnd KeepColor Pat3 setpattern} bind def
/Pattern4 {PatternBgnd KeepColor Landscape {Pat5} {Pat4} ifelse setpattern} bind def
/Pattern5 {PatternBgnd KeepColor Landscape {Pat4} {Pat5} ifelse setpattern} bind def
/Pattern6 {PatternBgnd KeepColor Landscape {Pat9} {Pat6} ifelse setpattern} bind def
/Pattern7 {PatternBgnd KeepColor Landscape {Pat8} {Pat7} ifelse setpattern} bind def
} def
%
%
%End of PostScript Level 2 code
%
/PatternBgnd {
  TransparentPatterns {} {gsave 1 setgray fill grestore} ifelse
} def
%
% Substitute for Level 2 pattern fill codes with
% grayscale if Level 2 support is not selected.
%
/Level1PatternFill {
/Pattern1 {0.250 Density} bind def
/Pattern2 {0.500 Density} bind def
/Pattern3 {0.750 Density} bind def
/Pattern4 {0.125 Density} bind def
/Pattern5 {0.375 Density} bind def
/Pattern6 {0.625 Density} bind def
/Pattern7 {0.875 Density} bind def
} def
%
% Now test for support of Level 2 code
%
Level1 {Level1PatternFill} {Level2PatternFill} ifelse
%
/Symbol-Oblique /Symbol findfont [1 0 .167 1 0 0] makefont
dup length dict begin {1 index /FID eq {pop pop} {def} ifelse} forall
currentdict end definefont pop
%
/MFshow {
   { dup 5 get 3 ge
     { 5 get 3 eq {gsave} {grestore} ifelse }
     {dup dup 0 get findfont exch 1 get scalefont setfont
     [ currentpoint ] exch dup 2 get 0 exch R dup 5 get 2 ne {dup dup 6
     get exch 4 get {textshow} {stringwidth pop 0 R} ifelse }if dup 5 get 0 eq
     {dup 3 get {2 get neg 0 exch R pop} {pop aload pop M} ifelse} {dup 5
     get 1 eq {dup 2 get exch dup 3 get exch 6 get stringwidth pop -2 div
     dup 0 R} {dup 6 get stringwidth pop -2 div 0 R 6 get
     textshow 2 index {aload pop M neg 3 -1 roll neg R pop pop} {pop pop pop
     pop aload pop M} ifelse }ifelse }ifelse }
     ifelse }
   forall} def
/Gswidth {dup type /stringtype eq {stringwidth} {pop (n) stringwidth} ifelse} def
/MFwidth {0 exch { dup 5 get 3 ge { 5 get 3 eq { 0 } { pop } ifelse }
 {dup 3 get{dup dup 0 get findfont exch 1 get scalefont setfont
     6 get Gswidth pop add} {pop} ifelse} ifelse} forall} def
/MLshow { currentpoint stroke M
  0 exch R
  Blacktext {gsave 0 setgray MFshow grestore} {MFshow} ifelse } bind def
/MRshow { currentpoint stroke M
  exch dup MFwidth neg 3 -1 roll R
  Blacktext {gsave 0 setgray MFshow grestore} {MFshow} ifelse } bind def
/MCshow { currentpoint stroke M
  exch dup MFwidth -2 div 3 -1 roll R
  Blacktext {gsave 0 setgray MFshow grestore} {MFshow} ifelse } bind def
/XYsave    { [( ) 1 2 true false 3 ()] } bind def
/XYrestore { [( ) 1 2 true false 4 ()] } bind def
Level1 SuppressPDFMark or 
{} {
/SDict 10 dict def
systemdict /pdfmark known not {
  userdict /pdfmark systemdict /cleartomark get put
} if
SDict begin [
  /Title (TcpWestwood-download-finishtime-25UE-panoramic.eps)
  /Subject (gnuplot plot)
  /Creator (gnuplot 5.0 patchlevel 3)
  /Author (nat)
%  /Producer (gnuplot)
%  /Keywords ()
  /CreationDate (Tue Jun  7 16:10:54 2016)
  /DOCINFO pdfmark
end
} ifelse
%
% Support for boxed text - Ethan A Merritt May 2005
%
/InitTextBox { userdict /TBy2 3 -1 roll put userdict /TBx2 3 -1 roll put
           userdict /TBy1 3 -1 roll put userdict /TBx1 3 -1 roll put
	   /Boxing true def } def
/ExtendTextBox { Boxing
    { gsave dup false charpath pathbbox
      dup TBy2 gt {userdict /TBy2 3 -1 roll put} {pop} ifelse
      dup TBx2 gt {userdict /TBx2 3 -1 roll put} {pop} ifelse
      dup TBy1 lt {userdict /TBy1 3 -1 roll put} {pop} ifelse
      dup TBx1 lt {userdict /TBx1 3 -1 roll put} {pop} ifelse
      grestore } if } def
/PopTextBox { newpath TBx1 TBxmargin sub TBy1 TBymargin sub M
               TBx1 TBxmargin sub TBy2 TBymargin add L
	       TBx2 TBxmargin add TBy2 TBymargin add L
	       TBx2 TBxmargin add TBy1 TBymargin sub L closepath } def
/DrawTextBox { PopTextBox stroke /Boxing false def} def
/FillTextBox { gsave PopTextBox 1 1 1 setrgbcolor fill grestore /Boxing false def} def
0 0 0 0 InitTextBox
/TBxmargin 20 def
/TBymargin 20 def
/Boxing false def
/textshow { ExtendTextBox Gshow } def
%
% redundant definitions for compatibility with prologue.ps older than 5.0.2
/LTB {BL [] LCb DL} def
/LTb {PL [] LCb DL} def
end
%%EndProlog
%%Page: 1 1
gnudict begin
gsave
doclip
50 50 translate
0.050 0.050 scale
0 setgray
newpath
(Arial) findfont 200 scalefont setfont
BackgroundColor 0 lt 3 1 roll 0 lt exch 0 lt or or not {BackgroundColor C 1.000 0 0 14400.00 5040.00 BoxColFill} if
1.000 UL
LTb
0.00 0.00 0.00 C 0.500 UL
LTa
0.50 0.50 0.50 C 980 1000 M
12139 0 V
stroke
1.000 UL
LTb
0.00 0.00 0.00 C 980 1000 M
63 0 V
stroke
860 1000 M
[ [(Arial) 200.0 0.0 true true 0 ( 0)]
] -66.7 MRshow
1.000 UL
LTb
0.00 0.00 0.00 C 0.500 UL
LTa
0.50 0.50 0.50 C 980 1475 M
12139 0 V
stroke
1.000 UL
LTb
0.00 0.00 0.00 C 980 1475 M
63 0 V
stroke
860 1475 M
[ [(Arial) 200.0 0.0 true true 0 ( 20)]
] -66.7 MRshow
1.000 UL
LTb
0.00 0.00 0.00 C 0.500 UL
LTa
0.50 0.50 0.50 C 980 1950 M
12139 0 V
stroke
1.000 UL
LTb
0.00 0.00 0.00 C 980 1950 M
63 0 V
stroke
860 1950 M
[ [(Arial) 200.0 0.0 true true 0 ( 40)]
] -66.7 MRshow
1.000 UL
LTb
0.00 0.00 0.00 C 0.500 UL
LTa
0.50 0.50 0.50 C 980 2425 M
12139 0 V
stroke
1.000 UL
LTb
0.00 0.00 0.00 C 980 2425 M
63 0 V
stroke
860 2425 M
[ [(Arial) 200.0 0.0 true true 0 ( 60)]
] -66.7 MRshow
1.000 UL
LTb
0.00 0.00 0.00 C 0.500 UL
LTa
0.50 0.50 0.50 C 980 2900 M
12139 0 V
stroke
1.000 UL
LTb
0.00 0.00 0.00 C 980 2900 M
63 0 V
stroke
860 2900 M
[ [(Arial) 200.0 0.0 true true 0 ( 80)]
] -66.7 MRshow
1.000 UL
LTb
0.00 0.00 0.00 C 0.500 UL
LTa
0.50 0.50 0.50 C 980 3374 M
12139 0 V
stroke
1.000 UL
LTb
0.00 0.00 0.00 C 980 3374 M
63 0 V
stroke
860 3374 M
[ [(Arial) 200.0 0.0 true true 0 ( 100)]
] -66.7 MRshow
1.000 UL
LTb
0.00 0.00 0.00 C 0.500 UL
LTa
0.50 0.50 0.50 C 980 3849 M
12139 0 V
stroke
1.000 UL
LTb
0.00 0.00 0.00 C 980 3849 M
63 0 V
stroke
860 3849 M
[ [(Arial) 200.0 0.0 true true 0 ( 120)]
] -66.7 MRshow
1.000 UL
LTb
0.00 0.00 0.00 C 0.500 UL
LTa
0.50 0.50 0.50 C 980 4324 M
12139 0 V
stroke
1.000 UL
LTb
0.00 0.00 0.00 C 980 4324 M
63 0 V
stroke
860 4324 M
[ [(Arial) 200.0 0.0 true true 0 ( 140)]
] -66.7 MRshow
1.000 UL
LTb
0.00 0.00 0.00 C 0.500 UL
LTa
0.50 0.50 0.50 C 980 4799 M
12139 0 V
stroke
1.000 UL
LTb
0.00 0.00 0.00 C 980 4799 M
63 0 V
stroke
860 4799 M
[ [(Arial) 200.0 0.0 true true 0 ( 160)]
] -66.7 MRshow
1.000 UL
LTb
0.00 0.00 0.00 C 0.500 UL
LTa
0.50 0.50 0.50 C 1235 1000 M
0 3799 V
stroke
1.000 UL
LTb
0.00 0.00 0.00 C 1235 1000 M
0 63 V
0 3736 R
0 -63 V
stroke
1235 800 M
[ [(Arial) 200.0 0.0 true true 0 ( 60)]
] -66.7 MCshow
1.000 UL
LTb
0.00 0.00 0.00 C 0.500 UL
LTa
0.50 0.50 0.50 C 1847 1000 M
0 3799 V
stroke
1.000 UL
LTb
0.00 0.00 0.00 C 1847 1000 M
0 63 V
0 3736 R
0 -63 V
stroke
1847 800 M
[ [(Arial) 200.0 0.0 true true 0 ( 120)]
] -66.7 MCshow
1.000 UL
LTb
0.00 0.00 0.00 C 0.500 UL
LTa
0.50 0.50 0.50 C 2459 1000 M
0 3799 V
stroke
1.000 UL
LTb
0.00 0.00 0.00 C 2459 1000 M
0 63 V
0 3736 R
0 -63 V
stroke
2459 800 M
[ [(Arial) 200.0 0.0 true true 0 ( 180)]
] -66.7 MCshow
1.000 UL
LTb
0.00 0.00 0.00 C 0.500 UL
LTa
0.50 0.50 0.50 C 3071 1000 M
0 3799 V
stroke
1.000 UL
LTb
0.00 0.00 0.00 C 3071 1000 M
0 63 V
0 3736 R
0 -63 V
stroke
3071 800 M
[ [(Arial) 200.0 0.0 true true 0 ( 240)]
] -66.7 MCshow
1.000 UL
LTb
0.00 0.00 0.00 C 0.500 UL
LTa
0.50 0.50 0.50 C 3683 1000 M
0 3799 V
stroke
1.000 UL
LTb
0.00 0.00 0.00 C 3683 1000 M
0 63 V
0 3736 R
0 -63 V
stroke
3683 800 M
[ [(Arial) 200.0 0.0 true true 0 ( 300)]
] -66.7 MCshow
1.000 UL
LTb
0.00 0.00 0.00 C 0.500 UL
LTa
0.50 0.50 0.50 C 4295 1000 M
0 3799 V
stroke
1.000 UL
LTb
0.00 0.00 0.00 C 4295 1000 M
0 63 V
0 3736 R
0 -63 V
stroke
4295 800 M
[ [(Arial) 200.0 0.0 true true 0 ( 360)]
] -66.7 MCshow
1.000 UL
LTb
0.00 0.00 0.00 C 0.500 UL
LTa
0.50 0.50 0.50 C 4907 1000 M
0 3799 V
stroke
1.000 UL
LTb
0.00 0.00 0.00 C 4907 1000 M
0 63 V
0 3736 R
0 -63 V
stroke
4907 800 M
[ [(Arial) 200.0 0.0 true true 0 ( 420)]
] -66.7 MCshow
1.000 UL
LTb
0.00 0.00 0.00 C 0.500 UL
LTa
0.50 0.50 0.50 C 5519 1000 M
0 3799 V
stroke
1.000 UL
LTb
0.00 0.00 0.00 C 5519 1000 M
0 63 V
0 3736 R
0 -63 V
stroke
5519 800 M
[ [(Arial) 200.0 0.0 true true 0 ( 480)]
] -66.7 MCshow
1.000 UL
LTb
0.00 0.00 0.00 C 0.500 UL
LTa
0.50 0.50 0.50 C 6131 1000 M
0 3799 V
stroke
1.000 UL
LTb
0.00 0.00 0.00 C 6131 1000 M
0 63 V
0 3736 R
0 -63 V
stroke
6131 800 M
[ [(Arial) 200.0 0.0 true true 0 ( 540)]
] -66.7 MCshow
1.000 UL
LTb
0.00 0.00 0.00 C 0.500 UL
LTa
0.50 0.50 0.50 C 6743 1000 M
0 3799 V
stroke
1.000 UL
LTb
0.00 0.00 0.00 C 6743 1000 M
0 63 V
0 3736 R
0 -63 V
stroke
6743 800 M
[ [(Arial) 200.0 0.0 true true 0 ( 600)]
] -66.7 MCshow
1.000 UL
LTb
0.00 0.00 0.00 C 0.500 UL
LTa
0.50 0.50 0.50 C 7356 1000 M
0 3799 V
stroke
1.000 UL
LTb
0.00 0.00 0.00 C 7356 1000 M
0 63 V
0 3736 R
0 -63 V
stroke
7356 800 M
[ [(Arial) 200.0 0.0 true true 0 ( 660)]
] -66.7 MCshow
1.000 UL
LTb
0.00 0.00 0.00 C 0.500 UL
LTa
0.50 0.50 0.50 C 7968 1000 M
0 3799 V
stroke
1.000 UL
LTb
0.00 0.00 0.00 C 7968 1000 M
0 63 V
0 3736 R
0 -63 V
stroke
7968 800 M
[ [(Arial) 200.0 0.0 true true 0 ( 720)]
] -66.7 MCshow
1.000 UL
LTb
0.00 0.00 0.00 C 0.500 UL
LTa
0.50 0.50 0.50 C 8580 1000 M
0 3799 V
stroke
1.000 UL
LTb
0.00 0.00 0.00 C 8580 1000 M
0 63 V
0 3736 R
0 -63 V
stroke
8580 800 M
[ [(Arial) 200.0 0.0 true true 0 ( 780)]
] -66.7 MCshow
1.000 UL
LTb
0.00 0.00 0.00 C 0.500 UL
LTa
0.50 0.50 0.50 C 9192 1000 M
0 3799 V
stroke
1.000 UL
LTb
0.00 0.00 0.00 C 9192 1000 M
0 63 V
0 3736 R
0 -63 V
stroke
9192 800 M
[ [(Arial) 200.0 0.0 true true 0 ( 840)]
] -66.7 MCshow
1.000 UL
LTb
0.00 0.00 0.00 C 0.500 UL
LTa
0.50 0.50 0.50 C 9804 1000 M
0 3799 V
stroke
1.000 UL
LTb
0.00 0.00 0.00 C 9804 1000 M
0 63 V
0 3736 R
0 -63 V
stroke
9804 800 M
[ [(Arial) 200.0 0.0 true true 0 ( 900)]
] -66.7 MCshow
1.000 UL
LTb
0.00 0.00 0.00 C 0.500 UL
LTa
0.50 0.50 0.50 C 10416 1000 M
0 3799 V
stroke
1.000 UL
LTb
0.00 0.00 0.00 C 10416 1000 M
0 63 V
0 3736 R
0 -63 V
stroke
10416 800 M
[ [(Arial) 200.0 0.0 true true 0 ( 960)]
] -66.7 MCshow
1.000 UL
LTb
0.00 0.00 0.00 C 0.500 UL
LTa
0.50 0.50 0.50 C 11028 1000 M
0 3799 V
stroke
1.000 UL
LTb
0.00 0.00 0.00 C 11028 1000 M
0 63 V
0 3736 R
0 -63 V
stroke
11028 800 M
[ [(Arial) 200.0 0.0 true true 0 ( 1020)]
] -66.7 MCshow
1.000 UL
LTb
0.00 0.00 0.00 C 0.500 UL
LTa
0.50 0.50 0.50 C 11640 1000 M
0 3799 V
stroke
1.000 UL
LTb
0.00 0.00 0.00 C 11640 1000 M
0 63 V
0 3736 R
0 -63 V
stroke
11640 800 M
[ [(Arial) 200.0 0.0 true true 0 ( 1080)]
] -66.7 MCshow
1.000 UL
LTb
0.00 0.00 0.00 C 0.500 UL
LTa
0.50 0.50 0.50 C 12252 1000 M
0 3799 V
stroke
1.000 UL
LTb
0.00 0.00 0.00 C 12252 1000 M
0 63 V
0 3736 R
0 -63 V
stroke
12252 800 M
[ [(Arial) 200.0 0.0 true true 0 ( 1140)]
] -66.7 MCshow
1.000 UL
LTb
0.00 0.00 0.00 C 0.500 UL
LTa
0.50 0.50 0.50 C 12864 1000 M
0 3799 V
stroke
1.000 UL
LTb
0.00 0.00 0.00 C 12864 1000 M
0 63 V
0 3736 R
0 -63 V
stroke
12864 800 M
[ [(Arial) 200.0 0.0 true true 0 ( 1200)]
] -66.7 MCshow
1.000 UL
LTb
0.00 0.00 0.00 C 13119 1000 M
-63 0 V
stroke
13239 1000 M
[ [(Arial) 200.0 0.0 true true 0 ( 0)]
] -66.7 MLshow
1.000 UL
LTb
0.00 0.00 0.00 C 13119 1760 M
-63 0 V
stroke
13239 1760 M
[ [(Arial) 200.0 0.0 true true 0 ( 20)]
] -66.7 MLshow
1.000 UL
LTb
0.00 0.00 0.00 C 13119 2520 M
-63 0 V
stroke
13239 2520 M
[ [(Arial) 200.0 0.0 true true 0 ( 40)]
] -66.7 MLshow
1.000 UL
LTb
0.00 0.00 0.00 C 13119 3279 M
-63 0 V
stroke
13239 3279 M
[ [(Arial) 200.0 0.0 true true 0 ( 60)]
] -66.7 MLshow
1.000 UL
LTb
0.00 0.00 0.00 C 13119 4039 M
-63 0 V
stroke
13239 4039 M
[ [(Arial) 200.0 0.0 true true 0 ( 80)]
] -66.7 MLshow
1.000 UL
LTb
0.00 0.00 0.00 C 13119 4799 M
-63 0 V
stroke
13239 4799 M
[ [(Arial) 200.0 0.0 true true 0 ( 100)]
] -66.7 MLshow
1.000 UL
LTb
0.00 0.00 0.00 C 1.000 UL
LTB
0.00 0.00 0.00 C 980 4799 M
0 -3799 V
12139 0 V
0 3799 R
980 4799 M
1.000 UP
stroke
LTb
0.00 0.00 0.00 C LCb setrgbcolor
160 2899 M
currentpoint gsave translate -270 rotate 0 0 moveto
[ [(Arial) 200.0 0.0 true true 0 (File download time \(s\))]
] -66.7 MCshow
grestore
LTb
LCb setrgbcolor
13938 2899 M
currentpoint gsave translate -270 rotate 0 0 moveto
[ [(Arial) 200.0 0.0 true true 0 (Average UDP throughput [%])]
] -66.7 MCshow
grestore
LTb
LCb setrgbcolor
7049 500 M
[ [(Arial) 200.0 0.0 true true 0 (Local Backhaul traffic \(Mb/s\))]
] -66.7 MCshow
LTb
% Begin plot #1
1.000 UL
LTb
0.60 0.60 0.00 C LCb setrgbcolor
4714 333 M
[ [(Arial) 180.0 0.0 true true 0 (file download time    :   olsr)]
] -60.0 MRshow
1.000 UL
LTb
0.60 0.60 0.00 C 4822 288 333 90 80 -45 0 PatternFill
4822 288 N
333 0 V
0 90 V
-333 0 V
0 -90 V
Z stroke
1.000 UL
LTb
0.60 0.60 0.00 C 990 1418 154 279 80 -45 0 PatternFill
1067 1186 M
0 232 V
0 279 R
0 349 V
stroke
990 1418 N
154 0 V
0 279 V
-154 0 V
0 -279 V
Z stroke
990 2046 M
154 0 V
990 1186 M
154 0 V
stroke
1602 1424 154 254 80 -45 0 PatternFill
1679 1186 M
0 238 V
0 254 R
0 233 V
stroke
1602 1424 N
154 0 V
0 254 V
-154 0 V
0 -254 V
Z stroke
1602 1911 M
154 0 V
1602 1186 M
154 0 V
stroke
2214 1446 154 219 80 -45 0 PatternFill
2291 1186 M
0 260 V
0 219 R
0 151 V
stroke
2214 1446 N
154 0 V
0 219 V
-154 0 V
0 -219 V
Z stroke
2214 1816 M
154 0 V
2214 1186 M
154 0 V
stroke
2826 1423 154 212 80 -45 0 PatternFill
2903 1186 M
0 237 V
0 212 R
0 372 V
stroke
2826 1423 N
154 0 V
0 212 V
-154 0 V
0 -212 V
Z stroke
2826 2007 M
154 0 V
2826 1186 M
154 0 V
stroke
3438 1409 154 198 80 -45 0 PatternFill
3515 1186 M
0 223 V
0 198 R
0 353 V
stroke
3438 1409 N
154 0 V
0 198 V
-154 0 V
0 -198 V
Z stroke
3438 1960 M
154 0 V
3438 1186 M
154 0 V
stroke
4050 1464 154 175 80 -45 0 PatternFill
4127 1186 M
0 278 V
0 175 R
0 395 V
stroke
4050 1464 N
154 0 V
0 175 V
-154 0 V
0 -175 V
Z stroke
4050 2034 M
154 0 V
4050 1186 M
154 0 V
stroke
4663 1457 154 191 80 -45 0 PatternFill
4740 1186 M
0 271 V
0 191 R
0 389 V
stroke
4663 1457 N
154 0 V
0 191 V
-154 0 V
0 -191 V
Z stroke
4663 2037 M
154 0 V
4663 1186 M
154 0 V
stroke
5275 1441 154 163 80 -45 0 PatternFill
5352 1186 M
0 255 V
0 163 R
0 340 V
stroke
5275 1441 N
154 0 V
0 163 V
-154 0 V
0 -163 V
Z stroke
5275 1944 M
154 0 V
5275 1186 M
154 0 V
stroke
5887 1408 154 258 80 -45 0 PatternFill
5964 1186 M
0 222 V
0 258 R
0 394 V
stroke
5887 1408 N
154 0 V
0 258 V
-154 0 V
0 -258 V
Z stroke
5887 2060 M
154 0 V
5887 1186 M
154 0 V
stroke
6499 1389 154 260 80 -45 0 PatternFill
6576 1186 M
0 203 V
0 260 R
0 257 V
stroke
6499 1389 N
154 0 V
0 260 V
-154 0 V
0 -260 V
Z stroke
6499 1906 M
154 0 V
6499 1186 M
154 0 V
stroke
7111 1416 154 221 80 -45 0 PatternFill
7188 1186 M
0 230 V
0 221 R
0 285 V
stroke
7111 1416 N
154 0 V
0 221 V
-154 0 V
0 -221 V
Z stroke
7111 1922 M
154 0 V
7111 1186 M
154 0 V
stroke
7723 1388 154 271 80 -45 0 PatternFill
7800 1186 M
0 202 V
0 271 R
0 323 V
stroke
7723 1388 N
154 0 V
0 271 V
-154 0 V
0 -271 V
Z stroke
7723 1982 M
154 0 V
7723 1186 M
154 0 V
stroke
8335 1431 154 230 80 -45 0 PatternFill
8412 1186 M
0 245 V
0 230 R
0 227 V
stroke
8335 1431 N
154 0 V
0 230 V
-154 0 V
0 -230 V
Z stroke
8335 1888 M
154 0 V
8335 1186 M
154 0 V
stroke
8947 1436 154 199 80 -45 0 PatternFill
9024 1186 M
0 250 V
0 199 R
0 323 V
stroke
8947 1436 N
154 0 V
0 199 V
-154 0 V
0 -199 V
Z stroke
8947 1958 M
154 0 V
8947 1186 M
154 0 V
stroke
9559 1431 154 194 80 -45 0 PatternFill
9636 1186 M
0 245 V
0 194 R
0 260 V
stroke
9559 1431 N
154 0 V
0 194 V
-154 0 V
0 -194 V
Z stroke
9559 1885 M
154 0 V
9559 1186 M
154 0 V
stroke
10171 1410 154 264 80 -45 0 PatternFill
10248 1186 M
0 224 V
0 264 R
0 160 V
stroke
10171 1410 N
154 0 V
0 264 V
-154 0 V
0 -264 V
Z stroke
10171 1834 M
154 0 V
-154 -648 R
154 0 V
stroke
10783 1413 154 303 80 -45 0 PatternFill
10860 1186 M
0 227 V
0 303 R
0 219 V
stroke
10783 1413 N
154 0 V
0 303 V
-154 0 V
0 -303 V
Z stroke
10783 1935 M
154 0 V
-154 -749 R
154 0 V
stroke
11395 1447 154 163 80 -45 0 PatternFill
11472 1186 M
0 261 V
0 163 R
0 228 V
stroke
11395 1447 N
154 0 V
0 163 V
-154 0 V
0 -163 V
Z stroke
11395 1838 M
154 0 V
-154 -652 R
154 0 V
stroke
12007 1461 154 173 80 -45 0 PatternFill
12084 1186 M
0 275 V
0 173 R
0 239 V
stroke
12007 1461 N
154 0 V
0 173 V
-154 0 V
0 -173 V
Z stroke
12007 1873 M
154 0 V
-154 -687 R
154 0 V
stroke
12619 1457 154 157 80 -45 0 PatternFill
12696 1186 M
0 271 V
0 157 R
0 220 V
stroke
12619 1457 N
154 0 V
0 157 V
-154 0 V
0 -157 V
Z stroke
12619 1834 M
154 0 V
-154 -648 R
154 0 V
% End plot #1
% Begin plot #2
stroke
LTb
LCb setrgbcolor

 /TransparentPatterns true def
990 1554 154 0 40 30 0 PatternFill
1067 1554 M
stroke
990 1554 N
154 0 V
-154 0 V
Z stroke
990 1554 M
154 0 V
-154 0 R
154 0 V
stroke

 /TransparentPatterns true def
1602 1547 154 0 40 30 0 PatternFill
1679 1547 M
stroke
1602 1547 N
154 0 V
-154 0 V
Z stroke
1602 1547 M
154 0 V
-154 0 R
154 0 V
stroke

 /TransparentPatterns true def
2214 1540 154 0 40 30 0 PatternFill
2291 1540 M
stroke
2214 1540 N
154 0 V
-154 0 V
Z stroke
2214 1540 M
154 0 V
-154 0 R
154 0 V
stroke

 /TransparentPatterns true def
2826 1531 154 0 40 30 0 PatternFill
2903 1531 M
stroke
2826 1531 N
154 0 V
-154 0 V
Z stroke
2826 1531 M
154 0 V
-154 0 R
154 0 V
stroke

 /TransparentPatterns true def
3438 1515 154 0 40 30 0 PatternFill
3515 1515 M
stroke
3438 1515 N
154 0 V
-154 0 V
Z stroke
3438 1515 M
154 0 V
-154 0 R
154 0 V
stroke

 /TransparentPatterns true def
4050 1539 154 0 40 30 0 PatternFill
4127 1539 M
stroke
4050 1539 N
154 0 V
-154 0 V
Z stroke
4050 1539 M
154 0 V
-154 0 R
154 0 V
stroke

 /TransparentPatterns true def
4663 1542 154 0 40 30 0 PatternFill
4740 1542 M
stroke
4663 1542 N
154 0 V
-154 0 V
Z stroke
4663 1542 M
154 0 V
-154 0 R
154 0 V
stroke

 /TransparentPatterns true def
5275 1526 154 0 40 30 0 PatternFill
5352 1526 M
stroke
5275 1526 N
154 0 V
-154 0 V
Z stroke
5275 1526 M
154 0 V
-154 0 R
154 0 V
stroke

 /TransparentPatterns true def
5887 1532 154 0 40 30 0 PatternFill
5964 1532 M
stroke
5887 1532 N
154 0 V
-154 0 V
Z stroke
5887 1532 M
154 0 V
-154 0 R
154 0 V
stroke

 /TransparentPatterns true def
6499 1520 154 0 40 30 0 PatternFill
6576 1520 M
stroke
6499 1520 N
154 0 V
-154 0 V
Z stroke
6499 1520 M
154 0 V
-154 0 R
154 0 V
stroke

 /TransparentPatterns true def
7111 1522 154 0 40 30 0 PatternFill
7188 1522 M
stroke
7111 1522 N
154 0 V
-154 0 V
Z stroke
7111 1522 M
154 0 V
-154 0 R
154 0 V
stroke

 /TransparentPatterns true def
7723 1515 154 0 40 30 0 PatternFill
7800 1515 M
stroke
7723 1515 N
154 0 V
-154 0 V
Z stroke
7723 1515 M
154 0 V
-154 0 R
154 0 V
stroke

 /TransparentPatterns true def
8335 1528 154 0 40 30 0 PatternFill
8412 1528 M
stroke
8335 1528 N
154 0 V
-154 0 V
Z stroke
8335 1528 M
154 0 V
-154 0 R
154 0 V
stroke

 /TransparentPatterns true def
8947 1542 154 0 40 30 0 PatternFill
9024 1542 M
stroke
8947 1542 N
154 0 V
-154 0 V
Z stroke
8947 1542 M
154 0 V
-154 0 R
154 0 V
stroke

 /TransparentPatterns true def
9559 1525 154 0 40 30 0 PatternFill
9636 1525 M
stroke
9559 1525 N
154 0 V
-154 0 V
Z stroke
9559 1525 M
154 0 V
-154 0 R
154 0 V
stroke

 /TransparentPatterns true def
10171 1524 154 0 40 30 0 PatternFill
10248 1524 M
stroke
10171 1524 N
154 0 V
-154 0 V
Z stroke
10171 1524 M
154 0 V
-154 0 R
154 0 V
stroke

 /TransparentPatterns true def
10783 1560 154 0 40 30 0 PatternFill
10860 1560 M
stroke
10783 1560 N
154 0 V
-154 0 V
Z stroke
10783 1560 M
154 0 V
-154 0 R
154 0 V
stroke

 /TransparentPatterns true def
11395 1520 154 0 40 30 0 PatternFill
11472 1520 M
stroke
11395 1520 N
154 0 V
-154 0 V
Z stroke
11395 1520 M
154 0 V
-154 0 R
154 0 V
stroke

 /TransparentPatterns true def
12007 1530 154 0 40 30 0 PatternFill
12084 1530 M
stroke
12007 1530 N
154 0 V
-154 0 V
Z stroke
12007 1530 M
154 0 V
-154 0 R
154 0 V
stroke

 /TransparentPatterns true def
12619 1524 154 0 40 30 0 PatternFill
12696 1524 M
stroke
12619 1524 N
154 0 V
-154 0 V
Z stroke
12619 1524 M
154 0 V
-154 0 R
154 0 V
% End plot #2
% Begin plot #3
2.000 UP
stroke
LTa
0.60 0.60 0.00 C LCb setrgbcolor
4714 153 M
[ [(Arial) 180.0 0.0 true true 0 (avg. throughput :         )]
] -60.0 MRshow
2.000 UP
1.000 UL
LTa
0.60 0.60 0.00 C 4822 153 M
333 0 V
1067 4001 M
612 -114 V
612 -95 V
612 176 V
612 -39 V
612 56 V
612 19 V
612 -74 V
612 88 V
612 -129 V
612 21 V
612 39 V
612 -82 V
612 64 V
612 -64 V
612 -49 V
613 92 V
612 -91 V
612 47 V
612 -47 V
1067 4001 Box
1679 3887 Box
2291 3792 Box
2903 3968 Box
3515 3929 Box
4127 3985 Box
4739 4004 Box
5351 3930 Box
5963 4018 Box
6575 3889 Box
7187 3910 Box
7799 3949 Box
8411 3867 Box
9023 3931 Box
9635 3867 Box
10247 3818 Box
10860 3910 Box
11472 3819 Box
12084 3866 Box
12696 3819 Box
4988 153 Box
% End plot #3
% Begin plot #4
1.000 UL
LTb
0.00 0.00 0.63 C LCb setrgbcolor
8287 333 M
[ [(Arial) 180.0 0.0 true true 0 (per-packet)]
] -60.0 MRshow
1.000 UL
LTb
0.00 0.00 0.63 C 8395 288 333 90 80 45 0 PatternFill
8395 288 N
333 0 V
0 90 V
-333 0 V
0 -90 V
Z stroke
1.000 UL
LTb
0.00 0.00 0.63 C 1159 1234 154 1453 80 45 0 PatternFill
1236 1165 M
0 69 V
0 1453 R
0 351 V
stroke
1159 1234 N
154 0 V
0 1453 V
-154 0 V
0 -1453 V
Z stroke
1159 3038 M
154 0 V
1159 1165 M
154 0 V
stroke
1771 1221 154 1347 80 45 0 PatternFill
1848 1163 M
0 58 V
0 1347 R
0 516 V
stroke
1771 1221 N
154 0 V
0 1347 V
-154 0 V
0 -1347 V
Z stroke
1771 3084 M
154 0 V
1771 1163 M
154 0 V
stroke
2383 1195 154 1532 80 45 0 PatternFill
2460 1069 M
0 126 V
0 1532 R
0 400 V
stroke
2383 1195 N
154 0 V
0 1532 V
-154 0 V
0 -1532 V
Z stroke
2383 3127 M
154 0 V
2383 1069 M
154 0 V
stroke
2995 1230 154 1453 80 45 0 PatternFill
3072 1159 M
0 71 V
0 1453 R
0 274 V
stroke
2995 1230 N
154 0 V
0 1453 V
-154 0 V
0 -1453 V
Z stroke
2995 2957 M
154 0 V
2995 1159 M
154 0 V
stroke
3607 1228 154 1370 80 45 0 PatternFill
3684 1092 M
0 136 V
0 1370 R
0 359 V
stroke
3607 1228 N
154 0 V
0 1370 V
-154 0 V
0 -1370 V
Z stroke
3607 2957 M
154 0 V
3607 1092 M
154 0 V
stroke
4219 1220 154 1494 80 45 0 PatternFill
4296 1158 M
0 62 V
0 1494 R
0 279 V
stroke
4219 1220 N
154 0 V
0 1494 V
-154 0 V
0 -1494 V
Z stroke
4219 2993 M
154 0 V
4219 1158 M
154 0 V
stroke
4831 1231 154 1359 80 45 0 PatternFill
4908 1159 M
0 72 V
0 1359 R
0 542 V
stroke
4831 1231 N
154 0 V
0 1359 V
-154 0 V
0 -1359 V
Z stroke
4831 3132 M
154 0 V
4831 1159 M
154 0 V
stroke
5443 1187 154 1457 80 45 0 PatternFill
5520 1065 M
0 122 V
0 1457 R
0 480 V
stroke
5443 1187 N
154 0 V
0 1457 V
-154 0 V
0 -1457 V
Z stroke
5443 3124 M
154 0 V
5443 1065 M
154 0 V
stroke
6055 1239 154 1388 80 45 0 PatternFill
6132 1160 M
0 79 V
0 1388 R
0 403 V
stroke
6055 1239 N
154 0 V
0 1388 V
-154 0 V
0 -1388 V
Z stroke
6055 3030 M
154 0 V
6055 1160 M
154 0 V
stroke
6667 1220 154 1460 80 45 0 PatternFill
6744 1138 M
0 82 V
0 1460 R
0 424 V
stroke
6667 1220 N
154 0 V
0 1460 V
-154 0 V
0 -1460 V
Z stroke
6667 3104 M
154 0 V
6667 1138 M
154 0 V
stroke
7279 1221 154 1285 80 45 0 PatternFill
7356 1138 M
0 83 V
0 1285 R
0 475 V
stroke
7279 1221 N
154 0 V
0 1285 V
-154 0 V
0 -1285 V
Z stroke
7279 2981 M
154 0 V
7279 1138 M
154 0 V
stroke
7891 1248 154 1247 80 45 0 PatternFill
7968 1158 M
0 90 V
0 1247 R
0 423 V
stroke
7891 1248 N
154 0 V
0 1247 V
-154 0 V
0 -1247 V
Z stroke
7891 2918 M
154 0 V
7891 1158 M
154 0 V
stroke
8503 1238 154 1384 80 45 0 PatternFill
8580 1073 M
0 165 V
0 1384 R
0 435 V
stroke
8503 1238 N
154 0 V
0 1384 V
-154 0 V
0 -1384 V
Z stroke
8503 3057 M
154 0 V
8503 1073 M
154 0 V
stroke
9115 1229 154 1298 80 45 0 PatternFill
9192 1156 M
0 73 V
0 1298 R
0 441 V
stroke
9115 1229 N
154 0 V
0 1298 V
-154 0 V
0 -1298 V
Z stroke
9115 2968 M
154 0 V
9115 1156 M
154 0 V
stroke
9727 1231 154 1402 80 45 0 PatternFill
9804 1142 M
0 89 V
0 1402 R
0 345 V
stroke
9727 1231 N
154 0 V
0 1402 V
-154 0 V
0 -1402 V
Z stroke
9727 2978 M
154 0 V
9727 1142 M
154 0 V
stroke
10339 1245 154 1346 80 45 0 PatternFill
10416 1158 M
0 87 V
0 1346 R
0 461 V
stroke
10339 1245 N
154 0 V
0 1346 V
-154 0 V
0 -1346 V
Z stroke
10339 3052 M
154 0 V
10339 1158 M
154 0 V
stroke
10951 1228 154 1377 80 45 0 PatternFill
11028 1130 M
0 98 V
0 1377 R
0 213 V
stroke
10951 1228 N
154 0 V
0 1377 V
-154 0 V
0 -1377 V
Z stroke
10951 2818 M
154 0 V
10951 1130 M
154 0 V
stroke
11563 1200 154 1397 80 45 0 PatternFill
11640 1117 M
0 83 V
0 1397 R
0 324 V
stroke
11563 1200 N
154 0 V
0 1397 V
-154 0 V
0 -1397 V
Z stroke
11563 2921 M
154 0 V
11563 1117 M
154 0 V
stroke
12175 1235 154 1280 80 45 0 PatternFill
12252 1156 M
0 79 V
0 1280 R
0 511 V
stroke
12175 1235 N
154 0 V
0 1280 V
-154 0 V
0 -1280 V
Z stroke
12175 3026 M
154 0 V
12175 1156 M
154 0 V
stroke
12787 1210 154 1307 80 45 0 PatternFill
12864 1155 M
0 55 V
0 1307 R
0 303 V
stroke
12787 1210 N
154 0 V
0 1307 V
-154 0 V
0 -1307 V
Z stroke
12787 2820 M
154 0 V
12787 1155 M
154 0 V
% End plot #4
% Begin plot #5
stroke
LTb
LCb setrgbcolor

 /TransparentPatterns true def
1159 1773 154 0 80 -45 0 PatternFill
1236 1773 M
stroke
1159 1773 N
154 0 V
-154 0 V
Z stroke
1159 1773 M
154 0 V
-154 0 R
154 0 V
stroke

 /TransparentPatterns true def
1771 1739 154 0 80 -45 0 PatternFill
1848 1739 M
stroke
1771 1739 N
154 0 V
-154 0 V
Z stroke
1771 1739 M
154 0 V
-154 0 R
154 0 V
stroke

 /TransparentPatterns true def
2383 1792 154 0 80 -45 0 PatternFill
2460 1792 M
stroke
2383 1792 N
154 0 V
-154 0 V
Z stroke
2383 1792 M
154 0 V
-154 0 R
154 0 V
stroke

 /TransparentPatterns true def
2995 1753 154 0 80 -45 0 PatternFill
3072 1753 M
stroke
2995 1753 N
154 0 V
-154 0 V
Z stroke
2995 1753 M
154 0 V
-154 0 R
154 0 V
stroke

 /TransparentPatterns true def
3607 1758 154 0 80 -45 0 PatternFill
3684 1758 M
stroke
3607 1758 N
154 0 V
-154 0 V
Z stroke
3607 1758 M
154 0 V
-154 0 R
154 0 V
stroke

 /TransparentPatterns true def
4219 1755 154 0 80 -45 0 PatternFill
4296 1755 M
stroke
4219 1755 N
154 0 V
-154 0 V
Z stroke
4219 1755 M
154 0 V
-154 0 R
154 0 V
stroke

 /TransparentPatterns true def
4831 1754 154 0 80 -45 0 PatternFill
4908 1754 M
stroke
4831 1754 N
154 0 V
-154 0 V
Z stroke
4831 1754 M
154 0 V
-154 0 R
154 0 V
stroke

 /TransparentPatterns true def
5443 1746 154 0 80 -45 0 PatternFill
5520 1746 M
stroke
5443 1746 N
154 0 V
-154 0 V
Z stroke
5443 1746 M
154 0 V
-154 0 R
154 0 V
stroke

 /TransparentPatterns true def
6055 1762 154 0 80 -45 0 PatternFill
6132 1762 M
stroke
6055 1762 N
154 0 V
-154 0 V
Z stroke
6055 1762 M
154 0 V
-154 0 R
154 0 V
stroke

 /TransparentPatterns true def
6667 1749 154 0 80 -45 0 PatternFill
6744 1749 M
stroke
6667 1749 N
154 0 V
-154 0 V
Z stroke
6667 1749 M
154 0 V
-154 0 R
154 0 V
stroke

 /TransparentPatterns true def
7279 1737 154 0 80 -45 0 PatternFill
7356 1737 M
stroke
7279 1737 N
154 0 V
-154 0 V
Z stroke
7279 1737 M
154 0 V
-154 0 R
154 0 V
stroke

 /TransparentPatterns true def
7891 1747 154 0 80 -45 0 PatternFill
7968 1747 M
stroke
7891 1747 N
154 0 V
-154 0 V
Z stroke
7891 1747 M
154 0 V
-154 0 R
154 0 V
stroke

 /TransparentPatterns true def
8503 1759 154 0 80 -45 0 PatternFill
8580 1759 M
stroke
8503 1759 N
154 0 V
-154 0 V
Z stroke
8503 1759 M
154 0 V
-154 0 R
154 0 V
stroke

 /TransparentPatterns true def
9115 1719 154 0 80 -45 0 PatternFill
9192 1719 M
stroke
9115 1719 N
154 0 V
-154 0 V
Z stroke
9115 1719 M
154 0 V
-154 0 R
154 0 V
stroke

 /TransparentPatterns true def
9727 1764 154 0 80 -45 0 PatternFill
9804 1764 M
stroke
9727 1764 N
154 0 V
-154 0 V
Z stroke
9727 1764 M
154 0 V
-154 0 R
154 0 V
stroke

 /TransparentPatterns true def
10339 1753 154 0 80 -45 0 PatternFill
10416 1753 M
stroke
10339 1753 N
154 0 V
-154 0 V
Z stroke
10339 1753 M
154 0 V
-154 0 R
154 0 V
stroke

 /TransparentPatterns true def
10951 1721 154 0 80 -45 0 PatternFill
11028 1721 M
stroke
10951 1721 N
154 0 V
-154 0 V
Z stroke
10951 1721 M
154 0 V
-154 0 R
154 0 V
stroke

 /TransparentPatterns true def
11563 1723 154 0 80 -45 0 PatternFill
11640 1723 M
stroke
11563 1723 N
154 0 V
-154 0 V
Z stroke
11563 1723 M
154 0 V
-154 0 R
154 0 V
stroke

 /TransparentPatterns true def
12175 1743 154 0 80 -45 0 PatternFill
12252 1743 M
stroke
12175 1743 N
154 0 V
-154 0 V
Z stroke
12175 1743 M
154 0 V
-154 0 R
154 0 V
stroke

 /TransparentPatterns true def
12787 1703 154 0 80 -45 0 PatternFill
12864 1703 M
stroke
12787 1703 N
154 0 V
-154 0 V
Z stroke
12787 1703 M
154 0 V
-154 0 R
154 0 V
% End plot #5
% Begin plot #6
2.000 UP
stroke
LTa
0.00 0.00 0.63 C LCb setrgbcolor
8287 153 M
[ [(Arial) 180.0 0.0 true true 0 ( )]
] -60.0 MRshow
2.000 UP
1.000 UL
LTa
0.00 0.00 0.63 C 8395 153 M
333 0 V
1235 4761 M
612 0 V
612 -6 V
612 1 V
612 -3 V
612 2 V
612 3 V
612 1 V
612 -2 V
612 0 V
613 -3 V
612 -1 V
612 4 V
612 -3 V
612 1 V
612 1 V
612 -5 V
612 3 V
612 2 V
612 -4 V
1235 4761 Circle
1847 4761 Circle
2459 4755 Circle
3071 4756 Circle
3683 4753 Circle
4295 4755 Circle
4907 4758 Circle
5519 4759 Circle
6131 4757 Circle
6743 4757 Circle
7356 4754 Circle
7968 4753 Circle
8580 4757 Circle
9192 4754 Circle
9804 4755 Circle
10416 4756 Circle
11028 4751 Circle
11640 4754 Circle
12252 4756 Circle
12864 4752 Circle
8561 153 Circle
% End plot #6
% Begin plot #7
1.000 UL
LTb
0.00 0.38 0.82 C LCb setrgbcolor
11860 333 M
[ [(Arial) 180.0 0.0 true true 0 (per-flow)]
] -60.0 MRshow
1.000 UL
LTb
0.00 0.38 0.82 C 11968 288 333 90 40 30 0 PatternFill
11968 288 N
333 0 V
0 90 V
-333 0 V
0 -90 V
Z stroke
1.000 UL
LTb
0.00 0.38 0.82 C 1327 1232 154 237 40 30 0 PatternFill
1404 1136 M
0 96 V
0 237 R
0 187 V
stroke
1327 1232 N
154 0 V
0 237 V
-154 0 V
0 -237 V
Z stroke
1327 1656 M
154 0 V
1327 1136 M
154 0 V
stroke
1939 1235 154 120 40 30 0 PatternFill
2016 1135 M
0 100 V
0 120 R
0 230 V
stroke
1939 1235 N
154 0 V
0 120 V
-154 0 V
0 -120 V
Z stroke
1939 1585 M
154 0 V
1939 1135 M
154 0 V
stroke
2551 1228 154 122 40 30 0 PatternFill
2628 1158 M
0 70 V
0 122 R
0 145 V
stroke
2551 1228 N
154 0 V
0 122 V
-154 0 V
0 -122 V
Z stroke
2551 1495 M
154 0 V
2551 1158 M
154 0 V
stroke
3163 1228 154 226 40 30 0 PatternFill
3240 1141 M
0 87 V
0 226 R
0 226 V
stroke
3163 1228 N
154 0 V
0 226 V
-154 0 V
0 -226 V
Z stroke
3163 1680 M
154 0 V
3163 1141 M
154 0 V
stroke
3775 1228 154 299 40 30 0 PatternFill
3852 1154 M
0 74 V
0 299 R
0 362 V
stroke
3775 1228 N
154 0 V
0 299 V
-154 0 V
0 -299 V
Z stroke
3775 1889 M
154 0 V
3775 1154 M
154 0 V
stroke
4387 1228 154 151 40 30 0 PatternFill
4464 1161 M
0 67 V
0 151 R
0 525 V
stroke
4387 1228 N
154 0 V
0 151 V
-154 0 V
0 -151 V
Z stroke
4387 1904 M
154 0 V
4387 1161 M
154 0 V
stroke
4999 1228 154 242 40 30 0 PatternFill
5076 1159 M
0 69 V
0 242 R
0 254 V
stroke
4999 1228 N
154 0 V
0 242 V
-154 0 V
0 -242 V
Z stroke
4999 1724 M
154 0 V
4999 1159 M
154 0 V
stroke
5611 1225 154 213 40 30 0 PatternFill
5688 1162 M
0 63 V
0 213 R
0 200 V
stroke
5611 1225 N
154 0 V
0 213 V
-154 0 V
0 -213 V
Z stroke
5611 1638 M
154 0 V
5611 1162 M
154 0 V
stroke
6223 1232 154 144 40 30 0 PatternFill
6300 1138 M
0 94 V
0 144 R
0 309 V
stroke
6223 1232 N
154 0 V
0 144 V
-154 0 V
0 -144 V
Z stroke
6223 1685 M
154 0 V
6223 1138 M
154 0 V
stroke
6835 1224 154 173 40 30 0 PatternFill
6912 1159 M
0 65 V
0 173 R
0 364 V
stroke
6835 1224 N
154 0 V
0 173 V
-154 0 V
0 -173 V
Z stroke
6835 1761 M
154 0 V
6835 1159 M
154 0 V
stroke
7447 1238 154 218 40 30 0 PatternFill
7524 1137 M
0 101 V
0 218 R
0 140 V
stroke
7447 1238 N
154 0 V
0 218 V
-154 0 V
0 -218 V
Z stroke
7447 1596 M
154 0 V
7447 1137 M
154 0 V
stroke
8059 1235 154 189 40 30 0 PatternFill
8136 1140 M
0 95 V
0 189 R
0 260 V
stroke
8059 1235 N
154 0 V
0 189 V
-154 0 V
0 -189 V
Z stroke
8059 1684 M
154 0 V
8059 1140 M
154 0 V
stroke
8671 1241 154 165 40 30 0 PatternFill
8748 1156 M
0 85 V
0 165 R
0 204 V
stroke
8671 1241 N
154 0 V
0 165 V
-154 0 V
0 -165 V
Z stroke
8671 1610 M
154 0 V
8671 1156 M
154 0 V
stroke
9283 1252 154 150 40 30 0 PatternFill
9360 1156 M
0 96 V
0 150 R
0 153 V
stroke
9283 1252 N
154 0 V
0 150 V
-154 0 V
0 -150 V
Z stroke
9283 1555 M
154 0 V
9283 1156 M
154 0 V
stroke
9896 1229 154 192 40 30 0 PatternFill
9973 1164 M
0 65 V
0 192 R
0 260 V
stroke
9896 1229 N
154 0 V
0 192 V
-154 0 V
0 -192 V
Z stroke
9896 1681 M
154 0 V
9896 1164 M
154 0 V
stroke
10508 1251 154 199 40 30 0 PatternFill
10585 1153 M
0 98 V
0 199 R
0 183 V
stroke
10508 1251 N
154 0 V
0 199 V
-154 0 V
0 -199 V
Z stroke
10508 1633 M
154 0 V
-154 -480 R
154 0 V
stroke
11120 1232 154 215 40 30 0 PatternFill
11197 1141 M
0 91 V
0 215 R
0 155 V
stroke
11120 1232 N
154 0 V
0 215 V
-154 0 V
0 -215 V
Z stroke
11120 1602 M
154 0 V
-154 -461 R
154 0 V
stroke
11732 1235 154 169 40 30 0 PatternFill
11809 1159 M
0 76 V
0 169 R
0 291 V
stroke
11732 1235 N
154 0 V
0 169 V
-154 0 V
0 -169 V
Z stroke
11732 1695 M
154 0 V
-154 -536 R
154 0 V
stroke
12344 1257 154 153 40 30 0 PatternFill
12421 1154 M
0 103 V
0 153 R
0 141 V
stroke
12344 1257 N
154 0 V
0 153 V
-154 0 V
0 -153 V
Z stroke
12344 1551 M
154 0 V
-154 -397 R
154 0 V
stroke
12956 1254 154 122 40 30 0 PatternFill
13033 1159 M
0 95 V
0 122 R
0 235 V
stroke
12956 1254 N
154 0 V
0 122 V
-154 0 V
0 -122 V
Z stroke
12956 1611 M
154 0 V
-154 -452 R
154 0 V
% End plot #7
% Begin plot #8
stroke
LTb
LCb setrgbcolor

 /TransparentPatterns true def
1327 1332 154 0 40 -30 0 PatternFill
1404 1332 M
stroke
1327 1332 N
154 0 V
-154 0 V
Z stroke
1327 1332 M
154 0 V
-154 0 R
154 0 V
stroke

 /TransparentPatterns true def
1939 1307 154 0 40 -30 0 PatternFill
2016 1307 M
stroke
1939 1307 N
154 0 V
-154 0 V
Z stroke
1939 1307 M
154 0 V
-154 0 R
154 0 V
stroke

 /TransparentPatterns true def
2551 1292 154 0 40 -30 0 PatternFill
2628 1292 M
stroke
2551 1292 N
154 0 V
-154 0 V
Z stroke
2551 1292 M
154 0 V
-154 0 R
154 0 V
stroke

 /TransparentPatterns true def
3163 1326 154 0 40 -30 0 PatternFill
3240 1326 M
stroke
3163 1326 N
154 0 V
-154 0 V
Z stroke
3163 1326 M
154 0 V
-154 0 R
154 0 V
stroke

 /TransparentPatterns true def
3775 1377 154 0 40 -30 0 PatternFill
3852 1377 M
stroke
3775 1377 N
154 0 V
-154 0 V
Z stroke
3775 1377 M
154 0 V
-154 0 R
154 0 V
stroke

 /TransparentPatterns true def
4387 1323 154 0 40 -30 0 PatternFill
4464 1323 M
stroke
4387 1323 N
154 0 V
-154 0 V
Z stroke
4387 1323 M
154 0 V
-154 0 R
154 0 V
stroke

 /TransparentPatterns true def
4999 1346 154 0 40 -30 0 PatternFill
5076 1346 M
stroke
4999 1346 N
154 0 V
-154 0 V
Z stroke
4999 1346 M
154 0 V
-154 0 R
154 0 V
stroke

 /TransparentPatterns true def
5611 1330 154 0 40 -30 0 PatternFill
5688 1330 M
stroke
5611 1330 N
154 0 V
-154 0 V
Z stroke
5611 1330 M
154 0 V
-154 0 R
154 0 V
stroke

 /TransparentPatterns true def
6223 1322 154 0 40 -30 0 PatternFill
6300 1322 M
stroke
6223 1322 N
154 0 V
-154 0 V
Z stroke
6223 1322 M
154 0 V
-154 0 R
154 0 V
stroke

 /TransparentPatterns true def
6835 1325 154 0 40 -30 0 PatternFill
6912 1325 M
stroke
6835 1325 N
154 0 V
-154 0 V
Z stroke
6835 1325 M
154 0 V
-154 0 R
154 0 V
stroke

 /TransparentPatterns true def
7447 1342 154 0 40 -30 0 PatternFill
7524 1342 M
stroke
7447 1342 N
154 0 V
-154 0 V
Z stroke
7447 1342 M
154 0 V
-154 0 R
154 0 V
stroke

 /TransparentPatterns true def
8059 1326 154 0 40 -30 0 PatternFill
8136 1326 M
stroke
8059 1326 N
154 0 V
-154 0 V
Z stroke
8059 1326 M
154 0 V
-154 0 R
154 0 V
stroke

 /TransparentPatterns true def
8671 1328 154 0 40 -30 0 PatternFill
8748 1328 M
stroke
8671 1328 N
154 0 V
-154 0 V
Z stroke
8671 1328 M
154 0 V
-154 0 R
154 0 V
stroke

 /TransparentPatterns true def
9283 1325 154 0 40 -30 0 PatternFill
9360 1325 M
stroke
9283 1325 N
154 0 V
-154 0 V
Z stroke
9283 1325 M
154 0 V
-154 0 R
154 0 V
stroke

 /TransparentPatterns true def
9896 1333 154 0 40 -30 0 PatternFill
9973 1333 M
stroke
9896 1333 N
154 0 V
-154 0 V
Z stroke
9896 1333 M
154 0 V
-154 0 R
154 0 V
stroke

 /TransparentPatterns true def
10508 1334 154 0 40 -30 0 PatternFill
10585 1334 M
stroke
10508 1334 N
154 0 V
-154 0 V
Z stroke
10508 1334 M
154 0 V
-154 0 R
154 0 V
stroke

 /TransparentPatterns true def
11120 1333 154 0 40 -30 0 PatternFill
11197 1333 M
stroke
11120 1333 N
154 0 V
-154 0 V
Z stroke
11120 1333 M
154 0 V
-154 0 R
154 0 V
stroke

 /TransparentPatterns true def
11732 1321 154 0 40 -30 0 PatternFill
11809 1321 M
stroke
11732 1321 N
154 0 V
-154 0 V
Z stroke
11732 1321 M
154 0 V
-154 0 R
154 0 V
stroke

 /TransparentPatterns true def
12344 1327 154 0 40 -30 0 PatternFill
12421 1327 M
stroke
12344 1327 N
154 0 V
-154 0 V
Z stroke
12344 1327 M
154 0 V
-154 0 R
154 0 V
stroke

 /TransparentPatterns true def
12956 1320 154 0 40 -30 0 PatternFill
13033 1320 M
stroke
12956 1320 N
154 0 V
-154 0 V
Z stroke
12956 1320 M
154 0 V
-154 0 R
154 0 V
% End plot #8
% Begin plot #9
2.000 UP
stroke
LTa
0.00 0.38 0.82 C LCb setrgbcolor
11860 153 M
[ [(Arial) 180.0 0.0 true true 0 ( )]
] -60.0 MRshow
2.000 UP
1.000 UL
LTa
0.00 0.38 0.82 C 11968 153 M
333 0 V
1403 4685 M
612 -19 V
612 -19 V
612 33 V
613 24 V
612 3 V
612 -22 V
612 -12 V
612 10 V
612 10 V
612 -27 V
612 16 V
612 -12 V
612 -15 V
612 26 V
612 -7 V
612 -5 V
612 13 V
612 -26 V
612 14 V
1403 4685 TriU
2015 4666 TriU
2627 4647 TriU
3239 4680 TriU
3852 4704 TriU
4464 4707 TriU
5076 4685 TriU
5688 4673 TriU
6300 4683 TriU
6912 4693 TriU
7524 4666 TriU
8136 4682 TriU
8748 4670 TriU
9360 4655 TriU
9972 4681 TriU
10584 4674 TriU
11196 4669 TriU
11808 4682 TriU
12420 4656 TriU
13032 4670 TriU
12134 153 TriU
% End plot #9
2.000 UL
LTb
LCb setrgbcolor
1.000 UP
1.000 UL
LTb
0.00 0.00 0.00 C stroke
grestore
end
showpage
%%Trailer
%%DocumentFonts: Arial
