%!PS-Adobe-2.0 EPSF-2.0
%%Title: 100UE-download-50Mbps.eps
%%Creator: gnuplot 5.0 patchlevel 3
%%CreationDate: Thu Jun  2 09:48:01 2016
%%DocumentFonts: (atend)
%%BoundingBox: 50 50 770 302
%%EndComments
%%BeginProlog
/gnudict 256 dict def
gnudict begin
%
% The following true/false flags may be edited by hand if desired.
% The unit line width and grayscale image gamma correction may also be changed.
%
/Color true def
/Blacktext false def
/Solid false def
/Dashlength 3 def
/Landscape false def
/Level1 false def
/Level3 false def
/Rounded false def
/ClipToBoundingBox false def
/SuppressPDFMark false def
/TransparentPatterns false def
/gnulinewidth 15.000 def
/userlinewidth gnulinewidth def
/Gamma 1.0 def
/BackgroundColor {-1.000 -1.000 -1.000} def
%
/vshift -66 def
/dl1 {
  10.0 Dashlength userlinewidth gnulinewidth div mul mul mul
  Rounded { currentlinewidth 0.75 mul sub dup 0 le { pop 0.01 } if } if
} def
/dl2 {
  10.0 Dashlength userlinewidth gnulinewidth div mul mul mul
  Rounded { currentlinewidth 0.75 mul add } if
} def
/hpt_ 31.5 def
/vpt_ 31.5 def
/hpt hpt_ def
/vpt vpt_ def
/doclip {
  ClipToBoundingBox {
    newpath 50 50 moveto 770 50 lineto 770 302 lineto 50 302 lineto closepath
    clip
  } if
} def
%
% Gnuplot Prolog Version 5.1 (Oct 2015)
%
%/SuppressPDFMark true def
%
/M {moveto} bind def
/L {lineto} bind def
/R {rmoveto} bind def
/V {rlineto} bind def
/N {newpath moveto} bind def
/Z {closepath} bind def
/C {setrgbcolor} bind def
/f {rlineto fill} bind def
/g {setgray} bind def
/Gshow {show} def   % May be redefined later in the file to support UTF-8
/vpt2 vpt 2 mul def
/hpt2 hpt 2 mul def
/Lshow {currentpoint stroke M 0 vshift R 
	Blacktext {gsave 0 setgray textshow grestore} {textshow} ifelse} def
/Rshow {currentpoint stroke M dup stringwidth pop neg vshift R
	Blacktext {gsave 0 setgray textshow grestore} {textshow} ifelse} def
/Cshow {currentpoint stroke M dup stringwidth pop -2 div vshift R 
	Blacktext {gsave 0 setgray textshow grestore} {textshow} ifelse} def
/UP {dup vpt_ mul /vpt exch def hpt_ mul /hpt exch def
  /hpt2 hpt 2 mul def /vpt2 vpt 2 mul def} def
/DL {Color {setrgbcolor Solid {pop []} if 0 setdash}
 {pop pop pop 0 setgray Solid {pop []} if 0 setdash} ifelse} def
/BL {stroke userlinewidth 2 mul setlinewidth
	Rounded {1 setlinejoin 1 setlinecap} if} def
/AL {stroke userlinewidth 2 div setlinewidth
	Rounded {1 setlinejoin 1 setlinecap} if} def
/UL {dup gnulinewidth mul /userlinewidth exch def
	dup 1 lt {pop 1} if 10 mul /udl exch def} def
/PL {stroke userlinewidth setlinewidth
	Rounded {1 setlinejoin 1 setlinecap} if} def
3.8 setmiterlimit
% Classic Line colors (version 5.0)
/LCw {1 1 1} def
/LCb {0 0 0} def
/LCa {0 0 0} def
/LC0 {1 0 0} def
/LC1 {0 1 0} def
/LC2 {0 0 1} def
/LC3 {1 0 1} def
/LC4 {0 1 1} def
/LC5 {1 1 0} def
/LC6 {0 0 0} def
/LC7 {1 0.3 0} def
/LC8 {0.5 0.5 0.5} def
% Default dash patterns (version 5.0)
/LTB {BL [] LCb DL} def
/LTw {PL [] 1 setgray} def
/LTb {PL [] LCb DL} def
/LTa {AL [1 udl mul 2 udl mul] 0 setdash LCa setrgbcolor} def
/LT0 {PL [] LC0 DL} def
/LT1 {PL [2 dl1 3 dl2] LC1 DL} def
/LT2 {PL [1 dl1 1.5 dl2] LC2 DL} def
/LT3 {PL [6 dl1 2 dl2 1 dl1 2 dl2] LC3 DL} def
/LT4 {PL [1 dl1 2 dl2 6 dl1 2 dl2 1 dl1 2 dl2] LC4 DL} def
/LT5 {PL [4 dl1 2 dl2] LC5 DL} def
/LT6 {PL [1.5 dl1 1.5 dl2 1.5 dl1 1.5 dl2 1.5 dl1 6 dl2] LC6 DL} def
/LT7 {PL [3 dl1 3 dl2 1 dl1 3 dl2] LC7 DL} def
/LT8 {PL [2 dl1 2 dl2 2 dl1 6 dl2] LC8 DL} def
/SL {[] 0 setdash} def
/Pnt {stroke [] 0 setdash gsave 1 setlinecap M 0 0 V stroke grestore} def
/Dia {stroke [] 0 setdash 2 copy vpt add M
  hpt neg vpt neg V hpt vpt neg V
  hpt vpt V hpt neg vpt V closepath stroke
  Pnt} def
/Pls {stroke [] 0 setdash vpt sub M 0 vpt2 V
  currentpoint stroke M
  hpt neg vpt neg R hpt2 0 V stroke
 } def
/Box {stroke [] 0 setdash 2 copy exch hpt sub exch vpt add M
  0 vpt2 neg V hpt2 0 V 0 vpt2 V
  hpt2 neg 0 V closepath stroke
  Pnt} def
/Crs {stroke [] 0 setdash exch hpt sub exch vpt add M
  hpt2 vpt2 neg V currentpoint stroke M
  hpt2 neg 0 R hpt2 vpt2 V stroke} def
/TriU {stroke [] 0 setdash 2 copy vpt 1.12 mul add M
  hpt neg vpt -1.62 mul V
  hpt 2 mul 0 V
  hpt neg vpt 1.62 mul V closepath stroke
  Pnt} def
/Star {2 copy Pls Crs} def
/BoxF {stroke [] 0 setdash exch hpt sub exch vpt add M
  0 vpt2 neg V hpt2 0 V 0 vpt2 V
  hpt2 neg 0 V closepath fill} def
/TriUF {stroke [] 0 setdash vpt 1.12 mul add M
  hpt neg vpt -1.62 mul V
  hpt 2 mul 0 V
  hpt neg vpt 1.62 mul V closepath fill} def
/TriD {stroke [] 0 setdash 2 copy vpt 1.12 mul sub M
  hpt neg vpt 1.62 mul V
  hpt 2 mul 0 V
  hpt neg vpt -1.62 mul V closepath stroke
  Pnt} def
/TriDF {stroke [] 0 setdash vpt 1.12 mul sub M
  hpt neg vpt 1.62 mul V
  hpt 2 mul 0 V
  hpt neg vpt -1.62 mul V closepath fill} def
/DiaF {stroke [] 0 setdash vpt add M
  hpt neg vpt neg V hpt vpt neg V
  hpt vpt V hpt neg vpt V closepath fill} def
/Pent {stroke [] 0 setdash 2 copy gsave
  translate 0 hpt M 4 {72 rotate 0 hpt L} repeat
  closepath stroke grestore Pnt} def
/PentF {stroke [] 0 setdash gsave
  translate 0 hpt M 4 {72 rotate 0 hpt L} repeat
  closepath fill grestore} def
/Circle {stroke [] 0 setdash 2 copy
  hpt 0 360 arc stroke Pnt} def
/CircleF {stroke [] 0 setdash hpt 0 360 arc fill} def
/C0 {BL [] 0 setdash 2 copy moveto vpt 90 450 arc} bind def
/C1 {BL [] 0 setdash 2 copy moveto
	2 copy vpt 0 90 arc closepath fill
	vpt 0 360 arc closepath} bind def
/C2 {BL [] 0 setdash 2 copy moveto
	2 copy vpt 90 180 arc closepath fill
	vpt 0 360 arc closepath} bind def
/C3 {BL [] 0 setdash 2 copy moveto
	2 copy vpt 0 180 arc closepath fill
	vpt 0 360 arc closepath} bind def
/C4 {BL [] 0 setdash 2 copy moveto
	2 copy vpt 180 270 arc closepath fill
	vpt 0 360 arc closepath} bind def
/C5 {BL [] 0 setdash 2 copy moveto
	2 copy vpt 0 90 arc
	2 copy moveto
	2 copy vpt 180 270 arc closepath fill
	vpt 0 360 arc} bind def
/C6 {BL [] 0 setdash 2 copy moveto
	2 copy vpt 90 270 arc closepath fill
	vpt 0 360 arc closepath} bind def
/C7 {BL [] 0 setdash 2 copy moveto
	2 copy vpt 0 270 arc closepath fill
	vpt 0 360 arc closepath} bind def
/C8 {BL [] 0 setdash 2 copy moveto
	2 copy vpt 270 360 arc closepath fill
	vpt 0 360 arc closepath} bind def
/C9 {BL [] 0 setdash 2 copy moveto
	2 copy vpt 270 450 arc closepath fill
	vpt 0 360 arc closepath} bind def
/C10 {BL [] 0 setdash 2 copy 2 copy moveto vpt 270 360 arc closepath fill
	2 copy moveto
	2 copy vpt 90 180 arc closepath fill
	vpt 0 360 arc closepath} bind def
/C11 {BL [] 0 setdash 2 copy moveto
	2 copy vpt 0 180 arc closepath fill
	2 copy moveto
	2 copy vpt 270 360 arc closepath fill
	vpt 0 360 arc closepath} bind def
/C12 {BL [] 0 setdash 2 copy moveto
	2 copy vpt 180 360 arc closepath fill
	vpt 0 360 arc closepath} bind def
/C13 {BL [] 0 setdash 2 copy moveto
	2 copy vpt 0 90 arc closepath fill
	2 copy moveto
	2 copy vpt 180 360 arc closepath fill
	vpt 0 360 arc closepath} bind def
/C14 {BL [] 0 setdash 2 copy moveto
	2 copy vpt 90 360 arc closepath fill
	vpt 0 360 arc} bind def
/C15 {BL [] 0 setdash 2 copy vpt 0 360 arc closepath fill
	vpt 0 360 arc closepath} bind def
/Rec {newpath 4 2 roll moveto 1 index 0 rlineto 0 exch rlineto
	neg 0 rlineto closepath} bind def
/Square {dup Rec} bind def
/Bsquare {vpt sub exch vpt sub exch vpt2 Square} bind def
/S0 {BL [] 0 setdash 2 copy moveto 0 vpt rlineto BL Bsquare} bind def
/S1 {BL [] 0 setdash 2 copy vpt Square fill Bsquare} bind def
/S2 {BL [] 0 setdash 2 copy exch vpt sub exch vpt Square fill Bsquare} bind def
/S3 {BL [] 0 setdash 2 copy exch vpt sub exch vpt2 vpt Rec fill Bsquare} bind def
/S4 {BL [] 0 setdash 2 copy exch vpt sub exch vpt sub vpt Square fill Bsquare} bind def
/S5 {BL [] 0 setdash 2 copy 2 copy vpt Square fill
	exch vpt sub exch vpt sub vpt Square fill Bsquare} bind def
/S6 {BL [] 0 setdash 2 copy exch vpt sub exch vpt sub vpt vpt2 Rec fill Bsquare} bind def
/S7 {BL [] 0 setdash 2 copy exch vpt sub exch vpt sub vpt vpt2 Rec fill
	2 copy vpt Square fill Bsquare} bind def
/S8 {BL [] 0 setdash 2 copy vpt sub vpt Square fill Bsquare} bind def
/S9 {BL [] 0 setdash 2 copy vpt sub vpt vpt2 Rec fill Bsquare} bind def
/S10 {BL [] 0 setdash 2 copy vpt sub vpt Square fill 2 copy exch vpt sub exch vpt Square fill
	Bsquare} bind def
/S11 {BL [] 0 setdash 2 copy vpt sub vpt Square fill 2 copy exch vpt sub exch vpt2 vpt Rec fill
	Bsquare} bind def
/S12 {BL [] 0 setdash 2 copy exch vpt sub exch vpt sub vpt2 vpt Rec fill Bsquare} bind def
/S13 {BL [] 0 setdash 2 copy exch vpt sub exch vpt sub vpt2 vpt Rec fill
	2 copy vpt Square fill Bsquare} bind def
/S14 {BL [] 0 setdash 2 copy exch vpt sub exch vpt sub vpt2 vpt Rec fill
	2 copy exch vpt sub exch vpt Square fill Bsquare} bind def
/S15 {BL [] 0 setdash 2 copy Bsquare fill Bsquare} bind def
/D0 {gsave translate 45 rotate 0 0 S0 stroke grestore} bind def
/D1 {gsave translate 45 rotate 0 0 S1 stroke grestore} bind def
/D2 {gsave translate 45 rotate 0 0 S2 stroke grestore} bind def
/D3 {gsave translate 45 rotate 0 0 S3 stroke grestore} bind def
/D4 {gsave translate 45 rotate 0 0 S4 stroke grestore} bind def
/D5 {gsave translate 45 rotate 0 0 S5 stroke grestore} bind def
/D6 {gsave translate 45 rotate 0 0 S6 stroke grestore} bind def
/D7 {gsave translate 45 rotate 0 0 S7 stroke grestore} bind def
/D8 {gsave translate 45 rotate 0 0 S8 stroke grestore} bind def
/D9 {gsave translate 45 rotate 0 0 S9 stroke grestore} bind def
/D10 {gsave translate 45 rotate 0 0 S10 stroke grestore} bind def
/D11 {gsave translate 45 rotate 0 0 S11 stroke grestore} bind def
/D12 {gsave translate 45 rotate 0 0 S12 stroke grestore} bind def
/D13 {gsave translate 45 rotate 0 0 S13 stroke grestore} bind def
/D14 {gsave translate 45 rotate 0 0 S14 stroke grestore} bind def
/D15 {gsave translate 45 rotate 0 0 S15 stroke grestore} bind def
/DiaE {stroke [] 0 setdash vpt add M
  hpt neg vpt neg V hpt vpt neg V
  hpt vpt V hpt neg vpt V closepath stroke} def
/BoxE {stroke [] 0 setdash exch hpt sub exch vpt add M
  0 vpt2 neg V hpt2 0 V 0 vpt2 V
  hpt2 neg 0 V closepath stroke} def
/TriUE {stroke [] 0 setdash vpt 1.12 mul add M
  hpt neg vpt -1.62 mul V
  hpt 2 mul 0 V
  hpt neg vpt 1.62 mul V closepath stroke} def
/TriDE {stroke [] 0 setdash vpt 1.12 mul sub M
  hpt neg vpt 1.62 mul V
  hpt 2 mul 0 V
  hpt neg vpt -1.62 mul V closepath stroke} def
/PentE {stroke [] 0 setdash gsave
  translate 0 hpt M 4 {72 rotate 0 hpt L} repeat
  closepath stroke grestore} def
/CircE {stroke [] 0 setdash 
  hpt 0 360 arc stroke} def
/Opaque {gsave closepath 1 setgray fill grestore 0 setgray closepath} def
/DiaW {stroke [] 0 setdash vpt add M
  hpt neg vpt neg V hpt vpt neg V
  hpt vpt V hpt neg vpt V Opaque stroke} def
/BoxW {stroke [] 0 setdash exch hpt sub exch vpt add M
  0 vpt2 neg V hpt2 0 V 0 vpt2 V
  hpt2 neg 0 V Opaque stroke} def
/TriUW {stroke [] 0 setdash vpt 1.12 mul add M
  hpt neg vpt -1.62 mul V
  hpt 2 mul 0 V
  hpt neg vpt 1.62 mul V Opaque stroke} def
/TriDW {stroke [] 0 setdash vpt 1.12 mul sub M
  hpt neg vpt 1.62 mul V
  hpt 2 mul 0 V
  hpt neg vpt -1.62 mul V Opaque stroke} def
/PentW {stroke [] 0 setdash gsave
  translate 0 hpt M 4 {72 rotate 0 hpt L} repeat
  Opaque stroke grestore} def
/CircW {stroke [] 0 setdash 
  hpt 0 360 arc Opaque stroke} def
/BoxFill {gsave Rec 1 setgray fill grestore} def
/Density {
  /Fillden exch def
  currentrgbcolor
  /ColB exch def /ColG exch def /ColR exch def
  /ColR ColR Fillden mul Fillden sub 1 add def
  /ColG ColG Fillden mul Fillden sub 1 add def
  /ColB ColB Fillden mul Fillden sub 1 add def
  ColR ColG ColB setrgbcolor} def
/BoxColFill {gsave Rec PolyFill} def
/PolyFill {gsave Density fill grestore grestore} def
/h {rlineto rlineto rlineto gsave closepath fill grestore} bind def
%
% PostScript Level 1 Pattern Fill routine for rectangles
% Usage: x y w h s a XX PatternFill
%	x,y = lower left corner of box to be filled
%	w,h = width and height of box
%	  a = angle in degrees between lines and x-axis
%	 XX = 0/1 for no/yes cross-hatch
%
/PatternFill {gsave /PFa [ 9 2 roll ] def
  PFa 0 get PFa 2 get 2 div add PFa 1 get PFa 3 get 2 div add translate
  PFa 2 get -2 div PFa 3 get -2 div PFa 2 get PFa 3 get Rec
  TransparentPatterns {} {gsave 1 setgray fill grestore} ifelse
  clip
  currentlinewidth 0.5 mul setlinewidth
  /PFs PFa 2 get dup mul PFa 3 get dup mul add sqrt def
  0 0 M PFa 5 get rotate PFs -2 div dup translate
  0 1 PFs PFa 4 get div 1 add floor cvi
	{PFa 4 get mul 0 M 0 PFs V} for
  0 PFa 6 get ne {
	0 1 PFs PFa 4 get div 1 add floor cvi
	{PFa 4 get mul 0 2 1 roll M PFs 0 V} for
 } if
  stroke grestore} def
%
/languagelevel where
 {pop languagelevel} {1} ifelse
dup 2 lt
	{/InterpretLevel1 true def
	 /InterpretLevel3 false def}
	{/InterpretLevel1 Level1 def
	 2 gt
	    {/InterpretLevel3 Level3 def}
	    {/InterpretLevel3 false def}
	 ifelse }
 ifelse
%
% PostScript level 2 pattern fill definitions
%
/Level2PatternFill {
/Tile8x8 {/PaintType 2 /PatternType 1 /TilingType 1 /BBox [0 0 8 8] /XStep 8 /YStep 8}
	bind def
/KeepColor {currentrgbcolor [/Pattern /DeviceRGB] setcolorspace} bind def
<< Tile8x8
 /PaintProc {0.5 setlinewidth pop 0 0 M 8 8 L 0 8 M 8 0 L stroke} 
>> matrix makepattern
/Pat1 exch def
<< Tile8x8
 /PaintProc {0.5 setlinewidth pop 0 0 M 8 8 L 0 8 M 8 0 L stroke
	0 4 M 4 8 L 8 4 L 4 0 L 0 4 L stroke}
>> matrix makepattern
/Pat2 exch def
<< Tile8x8
 /PaintProc {0.5 setlinewidth pop 0 0 M 0 8 L
	8 8 L 8 0 L 0 0 L fill}
>> matrix makepattern
/Pat3 exch def
<< Tile8x8
 /PaintProc {0.5 setlinewidth pop -4 8 M 8 -4 L
	0 12 M 12 0 L stroke}
>> matrix makepattern
/Pat4 exch def
<< Tile8x8
 /PaintProc {0.5 setlinewidth pop -4 0 M 8 12 L
	0 -4 M 12 8 L stroke}
>> matrix makepattern
/Pat5 exch def
<< Tile8x8
 /PaintProc {0.5 setlinewidth pop -2 8 M 4 -4 L
	0 12 M 8 -4 L 4 12 M 10 0 L stroke}
>> matrix makepattern
/Pat6 exch def
<< Tile8x8
 /PaintProc {0.5 setlinewidth pop -2 0 M 4 12 L
	0 -4 M 8 12 L 4 -4 M 10 8 L stroke}
>> matrix makepattern
/Pat7 exch def
<< Tile8x8
 /PaintProc {0.5 setlinewidth pop 8 -2 M -4 4 L
	12 0 M -4 8 L 12 4 M 0 10 L stroke}
>> matrix makepattern
/Pat8 exch def
<< Tile8x8
 /PaintProc {0.5 setlinewidth pop 0 -2 M 12 4 L
	-4 0 M 12 8 L -4 4 M 8 10 L stroke}
>> matrix makepattern
/Pat9 exch def
/Pattern1 {PatternBgnd KeepColor Pat1 setpattern} bind def
/Pattern2 {PatternBgnd KeepColor Pat2 setpattern} bind def
/Pattern3 {PatternBgnd KeepColor Pat3 setpattern} bind def
/Pattern4 {PatternBgnd KeepColor Landscape {Pat5} {Pat4} ifelse setpattern} bind def
/Pattern5 {PatternBgnd KeepColor Landscape {Pat4} {Pat5} ifelse setpattern} bind def
/Pattern6 {PatternBgnd KeepColor Landscape {Pat9} {Pat6} ifelse setpattern} bind def
/Pattern7 {PatternBgnd KeepColor Landscape {Pat8} {Pat7} ifelse setpattern} bind def
} def
%
%
%End of PostScript Level 2 code
%
/PatternBgnd {
  TransparentPatterns {} {gsave 1 setgray fill grestore} ifelse
} def
%
% Substitute for Level 2 pattern fill codes with
% grayscale if Level 2 support is not selected.
%
/Level1PatternFill {
/Pattern1 {0.250 Density} bind def
/Pattern2 {0.500 Density} bind def
/Pattern3 {0.750 Density} bind def
/Pattern4 {0.125 Density} bind def
/Pattern5 {0.375 Density} bind def
/Pattern6 {0.625 Density} bind def
/Pattern7 {0.875 Density} bind def
} def
%
% Now test for support of Level 2 code
%
Level1 {Level1PatternFill} {Level2PatternFill} ifelse
%
/Symbol-Oblique /Symbol findfont [1 0 .167 1 0 0] makefont
dup length dict begin {1 index /FID eq {pop pop} {def} ifelse} forall
currentdict end definefont pop
%
/MFshow {
   { dup 5 get 3 ge
     { 5 get 3 eq {gsave} {grestore} ifelse }
     {dup dup 0 get findfont exch 1 get scalefont setfont
     [ currentpoint ] exch dup 2 get 0 exch R dup 5 get 2 ne {dup dup 6
     get exch 4 get {textshow} {stringwidth pop 0 R} ifelse }if dup 5 get 0 eq
     {dup 3 get {2 get neg 0 exch R pop} {pop aload pop M} ifelse} {dup 5
     get 1 eq {dup 2 get exch dup 3 get exch 6 get stringwidth pop -2 div
     dup 0 R} {dup 6 get stringwidth pop -2 div 0 R 6 get
     textshow 2 index {aload pop M neg 3 -1 roll neg R pop pop} {pop pop pop
     pop aload pop M} ifelse }ifelse }ifelse }
     ifelse }
   forall} def
/Gswidth {dup type /stringtype eq {stringwidth} {pop (n) stringwidth} ifelse} def
/MFwidth {0 exch { dup 5 get 3 ge { 5 get 3 eq { 0 } { pop } ifelse }
 {dup 3 get{dup dup 0 get findfont exch 1 get scalefont setfont
     6 get Gswidth pop add} {pop} ifelse} ifelse} forall} def
/MLshow { currentpoint stroke M
  0 exch R
  Blacktext {gsave 0 setgray MFshow grestore} {MFshow} ifelse } bind def
/MRshow { currentpoint stroke M
  exch dup MFwidth neg 3 -1 roll R
  Blacktext {gsave 0 setgray MFshow grestore} {MFshow} ifelse } bind def
/MCshow { currentpoint stroke M
  exch dup MFwidth -2 div 3 -1 roll R
  Blacktext {gsave 0 setgray MFshow grestore} {MFshow} ifelse } bind def
/XYsave    { [( ) 1 2 true false 3 ()] } bind def
/XYrestore { [( ) 1 2 true false 4 ()] } bind def
Level1 SuppressPDFMark or 
{} {
/SDict 10 dict def
systemdict /pdfmark known not {
  userdict /pdfmark systemdict /cleartomark get put
} if
SDict begin [
  /Title (100UE-download-50Mbps.eps)
  /Subject (gnuplot plot)
  /Creator (gnuplot 5.0 patchlevel 3)
  /Author (nat)
%  /Producer (gnuplot)
%  /Keywords ()
  /CreationDate (Thu Jun  2 09:48:01 2016)
  /DOCINFO pdfmark
end
} ifelse
%
% Support for boxed text - Ethan A Merritt May 2005
%
/InitTextBox { userdict /TBy2 3 -1 roll put userdict /TBx2 3 -1 roll put
           userdict /TBy1 3 -1 roll put userdict /TBx1 3 -1 roll put
	   /Boxing true def } def
/ExtendTextBox { Boxing
    { gsave dup false charpath pathbbox
      dup TBy2 gt {userdict /TBy2 3 -1 roll put} {pop} ifelse
      dup TBx2 gt {userdict /TBx2 3 -1 roll put} {pop} ifelse
      dup TBy1 lt {userdict /TBy1 3 -1 roll put} {pop} ifelse
      dup TBx1 lt {userdict /TBx1 3 -1 roll put} {pop} ifelse
      grestore } if } def
/PopTextBox { newpath TBx1 TBxmargin sub TBy1 TBymargin sub M
               TBx1 TBxmargin sub TBy2 TBymargin add L
	       TBx2 TBxmargin add TBy2 TBymargin add L
	       TBx2 TBxmargin add TBy1 TBymargin sub L closepath } def
/DrawTextBox { PopTextBox stroke /Boxing false def} def
/FillTextBox { gsave PopTextBox 1 1 1 setrgbcolor fill grestore /Boxing false def} def
0 0 0 0 InitTextBox
/TBxmargin 20 def
/TBymargin 20 def
/Boxing false def
/textshow { ExtendTextBox Gshow } def
%
% redundant definitions for compatibility with prologue.ps older than 5.0.2
/LTB {BL [] LCb DL} def
/LTb {PL [] LCb DL} def
end
%%EndProlog
%%Page: 1 1
gnudict begin
gsave
doclip
50 50 translate
0.050 0.050 scale
0 setgray
newpath
(Arial) findfont 200 scalefont setfont
BackgroundColor 0 lt 3 1 roll 0 lt exch 0 lt or or not {BackgroundColor C 1.000 0 0 14400.00 5040.00 BoxColFill} if
1.000 UL
LTb
0.00 0.00 0.00 C 0.500 UL
LTa
0.50 0.50 0.50 C 980 992 M
5859 0 V
stroke
1.000 UL
LTb
0.00 0.00 0.00 C 980 992 M
63 0 V
5796 0 R
-63 0 V
stroke
860 992 M
[ [(Arial) 200.0 0.0 true true 0 ( 50)]
] -66.7 MRshow
1.000 UL
LTb
0.00 0.00 0.00 C 0.500 UL
LTa
0.50 0.50 0.50 C 980 1854 M
5859 0 V
stroke
1.000 UL
LTb
0.00 0.00 0.00 C 980 1854 M
63 0 V
5796 0 R
-63 0 V
stroke
860 1854 M
[ [(Arial) 200.0 0.0 true true 0 ( 100)]
] -66.7 MRshow
1.000 UL
LTb
0.00 0.00 0.00 C 0.500 UL
LTa
0.50 0.50 0.50 C 980 2716 M
5859 0 V
stroke
1.000 UL
LTb
0.00 0.00 0.00 C 980 2716 M
63 0 V
5796 0 R
-63 0 V
stroke
860 2716 M
[ [(Arial) 200.0 0.0 true true 0 ( 150)]
] -66.7 MRshow
1.000 UL
LTb
0.00 0.00 0.00 C 0.500 UL
LTa
0.50 0.50 0.50 C 980 3577 M
5859 0 V
stroke
1.000 UL
LTb
0.00 0.00 0.00 C 980 3577 M
63 0 V
5796 0 R
-63 0 V
stroke
860 3577 M
[ [(Arial) 200.0 0.0 true true 0 ( 200)]
] -66.7 MRshow
1.000 UL
LTb
0.00 0.00 0.00 C 0.500 UL
LTa
0.50 0.50 0.50 C 980 4439 M
5859 0 V
stroke
1.000 UL
LTb
0.00 0.00 0.00 C 980 4439 M
63 0 V
5796 0 R
-63 0 V
stroke
860 4439 M
[ [(Arial) 200.0 0.0 true true 0 ( 250)]
] -66.7 MRshow
1.000 UL
LTb
0.00 0.00 0.00 C 0.500 UL
LTa
0.50 0.50 0.50 C 1273 820 M
0 3619 V
stroke
1.000 UL
LTb
0.00 0.00 0.00 C 1273 820 M
0 63 V
0 3556 R
0 -63 V
stroke
1273 620 M
[ [(Arial) 200.0 0.0 true true 0 (NewReno)]
] -66.7 MCshow
1.000 UL
LTb
0.00 0.00 0.00 C 0.500 UL
LTa
0.50 0.50 0.50 C 2152 820 M
0 3619 V
stroke
1.000 UL
LTb
0.00 0.00 0.00 C 2152 820 M
0 63 V
0 3556 R
0 -63 V
stroke
2152 620 M
[ [(Arial) 200.0 0.0 true true 0 (Cubic)]
] -66.7 MCshow
1.000 UL
LTb
0.00 0.00 0.00 C 0.500 UL
LTa
0.50 0.50 0.50 C 3031 820 M
0 3619 V
stroke
1.000 UL
LTb
0.00 0.00 0.00 C 3031 820 M
0 63 V
0 3556 R
0 -63 V
stroke
3031 620 M
[ [(Arial) 200.0 0.0 true true 0 (HighSpeed)]
] -66.7 MCshow
1.000 UL
LTb
0.00 0.00 0.00 C 0.500 UL
LTa
0.50 0.50 0.50 C 3910 820 M
0 3619 V
stroke
1.000 UL
LTb
0.00 0.00 0.00 C 3910 820 M
0 63 V
0 3556 R
0 -63 V
stroke
3910 620 M
[ [(Arial) 200.0 0.0 true true 0 (Westwood)]
] -66.7 MCshow
1.000 UL
LTb
0.00 0.00 0.00 C 0.500 UL
LTa
0.50 0.50 0.50 C 4788 820 M
0 3619 V
stroke
1.000 UL
LTb
0.00 0.00 0.00 C 4788 820 M
0 63 V
0 3556 R
0 -63 V
stroke
4788 620 M
[ [(Arial) 200.0 0.0 true true 0 (Hybla)]
] -66.7 MCshow
1.000 UL
LTb
0.00 0.00 0.00 C 0.500 UL
LTa
0.50 0.50 0.50 C 5667 820 M
0 3619 V
stroke
1.000 UL
LTb
0.00 0.00 0.00 C 5667 820 M
0 63 V
0 3556 R
0 -63 V
stroke
5667 620 M
[ [(Arial) 200.0 0.0 true true 0 (Vegas)]
] -66.7 MCshow
1.000 UL
LTb
0.00 0.00 0.00 C 0.500 UL
LTa
0.50 0.50 0.50 C 6546 820 M
0 3619 V
stroke
1.000 UL
LTb
0.00 0.00 0.00 C 6546 820 M
0 63 V
0 3556 R
0 -63 V
stroke
6546 620 M
[ [(Arial) 200.0 0.0 true true 0 (Scalable)]
] -66.7 MCshow
1.000 UL
LTb
0.00 0.00 0.00 C 1.000 UL
LTB
0.00 0.00 0.00 C 980 4439 M
980 820 L
5859 0 V
0 3619 R
-5859 0 R
1.000 UP
stroke
LTb
0.00 0.00 0.00 C LCb setrgbcolor
160 2629 M
currentpoint gsave translate -270 rotate 0 0 moveto
[ [(Arial) 200.0 0.0 true true 0 (RTT \(ms\))]
] -66.7 MCshow
grestore
LTb
LCb setrgbcolor
3909 320 M
[ [(Arial) 200.0 0.0 true true 0 (TCP)]
] -66.7 MCshow
LTb
LCb setrgbcolor
3909 4739 M
[ [(Arial) 200.0 0.0 true true 0 (a\) RTT)]
] -66.7 MCshow
% Begin plot #1
1.000 UL
LTb
0.60 0.60 0.00 C LCb setrgbcolor
2654 153 M
[ [(Arial) 180.0 0.0 true true 0 (olsr)]
] -60.0 MRshow
1.000 UL
LTb
0.60 0.60 0.00 C 2762 108 333 90 80 -45 0 PatternFill
2762 108 N
333 0 V
0 90 V
-333 0 V
0 -90 V
Z stroke
1.000 UL
LTb
0.60 0.60 0.00 C 1068 992 118 341 80 -45 0 PatternFill
1127 954 M
0 38 V
0 341 R
0 692 V
stroke
1068 992 N
118 0 V
0 341 V
-118 0 V
0 -341 V
Z stroke
1068 2025 M
118 0 V
1068 954 M
118 0 V
stroke
1947 984 118 354 80 -45 0 PatternFill
2006 947 M
0 37 V
0 354 R
0 769 V
stroke
1947 984 N
118 0 V
0 354 V
-118 0 V
0 -354 V
Z stroke
1947 2107 M
118 0 V
1947 947 M
118 0 V
stroke
2826 1005 118 577 80 -45 0 PatternFill
2885 956 M
0 49 V
0 577 R
0 934 V
stroke
2826 1005 N
118 0 V
0 577 V
-118 0 V
0 -577 V
Z stroke
2826 2516 M
118 0 V
2826 956 M
118 0 V
stroke
3704 987 118 281 80 -45 0 PatternFill
3763 951 M
0 36 V
0 281 R
0 622 V
stroke
3704 987 N
118 0 V
0 281 V
-118 0 V
0 -281 V
Z stroke
3704 1890 M
118 0 V
3704 951 M
118 0 V
stroke
4583 1002 118 515 80 -45 0 PatternFill
4642 955 M
0 47 V
0 515 R
0 876 V
stroke
4583 1002 N
118 0 V
0 515 V
-118 0 V
0 -515 V
Z stroke
4583 2393 M
118 0 V
4583 955 M
118 0 V
stroke
5462 1031 118 189 80 -45 0 PatternFill
5521 976 M
0 55 V
0 189 R
0 228 V
stroke
5462 1031 N
118 0 V
0 189 V
-118 0 V
0 -189 V
Z stroke
5462 1448 M
118 0 V
5462 976 M
118 0 V
stroke
6341 1013 118 636 80 -45 0 PatternFill
6400 964 M
0 49 V
0 636 R
0 830 V
stroke
6341 1013 N
118 0 V
0 636 V
-118 0 V
0 -636 V
Z stroke
6341 2479 M
118 0 V
6341 964 M
118 0 V
% End plot #1
% Begin plot #2
stroke
LTb
LCb setrgbcolor

 /TransparentPatterns true def
1068 1212 118 0 40 30 0 PatternFill
1127 1212 M
stroke
1068 1212 N
118 0 V
-118 0 V
Z stroke
1068 1212 M
118 0 V
-118 0 R
118 0 V
stroke

 /TransparentPatterns true def
1947 1217 118 0 40 30 0 PatternFill
2006 1217 M
stroke
1947 1217 N
118 0 V
-118 0 V
Z stroke
1947 1217 M
118 0 V
-118 0 R
118 0 V
stroke

 /TransparentPatterns true def
2826 1345 118 0 40 30 0 PatternFill
2885 1345 M
stroke
2826 1345 N
118 0 V
-118 0 V
Z stroke
2826 1345 M
118 0 V
-118 0 R
118 0 V
stroke

 /TransparentPatterns true def
3704 1181 118 0 40 30 0 PatternFill
3763 1181 M
stroke
3704 1181 N
118 0 V
-118 0 V
Z stroke
3704 1181 M
118 0 V
-118 0 R
118 0 V
stroke

 /TransparentPatterns true def
4583 1305 118 0 40 30 0 PatternFill
4642 1305 M
stroke
4583 1305 N
118 0 V
-118 0 V
Z stroke
4583 1305 M
118 0 V
-118 0 R
118 0 V
stroke

 /TransparentPatterns true def
5462 1152 118 0 40 30 0 PatternFill
5521 1152 M
stroke
5462 1152 N
118 0 V
-118 0 V
Z stroke
5462 1152 M
118 0 V
-118 0 R
118 0 V
stroke

 /TransparentPatterns true def
6341 1369 118 0 40 30 0 PatternFill
6400 1369 M
stroke
6341 1369 N
118 0 V
-118 0 V
Z stroke
6341 1369 M
118 0 V
-118 0 R
118 0 V
% End plot #2
% Begin plot #3
stroke
LTb
0.00 0.00 0.63 C LCb setrgbcolor
4067 153 M
[ [(Arial) 180.0 0.0 true true 0 (per-packet)]
] -60.0 MRshow
1.000 UL
LTb
0.00 0.00 0.63 C 4175 108 333 90 80 45 0 PatternFill
4175 108 N
333 0 V
0 90 V
-333 0 V
0 -90 V
Z stroke
1.000 UL
LTb
0.00 0.00 0.63 C 1214 1004 118 508 80 45 0 PatternFill
1273 951 M
0 53 V
0 508 R
0 685 V
stroke
1214 1004 N
118 0 V
0 508 V
-118 0 V
0 -508 V
Z stroke
1214 2197 M
118 0 V
1214 951 M
118 0 V
stroke
2093 1015 118 637 80 45 0 PatternFill
2152 954 M
0 61 V
0 637 R
0 676 V
stroke
2093 1015 N
118 0 V
0 637 V
-118 0 V
0 -637 V
Z stroke
2093 2328 M
118 0 V
2093 954 M
118 0 V
stroke
2972 1009 118 709 80 45 0 PatternFill
3031 953 M
0 56 V
0 709 R
0 641 V
stroke
2972 1009 N
118 0 V
0 709 V
-118 0 V
0 -709 V
Z stroke
2972 2359 M
118 0 V
2972 953 M
118 0 V
stroke
3851 993 118 354 80 45 0 PatternFill
3910 951 M
0 42 V
0 354 R
0 679 V
stroke
3851 993 N
118 0 V
0 354 V
-118 0 V
0 -354 V
Z stroke
3851 2026 M
118 0 V
3851 951 M
118 0 V
stroke
4730 1006 118 603 80 45 0 PatternFill
4789 954 M
0 52 V
0 603 R
0 659 V
stroke
4730 1006 N
118 0 V
0 603 V
-118 0 V
0 -603 V
Z stroke
4730 2268 M
118 0 V
4730 954 M
118 0 V
stroke
5609 1028 118 186 80 45 0 PatternFill
5668 976 M
0 52 V
0 186 R
0 199 V
stroke
5609 1028 N
118 0 V
0 186 V
-118 0 V
0 -186 V
Z stroke
5609 1413 M
118 0 V
5609 976 M
118 0 V
stroke
6487 1036 118 881 80 45 0 PatternFill
6546 967 M
0 69 V
0 881 R
0 635 V
stroke
6487 1036 N
118 0 V
0 881 V
-118 0 V
0 -881 V
Z stroke
6487 2552 M
118 0 V
6487 967 M
118 0 V
% End plot #3
% Begin plot #4
stroke
LTb
LCb setrgbcolor

 /TransparentPatterns true def
1214 1282 118 0 80 -45 0 PatternFill
1273 1282 M
stroke
1214 1282 N
118 0 V
-118 0 V
Z stroke
1214 1282 M
118 0 V
-118 0 R
118 0 V
stroke

 /TransparentPatterns true def
2093 1358 118 0 80 -45 0 PatternFill
2152 1358 M
stroke
2093 1358 N
118 0 V
-118 0 V
Z stroke
2093 1358 M
118 0 V
-118 0 R
118 0 V
stroke

 /TransparentPatterns true def
2972 1367 118 0 80 -45 0 PatternFill
3031 1367 M
stroke
2972 1367 N
118 0 V
-118 0 V
Z stroke
2972 1367 M
118 0 V
-118 0 R
118 0 V
stroke

 /TransparentPatterns true def
3851 1206 118 0 80 -45 0 PatternFill
3910 1206 M
stroke
3851 1206 N
118 0 V
-118 0 V
Z stroke
3851 1206 M
118 0 V
-118 0 R
118 0 V
stroke

 /TransparentPatterns true def
4730 1325 118 0 80 -45 0 PatternFill
4789 1325 M
stroke
4730 1325 N
118 0 V
-118 0 V
Z stroke
4730 1325 M
118 0 V
-118 0 R
118 0 V
stroke

 /TransparentPatterns true def
5609 1138 118 0 80 -45 0 PatternFill
5668 1138 M
stroke
5609 1138 N
118 0 V
-118 0 V
Z stroke
5609 1138 M
118 0 V
-118 0 R
118 0 V
stroke

 /TransparentPatterns true def
6487 1478 118 0 80 -45 0 PatternFill
6546 1478 M
stroke
6487 1478 N
118 0 V
-118 0 V
Z stroke
6487 1478 M
118 0 V
-118 0 R
118 0 V
% End plot #4
% Begin plot #5
stroke
LTb
0.00 0.38 0.82 C LCb setrgbcolor
5480 153 M
[ [(Arial) 180.0 0.0 true true 0 (per-flow)]
] -60.0 MRshow
1.000 UL
LTb
0.00 0.38 0.82 C 5588 108 333 90 40 30 0 PatternFill
5588 108 N
333 0 V
0 90 V
-333 0 V
0 -90 V
Z stroke
1.000 UL
LTb
0.00 0.38 0.82 C 1361 1023 118 824 40 30 0 PatternFill
1420 959 M
0 64 V
0 824 R
0 1439 V
stroke
1361 1023 N
118 0 V
0 824 V
-118 0 V
0 -824 V
Z stroke
1361 3286 M
118 0 V
1361 959 M
118 0 V
stroke
2240 1057 118 1138 40 30 0 PatternFill
2299 969 M
0 88 V
0 1138 R
0 1346 V
stroke
2240 1057 N
118 0 V
0 1138 V
-118 0 V
0 -1138 V
Z stroke
2240 3541 M
118 0 V
2240 969 M
118 0 V
stroke
3119 1078 118 1285 40 30 0 PatternFill
3178 976 M
0 102 V
0 1285 R
0 1283 V
stroke
3119 1078 N
118 0 V
0 1285 V
-118 0 V
0 -1285 V
Z stroke
3119 3646 M
118 0 V
3119 976 M
118 0 V
stroke
3997 998 118 464 40 30 0 PatternFill
4056 953 M
0 45 V
0 464 R
0 1355 V
stroke
3997 998 N
118 0 V
0 464 V
-118 0 V
0 -464 V
Z stroke
3997 2817 M
118 0 V
3997 953 M
118 0 V
stroke
4876 1088 118 1263 40 30 0 PatternFill
4935 989 M
0 99 V
0 1263 R
0 1303 V
stroke
4876 1088 N
118 0 V
0 1263 V
-118 0 V
0 -1263 V
Z stroke
4876 3654 M
118 0 V
4876 989 M
118 0 V
stroke
5755 1039 118 201 40 30 0 PatternFill
5814 979 M
0 60 V
0 201 R
0 233 V
stroke
5755 1039 N
118 0 V
0 201 V
-118 0 V
0 -201 V
Z stroke
5755 1473 M
118 0 V
5755 979 M
118 0 V
stroke
6634 1123 118 1494 40 30 0 PatternFill
6693 991 M
0 132 V
0 1494 R
0 1248 V
stroke
6634 1123 N
118 0 V
0 1494 V
-118 0 V
0 -1494 V
Z stroke
6634 3865 M
118 0 V
6634 991 M
118 0 V
% End plot #5
% Begin plot #6
stroke
LTb
LCb setrgbcolor

 /TransparentPatterns true def
1361 1512 118 0 40 -30 0 PatternFill
1420 1512 M
stroke
1361 1512 N
118 0 V
-118 0 V
Z stroke
1361 1512 M
118 0 V
-118 0 R
118 0 V
stroke

 /TransparentPatterns true def
2240 1694 118 0 40 -30 0 PatternFill
2299 1694 M
stroke
2240 1694 N
118 0 V
-118 0 V
Z stroke
2240 1694 M
118 0 V
-118 0 R
118 0 V
stroke

 /TransparentPatterns true def
3119 1750 118 0 40 -30 0 PatternFill
3178 1750 M
stroke
3119 1750 N
118 0 V
-118 0 V
Z stroke
3119 1750 M
118 0 V
-118 0 R
118 0 V
stroke

 /TransparentPatterns true def
3997 1329 118 0 40 -30 0 PatternFill
4056 1329 M
stroke
3997 1329 N
118 0 V
-118 0 V
Z stroke
3997 1329 M
118 0 V
-118 0 R
118 0 V
stroke

 /TransparentPatterns true def
4876 1771 118 0 40 -30 0 PatternFill
4935 1771 M
stroke
4876 1771 N
118 0 V
-118 0 V
Z stroke
4876 1771 M
118 0 V
-118 0 R
118 0 V
stroke

 /TransparentPatterns true def
5755 1160 118 0 40 -30 0 PatternFill
5814 1160 M
stroke
5755 1160 N
118 0 V
-118 0 V
Z stroke
5755 1160 M
118 0 V
-118 0 R
118 0 V
stroke

 /TransparentPatterns true def
6634 1898 118 0 40 -30 0 PatternFill
6693 1898 M
stroke
6634 1898 N
118 0 V
-118 0 V
Z stroke
6634 1898 M
118 0 V
-118 0 R
118 0 V
% End plot #6
stroke
2.000 UL
LTb
LCb setrgbcolor
1.000 UP
1.000 UL
LTb
0.00 0.00 0.00 C 1.000 UL
LTb
0.00 0.00 0.00 C 0.500 UL
LTa
0.50 0.50 0.50 C 8180 820 M
5859 0 V
stroke
1.000 UL
LTb
0.00 0.00 0.00 C 8180 820 M
63 0 V
5796 0 R
-63 0 V
stroke
8060 820 M
[ [(Arial) 200.0 0.0 true true 0 ( 0)]
] -66.7 MRshow
1.000 UL
LTb
0.00 0.00 0.00 C 0.500 UL
LTa
0.50 0.50 0.50 C 8180 1423 M
5859 0 V
stroke
1.000 UL
LTb
0.00 0.00 0.00 C 8180 1423 M
63 0 V
5796 0 R
-63 0 V
stroke
8060 1423 M
[ [(Arial) 200.0 0.0 true true 0 ( 20)]
] -66.7 MRshow
1.000 UL
LTb
0.00 0.00 0.00 C 0.500 UL
LTa
0.50 0.50 0.50 C 8180 2026 M
5859 0 V
stroke
1.000 UL
LTb
0.00 0.00 0.00 C 8180 2026 M
63 0 V
5796 0 R
-63 0 V
stroke
8060 2026 M
[ [(Arial) 200.0 0.0 true true 0 ( 40)]
] -66.7 MRshow
1.000 UL
LTb
0.00 0.00 0.00 C 0.500 UL
LTa
0.50 0.50 0.50 C 8180 2630 M
5859 0 V
stroke
1.000 UL
LTb
0.00 0.00 0.00 C 8180 2630 M
63 0 V
5796 0 R
-63 0 V
stroke
8060 2630 M
[ [(Arial) 200.0 0.0 true true 0 ( 60)]
] -66.7 MRshow
1.000 UL
LTb
0.00 0.00 0.00 C 0.500 UL
LTa
0.50 0.50 0.50 C 8180 3233 M
5859 0 V
stroke
1.000 UL
LTb
0.00 0.00 0.00 C 8180 3233 M
63 0 V
5796 0 R
-63 0 V
stroke
8060 3233 M
[ [(Arial) 200.0 0.0 true true 0 ( 80)]
] -66.7 MRshow
1.000 UL
LTb
0.00 0.00 0.00 C 0.500 UL
LTa
0.50 0.50 0.50 C 8180 3836 M
5859 0 V
stroke
1.000 UL
LTb
0.00 0.00 0.00 C 8180 3836 M
63 0 V
5796 0 R
-63 0 V
stroke
8060 3836 M
[ [(Arial) 200.0 0.0 true true 0 ( 100)]
] -66.7 MRshow
1.000 UL
LTb
0.00 0.00 0.00 C 0.500 UL
LTa
0.50 0.50 0.50 C 8180 4439 M
5859 0 V
stroke
1.000 UL
LTb
0.00 0.00 0.00 C 8180 4439 M
63 0 V
5796 0 R
-63 0 V
stroke
8060 4439 M
[ [(Arial) 200.0 0.0 true true 0 ( 120)]
] -66.7 MRshow
1.000 UL
LTb
0.00 0.00 0.00 C 0.500 UL
LTa
0.50 0.50 0.50 C 8473 820 M
0 3619 V
stroke
1.000 UL
LTb
0.00 0.00 0.00 C 8473 820 M
0 63 V
0 3556 R
0 -63 V
stroke
8473 620 M
[ [(Arial) 200.0 0.0 true true 0 (NewReno)]
] -66.7 MCshow
1.000 UL
LTb
0.00 0.00 0.00 C 0.500 UL
LTa
0.50 0.50 0.50 C 9352 820 M
0 3619 V
stroke
1.000 UL
LTb
0.00 0.00 0.00 C 9352 820 M
0 63 V
0 3556 R
0 -63 V
stroke
9352 620 M
[ [(Arial) 200.0 0.0 true true 0 (Cubic)]
] -66.7 MCshow
1.000 UL
LTb
0.00 0.00 0.00 C 0.500 UL
LTa
0.50 0.50 0.50 C 10231 820 M
0 3619 V
stroke
1.000 UL
LTb
0.00 0.00 0.00 C 10231 820 M
0 63 V
0 3556 R
0 -63 V
stroke
10231 620 M
[ [(Arial) 200.0 0.0 true true 0 (HighSpeed)]
] -66.7 MCshow
1.000 UL
LTb
0.00 0.00 0.00 C 0.500 UL
LTa
0.50 0.50 0.50 C 11110 820 M
0 3619 V
stroke
1.000 UL
LTb
0.00 0.00 0.00 C 11110 820 M
0 63 V
0 3556 R
0 -63 V
stroke
11110 620 M
[ [(Arial) 200.0 0.0 true true 0 (Westwood)]
] -66.7 MCshow
1.000 UL
LTb
0.00 0.00 0.00 C 0.500 UL
LTa
0.50 0.50 0.50 C 11988 820 M
0 3619 V
stroke
1.000 UL
LTb
0.00 0.00 0.00 C 11988 820 M
0 63 V
0 3556 R
0 -63 V
stroke
11988 620 M
[ [(Arial) 200.0 0.0 true true 0 (Hybla)]
] -66.7 MCshow
1.000 UL
LTb
0.00 0.00 0.00 C 0.500 UL
LTa
0.50 0.50 0.50 C 12867 820 M
0 3619 V
stroke
1.000 UL
LTb
0.00 0.00 0.00 C 12867 820 M
0 63 V
0 3556 R
0 -63 V
stroke
12867 620 M
[ [(Arial) 200.0 0.0 true true 0 (Vegas)]
] -66.7 MCshow
1.000 UL
LTb
0.00 0.00 0.00 C 0.500 UL
LTa
0.50 0.50 0.50 C 13746 820 M
0 3619 V
stroke
1.000 UL
LTb
0.00 0.00 0.00 C 13746 820 M
0 63 V
0 3556 R
0 -63 V
stroke
13746 620 M
[ [(Arial) 200.0 0.0 true true 0 (Scalable)]
] -66.7 MCshow
1.000 UL
LTb
0.00 0.00 0.00 C 1.000 UL
LTB
0.00 0.00 0.00 C 8180 4439 M
0 -3619 V
5859 0 V
0 3619 R
-5859 0 R
1.000 UP
stroke
LTb
0.00 0.00 0.00 C LCb setrgbcolor
7360 2629 M
currentpoint gsave translate -270 rotate 0 0 moveto
[ [(Arial) 200.0 0.0 true true 0 (File download time \(s\))]
] -66.7 MCshow
grestore
LTb
LCb setrgbcolor
11109 320 M
[ [(Arial) 200.0 0.0 true true 0 (TCP)]
] -66.7 MCshow
LTb
LCb setrgbcolor
11109 4739 M
[ [(Arial) 200.0 0.0 true true 0 (b\) File download time)]
] -66.7 MCshow
% Begin plot #1
1.000 UL
LTb
0.60 0.60 0.00 C LCb setrgbcolor
9854 153 M
[ [(Arial) 180.0 0.0 true true 0 (olsr)]
] -60.0 MRshow
1.000 UL
LTb
0.60 0.60 0.00 C 9962 108 333 90 80 -45 0 PatternFill
9962 108 N
333 0 V
0 90 V
-333 0 V
0 -90 V
Z stroke
1.000 UL
LTb
0.60 0.60 0.00 C 8268 1272 118 460 80 -45 0 PatternFill
8327 925 M
0 347 V
0 460 R
0 857 V
stroke
8268 1272 N
118 0 V
0 460 V
-118 0 V
0 -460 V
Z stroke
8268 2589 M
118 0 V
8268 925 M
118 0 V
stroke
9147 1231 118 606 80 -45 0 PatternFill
9206 912 M
0 319 V
0 606 R
0 1514 V
stroke
9147 1231 N
118 0 V
0 606 V
-118 0 V
0 -606 V
Z stroke
9147 3351 M
118 0 V
9147 912 M
118 0 V
stroke
10026 1254 118 393 80 -45 0 PatternFill
10085 908 M
0 346 V
0 393 R
0 400 V
stroke
10026 1254 N
118 0 V
0 393 V
-118 0 V
0 -393 V
Z stroke
10026 2047 M
118 0 V
10026 908 M
118 0 V
stroke
10904 1405 118 539 80 -45 0 PatternFill
10963 997 M
0 408 V
0 539 R
0 1258 V
stroke
10904 1405 N
118 0 V
0 539 V
-118 0 V
0 -539 V
Z stroke
10904 3202 M
118 0 V
10904 997 M
118 0 V
stroke
11783 1235 118 426 80 -45 0 PatternFill
11842 909 M
0 326 V
0 426 R
0 552 V
stroke
11783 1235 N
118 0 V
0 426 V
-118 0 V
0 -426 V
Z stroke
11783 2213 M
118 0 V
11783 909 M
118 0 V
stroke
12662 1714 118 879 80 -45 0 PatternFill
12721 907 M
0 807 V
0 879 R
0 487 V
stroke
12662 1714 N
118 0 V
0 879 V
-118 0 V
0 -879 V
Z stroke
12662 3080 M
118 0 V
12662 907 M
118 0 V
stroke
13541 1220 118 394 80 -45 0 PatternFill
13600 914 M
0 306 V
0 394 R
0 440 V
stroke
13541 1220 N
118 0 V
0 394 V
-118 0 V
0 -394 V
Z stroke
13541 2054 M
118 0 V
13541 914 M
118 0 V
% End plot #1
% Begin plot #2
stroke
LTb
LCb setrgbcolor

 /TransparentPatterns true def
8268 1503 118 0 40 30 0 PatternFill
8327 1503 M
stroke
8268 1503 N
118 0 V
-118 0 V
Z stroke
8268 1503 M
118 0 V
-118 0 R
118 0 V
stroke

 /TransparentPatterns true def
9147 1569 118 0 40 30 0 PatternFill
9206 1569 M
stroke
9147 1569 N
118 0 V
-118 0 V
Z stroke
9147 1569 M
118 0 V
-118 0 R
118 0 V
stroke

 /TransparentPatterns true def
10026 1433 118 0 40 30 0 PatternFill
10085 1433 M
stroke
10026 1433 N
118 0 V
-118 0 V
Z stroke
10026 1433 M
118 0 V
-118 0 R
118 0 V
stroke

 /TransparentPatterns true def
10904 1664 118 0 40 30 0 PatternFill
10963 1664 M
stroke
10904 1664 N
118 0 V
-118 0 V
Z stroke
10904 1664 M
118 0 V
-118 0 R
118 0 V
stroke

 /TransparentPatterns true def
11783 1454 118 0 40 30 0 PatternFill
11842 1454 M
stroke
11783 1454 N
118 0 V
-118 0 V
Z stroke
11783 1454 M
118 0 V
-118 0 R
118 0 V
stroke

 /TransparentPatterns true def
12662 2144 118 0 40 30 0 PatternFill
12721 2144 M
stroke
12662 2144 N
118 0 V
-118 0 V
Z stroke
12662 2144 M
118 0 V
-118 0 R
118 0 V
stroke

 /TransparentPatterns true def
13541 1409 118 0 40 30 0 PatternFill
13600 1409 M
stroke
13541 1409 N
118 0 V
-118 0 V
Z stroke
13541 1409 M
118 0 V
-118 0 R
118 0 V
% End plot #2
% Begin plot #3
stroke
LTb
0.00 0.00 0.63 C LCb setrgbcolor
11267 153 M
[ [(Arial) 180.0 0.0 true true 0 (per-packet)]
] -60.0 MRshow
1.000 UL
LTb
0.00 0.00 0.63 C 11375 108 333 90 80 45 0 PatternFill
11375 108 N
333 0 V
0 90 V
-333 0 V
0 -90 V
Z stroke
1.000 UL
LTb
0.00 0.00 0.63 C 8414 1011 118 2080 80 45 0 PatternFill
8473 914 M
0 97 V
0 2080 R
0 757 V
stroke
8414 1011 N
118 0 V
0 2080 V
-118 0 V
0 -2080 V
Z stroke
8414 3848 M
118 0 V
8414 914 M
118 0 V
stroke
9293 956 118 2296 80 45 0 PatternFill
9352 911 M
0 45 V
0 2296 R
0 485 V
stroke
9293 956 N
118 0 V
0 2296 V
-118 0 V
0 -2296 V
Z stroke
9293 3737 M
118 0 V
9293 911 M
118 0 V
stroke
10172 962 118 1682 80 45 0 PatternFill
10231 886 M
0 76 V
0 1682 R
0 502 V
stroke
10172 962 N
118 0 V
0 1682 V
-118 0 V
0 -1682 V
Z stroke
10172 3146 M
118 0 V
10172 886 M
118 0 V
stroke
11051 1172 118 2192 80 45 0 PatternFill
11110 1016 M
0 156 V
0 2192 R
0 495 V
stroke
11051 1172 N
118 0 V
0 2192 V
-118 0 V
0 -2192 V
Z stroke
11051 3859 M
118 0 V
11051 1016 M
118 0 V
stroke
11930 1012 118 1639 80 45 0 PatternFill
11989 920 M
0 92 V
0 1639 R
0 571 V
stroke
11930 1012 N
118 0 V
0 1639 V
-118 0 V
0 -1639 V
Z stroke
11930 3222 M
118 0 V
11930 920 M
118 0 V
stroke
12809 1821 118 1100 80 45 0 PatternFill
12868 925 M
0 896 V
0 1100 R
0 648 V
stroke
12809 1821 N
118 0 V
0 1100 V
-118 0 V
0 -1100 V
Z stroke
12809 3569 M
118 0 V
12809 925 M
118 0 V
stroke
13687 954 118 1393 80 45 0 PatternFill
13746 895 M
0 59 V
0 1393 R
0 648 V
stroke
13687 954 N
118 0 V
0 1393 V
-118 0 V
0 -1393 V
Z stroke
13687 2995 M
118 0 V
13687 895 M
118 0 V
% End plot #3
% Begin plot #4
stroke
LTb
LCb setrgbcolor

 /TransparentPatterns true def
8414 1879 118 0 80 -45 0 PatternFill
8473 1879 M
stroke
8414 1879 N
118 0 V
-118 0 V
Z stroke
8414 1879 M
118 0 V
-118 0 R
118 0 V
stroke

 /TransparentPatterns true def
9293 1884 118 0 80 -45 0 PatternFill
9352 1884 M
stroke
9293 1884 N
118 0 V
-118 0 V
Z stroke
9293 1884 M
118 0 V
-118 0 R
118 0 V
stroke

 /TransparentPatterns true def
10172 1634 118 0 80 -45 0 PatternFill
10231 1634 M
stroke
10172 1634 N
118 0 V
-118 0 V
Z stroke
10172 1634 M
118 0 V
-118 0 R
118 0 V
stroke

 /TransparentPatterns true def
11051 2033 118 0 80 -45 0 PatternFill
11110 2033 M
stroke
11051 2033 N
118 0 V
-118 0 V
Z stroke
11051 2033 M
118 0 V
-118 0 R
118 0 V
stroke

 /TransparentPatterns true def
11930 1640 118 0 80 -45 0 PatternFill
11989 1640 M
stroke
11930 1640 N
118 0 V
-118 0 V
Z stroke
11930 1640 M
118 0 V
-118 0 R
118 0 V
stroke

 /TransparentPatterns true def
12809 2373 118 0 80 -45 0 PatternFill
12868 2373 M
stroke
12809 2373 N
118 0 V
-118 0 V
Z stroke
12809 2373 M
118 0 V
-118 0 R
118 0 V
stroke

 /TransparentPatterns true def
13687 1498 118 0 80 -45 0 PatternFill
13746 1498 M
stroke
13687 1498 N
118 0 V
-118 0 V
Z stroke
13687 1498 M
118 0 V
-118 0 R
118 0 V
% End plot #4
% Begin plot #5
stroke
LTb
0.00 0.38 0.82 C LCb setrgbcolor
12680 153 M
[ [(Arial) 180.0 0.0 true true 0 (per-flow)]
] -60.0 MRshow
1.000 UL
LTb
0.00 0.38 0.82 C 12788 108 333 90 40 30 0 PatternFill
12788 108 N
333 0 V
0 90 V
-333 0 V
0 -90 V
Z stroke
1.000 UL
LTb
0.00 0.38 0.82 C 8561 1030 118 421 40 30 0 PatternFill
8620 925 M
0 105 V
0 421 R
0 1274 V
stroke
8561 1030 N
118 0 V
0 421 V
-118 0 V
0 -421 V
Z stroke
8561 2725 M
118 0 V
8561 925 M
118 0 V
stroke
9440 956 118 369 40 30 0 PatternFill
9499 893 M
0 63 V
0 369 R
0 1452 V
stroke
9440 956 N
118 0 V
0 369 V
-118 0 V
0 -369 V
Z stroke
9440 2777 M
118 0 V
9440 893 M
118 0 V
stroke
10319 976 118 266 40 30 0 PatternFill
10378 880 M
0 96 V
0 266 R
0 586 V
stroke
10319 976 N
118 0 V
0 266 V
-118 0 V
0 -266 V
Z stroke
10319 1828 M
118 0 V
10319 880 M
118 0 V
stroke
11197 1220 118 457 40 30 0 PatternFill
11256 1015 M
0 205 V
0 457 R
0 1568 V
stroke
11197 1220 N
118 0 V
0 457 V
-118 0 V
0 -457 V
Z stroke
11197 3245 M
118 0 V
11197 1015 M
118 0 V
stroke
12076 1023 118 166 40 30 0 PatternFill
12135 898 M
0 125 V
0 166 R
0 686 V
stroke
12076 1023 N
118 0 V
0 166 V
-118 0 V
0 -166 V
Z stroke
12076 1875 M
118 0 V
12076 898 M
118 0 V
stroke
12955 1679 118 739 40 30 0 PatternFill
13014 942 M
0 737 V
0 739 R
0 658 V
stroke
12955 1679 N
118 0 V
0 739 V
-118 0 V
0 -739 V
Z stroke
12955 3076 M
118 0 V
12955 942 M
118 0 V
stroke
13834 970 118 181 40 30 0 PatternFill
13893 906 M
0 64 V
0 181 R
0 455 V
stroke
13834 970 N
118 0 V
0 181 V
-118 0 V
0 -181 V
Z stroke
13834 1606 M
118 0 V
13834 906 M
118 0 V
% End plot #5
% Begin plot #6
stroke
LTb
LCb setrgbcolor

 /TransparentPatterns true def
8561 1240 118 0 40 -30 0 PatternFill
8620 1240 M
stroke
8561 1240 N
118 0 V
-118 0 V
Z stroke
8561 1240 M
118 0 V
-118 0 R
118 0 V
stroke

 /TransparentPatterns true def
9440 1174 118 0 40 -30 0 PatternFill
9499 1174 M
stroke
9440 1174 N
118 0 V
-118 0 V
Z stroke
9440 1174 M
118 0 V
-118 0 R
118 0 V
stroke

 /TransparentPatterns true def
10319 1116 118 0 40 -30 0 PatternFill
10378 1116 M
stroke
10319 1116 N
118 0 V
-118 0 V
Z stroke
10319 1116 M
118 0 V
-118 0 R
118 0 V
stroke

 /TransparentPatterns true def
11197 1486 118 0 40 -30 0 PatternFill
11256 1486 M
stroke
11197 1486 N
118 0 V
-118 0 V
Z stroke
11197 1486 M
118 0 V
-118 0 R
118 0 V
stroke

 /TransparentPatterns true def
12076 1128 118 0 40 -30 0 PatternFill
12135 1128 M
stroke
12076 1128 N
118 0 V
-118 0 V
Z stroke
12076 1128 M
118 0 V
-118 0 R
118 0 V
stroke

 /TransparentPatterns true def
12955 2046 118 0 40 -30 0 PatternFill
13014 2046 M
stroke
12955 2046 N
118 0 V
-118 0 V
Z stroke
12955 2046 M
118 0 V
-118 0 R
118 0 V
stroke

 /TransparentPatterns true def
13834 1076 118 0 40 -30 0 PatternFill
13893 1076 M
stroke
13834 1076 N
118 0 V
-118 0 V
Z stroke
13834 1076 M
118 0 V
-118 0 R
118 0 V
% End plot #6
stroke
2.000 UL
LTb
LCb setrgbcolor
1.000 UP
1.000 UL
LTb
0.00 0.00 0.00 C stroke
grestore
end
showpage
%%Trailer
%%DocumentFonts: Arial
