%!PS-Adobe-2.0 EPSF-2.0
%%Title: 100UE-download-30Mbps.eps
%%Creator: gnuplot 5.0 patchlevel 3
%%CreationDate: Thu Jun  2 09:48:01 2016
%%DocumentFonts: (atend)
%%BoundingBox: 50 50 770 302
%%EndComments
%%BeginProlog
/gnudict 256 dict def
gnudict begin
%
% The following true/false flags may be edited by hand if desired.
% The unit line width and grayscale image gamma correction may also be changed.
%
/Color true def
/Blacktext false def
/Solid false def
/Dashlength 3 def
/Landscape false def
/Level1 false def
/Level3 false def
/Rounded false def
/ClipToBoundingBox false def
/SuppressPDFMark false def
/TransparentPatterns false def
/gnulinewidth 15.000 def
/userlinewidth gnulinewidth def
/Gamma 1.0 def
/BackgroundColor {-1.000 -1.000 -1.000} def
%
/vshift -66 def
/dl1 {
  10.0 Dashlength userlinewidth gnulinewidth div mul mul mul
  Rounded { currentlinewidth 0.75 mul sub dup 0 le { pop 0.01 } if } if
} def
/dl2 {
  10.0 Dashlength userlinewidth gnulinewidth div mul mul mul
  Rounded { currentlinewidth 0.75 mul add } if
} def
/hpt_ 31.5 def
/vpt_ 31.5 def
/hpt hpt_ def
/vpt vpt_ def
/doclip {
  ClipToBoundingBox {
    newpath 50 50 moveto 770 50 lineto 770 302 lineto 50 302 lineto closepath
    clip
  } if
} def
%
% Gnuplot Prolog Version 5.1 (Oct 2015)
%
%/SuppressPDFMark true def
%
/M {moveto} bind def
/L {lineto} bind def
/R {rmoveto} bind def
/V {rlineto} bind def
/N {newpath moveto} bind def
/Z {closepath} bind def
/C {setrgbcolor} bind def
/f {rlineto fill} bind def
/g {setgray} bind def
/Gshow {show} def   % May be redefined later in the file to support UTF-8
/vpt2 vpt 2 mul def
/hpt2 hpt 2 mul def
/Lshow {currentpoint stroke M 0 vshift R 
	Blacktext {gsave 0 setgray textshow grestore} {textshow} ifelse} def
/Rshow {currentpoint stroke M dup stringwidth pop neg vshift R
	Blacktext {gsave 0 setgray textshow grestore} {textshow} ifelse} def
/Cshow {currentpoint stroke M dup stringwidth pop -2 div vshift R 
	Blacktext {gsave 0 setgray textshow grestore} {textshow} ifelse} def
/UP {dup vpt_ mul /vpt exch def hpt_ mul /hpt exch def
  /hpt2 hpt 2 mul def /vpt2 vpt 2 mul def} def
/DL {Color {setrgbcolor Solid {pop []} if 0 setdash}
 {pop pop pop 0 setgray Solid {pop []} if 0 setdash} ifelse} def
/BL {stroke userlinewidth 2 mul setlinewidth
	Rounded {1 setlinejoin 1 setlinecap} if} def
/AL {stroke userlinewidth 2 div setlinewidth
	Rounded {1 setlinejoin 1 setlinecap} if} def
/UL {dup gnulinewidth mul /userlinewidth exch def
	dup 1 lt {pop 1} if 10 mul /udl exch def} def
/PL {stroke userlinewidth setlinewidth
	Rounded {1 setlinejoin 1 setlinecap} if} def
3.8 setmiterlimit
% Classic Line colors (version 5.0)
/LCw {1 1 1} def
/LCb {0 0 0} def
/LCa {0 0 0} def
/LC0 {1 0 0} def
/LC1 {0 1 0} def
/LC2 {0 0 1} def
/LC3 {1 0 1} def
/LC4 {0 1 1} def
/LC5 {1 1 0} def
/LC6 {0 0 0} def
/LC7 {1 0.3 0} def
/LC8 {0.5 0.5 0.5} def
% Default dash patterns (version 5.0)
/LTB {BL [] LCb DL} def
/LTw {PL [] 1 setgray} def
/LTb {PL [] LCb DL} def
/LTa {AL [1 udl mul 2 udl mul] 0 setdash LCa setrgbcolor} def
/LT0 {PL [] LC0 DL} def
/LT1 {PL [2 dl1 3 dl2] LC1 DL} def
/LT2 {PL [1 dl1 1.5 dl2] LC2 DL} def
/LT3 {PL [6 dl1 2 dl2 1 dl1 2 dl2] LC3 DL} def
/LT4 {PL [1 dl1 2 dl2 6 dl1 2 dl2 1 dl1 2 dl2] LC4 DL} def
/LT5 {PL [4 dl1 2 dl2] LC5 DL} def
/LT6 {PL [1.5 dl1 1.5 dl2 1.5 dl1 1.5 dl2 1.5 dl1 6 dl2] LC6 DL} def
/LT7 {PL [3 dl1 3 dl2 1 dl1 3 dl2] LC7 DL} def
/LT8 {PL [2 dl1 2 dl2 2 dl1 6 dl2] LC8 DL} def
/SL {[] 0 setdash} def
/Pnt {stroke [] 0 setdash gsave 1 setlinecap M 0 0 V stroke grestore} def
/Dia {stroke [] 0 setdash 2 copy vpt add M
  hpt neg vpt neg V hpt vpt neg V
  hpt vpt V hpt neg vpt V closepath stroke
  Pnt} def
/Pls {stroke [] 0 setdash vpt sub M 0 vpt2 V
  currentpoint stroke M
  hpt neg vpt neg R hpt2 0 V stroke
 } def
/Box {stroke [] 0 setdash 2 copy exch hpt sub exch vpt add M
  0 vpt2 neg V hpt2 0 V 0 vpt2 V
  hpt2 neg 0 V closepath stroke
  Pnt} def
/Crs {stroke [] 0 setdash exch hpt sub exch vpt add M
  hpt2 vpt2 neg V currentpoint stroke M
  hpt2 neg 0 R hpt2 vpt2 V stroke} def
/TriU {stroke [] 0 setdash 2 copy vpt 1.12 mul add M
  hpt neg vpt -1.62 mul V
  hpt 2 mul 0 V
  hpt neg vpt 1.62 mul V closepath stroke
  Pnt} def
/Star {2 copy Pls Crs} def
/BoxF {stroke [] 0 setdash exch hpt sub exch vpt add M
  0 vpt2 neg V hpt2 0 V 0 vpt2 V
  hpt2 neg 0 V closepath fill} def
/TriUF {stroke [] 0 setdash vpt 1.12 mul add M
  hpt neg vpt -1.62 mul V
  hpt 2 mul 0 V
  hpt neg vpt 1.62 mul V closepath fill} def
/TriD {stroke [] 0 setdash 2 copy vpt 1.12 mul sub M
  hpt neg vpt 1.62 mul V
  hpt 2 mul 0 V
  hpt neg vpt -1.62 mul V closepath stroke
  Pnt} def
/TriDF {stroke [] 0 setdash vpt 1.12 mul sub M
  hpt neg vpt 1.62 mul V
  hpt 2 mul 0 V
  hpt neg vpt -1.62 mul V closepath fill} def
/DiaF {stroke [] 0 setdash vpt add M
  hpt neg vpt neg V hpt vpt neg V
  hpt vpt V hpt neg vpt V closepath fill} def
/Pent {stroke [] 0 setdash 2 copy gsave
  translate 0 hpt M 4 {72 rotate 0 hpt L} repeat
  closepath stroke grestore Pnt} def
/PentF {stroke [] 0 setdash gsave
  translate 0 hpt M 4 {72 rotate 0 hpt L} repeat
  closepath fill grestore} def
/Circle {stroke [] 0 setdash 2 copy
  hpt 0 360 arc stroke Pnt} def
/CircleF {stroke [] 0 setdash hpt 0 360 arc fill} def
/C0 {BL [] 0 setdash 2 copy moveto vpt 90 450 arc} bind def
/C1 {BL [] 0 setdash 2 copy moveto
	2 copy vpt 0 90 arc closepath fill
	vpt 0 360 arc closepath} bind def
/C2 {BL [] 0 setdash 2 copy moveto
	2 copy vpt 90 180 arc closepath fill
	vpt 0 360 arc closepath} bind def
/C3 {BL [] 0 setdash 2 copy moveto
	2 copy vpt 0 180 arc closepath fill
	vpt 0 360 arc closepath} bind def
/C4 {BL [] 0 setdash 2 copy moveto
	2 copy vpt 180 270 arc closepath fill
	vpt 0 360 arc closepath} bind def
/C5 {BL [] 0 setdash 2 copy moveto
	2 copy vpt 0 90 arc
	2 copy moveto
	2 copy vpt 180 270 arc closepath fill
	vpt 0 360 arc} bind def
/C6 {BL [] 0 setdash 2 copy moveto
	2 copy vpt 90 270 arc closepath fill
	vpt 0 360 arc closepath} bind def
/C7 {BL [] 0 setdash 2 copy moveto
	2 copy vpt 0 270 arc closepath fill
	vpt 0 360 arc closepath} bind def
/C8 {BL [] 0 setdash 2 copy moveto
	2 copy vpt 270 360 arc closepath fill
	vpt 0 360 arc closepath} bind def
/C9 {BL [] 0 setdash 2 copy moveto
	2 copy vpt 270 450 arc closepath fill
	vpt 0 360 arc closepath} bind def
/C10 {BL [] 0 setdash 2 copy 2 copy moveto vpt 270 360 arc closepath fill
	2 copy moveto
	2 copy vpt 90 180 arc closepath fill
	vpt 0 360 arc closepath} bind def
/C11 {BL [] 0 setdash 2 copy moveto
	2 copy vpt 0 180 arc closepath fill
	2 copy moveto
	2 copy vpt 270 360 arc closepath fill
	vpt 0 360 arc closepath} bind def
/C12 {BL [] 0 setdash 2 copy moveto
	2 copy vpt 180 360 arc closepath fill
	vpt 0 360 arc closepath} bind def
/C13 {BL [] 0 setdash 2 copy moveto
	2 copy vpt 0 90 arc closepath fill
	2 copy moveto
	2 copy vpt 180 360 arc closepath fill
	vpt 0 360 arc closepath} bind def
/C14 {BL [] 0 setdash 2 copy moveto
	2 copy vpt 90 360 arc closepath fill
	vpt 0 360 arc} bind def
/C15 {BL [] 0 setdash 2 copy vpt 0 360 arc closepath fill
	vpt 0 360 arc closepath} bind def
/Rec {newpath 4 2 roll moveto 1 index 0 rlineto 0 exch rlineto
	neg 0 rlineto closepath} bind def
/Square {dup Rec} bind def
/Bsquare {vpt sub exch vpt sub exch vpt2 Square} bind def
/S0 {BL [] 0 setdash 2 copy moveto 0 vpt rlineto BL Bsquare} bind def
/S1 {BL [] 0 setdash 2 copy vpt Square fill Bsquare} bind def
/S2 {BL [] 0 setdash 2 copy exch vpt sub exch vpt Square fill Bsquare} bind def
/S3 {BL [] 0 setdash 2 copy exch vpt sub exch vpt2 vpt Rec fill Bsquare} bind def
/S4 {BL [] 0 setdash 2 copy exch vpt sub exch vpt sub vpt Square fill Bsquare} bind def
/S5 {BL [] 0 setdash 2 copy 2 copy vpt Square fill
	exch vpt sub exch vpt sub vpt Square fill Bsquare} bind def
/S6 {BL [] 0 setdash 2 copy exch vpt sub exch vpt sub vpt vpt2 Rec fill Bsquare} bind def
/S7 {BL [] 0 setdash 2 copy exch vpt sub exch vpt sub vpt vpt2 Rec fill
	2 copy vpt Square fill Bsquare} bind def
/S8 {BL [] 0 setdash 2 copy vpt sub vpt Square fill Bsquare} bind def
/S9 {BL [] 0 setdash 2 copy vpt sub vpt vpt2 Rec fill Bsquare} bind def
/S10 {BL [] 0 setdash 2 copy vpt sub vpt Square fill 2 copy exch vpt sub exch vpt Square fill
	Bsquare} bind def
/S11 {BL [] 0 setdash 2 copy vpt sub vpt Square fill 2 copy exch vpt sub exch vpt2 vpt Rec fill
	Bsquare} bind def
/S12 {BL [] 0 setdash 2 copy exch vpt sub exch vpt sub vpt2 vpt Rec fill Bsquare} bind def
/S13 {BL [] 0 setdash 2 copy exch vpt sub exch vpt sub vpt2 vpt Rec fill
	2 copy vpt Square fill Bsquare} bind def
/S14 {BL [] 0 setdash 2 copy exch vpt sub exch vpt sub vpt2 vpt Rec fill
	2 copy exch vpt sub exch vpt Square fill Bsquare} bind def
/S15 {BL [] 0 setdash 2 copy Bsquare fill Bsquare} bind def
/D0 {gsave translate 45 rotate 0 0 S0 stroke grestore} bind def
/D1 {gsave translate 45 rotate 0 0 S1 stroke grestore} bind def
/D2 {gsave translate 45 rotate 0 0 S2 stroke grestore} bind def
/D3 {gsave translate 45 rotate 0 0 S3 stroke grestore} bind def
/D4 {gsave translate 45 rotate 0 0 S4 stroke grestore} bind def
/D5 {gsave translate 45 rotate 0 0 S5 stroke grestore} bind def
/D6 {gsave translate 45 rotate 0 0 S6 stroke grestore} bind def
/D7 {gsave translate 45 rotate 0 0 S7 stroke grestore} bind def
/D8 {gsave translate 45 rotate 0 0 S8 stroke grestore} bind def
/D9 {gsave translate 45 rotate 0 0 S9 stroke grestore} bind def
/D10 {gsave translate 45 rotate 0 0 S10 stroke grestore} bind def
/D11 {gsave translate 45 rotate 0 0 S11 stroke grestore} bind def
/D12 {gsave translate 45 rotate 0 0 S12 stroke grestore} bind def
/D13 {gsave translate 45 rotate 0 0 S13 stroke grestore} bind def
/D14 {gsave translate 45 rotate 0 0 S14 stroke grestore} bind def
/D15 {gsave translate 45 rotate 0 0 S15 stroke grestore} bind def
/DiaE {stroke [] 0 setdash vpt add M
  hpt neg vpt neg V hpt vpt neg V
  hpt vpt V hpt neg vpt V closepath stroke} def
/BoxE {stroke [] 0 setdash exch hpt sub exch vpt add M
  0 vpt2 neg V hpt2 0 V 0 vpt2 V
  hpt2 neg 0 V closepath stroke} def
/TriUE {stroke [] 0 setdash vpt 1.12 mul add M
  hpt neg vpt -1.62 mul V
  hpt 2 mul 0 V
  hpt neg vpt 1.62 mul V closepath stroke} def
/TriDE {stroke [] 0 setdash vpt 1.12 mul sub M
  hpt neg vpt 1.62 mul V
  hpt 2 mul 0 V
  hpt neg vpt -1.62 mul V closepath stroke} def
/PentE {stroke [] 0 setdash gsave
  translate 0 hpt M 4 {72 rotate 0 hpt L} repeat
  closepath stroke grestore} def
/CircE {stroke [] 0 setdash 
  hpt 0 360 arc stroke} def
/Opaque {gsave closepath 1 setgray fill grestore 0 setgray closepath} def
/DiaW {stroke [] 0 setdash vpt add M
  hpt neg vpt neg V hpt vpt neg V
  hpt vpt V hpt neg vpt V Opaque stroke} def
/BoxW {stroke [] 0 setdash exch hpt sub exch vpt add M
  0 vpt2 neg V hpt2 0 V 0 vpt2 V
  hpt2 neg 0 V Opaque stroke} def
/TriUW {stroke [] 0 setdash vpt 1.12 mul add M
  hpt neg vpt -1.62 mul V
  hpt 2 mul 0 V
  hpt neg vpt 1.62 mul V Opaque stroke} def
/TriDW {stroke [] 0 setdash vpt 1.12 mul sub M
  hpt neg vpt 1.62 mul V
  hpt 2 mul 0 V
  hpt neg vpt -1.62 mul V Opaque stroke} def
/PentW {stroke [] 0 setdash gsave
  translate 0 hpt M 4 {72 rotate 0 hpt L} repeat
  Opaque stroke grestore} def
/CircW {stroke [] 0 setdash 
  hpt 0 360 arc Opaque stroke} def
/BoxFill {gsave Rec 1 setgray fill grestore} def
/Density {
  /Fillden exch def
  currentrgbcolor
  /ColB exch def /ColG exch def /ColR exch def
  /ColR ColR Fillden mul Fillden sub 1 add def
  /ColG ColG Fillden mul Fillden sub 1 add def
  /ColB ColB Fillden mul Fillden sub 1 add def
  ColR ColG ColB setrgbcolor} def
/BoxColFill {gsave Rec PolyFill} def
/PolyFill {gsave Density fill grestore grestore} def
/h {rlineto rlineto rlineto gsave closepath fill grestore} bind def
%
% PostScript Level 1 Pattern Fill routine for rectangles
% Usage: x y w h s a XX PatternFill
%	x,y = lower left corner of box to be filled
%	w,h = width and height of box
%	  a = angle in degrees between lines and x-axis
%	 XX = 0/1 for no/yes cross-hatch
%
/PatternFill {gsave /PFa [ 9 2 roll ] def
  PFa 0 get PFa 2 get 2 div add PFa 1 get PFa 3 get 2 div add translate
  PFa 2 get -2 div PFa 3 get -2 div PFa 2 get PFa 3 get Rec
  TransparentPatterns {} {gsave 1 setgray fill grestore} ifelse
  clip
  currentlinewidth 0.5 mul setlinewidth
  /PFs PFa 2 get dup mul PFa 3 get dup mul add sqrt def
  0 0 M PFa 5 get rotate PFs -2 div dup translate
  0 1 PFs PFa 4 get div 1 add floor cvi
	{PFa 4 get mul 0 M 0 PFs V} for
  0 PFa 6 get ne {
	0 1 PFs PFa 4 get div 1 add floor cvi
	{PFa 4 get mul 0 2 1 roll M PFs 0 V} for
 } if
  stroke grestore} def
%
/languagelevel where
 {pop languagelevel} {1} ifelse
dup 2 lt
	{/InterpretLevel1 true def
	 /InterpretLevel3 false def}
	{/InterpretLevel1 Level1 def
	 2 gt
	    {/InterpretLevel3 Level3 def}
	    {/InterpretLevel3 false def}
	 ifelse }
 ifelse
%
% PostScript level 2 pattern fill definitions
%
/Level2PatternFill {
/Tile8x8 {/PaintType 2 /PatternType 1 /TilingType 1 /BBox [0 0 8 8] /XStep 8 /YStep 8}
	bind def
/KeepColor {currentrgbcolor [/Pattern /DeviceRGB] setcolorspace} bind def
<< Tile8x8
 /PaintProc {0.5 setlinewidth pop 0 0 M 8 8 L 0 8 M 8 0 L stroke} 
>> matrix makepattern
/Pat1 exch def
<< Tile8x8
 /PaintProc {0.5 setlinewidth pop 0 0 M 8 8 L 0 8 M 8 0 L stroke
	0 4 M 4 8 L 8 4 L 4 0 L 0 4 L stroke}
>> matrix makepattern
/Pat2 exch def
<< Tile8x8
 /PaintProc {0.5 setlinewidth pop 0 0 M 0 8 L
	8 8 L 8 0 L 0 0 L fill}
>> matrix makepattern
/Pat3 exch def
<< Tile8x8
 /PaintProc {0.5 setlinewidth pop -4 8 M 8 -4 L
	0 12 M 12 0 L stroke}
>> matrix makepattern
/Pat4 exch def
<< Tile8x8
 /PaintProc {0.5 setlinewidth pop -4 0 M 8 12 L
	0 -4 M 12 8 L stroke}
>> matrix makepattern
/Pat5 exch def
<< Tile8x8
 /PaintProc {0.5 setlinewidth pop -2 8 M 4 -4 L
	0 12 M 8 -4 L 4 12 M 10 0 L stroke}
>> matrix makepattern
/Pat6 exch def
<< Tile8x8
 /PaintProc {0.5 setlinewidth pop -2 0 M 4 12 L
	0 -4 M 8 12 L 4 -4 M 10 8 L stroke}
>> matrix makepattern
/Pat7 exch def
<< Tile8x8
 /PaintProc {0.5 setlinewidth pop 8 -2 M -4 4 L
	12 0 M -4 8 L 12 4 M 0 10 L stroke}
>> matrix makepattern
/Pat8 exch def
<< Tile8x8
 /PaintProc {0.5 setlinewidth pop 0 -2 M 12 4 L
	-4 0 M 12 8 L -4 4 M 8 10 L stroke}
>> matrix makepattern
/Pat9 exch def
/Pattern1 {PatternBgnd KeepColor Pat1 setpattern} bind def
/Pattern2 {PatternBgnd KeepColor Pat2 setpattern} bind def
/Pattern3 {PatternBgnd KeepColor Pat3 setpattern} bind def
/Pattern4 {PatternBgnd KeepColor Landscape {Pat5} {Pat4} ifelse setpattern} bind def
/Pattern5 {PatternBgnd KeepColor Landscape {Pat4} {Pat5} ifelse setpattern} bind def
/Pattern6 {PatternBgnd KeepColor Landscape {Pat9} {Pat6} ifelse setpattern} bind def
/Pattern7 {PatternBgnd KeepColor Landscape {Pat8} {Pat7} ifelse setpattern} bind def
} def
%
%
%End of PostScript Level 2 code
%
/PatternBgnd {
  TransparentPatterns {} {gsave 1 setgray fill grestore} ifelse
} def
%
% Substitute for Level 2 pattern fill codes with
% grayscale if Level 2 support is not selected.
%
/Level1PatternFill {
/Pattern1 {0.250 Density} bind def
/Pattern2 {0.500 Density} bind def
/Pattern3 {0.750 Density} bind def
/Pattern4 {0.125 Density} bind def
/Pattern5 {0.375 Density} bind def
/Pattern6 {0.625 Density} bind def
/Pattern7 {0.875 Density} bind def
} def
%
% Now test for support of Level 2 code
%
Level1 {Level1PatternFill} {Level2PatternFill} ifelse
%
/Symbol-Oblique /Symbol findfont [1 0 .167 1 0 0] makefont
dup length dict begin {1 index /FID eq {pop pop} {def} ifelse} forall
currentdict end definefont pop
%
/MFshow {
   { dup 5 get 3 ge
     { 5 get 3 eq {gsave} {grestore} ifelse }
     {dup dup 0 get findfont exch 1 get scalefont setfont
     [ currentpoint ] exch dup 2 get 0 exch R dup 5 get 2 ne {dup dup 6
     get exch 4 get {textshow} {stringwidth pop 0 R} ifelse }if dup 5 get 0 eq
     {dup 3 get {2 get neg 0 exch R pop} {pop aload pop M} ifelse} {dup 5
     get 1 eq {dup 2 get exch dup 3 get exch 6 get stringwidth pop -2 div
     dup 0 R} {dup 6 get stringwidth pop -2 div 0 R 6 get
     textshow 2 index {aload pop M neg 3 -1 roll neg R pop pop} {pop pop pop
     pop aload pop M} ifelse }ifelse }ifelse }
     ifelse }
   forall} def
/Gswidth {dup type /stringtype eq {stringwidth} {pop (n) stringwidth} ifelse} def
/MFwidth {0 exch { dup 5 get 3 ge { 5 get 3 eq { 0 } { pop } ifelse }
 {dup 3 get{dup dup 0 get findfont exch 1 get scalefont setfont
     6 get Gswidth pop add} {pop} ifelse} ifelse} forall} def
/MLshow { currentpoint stroke M
  0 exch R
  Blacktext {gsave 0 setgray MFshow grestore} {MFshow} ifelse } bind def
/MRshow { currentpoint stroke M
  exch dup MFwidth neg 3 -1 roll R
  Blacktext {gsave 0 setgray MFshow grestore} {MFshow} ifelse } bind def
/MCshow { currentpoint stroke M
  exch dup MFwidth -2 div 3 -1 roll R
  Blacktext {gsave 0 setgray MFshow grestore} {MFshow} ifelse } bind def
/XYsave    { [( ) 1 2 true false 3 ()] } bind def
/XYrestore { [( ) 1 2 true false 4 ()] } bind def
Level1 SuppressPDFMark or 
{} {
/SDict 10 dict def
systemdict /pdfmark known not {
  userdict /pdfmark systemdict /cleartomark get put
} if
SDict begin [
  /Title (100UE-download-30Mbps.eps)
  /Subject (gnuplot plot)
  /Creator (gnuplot 5.0 patchlevel 3)
  /Author (nat)
%  /Producer (gnuplot)
%  /Keywords ()
  /CreationDate (Thu Jun  2 09:48:01 2016)
  /DOCINFO pdfmark
end
} ifelse
%
% Support for boxed text - Ethan A Merritt May 2005
%
/InitTextBox { userdict /TBy2 3 -1 roll put userdict /TBx2 3 -1 roll put
           userdict /TBy1 3 -1 roll put userdict /TBx1 3 -1 roll put
	   /Boxing true def } def
/ExtendTextBox { Boxing
    { gsave dup false charpath pathbbox
      dup TBy2 gt {userdict /TBy2 3 -1 roll put} {pop} ifelse
      dup TBx2 gt {userdict /TBx2 3 -1 roll put} {pop} ifelse
      dup TBy1 lt {userdict /TBy1 3 -1 roll put} {pop} ifelse
      dup TBx1 lt {userdict /TBx1 3 -1 roll put} {pop} ifelse
      grestore } if } def
/PopTextBox { newpath TBx1 TBxmargin sub TBy1 TBymargin sub M
               TBx1 TBxmargin sub TBy2 TBymargin add L
	       TBx2 TBxmargin add TBy2 TBymargin add L
	       TBx2 TBxmargin add TBy1 TBymargin sub L closepath } def
/DrawTextBox { PopTextBox stroke /Boxing false def} def
/FillTextBox { gsave PopTextBox 1 1 1 setrgbcolor fill grestore /Boxing false def} def
0 0 0 0 InitTextBox
/TBxmargin 20 def
/TBymargin 20 def
/Boxing false def
/textshow { ExtendTextBox Gshow } def
%
% redundant definitions for compatibility with prologue.ps older than 5.0.2
/LTB {BL [] LCb DL} def
/LTb {PL [] LCb DL} def
end
%%EndProlog
%%Page: 1 1
gnudict begin
gsave
doclip
50 50 translate
0.050 0.050 scale
0 setgray
newpath
(Arial) findfont 200 scalefont setfont
BackgroundColor 0 lt 3 1 roll 0 lt exch 0 lt or or not {BackgroundColor C 1.000 0 0 14400.00 5040.00 BoxColFill} if
1.000 UL
LTb
0.00 0.00 0.00 C 0.500 UL
LTa
0.50 0.50 0.50 C 980 992 M
5859 0 V
stroke
1.000 UL
LTb
0.00 0.00 0.00 C 980 992 M
63 0 V
5796 0 R
-63 0 V
stroke
860 992 M
[ [(Arial) 200.0 0.0 true true 0 ( 50)]
] -66.7 MRshow
1.000 UL
LTb
0.00 0.00 0.00 C 0.500 UL
LTa
0.50 0.50 0.50 C 980 1854 M
5859 0 V
stroke
1.000 UL
LTb
0.00 0.00 0.00 C 980 1854 M
63 0 V
5796 0 R
-63 0 V
stroke
860 1854 M
[ [(Arial) 200.0 0.0 true true 0 ( 100)]
] -66.7 MRshow
1.000 UL
LTb
0.00 0.00 0.00 C 0.500 UL
LTa
0.50 0.50 0.50 C 980 2716 M
5859 0 V
stroke
1.000 UL
LTb
0.00 0.00 0.00 C 980 2716 M
63 0 V
5796 0 R
-63 0 V
stroke
860 2716 M
[ [(Arial) 200.0 0.0 true true 0 ( 150)]
] -66.7 MRshow
1.000 UL
LTb
0.00 0.00 0.00 C 0.500 UL
LTa
0.50 0.50 0.50 C 980 3577 M
5859 0 V
stroke
1.000 UL
LTb
0.00 0.00 0.00 C 980 3577 M
63 0 V
5796 0 R
-63 0 V
stroke
860 3577 M
[ [(Arial) 200.0 0.0 true true 0 ( 200)]
] -66.7 MRshow
1.000 UL
LTb
0.00 0.00 0.00 C 0.500 UL
LTa
0.50 0.50 0.50 C 980 4439 M
5859 0 V
stroke
1.000 UL
LTb
0.00 0.00 0.00 C 980 4439 M
63 0 V
5796 0 R
-63 0 V
stroke
860 4439 M
[ [(Arial) 200.0 0.0 true true 0 ( 250)]
] -66.7 MRshow
1.000 UL
LTb
0.00 0.00 0.00 C 0.500 UL
LTa
0.50 0.50 0.50 C 1273 820 M
0 3619 V
stroke
1.000 UL
LTb
0.00 0.00 0.00 C 1273 820 M
0 63 V
0 3556 R
0 -63 V
stroke
1273 620 M
[ [(Arial) 200.0 0.0 true true 0 (NewReno)]
] -66.7 MCshow
1.000 UL
LTb
0.00 0.00 0.00 C 0.500 UL
LTa
0.50 0.50 0.50 C 2152 820 M
0 3619 V
stroke
1.000 UL
LTb
0.00 0.00 0.00 C 2152 820 M
0 63 V
0 3556 R
0 -63 V
stroke
2152 620 M
[ [(Arial) 200.0 0.0 true true 0 (Cubic)]
] -66.7 MCshow
1.000 UL
LTb
0.00 0.00 0.00 C 0.500 UL
LTa
0.50 0.50 0.50 C 3031 820 M
0 3619 V
stroke
1.000 UL
LTb
0.00 0.00 0.00 C 3031 820 M
0 63 V
0 3556 R
0 -63 V
stroke
3031 620 M
[ [(Arial) 200.0 0.0 true true 0 (HighSpeed)]
] -66.7 MCshow
1.000 UL
LTb
0.00 0.00 0.00 C 0.500 UL
LTa
0.50 0.50 0.50 C 3910 820 M
0 3619 V
stroke
1.000 UL
LTb
0.00 0.00 0.00 C 3910 820 M
0 63 V
0 3556 R
0 -63 V
stroke
3910 620 M
[ [(Arial) 200.0 0.0 true true 0 (Westwood)]
] -66.7 MCshow
1.000 UL
LTb
0.00 0.00 0.00 C 0.500 UL
LTa
0.50 0.50 0.50 C 4788 820 M
0 3619 V
stroke
1.000 UL
LTb
0.00 0.00 0.00 C 4788 820 M
0 63 V
0 3556 R
0 -63 V
stroke
4788 620 M
[ [(Arial) 200.0 0.0 true true 0 (Hybla)]
] -66.7 MCshow
1.000 UL
LTb
0.00 0.00 0.00 C 0.500 UL
LTa
0.50 0.50 0.50 C 5667 820 M
0 3619 V
stroke
1.000 UL
LTb
0.00 0.00 0.00 C 5667 820 M
0 63 V
0 3556 R
0 -63 V
stroke
5667 620 M
[ [(Arial) 200.0 0.0 true true 0 (Vegas)]
] -66.7 MCshow
1.000 UL
LTb
0.00 0.00 0.00 C 0.500 UL
LTa
0.50 0.50 0.50 C 6546 820 M
0 3619 V
stroke
1.000 UL
LTb
0.00 0.00 0.00 C 6546 820 M
0 63 V
0 3556 R
0 -63 V
stroke
6546 620 M
[ [(Arial) 200.0 0.0 true true 0 (Scalable)]
] -66.7 MCshow
1.000 UL
LTb
0.00 0.00 0.00 C 1.000 UL
LTB
0.00 0.00 0.00 C 980 4439 M
980 820 L
5859 0 V
0 3619 R
-5859 0 R
1.000 UP
stroke
LTb
0.00 0.00 0.00 C LCb setrgbcolor
160 2629 M
currentpoint gsave translate -270 rotate 0 0 moveto
[ [(Arial) 200.0 0.0 true true 0 (RTT \(ms\))]
] -66.7 MCshow
grestore
LTb
LCb setrgbcolor
3909 320 M
[ [(Arial) 200.0 0.0 true true 0 (TCP)]
] -66.7 MCshow
LTb
LCb setrgbcolor
3909 4739 M
[ [(Arial) 200.0 0.0 true true 0 (a\) RTT)]
] -66.7 MCshow
% Begin plot #1
1.000 UL
LTb
0.60 0.60 0.00 C LCb setrgbcolor
2654 153 M
[ [(Arial) 180.0 0.0 true true 0 (olsr)]
] -60.0 MRshow
1.000 UL
LTb
0.60 0.60 0.00 C 2762 108 333 90 80 -45 0 PatternFill
2762 108 N
333 0 V
0 90 V
-333 0 V
0 -90 V
Z stroke
1.000 UL
LTb
0.60 0.60 0.00 C 1068 985 118 310 80 -45 0 PatternFill
1127 947 M
0 38 V
0 310 R
0 748 V
stroke
1068 985 N
118 0 V
0 310 V
-118 0 V
0 -310 V
Z stroke
1068 2043 M
118 0 V
1068 947 M
118 0 V
stroke
1947 978 118 342 80 -45 0 PatternFill
2006 943 M
0 35 V
0 342 R
0 717 V
stroke
1947 978 N
118 0 V
0 342 V
-118 0 V
0 -342 V
Z stroke
1947 2037 M
118 0 V
1947 943 M
118 0 V
stroke
2826 1007 118 575 80 -45 0 PatternFill
2885 957 M
0 50 V
0 575 R
0 840 V
stroke
2826 1007 N
118 0 V
0 575 V
-118 0 V
0 -575 V
Z stroke
2826 2422 M
118 0 V
2826 957 M
118 0 V
stroke
3704 989 118 268 80 -45 0 PatternFill
3763 950 M
0 39 V
0 268 R
0 633 V
stroke
3704 989 N
118 0 V
0 268 V
-118 0 V
0 -268 V
Z stroke
3704 1890 M
118 0 V
3704 950 M
118 0 V
stroke
4583 1006 118 520 80 -45 0 PatternFill
4642 963 M
0 43 V
0 520 R
0 819 V
stroke
4583 1006 N
118 0 V
0 520 V
-118 0 V
0 -520 V
Z stroke
4583 2345 M
118 0 V
4583 963 M
118 0 V
stroke
5462 1036 118 189 80 -45 0 PatternFill
5521 978 M
0 58 V
0 189 R
0 244 V
stroke
5462 1036 N
118 0 V
0 189 V
-118 0 V
0 -189 V
Z stroke
5462 1469 M
118 0 V
5462 978 M
118 0 V
stroke
6341 1010 118 589 80 -45 0 PatternFill
6400 962 M
0 48 V
0 589 R
0 856 V
stroke
6341 1010 N
118 0 V
0 589 V
-118 0 V
0 -589 V
Z stroke
6341 2455 M
118 0 V
6341 962 M
118 0 V
% End plot #1
% Begin plot #2
stroke
LTb
LCb setrgbcolor

 /TransparentPatterns true def
1068 1198 118 0 40 30 0 PatternFill
1127 1198 M
stroke
1068 1198 N
118 0 V
-118 0 V
Z stroke
1068 1198 M
118 0 V
-118 0 R
118 0 V
stroke

 /TransparentPatterns true def
1947 1204 118 0 40 30 0 PatternFill
2006 1204 M
stroke
1947 1204 N
118 0 V
-118 0 V
Z stroke
1947 1204 M
118 0 V
-118 0 R
118 0 V
stroke

 /TransparentPatterns true def
2826 1339 118 0 40 30 0 PatternFill
2885 1339 M
stroke
2826 1339 N
118 0 V
-118 0 V
Z stroke
2826 1339 M
118 0 V
-118 0 R
118 0 V
stroke

 /TransparentPatterns true def
3704 1177 118 0 40 30 0 PatternFill
3763 1177 M
stroke
3704 1177 N
118 0 V
-118 0 V
Z stroke
3704 1177 M
118 0 V
-118 0 R
118 0 V
stroke

 /TransparentPatterns true def
4583 1305 118 0 40 30 0 PatternFill
4642 1305 M
stroke
4583 1305 N
118 0 V
-118 0 V
Z stroke
4583 1305 M
118 0 V
-118 0 R
118 0 V
stroke

 /TransparentPatterns true def
5462 1158 118 0 40 30 0 PatternFill
5521 1158 M
stroke
5462 1158 N
118 0 V
-118 0 V
Z stroke
5462 1158 M
118 0 V
-118 0 R
118 0 V
stroke

 /TransparentPatterns true def
6341 1348 118 0 40 30 0 PatternFill
6400 1348 M
stroke
6341 1348 N
118 0 V
-118 0 V
Z stroke
6341 1348 M
118 0 V
-118 0 R
118 0 V
% End plot #2
% Begin plot #3
stroke
LTb
0.00 0.00 0.63 C LCb setrgbcolor
4067 153 M
[ [(Arial) 180.0 0.0 true true 0 (per-packet)]
] -60.0 MRshow
1.000 UL
LTb
0.00 0.00 0.63 C 4175 108 333 90 80 45 0 PatternFill
4175 108 N
333 0 V
0 90 V
-333 0 V
0 -90 V
Z stroke
1.000 UL
LTb
0.00 0.00 0.63 C 1214 1005 118 476 80 45 0 PatternFill
1273 954 M
0 51 V
0 476 R
0 736 V
stroke
1214 1005 N
118 0 V
0 476 V
-118 0 V
0 -476 V
Z stroke
1214 2217 M
118 0 V
1214 954 M
118 0 V
stroke
2093 1003 118 620 80 45 0 PatternFill
2152 949 M
0 54 V
0 620 R
0 743 V
stroke
2093 1003 N
118 0 V
0 620 V
-118 0 V
0 -620 V
Z stroke
2093 2366 M
118 0 V
2093 949 M
118 0 V
stroke
2972 1013 118 718 80 45 0 PatternFill
3031 956 M
0 57 V
0 718 R
0 666 V
stroke
2972 1013 N
118 0 V
0 718 V
-118 0 V
0 -718 V
Z stroke
2972 2397 M
118 0 V
2972 956 M
118 0 V
stroke
3851 995 118 322 80 45 0 PatternFill
3910 951 M
0 44 V
0 322 R
0 695 V
stroke
3851 995 N
118 0 V
0 322 V
-118 0 V
0 -322 V
Z stroke
3851 2012 M
118 0 V
3851 951 M
118 0 V
stroke
4730 999 118 595 80 45 0 PatternFill
4789 950 M
0 49 V
0 595 R
0 687 V
stroke
4730 999 N
118 0 V
0 595 V
-118 0 V
0 -595 V
Z stroke
4730 2281 M
118 0 V
4730 950 M
118 0 V
stroke
5609 1023 118 175 80 45 0 PatternFill
5668 974 M
0 49 V
0 175 R
0 198 V
stroke
5609 1023 N
118 0 V
0 175 V
-118 0 V
0 -175 V
Z stroke
5609 1396 M
118 0 V
5609 974 M
118 0 V
stroke
6487 1036 118 744 80 45 0 PatternFill
6546 963 M
0 73 V
0 744 R
0 745 V
stroke
6487 1036 N
118 0 V
0 744 V
-118 0 V
0 -744 V
Z stroke
6487 2525 M
118 0 V
6487 963 M
118 0 V
% End plot #3
% Begin plot #4
stroke
LTb
LCb setrgbcolor

 /TransparentPatterns true def
1214 1273 118 0 80 -45 0 PatternFill
1273 1273 M
stroke
1214 1273 N
118 0 V
-118 0 V
Z stroke
1214 1273 M
118 0 V
-118 0 R
118 0 V
stroke

 /TransparentPatterns true def
2093 1336 118 0 80 -45 0 PatternFill
2152 1336 M
stroke
2093 1336 N
118 0 V
-118 0 V
Z stroke
2093 1336 M
118 0 V
-118 0 R
118 0 V
stroke

 /TransparentPatterns true def
2972 1381 118 0 80 -45 0 PatternFill
3031 1381 M
stroke
2972 1381 N
118 0 V
-118 0 V
Z stroke
2972 1381 M
118 0 V
-118 0 R
118 0 V
stroke

 /TransparentPatterns true def
3851 1201 118 0 80 -45 0 PatternFill
3910 1201 M
stroke
3851 1201 N
118 0 V
-118 0 V
Z stroke
3851 1201 M
118 0 V
-118 0 R
118 0 V
stroke

 /TransparentPatterns true def
4730 1310 118 0 80 -45 0 PatternFill
4789 1310 M
stroke
4730 1310 N
118 0 V
-118 0 V
Z stroke
4730 1310 M
118 0 V
-118 0 R
118 0 V
stroke

 /TransparentPatterns true def
5609 1128 118 0 80 -45 0 PatternFill
5668 1128 M
stroke
5609 1128 N
118 0 V
-118 0 V
Z stroke
5609 1128 M
118 0 V
-118 0 R
118 0 V
stroke

 /TransparentPatterns true def
6487 1430 118 0 80 -45 0 PatternFill
6546 1430 M
stroke
6487 1430 N
118 0 V
-118 0 V
Z stroke
6487 1430 M
118 0 V
-118 0 R
118 0 V
% End plot #4
% Begin plot #5
stroke
LTb
0.00 0.38 0.82 C LCb setrgbcolor
5480 153 M
[ [(Arial) 180.0 0.0 true true 0 (per-flow)]
] -60.0 MRshow
1.000 UL
LTb
0.00 0.38 0.82 C 5588 108 333 90 40 30 0 PatternFill
5588 108 N
333 0 V
0 90 V
-333 0 V
0 -90 V
Z stroke
1.000 UL
LTb
0.00 0.38 0.82 C 1361 1025 118 829 40 30 0 PatternFill
1420 960 M
0 65 V
0 829 R
0 1333 V
stroke
1361 1025 N
118 0 V
0 829 V
-118 0 V
0 -829 V
Z stroke
1361 3187 M
118 0 V
1361 960 M
118 0 V
stroke
2240 1076 118 1156 40 30 0 PatternFill
2299 976 M
0 100 V
0 1156 R
0 1100 V
stroke
2240 1076 N
118 0 V
0 1156 V
-118 0 V
0 -1156 V
Z stroke
2240 3332 M
118 0 V
2240 976 M
118 0 V
stroke
3119 1084 118 1360 40 30 0 PatternFill
3178 981 M
0 103 V
0 1360 R
0 1444 V
stroke
3119 1084 N
118 0 V
0 1360 V
-118 0 V
0 -1360 V
Z stroke
3119 3888 M
118 0 V
3119 981 M
118 0 V
stroke
3997 1001 118 517 40 30 0 PatternFill
4056 956 M
0 45 V
0 517 R
0 1328 V
stroke
3997 1001 N
118 0 V
0 517 V
-118 0 V
0 -517 V
Z stroke
3997 2846 M
118 0 V
3997 956 M
118 0 V
stroke
4876 1062 118 1184 40 30 0 PatternFill
4935 979 M
0 83 V
0 1184 R
0 1192 V
stroke
4876 1062 N
118 0 V
0 1184 V
-118 0 V
0 -1184 V
Z stroke
4876 3438 M
118 0 V
4876 979 M
118 0 V
stroke
5755 1046 118 198 40 30 0 PatternFill
5814 986 M
0 60 V
0 198 R
0 241 V
stroke
5755 1046 N
118 0 V
0 198 V
-118 0 V
0 -198 V
Z stroke
5755 1485 M
118 0 V
5755 986 M
118 0 V
stroke
6634 1156 118 1554 40 30 0 PatternFill
6693 1002 M
0 154 V
0 1554 R
0 1318 V
stroke
6634 1156 N
118 0 V
0 1554 V
-118 0 V
0 -1554 V
Z stroke
6634 4028 M
118 0 V
6634 1002 M
118 0 V
% End plot #5
% Begin plot #6
stroke
LTb
LCb setrgbcolor

 /TransparentPatterns true def
1361 1511 118 0 40 -30 0 PatternFill
1420 1511 M
stroke
1361 1511 N
118 0 V
-118 0 V
Z stroke
1361 1511 M
118 0 V
-118 0 R
118 0 V
stroke

 /TransparentPatterns true def
2240 1701 118 0 40 -30 0 PatternFill
2299 1701 M
stroke
2240 1701 N
118 0 V
-118 0 V
Z stroke
2240 1701 M
118 0 V
-118 0 R
118 0 V
stroke

 /TransparentPatterns true def
3119 1820 118 0 40 -30 0 PatternFill
3178 1820 M
stroke
3119 1820 N
118 0 V
-118 0 V
Z stroke
3119 1820 M
118 0 V
-118 0 R
118 0 V
stroke

 /TransparentPatterns true def
3997 1348 118 0 40 -30 0 PatternFill
4056 1348 M
stroke
3997 1348 N
118 0 V
-118 0 V
Z stroke
3997 1348 M
118 0 V
-118 0 R
118 0 V
stroke

 /TransparentPatterns true def
4876 1688 118 0 40 -30 0 PatternFill
4935 1688 M
stroke
4876 1688 N
118 0 V
-118 0 V
Z stroke
4876 1688 M
118 0 V
-118 0 R
118 0 V
stroke

 /TransparentPatterns true def
5755 1166 118 0 40 -30 0 PatternFill
5814 1166 M
stroke
5755 1166 N
118 0 V
-118 0 V
Z stroke
5755 1166 M
118 0 V
-118 0 R
118 0 V
stroke

 /TransparentPatterns true def
6634 1991 118 0 40 -30 0 PatternFill
6693 1991 M
stroke
6634 1991 N
118 0 V
-118 0 V
Z stroke
6634 1991 M
118 0 V
-118 0 R
118 0 V
% End plot #6
stroke
2.000 UL
LTb
LCb setrgbcolor
1.000 UP
1.000 UL
LTb
0.00 0.00 0.00 C 1.000 UL
LTb
0.00 0.00 0.00 C 0.500 UL
LTa
0.50 0.50 0.50 C 8180 820 M
5859 0 V
stroke
1.000 UL
LTb
0.00 0.00 0.00 C 8180 820 M
63 0 V
5796 0 R
-63 0 V
stroke
8060 820 M
[ [(Arial) 200.0 0.0 true true 0 ( 0)]
] -66.7 MRshow
1.000 UL
LTb
0.00 0.00 0.00 C 0.500 UL
LTa
0.50 0.50 0.50 C 8180 1423 M
5859 0 V
stroke
1.000 UL
LTb
0.00 0.00 0.00 C 8180 1423 M
63 0 V
5796 0 R
-63 0 V
stroke
8060 1423 M
[ [(Arial) 200.0 0.0 true true 0 ( 20)]
] -66.7 MRshow
1.000 UL
LTb
0.00 0.00 0.00 C 0.500 UL
LTa
0.50 0.50 0.50 C 8180 2026 M
5859 0 V
stroke
1.000 UL
LTb
0.00 0.00 0.00 C 8180 2026 M
63 0 V
5796 0 R
-63 0 V
stroke
8060 2026 M
[ [(Arial) 200.0 0.0 true true 0 ( 40)]
] -66.7 MRshow
1.000 UL
LTb
0.00 0.00 0.00 C 0.500 UL
LTa
0.50 0.50 0.50 C 8180 2630 M
5859 0 V
stroke
1.000 UL
LTb
0.00 0.00 0.00 C 8180 2630 M
63 0 V
5796 0 R
-63 0 V
stroke
8060 2630 M
[ [(Arial) 200.0 0.0 true true 0 ( 60)]
] -66.7 MRshow
1.000 UL
LTb
0.00 0.00 0.00 C 0.500 UL
LTa
0.50 0.50 0.50 C 8180 3233 M
5859 0 V
stroke
1.000 UL
LTb
0.00 0.00 0.00 C 8180 3233 M
63 0 V
5796 0 R
-63 0 V
stroke
8060 3233 M
[ [(Arial) 200.0 0.0 true true 0 ( 80)]
] -66.7 MRshow
1.000 UL
LTb
0.00 0.00 0.00 C 0.500 UL
LTa
0.50 0.50 0.50 C 8180 3836 M
5859 0 V
stroke
1.000 UL
LTb
0.00 0.00 0.00 C 8180 3836 M
63 0 V
5796 0 R
-63 0 V
stroke
8060 3836 M
[ [(Arial) 200.0 0.0 true true 0 ( 100)]
] -66.7 MRshow
1.000 UL
LTb
0.00 0.00 0.00 C 0.500 UL
LTa
0.50 0.50 0.50 C 8180 4439 M
5859 0 V
stroke
1.000 UL
LTb
0.00 0.00 0.00 C 8180 4439 M
63 0 V
5796 0 R
-63 0 V
stroke
8060 4439 M
[ [(Arial) 200.0 0.0 true true 0 ( 120)]
] -66.7 MRshow
1.000 UL
LTb
0.00 0.00 0.00 C 0.500 UL
LTa
0.50 0.50 0.50 C 8473 820 M
0 3619 V
stroke
1.000 UL
LTb
0.00 0.00 0.00 C 8473 820 M
0 63 V
0 3556 R
0 -63 V
stroke
8473 620 M
[ [(Arial) 200.0 0.0 true true 0 (NewReno)]
] -66.7 MCshow
1.000 UL
LTb
0.00 0.00 0.00 C 0.500 UL
LTa
0.50 0.50 0.50 C 9352 820 M
0 3619 V
stroke
1.000 UL
LTb
0.00 0.00 0.00 C 9352 820 M
0 63 V
0 3556 R
0 -63 V
stroke
9352 620 M
[ [(Arial) 200.0 0.0 true true 0 (Cubic)]
] -66.7 MCshow
1.000 UL
LTb
0.00 0.00 0.00 C 0.500 UL
LTa
0.50 0.50 0.50 C 10231 820 M
0 3619 V
stroke
1.000 UL
LTb
0.00 0.00 0.00 C 10231 820 M
0 63 V
0 3556 R
0 -63 V
stroke
10231 620 M
[ [(Arial) 200.0 0.0 true true 0 (HighSpeed)]
] -66.7 MCshow
1.000 UL
LTb
0.00 0.00 0.00 C 0.500 UL
LTa
0.50 0.50 0.50 C 11110 820 M
0 3619 V
stroke
1.000 UL
LTb
0.00 0.00 0.00 C 11110 820 M
0 63 V
0 3556 R
0 -63 V
stroke
11110 620 M
[ [(Arial) 200.0 0.0 true true 0 (Westwood)]
] -66.7 MCshow
1.000 UL
LTb
0.00 0.00 0.00 C 0.500 UL
LTa
0.50 0.50 0.50 C 11988 820 M
0 3619 V
stroke
1.000 UL
LTb
0.00 0.00 0.00 C 11988 820 M
0 63 V
0 3556 R
0 -63 V
stroke
11988 620 M
[ [(Arial) 200.0 0.0 true true 0 (Hybla)]
] -66.7 MCshow
1.000 UL
LTb
0.00 0.00 0.00 C 0.500 UL
LTa
0.50 0.50 0.50 C 12867 820 M
0 3619 V
stroke
1.000 UL
LTb
0.00 0.00 0.00 C 12867 820 M
0 63 V
0 3556 R
0 -63 V
stroke
12867 620 M
[ [(Arial) 200.0 0.0 true true 0 (Vegas)]
] -66.7 MCshow
1.000 UL
LTb
0.00 0.00 0.00 C 0.500 UL
LTa
0.50 0.50 0.50 C 13746 820 M
0 3619 V
stroke
1.000 UL
LTb
0.00 0.00 0.00 C 13746 820 M
0 63 V
0 3556 R
0 -63 V
stroke
13746 620 M
[ [(Arial) 200.0 0.0 true true 0 (Scalable)]
] -66.7 MCshow
1.000 UL
LTb
0.00 0.00 0.00 C 1.000 UL
LTB
0.00 0.00 0.00 C 8180 4439 M
0 -3619 V
5859 0 V
0 3619 R
-5859 0 R
1.000 UP
stroke
LTb
0.00 0.00 0.00 C LCb setrgbcolor
7360 2629 M
currentpoint gsave translate -270 rotate 0 0 moveto
[ [(Arial) 200.0 0.0 true true 0 (File download time \(s\))]
] -66.7 MCshow
grestore
LTb
LCb setrgbcolor
11109 320 M
[ [(Arial) 200.0 0.0 true true 0 (TCP)]
] -66.7 MCshow
LTb
LCb setrgbcolor
11109 4739 M
[ [(Arial) 200.0 0.0 true true 0 (b\) File download time)]
] -66.7 MCshow
% Begin plot #1
1.000 UL
LTb
0.60 0.60 0.00 C LCb setrgbcolor
9854 153 M
[ [(Arial) 180.0 0.0 true true 0 (olsr)]
] -60.0 MRshow
1.000 UL
LTb
0.60 0.60 0.00 C 9962 108 333 90 80 -45 0 PatternFill
9962 108 N
333 0 V
0 90 V
-333 0 V
0 -90 V
Z stroke
1.000 UL
LTb
0.60 0.60 0.00 C 8268 1250 118 475 80 -45 0 PatternFill
8327 924 M
0 326 V
0 475 R
0 1048 V
stroke
8268 1250 N
118 0 V
0 475 V
-118 0 V
0 -475 V
Z stroke
8268 2773 M
118 0 V
8268 924 M
118 0 V
stroke
9147 1280 118 620 80 -45 0 PatternFill
9206 912 M
0 368 V
0 620 R
0 1185 V
stroke
9147 1280 N
118 0 V
0 620 V
-118 0 V
0 -620 V
Z stroke
9147 3085 M
118 0 V
9147 912 M
118 0 V
stroke
10026 1230 118 466 80 -45 0 PatternFill
10085 908 M
0 322 V
0 466 R
0 364 V
stroke
10026 1230 N
118 0 V
0 466 V
-118 0 V
0 -466 V
Z stroke
10026 2060 M
118 0 V
10026 908 M
118 0 V
stroke
10904 1383 118 475 80 -45 0 PatternFill
10963 1005 M
0 378 V
0 475 R
0 1940 V
stroke
10904 1383 N
118 0 V
0 475 V
-118 0 V
0 -475 V
Z stroke
10904 3798 M
118 0 V
10904 1005 M
118 0 V
stroke
11783 1242 118 392 80 -45 0 PatternFill
11842 909 M
0 333 V
0 392 R
0 442 V
stroke
11783 1242 N
118 0 V
0 392 V
-118 0 V
0 -392 V
Z stroke
11783 2076 M
118 0 V
11783 909 M
118 0 V
stroke
12662 1726 118 881 80 -45 0 PatternFill
12721 907 M
0 819 V
0 881 R
0 522 V
stroke
12662 1726 N
118 0 V
0 881 V
-118 0 V
0 -881 V
Z stroke
12662 3129 M
118 0 V
12662 907 M
118 0 V
stroke
13541 1220 118 407 80 -45 0 PatternFill
13600 914 M
0 306 V
0 407 R
0 421 V
stroke
13541 1220 N
118 0 V
0 407 V
-118 0 V
0 -407 V
Z stroke
13541 2048 M
118 0 V
13541 914 M
118 0 V
% End plot #1
% Begin plot #2
stroke
LTb
LCb setrgbcolor

 /TransparentPatterns true def
8268 1494 118 0 40 30 0 PatternFill
8327 1494 M
stroke
8268 1494 N
118 0 V
-118 0 V
Z stroke
8268 1494 M
118 0 V
-118 0 R
118 0 V
stroke

 /TransparentPatterns true def
9147 1602 118 0 40 30 0 PatternFill
9206 1602 M
stroke
9147 1602 N
118 0 V
-118 0 V
Z stroke
9147 1602 M
118 0 V
-118 0 R
118 0 V
stroke

 /TransparentPatterns true def
10026 1450 118 0 40 30 0 PatternFill
10085 1450 M
stroke
10026 1450 N
118 0 V
-118 0 V
Z stroke
10026 1450 M
118 0 V
-118 0 R
118 0 V
stroke

 /TransparentPatterns true def
10904 1672 118 0 40 30 0 PatternFill
10963 1672 M
stroke
10904 1672 N
118 0 V
-118 0 V
Z stroke
10904 1672 M
118 0 V
-118 0 R
118 0 V
stroke

 /TransparentPatterns true def
11783 1453 118 0 40 30 0 PatternFill
11842 1453 M
stroke
11783 1453 N
118 0 V
-118 0 V
Z stroke
11783 1453 M
118 0 V
-118 0 R
118 0 V
stroke

 /TransparentPatterns true def
12662 2162 118 0 40 30 0 PatternFill
12721 2162 M
stroke
12662 2162 N
118 0 V
-118 0 V
Z stroke
12662 2162 M
118 0 V
-118 0 R
118 0 V
stroke

 /TransparentPatterns true def
13541 1397 118 0 40 30 0 PatternFill
13600 1397 M
stroke
13541 1397 N
118 0 V
-118 0 V
Z stroke
13541 1397 M
118 0 V
-118 0 R
118 0 V
% End plot #2
% Begin plot #3
stroke
LTb
0.00 0.00 0.63 C LCb setrgbcolor
11267 153 M
[ [(Arial) 180.0 0.0 true true 0 (per-packet)]
] -60.0 MRshow
1.000 UL
LTb
0.00 0.00 0.63 C 11375 108 333 90 80 45 0 PatternFill
11375 108 N
333 0 V
0 90 V
-333 0 V
0 -90 V
Z stroke
1.000 UL
LTb
0.00 0.00 0.63 C 8414 1044 118 2092 80 45 0 PatternFill
8473 921 M
0 123 V
0 2092 R
0 527 V
stroke
8414 1044 N
118 0 V
0 2092 V
-118 0 V
0 -2092 V
Z stroke
8414 3663 M
118 0 V
8414 921 M
118 0 V
stroke
9293 954 118 2316 80 45 0 PatternFill
9352 897 M
0 57 V
0 2316 R
0 1169 V
stroke
9293 954 N
118 0 V
0 2316 V
-118 0 V
0 -2316 V
Z stroke
9293 897 M
118 0 V
stroke
10172 985 118 1680 80 45 0 PatternFill
10231 893 M
0 92 V
0 1680 R
0 602 V
stroke
10172 985 N
118 0 V
0 1680 V
-118 0 V
0 -1680 V
Z stroke
10172 3267 M
118 0 V
10172 893 M
118 0 V
stroke
11051 1255 118 2064 80 45 0 PatternFill
11110 1015 M
0 240 V
0 2064 R
0 650 V
stroke
11051 1255 N
118 0 V
0 2064 V
-118 0 V
0 -2064 V
Z stroke
11051 3969 M
118 0 V
11051 1015 M
118 0 V
stroke
11930 1009 118 1657 80 45 0 PatternFill
11989 919 M
0 90 V
0 1657 R
0 865 V
stroke
11930 1009 N
118 0 V
0 1657 V
-118 0 V
0 -1657 V
Z stroke
11930 3531 M
118 0 V
11930 919 M
118 0 V
stroke
12809 1854 118 1135 80 45 0 PatternFill
12868 1094 M
0 760 V
0 1135 R
0 620 V
stroke
12809 1854 N
118 0 V
0 1135 V
-118 0 V
0 -1135 V
Z stroke
12809 3609 M
118 0 V
12809 1094 M
118 0 V
stroke
13687 948 118 1395 80 45 0 PatternFill
13746 892 M
0 56 V
0 1395 R
0 609 V
stroke
13687 948 N
118 0 V
0 1395 V
-118 0 V
0 -1395 V
Z stroke
13687 2952 M
118 0 V
13687 892 M
118 0 V
% End plot #3
% Begin plot #4
stroke
LTb
LCb setrgbcolor

 /TransparentPatterns true def
8414 1887 118 0 80 -45 0 PatternFill
8473 1887 M
stroke
8414 1887 N
118 0 V
-118 0 V
Z stroke
8414 1887 M
118 0 V
-118 0 R
118 0 V
stroke

 /TransparentPatterns true def
9293 1897 118 0 80 -45 0 PatternFill
9352 1897 M
stroke
9293 1897 N
118 0 V
-118 0 V
Z stroke
9293 1897 M
118 0 V
-118 0 R
118 0 V
stroke

 /TransparentPatterns true def
10172 1658 118 0 80 -45 0 PatternFill
10231 1658 M
stroke
10172 1658 N
118 0 V
-118 0 V
Z stroke
10172 1658 M
118 0 V
-118 0 R
118 0 V
stroke

 /TransparentPatterns true def
11051 2083 118 0 80 -45 0 PatternFill
11110 2083 M
stroke
11051 2083 N
118 0 V
-118 0 V
Z stroke
11051 2083 M
118 0 V
-118 0 R
118 0 V
stroke

 /TransparentPatterns true def
11930 1659 118 0 80 -45 0 PatternFill
11989 1659 M
stroke
11930 1659 N
118 0 V
-118 0 V
Z stroke
11930 1659 M
118 0 V
-118 0 R
118 0 V
stroke

 /TransparentPatterns true def
12809 2375 118 0 80 -45 0 PatternFill
12868 2375 M
stroke
12809 2375 N
118 0 V
-118 0 V
Z stroke
12809 2375 M
118 0 V
-118 0 R
118 0 V
stroke

 /TransparentPatterns true def
13687 1512 118 0 80 -45 0 PatternFill
13746 1512 M
stroke
13687 1512 N
118 0 V
-118 0 V
Z stroke
13687 1512 M
118 0 V
-118 0 R
118 0 V
% End plot #4
% Begin plot #5
stroke
LTb
0.00 0.38 0.82 C LCb setrgbcolor
12680 153 M
[ [(Arial) 180.0 0.0 true true 0 (per-flow)]
] -60.0 MRshow
1.000 UL
LTb
0.00 0.38 0.82 C 12788 108 333 90 40 30 0 PatternFill
12788 108 N
333 0 V
0 90 V
-333 0 V
0 -90 V
Z stroke
1.000 UL
LTb
0.00 0.38 0.82 C 8561 1006 118 362 40 30 0 PatternFill
8620 921 M
0 85 V
0 362 R
0 1175 V
stroke
8561 1006 N
118 0 V
0 362 V
-118 0 V
0 -362 V
Z stroke
8561 2543 M
118 0 V
8561 921 M
118 0 V
stroke
9440 960 118 353 40 30 0 PatternFill
9499 908 M
0 52 V
0 353 R
0 1034 V
stroke
9440 960 N
118 0 V
0 353 V
-118 0 V
0 -353 V
Z stroke
9440 2347 M
118 0 V
9440 908 M
118 0 V
stroke
10319 975 118 186 40 30 0 PatternFill
10378 912 M
0 63 V
0 186 R
0 685 V
stroke
10319 975 N
118 0 V
0 186 V
-118 0 V
0 -186 V
Z stroke
10319 1846 M
118 0 V
10319 912 M
118 0 V
stroke
11197 1257 118 377 40 30 0 PatternFill
11256 1043 M
0 214 V
0 377 R
0 1710 V
stroke
11197 1257 N
118 0 V
0 377 V
-118 0 V
0 -377 V
Z stroke
11197 3344 M
118 0 V
11197 1043 M
118 0 V
stroke
12076 1023 118 220 40 30 0 PatternFill
12135 899 M
0 124 V
0 220 R
0 615 V
stroke
12076 1023 N
118 0 V
0 220 V
-118 0 V
0 -220 V
Z stroke
12076 1858 M
118 0 V
12076 899 M
118 0 V
stroke
12955 1512 118 1012 40 30 0 PatternFill
13014 1048 M
0 464 V
0 1012 R
0 538 V
stroke
12955 1512 N
118 0 V
0 1012 V
-118 0 V
0 -1012 V
Z stroke
12955 3062 M
118 0 V
12955 1048 M
118 0 V
stroke
13834 961 118 208 40 30 0 PatternFill
13893 895 M
0 66 V
0 208 R
0 439 V
stroke
13834 961 N
118 0 V
0 208 V
-118 0 V
0 -208 V
Z stroke
13834 1608 M
118 0 V
13834 895 M
118 0 V
% End plot #5
% Begin plot #6
stroke
LTb
LCb setrgbcolor

 /TransparentPatterns true def
8561 1214 118 0 40 -30 0 PatternFill
8620 1214 M
stroke
8561 1214 N
118 0 V
-118 0 V
Z stroke
8561 1214 M
118 0 V
-118 0 R
118 0 V
stroke

 /TransparentPatterns true def
9440 1153 118 0 40 -30 0 PatternFill
9499 1153 M
stroke
9440 1153 N
118 0 V
-118 0 V
Z stroke
9440 1153 M
118 0 V
-118 0 R
118 0 V
stroke

 /TransparentPatterns true def
10319 1090 118 0 40 -30 0 PatternFill
10378 1090 M
stroke
10319 1090 N
118 0 V
-118 0 V
Z stroke
10319 1090 M
118 0 V
-118 0 R
118 0 V
stroke

 /TransparentPatterns true def
11197 1493 118 0 40 -30 0 PatternFill
11256 1493 M
stroke
11197 1493 N
118 0 V
-118 0 V
Z stroke
11197 1493 M
118 0 V
-118 0 R
118 0 V
stroke

 /TransparentPatterns true def
12076 1150 118 0 40 -30 0 PatternFill
12135 1150 M
stroke
12076 1150 N
118 0 V
-118 0 V
Z stroke
12076 1150 M
118 0 V
-118 0 R
118 0 V
stroke

 /TransparentPatterns true def
12955 2060 118 0 40 -30 0 PatternFill
13014 2060 M
stroke
12955 2060 N
118 0 V
-118 0 V
Z stroke
12955 2060 M
118 0 V
-118 0 R
118 0 V
stroke

 /TransparentPatterns true def
13834 1078 118 0 40 -30 0 PatternFill
13893 1078 M
stroke
13834 1078 N
118 0 V
-118 0 V
Z stroke
13834 1078 M
118 0 V
-118 0 R
118 0 V
% End plot #6
stroke
2.000 UL
LTb
LCb setrgbcolor
1.000 UP
1.000 UL
LTb
0.00 0.00 0.00 C stroke
grestore
end
showpage
%%Trailer
%%DocumentFonts: Arial
