%!PS-Adobe-2.0 EPSF-2.0
%%Title: 100UE-download-80Mbps.eps
%%Creator: gnuplot 5.0 patchlevel 3
%%CreationDate: Thu Jun  2 09:48:02 2016
%%DocumentFonts: (atend)
%%BoundingBox: 50 50 770 302
%%EndComments
%%BeginProlog
/gnudict 256 dict def
gnudict begin
%
% The following true/false flags may be edited by hand if desired.
% The unit line width and grayscale image gamma correction may also be changed.
%
/Color true def
/Blacktext false def
/Solid false def
/Dashlength 3 def
/Landscape false def
/Level1 false def
/Level3 false def
/Rounded false def
/ClipToBoundingBox false def
/SuppressPDFMark false def
/TransparentPatterns false def
/gnulinewidth 15.000 def
/userlinewidth gnulinewidth def
/Gamma 1.0 def
/BackgroundColor {-1.000 -1.000 -1.000} def
%
/vshift -66 def
/dl1 {
  10.0 Dashlength userlinewidth gnulinewidth div mul mul mul
  Rounded { currentlinewidth 0.75 mul sub dup 0 le { pop 0.01 } if } if
} def
/dl2 {
  10.0 Dashlength userlinewidth gnulinewidth div mul mul mul
  Rounded { currentlinewidth 0.75 mul add } if
} def
/hpt_ 31.5 def
/vpt_ 31.5 def
/hpt hpt_ def
/vpt vpt_ def
/doclip {
  ClipToBoundingBox {
    newpath 50 50 moveto 770 50 lineto 770 302 lineto 50 302 lineto closepath
    clip
  } if
} def
%
% Gnuplot Prolog Version 5.1 (Oct 2015)
%
%/SuppressPDFMark true def
%
/M {moveto} bind def
/L {lineto} bind def
/R {rmoveto} bind def
/V {rlineto} bind def
/N {newpath moveto} bind def
/Z {closepath} bind def
/C {setrgbcolor} bind def
/f {rlineto fill} bind def
/g {setgray} bind def
/Gshow {show} def   % May be redefined later in the file to support UTF-8
/vpt2 vpt 2 mul def
/hpt2 hpt 2 mul def
/Lshow {currentpoint stroke M 0 vshift R 
	Blacktext {gsave 0 setgray textshow grestore} {textshow} ifelse} def
/Rshow {currentpoint stroke M dup stringwidth pop neg vshift R
	Blacktext {gsave 0 setgray textshow grestore} {textshow} ifelse} def
/Cshow {currentpoint stroke M dup stringwidth pop -2 div vshift R 
	Blacktext {gsave 0 setgray textshow grestore} {textshow} ifelse} def
/UP {dup vpt_ mul /vpt exch def hpt_ mul /hpt exch def
  /hpt2 hpt 2 mul def /vpt2 vpt 2 mul def} def
/DL {Color {setrgbcolor Solid {pop []} if 0 setdash}
 {pop pop pop 0 setgray Solid {pop []} if 0 setdash} ifelse} def
/BL {stroke userlinewidth 2 mul setlinewidth
	Rounded {1 setlinejoin 1 setlinecap} if} def
/AL {stroke userlinewidth 2 div setlinewidth
	Rounded {1 setlinejoin 1 setlinecap} if} def
/UL {dup gnulinewidth mul /userlinewidth exch def
	dup 1 lt {pop 1} if 10 mul /udl exch def} def
/PL {stroke userlinewidth setlinewidth
	Rounded {1 setlinejoin 1 setlinecap} if} def
3.8 setmiterlimit
% Classic Line colors (version 5.0)
/LCw {1 1 1} def
/LCb {0 0 0} def
/LCa {0 0 0} def
/LC0 {1 0 0} def
/LC1 {0 1 0} def
/LC2 {0 0 1} def
/LC3 {1 0 1} def
/LC4 {0 1 1} def
/LC5 {1 1 0} def
/LC6 {0 0 0} def
/LC7 {1 0.3 0} def
/LC8 {0.5 0.5 0.5} def
% Default dash patterns (version 5.0)
/LTB {BL [] LCb DL} def
/LTw {PL [] 1 setgray} def
/LTb {PL [] LCb DL} def
/LTa {AL [1 udl mul 2 udl mul] 0 setdash LCa setrgbcolor} def
/LT0 {PL [] LC0 DL} def
/LT1 {PL [2 dl1 3 dl2] LC1 DL} def
/LT2 {PL [1 dl1 1.5 dl2] LC2 DL} def
/LT3 {PL [6 dl1 2 dl2 1 dl1 2 dl2] LC3 DL} def
/LT4 {PL [1 dl1 2 dl2 6 dl1 2 dl2 1 dl1 2 dl2] LC4 DL} def
/LT5 {PL [4 dl1 2 dl2] LC5 DL} def
/LT6 {PL [1.5 dl1 1.5 dl2 1.5 dl1 1.5 dl2 1.5 dl1 6 dl2] LC6 DL} def
/LT7 {PL [3 dl1 3 dl2 1 dl1 3 dl2] LC7 DL} def
/LT8 {PL [2 dl1 2 dl2 2 dl1 6 dl2] LC8 DL} def
/SL {[] 0 setdash} def
/Pnt {stroke [] 0 setdash gsave 1 setlinecap M 0 0 V stroke grestore} def
/Dia {stroke [] 0 setdash 2 copy vpt add M
  hpt neg vpt neg V hpt vpt neg V
  hpt vpt V hpt neg vpt V closepath stroke
  Pnt} def
/Pls {stroke [] 0 setdash vpt sub M 0 vpt2 V
  currentpoint stroke M
  hpt neg vpt neg R hpt2 0 V stroke
 } def
/Box {stroke [] 0 setdash 2 copy exch hpt sub exch vpt add M
  0 vpt2 neg V hpt2 0 V 0 vpt2 V
  hpt2 neg 0 V closepath stroke
  Pnt} def
/Crs {stroke [] 0 setdash exch hpt sub exch vpt add M
  hpt2 vpt2 neg V currentpoint stroke M
  hpt2 neg 0 R hpt2 vpt2 V stroke} def
/TriU {stroke [] 0 setdash 2 copy vpt 1.12 mul add M
  hpt neg vpt -1.62 mul V
  hpt 2 mul 0 V
  hpt neg vpt 1.62 mul V closepath stroke
  Pnt} def
/Star {2 copy Pls Crs} def
/BoxF {stroke [] 0 setdash exch hpt sub exch vpt add M
  0 vpt2 neg V hpt2 0 V 0 vpt2 V
  hpt2 neg 0 V closepath fill} def
/TriUF {stroke [] 0 setdash vpt 1.12 mul add M
  hpt neg vpt -1.62 mul V
  hpt 2 mul 0 V
  hpt neg vpt 1.62 mul V closepath fill} def
/TriD {stroke [] 0 setdash 2 copy vpt 1.12 mul sub M
  hpt neg vpt 1.62 mul V
  hpt 2 mul 0 V
  hpt neg vpt -1.62 mul V closepath stroke
  Pnt} def
/TriDF {stroke [] 0 setdash vpt 1.12 mul sub M
  hpt neg vpt 1.62 mul V
  hpt 2 mul 0 V
  hpt neg vpt -1.62 mul V closepath fill} def
/DiaF {stroke [] 0 setdash vpt add M
  hpt neg vpt neg V hpt vpt neg V
  hpt vpt V hpt neg vpt V closepath fill} def
/Pent {stroke [] 0 setdash 2 copy gsave
  translate 0 hpt M 4 {72 rotate 0 hpt L} repeat
  closepath stroke grestore Pnt} def
/PentF {stroke [] 0 setdash gsave
  translate 0 hpt M 4 {72 rotate 0 hpt L} repeat
  closepath fill grestore} def
/Circle {stroke [] 0 setdash 2 copy
  hpt 0 360 arc stroke Pnt} def
/CircleF {stroke [] 0 setdash hpt 0 360 arc fill} def
/C0 {BL [] 0 setdash 2 copy moveto vpt 90 450 arc} bind def
/C1 {BL [] 0 setdash 2 copy moveto
	2 copy vpt 0 90 arc closepath fill
	vpt 0 360 arc closepath} bind def
/C2 {BL [] 0 setdash 2 copy moveto
	2 copy vpt 90 180 arc closepath fill
	vpt 0 360 arc closepath} bind def
/C3 {BL [] 0 setdash 2 copy moveto
	2 copy vpt 0 180 arc closepath fill
	vpt 0 360 arc closepath} bind def
/C4 {BL [] 0 setdash 2 copy moveto
	2 copy vpt 180 270 arc closepath fill
	vpt 0 360 arc closepath} bind def
/C5 {BL [] 0 setdash 2 copy moveto
	2 copy vpt 0 90 arc
	2 copy moveto
	2 copy vpt 180 270 arc closepath fill
	vpt 0 360 arc} bind def
/C6 {BL [] 0 setdash 2 copy moveto
	2 copy vpt 90 270 arc closepath fill
	vpt 0 360 arc closepath} bind def
/C7 {BL [] 0 setdash 2 copy moveto
	2 copy vpt 0 270 arc closepath fill
	vpt 0 360 arc closepath} bind def
/C8 {BL [] 0 setdash 2 copy moveto
	2 copy vpt 270 360 arc closepath fill
	vpt 0 360 arc closepath} bind def
/C9 {BL [] 0 setdash 2 copy moveto
	2 copy vpt 270 450 arc closepath fill
	vpt 0 360 arc closepath} bind def
/C10 {BL [] 0 setdash 2 copy 2 copy moveto vpt 270 360 arc closepath fill
	2 copy moveto
	2 copy vpt 90 180 arc closepath fill
	vpt 0 360 arc closepath} bind def
/C11 {BL [] 0 setdash 2 copy moveto
	2 copy vpt 0 180 arc closepath fill
	2 copy moveto
	2 copy vpt 270 360 arc closepath fill
	vpt 0 360 arc closepath} bind def
/C12 {BL [] 0 setdash 2 copy moveto
	2 copy vpt 180 360 arc closepath fill
	vpt 0 360 arc closepath} bind def
/C13 {BL [] 0 setdash 2 copy moveto
	2 copy vpt 0 90 arc closepath fill
	2 copy moveto
	2 copy vpt 180 360 arc closepath fill
	vpt 0 360 arc closepath} bind def
/C14 {BL [] 0 setdash 2 copy moveto
	2 copy vpt 90 360 arc closepath fill
	vpt 0 360 arc} bind def
/C15 {BL [] 0 setdash 2 copy vpt 0 360 arc closepath fill
	vpt 0 360 arc closepath} bind def
/Rec {newpath 4 2 roll moveto 1 index 0 rlineto 0 exch rlineto
	neg 0 rlineto closepath} bind def
/Square {dup Rec} bind def
/Bsquare {vpt sub exch vpt sub exch vpt2 Square} bind def
/S0 {BL [] 0 setdash 2 copy moveto 0 vpt rlineto BL Bsquare} bind def
/S1 {BL [] 0 setdash 2 copy vpt Square fill Bsquare} bind def
/S2 {BL [] 0 setdash 2 copy exch vpt sub exch vpt Square fill Bsquare} bind def
/S3 {BL [] 0 setdash 2 copy exch vpt sub exch vpt2 vpt Rec fill Bsquare} bind def
/S4 {BL [] 0 setdash 2 copy exch vpt sub exch vpt sub vpt Square fill Bsquare} bind def
/S5 {BL [] 0 setdash 2 copy 2 copy vpt Square fill
	exch vpt sub exch vpt sub vpt Square fill Bsquare} bind def
/S6 {BL [] 0 setdash 2 copy exch vpt sub exch vpt sub vpt vpt2 Rec fill Bsquare} bind def
/S7 {BL [] 0 setdash 2 copy exch vpt sub exch vpt sub vpt vpt2 Rec fill
	2 copy vpt Square fill Bsquare} bind def
/S8 {BL [] 0 setdash 2 copy vpt sub vpt Square fill Bsquare} bind def
/S9 {BL [] 0 setdash 2 copy vpt sub vpt vpt2 Rec fill Bsquare} bind def
/S10 {BL [] 0 setdash 2 copy vpt sub vpt Square fill 2 copy exch vpt sub exch vpt Square fill
	Bsquare} bind def
/S11 {BL [] 0 setdash 2 copy vpt sub vpt Square fill 2 copy exch vpt sub exch vpt2 vpt Rec fill
	Bsquare} bind def
/S12 {BL [] 0 setdash 2 copy exch vpt sub exch vpt sub vpt2 vpt Rec fill Bsquare} bind def
/S13 {BL [] 0 setdash 2 copy exch vpt sub exch vpt sub vpt2 vpt Rec fill
	2 copy vpt Square fill Bsquare} bind def
/S14 {BL [] 0 setdash 2 copy exch vpt sub exch vpt sub vpt2 vpt Rec fill
	2 copy exch vpt sub exch vpt Square fill Bsquare} bind def
/S15 {BL [] 0 setdash 2 copy Bsquare fill Bsquare} bind def
/D0 {gsave translate 45 rotate 0 0 S0 stroke grestore} bind def
/D1 {gsave translate 45 rotate 0 0 S1 stroke grestore} bind def
/D2 {gsave translate 45 rotate 0 0 S2 stroke grestore} bind def
/D3 {gsave translate 45 rotate 0 0 S3 stroke grestore} bind def
/D4 {gsave translate 45 rotate 0 0 S4 stroke grestore} bind def
/D5 {gsave translate 45 rotate 0 0 S5 stroke grestore} bind def
/D6 {gsave translate 45 rotate 0 0 S6 stroke grestore} bind def
/D7 {gsave translate 45 rotate 0 0 S7 stroke grestore} bind def
/D8 {gsave translate 45 rotate 0 0 S8 stroke grestore} bind def
/D9 {gsave translate 45 rotate 0 0 S9 stroke grestore} bind def
/D10 {gsave translate 45 rotate 0 0 S10 stroke grestore} bind def
/D11 {gsave translate 45 rotate 0 0 S11 stroke grestore} bind def
/D12 {gsave translate 45 rotate 0 0 S12 stroke grestore} bind def
/D13 {gsave translate 45 rotate 0 0 S13 stroke grestore} bind def
/D14 {gsave translate 45 rotate 0 0 S14 stroke grestore} bind def
/D15 {gsave translate 45 rotate 0 0 S15 stroke grestore} bind def
/DiaE {stroke [] 0 setdash vpt add M
  hpt neg vpt neg V hpt vpt neg V
  hpt vpt V hpt neg vpt V closepath stroke} def
/BoxE {stroke [] 0 setdash exch hpt sub exch vpt add M
  0 vpt2 neg V hpt2 0 V 0 vpt2 V
  hpt2 neg 0 V closepath stroke} def
/TriUE {stroke [] 0 setdash vpt 1.12 mul add M
  hpt neg vpt -1.62 mul V
  hpt 2 mul 0 V
  hpt neg vpt 1.62 mul V closepath stroke} def
/TriDE {stroke [] 0 setdash vpt 1.12 mul sub M
  hpt neg vpt 1.62 mul V
  hpt 2 mul 0 V
  hpt neg vpt -1.62 mul V closepath stroke} def
/PentE {stroke [] 0 setdash gsave
  translate 0 hpt M 4 {72 rotate 0 hpt L} repeat
  closepath stroke grestore} def
/CircE {stroke [] 0 setdash 
  hpt 0 360 arc stroke} def
/Opaque {gsave closepath 1 setgray fill grestore 0 setgray closepath} def
/DiaW {stroke [] 0 setdash vpt add M
  hpt neg vpt neg V hpt vpt neg V
  hpt vpt V hpt neg vpt V Opaque stroke} def
/BoxW {stroke [] 0 setdash exch hpt sub exch vpt add M
  0 vpt2 neg V hpt2 0 V 0 vpt2 V
  hpt2 neg 0 V Opaque stroke} def
/TriUW {stroke [] 0 setdash vpt 1.12 mul add M
  hpt neg vpt -1.62 mul V
  hpt 2 mul 0 V
  hpt neg vpt 1.62 mul V Opaque stroke} def
/TriDW {stroke [] 0 setdash vpt 1.12 mul sub M
  hpt neg vpt 1.62 mul V
  hpt 2 mul 0 V
  hpt neg vpt -1.62 mul V Opaque stroke} def
/PentW {stroke [] 0 setdash gsave
  translate 0 hpt M 4 {72 rotate 0 hpt L} repeat
  Opaque stroke grestore} def
/CircW {stroke [] 0 setdash 
  hpt 0 360 arc Opaque stroke} def
/BoxFill {gsave Rec 1 setgray fill grestore} def
/Density {
  /Fillden exch def
  currentrgbcolor
  /ColB exch def /ColG exch def /ColR exch def
  /ColR ColR Fillden mul Fillden sub 1 add def
  /ColG ColG Fillden mul Fillden sub 1 add def
  /ColB ColB Fillden mul Fillden sub 1 add def
  ColR ColG ColB setrgbcolor} def
/BoxColFill {gsave Rec PolyFill} def
/PolyFill {gsave Density fill grestore grestore} def
/h {rlineto rlineto rlineto gsave closepath fill grestore} bind def
%
% PostScript Level 1 Pattern Fill routine for rectangles
% Usage: x y w h s a XX PatternFill
%	x,y = lower left corner of box to be filled
%	w,h = width and height of box
%	  a = angle in degrees between lines and x-axis
%	 XX = 0/1 for no/yes cross-hatch
%
/PatternFill {gsave /PFa [ 9 2 roll ] def
  PFa 0 get PFa 2 get 2 div add PFa 1 get PFa 3 get 2 div add translate
  PFa 2 get -2 div PFa 3 get -2 div PFa 2 get PFa 3 get Rec
  TransparentPatterns {} {gsave 1 setgray fill grestore} ifelse
  clip
  currentlinewidth 0.5 mul setlinewidth
  /PFs PFa 2 get dup mul PFa 3 get dup mul add sqrt def
  0 0 M PFa 5 get rotate PFs -2 div dup translate
  0 1 PFs PFa 4 get div 1 add floor cvi
	{PFa 4 get mul 0 M 0 PFs V} for
  0 PFa 6 get ne {
	0 1 PFs PFa 4 get div 1 add floor cvi
	{PFa 4 get mul 0 2 1 roll M PFs 0 V} for
 } if
  stroke grestore} def
%
/languagelevel where
 {pop languagelevel} {1} ifelse
dup 2 lt
	{/InterpretLevel1 true def
	 /InterpretLevel3 false def}
	{/InterpretLevel1 Level1 def
	 2 gt
	    {/InterpretLevel3 Level3 def}
	    {/InterpretLevel3 false def}
	 ifelse }
 ifelse
%
% PostScript level 2 pattern fill definitions
%
/Level2PatternFill {
/Tile8x8 {/PaintType 2 /PatternType 1 /TilingType 1 /BBox [0 0 8 8] /XStep 8 /YStep 8}
	bind def
/KeepColor {currentrgbcolor [/Pattern /DeviceRGB] setcolorspace} bind def
<< Tile8x8
 /PaintProc {0.5 setlinewidth pop 0 0 M 8 8 L 0 8 M 8 0 L stroke} 
>> matrix makepattern
/Pat1 exch def
<< Tile8x8
 /PaintProc {0.5 setlinewidth pop 0 0 M 8 8 L 0 8 M 8 0 L stroke
	0 4 M 4 8 L 8 4 L 4 0 L 0 4 L stroke}
>> matrix makepattern
/Pat2 exch def
<< Tile8x8
 /PaintProc {0.5 setlinewidth pop 0 0 M 0 8 L
	8 8 L 8 0 L 0 0 L fill}
>> matrix makepattern
/Pat3 exch def
<< Tile8x8
 /PaintProc {0.5 setlinewidth pop -4 8 M 8 -4 L
	0 12 M 12 0 L stroke}
>> matrix makepattern
/Pat4 exch def
<< Tile8x8
 /PaintProc {0.5 setlinewidth pop -4 0 M 8 12 L
	0 -4 M 12 8 L stroke}
>> matrix makepattern
/Pat5 exch def
<< Tile8x8
 /PaintProc {0.5 setlinewidth pop -2 8 M 4 -4 L
	0 12 M 8 -4 L 4 12 M 10 0 L stroke}
>> matrix makepattern
/Pat6 exch def
<< Tile8x8
 /PaintProc {0.5 setlinewidth pop -2 0 M 4 12 L
	0 -4 M 8 12 L 4 -4 M 10 8 L stroke}
>> matrix makepattern
/Pat7 exch def
<< Tile8x8
 /PaintProc {0.5 setlinewidth pop 8 -2 M -4 4 L
	12 0 M -4 8 L 12 4 M 0 10 L stroke}
>> matrix makepattern
/Pat8 exch def
<< Tile8x8
 /PaintProc {0.5 setlinewidth pop 0 -2 M 12 4 L
	-4 0 M 12 8 L -4 4 M 8 10 L stroke}
>> matrix makepattern
/Pat9 exch def
/Pattern1 {PatternBgnd KeepColor Pat1 setpattern} bind def
/Pattern2 {PatternBgnd KeepColor Pat2 setpattern} bind def
/Pattern3 {PatternBgnd KeepColor Pat3 setpattern} bind def
/Pattern4 {PatternBgnd KeepColor Landscape {Pat5} {Pat4} ifelse setpattern} bind def
/Pattern5 {PatternBgnd KeepColor Landscape {Pat4} {Pat5} ifelse setpattern} bind def
/Pattern6 {PatternBgnd KeepColor Landscape {Pat9} {Pat6} ifelse setpattern} bind def
/Pattern7 {PatternBgnd KeepColor Landscape {Pat8} {Pat7} ifelse setpattern} bind def
} def
%
%
%End of PostScript Level 2 code
%
/PatternBgnd {
  TransparentPatterns {} {gsave 1 setgray fill grestore} ifelse
} def
%
% Substitute for Level 2 pattern fill codes with
% grayscale if Level 2 support is not selected.
%
/Level1PatternFill {
/Pattern1 {0.250 Density} bind def
/Pattern2 {0.500 Density} bind def
/Pattern3 {0.750 Density} bind def
/Pattern4 {0.125 Density} bind def
/Pattern5 {0.375 Density} bind def
/Pattern6 {0.625 Density} bind def
/Pattern7 {0.875 Density} bind def
} def
%
% Now test for support of Level 2 code
%
Level1 {Level1PatternFill} {Level2PatternFill} ifelse
%
/Symbol-Oblique /Symbol findfont [1 0 .167 1 0 0] makefont
dup length dict begin {1 index /FID eq {pop pop} {def} ifelse} forall
currentdict end definefont pop
%
/MFshow {
   { dup 5 get 3 ge
     { 5 get 3 eq {gsave} {grestore} ifelse }
     {dup dup 0 get findfont exch 1 get scalefont setfont
     [ currentpoint ] exch dup 2 get 0 exch R dup 5 get 2 ne {dup dup 6
     get exch 4 get {textshow} {stringwidth pop 0 R} ifelse }if dup 5 get 0 eq
     {dup 3 get {2 get neg 0 exch R pop} {pop aload pop M} ifelse} {dup 5
     get 1 eq {dup 2 get exch dup 3 get exch 6 get stringwidth pop -2 div
     dup 0 R} {dup 6 get stringwidth pop -2 div 0 R 6 get
     textshow 2 index {aload pop M neg 3 -1 roll neg R pop pop} {pop pop pop
     pop aload pop M} ifelse }ifelse }ifelse }
     ifelse }
   forall} def
/Gswidth {dup type /stringtype eq {stringwidth} {pop (n) stringwidth} ifelse} def
/MFwidth {0 exch { dup 5 get 3 ge { 5 get 3 eq { 0 } { pop } ifelse }
 {dup 3 get{dup dup 0 get findfont exch 1 get scalefont setfont
     6 get Gswidth pop add} {pop} ifelse} ifelse} forall} def
/MLshow { currentpoint stroke M
  0 exch R
  Blacktext {gsave 0 setgray MFshow grestore} {MFshow} ifelse } bind def
/MRshow { currentpoint stroke M
  exch dup MFwidth neg 3 -1 roll R
  Blacktext {gsave 0 setgray MFshow grestore} {MFshow} ifelse } bind def
/MCshow { currentpoint stroke M
  exch dup MFwidth -2 div 3 -1 roll R
  Blacktext {gsave 0 setgray MFshow grestore} {MFshow} ifelse } bind def
/XYsave    { [( ) 1 2 true false 3 ()] } bind def
/XYrestore { [( ) 1 2 true false 4 ()] } bind def
Level1 SuppressPDFMark or 
{} {
/SDict 10 dict def
systemdict /pdfmark known not {
  userdict /pdfmark systemdict /cleartomark get put
} if
SDict begin [
  /Title (100UE-download-80Mbps.eps)
  /Subject (gnuplot plot)
  /Creator (gnuplot 5.0 patchlevel 3)
  /Author (nat)
%  /Producer (gnuplot)
%  /Keywords ()
  /CreationDate (Thu Jun  2 09:48:02 2016)
  /DOCINFO pdfmark
end
} ifelse
%
% Support for boxed text - Ethan A Merritt May 2005
%
/InitTextBox { userdict /TBy2 3 -1 roll put userdict /TBx2 3 -1 roll put
           userdict /TBy1 3 -1 roll put userdict /TBx1 3 -1 roll put
	   /Boxing true def } def
/ExtendTextBox { Boxing
    { gsave dup false charpath pathbbox
      dup TBy2 gt {userdict /TBy2 3 -1 roll put} {pop} ifelse
      dup TBx2 gt {userdict /TBx2 3 -1 roll put} {pop} ifelse
      dup TBy1 lt {userdict /TBy1 3 -1 roll put} {pop} ifelse
      dup TBx1 lt {userdict /TBx1 3 -1 roll put} {pop} ifelse
      grestore } if } def
/PopTextBox { newpath TBx1 TBxmargin sub TBy1 TBymargin sub M
               TBx1 TBxmargin sub TBy2 TBymargin add L
	       TBx2 TBxmargin add TBy2 TBymargin add L
	       TBx2 TBxmargin add TBy1 TBymargin sub L closepath } def
/DrawTextBox { PopTextBox stroke /Boxing false def} def
/FillTextBox { gsave PopTextBox 1 1 1 setrgbcolor fill grestore /Boxing false def} def
0 0 0 0 InitTextBox
/TBxmargin 20 def
/TBymargin 20 def
/Boxing false def
/textshow { ExtendTextBox Gshow } def
%
% redundant definitions for compatibility with prologue.ps older than 5.0.2
/LTB {BL [] LCb DL} def
/LTb {PL [] LCb DL} def
end
%%EndProlog
%%Page: 1 1
gnudict begin
gsave
doclip
50 50 translate
0.050 0.050 scale
0 setgray
newpath
(Arial) findfont 200 scalefont setfont
BackgroundColor 0 lt 3 1 roll 0 lt exch 0 lt or or not {BackgroundColor C 1.000 0 0 14400.00 5040.00 BoxColFill} if
1.000 UL
LTb
0.00 0.00 0.00 C 0.500 UL
LTa
0.50 0.50 0.50 C 980 992 M
5859 0 V
stroke
1.000 UL
LTb
0.00 0.00 0.00 C 980 992 M
63 0 V
5796 0 R
-63 0 V
stroke
860 992 M
[ [(Arial) 200.0 0.0 true true 0 ( 50)]
] -66.7 MRshow
1.000 UL
LTb
0.00 0.00 0.00 C 0.500 UL
LTa
0.50 0.50 0.50 C 980 1854 M
5859 0 V
stroke
1.000 UL
LTb
0.00 0.00 0.00 C 980 1854 M
63 0 V
5796 0 R
-63 0 V
stroke
860 1854 M
[ [(Arial) 200.0 0.0 true true 0 ( 100)]
] -66.7 MRshow
1.000 UL
LTb
0.00 0.00 0.00 C 0.500 UL
LTa
0.50 0.50 0.50 C 980 2716 M
5859 0 V
stroke
1.000 UL
LTb
0.00 0.00 0.00 C 980 2716 M
63 0 V
5796 0 R
-63 0 V
stroke
860 2716 M
[ [(Arial) 200.0 0.0 true true 0 ( 150)]
] -66.7 MRshow
1.000 UL
LTb
0.00 0.00 0.00 C 0.500 UL
LTa
0.50 0.50 0.50 C 980 3577 M
5859 0 V
stroke
1.000 UL
LTb
0.00 0.00 0.00 C 980 3577 M
63 0 V
5796 0 R
-63 0 V
stroke
860 3577 M
[ [(Arial) 200.0 0.0 true true 0 ( 200)]
] -66.7 MRshow
1.000 UL
LTb
0.00 0.00 0.00 C 0.500 UL
LTa
0.50 0.50 0.50 C 980 4439 M
5859 0 V
stroke
1.000 UL
LTb
0.00 0.00 0.00 C 980 4439 M
63 0 V
5796 0 R
-63 0 V
stroke
860 4439 M
[ [(Arial) 200.0 0.0 true true 0 ( 250)]
] -66.7 MRshow
1.000 UL
LTb
0.00 0.00 0.00 C 0.500 UL
LTa
0.50 0.50 0.50 C 1273 820 M
0 3619 V
stroke
1.000 UL
LTb
0.00 0.00 0.00 C 1273 820 M
0 63 V
0 3556 R
0 -63 V
stroke
1273 620 M
[ [(Arial) 200.0 0.0 true true 0 (NewReno)]
] -66.7 MCshow
1.000 UL
LTb
0.00 0.00 0.00 C 0.500 UL
LTa
0.50 0.50 0.50 C 2152 820 M
0 3619 V
stroke
1.000 UL
LTb
0.00 0.00 0.00 C 2152 820 M
0 63 V
0 3556 R
0 -63 V
stroke
2152 620 M
[ [(Arial) 200.0 0.0 true true 0 (Cubic)]
] -66.7 MCshow
1.000 UL
LTb
0.00 0.00 0.00 C 0.500 UL
LTa
0.50 0.50 0.50 C 3031 820 M
0 3619 V
stroke
1.000 UL
LTb
0.00 0.00 0.00 C 3031 820 M
0 63 V
0 3556 R
0 -63 V
stroke
3031 620 M
[ [(Arial) 200.0 0.0 true true 0 (HighSpeed)]
] -66.7 MCshow
1.000 UL
LTb
0.00 0.00 0.00 C 0.500 UL
LTa
0.50 0.50 0.50 C 3910 820 M
0 3619 V
stroke
1.000 UL
LTb
0.00 0.00 0.00 C 3910 820 M
0 63 V
0 3556 R
0 -63 V
stroke
3910 620 M
[ [(Arial) 200.0 0.0 true true 0 (Westwood)]
] -66.7 MCshow
1.000 UL
LTb
0.00 0.00 0.00 C 0.500 UL
LTa
0.50 0.50 0.50 C 4788 820 M
0 3619 V
stroke
1.000 UL
LTb
0.00 0.00 0.00 C 4788 820 M
0 63 V
0 3556 R
0 -63 V
stroke
4788 620 M
[ [(Arial) 200.0 0.0 true true 0 (Hybla)]
] -66.7 MCshow
1.000 UL
LTb
0.00 0.00 0.00 C 0.500 UL
LTa
0.50 0.50 0.50 C 5667 820 M
0 3619 V
stroke
1.000 UL
LTb
0.00 0.00 0.00 C 5667 820 M
0 63 V
0 3556 R
0 -63 V
stroke
5667 620 M
[ [(Arial) 200.0 0.0 true true 0 (Vegas)]
] -66.7 MCshow
1.000 UL
LTb
0.00 0.00 0.00 C 0.500 UL
LTa
0.50 0.50 0.50 C 6546 820 M
0 3619 V
stroke
1.000 UL
LTb
0.00 0.00 0.00 C 6546 820 M
0 63 V
0 3556 R
0 -63 V
stroke
6546 620 M
[ [(Arial) 200.0 0.0 true true 0 (Scalable)]
] -66.7 MCshow
1.000 UL
LTb
0.00 0.00 0.00 C 1.000 UL
LTB
0.00 0.00 0.00 C 980 4439 M
980 820 L
5859 0 V
0 3619 R
-5859 0 R
1.000 UP
stroke
LTb
0.00 0.00 0.00 C LCb setrgbcolor
160 2629 M
currentpoint gsave translate -270 rotate 0 0 moveto
[ [(Arial) 200.0 0.0 true true 0 (RTT \(ms\))]
] -66.7 MCshow
grestore
LTb
LCb setrgbcolor
3909 320 M
[ [(Arial) 200.0 0.0 true true 0 (TCP)]
] -66.7 MCshow
LTb
LCb setrgbcolor
3909 4739 M
[ [(Arial) 200.0 0.0 true true 0 (a\) RTT)]
] -66.7 MCshow
% Begin plot #1
1.000 UL
LTb
0.60 0.60 0.00 C LCb setrgbcolor
2654 153 M
[ [(Arial) 180.0 0.0 true true 0 (olsr)]
] -60.0 MRshow
1.000 UL
LTb
0.60 0.60 0.00 C 2762 108 333 90 80 -45 0 PatternFill
2762 108 N
333 0 V
0 90 V
-333 0 V
0 -90 V
Z stroke
1.000 UL
LTb
0.60 0.60 0.00 C 1068 988 118 302 80 -45 0 PatternFill
1127 949 M
0 39 V
0 302 R
0 711 V
stroke
1068 988 N
118 0 V
0 302 V
-118 0 V
0 -302 V
Z stroke
1068 2001 M
118 0 V
1068 949 M
118 0 V
stroke
1947 975 118 299 80 -45 0 PatternFill
2006 942 M
0 33 V
0 299 R
0 733 V
stroke
1947 975 N
118 0 V
0 299 V
-118 0 V
0 -299 V
Z stroke
1947 2007 M
118 0 V
1947 942 M
118 0 V
stroke
2826 1006 118 569 80 -45 0 PatternFill
2885 958 M
0 48 V
0 569 R
0 866 V
stroke
2826 1006 N
118 0 V
0 569 V
-118 0 V
0 -569 V
Z stroke
2826 2441 M
118 0 V
2826 958 M
118 0 V
stroke
3704 987 118 289 80 -45 0 PatternFill
3763 950 M
0 37 V
0 289 R
0 681 V
stroke
3704 987 N
118 0 V
0 289 V
-118 0 V
0 -289 V
Z stroke
3704 1957 M
118 0 V
3704 950 M
118 0 V
stroke
4583 1010 118 570 80 -45 0 PatternFill
4642 960 M
0 50 V
0 570 R
0 879 V
stroke
4583 1010 N
118 0 V
0 570 V
-118 0 V
0 -570 V
Z stroke
4583 2459 M
118 0 V
4583 960 M
118 0 V
stroke
5462 1035 118 187 80 -45 0 PatternFill
5521 981 M
0 54 V
0 187 R
0 253 V
stroke
5462 1035 N
118 0 V
0 187 V
-118 0 V
0 -187 V
Z stroke
5462 1475 M
118 0 V
5462 981 M
118 0 V
stroke
6341 1012 118 626 80 -45 0 PatternFill
6400 960 M
0 52 V
0 626 R
0 873 V
stroke
6341 1012 N
118 0 V
0 626 V
-118 0 V
0 -626 V
Z stroke
6341 2511 M
118 0 V
6341 960 M
118 0 V
% End plot #1
% Begin plot #2
stroke
LTb
LCb setrgbcolor

 /TransparentPatterns true def
1068 1193 118 0 40 30 0 PatternFill
1127 1193 M
stroke
1068 1193 N
118 0 V
-118 0 V
Z stroke
1068 1193 M
118 0 V
-118 0 R
118 0 V
stroke

 /TransparentPatterns true def
1947 1189 118 0 40 30 0 PatternFill
2006 1189 M
stroke
1947 1189 N
118 0 V
-118 0 V
Z stroke
1947 1189 M
118 0 V
-118 0 R
118 0 V
stroke

 /TransparentPatterns true def
2826 1332 118 0 40 30 0 PatternFill
2885 1332 M
stroke
2826 1332 N
118 0 V
-118 0 V
Z stroke
2826 1332 M
118 0 V
-118 0 R
118 0 V
stroke

 /TransparentPatterns true def
3704 1189 118 0 40 30 0 PatternFill
3763 1189 M
stroke
3704 1189 N
118 0 V
-118 0 V
Z stroke
3704 1189 M
118 0 V
-118 0 R
118 0 V
stroke

 /TransparentPatterns true def
4583 1337 118 0 40 30 0 PatternFill
4642 1337 M
stroke
4583 1337 N
118 0 V
-118 0 V
Z stroke
4583 1337 M
118 0 V
-118 0 R
118 0 V
stroke

 /TransparentPatterns true def
5462 1157 118 0 40 30 0 PatternFill
5521 1157 M
stroke
5462 1157 N
118 0 V
-118 0 V
Z stroke
5462 1157 M
118 0 V
-118 0 R
118 0 V
stroke

 /TransparentPatterns true def
6341 1363 118 0 40 30 0 PatternFill
6400 1363 M
stroke
6341 1363 N
118 0 V
-118 0 V
Z stroke
6341 1363 M
118 0 V
-118 0 R
118 0 V
% End plot #2
% Begin plot #3
stroke
LTb
0.00 0.00 0.63 C LCb setrgbcolor
4067 153 M
[ [(Arial) 180.0 0.0 true true 0 (per-packet)]
] -60.0 MRshow
1.000 UL
LTb
0.00 0.00 0.63 C 4175 108 333 90 80 45 0 PatternFill
4175 108 N
333 0 V
0 90 V
-333 0 V
0 -90 V
Z stroke
1.000 UL
LTb
0.00 0.00 0.63 C 1214 998 118 505 80 45 0 PatternFill
1273 952 M
0 46 V
0 505 R
0 731 V
stroke
1214 998 N
118 0 V
0 505 V
-118 0 V
0 -505 V
Z stroke
1214 2234 M
118 0 V
1214 952 M
118 0 V
stroke
2093 1014 118 582 80 45 0 PatternFill
2152 954 M
0 60 V
0 582 R
0 635 V
stroke
2093 1014 N
118 0 V
0 582 V
-118 0 V
0 -582 V
Z stroke
2093 2231 M
118 0 V
2093 954 M
118 0 V
stroke
2972 1012 118 678 80 45 0 PatternFill
3031 953 M
0 59 V
0 678 R
0 683 V
stroke
2972 1012 N
118 0 V
0 678 V
-118 0 V
0 -678 V
Z stroke
2972 2373 M
118 0 V
2972 953 M
118 0 V
stroke
3851 994 118 289 80 45 0 PatternFill
3910 952 M
0 42 V
0 289 R
0 730 V
stroke
3851 994 N
118 0 V
0 289 V
-118 0 V
0 -289 V
Z stroke
3851 2013 M
118 0 V
3851 952 M
118 0 V
stroke
4730 1006 118 626 80 45 0 PatternFill
4789 954 M
0 52 V
0 626 R
0 694 V
stroke
4730 1006 N
118 0 V
0 626 V
-118 0 V
0 -626 V
Z stroke
4730 2326 M
118 0 V
4730 954 M
118 0 V
stroke
5609 1020 118 181 80 45 0 PatternFill
5668 973 M
0 47 V
0 181 R
0 221 V
stroke
5609 1020 N
118 0 V
0 181 V
-118 0 V
0 -181 V
Z stroke
5609 1422 M
118 0 V
5609 973 M
118 0 V
stroke
6487 1038 118 761 80 45 0 PatternFill
6546 967 M
0 71 V
0 761 R
0 670 V
stroke
6487 1038 N
118 0 V
0 761 V
-118 0 V
0 -761 V
Z stroke
6487 2469 M
118 0 V
6487 967 M
118 0 V
% End plot #3
% Begin plot #4
stroke
LTb
LCb setrgbcolor

 /TransparentPatterns true def
1214 1278 118 0 80 -45 0 PatternFill
1273 1278 M
stroke
1214 1278 N
118 0 V
-118 0 V
Z stroke
1214 1278 M
118 0 V
-118 0 R
118 0 V
stroke

 /TransparentPatterns true def
2093 1332 118 0 80 -45 0 PatternFill
2152 1332 M
stroke
2093 1332 N
118 0 V
-118 0 V
Z stroke
2093 1332 M
118 0 V
-118 0 R
118 0 V
stroke

 /TransparentPatterns true def
2972 1367 118 0 80 -45 0 PatternFill
3031 1367 M
stroke
2972 1367 N
118 0 V
-118 0 V
Z stroke
2972 1367 M
118 0 V
-118 0 R
118 0 V
stroke

 /TransparentPatterns true def
3851 1194 118 0 80 -45 0 PatternFill
3910 1194 M
stroke
3851 1194 N
118 0 V
-118 0 V
Z stroke
3851 1194 M
118 0 V
-118 0 R
118 0 V
stroke

 /TransparentPatterns true def
4730 1338 118 0 80 -45 0 PatternFill
4789 1338 M
stroke
4730 1338 N
118 0 V
-118 0 V
Z stroke
4730 1338 M
118 0 V
-118 0 R
118 0 V
stroke

 /TransparentPatterns true def
5609 1130 118 0 80 -45 0 PatternFill
5668 1130 M
stroke
5609 1130 N
118 0 V
-118 0 V
Z stroke
5609 1130 M
118 0 V
-118 0 R
118 0 V
stroke

 /TransparentPatterns true def
6487 1435 118 0 80 -45 0 PatternFill
6546 1435 M
stroke
6487 1435 N
118 0 V
-118 0 V
Z stroke
6487 1435 M
118 0 V
-118 0 R
118 0 V
% End plot #4
% Begin plot #5
stroke
LTb
0.00 0.38 0.82 C LCb setrgbcolor
5480 153 M
[ [(Arial) 180.0 0.0 true true 0 (per-flow)]
] -60.0 MRshow
1.000 UL
LTb
0.00 0.38 0.82 C 5588 108 333 90 40 30 0 PatternFill
5588 108 N
333 0 V
0 90 V
-333 0 V
0 -90 V
Z stroke
1.000 UL
LTb
0.00 0.38 0.82 C 1361 1014 118 796 40 30 0 PatternFill
1420 958 M
0 56 V
0 796 R
0 1363 V
stroke
1361 1014 N
118 0 V
0 796 V
-118 0 V
0 -796 V
Z stroke
1361 3173 M
118 0 V
1361 958 M
118 0 V
stroke
2240 1056 118 1087 40 30 0 PatternFill
2299 969 M
0 87 V
0 1087 R
0 1295 V
stroke
2240 1056 N
118 0 V
0 1087 V
-118 0 V
0 -1087 V
Z stroke
2240 3438 M
118 0 V
2240 969 M
118 0 V
stroke
3119 1089 118 1394 40 30 0 PatternFill
3178 990 M
0 99 V
0 1394 R
0 1321 V
stroke
3119 1089 N
118 0 V
0 1394 V
-118 0 V
0 -1394 V
Z stroke
3119 3804 M
118 0 V
3119 990 M
118 0 V
stroke
3997 1002 118 510 40 30 0 PatternFill
4056 957 M
0 45 V
0 510 R
0 1358 V
stroke
3997 1002 N
118 0 V
0 510 V
-118 0 V
0 -510 V
Z stroke
3997 2870 M
118 0 V
3997 957 M
118 0 V
stroke
4876 1060 118 1261 40 30 0 PatternFill
4935 976 M
0 84 V
0 1261 R
0 1434 V
stroke
4876 1060 N
118 0 V
0 1261 V
-118 0 V
0 -1261 V
Z stroke
4876 3755 M
118 0 V
4876 976 M
118 0 V
stroke
5755 1037 118 206 40 30 0 PatternFill
5814 981 M
0 56 V
0 206 R
0 226 V
stroke
5755 1037 N
118 0 V
0 206 V
-118 0 V
0 -206 V
Z stroke
5755 1469 M
118 0 V
5755 981 M
118 0 V
stroke
6634 1153 118 1478 40 30 0 PatternFill
6693 1005 M
0 148 V
0 1478 R
0 1334 V
stroke
6634 1153 N
118 0 V
0 1478 V
-118 0 V
0 -1478 V
Z stroke
6634 3965 M
118 0 V
6634 1005 M
118 0 V
% End plot #5
% Begin plot #6
stroke
LTb
LCb setrgbcolor

 /TransparentPatterns true def
1361 1490 118 0 40 -30 0 PatternFill
1420 1490 M
stroke
1361 1490 N
118 0 V
-118 0 V
Z stroke
1361 1490 M
118 0 V
-118 0 R
118 0 V
stroke

 /TransparentPatterns true def
2240 1660 118 0 40 -30 0 PatternFill
2299 1660 M
stroke
2240 1660 N
118 0 V
-118 0 V
Z stroke
2240 1660 M
118 0 V
-118 0 R
118 0 V
stroke

 /TransparentPatterns true def
3119 1821 118 0 40 -30 0 PatternFill
3178 1821 M
stroke
3119 1821 N
118 0 V
-118 0 V
Z stroke
3119 1821 M
118 0 V
-118 0 R
118 0 V
stroke

 /TransparentPatterns true def
3997 1346 118 0 40 -30 0 PatternFill
4056 1346 M
stroke
3997 1346 N
118 0 V
-118 0 V
Z stroke
3997 1346 M
118 0 V
-118 0 R
118 0 V
stroke

 /TransparentPatterns true def
4876 1724 118 0 40 -30 0 PatternFill
4935 1724 M
stroke
4876 1724 N
118 0 V
-118 0 V
Z stroke
4876 1724 M
118 0 V
-118 0 R
118 0 V
stroke

 /TransparentPatterns true def
5755 1161 118 0 40 -30 0 PatternFill
5814 1161 M
stroke
5755 1161 N
118 0 V
-118 0 V
Z stroke
5755 1161 M
118 0 V
-118 0 R
118 0 V
stroke

 /TransparentPatterns true def
6634 1948 118 0 40 -30 0 PatternFill
6693 1948 M
stroke
6634 1948 N
118 0 V
-118 0 V
Z stroke
6634 1948 M
118 0 V
-118 0 R
118 0 V
% End plot #6
stroke
2.000 UL
LTb
LCb setrgbcolor
1.000 UP
1.000 UL
LTb
0.00 0.00 0.00 C 1.000 UL
LTb
0.00 0.00 0.00 C 0.500 UL
LTa
0.50 0.50 0.50 C 8180 820 M
5859 0 V
stroke
1.000 UL
LTb
0.00 0.00 0.00 C 8180 820 M
63 0 V
5796 0 R
-63 0 V
stroke
8060 820 M
[ [(Arial) 200.0 0.0 true true 0 ( 0)]
] -66.7 MRshow
1.000 UL
LTb
0.00 0.00 0.00 C 0.500 UL
LTa
0.50 0.50 0.50 C 8180 1423 M
5859 0 V
stroke
1.000 UL
LTb
0.00 0.00 0.00 C 8180 1423 M
63 0 V
5796 0 R
-63 0 V
stroke
8060 1423 M
[ [(Arial) 200.0 0.0 true true 0 ( 20)]
] -66.7 MRshow
1.000 UL
LTb
0.00 0.00 0.00 C 0.500 UL
LTa
0.50 0.50 0.50 C 8180 2026 M
5859 0 V
stroke
1.000 UL
LTb
0.00 0.00 0.00 C 8180 2026 M
63 0 V
5796 0 R
-63 0 V
stroke
8060 2026 M
[ [(Arial) 200.0 0.0 true true 0 ( 40)]
] -66.7 MRshow
1.000 UL
LTb
0.00 0.00 0.00 C 0.500 UL
LTa
0.50 0.50 0.50 C 8180 2630 M
5859 0 V
stroke
1.000 UL
LTb
0.00 0.00 0.00 C 8180 2630 M
63 0 V
5796 0 R
-63 0 V
stroke
8060 2630 M
[ [(Arial) 200.0 0.0 true true 0 ( 60)]
] -66.7 MRshow
1.000 UL
LTb
0.00 0.00 0.00 C 0.500 UL
LTa
0.50 0.50 0.50 C 8180 3233 M
5859 0 V
stroke
1.000 UL
LTb
0.00 0.00 0.00 C 8180 3233 M
63 0 V
5796 0 R
-63 0 V
stroke
8060 3233 M
[ [(Arial) 200.0 0.0 true true 0 ( 80)]
] -66.7 MRshow
1.000 UL
LTb
0.00 0.00 0.00 C 0.500 UL
LTa
0.50 0.50 0.50 C 8180 3836 M
5859 0 V
stroke
1.000 UL
LTb
0.00 0.00 0.00 C 8180 3836 M
63 0 V
5796 0 R
-63 0 V
stroke
8060 3836 M
[ [(Arial) 200.0 0.0 true true 0 ( 100)]
] -66.7 MRshow
1.000 UL
LTb
0.00 0.00 0.00 C 0.500 UL
LTa
0.50 0.50 0.50 C 8180 4439 M
5859 0 V
stroke
1.000 UL
LTb
0.00 0.00 0.00 C 8180 4439 M
63 0 V
5796 0 R
-63 0 V
stroke
8060 4439 M
[ [(Arial) 200.0 0.0 true true 0 ( 120)]
] -66.7 MRshow
1.000 UL
LTb
0.00 0.00 0.00 C 0.500 UL
LTa
0.50 0.50 0.50 C 8473 820 M
0 3619 V
stroke
1.000 UL
LTb
0.00 0.00 0.00 C 8473 820 M
0 63 V
0 3556 R
0 -63 V
stroke
8473 620 M
[ [(Arial) 200.0 0.0 true true 0 (NewReno)]
] -66.7 MCshow
1.000 UL
LTb
0.00 0.00 0.00 C 0.500 UL
LTa
0.50 0.50 0.50 C 9352 820 M
0 3619 V
stroke
1.000 UL
LTb
0.00 0.00 0.00 C 9352 820 M
0 63 V
0 3556 R
0 -63 V
stroke
9352 620 M
[ [(Arial) 200.0 0.0 true true 0 (Cubic)]
] -66.7 MCshow
1.000 UL
LTb
0.00 0.00 0.00 C 0.500 UL
LTa
0.50 0.50 0.50 C 10231 820 M
0 3619 V
stroke
1.000 UL
LTb
0.00 0.00 0.00 C 10231 820 M
0 63 V
0 3556 R
0 -63 V
stroke
10231 620 M
[ [(Arial) 200.0 0.0 true true 0 (HighSpeed)]
] -66.7 MCshow
1.000 UL
LTb
0.00 0.00 0.00 C 0.500 UL
LTa
0.50 0.50 0.50 C 11110 820 M
0 3619 V
stroke
1.000 UL
LTb
0.00 0.00 0.00 C 11110 820 M
0 63 V
0 3556 R
0 -63 V
stroke
11110 620 M
[ [(Arial) 200.0 0.0 true true 0 (Westwood)]
] -66.7 MCshow
1.000 UL
LTb
0.00 0.00 0.00 C 0.500 UL
LTa
0.50 0.50 0.50 C 11988 820 M
0 3619 V
stroke
1.000 UL
LTb
0.00 0.00 0.00 C 11988 820 M
0 63 V
0 3556 R
0 -63 V
stroke
11988 620 M
[ [(Arial) 200.0 0.0 true true 0 (Hybla)]
] -66.7 MCshow
1.000 UL
LTb
0.00 0.00 0.00 C 0.500 UL
LTa
0.50 0.50 0.50 C 12867 820 M
0 3619 V
stroke
1.000 UL
LTb
0.00 0.00 0.00 C 12867 820 M
0 63 V
0 3556 R
0 -63 V
stroke
12867 620 M
[ [(Arial) 200.0 0.0 true true 0 (Vegas)]
] -66.7 MCshow
1.000 UL
LTb
0.00 0.00 0.00 C 0.500 UL
LTa
0.50 0.50 0.50 C 13746 820 M
0 3619 V
stroke
1.000 UL
LTb
0.00 0.00 0.00 C 13746 820 M
0 63 V
0 3556 R
0 -63 V
stroke
13746 620 M
[ [(Arial) 200.0 0.0 true true 0 (Scalable)]
] -66.7 MCshow
1.000 UL
LTb
0.00 0.00 0.00 C 1.000 UL
LTB
0.00 0.00 0.00 C 8180 4439 M
0 -3619 V
5859 0 V
0 3619 R
-5859 0 R
1.000 UP
stroke
LTb
0.00 0.00 0.00 C LCb setrgbcolor
7360 2629 M
currentpoint gsave translate -270 rotate 0 0 moveto
[ [(Arial) 200.0 0.0 true true 0 (File download time \(s\))]
] -66.7 MCshow
grestore
LTb
LCb setrgbcolor
11109 320 M
[ [(Arial) 200.0 0.0 true true 0 (TCP)]
] -66.7 MCshow
LTb
LCb setrgbcolor
11109 4739 M
[ [(Arial) 200.0 0.0 true true 0 (b\) File download time)]
] -66.7 MCshow
% Begin plot #1
1.000 UL
LTb
0.60 0.60 0.00 C LCb setrgbcolor
9854 153 M
[ [(Arial) 180.0 0.0 true true 0 (olsr)]
] -60.0 MRshow
1.000 UL
LTb
0.60 0.60 0.00 C 9962 108 333 90 80 -45 0 PatternFill
9962 108 N
333 0 V
0 90 V
-333 0 V
0 -90 V
Z stroke
1.000 UL
LTb
0.60 0.60 0.00 C 8268 1300 118 423 80 -45 0 PatternFill
8327 924 M
0 376 V
0 423 R
0 997 V
stroke
8268 1300 N
118 0 V
0 423 V
-118 0 V
0 -423 V
Z stroke
8268 2720 M
118 0 V
8268 924 M
118 0 V
stroke
9147 1279 118 660 80 -45 0 PatternFill
9206 912 M
0 367 V
0 660 R
0 1326 V
stroke
9147 1279 N
118 0 V
0 660 V
-118 0 V
0 -660 V
Z stroke
9147 3265 M
118 0 V
9147 912 M
118 0 V
stroke
10026 1235 118 403 80 -45 0 PatternFill
10085 908 M
0 327 V
0 403 R
0 462 V
stroke
10026 1235 N
118 0 V
0 403 V
-118 0 V
0 -403 V
Z stroke
10026 2100 M
118 0 V
10026 908 M
118 0 V
stroke
10904 1369 118 494 80 -45 0 PatternFill
10963 1011 M
0 358 V
0 494 R
0 1319 V
stroke
10904 1369 N
118 0 V
0 494 V
-118 0 V
0 -494 V
Z stroke
10904 3182 M
118 0 V
10904 1011 M
118 0 V
stroke
11783 1265 118 384 80 -45 0 PatternFill
11842 909 M
0 356 V
0 384 R
0 515 V
stroke
11783 1265 N
118 0 V
0 384 V
-118 0 V
0 -384 V
Z stroke
11783 2164 M
118 0 V
11783 909 M
118 0 V
stroke
12662 1736 118 872 80 -45 0 PatternFill
12721 907 M
0 829 V
0 872 R
0 386 V
stroke
12662 1736 N
118 0 V
0 872 V
-118 0 V
0 -872 V
Z stroke
12662 2994 M
118 0 V
12662 907 M
118 0 V
stroke
13541 1221 118 368 80 -45 0 PatternFill
13600 914 M
0 307 V
0 368 R
0 292 V
stroke
13541 1221 N
118 0 V
0 368 V
-118 0 V
0 -368 V
Z stroke
13541 1881 M
118 0 V
13541 914 M
118 0 V
% End plot #1
% Begin plot #2
stroke
LTb
LCb setrgbcolor

 /TransparentPatterns true def
8268 1518 118 0 40 30 0 PatternFill
8327 1518 M
stroke
8268 1518 N
118 0 V
-118 0 V
Z stroke
8268 1518 M
118 0 V
-118 0 R
118 0 V
stroke

 /TransparentPatterns true def
9147 1629 118 0 40 30 0 PatternFill
9206 1629 M
stroke
9147 1629 N
118 0 V
-118 0 V
Z stroke
9147 1629 M
118 0 V
-118 0 R
118 0 V
stroke

 /TransparentPatterns true def
10026 1442 118 0 40 30 0 PatternFill
10085 1442 M
stroke
10026 1442 N
118 0 V
-118 0 V
Z stroke
10026 1442 M
118 0 V
-118 0 R
118 0 V
stroke

 /TransparentPatterns true def
10904 1656 118 0 40 30 0 PatternFill
10963 1656 M
stroke
10904 1656 N
118 0 V
-118 0 V
Z stroke
10904 1656 M
118 0 V
-118 0 R
118 0 V
stroke

 /TransparentPatterns true def
11783 1449 118 0 40 30 0 PatternFill
11842 1449 M
stroke
11783 1449 N
118 0 V
-118 0 V
Z stroke
11783 1449 M
118 0 V
-118 0 R
118 0 V
stroke

 /TransparentPatterns true def
12662 2148 118 0 40 30 0 PatternFill
12721 2148 M
stroke
12662 2148 N
118 0 V
-118 0 V
Z stroke
12662 2148 M
118 0 V
-118 0 R
118 0 V
stroke

 /TransparentPatterns true def
13541 1406 118 0 40 30 0 PatternFill
13600 1406 M
stroke
13541 1406 N
118 0 V
-118 0 V
Z stroke
13541 1406 M
118 0 V
-118 0 R
118 0 V
% End plot #2
% Begin plot #3
stroke
LTb
0.00 0.00 0.63 C LCb setrgbcolor
11267 153 M
[ [(Arial) 180.0 0.0 true true 0 (per-packet)]
] -60.0 MRshow
1.000 UL
LTb
0.00 0.00 0.63 C 11375 108 333 90 80 45 0 PatternFill
11375 108 N
333 0 V
0 90 V
-333 0 V
0 -90 V
Z stroke
1.000 UL
LTb
0.00 0.00 0.63 C 8414 1033 118 2072 80 45 0 PatternFill
8473 909 M
0 124 V
0 2072 R
0 529 V
stroke
8414 1033 N
118 0 V
0 2072 V
-118 0 V
0 -2072 V
Z stroke
8414 3634 M
118 0 V
8414 909 M
118 0 V
stroke
9293 967 118 2251 80 45 0 PatternFill
9352 895 M
0 72 V
0 2251 R
0 513 V
stroke
9293 967 N
118 0 V
0 2251 V
-118 0 V
0 -2251 V
Z stroke
9293 3731 M
118 0 V
9293 895 M
118 0 V
stroke
10172 956 118 1792 80 45 0 PatternFill
10231 900 M
0 56 V
0 1792 R
0 566 V
stroke
10172 956 N
118 0 V
0 1792 V
-118 0 V
0 -1792 V
Z stroke
10172 3314 M
118 0 V
10172 900 M
118 0 V
stroke
11051 1254 118 1962 80 45 0 PatternFill
11110 1018 M
0 236 V
0 1962 R
0 787 V
stroke
11051 1254 N
118 0 V
0 1962 V
-118 0 V
0 -1962 V
Z stroke
11051 4003 M
118 0 V
11051 1018 M
118 0 V
stroke
11930 1026 118 1578 80 45 0 PatternFill
11989 921 M
0 105 V
0 1578 R
0 784 V
stroke
11930 1026 N
118 0 V
0 1578 V
-118 0 V
0 -1578 V
Z stroke
11930 3388 M
118 0 V
11930 921 M
118 0 V
stroke
12809 1777 118 1170 80 45 0 PatternFill
12868 975 M
0 802 V
0 1170 R
0 571 V
stroke
12809 1777 N
118 0 V
0 1170 V
-118 0 V
0 -1170 V
Z stroke
12809 3518 M
118 0 V
12809 975 M
118 0 V
stroke
13687 955 118 1410 80 45 0 PatternFill
13746 894 M
0 61 V
0 1410 R
0 634 V
stroke
13687 955 N
118 0 V
0 1410 V
-118 0 V
0 -1410 V
Z stroke
13687 2999 M
118 0 V
13687 894 M
118 0 V
% End plot #3
% Begin plot #4
stroke
LTb
LCb setrgbcolor

 /TransparentPatterns true def
8414 1877 118 0 80 -45 0 PatternFill
8473 1877 M
stroke
8414 1877 N
118 0 V
-118 0 V
Z stroke
8414 1877 M
118 0 V
-118 0 R
118 0 V
stroke

 /TransparentPatterns true def
9293 1904 118 0 80 -45 0 PatternFill
9352 1904 M
stroke
9293 1904 N
118 0 V
-118 0 V
Z stroke
9293 1904 M
118 0 V
-118 0 R
118 0 V
stroke

 /TransparentPatterns true def
10172 1659 118 0 80 -45 0 PatternFill
10231 1659 M
stroke
10172 1659 N
118 0 V
-118 0 V
Z stroke
10172 1659 M
118 0 V
-118 0 R
118 0 V
stroke

 /TransparentPatterns true def
11051 2095 118 0 80 -45 0 PatternFill
11110 2095 M
stroke
11051 2095 N
118 0 V
-118 0 V
Z stroke
11051 2095 M
118 0 V
-118 0 R
118 0 V
stroke

 /TransparentPatterns true def
11930 1651 118 0 80 -45 0 PatternFill
11989 1651 M
stroke
11930 1651 N
118 0 V
-118 0 V
Z stroke
11930 1651 M
118 0 V
-118 0 R
118 0 V
stroke

 /TransparentPatterns true def
12809 2340 118 0 80 -45 0 PatternFill
12868 2340 M
stroke
12809 2340 N
118 0 V
-118 0 V
Z stroke
12809 2340 M
118 0 V
-118 0 R
118 0 V
stroke

 /TransparentPatterns true def
13687 1515 118 0 80 -45 0 PatternFill
13746 1515 M
stroke
13687 1515 N
118 0 V
-118 0 V
Z stroke
13687 1515 M
118 0 V
-118 0 R
118 0 V
% End plot #4
% Begin plot #5
stroke
LTb
0.00 0.38 0.82 C LCb setrgbcolor
12680 153 M
[ [(Arial) 180.0 0.0 true true 0 (per-flow)]
] -60.0 MRshow
1.000 UL
LTb
0.00 0.38 0.82 C 12788 108 333 90 40 30 0 PatternFill
12788 108 N
333 0 V
0 90 V
-333 0 V
0 -90 V
Z stroke
1.000 UL
LTb
0.00 0.38 0.82 C 8561 1023 118 399 40 30 0 PatternFill
8620 915 M
0 108 V
0 399 R
0 1010 V
stroke
8561 1023 N
118 0 V
0 399 V
-118 0 V
0 -399 V
Z stroke
8561 2432 M
118 0 V
8561 915 M
118 0 V
stroke
9440 961 118 372 40 30 0 PatternFill
9499 910 M
0 51 V
0 372 R
0 1662 V
stroke
9440 961 N
118 0 V
0 372 V
-118 0 V
0 -372 V
Z stroke
9440 2995 M
118 0 V
9440 910 M
118 0 V
stroke
10319 991 118 217 40 30 0 PatternFill
10378 902 M
0 89 V
0 217 R
0 844 V
stroke
10319 991 N
118 0 V
0 217 V
-118 0 V
0 -217 V
Z stroke
10319 2052 M
118 0 V
10319 902 M
118 0 V
stroke
11197 1266 118 341 40 30 0 PatternFill
11256 1000 M
0 266 V
0 341 R
0 1509 V
stroke
11197 1266 N
118 0 V
0 341 V
-118 0 V
0 -341 V
Z stroke
11197 3116 M
118 0 V
11197 1000 M
118 0 V
stroke
12076 1021 118 215 40 30 0 PatternFill
12135 915 M
0 106 V
0 215 R
0 800 V
stroke
12076 1021 N
118 0 V
0 215 V
-118 0 V
0 -215 V
Z stroke
12076 2036 M
118 0 V
12076 915 M
118 0 V
stroke
12955 1725 118 672 40 30 0 PatternFill
13014 1076 M
0 649 V
0 672 R
0 790 V
stroke
12955 1725 N
118 0 V
0 672 V
-118 0 V
0 -672 V
Z stroke
12955 3187 M
118 0 V
12955 1076 M
118 0 V
stroke
13834 964 118 190 40 30 0 PatternFill
13893 900 M
0 64 V
0 190 R
0 529 V
stroke
13834 964 N
118 0 V
0 190 V
-118 0 V
0 -190 V
Z stroke
13834 1683 M
118 0 V
13834 900 M
118 0 V
% End plot #5
% Begin plot #6
stroke
LTb
LCb setrgbcolor

 /TransparentPatterns true def
8561 1234 118 0 40 -30 0 PatternFill
8620 1234 M
stroke
8561 1234 N
118 0 V
-118 0 V
Z stroke
8561 1234 M
118 0 V
-118 0 R
118 0 V
stroke

 /TransparentPatterns true def
9440 1166 118 0 40 -30 0 PatternFill
9499 1166 M
stroke
9440 1166 N
118 0 V
-118 0 V
Z stroke
9440 1166 M
118 0 V
-118 0 R
118 0 V
stroke

 /TransparentPatterns true def
10319 1114 118 0 40 -30 0 PatternFill
10378 1114 M
stroke
10319 1114 N
118 0 V
-118 0 V
Z stroke
10319 1114 M
118 0 V
-118 0 R
118 0 V
stroke

 /TransparentPatterns true def
11197 1478 118 0 40 -30 0 PatternFill
11256 1478 M
stroke
11197 1478 N
118 0 V
-118 0 V
Z stroke
11197 1478 M
118 0 V
-118 0 R
118 0 V
stroke

 /TransparentPatterns true def
12076 1140 118 0 40 -30 0 PatternFill
12135 1140 M
stroke
12076 1140 N
118 0 V
-118 0 V
Z stroke
12076 1140 M
118 0 V
-118 0 R
118 0 V
stroke

 /TransparentPatterns true def
12955 2077 118 0 40 -30 0 PatternFill
13014 2077 M
stroke
12955 2077 N
118 0 V
-118 0 V
Z stroke
12955 2077 M
118 0 V
-118 0 R
118 0 V
stroke

 /TransparentPatterns true def
13834 1066 118 0 40 -30 0 PatternFill
13893 1066 M
stroke
13834 1066 N
118 0 V
-118 0 V
Z stroke
13834 1066 M
118 0 V
-118 0 R
118 0 V
% End plot #6
stroke
2.000 UL
LTb
LCb setrgbcolor
1.000 UP
1.000 UL
LTb
0.00 0.00 0.00 C stroke
grestore
end
showpage
%%Trailer
%%DocumentFonts: Arial
